time,bias_percent_1,bias_percent_2,bias_percent_3,bias_percent_4,bias_percent_5,bias_percent_6,bias_percent_8,bias_percent_9,load_fraction,SP,CV,total_power_MW,thermal_efficiency
0,0,0,0,0,0,0,0,0,1,0.04,0.0399999999999017,483.535990330301,0.355290406680714
60,-1.49722948552246e-05,5.85486966492e-05,3.74893394287677e-05,-3.24413528731649e-05,1.53168692351232e-05,9.50913728187881e-05,3.05938022072451e-05,-3.35085310693153e-06,0.999980844012067,0.04,0.039999999999889,477.038269847038,0.350522755413871
120,-0.00476516070026742,0.0186340137582447,0.0119315528215315,-0.0103249542751933,0.00487482674072236,0.0302642765903324,0.00973694315796661,-0.00106645999774754,0.993903315306198,0.04,0.0427657751876235,474.573764785277,0.350844169772695
180,-0.00953032140053483,0.0372680275164893,0.0238631056430628,-0.0206499085503866,0.00974965348144469,0.0605285531806648,0.0194738863159332,-0.00213291999549501,0.987806630612396,0.04,0.044981529810132,471.710573464839,0.35087978626248
240,-0.0142954821008021,0.055902041274734,0.0357946584645944,-0.0309748628255799,0.0146244802221671,0.0907928297709971,0.0292108294738998,-0.00319937999324252,0.981709945918595,0.04,0.0467189002863451,468.709014862423,0.350812277043401
300,-0.0190606428010695,0.0745360550329788,0.0477262112861258,-0.0412998171007732,0.0194993069628896,0.12105710636133,0.0389477726318664,-0.00426583999099007,0.975613261224793,0.04,0.0480977504347603,465.620563312112,0.350678485412027
360,-0.0238258035013369,0.0931700687912235,0.0596577641076573,-0.0516247713759665,0.024374133703612,0.151321382951662,0.048684715789833,-0.00533229998873755,0.969516576530991,0.04,0.0491966717352764,462.471010465305,0.3504966867553
420,-0.0285909642016043,0.111804082549468,0.0715893169291887,-0.0619497256511599,0.0292489604443343,0.181585659541995,0.0584216589477996,-0.00639875998648502,0.963419891837189,0.04,0.0500789943867842,459.276684415662,0.35027846102363
480,-0.0333561249018717,0.130438096307713,0.0835208697507202,-0.0722746799263532,0.0341237871850566,0.211849936132327,0.0681586021057662,-0.00746521998423254,0.957323207143387,0.04,0.0507831605638326,456.046074706981,0.350029551945456
540,-0.038121285602139,0.149072110065958,0.0954524225722517,-0.0825996342015465,0.0389986139257791,0.242114212722659,0.0778955452637328,-0.00853167998198004,0.951226522449585,0.04,0.051350924315382,452.78730987197,0.349755755703297
600,-0.0428864463024064,0.167706123824202,0.107383975393783,-0.0929245884767398,0.0438734406665014,0.272378489312992,0.0876324884216994,-0.00959813997972755,0.945129837755784,0.04,0.0518028733242425,449.504399083625,0.349459662464212
660,-0.0476516070026738,0.186340137582447,0.119315528215315,-0.103249542751933,0.0487482674072237,0.302642765903324,0.0973694315796661,-0.0106645999774751,0.939033153061982,0.04,0.0521625009295249,446.200522957163,0.349143329866345
720,-0.0524167677029412,0.204974151340691,0.131247081036846,-0.113574497027126,0.0536230941479461,0.332907042493656,0.107106374737633,-0.0117310599752226,0.93293646836818,0.04,0.0524443398818178,442.879562079671,0.348809438726019
780,-0.0571819284032086,0.223608165098936,0.143178633858378,-0.12389945130232,0.0584979208886686,0.363171319083989,0.116843317895599,-0.0127975199729701,0.926839783674378,0.04,0.0526636327296233,439.542195671848,0.348458043580948
840,-0.0619470891034759,0.242242178857181,0.155110186679909,-0.134224405577513,0.0633727476293909,0.393435595674321,0.126580261053566,-0.0138639799707176,0.920743098980576,0.04,0.0528308442702709,436.191136950513,0.348091085845989
900,-0.0666595700585228,0.260670190098624,0.166909833947303,-0.144435215546807,0.0681936822462482,0.423365295011052,0.136209560478812,-0.0149186500531814,0.914713814279464,0.04,0.052952690337253,432.826513314986,0.347682867906889
960,-0.0667122498037434,0.260876192615426,0.16704173950144,-0.144549359852706,0.0682475743701134,0.423699872264654,0.136317204211532,-0.0149304399684651,0.914646414286775,0.04,0.0500378649411098,431.807403625269,0.346889795607731
1020,-0.0667122498037434,0.260876192615426,0.16704173950144,-0.144549359852706,0.0682475743701133,0.423699872264654,0.136317204211532,-0.0149304399684651,0.914646414286775,0.04,0.0477300460629361,431.215648802301,0.346414413046279
1080,-0.0667122498037434,0.260876192615426,0.16704173950144,-0.144549359852706,0.0682475743701133,0.423699872264653,0.136317204211532,-0.0149304399684651,0.914646414286775,0.04,0.0459493671106347,430.759190312353,0.34604771995359
1140,-0.0667122498037434,0.260876192615426,0.167041739501441,-0.144549359852706,0.0682475743701133,0.423699872264653,0.136317204211532,-0.0149304399684651,0.914646414286775,0.04,0.0445202252576882,430.371707587684,0.345736438113506
1200,-0.0667122498037434,0.260876192615426,0.16704173950144,-0.144549359852706,0.0682475743701133,0.423699872264653,0.136317204211532,-0.0118450171973394,0.914646414286775,0.04,0.0436552816444813,429.866206728613,0.345330347138201
1260,-0.0667122498037434,0.260876192615426,0.16704173950144,-0.144549359852706,0.0682475743701133,0.423699872264654,0.136317204211532,-0.00584645188393198,0.914646414286775,0.04,0.0434285453842953,429.033483725002,0.34466138428556
1320,-0.0667122498037434,0.260876192615426,0.16704173950144,-0.144549359852706,0.0682475743701134,0.423699872264653,0.136317204211532,-0.00284349149403843,0.914646414286775,0.04,0.0433171946368758,428.251601468169,0.344033264031055
1380,-0.0667122498037434,0.260876192615426,0.16704173950144,-0.144549359852706,0.0682475743701133,0.423699872264653,0.136317204211532,-0.00119004108405016,0.914646414286775,0.04,0.0432559722433835,427.518717137915,0.343444505956526
1440,-0.0667122498037434,0.260876192615426,0.16704173950144,-0.144549359852706,0.0682475743701133,0.423699872264653,0.136317204211532,-0.000669837030803808,0.914646414286775,0.04,0.043233303166518,426.9109084499,0.342956226622305
1500,-0.0667122498037434,0.260876192615426,0.16704173950144,-0.144549359852706,0.0682475743701133,0.423699872264653,0.136317204211532,-0.000218423156452774,0.914646414286775,0.04,0.0432131630261816,426.3137035373,0.342476465765199
1560,-0.0667122498037434,0.260876192615426,0.16704173950144,-0.144549359852706,0.0682475743701133,0.423699872264653,0.136317204211532,-0.000134253014730264,0.914646414286775,0.04,0.04321148486009,425.85228913055,0.342105791367529
1620,-0.0667122498037434,0.260876192615426,0.16704173950144,-0.144549359852706,0.0682475743701133,0.423699872264653,0.136317204211532,-5.00828730077536e-05,0.914646414286775,0.04,0.0432098066939984,425.3908747238,0.34173511696986
1680,-0.0667122498037434,0.260876192615425,0.16704173950144,-0.144549359852706,0.0682475743701133,0.423699872264654,0.136317204211532,-1.55275970159025e-05,0.914646414286775,0.04,0.0432074255964707,424.995103373749,0.34141717651406
1740,-0.0667122498037434,0.260876192615425,0.16704173950144,-0.144549359852706,0.0682475743701133,0.423699872264653,0.136317204211532,-7.14007906591931e-06,0.914646414286775,0.04,0.0432073046714132,424.664149559888,0.341151306823355
1800,-0.0667843707111044,0.260016634556016,0.166710588453698,-0.144774347414322,0.0678068654551698,0.423001631334809,0.136576238185245,-3.03194626000205e-06,0.914312736678884,0.04,0.04320713882073,424.3726955878,0.341041616142339
1860,-0.0701122737453856,0.220353713237951,0.151430157065457,-0.155156035836924,0.0474710628572739,0.390782428968747,0.148528943422087,0.000949161795275598,0.898915721244647,0.04,0.0420578786512261,422.908892083911,0.345687595850122
1920,-0.073512297687028,0.179831233860476,0.135818574629474,-0.165762711821142,0.0266945513444345,0.357864985672841,0.160740682632642,0.0154038978591835,0.883185028202519,0.04,0.0401535122115501,421.24206352943,0.350457047416908
1980,-0.0769123216286704,0.139308754483001,0.12020699219349,-0.17636938780536,0.00591803983159518,0.324947542376935,0.172952421843196,0.0305710667730078,0.867454335160392,0.04,0.0375282485215321,419.78993084204,0.355583008186943
2040,-0.0803123455703126,0.0987862751055265,0.104595409757507,-0.186976063789578,-0.0148584716812442,0.292030099081028,0.185164161053751,0.0457382356868321,0.851723642118265,0.04,0.0346864795172404,418.344801134203,0.36090337449109
2100,-0.0837123695119549,0.0582637957280518,0.0889838273215234,-0.197582739773796,-0.0356349831940835,0.259112655785122,0.197375900264305,0.0609054046006564,0.835992949076137,0.04,0.0320754920307166,416.572043188682,0.36613596117812
2160,-0.0871123934535971,0.0177413163505771,0.07337224488554,-0.208189415758014,-0.0564114947069228,0.226195212489216,0.20958763947486,0.0760725735144807,0.820262256034009,0.04,0.0298009274140255,414.404367803532,0.371215777939271
2220,-0.0905124173952395,-0.0227811630268977,0.0577606624495566,-0.218796091742232,-0.0771880062197623,0.19327776919331,0.221799378685414,0.0912397424283049,0.804531562991882,0.04,0.027892593909691,411.875678624665,0.376164446826581
2280,-0.0939124413368818,-0.0633036424043725,0.0421490800135732,-0.229402767726449,-0.0979645177326016,0.160360325897404,0.234011117895969,0.106406911342129,0.788800869949755,0.04,0.0263416887309073,409.098244406705,0.381078924059295
2340,-0.0973124652785241,-0.103826121781847,0.0265374975775897,-0.240009443710667,-0.118741029245441,0.127442882601497,0.246222857106524,0.121574080255954,0.773070176907627,0.04,0.0250882240266799,406.417543384698,0.386285332522625
2400,-0.100712489220166,-0.144348601159322,0.0109259151416064,-0.250616119694885,-0.13951754075828,0.0945254393055912,0.258434596317078,0.136741249169778,0.757339483865499,0.04,0.0240441124181051,404.243375602604,0.392199524903088
2460,-0.104112513161809,-0.184871080536797,-0.004685667294377,-0.261222795679103,-0.16029405227112,0.0616079960096849,0.270646335527633,0.151908418083602,0.741608790823372,0.04,0.0232086747566653,401.682286000388,0.397981286322284
2520,-0.107512537103451,-0.225393559914272,-0.0202972497303604,-0.271829471663321,-0.181070563783959,0.0286905527137788,0.282858074738187,0.167075586997426,0.725878097781244,0.04,0.0225573797018222,398.384204901208,0.403267484512078
2580,-0.110912561045093,-0.265916039291746,-0.0359088321663438,-0.282436147647539,-0.201847075296798,-0.00422689058212748,0.295069813948742,0.182242755911251,0.710147404739117,0.04,0.0220525733789668,394.343181387558,0.40801939361301
2640,-0.114312584986736,-0.306438518669221,-0.0515204146023272,-0.293042823631757,-0.222623586809638,-0.0371443338780336,0.307281553159297,0.197409924825075,0.694416711696989,0.04,0.021658742542903,389.774297322258,0.412427878767459
2700,-0.117708711124708,-0.34691454288298,-0.0671140998457136,-0.303637340072015,-0.243376280030541,-0.0700240404598764,0.319479292773751,0.212559706024085,0.678686018654862,0.04,0.0213492526953511,384.864403722426,0.416671236012008
2760,-0.117712608928378,-0.346960998046696,-0.0671319970383106,-0.303649499615974,-0.243400098322477,-0.0700617771739398,0.319493292369851,0.212577093738899,0.662955325612734,0.04,0.0251771385491336,374.254468567163,0.414798700237418
2820,-0.117712608928378,-0.346960998046696,-0.0671319970383106,-0.303649499615974,-0.243400098322477,-0.0700617771739399,0.319493292369851,0.212577093738899,0.647224632570607,0.04,0.029109414396209,362.752789624429,0.411822534254147
2880,-0.117712608928378,-0.346960998046696,-0.0671319970383106,-0.303649499615974,-0.243400098322477,-0.0700617771739399,0.319493292369851,0.212577093738899,0.631493939528479,0.04,0.0324484298938029,351.710210647537,0.409232247692898
2940,-0.117712608928378,-0.346960998046696,-0.0671319970383106,-0.303649499615974,-0.243400098322477,-0.0700617771739399,0.319493292369851,0.212577093738899,0.615763246486352,0.04,0.0351551970087502,341.167837817444,0.407106481018824
3000,-0.117712608928378,-0.346960998046696,-0.0671319970383106,-0.303649499615974,-0.243400098322477,-0.0700617771739399,0.319493292369851,0.212577093738899,0.600032553444224,0.04,0.0372830860360441,331.085156536836,0.405433120113959
3060,-0.117712608928378,-0.346960998046696,-0.0671319970383106,-0.303649499615974,-0.243400098322477,-0.0700617771739399,0.319493292369851,0.212577093738899,0.584301860402097,0.04,0.0389014362861636,321.408622583574,0.404179740087158
3120,-0.117712608928378,-0.346960998046696,-0.0671319970383106,-0.303649499615974,-0.243400098322477,-0.0700617771739399,0.319493292369851,0.212577093738899,0.568571167359969,0.04,0.040106235415874,312.068612374916,0.403291984125485
3180,-0.117712608928378,-0.346960998046696,-0.0671319970383106,-0.303649499615974,-0.243400098322477,-0.0700617771739399,0.319493292369851,0.212577093738899,0.552840474317842,0.04,0.0409808828541084,303.001588830207,0.402716631433879
3240,-0.117712608928378,-0.346960998046696,-0.0671319970383106,-0.303649499615974,-0.243400098322477,-0.0700617771739399,0.319493292369851,0.212577093738899,0.537109781275714,0.04,0.0415989084809364,294.152612819511,0.402405808785279
3300,-0.117712608928378,-0.346960998046696,-0.0671319970383106,-0.303649499615974,-0.243400098322477,-0.0700617771739399,0.319493292369851,0.212577093738899,0.521379088233587,0.04,0.0420215694082248,285.472320574186,0.402313931866316
3360,-0.117712608928378,-0.346960998046696,-0.0671319970383106,-0.303649499615974,-0.243400098322477,-0.0700617771739399,0.319493292369851,0.212577093738899,0.505648395191459,0.04,0.0422986977012751,276.921255672808,0.402404104422314
3420,-0.117712608928378,-0.346960998046696,-0.0671319970383106,-0.303649499615974,-0.243400098322477,-0.0700617771739399,0.319493292369851,0.212577093738899,0.489917702149332,0.04,0.0424718167874634,268.462968172885,0.402639134630701
3480,-0.117712608928378,-0.346960998046696,-0.0671319970383107,-0.303649499615974,-0.243400098322477,-0.0700617771739399,0.319493292369851,0.212577093738899,0.474187009107204,0.04,0.042570944390971,260.069074477261,0.402989531055927
3540,-0.117712608928378,-0.346960998046696,-0.0671319970383107,-0.303649499615974,-0.243400098322477,-0.0700617771739399,0.319493292369851,0.212577093738899,0.458456316065077,0.04,0.0426205367267159,251.714671598031,0.403427291266513
3600,-0.11766313236735,-0.346770788617807,-0.0670466174859714,-0.303551930113751,-0.243297375176972,-0.0701007238655162,0.319482227914817,0.212418554832861,0.442780231374129,0.04,0.0426380134129952,243.379678481931,0.403878536491072
3660,-0.10346019922375,-0.292168533617533,-0.0425372326680806,-0.27554325109209,-0.21380927136405,-0.0812809119207937,0.316306022619715,0.166907762725748,0.442725623022949,0.04,0.0429154086293818,235.74685118822,0.391260422169642
3720,-0.0892077895191228,-0.23737606918837,-0.0179424682978506,-0.247437002568206,-0.184218444405622,-0.0925000466676474,0.313118752869579,0.121238431712597,0.442725623022949,0.04,0.0473238492951474,225.958746050066,0.375015462250592
3780,-0.0749553798144953,-0.182583604759208,0.00665229607237949,-0.219330754044322,-0.154627617447195,-0.103719181414501,0.309931483119443,0.0755691006994452,0.442725623022949,0.04,0.0522829635070845,216.971510628961,0.360099676494489
3840,-0.0607029701098678,-0.127791140330045,0.0312470604426095,-0.191224505520438,-0.125036790488767,-0.114938316161355,0.306744213369307,0.0298997696862938,0.442725623022949,0.04,0.0567853810797859,209.071502038918,0.346988321324717
3900,-0.0464505604052403,-0.0729986759008821,0.0558418248128395,-0.163118256996554,-0.0954459635303399,-0.126157450908209,0.303556943619171,-0.0157695613268575,0.442725623022949,0.04,0.0603620481046791,202.383978100427,0.335889282562352
3960,-0.0321981507006127,-0.0182062114717193,0.0804365891830695,-0.13501200847267,-0.0658551365719124,-0.137376585655062,0.300369673869035,-0.061438892340009,0.442725623022949,0.04,0.0629378197841453,197.013205142927,0.326975607218917
4020,-0.0179457409959852,0.0365862529574435,0.1050313535533,-0.106905759948785,-0.0362643096134849,-0.148595720401916,0.2971824041189,-0.10710822335316,0.442725623022949,0.04,0.064594309889803,193.891932269261,0.321795344848066
4080,-0.00369333129135765,0.0913787173866063,0.12962611792353,-0.0787995114249012,-0.00667348265505747,-0.15981485514877,0.293995134368764,-0.152777554366312,0.442725623022949,0.04,0.0642669358703475,194.409116931928,0.322653697307218
4140,0.0105590784132699,0.146171181815769,0.15422088229376,-0.0506932629010171,0.02291734430337,-0.171033989895624,0.290807864618628,-0.198446885379463,0.442725623022949,0.04,0.0623381749820919,196.856405639395,0.326715372820712
4200,0.0248114881178974,0.200963646244932,0.17881564666399,-0.0225870143771329,0.0525081712617974,-0.182253124642477,0.287620594868492,-0.145922680334916,0.442725623022949,0.04,0.0659532783022388,197.744472022255,0.328189264099093
4260,0.039063897822525,0.255756110674095,0.20341041103422,0.00551923414675123,0.0820989982202249,-0.193472259389331,0.284433325118356,-0.0812193826576589,0.442725623022949,0.04,0.0690076261149094,197.936294102175,0.32850762418574
4320,0.0533163075271524,0.310548575103257,0.22800517540445,0.0336254826706353,0.111689825178652,-0.204691394136185,0.28124605536822,-0.0388060594552896,0.442725623022949,0.04,0.0729052885743612,197.022654316811,0.326991289667036
4380,0.06756871723178,0.36534103953242,0.25259993977468,0.0617317311945195,0.14128065213708,-0.215910528883039,0.278058785618084,-0.0183190321890373,0.442725623022949,0.04,0.0776688781490945,194.805492906977,0.323311548008314
4440,0.0818211269364075,0.420133503961583,0.27719470414491,0.0898379797184036,0.170871479095507,-0.227129663629892,0.274871515867948,-0.00861452669650351,0.442725623022949,0.04,0.0825525448209698,191.57324427219,0.317947103227695
4500,0.0959024804946333,0.474268354133834,0.301494284353162,0.117606899561599,0.200107159595669,-0.238214147325062,0.271722499444253,-0.00398998854828323,0.442725623022949,0.04,0.0872284142696638,187.548810158584,0.311267897196535
4560,0.0960735366410351,0.474925968390746,0.30178946851514,0.117944228242288,0.200462306053935,-0.238348798376746,0.271684246117812,-0.00191547034465719,0.442725623022949,0.04,0.0876217509732578,183.508912569852,0.304563027001568
4620,0.0960735366410351,0.474925968390746,0.30178946851514,0.117944228242288,0.200462306053935,-0.238348798376746,0.271684246117812,-0.0011044866067191,0.442725623022949,0.04,0.0875780708312437,180.18993672049,0.29905464423655
4680,0.096073536641035,0.474925968390746,0.30178946851514,0.117944228242288,0.200462306053935,-0.238348798376746,0.271684246117812,-0.000413565930750014,0.442725623022949,0.04,0.0875409050019259,176.943456406373,0.293666579658531
4740,0.096073536641035,0.474925968390746,0.30178946851514,0.117944228242288,0.200462306053935,-0.238348798376746,0.271684246117812,-0.000215966411290558,0.442725623022949,0.04,0.0875301294264259,174.460270534673,0.289545326935154
4800,0.096073536641035,0.474925968390746,0.30178946851514,0.117944228242288,0.200462306053935,-0.238348798376746,0.271684246117812,-0.000122027629521061,0.442725623022949,0.04,0.087524899190189,172.137474429217,0.285690267237626
4860,0.096073536641035,0.474925968390746,0.30178946851514,0.117944228242288,0.200462306053935,-0.238348798376746,0.271684246117812,-2.80888477515647e-05,0.442725623022949,0.04,0.0875196689539522,169.814678323761,0.281835207540098
4920,0.0960735366410351,0.474925968390746,0.30178946851514,0.117944228242288,0.200462306053935,-0.238348798376746,0.271684246117812,-3.16598085940363e-06,0.442725623022949,0.04,0.0875183261474229,168.204561001976,0.279162954740585
4980,0.0960735366410351,0.474925968390746,0.30178946851514,0.117944228242288,0.200462306053935,-0.238348798376746,0.271684246117812,-2.20528890148964e-06,0.442725623022949,0.04,0.0875183330479991,166.841884197593,0.276901369913147
5040,0.0960735366410351,0.474925968390746,0.30178946851514,0.117944228242288,0.200462306053935,-0.238348798376746,0.271684246117812,-1.24459694357566e-06,0.442725623022949,0.04,0.0875183399485753,165.479207393211,0.27463978508571
5100,0.0960735366410351,0.474925968390746,0.30178946851514,0.117944228242288,0.200462306053935,-0.238348798376746,0.271684246117812,-2.8390498566168e-07,0.442725623022949,0.04,0.0875183468491515,164.116530588829,0.272378200258272
5160,0.0960735366410351,0.474925968390746,0.30178946851514,0.117944228242288,0.200462306053935,-0.238348798376746,0.271684246117812,6.76786972252301e-07,0.442725623022949,0.04,0.0875183537497277,162.753853784446,0.270116615430835
5220,0.096073536641035,0.474925968390746,0.30178946851514,0.117944228242288,0.200462306053935,-0.238348798376746,0.271684246117812,8.88754492220342e-07,0.442725623022949,0.04,0.0875183624332224,161.677473617494,0.268330186656011
5280,0.096073536641035,0.474925968390746,0.30178946851514,0.117944228242288,0.200462306053935,-0.238348798376746,0.271684246117812,6.75462485402756e-07,0.442725623022949,0.04,0.0875183728534573,160.877754936183,0.267002922824958
5340,0.096073536641035,0.474925968390746,0.30178946851514,0.117944228242288,0.200462306053935,-0.238348798376746,0.271684246117812,5.83357510257722e-07,0.442725623022949,0.04,0.087518378045127,160.185914770533,0.26585470101872
5400,0.0958218682655105,0.474427979900646,0.301686062314413,0.117923365621254,0.200131019635668,-0.238114135911054,0.271796310617702,5.38578636908996e-07,0.442725623022949,0.04,0.0875183806794399,159.57708469606,0.264844248023199
5460,0.0645250499824106,0.412499439021299,0.288826738743326,0.115328944856007,0.158933110639133,-0.208932127916084,0.285732357535563,5.18266023899402e-07,0.442725623022949,0.04,0.0850164723955552,159.133421273671,0.264107916076154
5520,0.0329765633237861,0.350072909651853,0.275864008971512,0.112713661469726,0.117403915224331,-0.179515457455423,0.299780468953314,5.08595890480809e-07,0.442725623022949,0.04,0.0816031026331506,159.368730519311,0.264498450220409
5580,0.00142807666516158,0.287646380282406,0.262901279199697,0.110098378083445,0.0758747198095289,-0.150098786994761,0.313828580371065,5.04060598184411e-07,0.442725623022949,0.04,0.0777063489758181,160.1571533691,0.265806966773235
5640,-0.0301204099934628,0.225219850912959,0.249938549427883,0.107483094697164,0.0343455243947271,-0.120682116534099,0.327876691788816,5.01919694926826e-07,0.442725623022949,0.04,0.0731962745944141,161.383097450024,0.267841621303047
5700,-0.0616688966520873,0.162793321543513,0.236975819656069,0.104867811310884,-0.00718367102007481,-0.0912654460734379,0.341924803206567,5.00904445003554e-07,0.442725623022949,0.04,0.0676832559046782,162.987363721446,0.270504163328382
