time,bias_percent_1,bias_percent_2,bias_percent_3,bias_percent_4,bias_percent_5,bias_percent_6,bias_percent_8,bias_percent_9,load_fraction,SP,CV,total_power_MW,thermal_efficiency
0,0,0,0,0,0,0,0,0,1,0.04,0.0399999999999017,483.535990330301,0.355290406680714
60,3.76842607803222e-05,3.5941955636806e-05,-3.05641015305743e-05,-1.59800114534241e-05,3.7163515697228e-05,2.70289110859923e-05,3.45061748874458e-06,-2.25136994921402e-05,0.999964476297148,0.04,0.0399999073331779,477.038267462161,0.350528494750216
120,0.0345536662322107,0.0329561019133894,-0.0280250094099365,-0.0146524827796833,0.0340761816956736,0.0247835025272228,0.00316395976814531,-0.0206433890912321,0.967427404803307,0.04,0.0471266922841467,469.361109363512,0.356486943985065
180,0.0691073324644215,0.0659122038267788,-0.0560500188198728,-0.0293049655593665,0.0681523633913472,0.0495670050544457,0.00632791953629062,-0.0412867781824642,0.934854809606614,0.04,0.0520669569999414,460.418473358754,0.361879440780532
240,0.103660998696632,0.0988683057401681,-0.0840750282298092,-0.0439574483390497,0.102228545087021,0.0743505075816685,0.00949187930443598,-0.0619301672736963,0.902282214409921,0.04,0.0554254920835724,450.880139011095,0.367175593874532
300,0.138214664928843,0.131824407653557,-0.112100037639746,-0.0586099311187329,0.136304726782694,0.0991340101088912,0.0126558390725813,-0.0825735563649283,0.869709619213228,0.04,0.0577727789905925,441.182081877032,0.372735099132936
360,0.172768331161054,0.164780509566947,-0.140125047049682,-0.0732624138984163,0.170380908478368,0.123917512636114,0.0158197988407266,-0.10321694545616,0.837137024016535,0.04,0.0594477546853421,431.431153132915,0.378678270853139
420,0.207321997393264,0.197736611480336,-0.168150056459618,-0.0879148966780995,0.204457090174041,0.148701015163337,0.0189837586088719,-0.123860334547393,0.804564428819842,0.04,0.0606359757500247,421.563097857791,0.384998345965878
480,0.241875663625475,0.230692713393726,-0.196175065869555,-0.102567379457783,0.238533271869715,0.173484517690559,0.0221477183770172,-0.144503723638625,0.771991833623149,0.04,0.0614504716481165,411.526950347688,0.391689826001376
540,0.276429329857686,0.263648815307115,-0.224200075279491,-0.117219862237466,0.272609453565388,0.198268020217782,0.0253116781451626,-0.16493407898241,0.739419238426456,0.04,0.0619470312623953,401.276507927966,0.398757060055431
600,0.310982996089897,0.296604917220504,-0.252225084689427,-0.131872345017149,0.306685635261062,0.223051522745005,0.0284756379133079,-0.113916186049346,0.706846643229763,0.04,0.0651102240832432,388.533128632533,0.403885575107488
660,0.345536662322107,0.329561019133894,-0.280250094099364,-0.146524827796832,0.340761816956735,0.247835025272228,0.0316395976814532,-0.0575576499904328,0.67427404803307,0.04,0.068564221446092,374.966361508403,0.408611981873534
720,0.380090328554318,0.362517121047283,-0.3082751035093,-0.161177310576516,0.374837998652409,0.272618527799451,0.0348035574495985,-0.027173096443615,0.641701452836377,0.04,0.0731839612996891,360.123146632562,0.41235652705969
780,0.414643994786529,0.395473222960673,-0.336300112919237,-0.175829793356199,0.408914180348083,0.297402030326674,0.0379675172177438,-0.012833173252595,0.609128857639684,0.04,0.0786303195918513,344.214603237943,0.415216774695978
840,0.449197661018739,0.428429324874062,-0.364325122329173,-0.190482276135882,0.442990362043756,0.322185532853896,0.0411314769858891,-0.00606132787179359,0.576556262442991,0.04,0.084659450151726,327.536432955939,0.417419440407834
900,0.483633866171663,0.461273396438086,-0.392254864052312,-0.205084949542807,0.476950705812043,0.346884786811494,0.0442846812490559,-0.00286215399383954,0.544094393910186,0.04,0.0912340519939656,310.239562817856,0.418964851716842
960,0.48375132725095,0.461385426787451,-0.392350131739109,-0.205134758915565,0.47706654373943,0.346969035381119,0.0442954367540345,-0.00135300299337,0.543983667246298,0.04,0.0872178747427512,298.702268974956,0.403466366654131
1020,0.48375132725095,0.461385426787451,-0.392350131739109,-0.205134758915565,0.47706654373943,0.346969035381119,0.0442954367540345,-0.000645915174418324,0.543983667246298,0.04,0.0847840297653518,289.431493560387,0.390944044391837
1080,0.48375132725095,0.461385426787451,-0.392350131739109,-0.205134758915565,0.47706654373943,0.346969035381119,0.0442954367540345,-0.000304488057040638,0.543983667246298,0.04,0.0835734907859031,281.443903256095,0.380154959831303
1140,0.48375132725095,0.461385426787451,-0.392350131739109,-0.205134758915565,0.47706654373943,0.346969035381119,0.0442954367540345,-0.000141257259239501,0.543983667246298,0.04,0.082993457572499,274.523192448067,0.370806942308834
1200,0.48375132725095,0.461385426787451,-0.392350131739109,-0.205134758915565,0.47706654373943,0.346969035381119,0.0442954367540345,-6.65240993508048e-05,0.543983667246298,0.04,0.0827209351828965,268.535701118951,0.362719453116932
1260,0.48375132725095,0.461385426787451,-0.392350131739109,-0.205134758915565,0.47706654373943,0.346969035381119,0.0442954367540345,-3.15494694650812e-05,0.543983667246298,0.04,0.0825922223193901,263.304834964852,0.355653960883175
1320,0.48375132725095,0.461385426787451,-0.392350131739109,-0.205134758915565,0.47706654373943,0.346969035381119,0.0442954367540345,-1.6194568421326e-05,0.543983667246298,0.04,0.0825368901574494,258.891575696879,0.349692835485425
1380,0.48375132725095,0.461385426787451,-0.392350131739109,-0.205134758915565,0.47706654373943,0.346969035381119,0.0442954367540345,-5.71434419824996e-06,0.543983667246298,0.04,0.082499790011246,254.681457326943,0.344006098763502
1440,0.48375132725095,0.461385426787451,-0.392350131739109,-0.205134758915565,0.47706654373943,0.346969035381119,0.0442954367540345,-3.07502179523329e-06,0.543983667246298,0.04,0.0824902628325264,251.49782478545,0.339705868106782
1500,0.48375132725095,0.461385426787451,-0.392350131739109,-0.205134758915565,0.47706654373943,0.346969035381119,0.0442954367540345,-1.41304617701576e-06,0.543983667246298,0.04,0.0824841725481508,248.442140871181,0.335578461606776
1560,0.48375132725095,0.461385426787451,-0.392350131739109,-0.205134758915565,0.47706654373943,0.346969035381119,0.0442954367540345,2.48929441201771e-07,0.543983667246298,0.04,0.0824780822637752,245.386456956911,0.33145105510677
1620,0.48375132725095,0.461385426787451,-0.392350131739109,-0.205134758915565,0.47706654373943,0.346969035381119,0.0442954367540345,4.21146295518177e-07,0.543983667246298,0.04,0.0824772760093915,243.033633075799,0.328273023329686
1680,0.48375132725095,0.461385426787451,-0.392350131739109,-0.205134758915565,0.47706654373943,0.346969035381119,0.0442954367540345,4.6324196218268e-07,0.543983667246298,0.04,0.0824771070271535,240.996476527898,0.325521373154721
1740,0.48375132725095,0.461385426787451,-0.392350131739109,-0.205134758915565,0.47706654373943,0.346969035381119,0.0442954367540345,4.82963051741667e-07,0.543983667246298,0.04,0.0824770361278277,239.211814343112,0.323110774902918
1800,0.483685114581747,0.460919884574874,-0.391786272576759,-0.20475945036794,0.476533745303562,0.346841908738594,0.0445221637463733,4.92159417831533e-07,0.544055564026431,0.04,0.0824770027695873,237.646239004254,0.320953689038445
1860,0.477516684645911,0.417549566552246,-0.339256661876725,-0.169795379167952,0.426897778937331,0.334998679990484,0.0656442478375675,4.96277987960687e-07,0.550753530687511,0.04,0.0806157876520875,237.217341145315,0.316479237494178
1920,0.471282042040871,0.37371370631704,-0.286163192014341,-0.134455999420338,0.376729014135233,0.32302832459985,0.0869930589211005,4.98239943240783e-07,0.557523394128724,0.04,0.0791782542371927,237.444104779847,0.312935368420696
1980,0.465047399435832,0.329877846081834,-0.233069722151957,-0.0991166196727248,0.326560249333134,0.311057969209215,0.108341870004633,4.99170628498485e-07,0.564293257569937,0.04,0.0780500050957754,238.107588730679,0.310044788187348
2040,0.458812756830792,0.286041985846628,-0.179976252289573,-0.0637772399251113,0.276391484531036,0.299087613818581,0.129690681088166,4.99610737042726e-07,0.57106312101115,0.04,0.0770789776337018,239.118505317221,0.307669439232849
2100,0.452578114225753,0.242206125611423,-0.126882782427189,-0.0284378601774978,0.226222719728937,0.287117258427946,0.1510394921717,4.99815683940836e-07,0.577832984452363,0.04,0.0761915442299404,240.417935674899,0.305717526838372
2160,0.446343471620713,0.198370265376217,-0.0737893125648052,0.00690151957011577,0.176053954926838,0.275146903037311,0.172388303255232,4.99912792921797e-07,0.584602847893576,0.04,0.0753515985491859,241.947198737906,0.304099494546162
2220,0.440108829015674,0.154534405141011,-0.0206958427024212,0.0422408993177292,0.12588519012474,0.263176547646676,0.193737114338766,4.99958853079694e-07,0.59137271133479,0.04,0.0745404759830402,243.663667135545,0.302750949597221
2280,0.433874186410634,0.110698544905805,0.0323976271599628,0.0775802790653427,0.0757164253226412,0.251206192256042,0.215085925422298,4.99980617945185e-07,0.598142574776003,0.04,0.0737475284259152,245.530926710009,0.301618153123699
2340,0.427639543805595,0.0668626846705995,0.0854910970223468,0.112919658812956,0.0255476605205426,0.239235836865407,0.236434736505832,4.99991043341092e-07,0.604912438217216,0.04,0.0729693839020168,247.514291851518,0.30065108431492
2400,0.421404901200555,0.0230268244353937,0.138584566884731,0.14825903856057,-0.0246211042815561,0.227265481474772,0.257783547589365,4.99995682949902e-07,0.611682301658429,0.04,0.0722048769864965,249.595598635385,0.299824526250607
2460,0.415170258595516,-0.0208090357998121,0.191678036747115,0.183598418308183,-0.0747898690836547,0.215295126084138,0.279132358672898,4.9999802777586e-07,0.618452165099642,0.04,0.0714494897946078,251.737600429543,0.299086633045772
2520,0.408935615990476,-0.0646448960350178,0.244771506609499,0.218937798055797,-0.124958633885753,0.203324770693503,0.300481169756431,4.99999062542076e-07,0.625222028540855,0.04,0.070704446465806,253.927954421181,0.298422761599885
2580,0.402700973385437,-0.108480756270224,0.297864976471883,0.25427717780341,-0.175127398687852,0.191354415302869,0.321829980839964,4.99999560155403e-07,0.631991891982068,0.04,0.0699652911340614,256.14298004158,0.297801266444684
2640,0.396466330780397,-0.152316616505429,0.350958446334267,0.289616557551024,-0.22529616348995,0.179384059912234,0.343178791923497,4.99999795900517e-07,0.638761755423281,0.04,0.0692337764386891,258.365880245476,0.297201881350484
2700,0.390302966420255,-0.195651318393785,0.403444919198257,0.324551915909802,-0.274891368309495,0.167550556940751,0.36428353035025,4.99999905684335e-07,0.645531618864494,0.04,0.0685091741885849,260.582646116203,0.296607865936348
2760,0.390231688175358,-0.196152476740635,0.404051916196651,0.324955937298637,-0.275464928292049,0.167413704521599,0.36452760300703,4.9999995340662e-07,0.652301482305707,0.04,0.0679494220729527,263.057128995926,0.296317273704306
2820,0.390231688175358,-0.196152476740635,0.404051916196651,0.324955937298637,-0.275464928292049,0.167413704521599,0.36452760300703,4.99999977122955e-07,0.65907134574692,0.04,0.0674447496900041,265.664909235307,0.296180774466328
2880,0.390231688175358,-0.196152476740635,0.404051916196651,0.324955937298637,-0.275464928292049,0.167413704521599,0.36452760300703,4.99999990173485e-07,0.665841209188133,0.04,0.0669458600350958,268.357824001052,0.296140595591906
2940,0.390231688175358,-0.196152476740635,0.404051916196651,0.324955937298637,-0.275464928292049,0.167413704521599,0.36452760300703,4.99999995000058e-07,0.672611072629346,0.04,0.066457985920024,271.163629873639,0.296224836491246
3000,0.390231688175358,-0.196152476740635,0.404051916196651,0.324955937298637,-0.275464928292049,0.167413704521599,0.36452760300703,4.99999997810552e-07,0.67938093607056,0.04,0.0659754340262795,274.040127868242,0.296383078784246
3060,0.390231688175358,-0.196152476740635,0.404051916196651,0.324955937298637,-0.275464928292049,0.167413704521599,0.36452760300703,4.99999999082966e-07,0.686150799511773,0.04,0.0654969424892813,276.970557335611,0.296597777214546
3120,0.390231688175357,-0.196152476740635,0.404051916196651,0.324955937298637,-0.275464928292049,0.167413704521599,0.36452760300703,4.99999999545517e-07,0.692920662952986,0.04,0.0650294196239044,279.984467545941,0.296893955778817
3180,0.390231688175357,-0.196152476740635,0.404051916196651,0.324955937298637,-0.275464928292049,0.167413704521599,0.36452760300703,4.99999999844822e-07,0.699690526394199,0.04,0.0645641077542737,283.015205278687,0.297206558595344
3240,0.390231688175358,-0.196152476740635,0.404051916196651,0.324955937298637,-0.275464928292049,0.167413704521599,0.36452760300703,4.99999999909652e-07,0.706460389835412,0.04,0.0641094681669134,286.124987687559,0.297589408276343
3300,0.390231688175358,-0.196152476740635,0.404051916196651,0.324955937298637,-0.275464928292049,0.167413704521599,0.36452760300703,4.99999999971271e-07,0.713230253276625,0.04,0.0636552447165268,289.236996229595,0.297974044773399
3360,0.390231688175358,-0.196152476740635,0.404051916196651,0.324955937298637,-0.275464928292049,0.167413704521599,0.36452760300703,4.99999999982953e-07,0.720000116717838,0.04,0.0632130343935593,292.407094347478,0.298403394091804
3420,0.390231688175358,-0.196152476740635,0.404051916196651,0.324955937298637,-0.275464928292049,0.167413704521599,0.36452760300703,4.99999999994635e-07,0.726769980159051,0.04,0.0627708240705918,295.577192465361,0.29883274341021
3480,0.390231688175358,-0.196152476740635,0.404051916196651,0.324955937298637,-0.275464928292049,0.167413704521599,0.36452760300703,4.99999999996922e-07,0.733539843600264,0.04,0.0623423012975764,298.787046644013,0.299285441201218
3540,0.390231688175358,-0.196152476740635,0.404051916196651,0.324955937298637,-0.275464928292049,0.167413704521599,0.36452760300703,4.9999999999885e-07,0.740309707041477,0.04,0.0619143020389279,301.998421392018,0.299739032012591
3600,0.389626157920386,-0.195914893687145,0.403094730531158,0.325152178507627,-0.274380542625773,0.167340494345957,0.364448333659998,4.99999999999597e-07,0.746917358371135,0.04,0.0614915204704096,305.224385569472,0.300262654659362
3660,0.364960103357353,-0.186237034467863,0.364104120799998,0.3331459927369,-0.230208487155186,0.164358304484868,0.361219325657488,4.99999999999808e-07,0.74707957048269,0.04,0.0623010990086993,307.29340934868,0.302232429132267
3720,0.339688518539348,-0.17632159219509,0.324156325403346,0.341336048175163,-0.184952046018324,0.161302904448136,0.357911048307947,4.9999999999991e-07,0.74707957048269,0.04,0.0625166055618131,309.046633715173,0.303956778704951
3780,0.314416933721344,-0.166406149922318,0.284208530006693,0.349526103613426,-0.139695604881462,0.158247504411405,0.354602770958406,4.99999999999958e-07,0.74707957048269,0.04,0.0623550066114576,310.597454172848,0.30548205786751
3840,0.289145348903339,-0.156490707649546,0.244260734610041,0.357716159051689,-0.0944391637445994,0.155192104374673,0.351294493608865,4.9999999999998e-07,0.74707957048269,0.04,0.0619521188318067,311.960987391108,0.306823134324798
3900,0.263873764085335,-0.146575265376773,0.204312939213388,0.365906214489952,-0.0491827226077369,0.152136704337942,0.347986216259323,4.99999999999991e-07,0.74707957048269,0.04,0.0613958002214814,313.147113666112,0.307989725649069
3960,0.23860217926733,-0.136659823104001,0.164365143816735,0.374096269928215,-0.00392628147087448,0.149081304301211,0.344677938909782,4.99999999999996e-07,0.74707957048269,0.04,0.0607398802288465,314.161684126267,0.308987586603355
4020,0.213330594449325,-0.126744380831229,0.124417348420083,0.382286325366477,0.0413301596659879,0.146025904264479,0.341369661560241,4.99999999999998e-07,0.74707957048269,0.04,0.060018328442221,315.011539911259,0.309823445656937
4080,0.188059009631321,-0.116828938558456,0.0844695530234302,0.39047638080474,0.0865866008028503,0.142970504227748,0.3380613842107,4.99999999999999e-07,0.74707957048269,0.04,0.0592497487170449,315.703866500635,0.310504369947841
4140,0.162787424813316,-0.106913496285684,0.0445217576267776,0.398666436243003,0.131843041939713,0.139915104191016,0.334753106861158,4.99999999999999e-07,0.74707957048269,0.04,0.058448412226625,316.251580883285,0.311043063728127
4200,0.137515839995312,-0.0969980540129116,0.00457396223012487,0.406856491681266,0.177099483076575,0.136859704154285,0.331444829511617,5e-07,0.74707957048269,0.04,0.0576219132007283,316.690342372245,0.311474599018451
4260,0.112244255177307,-0.0870826117401393,-0.0353738331665276,0.415046547119529,0.222355924213438,0.133804304117553,0.328136552162076,5e-07,0.74707957048269,0.04,0.0567742070772344,317.127582432114,0.311904637936918
4320,0.0869726703593022,-0.077167169467367,-0.0753216285631803,0.423236602557792,0.2676123653503,0.130748904080822,0.324828274812535,5e-07,0.74707957048269,0.04,0.0559100222473938,317.574322327619,0.312344020233124
4380,0.0617010855412977,-0.0672517271945947,-0.115269423959833,0.431426657996055,0.312868806487162,0.127693504044091,0.321519997462994,5e-07,0.74707957048269,0.04,0.0550320982966401,318.028590659251,0.312790806975599
4440,0.0364295007232931,-0.0573362849218224,-0.155217219356485,0.439616713434318,0.358125247624025,0.124638104007359,0.318211720113452,5e-07,0.74707957048269,0.04,0.054141791491146,318.48916236362,0.313243793277181
4500,0.0114069681097384,-0.0475185596214487,-0.194771328065971,0.44772605563769,0.402935685215329,0.121612815026982,0.314936045933549,5e-07,0.74707957048269,0.04,0.0532416429753845,318.955435762269,0.313702387368776
4560,0.0111579159052885,-0.04742084264905,-0.195165014753138,0.447806768872581,0.403381688760887,0.121582703970628,0.314903442763911,5e-07,0.74707957048269,0.04,0.0531138123062343,319.336559442132,0.31407723411804
4620,0.0111579159052885,-0.04742084264905,-0.195165014753138,0.447806768872581,0.403381688760887,0.121582703970628,0.314903442763911,5e-07,0.74707957048269,0.04,0.0531138394586164,319.617647325811,0.314353692614381
4680,0.0111579159052885,-0.04742084264905,-0.195165014753138,0.447806768872581,0.403381688760887,0.121582703970628,0.314903442763911,5e-07,0.74707957048269,0.04,0.0531138593902651,319.861174895217,0.314593209397439
4740,0.0111579159052885,-0.04742084264905,-0.195165014753138,0.447806768872581,0.403381688760887,0.121582703970628,0.314903442763911,5e-07,0.74707957048269,0.04,0.053113859494912,320.001567728725,0.314731290025962
4800,0.0111579159052885,-0.04742084264905,-0.195165014753138,0.447806768872581,0.403381688760887,0.121582703970628,0.314903442763911,5e-07,0.74707957048269,0.04,0.0531138595995589,320.141960562233,0.314869370654485
4860,0.0111579159052885,-0.04742084264905,-0.195165014753138,0.447806768872581,0.403381688760887,0.121582703970628,0.314903442763911,5e-07,0.74707957048269,0.04,0.0531138597042058,320.282353395741,0.315007451283009
4920,0.0111579159052885,-0.04742084264905,-0.195165014753138,0.447806768872581,0.403381688760887,0.121582703970628,0.314903442763911,5e-07,0.74707957048269,0.04,0.0531138598088527,320.422746229249,0.315145531911532
4980,0.0111579159052885,-0.04742084264905,-0.195165014753138,0.447806768872581,0.403381688760887,0.121582703970628,0.314903442763911,5e-07,0.74707957048269,0.04,0.0531138599134995,320.563139062757,0.315283612540055
5040,0.0111579159052885,-0.04742084264905,-0.195165014753138,0.447806768872581,0.403381688760887,0.121582703970628,0.314903442763911,5e-07,0.74707957048269,0.04,0.0531138600181464,320.703531896265,0.315421693168578
5100,0.0111579159052885,-0.04742084264905,-0.195165014753138,0.447806768872581,0.403381688760887,0.121582703970628,0.314903442763911,5e-07,0.74707957048269,0.04,0.0531138601227933,320.843924729773,0.315559773797101
5160,0.0111579159052885,-0.04742084264905,-0.195165014753138,0.447806768872581,0.403381688760887,0.121582703970628,0.314903442763911,5e-07,0.74707957048269,0.04,0.0531138602274402,320.984317563281,0.315697854425624
5220,0.0111579159052885,-0.04742084264905,-0.195165014753138,0.447806768872581,0.403381688760887,0.121582703970628,0.314903442763911,5e-07,0.74707957048269,0.04,0.0531138603320871,321.124710396789,0.315835935054148
5280,0.0111579159052885,-0.04742084264905,-0.195165014753138,0.447806768872581,0.403381688760887,0.121582703970628,0.314903442763911,5e-07,0.74707957048269,0.04,0.0531138602757114,321.223978276134,0.315933568037467
5340,0.0111579159052885,-0.04742084264905,-0.195165014753138,0.447806768872581,0.403381688760887,0.121582703970628,0.314903442763911,5e-07,0.74707957048269,0.04,0.0531138600272589,321.274189987247,0.315982952784939
5400,0.0110670096474814,-0.0472401789148095,-0.194901018351416,0.44753445366396,0.403238842424766,0.121349895937082,0.314949822641345,5e-07,0.74707957048269,0.04,0.0531138599270369,321.316758072071,0.31602481979311
5460,-0.00465100444695703,-0.0160027790960921,-0.149255105042031,0.400450189164627,0.378540204744013,0.0810965619989476,0.322969067793382,5e-07,0.74707957048269,0.04,0.052387017467158,321.972372854952,0.316669636903979
5520,-0.0204599247992024,0.0154152844568658,-0.103345195330923,0.353093609456673,0.353698720727139,0.0406104200272675,0.331034692822853,5e-07,0.74707957048269,0.04,0.0515676678320342,322.950102177096,0.317631263476744
5580,-0.0362688451514479,0.0468333480098238,-0.0574352856198159,0.30573702974872,0.328857236710264,0.000124278055587638,0.339100317852324,5e-07,0.74707957048269,0.04,0.0506672823606137,324.193450609434,0.318854134535905
5640,-0.0520777655036935,0.0782514115627817,-0.0115253759087085,0.258380450040766,0.30401575269339,-0.0403618639160924,0.347165942881795,5e-07,0.74707957048269,0.04,0.0496856291670457,325.667960486935,0.320304359918224
5700,-0.067886685855939,0.10966947511574,0.0343845338023989,0.211023870332812,0.279174268676516,-0.0808480058877725,0.355231567911267,5e-07,0.74707957048269,0.04,0.0486224647172625,327.348225301229,0.321956951548762
5760,-0.0836956062081845,0.141087538668697,0.0802944435135063,0.163667290624858,0.254332784659641,-0.121334147859453,0.363297192940738,5.0000000008699e-07,0.74707957048269,0.04,0.0474760416544588,329.210381547927,0.323788438944005
5820,-0.0995045265604299,0.172505602221655,0.126204353224614,0.116310710916905,0.229491300642767,-0.161820289831133,0.371362817970209,5.00000000040771e-07,0.74707957048269,0.04,0.046245646664017,331.234939890293,0.325779653747571
5880,-0.115313446912675,0.203923665774613,0.172114262935721,0.068954131208951,0.204649816625893,-0.202306431802813,0.37942844299968,5.00000000019415e-07,0.74707957048269,0.04,0.0449202643770185,333.412459906644,0.327921311017152
5940,-0.131122367264921,0.235341729327571,0.218024172646828,0.0215975515009973,0.179808332609019,-0.242792573774493,0.387494068029151,5.00000000009112e-07,0.74707957048269,0.04,0.0435003551349573,335.722773733783,0.330193575044924
6000,-0.146931287617166,0.266759792880529,0.263934082357936,-0.0257590282069564,0.154966848592144,-0.283278715746173,0.395559693058622,0.00292987083481364,0.74707957048269,0.04,0.0420655419509655,338.140326264009,0.332571311603978
6060,-0.162740207969412,0.298177856433487,0.309843992069043,-0.0731156079149102,0.13012536457527,-0.323764857717853,0.403625318088093,0.0417109375173175,0.74707957048269,0.04,0.042168629659119,339.478632595917,0.333887576650056
6120,-0.178549128321657,0.329595919986445,0.355753901780151,-0.120472187622864,0.105283880558396,-0.364250999689533,0.411690943117564,0.0804920041998214,0.74707957048269,0.04,0.0421556060579484,340.808701813224,0.335195740242997
6180,-0.194358048673903,0.361013983539403,0.401663811491258,-0.167828767330817,0.0804423965415215,-0.404737141661213,0.419756568147035,0.119273070882325,0.74707957048269,0.04,0.0420357825020351,342.135790678449,0.336500972568876
6240,-0.210166969026148,0.392432047092361,0.447573721202365,-0.215185347038771,0.0556009125246473,-0.445223283632893,0.427822193176506,0.158054137564829,0.74707957048269,0.04,0.0418237120914118,343.446160456446,0.337789761163154
6300,-0.225882013528206,0.423663545253023,0.493211010664263,-0.262260715944026,0.0309069411386198,-0.485469012539435,0.43583992325869,0.196604916186866,0.747002611122017,0.04,0.041542509901819,344.723274477949,0.339080778637003
6360,-0.225975889378394,0.423850110645319,0.493483630913473,-0.262541926746725,0.030759428507773,-0.485709425604573,0.435887818205977,0.196835204247333,0.734119427902808,0.04,0.0439979183403447,344.078286860209,0.344386490843445
6420,-0.225975889378394,0.423850110645319,0.493483630913473,-0.262541926746725,0.030759428507773,-0.485709425604573,0.435887818205977,0.196835204247333,0.721159285322925,0.04,0.0455804092201013,342.405428861187,0.348872694648785
6480,-0.225975889378394,0.423850110645319,0.493483630913473,-0.262541926746725,0.030759428507773,-0.485709425604573,0.435887818205977,0.196835204247333,0.708199142743043,0.04,0.0466543763835107,340.024996749388,0.352788858547235
6540,-0.225975889378394,0.423850110645319,0.493483630913473,-0.262541926746725,0.030759428507773,-0.485709425604573,0.435887818205977,0.196835204247333,0.69523900016316,0.04,0.0474953872000024,337.04799203005,0.356220793548272
6600,-0.225975889378394,0.423850110645319,0.493483630913473,-0.262541926746725,0.030759428507773,-0.485709425604573,0.435887818205977,0.196835204247333,0.682278857583278,0.04,0.0482374771663751,333.578532531059,0.359248317468394
6660,-0.225975889378394,0.423850110645319,0.493483630913473,-0.262541926746725,0.030759428507773,-0.485709425604573,0.435887818205977,0.196835204247333,0.669318715003395,0.04,0.048939769719107,329.650727438955,0.361893829864567
6720,-0.225975889378394,0.423850110645319,0.493483630913473,-0.262541926746725,0.030759428507773,-0.485709425604573,0.435887818205977,0.196835204247333,0.656358572423513,0.04,0.0496345417098587,325.358754018529,0.364230585970526
6780,-0.225975889378394,0.423850110645319,0.493483630913473,-0.262541926746725,0.0307594285077731,-0.485709425604573,0.435887818205977,0.196835204247333,0.64339842984363,0.04,0.0503385157868789,320.698156695958,0.366247833355399
6840,-0.225975889378394,0.423850110645319,0.493483630913473,-0.262541926746725,0.030759428507773,-0.485709425604573,0.435887818205977,0.196835204247333,0.630438287263748,0.04,0.0510588028006045,315.751355286707,0.368010553176065
6900,-0.225975889378394,0.423850110645319,0.493483630913473,-0.262541926746725,0.030759428507773,-0.485709425604573,0.435887818205977,0.196835204247333,0.617478144683865,0.04,0.05179831628944,310.544709104906,0.369536575529578
6960,-0.225975889378394,0.423850110645319,0.493483630913473,-0.262541926746725,0.030759428507773,-0.485709425604573,0.435887818205977,0.196835204247333,0.604518002103982,0.04,0.0525640166496977,305.086896880958,0.370826220880433
7020,-0.225975889378394,0.423850110645319,0.493483630913473,-0.262541926746725,0.030759428507773,-0.485709425604573,0.435887818205977,0.196835204247333,0.5915578595241,0.04,0.0533549117290969,299.42048465382,0.371912243403353
7080,-0.225975889378394,0.423850110645319,0.493483630913473,-0.262541926746725,0.030759428507773,-0.485709425604573,0.435887818205977,0.196835204247333,0.578597716944217,0.04,0.0541731157618691,293.566309872909,0.372808131800951
7140,-0.225975889378394,0.423850110645319,0.493483630913473,-0.262541926746725,0.030759428507773,-0.485709425604573,0.435887818205977,0.196835204247333,0.565637574364335,0.04,0.0550218409995792,287.540496238782,0.373522071917157
7200,-0.225963062582439,0.423879451166585,0.4931039819979,-0.262310321962665,0.0307085462082008,-0.485476649383494,0.43569565779775,0.196903332919769,0.552677431784452,0.04,0.0559020716474789,281.362685331028,0.374067045677389
7260,-0.223810424135396,0.428803481638284,0.42938995279428,-0.223441584637124,0.0221692980030539,-0.446411317337591,0.403446615697568,0.208336928663455,0.53971728920457,0.04,0.0570004874140818,275.005103866603,0.374394362145399
7320,-0.221644958892398,0.433756852631249,0.365296274675087,-0.184341242527524,0.0135791674983349,-0.40711320907061,0.371005413189158,0.219838653079577,0.526757146624687,0.04,0.0581294667112393,268.630558340441,0.374714111401787
7380,-0.2194794936494,0.438710223624215,0.301202596555894,-0.145240900417923,0.00498903699361591,-0.367815100803629,0.338564210680748,0.231340377495699,0.513797004044805,0.04,0.0593130888866588,262.249436642816,0.375040411639941
7440,-0.217314028406401,0.44366359461718,0.237108918436701,-0.106140558308322,-0.0036010935111031,-0.328516992536647,0.306123008172338,0.242842101911821,0.500836861464922,0.04,0.0605478423243671,255.858785497353,0.375369585366388
7500,-0.215148563163403,0.448616965610145,0.173015240317508,-0.0670402161987218,-0.0121912240158222,-0.289218884269666,0.273681805663928,0.254343826327943,0.48787671888504,0.04,0.0618175418174108,249.456499445414,0.375698825191141
7560,-0.212983097920405,0.45357033660311,0.108921562198315,-0.0279398740891212,-0.0207813545205412,-0.249920776002684,0.241240603155518,0.265845550744065,0.474916576305157,0.04,0.0630803561082352,243.047850901407,0.376036125096011
7620,-0.210817632677407,0.458523707596076,0.0448278840791222,0.0111604680204794,-0.0293714850252603,-0.210622667735703,0.208799400647108,0.277347275160187,0.461956433725275,0.04,0.0642404095222012,236.64693925749,0.376404513478086
7680,-0.208652167434409,0.463477078589041,-0.0192657940400707,0.05026081013008,-0.0379616155299793,-0.171324559468722,0.176358198138698,0.288848999576309,0.448996291145392,0.04,0.0651663446443363,230.273924563591,0.376839887182393
7740,-0.206486702191411,0.468430449582006,-0.0833594721592637,0.0893611522396806,-0.0465517460346983,-0.13202645120174,0.143916995630288,0.300350723992431,0.436036148565509,0.04,0.0657838740765532,223.926901851323,0.377345084386307
7800,-0.204321236948413,0.473383820574972,-0.147453150278457,0.128461494349281,-0.0551418765394174,-0.0927283429347588,0.111475793121878,0.311852448408553,0.423076005985627,0.04,0.0661503268010956,217.566539546312,0.377857832584656
7860,-0.202155771705415,0.478337191567937,-0.21154682839765,0.167561836458882,-0.0637320070441364,-0.0534302346677775,0.0790345906134686,0.323354172824675,0.410115863405744,0.04,0.0663397255589401,211.153173300093,0.37830823733581
7920,-0.199990306462417,0.483290562560902,-0.275640506516843,0.206662178568482,-0.0723221375488555,-0.014132126400796,0.0465933881050587,0.334855897240797,0.397155720825862,0.04,0.066387891450294,204.666425924757,0.378652237185748
7980,-0.197824841219419,0.488243933553867,-0.339734184636036,0.245762520678083,-0.0809122680535745,0.0251659818661853,0.0141521855966488,0.346357621656919,0.384195578245979,0.04,0.066298948792645,198.113031474681,0.378891966630936
8040,-0.19565937597642,0.493197304546833,-0.363265495391361,0.284862862787684,-0.0895023985582935,0.0644640901331667,5e-07,0.357859346073041,0.371235435666097,0.04,0.0707402507648159,191.058455555008,0.378156199876898
8100,-0.193509759466426,0.498114422519996,-0.351148614082526,0.323677035038661,-0.0980296591161155,0.103474581119067,5e-07,0.369276890999356,0.358370146531727,0.04,0.080904757061178,182.704940564597,0.374604596261011
8160,-0.193493910733422,0.498150675539798,-0.342631674171973,0.323963204897284,-0.0980925290630126,0.103762198400148,5e-07,0.369361070489163,0.358275293086214,0.04,0.0783748542080926,176.950274238232,0.362901744901999
8220,-0.193493910733422,0.498150675539798,-0.338614217643006,0.323963204897284,-0.0980925290630126,0.103762198400148,5e-07,0.369361070489163,0.358275293086214,0.04,0.0763734798508771,172.509923300603,0.353795168999927
8280,-0.193493910733422,0.498150675539798,-0.336725464951565,0.323963204897284,-0.0980925290630126,0.103762198400148,5e-07,0.369361070489163,0.358275293086214,0.04,0.0754222336182592,168.644869338471,0.345868451547601
8340,-0.193493910733422,0.498150675539798,-0.335803344339415,0.323963204897284,-0.0980925290630126,0.103762198400148,5e-07,0.369361070489163,0.358275293086214,0.04,0.0749556892950809,165.247322307173,0.338900529336954
8400,-0.193493910733422,0.498150675539798,-0.335420114168222,0.323963204897284,-0.0980925290630126,0.103762198400148,5e-07,0.369361070489163,0.358275293086214,0.04,0.0747612728309364,162.365281112633,0.33298984181256
8460,-0.193493910733422,0.498150675539798,-0.33517038411554,0.323963204897284,-0.0980925290630126,0.103762198400148,5e-07,0.369361070489163,0.358275293086214,0.04,0.074634589155209,159.732567440816,0.327590492252676
8520,-0.193493910733422,0.498150675539798,-0.335079325598164,0.323963204897284,-0.0980925290630126,0.103762198400148,5e-07,0.369361070489163,0.358275293086214,0.04,0.0745884352384154,157.467048628894,0.322944211067216
8580,-0.193493910733422,0.498150675539798,-0.335029974217336,0.323963204897284,-0.0980925290630126,0.103762198400148,5e-07,0.369361070489163,0.358275293086214,0.04,0.0745633865611288,155.540224795991,0.318992548748017
8640,-0.193493910733422,0.498150675539798,-0.335014391628959,0.323963204897284,-0.0980925290630126,0.103762198400148,5e-07,0.369361070489163,0.358275293086214,0.04,0.0745554260493591,153.887630301223,0.315603294742345
8700,-0.193493910733422,0.498150675539798,-0.334998809040581,0.323963204897284,-0.0980925290630126,0.103762198400148,5e-07,0.369361070489163,0.358275293086214,0.04,0.0745474655375894,152.235035806455,0.312214040736673
8760,-0.193493910733422,0.498150675539798,-0.334991282053816,0.323963204897284,-0.0980925290630126,0.103762198400148,5e-07,0.369361070489163,0.358275293086214,0.04,0.0745436572697046,150.810658613933,0.309292830409137
8820,-0.193493910733422,0.498150675539798,-0.334990836692557,0.323963204897284,-0.0980925290630126,0.103762198400148,5e-07,0.369361070489163,0.358275293086214,0.04,0.0745434750957253,149.641331698195,0.306894694662195
8880,-0.193493910733422,0.498150675539798,-0.334990634987489,0.323963204897284,-0.0980925290630126,0.103762198400148,5e-07,0.369361070489163,0.358275293086214,0.04,0.0745433647002318,148.611340456486,0.304782318061145
8940,-0.193493910733422,0.498150675539798,-0.334990554467919,0.323963204897284,-0.0980925290630126,0.103762198400148,5e-07,0.369361070489163,0.358275293086214,0.04,0.074543325012339,147.728575319529,0.302971882841875
9000,-0.193639090579527,0.498109037555718,-0.334990515303386,0.323858160094684,-0.0979778296034627,0.103506698627354,5e-07,0.369124896322169,0.358275293086214,0.04,0.074543305252391,146.951854518294,0.30137893061118
9060,-0.211207505512778,0.493070367238041,-0.334990497643714,0.311146542551496,-0.084097888605781,0.0725883160540839,5e-07,0.340545132163488,0.358275293086214,0.04,0.0687695426553948,147.076163380915,0.301633871742785
9120,-0.228921100292133,0.487990058936284,-0.334990489273796,0.298329880205708,-0.0701032481485494,0.0414144337080198,5e-07,0.311729193837813,0.358275293086214,0.04,0.0616797003486326,147.940752339369,0.303407030009968
9180,-0.246634695071488,0.482909750634528,-0.334990485320271,0.28551321785992,-0.0561086076913178,0.0102405513619557,0.0196786100482004,0.282913255512138,0.358275293086214,0.04,0.0560846330431661,148.901711169725,0.305377830212549
9240,-0.264348289850843,0.477829442332771,-0.334990483456726,0.272696555514132,-0.0421139672340863,-0.0209333309841086,0.0431482198709909,0.254097317186464,0.358275293086214,0.04,0.0508568960037608,149.991251313262,0.307612333781037
9300,-0.282061884630198,0.472749134031014,-0.334990482575956,0.259879893168344,-0.0281193267768547,-0.0521072133301727,0.0666178296937813,0.225281378860789,0.358275293086214,0.04,0.0456107474507488,151.308708831277,0.310314265915249
9360,-0.299775479409553,0.467668825729257,-0.334990482160104,0.247063230822555,-0.0141246863196231,-0.0832810956762369,0.0900874395165718,0.196465440535114,0.358275293086214,0.04,0.0403594909225126,152.82554854891,0.313425104723696
9420,-0.317489074188909,0.4625885174275,-0.33499048196402,0.234246568476768,-0.000130045862391468,-0.114454978022301,0.113557049339362,0.167649502209439,0.358275293086214,0.04,0.0352016761893986,154.517202694792,0.316894464937768
9480,-0.334990481871426,0.457508209125743,-0.334990481871426,0.221429906130979,0.0138645945948401,-0.145628860368365,0.137026659162153,0.138833563883764,0.358275293086214,0.04,0.0313646141494347,156.12272134344,0.320187172573149
9540,-0.334990481827702,0.452427900823987,-0.334990481827702,0.208613243785191,0.0278592350520717,-0.176802742714429,0.160496268984943,0.110017625558089,0.358275293086214,0.04,0.0280248573580992,158.461245724427,0.324983178581105
9600,-0.334990481807041,0.44734759252223,-0.334990481807041,0.195796581439403,0.0418538755093033,-0.207976625060493,0.183965878807734,0.0812016872324137,0.358275293086214,0.04,0.0285522844019613,159.816021195118,0.32776164492924
9660,-0.334990481797278,0.442267284220473,-0.334990481797278,0.182979919093615,0.0558485159665349,-0.239150507406558,0.207435488630524,0.0523857489067387,0.358275293086214,0.04,0.0295682396471154,160.732572278574,0.329641370682196
9720,-0.334990481792665,0.437186975918716,-0.334990481792665,0.170163256747827,0.0698431564237664,-0.270324389752622,0.230905098453315,0.0235698105810638,0.358275293086214,0.04,0.0305332364024353,161.378336640892,0.330965748476407
9780,-0.33499048179049,0.432106667616959,-0.33499048179049,0.157346594402039,0.083837796880998,-0.301498272098686,0.254374708276105,-0.0052461277446112,0.358275293086214,0.04,0.0312381692842875,161.847808931957,0.331928574413491
9840,-0.334990481789461,0.427026359315202,-0.334990481789461,0.144529932056251,0.0978324373382296,-0.33267215444475,0.277844318098895,-0.0340620660702862,0.358275293086214,0.04,0.0316585009477136,162.190026166474,0.332630416962628
9900,-0.334990481788975,0.42199910965229,-0.334990481788975,0.131847126677048,0.111680918048913,-0.334990481788975,0.301068811783563,-0.0625770513093054,0.358275293086214,0.04,0.0340682798287238,161.650274823478,0.331523457931171
9960,-0.334990481788746,0.421946051013446,-0.334990481788746,0.131713269710462,0.111827077795461,-0.334990481788746,0.301313927921686,-0.0628780043959611,0.358275293086214,0.04,0.0369785614521077,160.498562233156,0.329161446849512
10020,-0.334990481788638,0.421946051013446,-0.334990481788638,0.131713269710462,0.111827077795461,-0.334990481788638,0.301313927921686,-0.0628780043959611,0.358275293086214,0.04,0.0389824099870597,159.456947443748,0.327025231880537
10080,-0.334990481788587,0.421946051013446,-0.334990481788587,0.131713269710462,0.111827077795461,-0.334990481788587,0.301313927921686,-0.0628780043959611,0.358275293086214,0.04,0.0400979476045795,158.670225762832,0.325411769160654
10140,-0.334990481788563,0.421946051013446,-0.334990481788563,0.131713269710462,0.111827077795461,-0.334990481788563,0.301313927921686,-0.0628780043959611,0.358275293086214,0.04,0.0405888235402315,158.092670320069,0.324227278891515
10200,-0.334990481788551,0.421946051013446,-0.334990481788551,0.131713269710462,0.111827077795461,-0.334990481788551,0.301313927921686,-0.0628780043959611,0.358275293086214,0.04,0.0406777388360552,157.679145147741,0.323379193138359
10260,-0.334990481788546,0.421946051013446,-0.334990481788546,0.131713269710462,0.111827077795461,-0.334990481788546,0.301313927921686,-0.0628780043959611,0.358275293086214,0.04,0.0405697023007758,157.379888279066,0.322765456650616
10320,-0.334990481788543,0.421946051013446,-0.334990481788543,0.131713269710462,0.111827077795461,-0.334990481788543,0.301313927921686,-0.0628780043959611,0.358275293086214,0.04,0.0404167030857879,157.134713961593,0.32226263636396
10380,-0.334990481788542,0.421946051013446,-0.334990481788542,0.131713269710462,0.111827077795461,-0.334990481788542,0.301313927921686,-0.0628780043959611,0.358275293086214,0.04,0.040246464768834,156.935799494522,0.321854688947676
10440,-0.334990481788542,0.421946051013446,-0.334990481788542,0.131713269710462,0.111827077795461,-0.334990481788542,0.301313927921686,-0.0628780043959611,0.358275293086214,0.04,0.0401257021533108,156.766125654241,0.321506710212027
10500,-0.334990481788541,0.421946051013446,-0.334990481788541,0.131713269710462,0.111827077795461,-0.334990481788541,0.301313927921686,-0.0628780043959611,0.358275293086214,0.04,0.0400280159751738,156.610090215716,0.321186702045038
10560,-0.334990481788541,0.421946051013446,-0.334990481788541,0.131713269710462,0.111827077795461,-0.334990481788541,0.301313927921686,-0.0628780043959611,0.358275293086214,0.04,0.03998790174187,156.47594542662,0.320911588721581
10620,-0.334990481788541,0.421946051013446,-0.334990481788541,0.131713269710462,0.111827077795461,-0.334990481788541,0.301313927921686,-0.0628780043959611,0.358275293086214,0.04,0.0399709384986388,156.350603366163,0.320654528637073
10680,-0.334990481788541,0.421946051013446,-0.334990481788541,0.131713269710462,0.111827077795461,-0.334990481788541,0.301313927921686,-0.0628780043959611,0.358275293086214,0.04,0.0399541616153272,156.225375419979,0.320397702585932
10740,-0.334990481788541,0.421946051013446,-0.334990481788541,0.131713269710462,0.111827077795461,-0.334990481788541,0.301313927921686,-0.0628780043959611,0.358275293086214,0.04,0.0399666232077157,156.121592999598,0.320184858488297
10800,-0.3349904965578,0.421912249965099,-0.3349904965578,0.131684502902865,0.111838171429198,-0.3349904965578,0.30130275062509,-0.0628435147602959,0.358276984090996,0.04,0.03998016240172,156.029361694126,0.319994194063708
10860,-0.335422146762099,0.390833739849568,-0.335422146762099,0.105234745731549,0.1220382576742,-0.335422146762099,0.291025740227243,-0.0311318802603527,0.359831785252255,0.04,0.0368882898615842,157.01711732499,0.320628515602992
10920,-0.336393777012261,0.359721428685691,-0.336393777012261,0.0787562217526365,0.132249437552939,-0.336393777012261,0.2807375525328,0.000614243875255803,0.361388277418297,0.04,0.0339698038682343,158.153106143208,0.321557274194417
10980,-0.285105194035363,0.328609117521814,-0.294754212946793,0.0522776977737235,0.142460617431678,-0.337620554019071,0.270449364838357,0.0323603680108643,0.362944769584338,0.04,0.0347989078639731,159.144644476617,0.322185661732228
11040,-0.227074314572568,0.297496806357937,-0.230982231719874,0.0257991737948105,0.152671797310417,-0.33896800683896,0.260161177143914,0.0641064921464727,0.36450126175038,0.04,0.0484577429406027,153.149684971457,0.308725056880163
11100,-0.169043435109772,0.266384495194059,-0.167210250492955,-0.000679350184102476,0.162882977189156,-0.340372372754985,0.249872989449471,0.0958526162820812,0.366057753916421,0.04,0.0584504852698029,148.938179195135,0.298958776829844
11160,-0.111012555646977,0.235272184030182,-0.103438269266035,-0.0271578741630155,0.173094157067895,-0.341803605988368,0.239584801755028,0.12759874041769,0.367614246082462,0.04,0.0643832868136821,146.653140643295,0.293125623335054
11220,-0.0529816761841815,0.204159872866305,-0.0396662880391159,-0.0536363981419285,0.183305336946634,-0.343247557261765,0.229296614060585,0.159344864553298,0.369170738248504,0.04,0.06677430669855,146.336336280009,0.291259154168855
11280,0.00504920327861405,0.173047561702428,0.0241056931878034,-0.0801149221208414,0.193516516825373,-0.344697526347469,0.219008426366143,0.191090988688907,0.370727230414545,0.04,0.0658475522084286,148.635296612844,0.294592771797286
11340,0.0630800827414096,0.14193525053855,0.0878776744147227,-0.106593446099754,0.203727696704112,-0.346150324479032,0.2087202386717,0.222837112824515,0.372283722580587,0.04,0.0659281373031382,151.317633283199,0.298655258717634
11400,0.121110962204205,0.110822939374673,0.151649655641642,-0.133071970078667,0.213938876582851,-0.34760446455,0.198432050977257,0.254583236960124,0.373840214746628,0.04,0.0685207048356642,152.992732791179,0.300704150594935
11460,0.179141841667,0.0797106282107958,0.215421636868561,-0.15955049405758,0.22415005646159,-0.349059235095141,0.188143863282814,0.286329361095732,0.375396706912669,0.04,0.0721535614354687,153.845032064984,0.301125628675465
11520,0.237172721129796,0.0485983170469185,0.279193618095481,-0.186029018036493,0.234361236340329,-0.350514302261856,0.177855675588371,0.318075485231341,0.376953199078711,0.04,0.0760630833431435,154.027039255105,0.300237025289286
11580,0.295203600592592,0.0174860058830412,0.3429655993224,-0.212507542015406,0.244572416219068,-0.351969511618133,0.167567487893928,0.349821609366949,0.378509691244752,0.04,0.0798916896014853,153.66783237912,0.298305080611927
11640,0.353234480055387,-0.013626305280836,0.406737580549319,-0.238986065994319,0.254783596097807,-0.353424787807682,0.157279300199485,0.381567733502558,0.380066183410794,0.04,0.0837517173217616,152.88387087637,0.295567813309414
11700,0.411171396547346,-0.0446882397278065,0.470406302875672,-0.265421716234294,0.264978242144799,-0.354880095424662,0.147007771027009,0.413262454658167,0.381622675576835,0.04,0.0875286477070444,151.620138961828,0.29192910605654
11760,0.411265359518183,-0.0447386164447133,0.470509561776238,-0.265464589973232,0.264994775976546,-0.356335417785262,0.146991112505042,0.413313857638166,0.383179167742876,0.04,0.0877310088946377,150.231866634967,0.288082554210622
11820,0.411265359518183,-0.0447386164447133,0.470509561776239,-0.265464589973232,0.264994775976546,-0.357790744770692,0.146991112505042,0.413313857638166,0.384735659908918,0.04,0.0874187448017572,149.229967111611,0.285012726239353
11880,0.411265359518182,-0.0447386164447133,0.470509561776239,-0.265464589973232,0.264994775976546,-0.359246072271367,0.146991112505042,0.413313857638166,0.386292152074959,0.04,0.0871092035470077,148.30318412281,0.282093693451488
11940,0.411265359518182,-0.0447386164447133,0.470509561776238,-0.265464589973232,0.264994775976546,-0.360701408817428,0.146991112505042,0.413313857638166,0.387848644241,0.04,0.0868086935377566,147.830948513552,0.280076930554786
12000,0.411265359518182,-0.0447386164447133,0.470509561776238,-0.265464589973232,0.264994775976546,-0.362156746679074,0.146991112505042,0.413313857638166,0.389405136407042,0.04,0.0865094970568183,147.424823481471,0.278191396185538
12060,0.411265359518182,-0.0447386164447133,0.470509561776238,-0.265464589973232,0.264994775976546,-0.363612084360407,0.146991112505042,0.413313857638166,0.390961628573083,0.04,0.0862109174284779,147.061320684544,0.276388967176307
12120,0.411265359518182,-0.0447386164447133,0.470509561776238,-0.265464589973232,0.264994775976546,-0.365067420195604,0.146991112505042,0.413313857638166,0.392518120739125,0.04,0.0859186534678559,147.134207189556,0.275437415412577
12180,0.411265359518182,-0.0447386164447133,0.470509561776238,-0.265464589973232,0.264994775976546,-0.366522756030801,0.146991112505042,0.413313857638166,0.394074612905166,0.04,0.0856263895072338,147.207093694567,0.274485863648847
12240,0.411265359518182,-0.0447386164447133,0.470509561776239,-0.265464589973232,0.264994775976546,-0.367978091865998,0.146991112505042,0.413313857638166,0.395631105071207,0.04,0.0853341255466117,147.279980199578,0.273534311885117
12300,0.411265359518182,-0.0447386164447133,0.470509561776239,-0.265464589973232,0.264994775976546,-0.36943344168294,0.146991112505042,0.413313857638166,0.397187597237249,0.04,0.085044691114207,147.631443519103,0.273112528719379
12360,0.411265359518182,-0.0447386164447133,0.470509561776239,-0.265464589973232,0.264994775976546,-0.370888795206356,0.146991112505042,0.413313857638166,0.39874408940329,0.04,0.0847560067721315,148.056755819252,0.27283118391351
12420,0.411265359518182,-0.0447386164447133,0.470509561776239,-0.265464589973232,0.264994775976546,-0.372344148729771,0.146991112505042,0.413313857638166,0.400300581569332,0.04,0.0844673224300561,148.4820681194,0.27254983910764
12480,0.411265359518182,-0.0447386164447133,0.470509561776238,-0.265464589973232,0.264994775976546,-0.373799485887332,0.146991112505042,0.413313857638166,0.401857073735373,0.04,0.0841819319138586,148.95028957712,0.272348138887665
12540,0.411265359518182,-0.0447386164447133,0.470509561776238,-0.265464589973232,0.264994775976546,-0.375254796451647,0.146991112505042,0.413313857638166,0.403413565901414,0.04,0.083898743892024,149.565023333795,0.272416863636648
12600,0.410912854593643,-0.0445400989782445,0.470302982077629,-0.265293703382736,0.264862238805468,-0.37671011892099,0.146890135574434,0.41332845718164,0.40495881081211,0.04,0.0836162057089607,150.217839385145,0.272562016999523
12660,0.362482688842437,-0.0172660578619343,0.441921281999035,-0.241815830234687,0.246653139537111,-0.377734421672257,0.133017054247184,0.415334268338008,0.404970058067456,0.04,0.0816534406369849,150.91821785441,0.273825210411539
12720,0.313700018166692,0.0102065007208447,0.413333002221832,-0.218167070496142,0.228311503097676,-0.378217790381239,0.119042995989327,0.41735467903785,0.404970058067456,0.04,0.0793546695923127,152.010836629178,0.275807652095214
12780,0.264917347490946,0.0376790593036237,0.384744722444629,-0.194518310757597,0.209969866658242,-0.378446051168148,0.105068937731469,0.419375089737692,0.404970058067456,0.04,0.0770911582586237,153.424016405969,0.278371717953071
12840,0.216134676815201,0.0651516178864026,0.356156442667426,-0.170869551019052,0.191628230218807,-0.378553952516462,0.0910948794736118,0.421395500437534,0.404970058067456,0.04,0.0747195867899395,154.985125384736,0.281204185766855
12900,0.167352006139456,0.0926241764691817,0.327568162890222,-0.147220791280506,0.173286593779372,-0.378604841240555,0.0771208212157543,0.423415911137376,0.404970058067456,0.04,0.0721837522598459,156.621689663687,0.284173559275281
12960,0.11856933546371,0.120096735051961,0.298979883113019,-0.123572031541961,0.154944957339937,-0.378629082375123,0.0631467629578967,0.425436321837218,0.404970058067456,0.04,0.0694708530018245,158.303806149858,0.287225582465793
13020,0.0697866647879648,0.14756929363474,0.270391603335816,-0.0999232718034159,0.136603320900502,-0.378640390246847,0.0491727047000391,0.42745673253706,0.404970058067456,0.04,0.0665574641977708,160.012361795968,0.290325576727237
13080,0.0210039941122194,0.175041852217519,0.241803323558613,-0.0762745120648707,0.118261684461067,-0.378645743883956,0.0351986464421816,0.429477143236902,0.404970058067456,0.04,0.06343434239557,161.731436038731,0.293444655874406
13140,-0.027778676563526,0.202514410800298,0.21321504378141,-0.0526257523263255,0.0999200480216322,-0.378648282231882,0.021224588184324,0.431497553936743,0.404970058067456,0.04,0.0600705899356171,163.448126376394,0.296559409676862
13200,-0.0765613472392714,0.229986969383077,0.184626764004206,-0.0289769925877802,0.0815784115821973,-0.378649497174653,0.00725052992646646,0.433517964636585,0.404970058067456,0.04,0.0564185466205685,165.156587056644,0.299659231632755
13260,-0.125344017915017,0.257459527965856,0.156038484227003,-0.00532823284923497,0.0632367751427624,-0.378650054534022,4.99999980847682e-07,0.435538375336427,0.404970058067456,0.04,0.0528836576091423,166.773011185184,0.302592062959578
13320,-0.174126688590762,0.284932086548635,0.1274502044498,0.0183205268893102,0.0448951387033275,-0.37865031824046,4.99999991066959e-07,0.437558786036269,0.404970058067456,0.04,0.0496076865167512,168.17851656084,0.305142204424903
13380,-0.222909359266508,0.312404645131414,0.0988619246725968,0.0419692866278554,0.0265535022638926,-0.378650442739909,4.99999995826558e-07,0.439579196736111,0.404970058067456,0.04,0.0460757604529541,169.549528234149,0.307629760700466
