time,bias_percent_1,bias_percent_2,bias_percent_3,bias_percent_4,bias_percent_5,bias_percent_6,bias_percent_8,bias_percent_9,load_fraction,SP,CV,total_power_MW,thermal_efficiency
0,0,0,0,0,0,0,0,0,1,0.04,0.0399999999999017,483.535990330301,0.355290406680714
60,-1.0437787025176e-05,-2.65225182429668e-06,-1.40072774968093e-05,-9.57230853779355e-06,-4.30177238157048e-06,8.01728195533606e-06,1.09243333094365e-05,5.39623502624515e-06,0.99997895991918,0.04,0.039999999999889,477.038269848462,0.350523415808627
120,-0.0256517825620001,-0.00651814287191544,-0.0344241203394073,-0.0235247928163295,-0.0105719851818307,0.0197031777866153,0.0268475129844381,0.0132617236979425,0.948292144976053,0.04,0.0467144392195621,466.476209492825,0.361445146199474
180,-0.0513035651240001,-0.0130362857438309,-0.0688482406788145,-0.047049585632659,-0.0211439703636614,0.0394063555732308,0.0536950259688763,0.026523447395885,0.896584289952106,0.04,0.0498537346634366,454.695817451012,0.372642916543581
240,-0.0769553476860002,-0.0195544286157463,-0.103272361018222,-0.0705743784489885,-0.0317159555454921,0.0591095333598462,0.0805425389533144,0.0397851710938274,0.844876434928159,0.04,0.0508106978580534,442.196268211627,0.384572995056365
300,-0.102607130248,-0.0260725714876619,-0.137696481357629,-0.094099171265318,-0.0422879407273229,0.0788127111464616,0.107390051937753,0.0530468947917699,0.793168579904211,0.04,0.0504805011217188,428.836206748944,0.397265835401603
360,-0.12825891281,-0.0325907143595772,-0.172120601697036,-0.117623964081647,-0.0528599259091535,0.0985158889330771,0.134237564922191,0.0663086184897123,0.741460724880264,0.04,0.0494054346841163,414.559043235658,0.410821674226451
420,-0.153910695372001,-0.0391088572314928,-0.206544722036444,-0.141148756897977,-0.0634319110909842,0.118219066719692,0.161085077906629,0.0795703421876548,0.689752869856317,0.04,0.0479084348545888,399.35856001426,0.425426495041189
480,-0.179562477934001,-0.0456270001034082,-0.240968842375851,-0.164673549714307,-0.0740038962728148,0.137922244506308,0.187932590891067,0.0928320658855973,0.63804501483237,0.04,0.0462281069275732,383.117709566838,0.44120025015958
540,-0.205214260496001,-0.0521451429753237,-0.275392962715258,-0.188198342530636,-0.0845758814546455,0.157625422292923,0.214780103875505,0.10609378958354,0.586337159808423,0.04,0.0444525607491909,366.22726844219,0.458942387959136
600,-0.230866043058001,-0.058663285847239,-0.309817083054665,-0.211723135346966,-0.0951478666364762,0.177328600079539,0.241627616859943,0.119355513281482,0.534629304784476,0.04,0.042629568766234,348.744532626896,0.479303800872191
660,-0.256517825620001,-0.0651814287191545,-0.344241203394073,-0.235247928163295,-0.105719851818307,0.197031777866154,0.268475129844381,0.132617236979425,0.482921449760528,0.04,0.0409082538185005,330.083562279846,0.502230796736043
