run_counter,bit_count,m,c,tournament_size,i_max,obj_best_global,iterations,function_evals
1,4,0.5,0.8,2,5,362.5239,13,65
2,4,0.5,0.8,2,10,361.18958,13,130
3,4,0.5,0.8,2,25,325.6396,12,300
4,4,0.5,0.8,2,100,276.54834,10,1000
5,4,0.5,0.9,2,5,284.38327,21,105
6,4,0.5,0.9,2,10,435.40335,18,180
7,4,0.5,0.9,2,25,432.42633,17,425
8,4,0.5,0.9,2,100,318.36188,20,2000
9,4,0.5,0.95,2,5,407.4601,16,80
10,4,0.5,0.95,2,10,358.3453,16,160
11,4,0.5,0.95,2,25,333.60248,19,475
12,4,0.5,0.95,2,100,136.72148,23,2300
13,4,0.5,0.99,2,5,650.6354,12,60
14,4,0.5,0.99,2,10,344.09357,15,150
15,4,0.5,0.99,2,25,388.43344,11,275
16,4,0.5,0.99,2,100,255.46886,17,1700
17,4,0.25,0.8,2,5,369.4644,13,65
18,4,0.25,0.8,2,10,407.2863,13,130
19,4,0.25,0.8,2,25,215.49567,14,350
20,4,0.25,0.8,2,100,90.97299,20,2000
21,4,0.25,0.9,2,5,403.63,19,95
22,4,0.25,0.9,2,10,108.57036,29,290
23,4,0.25,0.9,2,25,201.57408,15,375
24,4,0.25,0.9,2,100,84.23526,12,1200
25,4,0.25,0.95,2,5,335.7417,16,80
26,4,0.25,0.95,2,10,310.27368,19,190
27,4,0.25,0.95,2,25,219.20554,12,300
28,4,0.25,0.95,2,100,117.24677,12,1200
29,4,0.25,0.99,2,5,382.136,15,75
30,4,0.25,0.99,2,10,247.68474,26,260
31,4,0.25,0.99,2,25,49.877396,19,475
32,4,0.25,0.99,2,100,64.81941,13,1300
33,4,0.125,0.8,2,5,619.9798,13,65
34,4,0.125,0.8,2,10,260.06808,18,180
35,4,0.125,0.8,2,25,149.97133,15,375
36,4,0.125,0.8,2,100,21.105846,15,1500
37,4,0.125,0.9,2,5,291.4408,11,55
38,4,0.125,0.9,2,10,108.37035,27,270
39,4,0.125,0.9,2,25,51.43306,13,325
40,4,0.125,0.9,2,100,8.436615,24,2400
41,4,0.125,0.95,2,5,351.16312,15,75
42,4,0.125,0.95,2,10,240.01945,32,320
43,4,0.125,0.95,2,25,39.802197,19,475
44,4,0.125,0.95,2,100,38.563484,12,1200
45,4,0.125,0.99,2,5,319.51306,15,75
46,4,0.125,0.99,2,10,115.56485,32,320
47,4,0.125,0.99,2,25,66.24711,20,500
48,4,0.125,0.99,2,100,61.545624,22,2200
49,8,0.5,0.8,2,5,8.707287,13,65
50,8,0.5,0.8,2,10,8.72288,12,120
51,8,0.5,0.8,2,25,8.68455,21,525
52,8,0.5,0.8,2,100,8.662453,18,1800
53,8,0.5,0.9,2,5,8.896387,15,75
54,8,0.5,0.9,2,10,8.635079,17,170
55,8,0.5,0.9,2,25,8.668364,19,475
56,8,0.5,0.9,2,100,8.58443,21,2100
57,8,0.5,0.95,2,5,8.528035,23,115
58,8,0.5,0.95,2,10,8.578531,24,240
59,8,0.5,0.95,2,25,8.663744,24,600
60,8,0.5,0.95,2,100,8.734327,22,2200
61,8,0.5,0.99,2,5,8.566457,15,75
62,8,0.5,0.99,2,10,8.849079,21,210
63,8,0.5,0.99,2,25,8.65225,12,300
64,8,0.5,0.99,2,100,8.776192,14,1400
65,8,0.25,0.8,2,5,8.801375,12,60
66,8,0.25,0.8,2,10,8.576405,13,130
67,8,0.25,0.8,2,25,8.6335335,23,575
68,8,0.25,0.8,2,100,8.551258,23,2300
69,8,0.25,0.9,2,5,8.821858,12,60
70,8,0.25,0.9,2,10,8.629953,17,170
71,8,0.25,0.9,2,25,8.754624,12,300
72,8,0.25,0.9,2,100,8.650193,12,1200
73,8,0.25,0.95,2,5,8.479531,14,70
74,8,0.25,0.95,2,10,8.684362,12,120
75,8,0.25,0.95,2,25,8.727268,12,300
76,8,0.25,0.95,2,100,8.573755,20,2000
77,8,0.25,0.99,2,5,8.595227,24,120
78,8,0.25,0.99,2,10,8.73379,15,150
79,8,0.25,0.99,2,25,8.612288,12,300
80,8,0.25,0.99,2,100,8.523004,20,2000
81,8,0.125,0.8,2,5,8.902841,19,95
82,8,0.125,0.8,2,10,9.428902,12,120
83,8,0.125,0.8,2,25,8.4698925,18,450
84,8,0.125,0.8,2,100,8.514339,12,1200
85,8,0.125,0.9,2,5,8.65073,15,75
86,8,0.125,0.9,2,10,8.728318,19,190
87,8,0.125,0.9,2,25,8.560918,15,375
88,8,0.125,0.9,2,100,8.490486,12,1200
89,8,0.125,0.95,2,5,8.756725,14,70
90,8,0.125,0.95,2,10,8.6829195,25,250
91,8,0.125,0.95,2,25,8.713705,15,375
92,8,0.125,0.95,2,100,8.721676,24,2400
93,8,0.125,0.99,2,5,8.65041,20,100
94,8,0.125,0.99,2,10,8.695139,13,130
95,8,0.125,0.99,2,25,8.600501,25,625
96,8,0.125,0.99,2,100,8.536946,16,1600
97,16,0.5,0.8,2,5,298.86536,10,50
98,16,0.5,0.8,2,10,395.5575,12,120
99,16,0.5,0.8,2,25,258.55954,14,350
100,16,0.5,0.8,2,100,328.1362,16,1600
101,16,0.5,0.9,2,5,377.90497,28,140
102,16,0.5,0.9,2,10,455.48492,14,140
103,16,0.5,0.9,2,25,282.56805,14,350
104,16,0.5,0.9,2,100,236.39053,24,2400
105,16,0.5,0.95,2,5,528.89667,21,105
106,16,0.5,0.95,2,10,228.62509,32,320
107,16,0.5,0.95,2,25,203.77766,13,325
108,16,0.5,0.95,2,100,284.6225,11,1100
109,16,0.5,0.99,2,5,448.01273,10,50
110,16,0.5,0.99,2,10,137.21994,19,190
111,16,0.5,0.99,2,25,336.18182,10,250
112,16,0.5,0.99,2,100,285.91602,10,1000
113,16,0.25,0.8,2,5,641.9581,10,50
114,16,0.25,0.8,2,10,503.62888,10,100
115,16,0.25,0.8,2,25,222.67531,29,725
116,16,0.25,0.8,2,100,251.27792,18,1800
117,16,0.25,0.9,2,5,334.11786,10,50
118,16,0.25,0.9,2,10,565.97046,10,100
119,16,0.25,0.9,2,25,373.89215,10,250
120,16,0.25,0.9,2,100,224.60484,10,1000
121,16,0.25,0.95,2,5,729.5641,10,50
122,16,0.25,0.95,2,10,387.37036,17,170
123,16,0.25,0.95,2,25,191.64122,22,550
124,16,0.25,0.95,2,100,325.82443,16,1600
125,16,0.25,0.99,2,5,773.9699,10,50
126,16,0.25,0.99,2,10,635.73083,10,100
127,16,0.25,0.99,2,25,240.91034,10,250
128,16,0.25,0.99,2,100,77.674736,21,2100
129,16,0.125,0.8,2,5,685.7242,10,50
130,16,0.125,0.8,2,10,553.8586,10,100
131,16,0.125,0.8,2,25,374.49246,10,250
132,16,0.125,0.8,2,100,352.16858,10,1000
133,16,0.125,0.9,2,5,852.82794,10,50
134,16,0.125,0.9,2,10,648.4098,10,100
135,16,0.125,0.9,2,25,576.7532,10,250
136,16,0.125,0.9,2,100,94.50856,29,2900
137,16,0.125,0.95,2,5,609.94745,10,50
138,16,0.125,0.95,2,10,659.0454,10,100
139,16,0.125,0.95,2,25,484.21704,10,250
140,16,0.125,0.95,2,100,66.47922,21,2100
141,16,0.125,0.99,2,5,454.90363,10,50
142,16,0.125,0.99,2,10,533.93115,10,100
143,16,0.125,0.99,2,25,640.79675,10,250
144,16,0.125,0.99,2,100,290.25504,10,1000
145,4,0.5,0.8,3,5,339.76727,20,100
146,4,0.5,0.8,3,10,408.81696,10,100
147,4,0.5,0.8,3,25,436.79025,13,325
148,4,0.5,0.8,3,100,224.00314,10,1000
149,4,0.5,0.9,3,5,333.48047,18,90
150,4,0.5,0.9,3,10,511.4215,23,230
151,4,0.5,0.9,3,25,401.4751,25,625
152,4,0.5,0.9,3,100,394.14948,15,1500
153,4,0.5,0.95,3,5,369.74173,17,85
154,4,0.5,0.95,3,10,333.3925,14,140
155,4,0.5,0.95,3,25,310.73276,20,500
156,4,0.5,0.95,3,100,226.89417,26,2600
157,4,0.5,0.99,3,5,535.93225,12,60
158,4,0.5,0.99,3,10,175.07838,17,170
159,4,0.5,0.99,3,25,281.82034,17,425
160,4,0.5,0.99,3,100,111.12104,14,1400
161,4,0.25,0.8,3,5,298.8006,15,75
162,4,0.25,0.8,3,10,340.46405,17,170
163,4,0.25,0.8,3,25,225.11433,12,300
164,4,0.25,0.8,3,100,331.13354,10,1000
165,4,0.25,0.9,3,5,409.36014,15,75
166,4,0.25,0.9,3,10,422.21478,18,180
167,4,0.25,0.9,3,25,195.58446,25,625
168,4,0.25,0.9,3,100,127.261505,39,3900
169,4,0.25,0.95,3,5,235.40279,22,110
170,4,0.25,0.95,3,10,469.51587,12,120
171,4,0.25,0.95,3,25,316.97995,10,250
172,4,0.25,0.95,3,100,153.9165,18,1800
173,4,0.25,0.99,3,5,524.70197,15,75
174,4,0.25,0.99,3,10,534.26483,16,160
175,4,0.25,0.99,3,25,316.23166,23,575
176,4,0.25,0.99,3,100,143.33743,12,1200
177,4,0.125,0.8,3,5,363.72665,29,145
178,4,0.125,0.8,3,10,275.27615,11,110
179,4,0.125,0.8,3,25,166.08252,18,450
180,4,0.125,0.8,3,100,162.0688,19,1900
181,4,0.125,0.9,3,5,300.31714,27,135
182,4,0.125,0.9,3,10,196.71909,26,260
183,4,0.125,0.9,3,25,388.2114,13,325
184,4,0.125,0.9,3,100,31.208452,12,1200
185,4,0.125,0.95,3,5,530.07336,29,145
186,4,0.125,0.95,3,10,461.52313,12,120
187,4,0.125,0.95,3,25,346.7096,10,250
188,4,0.125,0.95,3,100,217.40984,12,1200
189,4,0.125,0.99,3,5,163.75887,11,55
190,4,0.125,0.99,3,10,223.51144,25,250
191,4,0.125,0.99,3,25,73.90692,17,425
192,4,0.125,0.99,3,100,102.35479,12,1200
193,8,0.5,0.8,3,5,8.67207,30,150
194,8,0.5,0.8,3,10,8.693247,19,190
195,8,0.5,0.8,3,25,8.693244,12,300
196,8,0.5,0.8,3,100,8.680654,16,1600
197,8,0.5,0.9,3,5,8.613788,23,115
198,8,0.5,0.9,3,10,8.903534,12,120
199,8,0.5,0.9,3,25,8.678603,15,375
200,8,0.5,0.9,3,100,8.750158,16,1600
201,8,0.5,0.95,3,5,32.810555,18,90
202,8,0.5,0.95,3,10,8.682784,18,180
203,8,0.5,0.95,3,25,8.58888,13,325
204,8,0.5,0.95,3,100,8.575476,25,2500
205,8,0.5,0.99,3,5,8.847635,12,60
206,8,0.5,0.99,3,10,8.580593,15,150
207,8,0.5,0.99,3,25,8.676023,18,450
208,8,0.5,0.99,3,100,8.807437,18,1800
209,8,0.25,0.8,3,5,8.764456,13,65
210,8,0.25,0.8,3,10,8.61301,18,180
211,8,0.25,0.8,3,25,8.634845,12,300
212,8,0.25,0.8,3,100,8.556529,14,1400
213,8,0.25,0.9,3,5,8.571024,15,75
214,8,0.25,0.9,3,10,8.695385,18,180
215,8,0.25,0.9,3,25,8.828194,12,300
216,8,0.25,0.9,3,100,8.579573,18,1800
217,8,0.25,0.95,3,5,8.639423,13,65
218,8,0.25,0.95,3,10,8.560935,14,140
219,8,0.25,0.95,3,25,8.773303,12,300
220,8,0.25,0.95,3,100,8.706825,16,1600
221,8,0.25,0.99,3,5,8.7571,16,80
222,8,0.25,0.99,3,10,8.789278,14,140
223,8,0.25,0.99,3,25,8.518923,18,450
224,8,0.25,0.99,3,100,8.561134,13,1300
225,8,0.125,0.8,3,5,8.706934,14,70
226,8,0.125,0.8,3,10,8.686386,27,270
227,8,0.125,0.8,3,25,8.622566,20,500
228,8,0.125,0.8,3,100,8.58709,13,1300
229,8,0.125,0.9,3,5,8.679039,14,70
230,8,0.125,0.9,3,10,8.6552105,13,130
231,8,0.125,0.9,3,25,8.4994135,20,500
232,8,0.125,0.9,3,100,8.842153,14,1400
233,8,0.125,0.95,3,5,8.67554,15,75
234,8,0.125,0.95,3,10,8.546742,13,130
235,8,0.125,0.95,3,25,8.656058,13,325
236,8,0.125,0.95,3,100,8.59294,18,1800
237,8,0.125,0.99,3,5,8.823728,22,110
238,8,0.125,0.99,3,10,26.889996,21,210
239,8,0.125,0.99,3,25,8.632082,28,700
240,8,0.125,0.99,3,100,8.307531,20,2000
241,16,0.5,0.8,3,5,394.06845,31,155
242,16,0.5,0.8,3,10,350.7521,22,220
243,16,0.5,0.8,3,25,475.4689,14,350
244,16,0.5,0.8,3,100,270.879,17,1700
245,16,0.5,0.9,3,5,268.78195,14,70
246,16,0.5,0.9,3,10,174.93385,24,240
247,16,0.5,0.9,3,25,320.4581,12,300
248,16,0.5,0.9,3,100,327.3019,10,1000
249,16,0.5,0.95,3,5,268.84537,10,50
250,16,0.5,0.95,3,10,320.8309,13,130
251,16,0.5,0.95,3,25,278.67856,14,350
252,16,0.5,0.95,3,100,395.38504,10,1000
253,16,0.5,0.99,3,5,405.47784,14,70
254,16,0.5,0.99,3,10,355.28268,12,120
255,16,0.5,0.99,3,25,301.2563,20,500
256,16,0.5,0.99,3,100,217.53589,12,1200
257,16,0.25,0.8,3,5,624.845,10,50
258,16,0.25,0.8,3,10,447.21838,10,100
259,16,0.25,0.8,3,25,379.6354,10,250
260,16,0.25,0.8,3,100,243.15765,12,1200
261,16,0.25,0.9,3,5,624.301,10,50
262,16,0.25,0.9,3,10,692.47833,10,100
263,16,0.25,0.9,3,25,406.61685,10,250
264,16,0.25,0.9,3,100,236.21655,19,1900
265,16,0.25,0.95,3,5,718.70447,10,50
266,16,0.25,0.95,3,10,576.11066,14,140
267,16,0.25,0.95,3,25,606.30194,10,250
268,16,0.25,0.95,3,100,342.023,12,1200
269,16,0.25,0.99,3,5,627.86414,10,50
270,16,0.25,0.99,3,10,634.94055,10,100
271,16,0.25,0.99,3,25,249.24712,13,325
272,16,0.25,0.99,3,100,312.46475,12,1200
273,16,0.125,0.8,3,5,668.8695,10,50
274,16,0.125,0.8,3,10,643.0681,10,100
275,16,0.125,0.8,3,25,568.1848,10,250
276,16,0.125,0.8,3,100,402.89346,15,1500
277,16,0.125,0.9,3,5,572.9995,10,50
278,16,0.125,0.9,3,10,853.4152,10,100
279,16,0.125,0.9,3,25,533.7799,10,250
280,16,0.125,0.9,3,100,397.35538,10,1000
281,16,0.125,0.95,3,5,655.4354,10,50
282,16,0.125,0.95,3,10,442.01425,10,100
283,16,0.125,0.95,3,25,441.50583,10,250
284,16,0.125,0.95,3,100,370.26974,10,1000
285,16,0.125,0.99,3,5,713.9961,10,50
286,16,0.125,0.99,3,10,610.74274,10,100
287,16,0.125,0.99,3,25,493.7512,10,250
288,16,0.125,0.99,3,100,294.6309,18,1800
290,4,0.5,0.8,5,10,247.67963,15,150
291,4,0.5,0.8,5,25,469.54874,17,425
292,4,0.5,0.8,5,100,123.70337,11,1100
294,4,0.5,0.9,5,10,404.44278,14,140
295,4,0.5,0.9,5,25,390.60345,28,700
296,4,0.5,0.9,5,100,326.72504,11,1100
298,4,0.5,0.95,5,10,352.252,10,100
299,4,0.5,0.95,5,25,329.37802,10,250
300,4,0.5,0.95,5,100,231.77272,10,1000
302,4,0.5,0.99,5,10,420.3545,16,160
303,4,0.5,0.99,5,25,417.1739,18,450
304,4,0.5,0.99,5,100,353.2363,10,1000
306,4,0.25,0.8,5,10,246.86464,14,140
307,4,0.25,0.8,5,25,393.48752,13,325
308,4,0.25,0.8,5,100,344.15094,10,1000
310,4,0.25,0.9,5,10,149.91331,10,100
311,4,0.25,0.9,5,25,416.27252,10,250
312,4,0.25,0.9,5,100,233.43465,10,1000
314,4,0.25,0.95,5,10,496.91946,10,100
315,4,0.25,0.95,5,25,292.31836,14,350
316,4,0.25,0.95,5,100,313.70966,20,2000
318,4,0.25,0.99,5,10,391.662,10,100
319,4,0.25,0.99,5,25,308.98007,14,350
320,4,0.25,0.99,5,100,303.64725,16,1600
322,4,0.125,0.8,5,10,574.8931,10,100
323,4,0.125,0.8,5,25,445.63705,11,275
324,4,0.125,0.8,5,100,223.83745,15,1500
326,4,0.125,0.9,5,10,256.1383,15,150
327,4,0.125,0.9,5,25,311.1311,10,250
328,4,0.125,0.9,5,100,164.20345,12,1200
330,4,0.125,0.95,5,10,547.90955,10,100
331,4,0.125,0.95,5,25,192.62984,10,250
332,4,0.125,0.95,5,100,271.92993,12,1200
334,4,0.125,0.99,5,10,491.35046,11,110
335,4,0.125,0.99,5,25,445.37442,14,350
336,4,0.125,0.99,5,100,238.61987,20,2000
338,8,0.5,0.8,5,10,8.591948,26,260
339,8,0.5,0.8,5,25,8.68526,15,375
340,8,0.5,0.8,5,100,8.618851,16,1600
342,8,0.5,0.9,5,10,8.630972,12,120
343,8,0.5,0.9,5,25,8.574176,17,425
344,8,0.5,0.9,5,100,8.655536,26,2600
346,8,0.5,0.95,5,10,8.652457,24,240
347,8,0.5,0.95,5,25,8.793971,12,300
348,8,0.5,0.95,5,100,8.763207,20,2000
350,8,0.5,0.99,5,10,8.760421,14,140
351,8,0.5,0.99,5,25,8.663278,18,450
352,8,0.5,0.99,5,100,8.637184,30,3000
354,8,0.25,0.8,5,10,8.828414,22,220
355,8,0.25,0.8,5,25,8.579237,13,325
356,8,0.25,0.8,5,100,8.640467,22,2200
358,8,0.25,0.9,5,10,8.735669,15,150
359,8,0.25,0.9,5,25,8.673712,22,550
360,8,0.25,0.9,5,100,8.6411705,13,1300
362,8,0.25,0.95,5,10,8.578596,12,120
363,8,0.25,0.95,5,25,8.8493,15,375
364,8,0.25,0.95,5,100,8.591303,23,2300
366,8,0.25,0.99,5,10,8.640837,17,170
367,8,0.25,0.99,5,25,8.5470085,13,325
368,8,0.25,0.99,5,100,8.67225,12,1200
370,8,0.125,0.8,5,10,8.393174,15,150
371,8,0.125,0.8,5,25,8.593454,14,350
372,8,0.125,0.8,5,100,11.173538,20,2000
374,8,0.125,0.9,5,10,8.83833,18,180
375,8,0.125,0.9,5,25,8.541313,20,500
376,8,0.125,0.9,5,100,8.645034,12,1200
378,8,0.125,0.95,5,10,8.758199,12,120
379,8,0.125,0.95,5,25,8.60285,20,500
380,8,0.125,0.95,5,100,14.492891,13,1300
382,8,0.125,0.99,5,10,8.67686,15,150
383,8,0.125,0.99,5,25,8.544542,26,650
384,8,0.125,0.99,5,100,8.634848,22,2200
386,16,0.5,0.8,5,10,349.25076,12,120
387,16,0.5,0.8,5,25,276.49274,24,600
388,16,0.5,0.8,5,100,310.24377,10,1000
390,16,0.5,0.9,5,10,436.04886,10,100
391,16,0.5,0.9,5,25,529.1389,12,300
392,16,0.5,0.9,5,100,363.7241,15,1500
394,16,0.5,0.95,5,10,537.51746,23,230
395,16,0.5,0.95,5,25,375.713,10,250
396,16,0.5,0.95,5,100,335.75293,37,3700
398,16,0.5,0.99,5,10,424.16833,12,120
399,16,0.5,0.99,5,25,484.38565,18,450
400,16,0.5,0.99,5,100,355.3746,12,1200
402,16,0.25,0.8,5,10,584.51794,10,100
403,16,0.25,0.8,5,25,533.0991,10,250
404,16,0.25,0.8,5,100,303.93787,10,1000
406,16,0.25,0.9,5,10,583.9088,10,100
407,16,0.25,0.9,5,25,495.277,19,475
408,16,0.25,0.9,5,100,311.6367,19,1900
410,16,0.25,0.95,5,10,562.6912,10,100
411,16,0.25,0.95,5,25,534.94214,10,250
412,16,0.25,0.95,5,100,327.7668,10,1000
414,16,0.25,0.99,5,10,204.91528,10,100
415,16,0.25,0.99,5,25,590.0822,10,250
416,16,0.25,0.99,5,100,352.88647,14,1400
418,16,0.125,0.8,5,10,567.43274,10,100
419,16,0.125,0.8,5,25,578.16956,10,250
420,16,0.125,0.8,5,100,437.2726,10,1000
422,16,0.125,0.9,5,10,504.3305,10,100
423,16,0.125,0.9,5,25,370.83563,10,250
424,16,0.125,0.9,5,100,201.7995,10,1000
426,16,0.125,0.95,5,10,696.73236,10,100
427,16,0.125,0.95,5,25,431.00485,10,250
428,16,0.125,0.95,5,100,393.26993,17,1700
430,16,0.125,0.99,5,10,777.4979,10,100
431,16,0.125,0.99,5,25,493.08606,10,250
432,16,0.125,0.99,5,100,97.291664,18,1800
435,4,0.5,0.8,10,25,367.90686,10,250
436,4,0.5,0.8,10,100,369.13232,12,1200
439,4,0.5,0.9,10,25,218.21307,21,525
440,4,0.5,0.9,10,100,424.50217,10,1000
443,4,0.5,0.95,10,25,457.84354,10,250
444,4,0.5,0.95,10,100,301.0571,12,1200
447,4,0.5,0.99,10,25,452.8011,16,400
448,4,0.5,0.99,10,100,270.05594,10,1000
451,4,0.25,0.8,10,25,501.41183,10,250
452,4,0.25,0.8,10,100,355.02176,10,1000
455,4,0.25,0.9,10,25,470.89905,13,325
456,4,0.25,0.9,10,100,362.18182,23,2300
459,4,0.25,0.95,10,25,202.13396,10,250
460,4,0.25,0.95,10,100,188.3571,27,2700
463,4,0.25,0.99,10,25,506.3097,10,250
464,4,0.25,0.99,10,100,331.79507,10,1000
467,4,0.125,0.8,10,25,303.14297,14,350
468,4,0.125,0.8,10,100,274.48697,19,1900
471,4,0.125,0.9,10,25,506.04395,16,400
472,4,0.125,0.9,10,100,293.30914,10,1000
475,4,0.125,0.95,10,25,498.16113,10,250
476,4,0.125,0.95,10,100,130.18901,12,1200
479,4,0.125,0.99,10,25,480.11188,10,250
480,4,0.125,0.99,10,100,349.63058,10,1000
483,8,0.5,0.8,10,25,8.850965,12,300
484,8,0.5,0.8,10,100,8.566444,17,1700
487,8,0.5,0.9,10,25,8.712791,16,400
488,8,0.5,0.9,10,100,8.620539,15,1500
491,8,0.5,0.95,10,25,8.60074,31,775
492,8,0.5,0.95,10,100,8.688319,17,1700
495,8,0.5,0.99,10,25,8.5313015,21,525
496,8,0.5,0.99,10,100,8.561294,15,1500
499,8,0.25,0.8,10,25,8.621439,12,300
500,8,0.25,0.8,10,100,8.757587,17,1700
503,8,0.25,0.9,10,25,8.681109,19,475
504,8,0.25,0.9,10,100,8.684777,21,2100
507,8,0.25,0.95,10,25,8.722413,12,300
508,8,0.25,0.95,10,100,8.574011,30,3000
511,8,0.25,0.99,10,25,8.674733,14,350
512,8,0.25,0.99,10,100,8.603298,20,2000
515,8,0.125,0.8,10,25,8.583094,15,375
516,8,0.125,0.8,10,100,8.582156,13,1300
519,8,0.125,0.9,10,25,8.721927,12,300
520,8,0.125,0.9,10,100,8.741293,26,2600
523,8,0.125,0.95,10,25,8.633243,12,300
524,8,0.125,0.95,10,100,27.86721,13,1300
527,8,0.125,0.99,10,25,8.70174,15,375
528,8,0.125,0.99,10,100,8.659227,26,2600
531,16,0.5,0.8,10,25,463.82785,10,250
532,16,0.5,0.8,10,100,319.99036,10,1000
535,16,0.5,0.9,10,25,458.55606,18,450
536,16,0.5,0.9,10,100,358.21402,21,2100
539,16,0.5,0.95,10,25,401.99545,17,425
540,16,0.5,0.95,10,100,360.43094,10,1000
543,16,0.5,0.99,10,25,415.09952,16,400
544,16,0.5,0.99,10,100,348.45773,14,1400
547,16,0.25,0.8,10,25,461.5851,10,250
548,16,0.25,0.8,10,100,393.41663,10,1000
551,16,0.25,0.9,10,25,567.592,10,250
552,16,0.25,0.9,10,100,301.1063,10,1000
555,16,0.25,0.95,10,25,449.2365,23,575
556,16,0.25,0.95,10,100,352.8107,19,1900
559,16,0.25,0.99,10,25,461.79706,19,475
560,16,0.25,0.99,10,100,383.4465,10,1000
563,16,0.125,0.8,10,25,606.0849,14,350
564,16,0.125,0.8,10,100,407.77496,10,1000
567,16,0.125,0.9,10,25,493.66193,10,250
568,16,0.125,0.9,10,100,136.2818,14,1400
571,16,0.125,0.95,10,25,453.9382,10,250
572,16,0.125,0.95,10,100,179.63222,12,1200
575,16,0.125,0.99,10,25,552.91486,10,250
576,16,0.125,0.99,10,100,311.1635,10,1000
579,4,0.5,0.8,15,25,387.42215,18,450
580,4,0.5,0.8,15,100,331.9551,10,1000
583,4,0.5,0.9,15,25,414.452,11,275
584,4,0.5,0.9,15,100,238.3453,10,1000
587,4,0.5,0.95,15,25,381.42523,10,250
588,4,0.5,0.95,15,100,371.8999,15,1500
591,4,0.5,0.99,15,25,472.14804,13,325
592,4,0.5,0.99,15,100,394.5942,10,1000
595,4,0.25,0.8,15,25,409.9466,10,250
596,4,0.25,0.8,15,100,202.48294,20,2000
599,4,0.25,0.9,15,25,290.34265,10,250
600,4,0.25,0.9,15,100,308.7673,24,2400
603,4,0.25,0.95,15,25,274.8817,12,300
604,4,0.25,0.95,15,100,281.30035,18,1800
607,4,0.25,0.99,15,25,338.1057,10,250
608,4,0.25,0.99,15,100,393.43637,14,1400
611,4,0.125,0.8,15,25,357.31174,10,250
612,4,0.125,0.8,15,100,361.46286,13,1300
615,4,0.125,0.9,15,25,440.74377,10,250
616,4,0.125,0.9,15,100,445.66644,10,1000
619,4,0.125,0.95,15,25,384.58453,13,325
620,4,0.125,0.95,15,100,231.93932,10,1000
623,4,0.125,0.99,15,25,467.0079,20,500
624,4,0.125,0.99,15,100,329.63263,10,1000
627,8,0.5,0.8,15,25,8.775511,15,375
628,8,0.5,0.8,15,100,8.583453,25,2500
631,8,0.5,0.9,15,25,8.549574,17,425
632,8,0.5,0.9,15,100,8.571143,20,2000
635,8,0.5,0.95,15,25,8.741002,19,475
636,8,0.5,0.95,15,100,8.679678,22,2200
639,8,0.5,0.99,15,25,8.636547,15,375
640,8,0.5,0.99,15,100,8.565832,16,1600
643,8,0.25,0.8,15,25,8.595558,13,325
644,8,0.25,0.8,15,100,8.707933,17,1700
647,8,0.25,0.9,15,25,8.728246,19,475
648,8,0.25,0.9,15,100,8.526177,17,1700
651,8,0.25,0.95,15,25,8.662302,15,375
652,8,0.25,0.95,15,100,8.540769,15,1500
655,8,0.25,0.99,15,25,8.697575,14,350
656,8,0.25,0.99,15,100,8.6444,15,1500
659,8,0.125,0.8,15,25,8.728417,18,450
660,8,0.125,0.8,15,100,21.094805,19,1900
663,8,0.125,0.9,15,25,8.582863,14,350
664,8,0.125,0.9,15,100,10.901907,14,1400
667,8,0.125,0.95,15,25,8.419098,13,325
668,8,0.125,0.95,15,100,8.5176525,25,2500
671,8,0.125,0.99,15,25,8.454865,14,350
672,8,0.125,0.99,15,100,72.62642,12,1200
675,16,0.5,0.8,15,25,359.43475,10,250
676,16,0.5,0.8,15,100,400.47354,10,1000
679,16,0.5,0.9,15,25,416.6582,10,250
680,16,0.5,0.9,15,100,369.74826,10,1000
683,16,0.5,0.95,15,25,571.4674,10,250
684,16,0.5,0.95,15,100,371.5882,10,1000
687,16,0.5,0.99,15,25,419.26904,12,300
688,16,0.5,0.99,15,100,311.14963,15,1500
691,16,0.25,0.8,15,25,575.1839,10,250
692,16,0.25,0.8,15,100,259.0636,12,1200
695,16,0.25,0.9,15,25,562.4587,10,250
696,16,0.25,0.9,15,100,279.6818,12,1200
699,16,0.25,0.95,15,25,462.33307,10,250
700,16,0.25,0.95,15,100,393.35123,10,1000
703,16,0.25,0.99,15,25,309.12714,12,300
704,16,0.25,0.99,15,100,435.5976,10,1000
707,16,0.125,0.8,15,25,292.74176,10,250
708,16,0.125,0.8,15,100,225.92247,17,1700
711,16,0.125,0.9,15,25,576.28107,10,250
712,16,0.125,0.9,15,100,372.8775,10,1000
715,16,0.125,0.95,15,25,547.8481,10,250
716,16,0.125,0.95,15,100,340.02533,10,1000
719,16,0.125,0.99,15,25,390.57605,10,250
720,16,0.125,0.99,15,100,491.7621,10,1000
723,4,0.5,0.8,20,25,320.6555,12,300
724,4,0.5,0.8,20,100,354.53217,10,1000
727,4,0.5,0.9,20,25,348.65607,32,800
728,4,0.5,0.9,20,100,308.87808,17,1700
731,4,0.5,0.95,20,25,358.86014,26,650
732,4,0.5,0.95,20,100,224.83145,17,1700
735,4,0.5,0.99,20,25,356.03635,10,250
736,4,0.5,0.99,20,100,378.84467,16,1600
739,4,0.25,0.8,20,25,423.30508,10,250
740,4,0.25,0.8,20,100,332.07617,10,1000
743,4,0.25,0.9,20,25,451.531,12,300
744,4,0.25,0.9,20,100,342.47748,10,1000
747,4,0.25,0.95,20,25,387.1906,13,325
748,4,0.25,0.95,20,100,184.46886,10,1000
751,4,0.25,0.99,20,25,476.9844,10,250
752,4,0.25,0.99,20,100,288.32172,14,1400
755,4,0.125,0.8,20,25,513.0047,10,250
756,4,0.125,0.8,20,100,316.23264,10,1000
759,4,0.125,0.9,20,25,450.85223,10,250
760,4,0.125,0.9,20,100,379.0422,10,1000
763,4,0.125,0.95,20,25,343.61572,20,500
764,4,0.125,0.95,20,100,424.08273,10,1000
767,4,0.125,0.99,20,25,437.27338,10,250
768,4,0.125,0.99,20,100,334.1549,10,1000
771,8,0.5,0.8,20,25,8.71357,20,500
772,8,0.5,0.8,20,100,8.6188965,17,1700
775,8,0.5,0.9,20,25,8.699185,20,500
776,8,0.5,0.9,20,100,8.647005,37,3700
779,8,0.5,0.95,20,25,8.6899395,15,375
780,8,0.5,0.95,20,100,8.655631,13,1300
783,8,0.5,0.99,20,25,8.627455,15,375
784,8,0.5,0.99,20,100,8.654685,26,2600
787,8,0.25,0.8,20,25,8.775298,21,525
788,8,0.25,0.8,20,100,8.6430645,29,2900
791,8,0.25,0.9,20,25,8.605049,23,575
792,8,0.25,0.9,20,100,8.82353,12,1200
795,8,0.25,0.95,20,25,8.545424,36,900
796,8,0.25,0.95,20,100,8.684029,26,2600
799,8,0.25,0.99,20,25,8.630813,14,350
800,8,0.25,0.99,20,100,8.840879,17,1700
803,8,0.125,0.8,20,25,8.59509,17,425
804,8,0.125,0.8,20,100,13.1482115,17,1700
807,8,0.125,0.9,20,25,8.795647,18,450
808,8,0.125,0.9,20,100,19.077126,12,1200
811,8,0.125,0.95,20,25,8.645758,16,400
812,8,0.125,0.95,20,100,9.033497,12,1200
815,8,0.125,0.99,20,25,8.548028,12,300
816,8,0.125,0.99,20,100,8.628769,13,1300
819,16,0.5,0.8,20,25,376.01825,10,250
820,16,0.5,0.8,20,100,335.07812,10,1000
823,16,0.5,0.9,20,25,490.9166,17,425
824,16,0.5,0.9,20,100,336.5055,19,1900
827,16,0.5,0.95,20,25,553.55035,10,250
828,16,0.5,0.95,20,100,362.6376,23,2300
831,16,0.5,0.99,20,25,312.04453,12,300
832,16,0.5,0.99,20,100,324.63974,10,1000
835,16,0.25,0.8,20,25,420.009,10,250
836,16,0.25,0.8,20,100,356.77124,10,1000
839,16,0.25,0.9,20,25,526.7043,12,300
840,16,0.25,0.9,20,100,370.29865,10,1000
843,16,0.25,0.95,20,25,484.1912,10,250
844,16,0.25,0.95,20,100,232.76459,10,1000
847,16,0.25,0.99,20,25,493.97086,10,250
848,16,0.25,0.99,20,100,364.83685,10,1000
851,16,0.125,0.8,20,25,588.6166,10,250
852,16,0.125,0.8,20,100,351.87244,10,1000
855,16,0.125,0.9,20,25,446.06723,10,250
856,16,0.125,0.9,20,100,444.9743,10,1000
859,16,0.125,0.95,20,25,475.65536,10,250
860,16,0.125,0.95,20,100,447.80148,10,1000
863,16,0.125,0.99,20,25,439.7476,10,250
864,16,0.125,0.99,20,100,308.08395,15,1500
