run_counter,bit_count,m,c,tournament_size,i_max,obj_best_global,iterations,function_evals,start_index
1,8,0.125,0.95,2,100,7.6647305,22,2200,200
2,8,0.125,0.95,10,100,7.5750403,12,1200,200
3,8,0.5,0.8,20,25,7.6570277,19,475,200
4,8,0.25,0.95,3,25,7.694964,12,300,200
5,8,0.125,0.95,10,25,7.689231,22,550,200
6,8,0.25,0.95,2,25,7.605751,26,650,200
7,8,0.125,0.95,5,10,7.6930118,29,290,200
8,8,0.125,0.99,3,25,7.5968223,14,350,200
9,8,0.5,0.9,3,10,7.7444706,13,130,200
10,8,0.125,0.9,3,5,7.523112,18,90,200
11,8,0.25,0.99,3,5,7.845233,28,140,200
12,8,0.125,0.8,2,5,7.8515406,14,70,200
13,8,0.125,0.9,2,5,7.8434014,16,80,200
14,8,0.5,0.9,2,5,7.6575913,27,135,200
15,8,0.5,0.95,3,5,7.8242345,12,60,200
16,8,0.25,0.9,3,5,7.7000775,21,105,200
17,8,0.25,0.95,2,5,7.8931155,13,65,200
18,8,0.25,0.95,3,5,7.6786304,35,175,200
19,8,0.125,0.8,3,5,7.5913677,24,120,200
20,8,0.125,0.99,3,5,7.788926,18,90,200
21,8,0.125,0.95,2,100,9.924656,26,2600,300
22,8,0.125,0.95,10,100,9.979461,18,1800,300
23,8,0.5,0.8,20,25,10.059269,12,300,300
24,8,0.25,0.95,3,25,10.02261,20,500,300
25,8,0.125,0.95,10,25,9.974656,13,325,300
26,8,0.25,0.95,2,25,9.931,12,300,300
27,8,0.125,0.95,5,10,10.013678,12,120,300
28,8,0.125,0.99,3,25,9.949548,26,650,300
29,8,0.5,0.9,3,10,10.077681,21,210,300
30,8,0.125,0.9,3,5,10.141739,14,70,300
31,8,0.25,0.99,3,5,9.94069,30,150,300
32,8,0.125,0.8,2,5,10.017034,17,85,300
33,8,0.125,0.9,2,5,10.147285,14,70,300
34,8,0.5,0.9,2,5,9.929572,23,115,300
35,8,0.5,0.95,3,5,10.056523,18,90,300
36,8,0.25,0.9,3,5,10.153353,15,75,300
37,8,0.25,0.95,2,5,10.118733,16,80,300
38,8,0.25,0.95,3,5,10.00912,14,70,300
39,8,0.125,0.8,3,5,10.014563,20,100,300
40,8,0.125,0.99,3,5,10.014678,16,80,300
41,8,0.125,0.95,2,100,8.589437,12,1200,400
42,8,0.125,0.95,10,100,43.41382,13,1300,400
43,8,0.5,0.8,20,25,8.627853,14,350,400
44,8,0.25,0.95,3,25,8.710583,15,375,400
45,8,0.125,0.95,10,25,8.79029,12,300,400
46,8,0.25,0.95,2,25,8.628755,28,700,400
47,8,0.125,0.95,5,10,47.08641,13,130,400
48,8,0.125,0.99,3,25,8.639543,24,600,400
49,8,0.5,0.9,3,10,8.694127,26,260,400
50,8,0.125,0.9,3,5,8.629816,15,75,400
51,8,0.25,0.99,3,5,8.884049,12,60,400
52,8,0.125,0.8,2,5,8.869149,14,70,400
53,8,0.125,0.9,2,5,9.037755,12,60,400
54,8,0.5,0.9,2,5,8.716605,26,130,400
55,8,0.5,0.95,3,5,17.072351,12,60,400
56,8,0.25,0.9,3,5,8.823033,12,60,400
57,8,0.25,0.95,2,5,8.753521,15,75,400
58,8,0.25,0.95,3,5,8.5861635,13,65,400
59,8,0.125,0.8,3,5,8.925227,12,60,400
60,8,0.125,0.99,3,5,8.953113,13,65,400
61,8,0.125,0.95,2,100,8.159451,16,1600,500
62,8,0.125,0.95,10,100,8.20202,13,1300,500
63,8,0.5,0.8,20,25,8.512993,12,300,500
64,8,0.25,0.95,3,25,8.364775,12,300,500
65,8,0.125,0.95,10,25,8.234717,27,675,500
66,8,0.25,0.95,2,25,8.271906,24,600,500
67,8,0.125,0.95,5,10,8.458877,18,180,500
68,8,0.125,0.99,3,25,8.275019,13,325,500
69,8,0.5,0.9,3,10,8.087708,14,140,500
70,8,0.125,0.9,3,5,8.279727,16,80,500
71,8,0.25,0.99,3,5,8.345808,18,90,500
72,8,0.125,0.8,2,5,8.183934,26,130,500
73,8,0.125,0.9,2,5,8.337247,23,115,500
74,8,0.5,0.9,2,5,8.265535,25,125,500
75,8,0.5,0.95,3,5,8.362926,22,110,500
76,8,0.25,0.9,3,5,8.2884,17,85,500
77,8,0.25,0.95,2,5,8.237705,19,95,500
78,8,0.25,0.95,3,5,8.278871,13,65,500
79,8,0.125,0.8,3,5,8.408368,15,75,500
80,8,0.125,0.99,3,5,8.434448,15,75,500
1,8,0.125,0.95,2,100,5.6323566,14,1400,600
2,8,0.125,0.95,10,100,5.661848,23,2300,600
3,8,0.5,0.8,20,25,5.6263323,24,600,600
4,8,0.25,0.95,3,25,5.5911703,20,500,600
5,8,0.125,0.95,10,25,5.528594,16,400,600
6,8,0.25,0.95,2,25,5.6048326,24,600,600
7,8,0.125,0.95,5,10,5.636643,19,190,600
8,8,0.125,0.99,3,25,5.728421,14,350,600
9,8,0.5,0.9,3,10,5.751464,12,120,600
10,8,0.125,0.9,3,5,5.5646124,30,150,600
11,8,0.25,0.99,3,5,5.6590276,15,75,600
12,8,0.125,0.8,2,5,5.784375,15,75,600
13,8,0.125,0.9,2,5,5.594881,15,75,600
14,8,0.5,0.9,2,5,5.623583,19,95,600
15,8,0.5,0.95,3,5,5.6908402,23,115,600
16,8,0.25,0.9,3,5,5.7319665,17,85,600
17,8,0.25,0.95,2,5,5.7271333,13,65,600
18,8,0.25,0.95,3,5,5.6803575,17,85,600
19,8,0.125,0.8,3,5,5.565677,19,95,600
20,8,0.125,0.99,3,5,5.702552,27,135,600
21,8,0.125,0.95,2,100,10.018293,19,1900,700
22,8,0.125,0.95,10,100,73.305855,15,1500,700
23,8,0.5,0.8,20,25,290.9022,22,550,700
24,8,0.25,0.95,3,25,10.171769,15,375,700
25,8,0.125,0.95,10,25,10.193177,12,300,700
26,8,0.25,0.95,2,25,10.205256,25,625,700
27,8,0.125,0.95,5,10,10.528902,14,140,700
28,8,0.125,0.99,3,25,10.1704645,21,525,700
29,8,0.5,0.9,3,10,154.91797,14,140,700
30,8,0.125,0.9,3,5,10.227673,12,60,700
31,8,0.25,0.99,3,5,10.073577,15,75,700
32,8,0.125,0.8,2,5,10.112439,19,95,700
33,8,0.125,0.9,2,5,10.31217,14,70,700
34,8,0.5,0.9,2,5,92.72872,12,60,700
35,8,0.5,0.95,3,5,231.69417,16,80,700
36,8,0.25,0.9,3,5,10.350199,12,60,700
37,8,0.25,0.95,2,5,10.143415,14,70,700
38,8,0.25,0.95,3,5,10.190277,12,60,700
39,8,0.125,0.8,3,5,10.301797,12,60,700
40,8,0.125,0.99,3,5,36.547806,12,60,700
41,8,0.125,0.95,2,100,6.8211775,15,1500,800
42,8,0.125,0.95,10,100,6.904468,13,1300,800
43,8,0.5,0.8,20,25,6.968393,16,400,800
44,8,0.25,0.95,3,25,6.883032,14,350,800
45,8,0.125,0.95,10,25,6.872445,18,450,800
46,8,0.25,0.95,2,25,6.7927065,14,350,800
47,8,0.125,0.95,5,10,6.9790025,12,120,800
48,8,0.125,0.99,3,25,6.8109293,21,525,800
49,8,0.5,0.9,3,10,6.913843,24,240,800
50,8,0.125,0.9,3,5,6.907386,15,75,800
51,8,0.25,0.99,3,5,6.982316,17,85,800
52,8,0.125,0.8,2,5,7.1659575,28,140,800
53,8,0.125,0.9,2,5,6.9382725,25,125,800
54,8,0.5,0.9,2,5,7.003041,15,75,800
55,8,0.5,0.95,3,5,6.954582,18,90,800
56,8,0.25,0.9,3,5,6.862836,24,120,800
57,8,0.25,0.95,2,5,6.917452,16,80,800
58,8,0.25,0.95,3,5,6.8220153,19,95,800
59,8,0.125,0.8,3,5,6.9095163,20,100,800
60,8,0.125,0.99,3,5,7.0483747,14,70,800
61,8,0.125,0.95,2,100,9.606364,17,1700,900
62,8,0.125,0.95,10,100,21.990498,20,2000,900
63,8,0.5,0.8,20,25,9.619478,12,300,900
64,8,0.25,0.95,3,25,9.520943,12,300,900
65,8,0.125,0.95,10,25,9.459213,12,300,900
66,8,0.25,0.95,2,25,9.531497,12,300,900
67,8,0.125,0.95,5,10,11.989518,11,110,900
68,8,0.125,0.99,3,25,9.524075,27,675,900
69,8,0.5,0.9,3,10,10.479701,19,190,900
70,8,0.125,0.9,3,5,9.542171,14,70,900
71,8,0.25,0.99,3,5,9.399019,14,70,900
72,8,0.125,0.8,2,5,9.999646,12,60,900
73,8,0.125,0.9,2,5,9.501471,31,155,900
74,8,0.5,0.9,2,5,9.748837,12,60,900
75,8,0.5,0.95,3,5,9.592728,15,75,900
76,8,0.25,0.9,3,5,9.489806,18,90,900
77,8,0.25,0.95,2,5,9.503112,26,130,900
78,8,0.25,0.95,3,5,9.524374,19,95,900
79,8,0.125,0.8,3,5,9.660273,13,65,900
80,8,0.125,0.99,3,5,9.622858,20,100,900
81,8,0.125,0.95,2,100,10.314221,15,1500,1000
82,8,0.125,0.95,10,100,10.610345,11,1100,1000
83,8,0.5,0.8,20,25,10.072356,18,450,1000
84,8,0.25,0.95,3,25,10.032255,14,350,1000
85,8,0.125,0.95,10,25,10.008657,17,425,1000
86,8,0.25,0.95,2,25,10.206583,19,475,1000
87,8,0.125,0.95,5,10,39.700985,25,250,1000
88,8,0.125,0.99,3,25,10.212907,12,300,1000
89,8,0.5,0.9,3,10,10.438353,15,150,1000
90,8,0.125,0.9,3,5,10.610662,12,60,1000
91,8,0.25,0.99,3,5,10.1080885,30,150,1000
92,8,0.125,0.8,2,5,10.185153,14,70,1000
93,8,0.125,0.9,2,5,100.23977,16,80,1000
94,8,0.5,0.9,2,5,29.840569,18,90,1000
95,8,0.5,0.95,3,5,10.092225,16,80,1000
96,8,0.25,0.9,3,5,10.035599,22,110,1000
97,8,0.25,0.95,2,5,10.108376,12,60,1000
98,8,0.25,0.95,3,5,10.076168,13,65,1000
99,8,0.125,0.8,3,5,10.101536,14,70,1000
100,8,0.125,0.99,3,5,73.916885,12,60,1000
