%!PS-Adobe-3.0 EPSF-3.0
%%Title: machine_learning_data/comparison_slow_down.eps
%%Creator: matplotlib version 3.3.2, http://matplotlib.org/
%%CreationDate: Tue Jun  8 14:57:32 2021
%%Orientation: portrait
%%BoundingBox: -1.668750000000017 227.46562500000002 613.66875 564.534375
%%EndComments
%%BeginProlog
/mpldict 8 dict def
mpldict begin
/m { moveto } bind def
/l { lineto } bind def
/r { rlineto } bind def
/c { curveto } bind def
/cl { closepath } bind def
/box {
      m
      1 index 0 r
      0 exch r
      neg 0 r
      cl
    } bind def
/clipbox {
      box
      clip
      newpath
    } bind def
%!PS-Adobe-3.0 Resource-Font
%%Title: DejaVu Sans
%%Copyright: Copyright (c) 2003 by Bitstream, Inc. All Rights Reserved. Copyright (c) 2006 by Tavmjong Bah. All Rights Reserved. DejaVu changes are in public domain 
%%Creator: Converted from TrueType to type 3 by PPR
25 dict begin
/_d{bind def}bind def
/_m{moveto}_d
/_l{lineto}_d
/_cl{closepath eofill}_d
/_c{curveto}_d
/_sc{7 -1 roll{setcachedevice}{pop pop pop pop pop pop}ifelse}_d
/_e{exec}_d
/FontName /DejaVuSans def
/PaintType 0 def
/FontMatrix[.001 0 0 .001 0 0]def
/FontBBox[-1021 -463 1793 1232]def
/FontType 3 def
/Encoding [ /space /parenleft /parenright /hyphen /period /zero /one /two /three /four /five /six /eight /C /I /T /a /b /c /d /e /f /h /i /l /m /n /o /p /r /s /t /u /y ] def
/FontInfo 10 dict dup begin
/FamilyName (DejaVu Sans) def
/FullName (DejaVu Sans) def
/Notice (Copyright (c) 2003 by Bitstream, Inc. All Rights Reserved. Copyright (c) 2006 by Tavmjong Bah. All Rights Reserved. DejaVu changes are in public domain ) def
/Weight (Book) def
/Version (Version 2.35) def
/ItalicAngle 0.0 def
/isFixedPitch false def
/UnderlinePosition -130 def
/UnderlineThickness 90 def
end readonly def
/CharStrings 35 dict dup begin
/.notdef 0 def
/space{318 0 0 0 0 0 _sc
}_d
/parenleft{390 0 86 -131 310 759 _sc
310 759 _m
266 683 234 609 213 536 _c
191 463 181 389 181 314 _c
181 238 191 164 213 91 _c
234 17 266 -56 310 -131 _c
232 -131 _l
183 -54 146 20 122 94 _c
98 168 86 241 86 314 _c
86 386 98 459 122 533 _c
146 607 182 682 232 759 _c
310 759 _l
_cl}_d
/parenright{390 0 80 -131 304 759 _sc
80 759 _m
158 759 _l
206 682 243 607 267 533 _c
291 459 304 386 304 314 _c
304 241 291 168 267 94 _c
243 20 206 -54 158 -131 _c
80 -131 _l
123 -56 155 17 177 91 _c
198 164 209 238 209 314 _c
209 389 198 463 177 536 _c
155 609 123 683 80 759 _c
_cl}_d
/hyphen{361 0 49 234 312 314 _sc
49 314 _m
312 314 _l
312 234 _l
49 234 _l
49 314 _l
_cl}_d
/period{318 0 107 0 210 124 _sc
107 124 _m
210 124 _l
210 0 _l
107 0 _l
107 124 _l
_cl}_d
/zero{636 0 66 -13 570 742 _sc
318 664 _m
267 664 229 639 203 589 _c
177 539 165 464 165 364 _c
165 264 177 189 203 139 _c
229 89 267 64 318 64 _c
369 64 407 89 433 139 _c
458 189 471 264 471 364 _c
471 464 458 539 433 589 _c
407 639 369 664 318 664 _c
318 742 _m
399 742 461 709 505 645 _c
548 580 570 486 570 364 _c
570 241 548 147 505 83 _c
461 19 399 -13 318 -13 _c
236 -13 173 19 130 83 _c
87 147 66 241 66 364 _c
66 486 87 580 130 645 _c
173 709 236 742 318 742 _c
_cl}_d
/one{636 0 110 0 544 729 _sc
124 83 _m
285 83 _l
285 639 _l
110 604 _l
110 694 _l
284 729 _l
383 729 _l
383 83 _l
544 83 _l
544 0 _l
124 0 _l
124 83 _l
_cl}_d
/two{{636 0 73 0 536 742 _sc
192 83 _m
536 83 _l
536 0 _l
73 0 _l
73 83 _l
110 121 161 173 226 239 _c
290 304 331 346 348 365 _c
380 400 402 430 414 455 _c
426 479 433 504 433 528 _c
433 566 419 598 392 622 _c
365 646 330 659 286 659 _c
255 659 222 653 188 643 _c
154 632 117 616 78 594 _c
78 694 _l
118 710 155 722 189 730 _c
223 738 255 742 284 742 _c
}_e{359 742 419 723 464 685 _c
509 647 532 597 532 534 _c
532 504 526 475 515 449 _c
504 422 484 390 454 354 _c
446 344 420 317 376 272 _c
332 227 271 164 192 83 _c
_cl}_e}_d
/three{{636 0 76 -13 556 742 _sc
406 393 _m
453 383 490 362 516 330 _c
542 298 556 258 556 212 _c
556 140 531 84 482 45 _c
432 6 362 -13 271 -13 _c
240 -13 208 -10 176 -4 _c
144 1 110 10 76 22 _c
76 117 _l
103 101 133 89 166 81 _c
198 73 232 69 268 69 _c
330 69 377 81 409 105 _c
441 129 458 165 458 212 _c
458 254 443 288 413 312 _c
383 336 341 349 287 349 _c
}_e{202 349 _l
202 430 _l
291 430 _l
339 430 376 439 402 459 _c
428 478 441 506 441 543 _c
441 580 427 609 401 629 _c
374 649 336 659 287 659 _c
260 659 231 656 200 650 _c
169 644 135 635 98 623 _c
98 711 _l
135 721 170 729 203 734 _c
235 739 266 742 296 742 _c
370 742 429 725 473 691 _c
517 657 539 611 539 553 _c
539 513 527 479 504 451 _c
481 423 448 403 406 393 _c
_cl}_e}_d
/four{636 0 49 0 580 729 _sc
378 643 _m
129 254 _l
378 254 _l
378 643 _l
352 729 _m
476 729 _l
476 254 _l
580 254 _l
580 172 _l
476 172 _l
476 0 _l
378 0 _l
378 172 _l
49 172 _l
49 267 _l
352 729 _l
_cl}_d
/five{{636 0 77 -13 549 729 _sc
108 729 _m
495 729 _l
495 646 _l
198 646 _l
198 467 _l
212 472 227 476 241 478 _c
255 480 270 482 284 482 _c
365 482 429 459 477 415 _c
525 370 549 310 549 234 _c
549 155 524 94 475 51 _c
426 8 357 -13 269 -13 _c
238 -13 207 -10 175 -6 _c
143 -1 111 6 77 17 _c
77 116 _l
106 100 136 88 168 80 _c
199 72 232 69 267 69 _c
}_e{323 69 368 83 401 113 _c
433 143 450 183 450 234 _c
450 284 433 324 401 354 _c
368 384 323 399 267 399 _c
241 399 214 396 188 390 _c
162 384 135 375 108 363 _c
108 729 _l
_cl}_e}_d
/six{{636 0 70 -13 573 742 _sc
330 404 _m
286 404 251 388 225 358 _c
199 328 186 286 186 234 _c
186 181 199 139 225 109 _c
251 79 286 64 330 64 _c
374 64 409 79 435 109 _c
461 139 474 181 474 234 _c
474 286 461 328 435 358 _c
409 388 374 404 330 404 _c
526 713 _m
526 623 _l
501 635 476 644 451 650 _c
425 656 400 659 376 659 _c
310 659 260 637 226 593 _c
}_e{192 549 172 482 168 394 _c
187 422 211 444 240 459 _c
269 474 301 482 336 482 _c
409 482 467 459 509 415 _c
551 371 573 310 573 234 _c
573 159 550 99 506 54 _c
462 9 403 -13 330 -13 _c
246 -13 181 19 137 83 _c
92 147 70 241 70 364 _c
70 479 97 571 152 639 _c
206 707 280 742 372 742 _c
396 742 421 739 447 735 _c
472 730 498 723 526 713 _c
_cl}_e}_d
/eight{{636 0 68 -13 568 742 _sc
318 346 _m
271 346 234 333 207 308 _c
180 283 167 249 167 205 _c
167 161 180 126 207 101 _c
234 76 271 64 318 64 _c
364 64 401 76 428 102 _c
455 127 469 161 469 205 _c
469 249 455 283 429 308 _c
402 333 365 346 318 346 _c
219 388 _m
177 398 144 418 120 447 _c
96 476 85 511 85 553 _c
85 611 105 657 147 691 _c
188 725 245 742 318 742 _c
}_e{390 742 447 725 489 691 _c
530 657 551 611 551 553 _c
551 511 539 476 515 447 _c
491 418 459 398 417 388 _c
464 377 501 355 528 323 _c
554 291 568 251 568 205 _c
568 134 546 80 503 43 _c
459 5 398 -13 318 -13 _c
237 -13 175 5 132 43 _c
89 80 68 134 68 205 _c
68 251 81 291 108 323 _c
134 355 171 377 219 388 _c
183 544 _m
183 506 194 476 218 455 _c
}_e{242 434 275 424 318 424 _c
360 424 393 434 417 455 _c
441 476 453 506 453 544 _c
453 582 441 611 417 632 _c
393 653 360 664 318 664 _c
275 664 242 653 218 632 _c
194 611 183 582 183 544 _c
_cl}_e}_d
/C{{698 0 56 -13 644 742 _sc
644 673 _m
644 569 _l
610 599 575 622 537 638 _c
499 653 460 661 418 661 _c
334 661 270 635 226 584 _c
182 533 160 460 160 364 _c
160 268 182 194 226 143 _c
270 92 334 67 418 67 _c
460 67 499 74 537 90 _c
575 105 610 128 644 159 _c
644 56 _l
609 32 572 15 534 4 _c
496 -7 455 -13 412 -13 _c
302 -13 215 20 151 87 _c
}_e{87 154 56 246 56 364 _c
56 481 87 573 151 641 _c
215 708 302 742 412 742 _c
456 742 497 736 535 725 _c
573 713 610 696 644 673 _c
_cl}_e}_d
/I{295 0 98 0 197 729 _sc
98 729 _m
197 729 _l
197 0 _l
98 0 _l
98 729 _l
_cl}_d
/T{611 0 -2 0 614 729 _sc
-2 729 _m
614 729 _l
614 646 _l
355 646 _l
355 0 _l
256 0 _l
256 646 _l
-2 646 _l
-2 729 _l
_cl}_d
/a{{613 0 60 -13 522 560 _sc
343 275 _m
270 275 220 266 192 250 _c
164 233 150 205 150 165 _c
150 133 160 107 181 89 _c
202 70 231 61 267 61 _c
317 61 357 78 387 114 _c
417 149 432 196 432 255 _c
432 275 _l
343 275 _l
522 312 _m
522 0 _l
432 0 _l
432 83 _l
411 49 385 25 355 10 _c
325 -5 287 -13 243 -13 _c
187 -13 142 2 109 33 _c
76 64 60 106 60 159 _c
}_e{60 220 80 266 122 298 _c
163 329 224 345 306 345 _c
432 345 _l
432 354 _l
432 395 418 427 391 450 _c
364 472 326 484 277 484 _c
245 484 215 480 185 472 _c
155 464 127 453 100 439 _c
100 522 _l
132 534 164 544 195 550 _c
226 556 256 560 286 560 _c
365 560 424 539 463 498 _c
502 457 522 395 522 312 _c
_cl}_e}_d
/b{{635 0 91 -13 580 760 _sc
487 273 _m
487 339 473 390 446 428 _c
418 466 381 485 334 485 _c
286 485 249 466 222 428 _c
194 390 181 339 181 273 _c
181 207 194 155 222 117 _c
249 79 286 61 334 61 _c
381 61 418 79 446 117 _c
473 155 487 207 487 273 _c
181 464 _m
199 496 223 520 252 536 _c
281 552 316 560 356 560 _c
422 560 476 533 518 481 _c
559 428 580 359 580 273 _c
}_e{580 187 559 117 518 65 _c
476 13 422 -13 356 -13 _c
316 -13 281 -5 252 10 _c
223 25 199 49 181 82 _c
181 0 _l
91 0 _l
91 760 _l
181 760 _l
181 464 _l
_cl}_e}_d
/c{{550 0 55 -13 488 560 _sc
488 526 _m
488 442 _l
462 456 437 466 411 473 _c
385 480 360 484 334 484 _c
276 484 230 465 198 428 _c
166 391 150 339 150 273 _c
150 206 166 154 198 117 _c
230 80 276 62 334 62 _c
360 62 385 65 411 72 _c
437 79 462 90 488 104 _c
488 21 _l
462 9 436 0 410 -5 _c
383 -10 354 -13 324 -13 _c
242 -13 176 12 128 64 _c
}_e{79 115 55 185 55 273 _c
55 362 79 432 128 483 _c
177 534 244 560 330 560 _c
358 560 385 557 411 551 _c
437 545 463 537 488 526 _c
_cl}_e}_d
/d{{635 0 55 -13 544 760 _sc
454 464 _m
454 760 _l
544 760 _l
544 0 _l
454 0 _l
454 82 _l
435 49 411 25 382 10 _c
353 -5 319 -13 279 -13 _c
213 -13 159 13 117 65 _c
75 117 55 187 55 273 _c
55 359 75 428 117 481 _c
159 533 213 560 279 560 _c
319 560 353 552 382 536 _c
411 520 435 496 454 464 _c
148 273 _m
148 207 161 155 188 117 _c
215 79 253 61 301 61 _c
}_e{348 61 385 79 413 117 _c
440 155 454 207 454 273 _c
454 339 440 390 413 428 _c
385 466 348 485 301 485 _c
253 485 215 466 188 428 _c
161 390 148 339 148 273 _c
_cl}_e}_d
/e{{615 0 55 -13 562 560 _sc
562 296 _m
562 252 _l
149 252 _l
153 190 171 142 205 110 _c
238 78 284 62 344 62 _c
378 62 412 66 444 74 _c
476 82 509 95 541 113 _c
541 28 _l
509 14 476 3 442 -3 _c
408 -9 373 -13 339 -13 _c
251 -13 182 12 131 62 _c
80 112 55 181 55 268 _c
55 357 79 428 127 481 _c
175 533 241 560 323 560 _c
397 560 455 536 498 489 _c
}_e{540 441 562 377 562 296 _c
472 322 _m
471 371 457 410 431 440 _c
404 469 368 484 324 484 _c
274 484 234 469 204 441 _c
174 413 156 373 152 322 _c
472 322 _l
_cl}_e}_d
/f{352 0 23 0 371 760 _sc
371 760 _m
371 685 _l
285 685 _l
253 685 230 678 218 665 _c
205 652 199 629 199 595 _c
199 547 _l
347 547 _l
347 477 _l
199 477 _l
199 0 _l
109 0 _l
109 477 _l
23 477 _l
23 547 _l
109 547 _l
109 585 _l
109 645 123 690 151 718 _c
179 746 224 760 286 760 _c
371 760 _l
_cl}_d
/h{634 0 91 0 549 760 _sc
549 330 _m
549 0 _l
459 0 _l
459 327 _l
459 379 448 417 428 443 _c
408 469 378 482 338 482 _c
289 482 251 466 223 435 _c
195 404 181 362 181 309 _c
181 0 _l
91 0 _l
91 760 _l
181 760 _l
181 462 _l
202 494 227 519 257 535 _c
286 551 320 560 358 560 _c
420 560 468 540 500 501 _c
532 462 549 405 549 330 _c
_cl}_d
/i{278 0 94 0 184 760 _sc
94 547 _m
184 547 _l
184 0 _l
94 0 _l
94 547 _l
94 760 _m
184 760 _l
184 646 _l
94 646 _l
94 760 _l
_cl}_d
/l{278 0 94 0 184 760 _sc
94 760 _m
184 760 _l
184 0 _l
94 0 _l
94 760 _l
_cl}_d
/m{{974 0 91 0 889 560 _sc
520 442 _m
542 482 569 511 600 531 _c
631 550 668 560 711 560 _c
767 560 811 540 842 500 _c
873 460 889 403 889 330 _c
889 0 _l
799 0 _l
799 327 _l
799 379 789 418 771 444 _c
752 469 724 482 686 482 _c
639 482 602 466 575 435 _c
548 404 535 362 535 309 _c
535 0 _l
445 0 _l
445 327 _l
445 379 435 418 417 444 _c
398 469 369 482 331 482 _c
}_e{285 482 248 466 221 435 _c
194 404 181 362 181 309 _c
181 0 _l
91 0 _l
91 547 _l
181 547 _l
181 462 _l
201 495 226 520 255 536 _c
283 552 317 560 357 560 _c
397 560 430 550 458 530 _c
486 510 506 480 520 442 _c
_cl}_e}_d
/n{634 0 91 0 549 560 _sc
549 330 _m
549 0 _l
459 0 _l
459 327 _l
459 379 448 417 428 443 _c
408 469 378 482 338 482 _c
289 482 251 466 223 435 _c
195 404 181 362 181 309 _c
181 0 _l
91 0 _l
91 547 _l
181 547 _l
181 462 _l
202 494 227 519 257 535 _c
286 551 320 560 358 560 _c
420 560 468 540 500 501 _c
532 462 549 405 549 330 _c
_cl}_d
/o{612 0 55 -13 557 560 _sc
306 484 _m
258 484 220 465 192 427 _c
164 389 150 338 150 273 _c
150 207 163 156 191 118 _c
219 80 257 62 306 62 _c
354 62 392 80 420 118 _c
448 156 462 207 462 273 _c
462 337 448 389 420 427 _c
392 465 354 484 306 484 _c
306 560 _m
384 560 445 534 490 484 _c
534 433 557 363 557 273 _c
557 183 534 113 490 63 _c
445 12 384 -13 306 -13 _c
227 -13 165 12 121 63 _c
77 113 55 183 55 273 _c
55 363 77 433 121 484 _c
165 534 227 560 306 560 _c
_cl}_d
/p{{635 0 91 -207 580 560 _sc
181 82 _m
181 -207 _l
91 -207 _l
91 547 _l
181 547 _l
181 464 _l
199 496 223 520 252 536 _c
281 552 316 560 356 560 _c
422 560 476 533 518 481 _c
559 428 580 359 580 273 _c
580 187 559 117 518 65 _c
476 13 422 -13 356 -13 _c
316 -13 281 -5 252 10 _c
223 25 199 49 181 82 _c
487 273 _m
487 339 473 390 446 428 _c
418 466 381 485 334 485 _c
}_e{286 485 249 466 222 428 _c
194 390 181 339 181 273 _c
181 207 194 155 222 117 _c
249 79 286 61 334 61 _c
381 61 418 79 446 117 _c
473 155 487 207 487 273 _c
_cl}_e}_d
/r{411 0 91 0 411 560 _sc
411 463 _m
401 469 390 473 378 476 _c
366 478 353 480 339 480 _c
288 480 249 463 222 430 _c
194 397 181 350 181 288 _c
181 0 _l
91 0 _l
91 547 _l
181 547 _l
181 462 _l
199 495 224 520 254 536 _c
284 552 321 560 365 560 _c
371 560 378 559 386 559 _c
393 558 401 557 411 555 _c
411 463 _l
_cl}_d
/s{{521 0 54 -13 472 560 _sc
443 531 _m
443 446 _l
417 458 391 468 364 475 _c
336 481 308 485 279 485 _c
234 485 200 478 178 464 _c
156 450 145 430 145 403 _c
145 382 153 366 169 354 _c
185 342 217 330 265 320 _c
296 313 _l
360 299 405 279 432 255 _c
458 230 472 195 472 151 _c
472 100 452 60 412 31 _c
372 1 316 -13 246 -13 _c
216 -13 186 -10 154 -5 _c
}_e{122 0 89 8 54 20 _c
54 113 _l
87 95 120 82 152 74 _c
184 65 216 61 248 61 _c
290 61 323 68 346 82 _c
368 96 380 117 380 144 _c
380 168 371 187 355 200 _c
339 213 303 226 247 238 _c
216 245 _l
160 257 119 275 95 299 _c
70 323 58 356 58 399 _c
58 450 76 490 112 518 _c
148 546 200 560 268 560 _c
301 560 332 557 362 552 _c
391 547 418 540 443 531 _c
}_e{_cl}_e}_d
/t{392 0 27 0 368 702 _sc
183 702 _m
183 547 _l
368 547 _l
368 477 _l
183 477 _l
183 180 _l
183 135 189 106 201 94 _c
213 81 238 75 276 75 _c
368 75 _l
368 0 _l
276 0 _l
206 0 158 13 132 39 _c
106 65 93 112 93 180 _c
93 477 _l
27 477 _l
27 547 _l
93 547 _l
93 702 _l
183 702 _l
_cl}_d
/u{634 0 85 -13 543 560 _sc
85 216 _m
85 547 _l
175 547 _l
175 219 _l
175 167 185 129 205 103 _c
225 77 255 64 296 64 _c
344 64 383 79 411 110 _c
439 141 453 183 453 237 _c
453 547 _l
543 547 _l
543 0 _l
453 0 _l
453 84 _l
431 50 405 26 377 10 _c
348 -5 315 -13 277 -13 _c
214 -13 166 6 134 45 _c
101 83 85 140 85 216 _c
311 560 _m
311 560 _l
_cl}_d
/y{592 0 30 -207 562 547 _sc
322 -50 _m
296 -114 271 -157 247 -177 _c
223 -197 191 -207 151 -207 _c
79 -207 _l
79 -132 _l
132 -132 _l
156 -132 175 -126 189 -114 _c
203 -102 218 -75 235 -31 _c
251 9 _l
30 547 _l
125 547 _l
296 119 _l
467 547 _l
562 547 _l
322 -50 _l
_cl}_d
end readonly def

/BuildGlyph
 {exch begin
 CharStrings exch
 2 copy known not{pop /.notdef}if
 true 3 1 roll get exec
 end}_d

/BuildChar {
 1 index /Encoding get exch get
 1 index /BuildGlyph get exec
}_d

FontName currentdict end definefont pop
end
%%EndProlog
mpldict begin
-1.669 227.466 translate
615.338 337.069 0 0 clipbox
gsave
0 0 m
615.3375 0 l
615.3375 337.06875 l
0 337.06875 l
cl
1.000 setgray
fill
grestore
gsave
50.1375 188.74375 m
608.1375 188.74375 l
608.1375 314.74375 l
50.1375 314.74375 l
cl
1.000 setgray
fill
grestore
0.800 setlinewidth
1 setlinejoin
0 setlinecap
[] 0 setdash
0.000 setgray
gsave
/o {
gsave
newpath
translate
0.8 setlinewidth
1 setlinejoin
0 setlinecap
0 0 m
0 -3.5 l

gsave
0.000 setgray
fill
grestore
stroke
grestore
} bind def
50.1375 188.744 o
grestore
/DejaVuSans findfont
10.000 scalefont
setfont
gsave
46.957813 174.150000 translate
0.000000 rotate
0.000000 0 m /zero glyphshow
grestore
gsave
/o {
gsave
newpath
translate
0.8 setlinewidth
1 setlinejoin
0 setlinecap
0 0 m
0 -3.5 l

gsave
0.000 setgray
fill
grestore
stroke
grestore
} bind def
140.137 188.744 o
grestore
gsave
133.778125 174.150000 translate
0.000000 rotate
0.000000 0 m /one glyphshow
6.362305 0 m /zero glyphshow
grestore
gsave
/o {
gsave
newpath
translate
0.8 setlinewidth
1 setlinejoin
0 setlinecap
0 0 m
0 -3.5 l

gsave
0.000 setgray
fill
grestore
stroke
grestore
} bind def
230.137 188.744 o
grestore
gsave
223.778125 174.150000 translate
0.000000 rotate
0.000000 0 m /two glyphshow
6.362305 0 m /zero glyphshow
grestore
gsave
/o {
gsave
newpath
translate
0.8 setlinewidth
1 setlinejoin
0 setlinecap
0 0 m
0 -3.5 l

gsave
0.000 setgray
fill
grestore
stroke
grestore
} bind def
320.137 188.744 o
grestore
gsave
313.778125 174.150000 translate
0.000000 rotate
0.000000 0 m /three glyphshow
6.362305 0 m /zero glyphshow
grestore
gsave
/o {
gsave
newpath
translate
0.8 setlinewidth
1 setlinejoin
0 setlinecap
0 0 m
0 -3.5 l

gsave
0.000 setgray
fill
grestore
stroke
grestore
} bind def
410.137 188.744 o
grestore
gsave
403.778125 174.150000 translate
0.000000 rotate
0.000000 0 m /four glyphshow
6.362305 0 m /zero glyphshow
grestore
gsave
/o {
gsave
newpath
translate
0.8 setlinewidth
1 setlinejoin
0 setlinecap
0 0 m
0 -3.5 l

gsave
0.000 setgray
fill
grestore
stroke
grestore
} bind def
500.137 188.744 o
grestore
gsave
493.778125 174.150000 translate
0.000000 rotate
0.000000 0 m /five glyphshow
6.362305 0 m /zero glyphshow
grestore
gsave
/o {
gsave
newpath
translate
0.8 setlinewidth
1 setlinejoin
0 setlinecap
0 0 m
0 -3.5 l

gsave
0.000 setgray
fill
grestore
stroke
grestore
} bind def
590.138 188.744 o
grestore
gsave
583.778125 174.150000 translate
0.000000 rotate
0.000000 0 m /six glyphshow
6.362305 0 m /zero glyphshow
grestore
gsave
/o {
gsave
newpath
translate
0.8 setlinewidth
1 setlinejoin
0 setlinecap
-0 0 m
-3.5 0 l

gsave
0.000 setgray
fill
grestore
stroke
grestore
} bind def
50.1375 202.021 o
grestore
gsave
27.231250 198.224562 translate
0.000000 rotate
0.000000 0 m /zero glyphshow
6.362305 0 m /period glyphshow
9.541016 0 m /four glyphshow
grestore
gsave
/o {
gsave
newpath
translate
0.8 setlinewidth
1 setlinejoin
0 setlinecap
-0 0 m
-3.5 0 l

gsave
0.000 setgray
fill
grestore
stroke
grestore
} bind def
50.1375 237.627 o
grestore
gsave
27.231250 233.829690 translate
0.000000 rotate
0.000000 0 m /zero glyphshow
6.362305 0 m /period glyphshow
9.541016 0 m /six glyphshow
grestore
gsave
/o {
gsave
newpath
translate
0.8 setlinewidth
1 setlinejoin
0 setlinecap
-0 0 m
-3.5 0 l

gsave
0.000 setgray
fill
grestore
stroke
grestore
} bind def
50.1375 273.232 o
grestore
gsave
27.231250 269.434818 translate
0.000000 rotate
0.000000 0 m /zero glyphshow
6.362305 0 m /period glyphshow
9.541016 0 m /eight glyphshow
grestore
gsave
/o {
gsave
newpath
translate
0.8 setlinewidth
1 setlinejoin
0 setlinecap
-0 0 m
-3.5 0 l

gsave
0.000 setgray
fill
grestore
stroke
grestore
} bind def
50.1375 308.837 o
grestore
gsave
27.231250 305.039946 translate
0.000000 rotate
0.000000 0 m /one glyphshow
6.362305 0 m /period glyphshow
9.541016 0 m /zero glyphshow
grestore
gsave
21.153125 221.540625 translate
90.000000 rotate
0.000000 0 m /f glyphshow
3.520508 0 m /u glyphshow
9.858398 0 m /e glyphshow
16.010742 0 m /l glyphshow
18.789062 0 m /space glyphshow
21.967773 0 m /f glyphshow
25.488281 0 m /r glyphshow
29.599609 0 m /a glyphshow
35.727539 0 m /c glyphshow
41.225586 0 m /t glyphshow
45.146484 0 m /i glyphshow
47.924805 0 m /o glyphshow
54.042969 0 m /n glyphshow
grestore
1.500 setlinewidth
2 setlinecap
0.000 0.000 1.000 setrgbcolor
gsave
558 126 50.14 188.7 clipbox
50.1375 308.836821 m
50.2875 306.242331 l
50.5875 307.757407 l
50.8875 308.737402 l
51.0375 308.908087 l
51.3375 308.828419 l
51.7875 308.577417 l
52.3875 308.630811 l
53.2875 308.720203 l
56.7375 308.808034 l
66.7875 308.891615 l
105.9375 308.884736 l
159.0375 308.926166 l
159.7875 309.002541 l
164.2875 308.828946 l
167.2875 308.410965 l
168.0375 308.042223 l
168.6375 307.70531 l
172.2375 306.398682 l
176.7375 304.607968 l
177.6375 303.944995 l
178.6875 303.719506 l
180.9375 302.992519 l
189.7875 298.544708 l
195.4875 295.616914 l
196.9875 294.281922 l
199.2375 292.092395 l
203.5875 287.538585 l
204.9375 286.054738 l
207.9375 284.359277 l
210.1875 283.416087 l
212.4375 282.701287 l
213.4875 282.556488 l
214.0875 282.774191 l
216.3375 284.147638 l
218.4375 285.807643 l
221.4375 288.4985 l
222.0375 288.92899 l
222.9375 289.293594 l
224.5875 289.674008 l
226.2375 289.802956 l
228.1875 289.731282 l
230.5875 289.422024 l
231.0375 289.050345 l
234.1875 284.131333 l
235.8375 280.886088 l
238.2375 275.507595 l
240.0375 271.368693 l
242.2875 268.612587 l
243.7875 267.258827 l
245.2875 266.202585 l
247.0875 265.221199 l
248.5875 264.632727 l
248.7375 264.590477 l
249.3375 265.120036 l
249.6375 265.650257 l
249.9375 266.41273 l
250.8375 267.929785 l
251.8875 270.242609 l
253.6875 274.796294 l
256.0875 281.616157 l
258.0375 287.184612 l
258.9375 288.364511 l
260.2875 289.949591 l
261.4875 290.899083 l
262.6875 291.556837 l
263.8875 291.972906 l
265.2375 292.213085 l
266.5875 292.257629 l
266.8875 292.137291 l
267.4875 291.518059 l
269.1375 289.266008 l
270.4875 286.886562 l
272.1375 283.48606 l
274.2375 278.575578 l
276.1875 273.953093 l
277.2375 272.624905 l
278.7375 270.88375 l
280.2375 269.557082 l
281.8875 268.396516 l
283.8375 267.316613 l
287.5875 265.372078 l
292.0875 263.035676 l
295.2375 261.649862 l
299.8875 260.555299 l
302.5875 260.163932 l
303.0375 260.257994 l
303.3375 260.415156 l
303.4875 260.558821 l
303.9375 261.227088 l
304.5375 261.950615 l
305.7375 263.330267 l
310.2375 269.614348 l
312.0375 271.983125 l
312.9375 272.425742 l
315.4875 273.28668 l
317.5875 273.560795 l
319.6875 273.574216 l
320.7375 273.444122 l
321.0375 273.246986 l
321.7875 272.201847 l
322.2375 271.513248 l
323.4375 269.722966 l
324.6375 267.376057 l
326.2875 263.682533 l
328.2375 258.72066 l
330.1875 253.626477 l
331.0875 252.447025 l
332.8875 250.366972 l
334.2375 249.28251 l
335.5875 248.475706 l
337.0875 247.839076 l
338.4375 247.491259 l
339.1875 247.424749 l
339.6375 247.744572 l
341.4375 249.652016 l
342.7875 251.391676 l
344.8875 254.506266 l
347.4375 258.70928 l
348.1875 259.776176 l
349.2375 260.612259 l
350.7375 261.650995 l
352.2375 262.35953 l
353.8875 262.8783 l
355.6875 263.205494 l
357.0375 263.44492 l
358.0875 263.981375 l
359.7375 264.303779 l
361.3875 264.454509 l
363.0375 264.382278 l
364.2375 264.112182 l
365.1375 263.707468 l
365.7375 263.271033 l
367.0875 261.499236 l
367.9875 261.386165 l
370.3875 260.410636 l
374.7375 258.988486 l
375.1875 258.418449 l
376.0875 256.73231 l
377.4375 255.781095 l
379.5375 253.336184 l
380.7375 251.700924 l
382.3875 248.997671 l
384.3375 245.673871 l
387.4875 243.199767 l
389.1375 242.334166 l
390.9375 241.658172 l
392.8875 241.165996 l
396.6375 240.377876 l
398.4375 239.751588 l
400.5375 238.777389 l
403.2375 237.500149 l
409.5375 236.142456 l
411.7875 235.899271 l
413.4375 236.005305 l
416.7375 236.090605 l
420.0375 236.04547 l
422.5875 235.937948 l
429.1875 236.393283 l
429.7875 236.684531 l
430.5375 237.345119 l
432.9375 239.934214 l
438.4875 246.26935 l
439.3875 246.663557 l
440.7375 247.011458 l
441.9375 247.107464 l
443.4375 246.995756 l
445.0875 246.646395 l
447.4875 245.881814 l
448.6875 245.216707 l
450.7875 243.795941 l
453.0375 241.958889 l
455.2875 239.846728 l
456.1875 238.694291 l
456.6375 238.234475 l
459.3375 236.598218 l
461.5875 235.380084 l
464.4375 234.041129 l
465.0375 233.721904 l
465.7875 233.050628 l
468.9375 229.593592 l
474.6375 222.939351 l
475.9875 222.220562 l
478.2375 221.149292 l
480.4875 220.413218 l
482.8875 219.853622 l
483.3375 219.887553 l
483.9375 220.195798 l
486.7875 222.295008 l
487.3875 222.840558 l
489.1875 224.310163 l
489.7875 224.56318 l
490.3875 224.603369 l
492.0375 224.309571 l
493.5375 223.944375 l
495.9375 223.972386 l
497.4375 223.72665 l
499.9875 223.571014 l
501.6375 223.349197 l
502.3875 223.389885 l
503.1375 223.141287 l
504.0375 222.622812 l
506.5875 220.981983 l
508.0875 219.475438 l
510.6375 216.926741 l
511.3875 216.49364 l
512.2875 216.299089 l
516.7875 215.853454 l
519.7875 215.908684 l
520.2375 216.187624 l
520.8375 216.968505 l
528.0375 228.433035 l
528.7875 229.243849 l
529.3875 229.561399 l
530.8875 229.999177 l
532.0875 230.186352 l
533.4375 230.154534 l
535.0875 229.891096 l
537.7875 229.368865 l
538.5375 229.28454 l
542.2875 228.437573 l
543.1875 228.253373 l
546.1875 227.208959 l
546.4875 226.910206 l
548.1375 224.748796 l
549.1875 224.07942 l
553.8375 221.46532 l
555.4875 220.54599 l
556.2375 219.591517 l
556.9875 218.76875 l
557.5875 218.409718 l
558.7875 218.033809 l
561.7875 217.296542 l
562.3875 217.248315 l
562.9875 217.247129 l
565.5375 217.732915 l
567.0375 217.616708 l
570.1875 217.126899 l
575.7375 216.158128 l
578.5875 215.91071 l
582.0375 215.435009 l
586.0875 214.521672 l
590.5875 213.471052 l
591.3375 213.381134 l
591.7875 213.051595 l
592.5375 212.117924 l
596.5875 206.311861 l
598.3875 203.59022 l
599.1375 202.90859 l
599.5875 202.57309 l
601.0875 201.584288 l
601.9875 201.317421 l
603.3375 201.166469 l
605.1375 201.198587 l
607.5375 201.496203 l
608.1375 201.589719 l
608.1375 201.589719 l
stroke
grestore
0.000 0.500 0.000 setrgbcolor
gsave
558 126 50.14 188.7 clipbox
50.1375 308.836821 m
50.2875 306.242331 l
50.5875 307.757407 l
50.8875 308.737402 l
51.0375 308.908087 l
51.3375 308.828419 l
51.7875 308.577417 l
52.3875 308.630811 l
53.2875 308.720203 l
56.7375 308.808034 l
66.7875 308.891615 l
105.9375 308.884736 l
158.8875 308.738814 l
159.4875 308.366138 l
162.0375 305.933997 l
163.9875 303.463078 l
166.6875 299.43595 l
168.4875 296.708928 l
171.1875 294.230271 l
172.9875 292.96194 l
175.2375 291.645516 l
177.9375 290.326119 l
181.2375 288.969952 l
185.1375 287.619228 l
189.4875 286.34889 l
194.4375 285.133809 l
200.1375 283.966287 l
206.7375 282.845569 l
214.6875 281.72811 l
225.7875 280.411995 l
250.0875 277.58647 l
253.6875 276.581143 l
257.7375 275.290506 l
259.0875 274.844815 l
261.0375 274.463605 l
265.0875 273.763871 l
273.7875 272.443831 l
318.3375 265.929877 l
332.4375 263.480222 l
343.3875 261.385484 l
358.2375 258.025807 l
412.5375 246.402792 l
429.4875 242.666074 l
430.3875 242.147263 l
430.8375 242.179927 l
432.9375 242.818508 l
433.9875 243.006364 l
438.4875 244.563462 l
439.2375 244.867352 l
439.8375 244.852727 l
441.1875 244.697065 l
442.9875 244.678367 l
450.9375 243.583738 l
456.1875 242.545204 l
462.3375 241.097048 l
469.6875 239.129691 l
480.1875 236.066735 l
502.5375 229.504521 l
513.3375 226.602249 l
520.2375 224.718187 l
524.4375 223.471413 l
528.9375 222.207881 l
530.8875 221.731356 l
534.0375 221.003252 l
541.9875 219.268582 l
552.9375 217.10266 l
567.0375 214.556255 l
590.2875 210.611371 l
591.6375 210.802823 l
593.1375 210.970748 l
595.6875 211.172329 l
604.6875 212.701105 l
608.1375 213.436504 l
608.1375 213.436504 l
stroke
grestore
0.750 0.000 0.750 setrgbcolor
gsave
558 126 50.14 188.7 clipbox
50.1375 308.836821 m
50.2875 306.242331 l
50.5875 307.757407 l
50.8875 308.737402 l
51.0375 308.908087 l
51.3375 308.828419 l
51.7875 308.577417 l
52.3875 308.630811 l
53.2875 308.720203 l
56.7375 308.808034 l
66.7875 308.891615 l
105.9375 308.884736 l
167.5875 308.7541 l
171.3375 307.6266 l
174.7875 306.247643 l
180.7875 303.56769 l
192.0375 298.549357 l
199.2375 295.599441 l
206.2875 292.955821 l
213.4875 290.496714 l
221.1375 288.120931 l
229.5375 285.747094 l
239.1375 283.26893 l
250.6875 280.523869 l
265.8375 277.16511 l
289.0875 272.263116 l
332.8875 263.285927 l
377.7375 254.300814 l
442.9875 241.296675 l
497.1375 230.261233 l
534.0375 223.006002 l
574.8375 215.212933 l
590.4375 212.359721 l
591.9375 212.573932 l
595.5375 213.300585 l
599.8875 214.500528 l
608.1375 216.971635 l
608.1375 216.971635 l
stroke
grestore
0 setlinecap
[5.55 2.4] 0 setdash
0.000 0.000 1.000 setrgbcolor
gsave
558 126 50.14 188.7 clipbox
167.1375 302.153321 m
176.1375 304.54967 l
185.1375 304.715003 l
194.1375 299.152975 l
203.1375 287.495952 l
212.1375 283.579396 l
221.1375 280.533241 l
230.1375 274.184311 l
239.1375 268.305434 l
248.1375 262.627947 l
257.1375 266.830134 l
266.1375 281.049782 l
275.1375 288.027603 l
284.1375 281.452358 l
293.1375 266.133289 l
302.1375 260.361266 l
311.1375 260.990486 l
320.1375 256.501681 l
329.1375 252.437046 l
338.1375 243.929383 l
347.1375 252.483215 l
356.1375 256.324241 l
365.1375 261.392087 l
374.1375 258.768192 l
383.1375 250.284149 l
392.1375 243.815398 l
401.1375 236.599494 l
410.1375 229.188112 l
419.1375 226.928976 l
428.1375 229.41674 l
437.1375 235.082619 l
446.1375 240.606128 l
455.1375 241.274451 l
464.1375 234.583608 l
473.1375 223.252221 l
482.1375 218.930478 l
491.1375 215.789645 l
500.1375 209.551618 l
509.1375 207.977171 l
518.1375 204.134517 l
527.1375 211.306183 l
536.1375 216.067047 l
545.1375 218.304229 l
554.1375 216.822996 l
563.1375 209.723529 l
572.1375 210.270518 l
581.1375 208.108193 l
590.1375 202.154374 l
599.1375 199.801611 l
608.1375 194.471023 l
stroke
grestore
0.800 setlinewidth
0 setlinejoin
2 setlinecap
[] 0 setdash
0.000 setgray
gsave
50.1375 188.74375 m
50.1375 314.74375 l
stroke
grestore
gsave
608.1375 188.74375 m
608.1375 314.74375 l
stroke
grestore
gsave
50.1375 188.74375 m
608.1375 188.74375 l
stroke
grestore
gsave
50.1375 314.74375 m
608.1375 314.74375 l
stroke
grestore
/DejaVuSans findfont
12.000 scalefont
setfont
gsave
272.059375 320.743750 translate
0.000000 rotate
0.000000 0 m /T glyphshow
5.455078 0 m /y glyphshow
12.556641 0 m /p glyphshow
20.173828 0 m /e glyphshow
27.556641 0 m /space glyphshow
31.371094 0 m /I glyphshow
34.910156 0 m /I glyphshow
38.449219 0 m /space glyphshow
42.263672 0 m /C glyphshow
50.642578 0 m /o glyphshow
57.984375 0 m /m glyphshow
69.673828 0 m /p glyphshow
77.291016 0 m /a glyphshow
84.644531 0 m /r glyphshow
89.578125 0 m /i glyphshow
92.912109 0 m /s glyphshow
99.164062 0 m /o glyphshow
106.505859 0 m /n glyphshow
grestore
1.000 setlinewidth
0 setlinecap
0.800 setgray
gsave
475.778125 248.05625 m
601.1375 248.05625 l
602.470833 248.05625 603.1375 248.722917 603.1375 250.05625 c
603.1375 307.74375 l
603.1375 309.077083 602.470833 309.74375 601.1375 309.74375 c
475.778125 309.74375 l
474.444792 309.74375 473.778125 309.077083 473.778125 307.74375 c
473.778125 250.05625 l
473.778125 248.722917 474.444792 248.05625 475.778125 248.05625 c
cl
gsave
1.000 setgray
fill
grestore
stroke
grestore
1.500 setlinewidth
1 setlinejoin
2 setlinecap
0.000 0.000 1.000 setrgbcolor
gsave
477.778125 301.65 m
497.778125 301.65 l
stroke
grestore
0.000 setgray
/DejaVuSans findfont
10.000 scalefont
setfont
gsave
505.778125 298.150000 translate
0.000000 rotate
0.000000 0 m /d glyphshow
6.347656 0 m /y glyphshow
12.265625 0 m /n glyphshow
18.603516 0 m /a glyphshow
24.731445 0 m /m glyphshow
34.472656 0 m /i glyphshow
37.250977 0 m /c glyphshow
grestore
0.000 0.500 0.000 setrgbcolor
gsave
477.778125 286.978125 m
497.778125 286.978125 l
stroke
grestore
0.000 setgray
gsave
505.778125 283.478125 translate
0.000000 rotate
0.000000 0 m /s glyphshow
5.209961 0 m /t glyphshow
9.130859 0 m /e glyphshow
15.283203 0 m /a glyphshow
21.411133 0 m /d glyphshow
27.758789 0 m /y glyphshow
33.551758 0 m /hyphen glyphshow
37.160156 0 m /s glyphshow
42.370117 0 m /t glyphshow
46.291016 0 m /a glyphshow
52.418945 0 m /t glyphshow
56.339844 0 m /e glyphshow
grestore
0.750 0.000 0.750 setrgbcolor
gsave
477.778125 272.30625 m
497.778125 272.30625 l
stroke
grestore
0.000 setgray
gsave
505.778125 268.806250 translate
0.000000 rotate
0.000000 0 m /b glyphshow
6.347656 0 m /a glyphshow
12.475586 0 m /s glyphshow
17.685547 0 m /e glyphshow
23.837891 0 m /l glyphshow
26.616211 0 m /i glyphshow
29.394531 0 m /n glyphshow
35.732422 0 m /e glyphshow
grestore
0 setlinecap
[5.55 2.4] 0 setdash
0.000 0.000 1.000 setrgbcolor
gsave
477.778125 257.634375 m
497.778125 257.634375 l
stroke
grestore
0.000 setgray
gsave
505.778125 254.134375 translate
0.000000 rotate
0.000000 0 m /d glyphshow
6.347656 0 m /y glyphshow
12.265625 0 m /n glyphshow
18.603516 0 m /a glyphshow
24.731445 0 m /m glyphshow
34.472656 0 m /i glyphshow
37.250977 0 m /c glyphshow
42.749023 0 m /space glyphshow
45.927734 0 m /p glyphshow
52.275391 0 m /r glyphshow
56.136719 0 m /e glyphshow
62.289062 0 m /d glyphshow
68.636719 0 m /i glyphshow
71.415039 0 m /c glyphshow
76.913086 0 m /t glyphshow
80.833984 0 m /e glyphshow
86.986328 0 m /d glyphshow
grestore
gsave
50.1375 37.54375 m
608.1375 37.54375 l
608.1375 163.54375 l
50.1375 163.54375 l
cl
1.000 setgray
fill
grestore
0.800 setlinewidth
[] 0 setdash
gsave
/o {
gsave
newpath
translate
0.8 setlinewidth
1 setlinejoin
0 setlinecap
0 0 m
0 -3.5 l

gsave
0.000 setgray
fill
grestore
stroke
grestore
} bind def
50.1375 37.5438 o
grestore
gsave
46.957813 22.950000 translate
0.000000 rotate
0.000000 0 m /zero glyphshow
grestore
gsave
/o {
gsave
newpath
translate
0.8 setlinewidth
1 setlinejoin
0 setlinecap
0 0 m
0 -3.5 l

gsave
0.000 setgray
fill
grestore
stroke
grestore
} bind def
140.137 37.5438 o
grestore
gsave
133.778125 22.950000 translate
0.000000 rotate
0.000000 0 m /one glyphshow
6.362305 0 m /zero glyphshow
grestore
gsave
/o {
gsave
newpath
translate
0.8 setlinewidth
1 setlinejoin
0 setlinecap
0 0 m
0 -3.5 l

gsave
0.000 setgray
fill
grestore
stroke
grestore
} bind def
230.137 37.5438 o
grestore
gsave
223.778125 22.950000 translate
0.000000 rotate
0.000000 0 m /two glyphshow
6.362305 0 m /zero glyphshow
grestore
gsave
/o {
gsave
newpath
translate
0.8 setlinewidth
1 setlinejoin
0 setlinecap
0 0 m
0 -3.5 l

gsave
0.000 setgray
fill
grestore
stroke
grestore
} bind def
320.137 37.5438 o
grestore
gsave
313.778125 22.950000 translate
0.000000 rotate
0.000000 0 m /three glyphshow
6.362305 0 m /zero glyphshow
grestore
gsave
/o {
gsave
newpath
translate
0.8 setlinewidth
1 setlinejoin
0 setlinecap
0 0 m
0 -3.5 l

gsave
0.000 setgray
fill
grestore
stroke
grestore
} bind def
410.137 37.5438 o
grestore
gsave
403.778125 22.950000 translate
0.000000 rotate
0.000000 0 m /four glyphshow
6.362305 0 m /zero glyphshow
grestore
gsave
/o {
gsave
newpath
translate
0.8 setlinewidth
1 setlinejoin
0 setlinecap
0 0 m
0 -3.5 l

gsave
0.000 setgray
fill
grestore
stroke
grestore
} bind def
500.137 37.5438 o
grestore
gsave
493.778125 22.950000 translate
0.000000 rotate
0.000000 0 m /five glyphshow
6.362305 0 m /zero glyphshow
grestore
gsave
/o {
gsave
newpath
translate
0.8 setlinewidth
1 setlinejoin
0 setlinecap
0 0 m
0 -3.5 l

gsave
0.000 setgray
fill
grestore
stroke
grestore
} bind def
590.138 37.5438 o
grestore
gsave
583.778125 22.950000 translate
0.000000 rotate
0.000000 0 m /six glyphshow
6.362305 0 m /zero glyphshow
grestore
gsave
302.895312 9.278125 translate
0.000000 rotate
0.000000 0 m /t glyphshow
3.920898 0 m /i glyphshow
6.699219 0 m /m glyphshow
16.440430 0 m /e glyphshow
22.592773 0 m /space glyphshow
25.771484 0 m /parenleft glyphshow
29.672852 0 m /m glyphshow
39.414062 0 m /i glyphshow
42.192383 0 m /n glyphshow
48.530273 0 m /parenright glyphshow
grestore
gsave
/o {
gsave
newpath
translate
0.8 setlinewidth
1 setlinejoin
0 setlinecap
-0 0 m
-3.5 0 l

gsave
0.000 setgray
fill
grestore
stroke
grestore
} bind def
50.1375 59.3922 o
grestore
gsave
20.871875 55.595366 translate
0.000000 rotate
0.000000 0 m /zero glyphshow
6.362305 0 m /period glyphshow
9.541016 0 m /three glyphshow
15.903320 0 m /two glyphshow
grestore
gsave
/o {
gsave
newpath
translate
0.8 setlinewidth
1 setlinejoin
0 setlinecap
-0 0 m
-3.5 0 l

gsave
0.000 setgray
fill
grestore
stroke
grestore
} bind def
50.1375 83.4091 o
grestore
gsave
20.871875 79.612187 translate
0.000000 rotate
0.000000 0 m /zero glyphshow
6.362305 0 m /period glyphshow
9.541016 0 m /three glyphshow
15.903320 0 m /four glyphshow
grestore
gsave
/o {
gsave
newpath
translate
0.8 setlinewidth
1 setlinejoin
0 setlinecap
-0 0 m
-3.5 0 l

gsave
0.000 setgray
fill
grestore
stroke
grestore
} bind def
50.1375 107.426 o
grestore
gsave
20.871875 103.629007 translate
0.000000 rotate
0.000000 0 m /zero glyphshow
6.362305 0 m /period glyphshow
9.541016 0 m /three glyphshow
15.903320 0 m /six glyphshow
grestore
gsave
/o {
gsave
newpath
translate
0.8 setlinewidth
1 setlinejoin
0 setlinecap
-0 0 m
-3.5 0 l

gsave
0.000 setgray
fill
grestore
stroke
grestore
} bind def
50.1375 131.443 o
grestore
gsave
20.871875 127.645827 translate
0.000000 rotate
0.000000 0 m /zero glyphshow
6.362305 0 m /period glyphshow
9.541016 0 m /three glyphshow
15.903320 0 m /eight glyphshow
grestore
gsave
/o {
gsave
newpath
translate
0.8 setlinewidth
1 setlinejoin
0 setlinecap
-0 0 m
-3.5 0 l

gsave
0.000 setgray
fill
grestore
stroke
grestore
} bind def
50.1375 155.46 o
grestore
gsave
20.871875 151.662647 translate
0.000000 rotate
0.000000 0 m /zero glyphshow
6.362305 0 m /period glyphshow
9.541016 0 m /four glyphshow
15.903320 0 m /zero glyphshow
grestore
gsave
14.793750 55.332812 translate
90.000000 rotate
0.000000 0 m /t glyphshow
3.920898 0 m /h glyphshow
10.258789 0 m /e glyphshow
16.411133 0 m /r glyphshow
20.397461 0 m /m glyphshow
30.138672 0 m /a glyphshow
36.266602 0 m /l glyphshow
39.044922 0 m /space glyphshow
42.223633 0 m /e glyphshow
48.375977 0 m /f glyphshow
51.896484 0 m /f glyphshow
55.416992 0 m /i glyphshow
58.195312 0 m /c glyphshow
63.693359 0 m /i glyphshow
66.471680 0 m /e glyphshow
72.624023 0 m /n glyphshow
78.961914 0 m /c glyphshow
84.459961 0 m /y glyphshow
grestore
1.500 setlinewidth
2 setlinecap
0.000 0.000 1.000 setrgbcolor
gsave
558 126 50.14 37.54 clipbox
50.1375 59.10568 m
50.2875 63.933167 l
50.5875 57.147315 l
50.8875 53.166022 l
51.0375 52.695582 l
51.1875 52.887268 l
51.7875 54.467518 l
52.0875 54.439049 l
52.8375 54.005583 l
73.6875 53.854237 l
141.7875 53.93256 l
158.7375 53.928567 l
159.4875 53.426716 l
162.1875 53.683619 l
164.2875 54.228111 l
167.2875 55.310597 l
167.7375 55.75782 l
168.4875 56.816533 l
168.9375 56.865255 l
169.5375 56.955202 l
176.1375 59.662561 l
176.4375 59.750189 l
176.5875 59.856007 l
176.8875 60.601772 l
177.1875 61.525289 l
177.4875 61.726924 l
178.2375 61.068377 l
179.1375 61.040346 l
180.0375 61.092553 l
180.6375 61.389421 l
182.5875 62.976358 l
185.8875 65.845034 l
186.3375 65.551705 l
186.6375 65.635303 l
187.3875 66.377626 l
188.1375 66.885012 l
189.4875 67.834115 l
195.1875 72.036284 l
195.6375 72.857732 l
198.0375 78.045667 l
202.5375 88.227636 l
204.0375 92.059264 l
204.4875 93.384805 l
204.7875 93.709973 l
205.2375 93.745841 l
205.6875 93.859401 l
206.4375 94.47212 l
207.1875 94.936778 l
209.7375 95.990409 l
211.6875 96.503749 l
212.4375 96.569339 l
212.8875 96.511875 l
213.3375 96.051594 l
213.6375 95.45462 l
214.3875 93.048012 l
215.4375 90.006459 l
217.3875 84.198887 l
221.7375 71.442316 l
222.1875 70.89031 l
222.7875 70.48465 l
225.4875 69.295434 l
227.1375 68.939511 l
228.9375 68.783652 l
230.4375 68.749159 l
230.5875 68.867823 l
230.8875 69.790431 l
231.9375 75.204505 l
232.6875 78.178967 l
234.4875 87.31275 l
236.1375 96.819751 l
237.9375 108.55495 l
239.8875 122.27945 l
240.3375 122.73095 l
240.4875 122.666558 l
242.4375 126.820203 l
243.7875 128.838218 l
244.9875 130.210777 l
246.1875 131.278517 l
247.5375 132.176312 l
248.1375 132.48957 l
248.1375 132.48957 l
248.2875 132.432634 l
248.4375 132.557347 l
248.7375 132.284371 l
249.0375 129.936998 l
249.4875 125.988593 l
250.5375 115.473634 l
251.4375 107.288479 l
254.2875 80.671521 l
257.1375 55.811871 l
257.7375 51.347349 l
258.0375 50.391032 l
259.0875 49.155069 l
260.1375 47.221205 l
261.3375 45.795707 l
262.3875 44.83492 l
263.5875 44.065801 l
264.7875 43.573933 l
265.9875 43.314262 l
266.5875 43.351858 l
266.8875 43.999769 l
267.4875 46.464796 l
270.4875 60.010284 l
272.1375 69.163451 l
273.9375 80.449217 l
276.0375 93.872391 l
276.3375 94.378179 l
276.9375 94.987049 l
277.5375 96.16082 l
278.4375 97.869357 l
279.7875 99.717431 l
280.9875 101.095614 l
282.4875 102.452962 l
283.9875 103.504244 l
284.7375 103.880994 l
285.1875 104.098592 l
285.7875 104.904094 l
286.8375 106.33587 l
290.8875 110.782677 l
292.8375 112.55892 l
292.9875 112.579385 l
293.7375 113.372942 l
294.3375 114.135821 l
294.7875 114.252565 l
295.9875 114.180504 l
297.4875 114.34714 l
300.0375 114.183316 l
302.1375 113.840595 l
302.7375 113.392505 l
303.1875 111.831929 l
303.4875 109.967598 l
303.9375 106.305531 l
304.3875 103.491636 l
309.6375 75.863867 l
311.8875 65.994928 l
312.3375 65.790707 l
312.6375 65.78797 l
312.9375 65.787888 l
313.3875 65.537302 l
315.0375 64.112659 l
318.9375 62.338668 l
320.4375 61.968206 l
320.5875 62.044033 l
320.8875 62.859218 l
321.3375 65.237044 l
322.3875 70.913706 l
323.2875 75.301131 l
324.4875 83.028879 l
326.1375 94.973049 l
327.7875 108.787341 l
329.4375 124.480162 l
329.8875 128.340952 l
330.1875 129.464043 l
330.6375 130.099882 l
331.0875 130.762635 l
331.6875 132.243013 l
332.4375 134.026722 l
333.1875 135.241971 l
334.2375 136.508297 l
335.1375 137.276681 l
336.0375 137.751057 l
336.9375 137.992007 l
337.9875 138.027052 l
338.1375 138.013157 l
338.1375 138.013157 l
338.4375 137.776405 l
338.8875 137.569628 l
339.1875 136.49909 l
339.6375 133.581816 l
340.8375 125.368477 l
342.7875 112.876806 l
347.5875 81.842231 l
348.0375 79.904502 l
348.4875 79.118059 l
349.0875 78.2042 l
351.0375 74.661682 l
352.5375 72.720619 l
353.8875 71.347096 l
355.3875 70.152677 l
356.7375 69.130718 l
357.0375 68.268685 l
357.6375 66.400106 l
358.0875 65.67389 l
359.1375 64.763762 l
360.3375 63.788182 l
361.2375 63.351308 l
362.2875 63.099312 l
363.1875 63.127778 l
363.7875 63.39706 l
364.3875 63.917959 l
364.9875 64.783736 l
365.5875 66.159542 l
365.8875 67.700347 l
366.7875 73.131218 l
366.9375 73.163498 l
367.0875 73.022258 l
367.8375 71.283934 l
368.1375 71.300477 l
368.4375 71.446118 l
369.1875 72.060081 l
369.6375 72.157524 l
370.8375 72.222904 l
374.5875 73.39226 l
374.7375 73.726144 l
375.0375 75.717514 l
375.3375 78.416094 l
375.6375 81.585733 l
375.9375 83.186402 l
376.0875 83.499827 l
376.3875 83.560132 l
376.5375 83.336238 l
376.8375 83.327156 l
377.2875 84.226307 l
378.1875 87.539765 l
380.1375 95.064444 l
381.1875 100.617509 l
382.5375 108.963159 l
384.0375 118.653975 l
384.3375 118.920612 l
384.7875 119.014914 l
385.0875 119.300872 l
385.6875 120.397241 l
386.4375 121.720349 l
387.1875 122.592778 l
388.3875 123.621359 l
389.4375 124.221809 l
390.4875 124.555838 l
391.6875 124.679168 l
392.1375 124.664022 l
392.2875 124.511566 l
392.8875 124.511909 l
393.7875 124.269288 l
394.8375 124.238419 l
395.7375 124.391678 l
396.4875 124.723011 l
397.3875 125.407192 l
398.4375 126.562393 l
399.6375 128.243898 l
401.4375 131.204248 l
402.3375 132.953147 l
402.6375 133.067776 l
403.3875 132.818145 l
403.9875 132.760487 l
406.3875 133.102935 l
409.2375 132.845278 l
410.2875 132.651505 l
410.5875 132.455549 l
411.3375 132.369791 l
411.6375 131.918374 l
412.5375 130.282984 l
413.1375 129.684409 l
414.4875 128.591861 l
416.8875 126.33786 l
418.3875 125.252886 l
419.7375 124.549162 l
420.3375 124.432259 l
421.0875 124.458378 l
421.5375 124.123958 l
426.3375 118.728906 l
429.0375 115.675088 l
429.3375 114.828162 l
429.7875 112.735653 l
430.8375 106.051973 l
432.4875 96.236075 l
435.3375 80.315402 l
437.2875 70.748791 l
438.0375 67.797712 l
438.4875 66.956622 l
438.9375 66.58734 l
441.0375 65.616493 l
441.9375 65.555283 l
442.9875 65.730762 l
444.0375 66.130768 l
445.2375 66.824098 l
447.4875 68.416163 l
448.2375 69.748071 l
450.6375 74.700757 l
452.2875 78.792796 l
454.2375 84.224712 l
455.2875 87.823289 l
455.7375 89.824167 l
456.3375 93.119984 l
456.6375 93.745822 l
457.0875 93.823883 l
457.5375 93.732945 l
458.8875 95.325911 l
460.0875 96.858808 l
464.1375 101.161492 l
464.2875 101.201078 l
464.7375 101.706617 l
465.1875 102.940926 l
465.7875 105.682247 l
467.2875 112.62991 l
468.7875 119.659684 l
472.9875 141.095475 l
474.0375 146.134089 l
474.4875 147.08004 l
474.7875 147.286391 l
475.6875 147.594109 l
476.2875 148.184528 l
477.6375 149.712844 l
478.5375 150.296733 l
480.0375 150.931309 l
481.3875 151.280277 l
482.2875 151.36906 l
482.5875 151.161372 l
482.8875 151.166158 l
483.1875 150.433002 l
483.6375 148.079676 l
485.5875 135.815545 l
487.3875 125.892996 l
488.5875 119.495669 l
489.1875 117.149728 l
489.4875 116.470673 l
489.7875 116.221585 l
489.9375 116.2445 l
490.3875 116.788078 l
491.4375 118.745537 l
492.0375 119.364199 l
492.7875 120.802682 l
493.0875 120.889589 l
493.3875 120.638361 l
493.8375 119.795094 l
494.7375 117.943056 l
495.0375 117.670524 l
495.3375 117.627748 l
495.7875 117.884909 l
496.5375 118.439 l
496.8375 118.472734 l
497.2875 118.227681 l
498.0375 117.324592 l
498.6375 116.695772 l
499.0875 116.494228 l
499.6875 116.543253 l
500.2875 116.598173 l
500.7375 116.581031 l
501.3375 116.916097 l
502.2375 115.279997 l
502.3875 115.214909 l
502.6875 115.476123 l
502.9875 116.10222 l
503.7375 118.490606 l
504.4875 120.659702 l
505.9875 124.4455 l
506.7375 127.73919 l
510.3375 145.490152 l
510.9375 146.712749 l
511.2375 146.805188 l
511.5375 146.529126 l
512.1375 145.454688 l
512.8875 144.182407 l
513.4875 143.594115 l
515.5875 142.1363 l
517.0875 140.352169 l
519.0375 138.126023 l
519.4875 137.656542 l
519.7875 136.732814 l
520.0875 134.768226 l
520.5375 129.941181 l
522.3375 107.575313 l
523.6875 95.867821 l
526.5375 72.002175 l
527.8875 63.284515 l
528.3375 61.059356 l
528.6375 60.209067 l
528.9375 59.870912 l
529.2375 59.843125 l
530.1375 59.958394 l
530.7375 59.691311 l
531.6375 59.275182 l
532.3875 59.226864 l
533.4375 59.453037 l
534.6375 59.939533 l
535.8375 60.690861 l
536.7375 61.327637 l
537.1875 60.997789 l
537.3375 60.898719 l
537.9375 60.023718 l
538.2375 59.912546 l
538.5375 60.014033 l
539.2875 60.687186 l
539.8875 61.112842 l
540.4875 61.279366 l
541.0875 61.258853 l
541.3875 61.090345 l
542.4375 60.461439 l
542.7375 60.460273 l
543.0375 60.603886 l
543.6375 61.120641 l
544.3875 61.712733 l
545.7375 62.146897 l
545.8875 62.385027 l
546.1875 63.556029 l
546.4875 65.528298 l
547.5375 73.713598 l
547.9875 75.221525 l
548.4375 75.796598 l
549.4875 76.585922 l
550.3875 77.809674 l
552.0375 80.070455 l
554.5875 83.067315 l
555.0375 83.706094 l
555.3375 84.696891 l
555.7875 87.609049 l
556.5375 92.873378 l
556.9875 94.400823 l
557.2875 94.698767 l
557.5875 94.616244 l
558.3375 93.858156 l
558.9375 93.430051 l
559.6875 93.24748 l
560.8875 93.024502 l
561.7875 92.641511 l
562.0875 92.255165 l
562.3875 92.080658 l
562.6875 91.722218 l
562.9875 90.990578 l
564.3375 86.293591 l
565.0875 85.245722 l
565.5375 84.886597 l
565.9875 84.777291 l
567.1875 84.862578 l
570.4875 85.136782 l
572.8875 85.682236 l
573.7875 86.106796 l
574.0875 86.004083 l
574.5375 85.5859 l
576.0375 83.925851 l
576.9375 83.366555 l
578.5875 82.683565 l
580.0875 82.240799 l
581.4375 82.005109 l
582.4875 82.213199 l
584.1375 82.514746 l
589.6875 84.6184 l
590.1375 84.798806 l
590.2875 84.693572 l
590.5875 84.297062 l
590.8875 84.165844 l
591.0375 84.190871 l
591.1875 84.41782 l
591.4875 85.67682 l
591.9375 89.280565 l
594.3375 111.504136 l
595.6875 123.627169 l
597.1875 139.417069 l
597.9375 146.817489 l
598.3875 149.476306 l
598.9875 151.713509 l
600.9375 157.547395 l
601.2375 157.784439 l
601.6875 157.768515 l
602.2875 157.414641 l
603.6375 156.234248 l
604.9875 154.778328 l
606.7875 152.402053 l
608.1375 150.619506 l
608.1375 150.619506 l
stroke
grestore
0.000 0.500 0.000 setrgbcolor
gsave
558 126 50.14 37.54 clipbox
50.1375 59.10568 m
50.2875 63.933167 l
50.5875 57.147315 l
50.8875 53.166022 l
51.0375 52.695582 l
51.1875 52.887268 l
51.7875 54.467518 l
52.0875 54.439049 l
52.8375 54.005583 l
73.6875 53.854237 l
141.7875 53.93256 l
158.5875 54.013736 l
158.8875 54.475863 l
159.4875 55.934474 l
160.5375 58.735775 l
161.5875 61.742336 l
163.9875 69.72433 l
166.5375 79.518358 l
168.0375 85.629403 l
168.6375 85.981159 l
169.0875 86.536337 l
169.6875 87.480942 l
171.3375 89.191371 l
172.6875 90.473228 l
174.7875 92.172522 l
177.0375 93.675247 l
179.4375 94.993212 l
181.9875 96.128727 l
184.6875 97.078921 l
187.5375 97.839069 l
190.5375 98.405102 l
193.6875 98.775606 l
197.1375 98.955147 l
200.8875 98.921769 l
204.9375 98.660628 l
209.4375 98.144934 l
214.6875 97.309231 l
221.1375 96.043667 l
232.0875 93.623174 l
243.4875 91.180626 l
248.8875 90.047994 l
249.3375 89.824641 l
249.7875 89.915376 l
251.1375 90.61061 l
252.1875 90.848961 l
257.8875 93.286729 l
258.3375 93.658212 l
258.6375 93.720492 l
259.0875 93.551817 l
259.8375 93.242441 l
260.5875 93.307756 l
261.3375 93.293029 l
262.9875 93.09069 l
264.9375 92.892353 l
270.3375 92.251477 l
278.2875 91.088722 l
304.2375 87.132861 l
312.6375 86.168433 l
320.7375 85.461346 l
328.9875 84.966199 l
337.6875 84.668128 l
339.3375 84.529687 l
339.9375 84.36772 l
340.5375 84.464091 l
341.5875 84.725509 l
344.1375 84.989596 l
348.1875 85.631125 l
349.0875 86.025095 l
349.6875 85.97948 l
350.5875 85.878198 l
357.3375 86.313984 l
377.8875 87.631259 l
400.8375 89.345868 l
428.8875 91.597623 l
429.1875 91.885135 l
429.4875 92.655007 l
429.9375 94.024954 l
430.2375 94.311893 l
430.3875 94.19221 l
430.6875 93.464434 l
431.4375 90.26059 l
431.8875 88.714922 l
432.3375 87.876729 l
433.6875 86.282797 l
434.5875 84.116919 l
435.4875 82.172281 l
437.4375 78.427919 l
438.3375 76.25578 l
438.9375 74.653509 l
439.2375 74.385965 l
439.5375 74.481642 l
440.5875 75.439739 l
440.8875 75.39857 l
441.3375 75.063924 l
442.0875 74.433518 l
442.5375 74.288764 l
444.4875 74.09616 l
445.6875 73.761927 l
449.8875 73.30654 l
453.0375 73.241072 l
456.1875 73.42603 l
459.4875 73.8584 l
462.9375 74.538038 l
466.8375 75.543155 l
471.1875 76.902847 l
476.4375 78.789763 l
483.7875 81.695065 l
498.7875 87.671136 l
505.2375 89.970145 l
511.0875 91.8193 l
516.4875 93.296523 l
519.0375 94.025447 l
519.6375 94.784517 l
520.2375 95.334753 l
520.8375 95.575854 l
522.1875 95.895175 l
523.0875 96.454362 l
524.4375 97.308886 l
527.5875 98.996694 l
528.0375 99.171549 l
528.4875 99.00651 l
529.0875 98.78317 l
529.6875 98.84545 l
530.5875 99.255129 l
531.4875 99.585316 l
532.5375 99.684718 l
533.8875 99.84791 l
536.5875 100.321926 l
545.1375 101.1526 l
550.5375 101.345227 l
556.2375 101.319365 l
562.8375 101.057702 l
570.9375 100.499436 l
583.5375 99.375 l
590.1375 98.764721 l
590.8875 97.655914 l
591.9375 95.932295 l
592.3875 95.523212 l
592.8375 95.344081 l
594.6375 95.02034 l
595.3875 94.378255 l
597.3375 92.466733 l
599.8875 90.469022 l
605.4375 84.786364 l
608.1375 81.810296 l
608.1375 81.810296 l
stroke
grestore
0.750 0.000 0.750 setrgbcolor
gsave
558 126 50.14 37.54 clipbox
50.1375 59.10568 m
50.2875 63.933167 l
50.5875 57.147315 l
50.8875 53.166022 l
51.0375 52.695582 l
51.1875 52.887268 l
51.7875 54.467518 l
52.0875 54.439049 l
52.8375 54.005583 l
73.6875 53.854237 l
141.7875 53.93256 l
167.2875 54.010544 l
168.3375 54.437728 l
169.5375 54.843281 l
172.5375 56.170549 l
176.2875 58.123549 l
194.7375 68.088281 l
199.8375 70.426376 l
204.7875 72.452052 l
209.7375 74.236803 l
214.8375 75.833536 l
220.0875 77.238808 l
225.6375 78.487468 l
231.4875 79.573345 l
237.9375 80.539585 l
245.1375 81.386977 l
253.3875 82.129288 l
263.4375 82.80215 l
276.6375 83.449536 l
296.7375 84.189831 l
329.7375 85.168586 l
359.1375 85.834702 l
383.7375 86.172836 l
423.1875 86.632407 l
438.3375 87.227293 l
495.9375 89.714095 l
514.9875 90.184629 l
534.0375 90.432727 l
553.0875 90.458758 l
571.5375 90.262295 l
589.0875 89.854133 l
590.1375 89.822365 l
590.8875 88.803817 l
592.3875 86.550528 l
595.3875 82.717815 l
601.0875 74.409255 l
605.7375 67.787409 l
608.1375 64.58937 l
608.1375 64.58937 l
stroke
grestore
0.800 setlinewidth
0 setlinejoin
0.000 setgray
gsave
50.1375 37.54375 m
50.1375 163.54375 l
stroke
grestore
gsave
608.1375 37.54375 m
608.1375 163.54375 l
stroke
grestore
gsave
50.1375 37.54375 m
608.1375 37.54375 l
stroke
grestore
gsave
50.1375 163.54375 m
608.1375 163.54375 l
stroke
grestore
1.000 setlinewidth
0 setlinecap
0.800 setgray
gsave
57.1375 111.528125 m
151.653125 111.528125 l
152.986458 111.528125 153.653125 112.194792 153.653125 113.528125 c
153.653125 156.54375 l
153.653125 157.877083 152.986458 158.54375 151.653125 158.54375 c
57.1375 158.54375 l
55.804167 158.54375 55.1375 157.877083 55.1375 156.54375 c
55.1375 113.528125 l
55.1375 112.194792 55.804167 111.528125 57.1375 111.528125 c
cl
gsave
1.000 setgray
fill
grestore
stroke
grestore
1.500 setlinewidth
1 setlinejoin
2 setlinecap
0.000 0.000 1.000 setrgbcolor
gsave
59.1375 150.45 m
79.1375 150.45 l
stroke
grestore
0.000 setgray
gsave
87.137500 146.950000 translate
0.000000 rotate
0.000000 0 m /d glyphshow
6.347656 0 m /y glyphshow
12.265625 0 m /n glyphshow
18.603516 0 m /a glyphshow
24.731445 0 m /m glyphshow
34.472656 0 m /i glyphshow
37.250977 0 m /c glyphshow
grestore
0.000 0.500 0.000 setrgbcolor
gsave
59.1375 135.778125 m
79.1375 135.778125 l
stroke
grestore
0.000 setgray
gsave
87.137500 132.278125 translate
0.000000 rotate
0.000000 0 m /s glyphshow
5.209961 0 m /t glyphshow
9.130859 0 m /e glyphshow
15.283203 0 m /a glyphshow
21.411133 0 m /d glyphshow
27.758789 0 m /y glyphshow
33.551758 0 m /hyphen glyphshow
37.160156 0 m /s glyphshow
42.370117 0 m /t glyphshow
46.291016 0 m /a glyphshow
52.418945 0 m /t glyphshow
56.339844 0 m /e glyphshow
grestore
0.750 0.000 0.750 setrgbcolor
gsave
59.1375 121.10625 m
79.1375 121.10625 l
stroke
grestore
0.000 setgray
gsave
87.137500 117.606250 translate
0.000000 rotate
0.000000 0 m /b glyphshow
6.347656 0 m /a glyphshow
12.475586 0 m /s glyphshow
17.685547 0 m /e glyphshow
23.837891 0 m /l glyphshow
26.616211 0 m /i glyphshow
29.394531 0 m /n glyphshow
35.732422 0 m /e glyphshow
grestore

end
showpage
