%!PS-Adobe-3.0 EPSF-3.0
%%Title: machine_learning_data/comparison_slow_up.eps
%%Creator: matplotlib version 3.3.2, http://matplotlib.org/
%%CreationDate: Tue Jun  8 14:57:33 2021
%%Orientation: portrait
%%BoundingBox: -1.668750000000017 227.46562500000002 613.66875 564.534375
%%EndComments
%%BeginProlog
/mpldict 8 dict def
mpldict begin
/m { moveto } bind def
/l { lineto } bind def
/r { rlineto } bind def
/c { curveto } bind def
/cl { closepath } bind def
/box {
      m
      1 index 0 r
      0 exch r
      neg 0 r
      cl
    } bind def
/clipbox {
      box
      clip
      newpath
    } bind def
%!PS-Adobe-3.0 Resource-Font
%%Title: DejaVu Sans
%%Copyright: Copyright (c) 2003 by Bitstream, Inc. All Rights Reserved. Copyright (c) 2006 by Tavmjong Bah. All Rights Reserved. DejaVu changes are in public domain 
%%Creator: Converted from TrueType to type 3 by PPR
25 dict begin
/_d{bind def}bind def
/_m{moveto}_d
/_l{lineto}_d
/_cl{closepath eofill}_d
/_c{curveto}_d
/_sc{7 -1 roll{setcachedevice}{pop pop pop pop pop pop}ifelse}_d
/_e{exec}_d
/FontName /DejaVuSans def
/PaintType 0 def
/FontMatrix[.001 0 0 .001 0 0]def
/FontBBox[-1021 -463 1793 1232]def
/FontType 3 def
/Encoding [ /space /parenleft /parenright /hyphen /period /zero /one /two /three /four /five /six /eight /C /I /T /V /a /b /c /d /e /f /h /i /l /m /n /o /p /r /s /t /u /y ] def
/FontInfo 10 dict dup begin
/FamilyName (DejaVu Sans) def
/FullName (DejaVu Sans) def
/Notice (Copyright (c) 2003 by Bitstream, Inc. All Rights Reserved. Copyright (c) 2006 by Tavmjong Bah. All Rights Reserved. DejaVu changes are in public domain ) def
/Weight (Book) def
/Version (Version 2.35) def
/ItalicAngle 0.0 def
/isFixedPitch false def
/UnderlinePosition -130 def
/UnderlineThickness 90 def
end readonly def
/CharStrings 36 dict dup begin
/.notdef 0 def
/space{318 0 0 0 0 0 _sc
}_d
/parenleft{390 0 86 -131 310 759 _sc
310 759 _m
266 683 234 609 213 536 _c
191 463 181 389 181 314 _c
181 238 191 164 213 91 _c
234 17 266 -56 310 -131 _c
232 -131 _l
183 -54 146 20 122 94 _c
98 168 86 241 86 314 _c
86 386 98 459 122 533 _c
146 607 182 682 232 759 _c
310 759 _l
_cl}_d
/parenright{390 0 80 -131 304 759 _sc
80 759 _m
158 759 _l
206 682 243 607 267 533 _c
291 459 304 386 304 314 _c
304 241 291 168 267 94 _c
243 20 206 -54 158 -131 _c
80 -131 _l
123 -56 155 17 177 91 _c
198 164 209 238 209 314 _c
209 389 198 463 177 536 _c
155 609 123 683 80 759 _c
_cl}_d
/hyphen{361 0 49 234 312 314 _sc
49 314 _m
312 314 _l
312 234 _l
49 234 _l
49 314 _l
_cl}_d
/period{318 0 107 0 210 124 _sc
107 124 _m
210 124 _l
210 0 _l
107 0 _l
107 124 _l
_cl}_d
/zero{636 0 66 -13 570 742 _sc
318 664 _m
267 664 229 639 203 589 _c
177 539 165 464 165 364 _c
165 264 177 189 203 139 _c
229 89 267 64 318 64 _c
369 64 407 89 433 139 _c
458 189 471 264 471 364 _c
471 464 458 539 433 589 _c
407 639 369 664 318 664 _c
318 742 _m
399 742 461 709 505 645 _c
548 580 570 486 570 364 _c
570 241 548 147 505 83 _c
461 19 399 -13 318 -13 _c
236 -13 173 19 130 83 _c
87 147 66 241 66 364 _c
66 486 87 580 130 645 _c
173 709 236 742 318 742 _c
_cl}_d
/one{636 0 110 0 544 729 _sc
124 83 _m
285 83 _l
285 639 _l
110 604 _l
110 694 _l
284 729 _l
383 729 _l
383 83 _l
544 83 _l
544 0 _l
124 0 _l
124 83 _l
_cl}_d
/two{{636 0 73 0 536 742 _sc
192 83 _m
536 83 _l
536 0 _l
73 0 _l
73 83 _l
110 121 161 173 226 239 _c
290 304 331 346 348 365 _c
380 400 402 430 414 455 _c
426 479 433 504 433 528 _c
433 566 419 598 392 622 _c
365 646 330 659 286 659 _c
255 659 222 653 188 643 _c
154 632 117 616 78 594 _c
78 694 _l
118 710 155 722 189 730 _c
223 738 255 742 284 742 _c
}_e{359 742 419 723 464 685 _c
509 647 532 597 532 534 _c
532 504 526 475 515 449 _c
504 422 484 390 454 354 _c
446 344 420 317 376 272 _c
332 227 271 164 192 83 _c
_cl}_e}_d
/three{{636 0 76 -13 556 742 _sc
406 393 _m
453 383 490 362 516 330 _c
542 298 556 258 556 212 _c
556 140 531 84 482 45 _c
432 6 362 -13 271 -13 _c
240 -13 208 -10 176 -4 _c
144 1 110 10 76 22 _c
76 117 _l
103 101 133 89 166 81 _c
198 73 232 69 268 69 _c
330 69 377 81 409 105 _c
441 129 458 165 458 212 _c
458 254 443 288 413 312 _c
383 336 341 349 287 349 _c
}_e{202 349 _l
202 430 _l
291 430 _l
339 430 376 439 402 459 _c
428 478 441 506 441 543 _c
441 580 427 609 401 629 _c
374 649 336 659 287 659 _c
260 659 231 656 200 650 _c
169 644 135 635 98 623 _c
98 711 _l
135 721 170 729 203 734 _c
235 739 266 742 296 742 _c
370 742 429 725 473 691 _c
517 657 539 611 539 553 _c
539 513 527 479 504 451 _c
481 423 448 403 406 393 _c
_cl}_e}_d
/four{636 0 49 0 580 729 _sc
378 643 _m
129 254 _l
378 254 _l
378 643 _l
352 729 _m
476 729 _l
476 254 _l
580 254 _l
580 172 _l
476 172 _l
476 0 _l
378 0 _l
378 172 _l
49 172 _l
49 267 _l
352 729 _l
_cl}_d
/five{{636 0 77 -13 549 729 _sc
108 729 _m
495 729 _l
495 646 _l
198 646 _l
198 467 _l
212 472 227 476 241 478 _c
255 480 270 482 284 482 _c
365 482 429 459 477 415 _c
525 370 549 310 549 234 _c
549 155 524 94 475 51 _c
426 8 357 -13 269 -13 _c
238 -13 207 -10 175 -6 _c
143 -1 111 6 77 17 _c
77 116 _l
106 100 136 88 168 80 _c
199 72 232 69 267 69 _c
}_e{323 69 368 83 401 113 _c
433 143 450 183 450 234 _c
450 284 433 324 401 354 _c
368 384 323 399 267 399 _c
241 399 214 396 188 390 _c
162 384 135 375 108 363 _c
108 729 _l
_cl}_e}_d
/six{{636 0 70 -13 573 742 _sc
330 404 _m
286 404 251 388 225 358 _c
199 328 186 286 186 234 _c
186 181 199 139 225 109 _c
251 79 286 64 330 64 _c
374 64 409 79 435 109 _c
461 139 474 181 474 234 _c
474 286 461 328 435 358 _c
409 388 374 404 330 404 _c
526 713 _m
526 623 _l
501 635 476 644 451 650 _c
425 656 400 659 376 659 _c
310 659 260 637 226 593 _c
}_e{192 549 172 482 168 394 _c
187 422 211 444 240 459 _c
269 474 301 482 336 482 _c
409 482 467 459 509 415 _c
551 371 573 310 573 234 _c
573 159 550 99 506 54 _c
462 9 403 -13 330 -13 _c
246 -13 181 19 137 83 _c
92 147 70 241 70 364 _c
70 479 97 571 152 639 _c
206 707 280 742 372 742 _c
396 742 421 739 447 735 _c
472 730 498 723 526 713 _c
_cl}_e}_d
/eight{{636 0 68 -13 568 742 _sc
318 346 _m
271 346 234 333 207 308 _c
180 283 167 249 167 205 _c
167 161 180 126 207 101 _c
234 76 271 64 318 64 _c
364 64 401 76 428 102 _c
455 127 469 161 469 205 _c
469 249 455 283 429 308 _c
402 333 365 346 318 346 _c
219 388 _m
177 398 144 418 120 447 _c
96 476 85 511 85 553 _c
85 611 105 657 147 691 _c
188 725 245 742 318 742 _c
}_e{390 742 447 725 489 691 _c
530 657 551 611 551 553 _c
551 511 539 476 515 447 _c
491 418 459 398 417 388 _c
464 377 501 355 528 323 _c
554 291 568 251 568 205 _c
568 134 546 80 503 43 _c
459 5 398 -13 318 -13 _c
237 -13 175 5 132 43 _c
89 80 68 134 68 205 _c
68 251 81 291 108 323 _c
134 355 171 377 219 388 _c
183 544 _m
183 506 194 476 218 455 _c
}_e{242 434 275 424 318 424 _c
360 424 393 434 417 455 _c
441 476 453 506 453 544 _c
453 582 441 611 417 632 _c
393 653 360 664 318 664 _c
275 664 242 653 218 632 _c
194 611 183 582 183 544 _c
_cl}_e}_d
/C{{698 0 56 -13 644 742 _sc
644 673 _m
644 569 _l
610 599 575 622 537 638 _c
499 653 460 661 418 661 _c
334 661 270 635 226 584 _c
182 533 160 460 160 364 _c
160 268 182 194 226 143 _c
270 92 334 67 418 67 _c
460 67 499 74 537 90 _c
575 105 610 128 644 159 _c
644 56 _l
609 32 572 15 534 4 _c
496 -7 455 -13 412 -13 _c
302 -13 215 20 151 87 _c
}_e{87 154 56 246 56 364 _c
56 481 87 573 151 641 _c
215 708 302 742 412 742 _c
456 742 497 736 535 725 _c
573 713 610 696 644 673 _c
_cl}_e}_d
/I{295 0 98 0 197 729 _sc
98 729 _m
197 729 _l
197 0 _l
98 0 _l
98 729 _l
_cl}_d
/T{611 0 -2 0 614 729 _sc
-2 729 _m
614 729 _l
614 646 _l
355 646 _l
355 0 _l
256 0 _l
256 646 _l
-2 646 _l
-2 729 _l
_cl}_d
/V{684 0 8 0 676 729 _sc
286 0 _m
8 729 _l
111 729 _l
342 115 _l
573 729 _l
676 729 _l
398 0 _l
286 0 _l
_cl}_d
/a{{613 0 60 -13 522 560 _sc
343 275 _m
270 275 220 266 192 250 _c
164 233 150 205 150 165 _c
150 133 160 107 181 89 _c
202 70 231 61 267 61 _c
317 61 357 78 387 114 _c
417 149 432 196 432 255 _c
432 275 _l
343 275 _l
522 312 _m
522 0 _l
432 0 _l
432 83 _l
411 49 385 25 355 10 _c
325 -5 287 -13 243 -13 _c
187 -13 142 2 109 33 _c
76 64 60 106 60 159 _c
}_e{60 220 80 266 122 298 _c
163 329 224 345 306 345 _c
432 345 _l
432 354 _l
432 395 418 427 391 450 _c
364 472 326 484 277 484 _c
245 484 215 480 185 472 _c
155 464 127 453 100 439 _c
100 522 _l
132 534 164 544 195 550 _c
226 556 256 560 286 560 _c
365 560 424 539 463 498 _c
502 457 522 395 522 312 _c
_cl}_e}_d
/b{{635 0 91 -13 580 760 _sc
487 273 _m
487 339 473 390 446 428 _c
418 466 381 485 334 485 _c
286 485 249 466 222 428 _c
194 390 181 339 181 273 _c
181 207 194 155 222 117 _c
249 79 286 61 334 61 _c
381 61 418 79 446 117 _c
473 155 487 207 487 273 _c
181 464 _m
199 496 223 520 252 536 _c
281 552 316 560 356 560 _c
422 560 476 533 518 481 _c
559 428 580 359 580 273 _c
}_e{580 187 559 117 518 65 _c
476 13 422 -13 356 -13 _c
316 -13 281 -5 252 10 _c
223 25 199 49 181 82 _c
181 0 _l
91 0 _l
91 760 _l
181 760 _l
181 464 _l
_cl}_e}_d
/c{{550 0 55 -13 488 560 _sc
488 526 _m
488 442 _l
462 456 437 466 411 473 _c
385 480 360 484 334 484 _c
276 484 230 465 198 428 _c
166 391 150 339 150 273 _c
150 206 166 154 198 117 _c
230 80 276 62 334 62 _c
360 62 385 65 411 72 _c
437 79 462 90 488 104 _c
488 21 _l
462 9 436 0 410 -5 _c
383 -10 354 -13 324 -13 _c
242 -13 176 12 128 64 _c
}_e{79 115 55 185 55 273 _c
55 362 79 432 128 483 _c
177 534 244 560 330 560 _c
358 560 385 557 411 551 _c
437 545 463 537 488 526 _c
_cl}_e}_d
/d{{635 0 55 -13 544 760 _sc
454 464 _m
454 760 _l
544 760 _l
544 0 _l
454 0 _l
454 82 _l
435 49 411 25 382 10 _c
353 -5 319 -13 279 -13 _c
213 -13 159 13 117 65 _c
75 117 55 187 55 273 _c
55 359 75 428 117 481 _c
159 533 213 560 279 560 _c
319 560 353 552 382 536 _c
411 520 435 496 454 464 _c
148 273 _m
148 207 161 155 188 117 _c
215 79 253 61 301 61 _c
}_e{348 61 385 79 413 117 _c
440 155 454 207 454 273 _c
454 339 440 390 413 428 _c
385 466 348 485 301 485 _c
253 485 215 466 188 428 _c
161 390 148 339 148 273 _c
_cl}_e}_d
/e{{615 0 55 -13 562 560 _sc
562 296 _m
562 252 _l
149 252 _l
153 190 171 142 205 110 _c
238 78 284 62 344 62 _c
378 62 412 66 444 74 _c
476 82 509 95 541 113 _c
541 28 _l
509 14 476 3 442 -3 _c
408 -9 373 -13 339 -13 _c
251 -13 182 12 131 62 _c
80 112 55 181 55 268 _c
55 357 79 428 127 481 _c
175 533 241 560 323 560 _c
397 560 455 536 498 489 _c
}_e{540 441 562 377 562 296 _c
472 322 _m
471 371 457 410 431 440 _c
404 469 368 484 324 484 _c
274 484 234 469 204 441 _c
174 413 156 373 152 322 _c
472 322 _l
_cl}_e}_d
/f{352 0 23 0 371 760 _sc
371 760 _m
371 685 _l
285 685 _l
253 685 230 678 218 665 _c
205 652 199 629 199 595 _c
199 547 _l
347 547 _l
347 477 _l
199 477 _l
199 0 _l
109 0 _l
109 477 _l
23 477 _l
23 547 _l
109 547 _l
109 585 _l
109 645 123 690 151 718 _c
179 746 224 760 286 760 _c
371 760 _l
_cl}_d
/h{634 0 91 0 549 760 _sc
549 330 _m
549 0 _l
459 0 _l
459 327 _l
459 379 448 417 428 443 _c
408 469 378 482 338 482 _c
289 482 251 466 223 435 _c
195 404 181 362 181 309 _c
181 0 _l
91 0 _l
91 760 _l
181 760 _l
181 462 _l
202 494 227 519 257 535 _c
286 551 320 560 358 560 _c
420 560 468 540 500 501 _c
532 462 549 405 549 330 _c
_cl}_d
/i{278 0 94 0 184 760 _sc
94 547 _m
184 547 _l
184 0 _l
94 0 _l
94 547 _l
94 760 _m
184 760 _l
184 646 _l
94 646 _l
94 760 _l
_cl}_d
/l{278 0 94 0 184 760 _sc
94 760 _m
184 760 _l
184 0 _l
94 0 _l
94 760 _l
_cl}_d
/m{{974 0 91 0 889 560 _sc
520 442 _m
542 482 569 511 600 531 _c
631 550 668 560 711 560 _c
767 560 811 540 842 500 _c
873 460 889 403 889 330 _c
889 0 _l
799 0 _l
799 327 _l
799 379 789 418 771 444 _c
752 469 724 482 686 482 _c
639 482 602 466 575 435 _c
548 404 535 362 535 309 _c
535 0 _l
445 0 _l
445 327 _l
445 379 435 418 417 444 _c
398 469 369 482 331 482 _c
}_e{285 482 248 466 221 435 _c
194 404 181 362 181 309 _c
181 0 _l
91 0 _l
91 547 _l
181 547 _l
181 462 _l
201 495 226 520 255 536 _c
283 552 317 560 357 560 _c
397 560 430 550 458 530 _c
486 510 506 480 520 442 _c
_cl}_e}_d
/n{634 0 91 0 549 560 _sc
549 330 _m
549 0 _l
459 0 _l
459 327 _l
459 379 448 417 428 443 _c
408 469 378 482 338 482 _c
289 482 251 466 223 435 _c
195 404 181 362 181 309 _c
181 0 _l
91 0 _l
91 547 _l
181 547 _l
181 462 _l
202 494 227 519 257 535 _c
286 551 320 560 358 560 _c
420 560 468 540 500 501 _c
532 462 549 405 549 330 _c
_cl}_d
/o{612 0 55 -13 557 560 _sc
306 484 _m
258 484 220 465 192 427 _c
164 389 150 338 150 273 _c
150 207 163 156 191 118 _c
219 80 257 62 306 62 _c
354 62 392 80 420 118 _c
448 156 462 207 462 273 _c
462 337 448 389 420 427 _c
392 465 354 484 306 484 _c
306 560 _m
384 560 445 534 490 484 _c
534 433 557 363 557 273 _c
557 183 534 113 490 63 _c
445 12 384 -13 306 -13 _c
227 -13 165 12 121 63 _c
77 113 55 183 55 273 _c
55 363 77 433 121 484 _c
165 534 227 560 306 560 _c
_cl}_d
/p{{635 0 91 -207 580 560 _sc
181 82 _m
181 -207 _l
91 -207 _l
91 547 _l
181 547 _l
181 464 _l
199 496 223 520 252 536 _c
281 552 316 560 356 560 _c
422 560 476 533 518 481 _c
559 428 580 359 580 273 _c
580 187 559 117 518 65 _c
476 13 422 -13 356 -13 _c
316 -13 281 -5 252 10 _c
223 25 199 49 181 82 _c
487 273 _m
487 339 473 390 446 428 _c
418 466 381 485 334 485 _c
}_e{286 485 249 466 222 428 _c
194 390 181 339 181 273 _c
181 207 194 155 222 117 _c
249 79 286 61 334 61 _c
381 61 418 79 446 117 _c
473 155 487 207 487 273 _c
_cl}_e}_d
/r{411 0 91 0 411 560 _sc
411 463 _m
401 469 390 473 378 476 _c
366 478 353 480 339 480 _c
288 480 249 463 222 430 _c
194 397 181 350 181 288 _c
181 0 _l
91 0 _l
91 547 _l
181 547 _l
181 462 _l
199 495 224 520 254 536 _c
284 552 321 560 365 560 _c
371 560 378 559 386 559 _c
393 558 401 557 411 555 _c
411 463 _l
_cl}_d
/s{{521 0 54 -13 472 560 _sc
443 531 _m
443 446 _l
417 458 391 468 364 475 _c
336 481 308 485 279 485 _c
234 485 200 478 178 464 _c
156 450 145 430 145 403 _c
145 382 153 366 169 354 _c
185 342 217 330 265 320 _c
296 313 _l
360 299 405 279 432 255 _c
458 230 472 195 472 151 _c
472 100 452 60 412 31 _c
372 1 316 -13 246 -13 _c
216 -13 186 -10 154 -5 _c
}_e{122 0 89 8 54 20 _c
54 113 _l
87 95 120 82 152 74 _c
184 65 216 61 248 61 _c
290 61 323 68 346 82 _c
368 96 380 117 380 144 _c
380 168 371 187 355 200 _c
339 213 303 226 247 238 _c
216 245 _l
160 257 119 275 95 299 _c
70 323 58 356 58 399 _c
58 450 76 490 112 518 _c
148 546 200 560 268 560 _c
301 560 332 557 362 552 _c
391 547 418 540 443 531 _c
}_e{_cl}_e}_d
/t{392 0 27 0 368 702 _sc
183 702 _m
183 547 _l
368 547 _l
368 477 _l
183 477 _l
183 180 _l
183 135 189 106 201 94 _c
213 81 238 75 276 75 _c
368 75 _l
368 0 _l
276 0 _l
206 0 158 13 132 39 _c
106 65 93 112 93 180 _c
93 477 _l
27 477 _l
27 547 _l
93 547 _l
93 702 _l
183 702 _l
_cl}_d
/u{634 0 85 -13 543 560 _sc
85 216 _m
85 547 _l
175 547 _l
175 219 _l
175 167 185 129 205 103 _c
225 77 255 64 296 64 _c
344 64 383 79 411 110 _c
439 141 453 183 453 237 _c
453 547 _l
543 547 _l
543 0 _l
453 0 _l
453 84 _l
431 50 405 26 377 10 _c
348 -5 315 -13 277 -13 _c
214 -13 166 6 134 45 _c
101 83 85 140 85 216 _c
311 560 _m
311 560 _l
_cl}_d
/y{592 0 30 -207 562 547 _sc
322 -50 _m
296 -114 271 -157 247 -177 _c
223 -197 191 -207 151 -207 _c
79 -207 _l
79 -132 _l
132 -132 _l
156 -132 175 -126 189 -114 _c
203 -102 218 -75 235 -31 _c
251 9 _l
30 547 _l
125 547 _l
296 119 _l
467 547 _l
562 547 _l
322 -50 _l
_cl}_d
end readonly def

/BuildGlyph
 {exch begin
 CharStrings exch
 2 copy known not{pop /.notdef}if
 true 3 1 roll get exec
 end}_d

/BuildChar {
 1 index /Encoding get exch get
 1 index /BuildGlyph get exec
}_d

FontName currentdict end definefont pop
end
%%EndProlog
mpldict begin
-1.669 227.466 translate
615.338 337.069 0 0 clipbox
gsave
0 0 m
615.3375 0 l
615.3375 337.06875 l
0 337.06875 l
cl
1.000 setgray
fill
grestore
gsave
50.1375 188.74375 m
608.1375 188.74375 l
608.1375 314.74375 l
50.1375 314.74375 l
cl
1.000 setgray
fill
grestore
0.800 setlinewidth
1 setlinejoin
0 setlinecap
[] 0 setdash
0.000 setgray
gsave
/o {
gsave
newpath
translate
0.8 setlinewidth
1 setlinejoin
0 setlinecap
0 0 m
0 -3.5 l

gsave
0.000 setgray
fill
grestore
stroke
grestore
} bind def
50.1375 188.744 o
grestore
/DejaVuSans findfont
10.000 scalefont
setfont
gsave
46.957813 174.150000 translate
0.000000 rotate
0.000000 0 m /zero glyphshow
grestore
gsave
/o {
gsave
newpath
translate
0.8 setlinewidth
1 setlinejoin
0 setlinecap
0 0 m
0 -3.5 l

gsave
0.000 setgray
fill
grestore
stroke
grestore
} bind def
140.137 188.744 o
grestore
gsave
133.778125 174.150000 translate
0.000000 rotate
0.000000 0 m /one glyphshow
6.362305 0 m /zero glyphshow
grestore
gsave
/o {
gsave
newpath
translate
0.8 setlinewidth
1 setlinejoin
0 setlinecap
0 0 m
0 -3.5 l

gsave
0.000 setgray
fill
grestore
stroke
grestore
} bind def
230.137 188.744 o
grestore
gsave
223.778125 174.150000 translate
0.000000 rotate
0.000000 0 m /two glyphshow
6.362305 0 m /zero glyphshow
grestore
gsave
/o {
gsave
newpath
translate
0.8 setlinewidth
1 setlinejoin
0 setlinecap
0 0 m
0 -3.5 l

gsave
0.000 setgray
fill
grestore
stroke
grestore
} bind def
320.137 188.744 o
grestore
gsave
313.778125 174.150000 translate
0.000000 rotate
0.000000 0 m /three glyphshow
6.362305 0 m /zero glyphshow
grestore
gsave
/o {
gsave
newpath
translate
0.8 setlinewidth
1 setlinejoin
0 setlinecap
0 0 m
0 -3.5 l

gsave
0.000 setgray
fill
grestore
stroke
grestore
} bind def
410.137 188.744 o
grestore
gsave
403.778125 174.150000 translate
0.000000 rotate
0.000000 0 m /four glyphshow
6.362305 0 m /zero glyphshow
grestore
gsave
/o {
gsave
newpath
translate
0.8 setlinewidth
1 setlinejoin
0 setlinecap
0 0 m
0 -3.5 l

gsave
0.000 setgray
fill
grestore
stroke
grestore
} bind def
500.137 188.744 o
grestore
gsave
493.778125 174.150000 translate
0.000000 rotate
0.000000 0 m /five glyphshow
6.362305 0 m /zero glyphshow
grestore
gsave
/o {
gsave
newpath
translate
0.8 setlinewidth
1 setlinejoin
0 setlinecap
0 0 m
0 -3.5 l

gsave
0.000 setgray
fill
grestore
stroke
grestore
} bind def
590.138 188.744 o
grestore
gsave
583.778125 174.150000 translate
0.000000 rotate
0.000000 0 m /six glyphshow
6.362305 0 m /zero glyphshow
grestore
gsave
/o {
gsave
newpath
translate
0.8 setlinewidth
1 setlinejoin
0 setlinecap
-0 0 m
-3.5 0 l

gsave
0.000 setgray
fill
grestore
stroke
grestore
} bind def
50.1375 223.056 o
grestore
gsave
27.231250 219.259089 translate
0.000000 rotate
0.000000 0 m /zero glyphshow
6.362305 0 m /period glyphshow
9.541016 0 m /six glyphshow
grestore
gsave
/o {
gsave
newpath
translate
0.8 setlinewidth
1 setlinejoin
0 setlinecap
-0 0 m
-3.5 0 l

gsave
0.000 setgray
fill
grestore
stroke
grestore
} bind def
50.1375 261.323 o
grestore
gsave
27.231250 257.526065 translate
0.000000 rotate
0.000000 0 m /zero glyphshow
6.362305 0 m /period glyphshow
9.541016 0 m /eight glyphshow
grestore
gsave
/o {
gsave
newpath
translate
0.8 setlinewidth
1 setlinejoin
0 setlinecap
-0 0 m
-3.5 0 l

gsave
0.000 setgray
fill
grestore
stroke
grestore
} bind def
50.1375 299.59 o
grestore
gsave
27.231250 295.793042 translate
0.000000 rotate
0.000000 0 m /one glyphshow
6.362305 0 m /period glyphshow
9.541016 0 m /zero glyphshow
grestore
gsave
21.153125 221.540625 translate
90.000000 rotate
0.000000 0 m /f glyphshow
3.520508 0 m /u glyphshow
9.858398 0 m /e glyphshow
16.010742 0 m /l glyphshow
18.789062 0 m /space glyphshow
21.967773 0 m /f glyphshow
25.488281 0 m /r glyphshow
29.599609 0 m /a glyphshow
35.727539 0 m /c glyphshow
41.225586 0 m /t glyphshow
45.146484 0 m /i glyphshow
47.924805 0 m /o glyphshow
54.042969 0 m /n glyphshow
grestore
1.500 setlinewidth
2 setlinecap
0.000 0.000 1.000 setrgbcolor
gsave
558 126 50.14 188.7 clipbox
50.1375 203.922476 m
50.2875 207.074684 l
50.8875 208.013302 l
51.1875 208.076576 l
52.5375 207.923157 l
54.9375 208.772215 l
57.3375 209.055967 l
59.8875 209.145354 l
63.3375 209.036077 l
68.4375 208.629258 l
95.1375 206.178616 l
104.5875 205.690408 l
115.3875 205.362104 l
129.0375 205.183477 l
150.3375 205.156054 l
159.1875 205.26424 l
160.8375 206.215458 l
163.3875 207.777926 l
166.9875 208.96292 l
167.5875 209.241937 l
168.3375 209.563909 l
169.2375 209.859046 l
171.7875 210.89279 l
175.9875 212.491128 l
176.8875 212.768304 l
177.4875 212.660854 l
177.9375 212.580454 l
178.3875 212.648845 l
179.2875 213.083047 l
180.3375 213.531799 l
184.0875 214.436587 l
185.1375 214.488638 l
185.5875 214.414677 l
186.6375 214.590483 l
187.5375 214.809564 l
192.1875 215.275624 l
195.0375 215.465352 l
195.9375 215.086122 l
196.9875 214.272561 l
197.8875 213.60381 l
199.3875 212.209082 l
202.9875 208.693884 l
204.6375 207.492046 l
205.3875 207.235793 l
206.4375 207.155908 l
207.9375 207.248453 l
209.5875 207.59256 l
211.6875 208.27745 l
213.1875 208.917166 l
213.6375 209.48873 l
217.0875 216.827807 l
219.4875 221.923087 l
222.1875 227.135367 l
225.9375 230.79253 l
228.4875 232.756931 l
230.5875 234.107415 l
230.8875 234.174628 l
231.1875 233.924966 l
232.3875 231.882348 l
234.0375 228.990999 l
235.8375 224.635892 l
238.5375 216.563384 l
239.2875 214.316727 l
239.5875 213.779908 l
239.8875 213.568183 l
240.1875 213.191767 l
241.8375 210.206951 l
246.3375 207.819911 l
249.0375 207.062385 l
249.3375 207.363476 l
249.7875 208.648166 l
250.3875 210.89448 l
250.9875 212.950391 l
252.4875 217.397285 l
254.1375 223.350472 l
256.9875 234.285413 l
258.1875 238.612976 l
258.4875 239.405347 l
259.3875 240.784849 l
262.2375 244.966692 l
263.8875 246.710433 l
265.5375 248.09104 l
266.8875 248.948178 l
267.1875 248.947315 l
267.6375 248.697715 l
270.0375 246.797149 l
271.3875 245.168121 l
272.8875 242.984459 l
274.6875 239.946334 l
276.3375 237.199475 l
277.6875 236.13299 l
279.0375 235.160695 l
280.5375 234.391928 l
282.1875 233.786599 l
284.1375 233.321619 l
285.0375 233.261441 l
285.7875 233.366054 l
286.3875 233.213131 l
288.0375 232.450995 l
288.6375 231.979754 l
289.0875 231.639562 l
289.9875 230.64983 l
290.4375 229.990392 l
292.0875 227.717127 l
293.1375 225.716505 l
294.0375 223.845524 l
295.2375 220.672199 l
295.5375 220.434252 l
295.8375 220.462192 l
296.8875 220.97842 l
297.1875 220.863198 l
297.7875 220.267811 l
298.5375 219.561396 l
298.9875 219.440935 l
299.7375 219.581732 l
300.3375 219.625605 l
301.0875 219.389937 l
301.9875 219.091517 l
302.7375 219.095011 l
303.1875 219.21841 l
303.6375 219.657494 l
304.0875 220.521486 l
305.7375 224.273432 l
306.9375 226.396171 l
309.7875 233.071648 l
312.6375 239.641911 l
313.3875 240.399182 l
314.2875 241.426804 l
315.6375 243.04937 l
318.9375 246.207679 l
320.5875 247.575114 l
321.0375 247.654351 l
321.3375 247.285158 l
321.6375 246.602195 l
321.9375 246.237936 l
322.2375 246.223245 l
322.5375 246.422027 l
323.4375 246.798527 l
324.0375 246.652491 l
325.0875 246.360263 l
326.2875 246.102823 l
327.4875 245.526586 l
328.5375 244.825547 l
329.4375 243.927172 l
329.8875 243.459747 l
330.1875 243.404915 l
331.2375 243.527796 l
333.7875 242.974153 l
336.7875 242.709008 l
338.8875 242.690893 l
339.3375 243.034309 l
340.6875 244.337084 l
342.1875 245.711466 l
343.8375 247.170111 l
347.7375 250.086651 l
348.0375 250.168664 l
348.6375 249.965899 l
349.0875 249.946649 l
349.6875 250.281289 l
350.4375 250.724276 l
356.7375 252.884379 l
357.7875 252.814705 l
358.2375 253.225298 l
359.1375 254.154132 l
360.6375 255.107371 l
361.5375 255.556203 l
362.5875 255.798285 l
363.7875 255.855495 l
365.1375 255.671047 l
365.8875 255.550424 l
367.2375 255.838893 l
369.1875 256.006061 l
374.7375 256.700478 l
375.3375 256.72877 l
376.0875 256.437548 l
377.7375 255.515321 l
378.9375 254.56165 l
380.1375 253.353882 l
381.3375 251.804689 l
382.3875 250.080248 l
383.7375 247.405149 l
384.4875 245.988334 l
384.9375 245.788684 l
385.8375 245.659392 l
386.5875 245.121202 l
387.3375 244.702728 l
389.7375 244.112123 l
391.2375 243.903486 l
392.7375 243.775792 l
393.0375 243.992985 l
393.7875 245.256937 l
394.5375 246.366781 l
395.7375 247.917458 l
397.8375 251.618193 l
399.4875 254.82753 l
402.0375 259.877685 l
403.0875 260.706362 l
405.0375 262.785726 l
409.8375 266.726419 l
410.5875 267.189313 l
410.8875 267.045113 l
411.4875 266.31998 l
411.7875 266.148246 l
412.8375 265.844196 l
413.5875 265.157932 l
416.1375 262.508836 l
417.6375 260.445764 l
418.9875 258.17816 l
419.8875 256.647049 l
420.1875 256.647083 l
420.7875 256.7868 l
421.2375 256.579726 l
422.2875 255.80969 l
423.1875 255.619624 l
424.5375 255.195383 l
426.1875 254.874683 l
428.5875 254.530536 l
428.8875 254.562246 l
429.1875 254.88435 l
430.2375 256.595507 l
431.5875 258.035761 l
436.5375 265.80357 l
437.8875 267.87942 l
438.1875 267.85274 l
438.6375 267.602347 l
438.9375 267.668023 l
439.3875 268.145671 l
440.1375 268.967433 l
440.8875 269.306484 l
441.6375 269.755589 l
442.9875 270.614674 l
447.0375 272.660832 l
447.9375 272.73376 l
449.1375 272.779889 l
451.2375 272.538552 l
453.1875 272.056494 l
455.1375 271.347207 l
456.0375 271.081941 l
456.9375 270.99921 l
458.1375 270.982879 l
461.5875 271.208271 l
464.8875 271.658836 l
465.3375 271.7585 l
465.7875 271.578986 l
467.1375 270.87105 l
468.1875 270.307581 l
471.1875 268.225345 l
473.7375 266.179177 l
474.6375 265.25206 l
475.0875 265.273283 l
475.6875 265.339773 l
476.4375 265.121832 l
477.1875 264.996153 l
481.0875 265.132783 l
482.7375 265.377268 l
483.3375 265.781256 l
483.7875 265.771391 l
484.8375 265.573829 l
486.1875 265.618243 l
489.6375 265.209277 l
491.7375 264.879745 l
492.3375 264.339591 l
492.6375 264.381759 l
493.9875 265.039761 l
494.8875 265.066745 l
495.9375 265.509125 l
500.4375 267.258306 l
500.7375 267.360061 l
501.0375 267.043231 l
501.4875 266.298917 l
501.7875 266.11755 l
502.0875 266.213256 l
502.8375 266.720691 l
503.2875 266.651717 l
504.1875 266.257614 l
504.9375 266.317507 l
505.5375 266.292987 l
509.8875 265.348492 l
510.7875 266.381188 l
511.0875 266.392848 l
511.9875 266.202707 l
512.4375 266.430973 l
513.1875 266.868777 l
516.4875 267.9565 l
518.5875 268.836159 l
518.8875 269.02774 l
519.1875 269.664917 l
520.3875 273.211745 l
521.2875 274.976184 l
523.8375 281.99653 l
528.0375 294.046817 l
528.7875 294.874313 l
531.1875 298.645068 l
532.6875 300.581186 l
534.9375 303.11897 l
536.7375 304.878946 l
537.0375 304.921045 l
539.5875 304.062122 l
540.9375 303.152317 l
542.2875 301.929529 l
543.7875 300.276081 l
545.4375 298.130492 l
545.8875 297.620722 l
546.3375 297.574406 l
546.9375 297.525321 l
548.2875 297.024684 l
554.5875 296.489824 l
555.0375 296.430287 l
555.4875 295.76736 l
556.3875 294.31944 l
557.2875 293.066818 l
559.5375 288.850218 l
561.9375 283.660091 l
564.3375 278.201481 l
564.7875 278.088637 l
565.2375 277.954774 l
565.6875 277.476837 l
566.4375 276.607644 l
567.0375 276.324435 l
567.7875 275.962384 l
568.9875 275.251992 l
572.4375 274.117138 l
574.2375 273.762677 l
576.4875 273.537674 l
578.7375 273.535668 l
581.1375 273.764539 l
583.5375 274.217692 l
586.6875 274.871501 l
587.2875 275.006615 l
588.3375 275.361309 l
589.5375 275.513456 l
590.4375 275.859475 l
590.7375 275.784237 l
591.4875 275.298221 l
591.7875 275.565075 l
592.2375 276.628048 l
592.6875 277.617908 l
592.9875 277.777847 l
593.2875 277.559611 l
593.7375 277.244921 l
593.8875 277.325224 l
594.1875 277.877167 l
595.0875 280.21414 l
595.2375 280.251728 l
595.5375 279.992937 l
595.9875 279.576952 l
596.1375 279.656521 l
596.4375 280.289442 l
597.1875 282.778423 l
597.4875 283.033298 l
597.7875 282.682961 l
598.0875 282.254776 l
598.2375 282.185688 l
598.3875 282.283057 l
598.6875 283.034059 l
599.4375 285.640714 l
599.7375 285.874411 l
599.8875 285.86807 l
600.3375 285.404691 l
600.6375 285.403752 l
600.9375 285.841574 l
601.6875 287.517675 l
601.9875 287.564215 l
602.7375 286.793222 l
602.8875 286.866942 l
603.1875 287.406125 l
603.7875 288.924416 l
604.0875 289.098959 l
604.3875 288.753947 l
604.8375 288.101544 l
604.9875 288.083117 l
605.2875 288.505641 l
606.0375 290.437556 l
606.1875 290.519784 l
606.3375 290.437973 l
607.0875 289.27777 l
607.2375 289.335533 l
607.5375 289.948159 l
608.1375 291.701473 l
608.1375 291.701473 l
stroke
grestore
0.000 0.500 0.000 setrgbcolor
gsave
558 126 50.14 188.7 clipbox
50.1375 203.922476 m
50.2875 206.811653 l
51.1875 208.309934 l
51.6375 208.50549 l
52.0875 208.450921 l
53.2875 208.844339 l
54.9375 209.54962 l
56.4375 209.868305 l
58.9875 210.182535 l
61.8375 210.279678 l
65.5875 210.173834 l
70.9875 209.779924 l
99.1875 207.409824 l
109.2375 206.944503 l
120.9375 206.634906 l
136.0875 206.473102 l
159.4875 206.294335 l
160.2375 205.803233 l
163.0875 203.428468 l
164.5875 201.895146 l
167.8875 198.490757 l
168.7875 198.147695 l
169.5375 198.110193 l
172.5375 198.49525 l
174.3375 198.93623 l
177.9375 200.114965 l
183.0375 202.320086 l
187.8375 204.451317 l
192.7875 206.881728 l
199.2375 210.305937 l
219.1875 221.069467 l
225.4875 224.115122 l
231.3375 226.694598 l
237.0375 228.963359 l
242.7375 230.993779 l
248.7375 232.891235 l
252.7875 234.012352 l
256.0875 234.713088 l
258.7875 235.139807 l
259.8375 235.30317 l
263.5875 236.164109 l
273.7875 238.427075 l
289.0875 241.617265 l
340.2375 251.890625 l
349.6875 251.834515 l
357.9375 253.277843 l
364.9875 254.886087 l
374.2875 257.250911 l
390.0375 261.528981 l
409.9875 266.88536 l
424.9875 270.669279 l
438.1875 273.784602 l
439.6875 274.054231 l
443.1375 274.799062 l
466.9875 280.021651 l
497.7375 286.913105 l
521.4375 292.214348 l
525.0375 292.620946 l
530.7375 293.272334 l
535.8375 294.258449 l
544.6875 296.199628 l
556.5375 299.036366 l
573.7875 303.419168 l
590.5875 307.662532 l
597.0375 307.359766 l
601.3875 306.750233 l
607.5375 305.643479 l
608.1375 305.52698 l
608.1375 305.52698 l
stroke
grestore
0.750 0.000 0.750 setrgbcolor
gsave
558 126 50.14 188.7 clipbox
50.1375 203.922476 m
50.2875 206.811653 l
51.1875 208.309934 l
51.6375 208.50549 l
52.0875 208.450921 l
53.2875 208.844339 l
54.9375 209.54962 l
56.4375 209.868305 l
58.9875 210.182535 l
61.8375 210.279678 l
65.5875 210.173834 l
70.9875 209.779924 l
99.1875 207.409824 l
109.2375 206.944503 l
120.9375 206.634906 l
136.0875 206.473102 l
162.0375 206.456601 l
167.4375 206.539725 l
169.0875 207.118503 l
172.0875 208.346822 l
176.8875 210.648962 l
186.9375 215.486634 l
193.3875 218.325394 l
199.6875 220.853354 l
205.8375 223.081421 l
211.8375 225.021395 l
218.2875 226.872293 l
225.6375 228.746626 l
234.7875 230.838928 l
247.6875 233.538729 l
279.9375 239.96914 l
316.6875 247.425414 l
356.1375 255.663618 l
397.2375 264.473458 l
437.8875 273.413104 l
477.9375 282.447243 l
517.3875 291.57274 l
556.3875 300.822273 l
590.8875 308.996712 l
593.5875 308.826549 l
596.5875 308.351882 l
601.5375 307.302095 l
608.1375 305.823371 l
608.1375 305.823371 l
stroke
grestore
0 setlinecap
[5.55 2.4] 0 setdash
0.000 0.000 1.000 setrgbcolor
gsave
558 126 50.14 188.7 clipbox
167.1375 200.967344 m
176.1375 206.070458 l
185.1375 210.272256 l
194.1375 205.664596 l
203.1375 194.471023 l
212.1375 194.744313 l
221.1375 202.620687 l
230.1375 207.686571 l
239.1375 208.578342 l
248.1375 205.54997 l
257.1375 228.033292 l
266.1375 240.707442 l
275.1375 246.81271 l
284.1375 237.378335 l
293.1375 227.252897 l
302.1375 214.258441 l
311.1375 214.83343 l
320.1375 222.349121 l
329.1375 229.777089 l
338.1375 237.590686 l
347.1375 243.468995 l
356.1375 251.973006 l
365.1375 254.828828 l
374.1375 251.110055 l
383.1375 246.661909 l
392.1375 244.919139 l
401.1375 247.011524 l
410.1375 247.562872 l
419.1375 247.271671 l
428.1375 243.92629 l
437.1375 263.530114 l
446.1375 272.429518 l
455.1375 278.321375 l
464.1375 272.809297 l
473.1375 266.111602 l
482.1375 264.76533 l
491.1375 266.724785 l
500.1375 266.166013 l
509.1375 267.049287 l
518.1375 269.265399 l
527.1375 286.386269 l
536.1375 297.903062 l
545.1375 304.710833 l
554.1375 301.525411 l
563.1375 293.487329 l
572.1375 280.774939 l
581.1375 275.017552 l
590.1375 272.479093 l
599.1375 278.288005 l
608.1375 285.249006 l
stroke
grestore
0.800 setlinewidth
0 setlinejoin
2 setlinecap
[] 0 setdash
0.000 setgray
gsave
50.1375 188.74375 m
50.1375 314.74375 l
stroke
grestore
gsave
608.1375 188.74375 m
608.1375 314.74375 l
stroke
grestore
gsave
50.1375 188.74375 m
608.1375 188.74375 l
stroke
grestore
gsave
50.1375 314.74375 m
608.1375 314.74375 l
stroke
grestore
/DejaVuSans findfont
12.000 scalefont
setfont
gsave
269.731250 320.743750 translate
0.000000 rotate
0.000000 0 m /T glyphshow
5.455078 0 m /y glyphshow
12.556641 0 m /p glyphshow
20.173828 0 m /e glyphshow
27.556641 0 m /space glyphshow
31.371094 0 m /I glyphshow
34.910156 0 m /V glyphshow
43.119141 0 m /space glyphshow
46.933594 0 m /C glyphshow
55.312500 0 m /o glyphshow
62.654297 0 m /m glyphshow
74.343750 0 m /p glyphshow
81.960938 0 m /a glyphshow
89.314453 0 m /r glyphshow
94.248047 0 m /i glyphshow
97.582031 0 m /s glyphshow
103.833984 0 m /o glyphshow
111.175781 0 m /n glyphshow
grestore
1.000 setlinewidth
0 setlinecap
0.800 setgray
gsave
57.1375 248.05625 m
182.496875 248.05625 l
183.830208 248.05625 184.496875 248.722917 184.496875 250.05625 c
184.496875 307.74375 l
184.496875 309.077083 183.830208 309.74375 182.496875 309.74375 c
57.1375 309.74375 l
55.804167 309.74375 55.1375 309.077083 55.1375 307.74375 c
55.1375 250.05625 l
55.1375 248.722917 55.804167 248.05625 57.1375 248.05625 c
cl
gsave
1.000 setgray
fill
grestore
stroke
grestore
1.500 setlinewidth
1 setlinejoin
2 setlinecap
0.000 0.000 1.000 setrgbcolor
gsave
59.1375 301.65 m
79.1375 301.65 l
stroke
grestore
0.000 setgray
/DejaVuSans findfont
10.000 scalefont
setfont
gsave
87.137500 298.150000 translate
0.000000 rotate
0.000000 0 m /d glyphshow
6.347656 0 m /y glyphshow
12.265625 0 m /n glyphshow
18.603516 0 m /a glyphshow
24.731445 0 m /m glyphshow
34.472656 0 m /i glyphshow
37.250977 0 m /c glyphshow
grestore
0.000 0.500 0.000 setrgbcolor
gsave
59.1375 286.978125 m
79.1375 286.978125 l
stroke
grestore
0.000 setgray
gsave
87.137500 283.478125 translate
0.000000 rotate
0.000000 0 m /s glyphshow
5.209961 0 m /t glyphshow
9.130859 0 m /e glyphshow
15.283203 0 m /a glyphshow
21.411133 0 m /d glyphshow
27.758789 0 m /y glyphshow
33.551758 0 m /hyphen glyphshow
37.160156 0 m /s glyphshow
42.370117 0 m /t glyphshow
46.291016 0 m /a glyphshow
52.418945 0 m /t glyphshow
56.339844 0 m /e glyphshow
grestore
0.750 0.000 0.750 setrgbcolor
gsave
59.1375 272.30625 m
79.1375 272.30625 l
stroke
grestore
0.000 setgray
gsave
87.137500 268.806250 translate
0.000000 rotate
0.000000 0 m /b glyphshow
6.347656 0 m /a glyphshow
12.475586 0 m /s glyphshow
17.685547 0 m /e glyphshow
23.837891 0 m /l glyphshow
26.616211 0 m /i glyphshow
29.394531 0 m /n glyphshow
35.732422 0 m /e glyphshow
grestore
0 setlinecap
[5.55 2.4] 0 setdash
0.000 0.000 1.000 setrgbcolor
gsave
59.1375 257.634375 m
79.1375 257.634375 l
stroke
grestore
0.000 setgray
gsave
87.137500 254.134375 translate
0.000000 rotate
0.000000 0 m /d glyphshow
6.347656 0 m /y glyphshow
12.265625 0 m /n glyphshow
18.603516 0 m /a glyphshow
24.731445 0 m /m glyphshow
34.472656 0 m /i glyphshow
37.250977 0 m /c glyphshow
42.749023 0 m /space glyphshow
45.927734 0 m /p glyphshow
52.275391 0 m /r glyphshow
56.136719 0 m /e glyphshow
62.289062 0 m /d glyphshow
68.636719 0 m /i glyphshow
71.415039 0 m /c glyphshow
76.913086 0 m /t glyphshow
80.833984 0 m /e glyphshow
86.986328 0 m /d glyphshow
grestore
gsave
50.1375 37.54375 m
608.1375 37.54375 l
608.1375 163.54375 l
50.1375 163.54375 l
cl
1.000 setgray
fill
grestore
0.800 setlinewidth
[] 0 setdash
gsave
/o {
gsave
newpath
translate
0.8 setlinewidth
1 setlinejoin
0 setlinecap
0 0 m
0 -3.5 l

gsave
0.000 setgray
fill
grestore
stroke
grestore
} bind def
50.1375 37.5438 o
grestore
gsave
46.957813 22.950000 translate
0.000000 rotate
0.000000 0 m /zero glyphshow
grestore
gsave
/o {
gsave
newpath
translate
0.8 setlinewidth
1 setlinejoin
0 setlinecap
0 0 m
0 -3.5 l

gsave
0.000 setgray
fill
grestore
stroke
grestore
} bind def
140.137 37.5438 o
grestore
gsave
133.778125 22.950000 translate
0.000000 rotate
0.000000 0 m /one glyphshow
6.362305 0 m /zero glyphshow
grestore
gsave
/o {
gsave
newpath
translate
0.8 setlinewidth
1 setlinejoin
0 setlinecap
0 0 m
0 -3.5 l

gsave
0.000 setgray
fill
grestore
stroke
grestore
} bind def
230.137 37.5438 o
grestore
gsave
223.778125 22.950000 translate
0.000000 rotate
0.000000 0 m /two glyphshow
6.362305 0 m /zero glyphshow
grestore
gsave
/o {
gsave
newpath
translate
0.8 setlinewidth
1 setlinejoin
0 setlinecap
0 0 m
0 -3.5 l

gsave
0.000 setgray
fill
grestore
stroke
grestore
} bind def
320.137 37.5438 o
grestore
gsave
313.778125 22.950000 translate
0.000000 rotate
0.000000 0 m /three glyphshow
6.362305 0 m /zero glyphshow
grestore
gsave
/o {
gsave
newpath
translate
0.8 setlinewidth
1 setlinejoin
0 setlinecap
0 0 m
0 -3.5 l

gsave
0.000 setgray
fill
grestore
stroke
grestore
} bind def
410.137 37.5438 o
grestore
gsave
403.778125 22.950000 translate
0.000000 rotate
0.000000 0 m /four glyphshow
6.362305 0 m /zero glyphshow
grestore
gsave
/o {
gsave
newpath
translate
0.8 setlinewidth
1 setlinejoin
0 setlinecap
0 0 m
0 -3.5 l

gsave
0.000 setgray
fill
grestore
stroke
grestore
} bind def
500.137 37.5438 o
grestore
gsave
493.778125 22.950000 translate
0.000000 rotate
0.000000 0 m /five glyphshow
6.362305 0 m /zero glyphshow
grestore
gsave
/o {
gsave
newpath
translate
0.8 setlinewidth
1 setlinejoin
0 setlinecap
0 0 m
0 -3.5 l

gsave
0.000 setgray
fill
grestore
stroke
grestore
} bind def
590.138 37.5438 o
grestore
gsave
583.778125 22.950000 translate
0.000000 rotate
0.000000 0 m /six glyphshow
6.362305 0 m /zero glyphshow
grestore
gsave
302.895312 9.278125 translate
0.000000 rotate
0.000000 0 m /t glyphshow
3.920898 0 m /i glyphshow
6.699219 0 m /m glyphshow
16.440430 0 m /e glyphshow
22.592773 0 m /space glyphshow
25.771484 0 m /parenleft glyphshow
29.672852 0 m /m glyphshow
39.414062 0 m /i glyphshow
42.192383 0 m /n glyphshow
48.530273 0 m /parenright glyphshow
grestore
gsave
/o {
gsave
newpath
translate
0.8 setlinewidth
1 setlinejoin
0 setlinecap
-0 0 m
-3.5 0 l

gsave
0.000 setgray
fill
grestore
stroke
grestore
} bind def
50.1375 40.2355 o
grestore
gsave
20.871875 36.438601 translate
0.000000 rotate
0.000000 0 m /zero glyphshow
6.362305 0 m /period glyphshow
9.541016 0 m /two glyphshow
15.903320 0 m /six glyphshow
grestore
gsave
/o {
gsave
newpath
translate
0.8 setlinewidth
1 setlinejoin
0 setlinecap
-0 0 m
-3.5 0 l

gsave
0.000 setgray
fill
grestore
stroke
grestore
} bind def
50.1375 62.369 o
grestore
gsave
20.871875 58.572089 translate
0.000000 rotate
0.000000 0 m /zero glyphshow
6.362305 0 m /period glyphshow
9.541016 0 m /two glyphshow
15.903320 0 m /eight glyphshow
grestore
gsave
/o {
gsave
newpath
translate
0.8 setlinewidth
1 setlinejoin
0 setlinecap
-0 0 m
-3.5 0 l

gsave
0.000 setgray
fill
grestore
stroke
grestore
} bind def
50.1375 84.5025 o
grestore
gsave
20.871875 80.705577 translate
0.000000 rotate
0.000000 0 m /zero glyphshow
6.362305 0 m /period glyphshow
9.541016 0 m /three glyphshow
15.903320 0 m /zero glyphshow
grestore
gsave
/o {
gsave
newpath
translate
0.8 setlinewidth
1 setlinejoin
0 setlinecap
-0 0 m
-3.5 0 l

gsave
0.000 setgray
fill
grestore
stroke
grestore
} bind def
50.1375 106.636 o
grestore
gsave
20.871875 102.839065 translate
0.000000 rotate
0.000000 0 m /zero glyphshow
6.362305 0 m /period glyphshow
9.541016 0 m /three glyphshow
15.903320 0 m /two glyphshow
grestore
gsave
/o {
gsave
newpath
translate
0.8 setlinewidth
1 setlinejoin
0 setlinecap
-0 0 m
-3.5 0 l

gsave
0.000 setgray
fill
grestore
stroke
grestore
} bind def
50.1375 128.769 o
grestore
gsave
20.871875 124.972553 translate
0.000000 rotate
0.000000 0 m /zero glyphshow
6.362305 0 m /period glyphshow
9.541016 0 m /three glyphshow
15.903320 0 m /four glyphshow
grestore
gsave
/o {
gsave
newpath
translate
0.8 setlinewidth
1 setlinejoin
0 setlinecap
-0 0 m
-3.5 0 l

gsave
0.000 setgray
fill
grestore
stroke
grestore
} bind def
50.1375 150.903 o
grestore
gsave
20.871875 147.106041 translate
0.000000 rotate
0.000000 0 m /zero glyphshow
6.362305 0 m /period glyphshow
9.541016 0 m /three glyphshow
15.903320 0 m /six glyphshow
grestore
gsave
14.793750 55.332812 translate
90.000000 rotate
0.000000 0 m /t glyphshow
3.920898 0 m /h glyphshow
10.258789 0 m /e glyphshow
16.411133 0 m /r glyphshow
20.397461 0 m /m glyphshow
30.138672 0 m /a glyphshow
36.266602 0 m /l glyphshow
39.044922 0 m /space glyphshow
42.223633 0 m /e glyphshow
48.375977 0 m /f glyphshow
51.896484 0 m /f glyphshow
55.416992 0 m /i glyphshow
58.195312 0 m /c glyphshow
63.693359 0 m /i glyphshow
66.471680 0 m /e glyphshow
72.624023 0 m /n glyphshow
78.961914 0 m /c glyphshow
84.459961 0 m /y glyphshow
grestore
1.500 setlinewidth
2 setlinecap
0.000 0.000 1.000 setrgbcolor
gsave
558 126 50.14 37.54 clipbox
50.1375 91.11697 m
50.2875 80.405082 l
50.7375 78.103711 l
50.8875 78.015595 l
51.0375 78.425769 l
51.9375 83.849218 l
52.2375 84.727086 l
52.3875 84.863672 l
52.8375 84.578267 l
54.0375 83.186113 l
54.4875 83.044487 l
55.2375 83.08831 l
56.4375 83.14066 l
58.3875 83.170854 l
60.6375 83.505361 l
63.3375 84.135583 l
66.7875 85.186891 l
72.4875 87.195146 l
81.3375 90.284236 l
86.7375 91.924357 l
91.8375 93.243442 l
96.9375 94.332028 l
102.1875 95.22389 l
107.7375 95.940574 l
113.8875 96.504599 l
120.7875 96.908408 l
129.0375 97.16007 l
139.8375 97.251383 l
157.8375 97.145795 l
158.7375 97.107362 l
159.0375 96.786385 l
159.3375 95.964595 l
160.2375 93.10899 l
162.4875 86.670378 l
163.0875 85.626735 l
163.6875 85.027838 l
164.4375 84.544264 l
165.4875 83.749635 l
167.2875 82.132526 l
167.8875 81.253185 l
168.1875 81.26303 l
168.6375 81.49118 l
168.9375 81.363679 l
170.7375 80.012079 l
173.1375 79.187869 l
174.9375 78.353123 l
176.5875 77.793533 l
176.7375 77.758803 l
176.8875 77.858464 l
177.1875 78.54204 l
177.7875 80.375317 l
178.0875 80.698036 l
178.3875 80.526192 l
178.8375 79.785072 l
179.5875 78.482645 l
180.0375 78.165586 l
180.4875 78.191155 l
181.6875 78.527336 l
183.6375 78.493263 l
184.2375 78.884082 l
184.8375 79.510771 l
185.1375 79.914951 l
185.5875 80.755291 l
186.0375 81.10262 l
186.3375 80.871707 l
186.7875 80.415303 l
187.2375 80.31529 l
187.6875 80.510648 l
189.3375 81.514779 l
192.6375 82.973155 l
194.7375 84.041459 l
195.1875 84.952498 l
195.6375 86.358678 l
200.2875 107.050267 l
201.9375 114.529315 l
204.0375 121.684 l
204.6375 122.993911 l
205.0875 123.469263 l
205.5375 123.528119 l
206.8875 123.190638 l
208.0875 122.809885 l
209.1375 122.219703 l
210.7875 120.99367 l
212.8875 119.210325 l
213.1875 118.369627 l
213.6375 115.284847 l
214.9875 102.29706 l
215.8875 95.257426 l
217.6875 82.889759 l
218.8875 76.270708 l
221.7375 62.565901 l
222.0375 62.097046 l
222.3375 62.089767 l
222.4875 62.069827 l
222.7875 62.261523 l
223.2375 61.979533 l
223.6875 61.493521 l
225.0375 59.821389 l
227.7375 57.207294 l
229.5375 55.708304 l
230.4375 55.132365 l
230.5875 55.056356 l
230.7375 55.122742 l
230.8875 55.525578 l
231.1875 57.508812 l
232.3875 67.957731 l
234.0375 79.562163 l
235.9875 97.644313 l
237.4875 113.97862 l
239.2875 135.639653 l
239.4375 136.361561 l
239.5875 136.432858 l
239.7375 135.826177 l
239.8875 135.752408 l
240.0375 135.875545 l
240.3375 137.660122 l
241.3875 146.101976 l
241.6875 147.047088 l
241.8375 147.284601 l
242.2875 147.007923 l
242.7375 147.040696 l
243.0375 147.175676 l
243.4875 147.861038 l
244.2375 149.647812 l
245.1375 151.736082 l
245.8875 152.96867 l
247.3875 155.242597 l
248.8875 157.816477 l
249.0375 157.457454 l
249.3375 154.825355 l
249.7875 145.868541 l
250.3875 132.682221 l
250.8375 125.388277 l
251.4375 118.463129 l
252.6375 105.066513 l
254.5875 82.253999 l
256.9875 58.063686 l
257.8875 50.442788 l
258.3375 49.185763 l
258.6375 49.424565 l
259.0875 49.931014 l
259.3875 50.007237 l
259.6875 49.731079 l
260.2875 48.569585 l
260.8875 47.525165 l
261.6375 46.762262 l
262.9875 45.457367 l
264.0375 44.561096 l
265.3875 43.720361 l
266.4375 43.288574 l
266.7375 43.330574 l
267.0375 43.866653 l
267.4875 45.634691 l
268.3875 49.20438 l
269.7375 53.778295 l
271.3875 60.682395 l
273.0375 68.491277 l
274.9875 78.883579 l
276.0375 84.202201 l
276.3375 84.745212 l
277.2375 85.680548 l
278.1375 87.398444 l
279.0375 88.90731 l
280.8375 91.342515 l
282.4875 93.192019 l
284.2875 94.856259 l
284.7375 95.092672 l
285.0375 94.873913 l
285.3375 94.60675 l
285.6375 94.62294 l
285.9375 94.982924 l
286.5375 96.320835 l
288.0375 100.113701 l
288.6375 102.317489 l
289.0875 104.021722 l
289.8375 107.73644 l
292.2375 121.484922 l
293.2875 130.035793 l
294.1875 139.081078 l
294.9375 148.383604 l
295.2375 149.655424 l
295.3875 149.579372 l
295.6875 148.292062 l
296.5875 142.515767 l
296.7375 142.188196 l
296.8875 142.153765 l
297.0375 142.402256 l
297.3375 143.608755 l
298.3875 149.158596 l
298.6875 149.582224 l
298.8375 149.546591 l
299.1375 149.118224 l
299.8875 147.734641 l
300.1875 147.694376 l
300.4875 148.069094 l
300.9375 149.177725 l
301.6875 150.996332 l
301.9875 151.324229 l
302.2875 151.390387 l
302.7375 151.23292 l
303.0375 150.815723 l
303.3375 149.628213 l
303.6375 147.479168 l
304.0875 142.431537 l
304.9875 131.819217 l
305.4375 128.646439 l
306.9375 120.778338 l
308.7375 107.301468 l
310.3875 97.144058 l
311.8875 87.872605 l
312.3375 86.33086 l
312.6375 86.055082 l
313.0875 86.300587 l
313.3875 86.398722 l
313.6875 86.225562 l
314.1375 85.442519 l
315.1875 83.189069 l
315.9375 82.228543 l
316.8375 81.015747 l
318.6375 78.402239 l
320.4375 76.176203 l
320.5875 76.101675 l
320.8875 76.793901 l
321.1875 78.70908 l
321.9375 84.630389 l
322.0875 84.764695 l
322.3875 84.120895 l
322.6875 83.060564 l
323.1375 82.282711 l
323.2875 82.294126 l
323.5875 82.672061 l
324.9375 85.199962 l
325.8375 86.144103 l
326.4375 87.235286 l
327.6375 90.051917 l
328.3875 92.192804 l
329.1375 95.042693 l
329.7375 97.56188 l
329.8875 97.785827 l
330.0375 97.709365 l
330.9375 96.288811 l
331.2375 96.482256 l
332.7375 98.330994 l
334.5375 99.565075 l
336.4875 100.855704 l
338.5875 102.083299 l
338.7375 102.026081 l
338.8875 101.817825 l
339.1875 100.858164 l
340.0875 97.525932 l
340.8375 95.92533 l
342.0375 93.30122 l
342.9375 91.546656 l
343.8375 90.339208 l
347.7375 86.062813 l
347.8875 86.214413 l
348.1875 87.03893 l
348.7875 88.828845 l
348.9375 88.949686 l
349.0875 88.919456 l
349.3875 88.521455 l
350.1375 87.254161 l
350.4375 87.109241 l
350.8875 87.207441 l
351.4875 87.320934 l
351.9375 87.165932 l
353.1375 86.629904 l
355.5375 86.042488 l
356.5875 85.879998 l
356.7375 86.048489 l
357.3375 87.401088 l
357.4875 87.470884 l
357.6375 87.369231 l
357.9375 86.659482 l
358.9875 83.301568 l
359.4375 82.805671 l
360.4875 81.97119 l
360.9375 81.667701 l
361.3875 81.627983 l
361.9875 81.903076 l
362.8875 82.606836 l
363.7875 83.565581 l
364.9875 85.196153 l
365.7375 86.148395 l
366.0375 85.915062 l
366.4875 85.530262 l
366.7875 85.519401 l
369.4875 86.435837 l
373.0875 87.278114 l
375.0375 87.690532 l
375.3375 88.106096 l
376.0875 89.895155 l
378.1875 95.315632 l
379.5375 99.704776 l
380.5875 103.838534 l
381.6375 108.949948 l
382.6875 115.250579 l
384.3375 126.028607 l
384.4875 126.200745 l
384.6375 126.103049 l
385.0875 125.059198 l
385.3875 124.454465 l
385.6875 124.352931 l
385.9875 124.777649 l
387.0375 127.136308 l
387.4875 127.414736 l
388.2375 127.595492 l
388.6875 127.977208 l
390.0375 129.360195 l
392.5875 130.968286 l
392.7375 130.802503 l
393.0375 129.427993 l
394.2375 121.578075 l
394.8375 119.760612 l
395.4375 117.756495 l
396.1875 114.084452 l
397.2375 109.200066 l
398.7375 102.509448 l
401.5875 89.431026 l
401.7375 89.032788 l
401.8875 88.995353 l
402.6375 89.784923 l
402.9375 89.662007 l
403.3875 88.864543 l
404.1375 87.468944 l
404.7375 86.957686 l
405.3375 86.459433 l
409.2375 82.302747 l
410.4375 81.256935 l
410.5875 81.354458 l
410.8875 82.75596 l
411.3375 85.784055 l
411.7875 87.035139 l
412.5375 87.888708 l
412.9875 89.200947 l
414.3375 93.79459 l
415.2375 96.656738 l
416.8875 103.178204 l
418.0875 108.734697 l
419.7375 117.314662 l
419.8875 117.362357 l
420.1875 116.308808 l
420.6375 114.990817 l
420.7875 114.882973 l
420.9375 114.960651 l
421.2375 115.586901 l
421.9875 117.58216 l
422.2875 117.891809 l
422.7375 117.960612 l
423.1875 118.072519 l
423.6375 118.49296 l
424.6875 119.707921 l
428.5875 122.629538 l
428.7375 122.585176 l
428.8875 122.262939 l
429.1875 120.515231 l
429.7875 116.298306 l
430.2375 114.711828 l
431.1375 112.973216 l
431.7375 110.648572 l
432.6375 107.083012 l
436.5375 94.43607 l
437.7375 91.045276 l
437.8875 91.216501 l
438.1875 92.653454 l
438.6375 94.585855 l
438.7875 94.736358 l
438.9375 94.623865 l
439.2375 93.826347 l
439.8375 92.070252 l
440.1375 91.803389 l
440.4375 91.871833 l
440.8875 92.033845 l
441.1875 91.930541 l
441.7875 91.303336 l
442.3875 90.768139 l
446.5875 88.520917 l
446.7375 88.554802 l
447.4875 89.407435 l
449.1375 90.633371 l
452.1375 93.817614 l
453.9375 96.177765 l
455.7375 98.76553 l
456.4875 98.881351 l
457.3875 99.249478 l
460.3875 99.834808 l
464.5875 100.53006 l
465.1875 100.328626 l
465.4875 100.850646 l
466.8375 104.233671 l
467.7375 105.867908 l
471.9375 115.555599 l
473.5875 119.725523 l
473.8875 120.861897 l
474.3375 122.616267 l
474.4875 122.7638 l
474.6375 122.726741 l
474.9375 122.300612 l
475.3875 121.606665 l
475.6875 121.551037 l
475.9875 121.81534 l
476.7375 122.647999 l
477.1875 122.729958 l
478.0875 122.727643 l
479.8875 123.24152 l
482.5875 123.462886 l
482.8875 122.740642 l
483.1875 122.191298 l
483.3375 122.205096 l
483.6375 122.566527 l
484.5375 124.195585 l
484.8375 124.330018 l
485.5875 124.440945 l
486.0375 124.8242 l
487.2375 126.05764 l
488.5875 127.122405 l
490.0875 128.423489 l
491.4375 129.617551 l
491.5875 129.834118 l
492.3375 132.37504 l
492.4875 132.233995 l
492.7875 131.505535 l
493.3875 129.861249 l
493.6875 129.674226 l
493.9875 129.873883 l
494.5875 130.360937 l
494.8875 130.275142 l
495.4875 129.614353 l
495.9375 129.21137 l
496.3875 129.07096 l
497.1375 128.893568 l
497.8875 128.373732 l
498.7875 127.805349 l
499.9875 127.080261 l
500.4375 126.819904 l
500.5875 126.798017 l
500.7375 127.168582 l
501.0375 129.30841 l
501.4875 132.381355 l
501.6375 132.74685 l
501.7875 132.776347 l
502.0875 132.067577 l
502.5375 130.618569 l
502.8375 130.330142 l
502.9875 130.464792 l
503.2875 131.14771 l
503.8875 132.71418 l
504.1875 133.019877 l
504.4875 133.010767 l
504.9375 132.882114 l
505.2375 132.995598 l
505.6875 133.550703 l
506.5875 134.789344 l
507.9375 136.046732 l
509.5875 138.416039 l
509.8875 137.644315 l
510.4875 134.46424 l
510.6375 134.199492 l
510.7875 134.163262 l
511.0875 134.675474 l
511.6875 136.077639 l
511.8375 136.157328 l
511.9875 136.09369 l
512.2875 135.632565 l
512.8875 134.513617 l
513.1875 134.330252 l
513.4875 134.406182 l
514.0875 134.645222 l
514.3875 134.545643 l
515.8875 133.501832 l
516.6375 133.277878 l
518.5875 132.121844 l
518.7375 131.899616 l
518.8875 131.293279 l
519.1875 128.49082 l
519.9375 120.338684 l
520.3875 118.058629 l
520.9875 115.990017 l
521.4375 113.266335 l
522.4875 106.228468 l
524.1375 97.263305 l
525.9375 87.589154 l
527.7375 78.533455 l
527.8875 78.372964 l
528.1875 78.784501 l
528.4875 79.109542 l
528.6375 79.078266 l
528.9375 78.571774 l
529.8375 76.405538 l
535.6875 69.161134 l
536.5875 68.332727 l
536.7375 68.392296 l
537.0375 69.017289 l
537.7875 70.877443 l
539.1375 73.025493 l
542.1375 79.755711 l
543.7875 84.211584 l
545.8875 89.982172 l
546.1875 89.620723 l
546.6375 89.113012 l
546.9375 89.199047 l
547.9875 90.120039 l
548.8875 90.253794 l
550.8375 91.142256 l
554.5875 92.676944 l
554.7375 92.707166 l
554.8875 92.898533 l
555.1875 94.131638 l
556.0875 99.121952 l
557.4375 104.31431 l
559.0875 112.061845 l
561.0375 122.134602 l
562.9875 133.277023 l
564.1875 140.004753 l
564.3375 139.880809 l
565.0875 138.401704 l
565.2375 138.51635 l
565.5375 139.278996 l
566.2875 141.647134 l
566.5875 141.947628 l
567.3375 142.124382 l
567.6375 142.509318 l
568.8375 144.475066 l
570.0375 145.586765 l
571.0875 146.812048 l
573.9375 149.156114 l
576.0375 150.41767 l
577.8375 151.146816 l
579.3375 151.509334 l
580.8375 151.661689 l
582.4875 151.591377 l
583.9875 151.320737 l
585.9375 150.87374 l
586.8375 151.496925 l
587.1375 151.376144 l
588.0375 150.689285 l
588.3375 150.818142 l
589.0875 151.347708 l
589.3875 151.197211 l
590.2875 150.292474 l
590.5875 150.633175 l
590.8875 151.57115 l
591.1875 152.648193 l
591.3375 152.875091 l
591.4875 152.717279 l
591.7875 151.063074 l
592.6875 143.660465 l
592.8375 143.626409 l
593.1375 144.76077 l
593.5875 146.840261 l
593.7375 146.851712 l
593.8875 146.322295 l
594.1875 143.764371 l
594.7875 137.499278 l
594.9375 136.878565 l
595.0875 136.849522 l
595.3875 138.258839 l
595.8375 140.95943 l
595.9875 141.070469 l
596.1375 140.538978 l
596.4375 137.682028 l
597.0375 130.65086 l
597.1875 130.098311 l
597.3375 130.078136 l
597.4875 130.660923 l
598.0875 134.956091 l
598.2375 135.061771 l
598.3875 134.426285 l
598.6875 131.128899 l
599.1375 124.978232 l
599.4375 123.740526 l
599.5875 123.79755 l
599.7375 124.166817 l
600.4875 127.736786 l
600.6375 127.515539 l
600.9375 125.793794 l
601.5375 121.585018 l
601.6875 121.376413 l
601.8375 121.655967 l
602.1375 123.322918 l
602.5875 125.783231 l
602.7375 125.836075 l
602.8875 125.355623 l
603.1875 123.088288 l
603.6375 119.279147 l
603.7875 118.727639 l
603.9375 118.729681 l
604.0875 119.262781 l
604.8375 123.719038 l
604.9875 123.516094 l
605.2875 121.464668 l
605.8875 116.148345 l
606.0375 115.856794 l
606.1875 116.184029 l
606.4875 118.263588 l
606.9375 121.417338 l
607.0875 121.518814 l
607.2375 120.957501 l
607.5375 118.230167 l
607.9875 113.740928 l
608.1375 113.227473 l
608.1375 113.227473 l
stroke
grestore
0.000 0.500 0.000 setrgbcolor
gsave
558 126 50.14 37.54 clipbox
50.1375 91.11697 m
50.2875 81.190452 l
51.0375 77.127752 l
51.1875 77.08599 l
51.4875 77.936416 l
52.3875 81.293463 l
52.6875 81.643943 l
52.8375 81.694014 l
53.1375 81.447071 l
54.7875 79.92888 l
55.5375 79.810456 l
57.6375 79.605925 l
59.2875 79.531524 l
61.5375 79.688113 l
64.0875 80.096424 l
67.2375 80.842107 l
71.5875 82.122569 l
88.2375 87.240937 l
93.7875 88.602927 l
99.1875 89.699599 l
104.7375 90.59943 l
110.5875 91.322509 l
117.0375 91.89187 l
124.3875 92.309689 l
133.2375 92.577729 l
144.7875 92.690766 l
158.8875 92.73946 l
159.1875 93.086961 l
159.4875 93.777844 l
159.9375 95.437536 l
161.5875 102.181407 l
163.3875 109.069486 l
165.0375 116.680485 l
167.4375 127.802833 l
168.0375 128.770665 l
168.6375 129.287765 l
168.9375 129.273364 l
169.3875 128.824433 l
170.2875 127.76545 l
170.8875 127.414779 l
171.7875 127.25796 l
172.6875 127.055257 l
173.5875 126.594606 l
177.6375 123.893729 l
178.5375 122.911621 l
180.0375 121.341908 l
183.3375 118.522356 l
184.9875 117.186821 l
188.2875 113.988447 l
191.1375 111.020203 l
196.6875 104.912292 l
204.9375 95.84683 l
209.2875 91.409286 l
213.0375 87.884 l
216.6375 84.802791 l
220.0875 82.149329 l
223.3875 79.893855 l
226.6875 77.915434 l
229.8375 76.280916 l
232.9875 74.88637 l
236.2875 73.670954 l
239.5875 72.692009 l
243.0375 71.903086 l
246.6375 71.31329 l
249.4875 70.841393 l
250.2375 70.558937 l
250.8375 70.650645 l
252.1875 70.984346 l
254.5875 71.226355 l
258.1875 71.945247 l
259.3875 72.56863 l
259.9875 72.440453 l
260.8875 72.257525 l
261.9375 72.380805 l
263.1375 72.431426 l
265.2375 72.509209 l
276.3375 73.280967 l
287.7375 74.375072 l
326.4375 78.255122 l
338.7375 79.23501 l
339.4875 79.264489 l
340.0875 79.729176 l
340.9875 80.484076 l
344.7375 82.891762 l
347.8875 85.144879 l
348.4875 85.586047 l
348.9375 85.585677 l
349.9875 85.435799 l
353.4375 85.865189 l
356.2875 86.049132 l
360.7875 86.171288 l
366.1875 86.097787 l
372.7875 85.776099 l
382.6875 85.042508 l
400.8375 83.685721 l
410.8875 83.180802 l
420.7875 82.907045 l
429.4875 82.675439 l
430.0875 82.611683 l
432.0375 82.733412 l
434.7375 82.834312 l
438.1875 83.07159 l
438.7875 83.296545 l
439.3875 83.274637 l
440.2875 83.225759 l
442.8375 83.351384 l
452.5875 83.730643 l
477.4875 84.577646 l
497.4375 85.022169 l
519.0375 85.284999 l
519.6375 85.304253 l
528.9375 87.82513 l
529.9875 87.824496 l
531.7875 87.95307 l
538.3875 88.232408 l
546.0375 88.327858 l
555.3375 88.213538 l
568.0875 87.815806 l
590.4375 87.046673 l
591.1875 87.236444 l
592.3875 87.336786 l
599.7375 88.979691 l
604.3875 90.399227 l
608.1375 91.659214 l
608.1375 91.659214 l
stroke
grestore
0.750 0.000 0.750 setrgbcolor
gsave
558 126 50.14 37.54 clipbox
50.1375 91.11697 m
50.2875 81.190452 l
51.0375 77.127752 l
51.1875 77.08599 l
51.4875 77.936416 l
52.3875 81.293463 l
52.6875 81.643943 l
52.8375 81.694014 l
53.1375 81.447071 l
54.7875 79.92888 l
55.5375 79.810456 l
57.6375 79.605925 l
59.2875 79.531524 l
61.5375 79.688113 l
64.0875 80.096424 l
67.2375 80.842107 l
71.5875 82.122569 l
88.2375 87.240937 l
93.7875 88.602927 l
99.1875 89.699599 l
104.7375 90.59943 l
110.5875 91.322509 l
117.0375 91.89187 l
124.3875 92.309689 l
133.2375 92.577729 l
144.7875 92.690766 l
165.0375 92.627169 l
167.1375 92.615162 l
167.8875 91.885366 l
169.0875 90.652918 l
173.8875 86.554207 l
178.8375 82.30627 l
182.4375 79.526296 l
185.8875 77.148666 l
189.3375 75.049127 l
192.7875 73.219511 l
196.2375 71.651146 l
199.6875 70.333889 l
203.1375 69.254625 l
206.5875 68.409034 l
210.0375 67.790979 l
213.7875 67.348839 l
217.8375 67.10125 l
222.3375 67.05541 l
227.4375 67.229615 l
233.5875 67.668417 l
241.6875 68.484075 l
255.1875 70.104122 l
280.6875 73.158894 l
298.0875 74.997978 l
316.2375 76.689736 l
335.5875 78.268613 l
356.2875 79.732174 l
378.0375 81.044367 l
400.6875 82.185944 l
424.2375 83.148293 l
448.6875 83.923419 l
474.1875 84.507228 l
500.7375 84.890301 l
528.3375 85.064662 l
557.1375 85.022903 l
587.1375 84.756411 l
590.2875 84.774877 l
591.3375 85.103317 l
592.6875 85.45584 l
595.9875 86.564038 l
601.9875 88.886166 l
608.1375 91.228689 l
608.1375 91.228689 l
stroke
grestore
0.800 setlinewidth
0 setlinejoin
0.000 setgray
gsave
50.1375 37.54375 m
50.1375 163.54375 l
stroke
grestore
gsave
608.1375 37.54375 m
608.1375 163.54375 l
stroke
grestore
gsave
50.1375 37.54375 m
608.1375 37.54375 l
stroke
grestore
gsave
50.1375 163.54375 m
608.1375 163.54375 l
stroke
grestore
1.000 setlinewidth
0 setlinecap
0.800 setgray
gsave
57.1375 111.528125 m
151.653125 111.528125 l
152.986458 111.528125 153.653125 112.194792 153.653125 113.528125 c
153.653125 156.54375 l
153.653125 157.877083 152.986458 158.54375 151.653125 158.54375 c
57.1375 158.54375 l
55.804167 158.54375 55.1375 157.877083 55.1375 156.54375 c
55.1375 113.528125 l
55.1375 112.194792 55.804167 111.528125 57.1375 111.528125 c
cl
gsave
1.000 setgray
fill
grestore
stroke
grestore
1.500 setlinewidth
1 setlinejoin
2 setlinecap
0.000 0.000 1.000 setrgbcolor
gsave
59.1375 150.45 m
79.1375 150.45 l
stroke
grestore
0.000 setgray
gsave
87.137500 146.950000 translate
0.000000 rotate
0.000000 0 m /d glyphshow
6.347656 0 m /y glyphshow
12.265625 0 m /n glyphshow
18.603516 0 m /a glyphshow
24.731445 0 m /m glyphshow
34.472656 0 m /i glyphshow
37.250977 0 m /c glyphshow
grestore
0.000 0.500 0.000 setrgbcolor
gsave
59.1375 135.778125 m
79.1375 135.778125 l
stroke
grestore
0.000 setgray
gsave
87.137500 132.278125 translate
0.000000 rotate
0.000000 0 m /s glyphshow
5.209961 0 m /t glyphshow
9.130859 0 m /e glyphshow
15.283203 0 m /a glyphshow
21.411133 0 m /d glyphshow
27.758789 0 m /y glyphshow
33.551758 0 m /hyphen glyphshow
37.160156 0 m /s glyphshow
42.370117 0 m /t glyphshow
46.291016 0 m /a glyphshow
52.418945 0 m /t glyphshow
56.339844 0 m /e glyphshow
grestore
0.750 0.000 0.750 setrgbcolor
gsave
59.1375 121.10625 m
79.1375 121.10625 l
stroke
grestore
0.000 setgray
gsave
87.137500 117.606250 translate
0.000000 rotate
0.000000 0 m /b glyphshow
6.347656 0 m /a glyphshow
12.475586 0 m /s glyphshow
17.685547 0 m /e glyphshow
23.837891 0 m /l glyphshow
26.616211 0 m /i glyphshow
29.394531 0 m /n glyphshow
35.732422 0 m /e glyphshow
grestore

end
showpage
