time,bias_percent_1,bias_percent_2,bias_percent_3,bias_percent_4,bias_percent_5,bias_percent_6,bias_percent_8,bias_percent_9,normalized_power,power_SP,SP,CV,total_power_MW,fuel_fraction,thermal_efficiency
8,0,0,0,0,0,0,0,0,0.997974064353128,1,0.04,0.0400293167391104,476.231480032293,0.999979931561336,0.349930253913
68,0.00381836498363066,-0.00299317141401525,-0.00306318747477394,-0.00190477702808641,0.00264044412571502,0.0013633263599794,-0.000135773170041205,-0.0036909805948689,0.999382752178456,0.996554741237088,0.04,0.0403849056812644,476.708149859448,0.995901048094239,0.351715140121139
128,0.0324561023608608,-0.02544195701913,-0.0260370935355793,-0.0161906047387351,0.0224437750685784,0.0115882740598245,-0.00115407194535027,-0.0313733350563858,0.979513546877275,0.970715300515247,0.04,0.0469593708452111,467.130740008636,0.94784988474715,0.362120875824231
188,0.0610938397380909,-0.0478907426242445,-0.0490109995963844,-0.0304764324493836,0.0422471060114418,0.0218132217596695,-0.00217237072065933,-0.0590556895179026,0.953795729824488,0.944875859793405,0.04,0.0513447068362071,454.84648258625,0.892431104831176,0.374493960398843
248,0.089731577115321,-0.070339528229359,-0.0719849056571895,-0.0447622601600323,0.0620504369543052,0.0320381694595148,-0.00319066949596845,-0.0867380439794196,0.927321713798206,0.919036419071564,0.04,0.0526928816397442,442.213941328383,0.840065329636856,0.386788938133854
308,0.118369314492551,-0.0927883138344736,-0.0949588117179949,-0.0590480878706811,0.0818537678971685,0.0422631171593599,-0.00420896827127751,-0.114420398440936,0.900828870497234,0.893196978349723,0.04,0.0520079633940738,429.575665408959,0.791757916382255,0.398659330807342
368,0.147007051869781,-0.115237099439588,-0.1179327177788,-0.0733339155813296,0.101657098840032,0.052488064859205,-0.00522726704658663,-0.142102752902453,0.874452723613307,0.867357537627881,0.04,0.0502642093003869,416.993465016842,0.746829639095308,0.410263026913455
428,0.175644789247011,-0.137685885044703,-0.140906623839605,-0.0876197432919784,0.121460429782895,0.0627130125590501,-0.0062455658218957,-0.16978510736397,0.848213834920415,0.84151809690604,0.04,0.0479429587289818,404.454072639861,0.705047887652201,0.421507467829592
488,0.204282526624241,-0.160134670649817,-0.16388052990041,-0.101905571002627,0.141263760725759,0.0729379602588954,-0.00726386459720476,-0.197467461825487,0.821736414801042,0.815678656184199,0.04,0.0451798734220868,391.901506499475,0.667049343491903,0.431691649759543
548,0.232920264001471,-0.182583456254932,-0.186854435961216,-0.116191398713276,0.161067091668622,0.0831629079587403,-0.00828216337251376,-0.225149816287004,0.795548092417175,0.789839215462358,0.04,0.0426620990926279,379.329152994901,0.63179076505875,0.441161519678991
