time,bias_percent_1,bias_percent_2,bias_percent_3,bias_percent_4,bias_percent_5,bias_percent_6,bias_percent_8,bias_percent_9,normalized_power,power_SP,SP,CV,total_power_MW,fuel_fraction,thermal_efficiency
50,0,0,0,0,0,0,0,0,0.999806403167142,1,0.04,0.039915222174023,477.010919495347,0.999970890340036,0.350506147507397
110,0.0147454051155355,-0.0226072930890002,-0.0223822351062468,-0.0209809749497944,-0.00920016638461516,-0.0167158964871884,0.0241657000406024,0.026461900623339,0.983657701659802,0.974854270478693,0.04,0.0455295308643765,469.089895783844,0.961270011526303,0.358562907379613
170,0.0324398912541782,-0.0497360447958004,-0.0492409172337427,-0.0461581448895477,-0.0202403660461533,-0.0367749722718144,0.0531645400893251,0.0582161813713457,0.954562478648228,0.944679395053125,0.04,0.051525040478136,455.180526085358,0.900991500687308,0.37120828061147
230,0.0501343773928209,-0.0768647965026006,-0.0760995993612388,-0.0713353148293007,-0.0312805657076914,-0.0568340480564405,0.082163380138048,0.0899704621193525,0.92393304331259,0.914504519627557,0.04,0.0541960370334265,440.56308575566,0.841841753667583,0.384531851916491
290,0.0678288635314634,-0.103993548209401,-0.102958281488735,-0.096512484769054,-0.0423207653692297,-0.0768931238410664,0.111162220186771,0.121724742867359,0.893059840125891,0.884329644201988,0.04,0.0543062936422251,425.833230363982,0.786500641277801,0.397827814809751
350,0.085523349670106,-0.131122299916201,-0.129816963616231,-0.121689654708807,-0.0533609650307678,-0.0969521996256925,0.140161060235494,0.153479023615366,0.862244868106241,0.85415476877642,0.04,0.0527582635928157,411.132648092957,0.735233295118256,0.410876663980983
410,0.103217835808749,-0.158251051623001,-0.156675645743727,-0.14686682464856,-0.0644011646923059,-0.117011275410318,0.169159900284216,0.185233304363373,0.83173194676619,0.823979893350852,0.04,0.0501965759885238,396.674871070651,0.687613531215887,0.423881976933055
470,0.120912321947391,-0.185379803329801,-0.183534327871223,-0.172043994588314,-0.0754413643538442,-0.137070351194944,0.198158740332939,0.21698758511138,0.801621294360722,0.793805017925284,0.04,0.0479069344333108,382.390737599096,0.640458302423902,0.438703582068761
530,0.138606808086034,-0.212508555036602,-0.210393009998719,-0.197221164528067,-0.0864815640153823,-0.157129426979571,0.227157580381662,0.248741865859386,0.771551072599642,0.763630142499716,0.04,0.046065993571113,368.034256106326,0.591857092269784,0.456905161529282
590,0.156301294224677,-0.239637306743402,-0.237251692126215,-0.22239833446782,-0.0975217636769205,-0.177188502764197,0.256156420430385,0.280496146607393,0.741162579171773,0.733455267074147,0.04,0.0436225025021503,353.518947860486,0.545387913307335,0.476279471739465
650,0.173995780363319,-0.266766058450202,-0.264110374253711,-0.247575504407574,-0.108561963338459,-0.197247578548823,0.285155260479108,0.3122504273554,0.710216738747847,0.703280391648579,0.04,0.0406969012376887,338.781406456362,0.502642889754806,0.495238841990525
