time,bias_percent_1,bias_percent_2,bias_percent_3,bias_percent_4,bias_percent_5,bias_percent_6,bias_percent_8,bias_percent_9,normalized_power,power_SP,SP,CV,total_power_MW,fuel_fraction,thermal_efficiency
9,0,0,0,0,0,0,0,0,0.99890581000666,1,0.04,0.0399234886826097,476.619970797684,0.999217749186657,0.350482850356423
69,-0.00480955708563283,0.00383428031794688,-0.00444878901247148,-0.0043878957427529,-0.00466819161629439,0.000744093165736103,0.00513482293444821,-0.00500099344944465,0.998847445633032,0.994733822258815,0.04,0.040602626863244,476.415648089913,0.993759074496658,0.35225696300282
129,-0.0368732709898516,0.0293961491042589,-0.0341073824289477,-0.0336405340277719,-0.0357894690582573,0.00570471427064319,0.0393669758307699,-0.038340949779076,0.972123158506621,0.959625970650914,0.04,0.0486273837937237,463.534928091038,0.925351549815438,0.368069968571574
189,-0.0689369848940704,0.0549580178905711,-0.063765975845424,-0.0628931723127908,-0.0669107465002201,0.0106653353755504,0.0735991287270915,-0.0716809061087074,0.937231047768554,0.924518119043014,0.04,0.053822027481676,446.851610590993,0.846893615956634,0.387694057968256
249,-0.101000698798289,0.0805198866768833,-0.0934245692619003,-0.0921458105978099,-0.0980320239421829,0.0156259564804575,0.107831281623413,-0.105020862438339,0.901084546261483,0.889410267435113,0.04,0.0546532333916974,429.620086453913,0.773076114900833,0.408335368947565
309,-0.133064412702508,0.106081755463195,-0.123083162678377,-0.121398448882829,-0.129153301384146,0.0205865775853646,0.142063434519735,-0.13836081876797,0.865365923402829,0.854302415827212,0.04,0.052265087228756,412.569350767494,0.705094279597257,0.429936628712628
369,-0.165128126606727,0.131643624249508,-0.152741756094853,-0.150651087167848,-0.160274578826109,0.0255471986902719,0.176295587416056,-0.171700775097601,0.829383499060969,0.819194564219312,0.04,0.0477620877474528,395.410990255451,0.643116313447332,0.451766357383286
