time,bias_percent_1,bias_percent_2,bias_percent_3,bias_percent_4,bias_percent_5,bias_percent_6,bias_percent_8,bias_percent_9,normalized_power,power_SP,SP,CV,total_power_MW,fuel_fraction,thermal_efficiency
47,0,0,0,0,0,0,0,0,0.999783844525773,1,0.04,0.039922135298552,477.000601631074,0.999930918840599,0.350512576893781
107,0.00254429115924347,0.00222786712505513,0.000905955578266003,-0.0191099813776067,0.0138549906984837,-0.00511762834429169,-0.00297096983103921,-0.00665858829150693,0.996646736009166,0.994294931512391,0.04,0.041122989833293,475.450969132738,0.990436774602787,0.352722899652526
167,0.00579232242636283,0.00507195281661484,0.00206249461435016,-0.0435057022851895,0.0315422128667604,-0.0116507709114727,-0.00676369727491891,-0.0151589137700263,0.989754699868262,0.987011865357998,0.04,0.042495167365557,472.154120124472,0.973898831171899,0.356225180712578
227,0.0090403536934823,0.00791603850817467,0.00321903365043443,-0.0679014231927724,0.0492294350350373,-0.0181839134786536,-0.0105564247187987,-0.0236592392485458,0.982377988592018,0.979728799203604,0.04,0.0429423144092516,468.633398811153,0.957369483041413,0.359673410747584
287,0.0122883849606017,0.0107601241997343,0.00437557268651858,-0.0922971441003554,0.0669166572033142,-0.0247170560458346,-0.0143491521626785,-0.0321595647270652,0.974918578986927,0.97244573304921,0.04,0.042751723560773,465.074218091011,0.941788406985299,0.362847053464723
347,0.0155364162277209,0.013604209891294,0.00553211172260274,-0.116692865007938,0.084603879371591,-0.0312501986130155,-0.0181418796065582,-0.0406598902055847,0.967437702669862,0.965162666894816,0.04,0.0422092302809326,461.505016488034,0.927363785294496,0.36566295976881
407,0.0187844474948404,0.0164482955828537,0.006688650758687,-0.141088585915521,0.102291101539868,-0.0377833411801964,-0.021934607050438,-0.0491602156841041,0.959955276674465,0.957879600740422,0.04,0.0415058246012602,457.935196258161,0.914139729844083,0.368083301739908
467,0.0220324787619596,0.0192923812744133,0.00784518979477116,-0.165484306823104,0.119978323708145,-0.0443164837473774,-0.0257273344943177,-0.0576605411626236,0.95248415155337,0.950596534586029,0.04,0.0407639734016913,454.370853046168,0.902072534579503,0.370103916362278
527,0.0252805100290791,0.022136466965973,0.00900172883085543,-0.189880027730687,0.137665545876422,-0.0508496263145583,-0.0295200619381975,-0.066160866641143,0.945032969274552,0.943313468431635,0.04,0.0400603392139457,450.816076482444,0.891058238062432,0.371747435754598
587,0.0285285412961985,0.0249805526575328,0.0101582678669397,-0.21427574863827,0.155352768044699,-0.0573827688817393,-0.0333127893820772,-0.0746611921196624,0.937607486787587,0.936030402277241,0.04,0.0394401552861675,447.273568838718,0.880957651337063,0.37305501204052
647,0.0317765725633178,0.0278246383490925,0.0113148069030239,-0.238671469545853,0.173039990212975,-0.0639159114489203,-0.037105516825957,-0.0831615175981819,0.930206641086767,0.928747336122847,0.04,0.0389241589370033,443.742850157238,0.871610292727508,0.374079315385623
707,0.0350246038304371,0.0306687240406523,0.012471345939108,-0.263067190453436,0.190727212381252,-0.0704490540161013,-0.0408982442698368,-0.0916618430767013,0.922832202112171,0.921464269968453,0.04,0.0385180630317471,440.224702951379,0.862863665583289,0.374875366828922
767,0.0382726350975565,0.033512809732212,0.0136278849751922,-0.287462911361019,0.208414434549529,-0.0769821965832821,-0.0446909717137166,-0.100162168555221,0.915481086773697,0.91418120381406,0.04,0.0382166449828597,436.717658149018,0.854571558514382,0.375497451685967
827,0.0415206663646759,0.0363568954237717,0.0147844240112765,-0.311858632268602,0.226101656717806,-0.083515339150463,-0.0484836991575963,-0.10866249403374,0.908149818467005,0.906898137659666,0.04,0.0380074728583189,433.220052352056,0.846607468623007,0.375994187624909
887,0.0447686976317953,0.0392009811153314,0.0159409630473606,-0.336254353176185,0.243788878886083,-0.090048481717644,-0.052276426601476,-0.11716281951226,0.900834468781632,0.899615071505272,0.04,0.0378744886149087,429.730009430593,0.838867694536596,0.376406305035853
947,0.0454724377396711,0.039817199681836,0.0161915465051788,-0.341540092706161,0.247621110355876,-0.0914639959405332,-0.0530981842143167,-0.119004556699272,0.89696297611859,0.898037073838487,0.04,0.0364193403522554,427.933801608844,0.840876553853651,0.373937504078111
1007,0.0454724377396711,0.039817199681836,0.0161915465051788,-0.341540092706161,0.247621110355876,-0.0914639959405332,-0.0530981842143167,-0.119004556699272,0.896616787359046,0.898037073838487,0.04,0.0350559228623896,427.775399224378,0.849086137883109,0.37018492655614
1067,0.0454724377396711,0.039817199681836,0.0161915465051788,-0.341540092706161,0.247621110355876,-0.0914639959405332,-0.0530981842143167,-0.119004556699272,0.896645228508896,0.898037073838487,0.04,0.0347700219169725,427.790194179698,0.857570554720265,0.366535160090185
1127,0.0454724377396711,0.0398171996818359,0.0161915465051787,-0.341540092706161,0.247621110355876,-0.0914639959405333,-0.0530981842143167,-0.119004556699272,0.89678390565357,0.898037073838487,0.04,0.0351585789908811,427.85700825051,0.86541485919605,0.363269535490079
1187,0.0454724377396711,0.039817199681836,0.0161915465051788,-0.341540092706161,0.247621110355876,-0.0914639959405332,-0.0530981842143166,-0.119004556699272,0.896985062935957,0.898037073838487,0.04,0.0358977342162796,427.953322207948,0.872160911247055,0.360540834826566
1247,0.0454724377396711,0.039817199681836,0.0161915465051788,-0.341540092706161,0.247621110355876,-0.0914639959405332,-0.0530981842143167,-0.119004556699272,0.897211769512879,0.898037073838487,0.04,0.0367726026308734,428.061553164099,0.877581889623629,0.358404329236593
1307,0.0454724377396711,0.0398171996818359,0.0161915465051788,-0.341540092706161,0.247621110355876,-0.0914639959405332,-0.0530981842143167,-0.119004556699272,0.897433953827199,0.898037073838487,0.04,0.0376441497158281,428.167426978906,0.881647855165567,0.356839683944489
1367,0.0454724377396711,0.039817199681836,0.0161915465051788,-0.341540092706161,0.247621110355876,-0.0914639959405332,-0.0530981842143166,-0.119004556699272,0.897631566662532,0.898037073838487,0.04,0.0384281556732078,428.261458129365,0.884470325439857,0.355779074462675
1427,0.0454724377396711,0.0398171996818359,0.0161915465051788,-0.341540092706161,0.247621110355876,-0.0914639959405332,-0.0530981842143166,-0.119004556699272,0.897794259701168,0.898037073838487,0.04,0.039080880095396,428.338781791475,0.88624200531206,0.355131947506346
1487,0.0454724377396711,0.0398171996818359,0.0161915465051788,-0.341540092706161,0.247621110355876,-0.0914639959405333,-0.0530981842143166,-0.119004556699272,0.897919225821482,0.898037073838487,0.04,0.0395876535635393,428.398107337939,0.887186616014287,0.354802963193408
1547,0.0454724377396711,0.039817199681836,0.0161915465051788,-0.341540092706161,0.247621110355876,-0.0914639959405332,-0.0530981842143167,-0.119004556699272,0.898008636968531,0.898037073838487,0.04,0.0399533568736007,428.440499783129,0.887523821589192,0.354703255890628
1607,0.0454724377396711,0.039817199681836,0.0161915465051788,-0.341540092706161,0.247621110355876,-0.0914639959405332,-0.0530981842143166,-0.119004556699272,0.898067400211892,0.898037073838487,0.04,0.0401946159410938,428.468316614921,0.887448430541603,0.354756420193305
1667,0.0454724377396711,0.0398171996818359,0.0161915465051788,-0.341540092706161,0.247621110355876,-0.0914639959405333,-0.0530981842143167,-0.119004556699272,0.898101565810746,0.898037073838487,0.04,0.0403338153932967,428.484446029235,0.887120753289563,0.354900816666005
1727,0.0454724377396711,0.0398171996818359,0.0161915465051788,-0.341540092706161,0.247621110355876,-0.0914639959405332,-0.0530981842143167,-0.119004556699272,0.898117175444871,0.898037073838487,0.04,0.0403947770615518,428.491769018419,0.886664312978058,0.355089582346565
1787,0.0454724377396711,0.039817199681836,0.0161915465051788,-0.341540092706161,0.247621110355876,-0.0914639959405332,-0.0530981842143167,-0.119004556699272,0.898119722351047,0.898037073838487,0.04,0.0403999427033567,428.49290016336,0.886168354802401,0.355289251763898
1847,0.0689286207701249,0.029504019398938,-0.0105730103736507,-0.336102528897667,0.251715118991864,-0.107135201079934,-0.0296529543281807,-0.135483046886997,0.893365366498103,0.890316023673554,0.04,0.0422083495807322,426.155772685132,0.873116798313572,0.358633379029244
1907,0.0988726842132575,0.016338257335664,-0.0447405297934332,-0.329160958078313,0.256941512995252,-0.127140994874913,0.000277126377524837,-0.156519417339411,0.883925785269874,0.880459363888534,0.04,0.0441237905515278,421.642546361415,0.852108026594779,0.363583735626513
1967,0.12881674765639,0.00317249527239005,-0.0789080492132157,-0.322219387258959,0.26216790699864,-0.147146788669893,0.0302072070832303,-0.177555787791825,0.873971252828122,0.870602704103514,0.04,0.0446923846920291,416.89265639512,0.831173149566959,0.368542363016057
2027,0.158760811099522,-0.00999326679088381,-0.113075568632998,-0.315277816439606,0.267394301002028,-0.167152582464872,0.0601372877889357,-0.198592158244239,0.864027915733719,0.860746044318494,0.04,0.0444534586915247,412.148463863783,0.810794935521888,0.373505786525326
2087,0.188704874542655,-0.0231590288541578,-0.147243088052781,-0.308336245620252,0.272620695005416,-0.187158376259852,0.0900673684946414,-0.219628528696653,0.854031890374566,0.850889384533474,0.04,0.0437805023149693,407.378923321881,0.791133436790472,0.37835849753187
2147,0.218648937985787,-0.0363247909174318,-0.181410607472563,-0.301394674800898,0.277847089008804,-0.207164170054831,0.119997449200347,-0.240664899149067,0.843992403692996,0.841032724748454,0.04,0.0428641046482045,402.588837518671,0.77249244773437,0.38293244366633
2207,0.24859300142892,-0.0494905529807057,-0.215578126892345,-0.294453103981544,0.283073483012192,-0.227169963849811,0.149927529906052,-0.261701269601481,0.833934159748669,0.831176064963434,0.04,0.0418463700013429,397.789990634495,0.755034024851879,0.387116786674217
2267,0.278537064872052,-0.0626563150439797,-0.249745646312128,-0.28751153316219,0.288299877015581,-0.24717575764479,0.179857610611758,-0.282737640053896,0.82387811728993,0.821319405178414,0.04,0.0408365121247835,392.992346929752,0.738786044427264,0.390858972744486
2327,0.308481128315185,-0.0758220771072536,-0.28391316573191,-0.280569962342836,0.293526271018969,-0.26718155143977,0.209787691317463,-0.30377401050631,0.813784316823165,0.811462745393394,0.04,0.0398676440726776,388.226118824997,0.723798141709522,0.394114091002198
2387,0.338425191758317,-0.0889878391705275,-0.318080685151693,-0.273628391523483,0.298752665022357,-0.287187345234749,0.239717772023169,-0.324810380958724,0.803851759773937,0.801606085608373,0.04,0.0391481387893184,383.438385173219,0.709454252085872,0.397123755897296
2447,0.36836925520145,-0.102153601233802,-0.352248204571475,-0.266686820704129,0.303979059025745,-0.307193139029729,0.269647852728874,-0.345846751411138,0.793907760720964,0.791749425823353,0.04,0.0385676171912772,378.69444820732,0.695853981311452,0.399876146386928
2507,0.398313318644582,-0.115319363297075,-0.386415723991258,-0.259745249884775,0.309205453029133,-0.327198932824708,0.29957793343458,-0.366883121863552,0.783975043149644,0.781892766038333,0.04,0.0381541446641986,373.955436123807,0.682704053834147,0.402477906647596
2567,0.428257382087715,-0.128485125360349,-0.42058324341104,-0.252803679065421,0.314431847032521,-0.347204726619688,0.329508014140285,-0.387919492315966,0.774023389206978,0.772036106253313,0.04,0.0378345475482723,369.207363949724,0.670084013731375,0.40485151967108
2627,0.458201445530847,-0.141650887423623,-0.454750762830823,-0.245862108246067,0.319658241035909,-0.367210520414667,0.359438094845991,-0.40895586276838,0.764059681932727,0.762179446468293,0.04,0.0375640153582164,364.453623291973,0.658086756521354,0.406924461507825
2687,0.48814550897398,-0.154816649486897,-0.488918282250605,-0.238920537426714,0.324884635039297,-0.387216314209646,0.389368175551696,-0.429992233220794,0.754091923020657,0.752322786683273,0.04,0.0373334170904456,359.697991383213,0.64675049024324,0.408654158166908
2747,0.494633389386659,-0.157669231267273,-0.496321244791558,-0.237416530415854,0.326017020406698,-0.391550902865225,0.395853026371266,-0.434550113485484,0.743684543367218,0.742466126898253,0.04,0.037419902981963,354.73133878439,0.637834167379568,0.408645249407603
2807,0.494633389386659,-0.157669231267273,-0.496321244791558,-0.237416530415854,0.326017020406698,-0.391550902865225,0.395853026371266,-0.434550113485484,0.733599875540228,0.732609467113233,0.04,0.0375540585023394,349.92097409706,0.631044002630307,0.407441261059006
2867,0.494633389386659,-0.157669231267273,-0.496321244791558,-0.237416530415854,0.326017020406698,-0.391550902865225,0.395853026371266,-0.434550113485484,0.72363484756045,0.722752807328213,0.04,0.0378626159544721,345.167290364378,0.625080257881681,0.405740655861519
2927,0.494633389386659,-0.157669231267273,-0.496321244791558,-0.237416530415854,0.326017020406698,-0.391550902865225,0.395853026371266,-0.434550113485484,0.713748704104349,0.712896147543193,0.04,0.0383282823027714,340.451172000003,0.619447210270554,0.403836164483167
2987,0.494633389386658,-0.157669231267273,-0.496321244791558,-0.237416530415854,0.326017020406698,-0.391550902865225,0.395853026371266,-0.434550113485484,0.703925528515613,0.703039487758173,0.04,0.0389097922138211,335.76496642035,0.613733994616102,0.401985026962796
3047,0.494633389386658,-0.157669231267273,-0.496321244791558,-0.237416530415854,0.326017020406698,-0.391550902865225,0.395853026371266,-0.434550113485484,0.694147774246909,0.693182827973152,0.04,0.0395571438000439,331.100289906861,0.607631399467846,0.400381524878039
3107,0.494633389386659,-0.157669231267273,-0.496321244791558,-0.237416530415854,0.326017020406698,-0.391550902865225,0.395853026371266,-0.434550113485484,0.684386232853038,0.683326168188133,0.04,0.0402203811194406,326.443211451903,0.600949956260008,0.399138857671009
3167,0.494633389386659,-0.157669231267273,-0.496321244791558,-0.237416530415854,0.326017020406698,-0.391550902865225,0.395853026371266,-0.434550113485484,0.674658305731745,0.673469508403112,0.04,0.0408468816029069,321.801966083252,0.593556873619807,0.398364867982348
3227,0.494633389386659,-0.157669231267273,-0.496321244791558,-0.237416530415854,0.326017020406698,-0.391550902865225,0.395853026371266,-0.434550113485484,0.664914935319589,0.663612848618092,0.04,0.0414002415975212,317.153398483257,0.585480112551525,0.398026417888373
3287,0.494633389386659,-0.157669231267273,-0.496321244791558,-0.237416530415854,0.326017020406698,-0.391550902865225,0.395853026371266,-0.434550113485484,0.655157505297821,0.653756188833072,0.04,0.0418493487565411,312.497976779812,0.576773485970936,0.398104052362997
3347,0.494633389386658,-0.157669231267273,-0.496321244791558,-0.237416530415853,0.326017020406698,-0.391550902865225,0.395853026371266,-0.434550113485484,0.645378424966764,0.643899529048052,0.04,0.0421754294334952,307.83218633818,0.567554226926658,0.39853029499442
3407,0.494633389386659,-0.157669231267273,-0.496321244791558,-0.237416530415854,0.326017020406698,-0.391550902865225,0.395853026371266,-0.434550113485484,0.635573883596453,0.634042869263032,0.04,0.0423718163540709,303.154230417314,0.55796898401681,0.399216286906136
3467,0.494633389386658,-0.157669231267273,-0.496321244791558,-0.237416530415854,0.326017020406698,-0.391550902865225,0.395853026371266,-0.434550113485484,0.625743151791119,0.624186209478012,0.04,0.0424431164423694,298.463784867554,0.548174808640658,0.400061947399332
3527,0.494633389386659,-0.157669231267273,-0.496321244791558,-0.237416530415854,0.326017020406698,-0.391550902865225,0.395853026371266,-0.434550113485484,0.615887990808327,0.614329549692992,0.04,0.0424036892674733,293.761705058696,0.538322955022767,0.40096545452764
3587,0.494633389386658,-0.157669231267273,-0.496321244791558,-0.237416530415854,0.326017020406698,-0.391550902865225,0.395853026371266,-0.434550113485484,0.60601199027994,0.604472889907972,0.04,0.0422753924632256,289.049719071623,0.528546567443426,0.401831493177223
3647,0.449826326325374,-0.151290859250791,-0.48547366724791,-0.250161164822533,0.332750989144682,-0.358438995273739,0.36789719799334,-0.388830521649244,0.601434267816637,0.602337280287884,0.04,0.0392591709013698,286.950364495452,0.53039278636693,0.397524452608537
3707,0.392625820289693,-0.143148256676557,-0.471625695915593,-0.266430910873613,0.341347544980406,-0.316168474944181,0.332208906447051,-0.330465085262554,0.600691308687509,0.602337280287884,0.04,0.0363518105604041,286.584026998937,0.538839268060453,0.390793579322924
3767,0.335425314254011,-0.135005654102324,-0.457777724583277,-0.282700656924693,0.34994410081613,-0.273897954614624,0.296520614900763,-0.272099648875865,0.600104064568549,0.602337280287884,0.04,0.0347717131394286,286.305676273508,0.551126122586356,0.381710088355117
3827,0.278224808218329,-0.12686305152809,-0.44392975325096,-0.298970402975773,0.358540656651854,-0.231627434285066,0.260832323354474,-0.213734212489175,0.599700409673915,0.602337280287884,0.04,0.0341893001582844,286.114669824208,0.566218689421739,0.371287733895989
3887,0.221024302182647,-0.118720448953857,-0.430081781918643,-0.315240149026853,0.367137212487577,-0.189356913955509,0.225144031808186,-0.155368776102486,0.599499310710265,0.602337280287884,0.04,0.0343426574782357,286.020326303743,0.582935088302107,0.360521672126778
3947,0.163823796146965,-0.110577846379623,-0.416233810586327,-0.331509895077933,0.375733768323301,-0.147086393625951,0.189455740261897,-0.0970033397157961,0.599489860432383,0.602337280287884,0.04,0.0350171969173386,286.017245467486,0.600090151170563,0.350211495127944
4007,0.106623290111283,-0.10243524380539,-0.40238583925401,-0.347779641129013,0.384330324159025,-0.104815873296394,0.153767448715609,-0.0386379033291066,0.59965052388027,0.602337280287884,0.04,0.0360449574511707,286.0952185907,0.616622378967627,0.340914908321642
4067,0.0494227840756014,-0.0942926412311564,-0.388537867921694,-0.364049387180093,0.392926879994749,-0.0625453529668364,0.11807915716932,0.0197275330575831,0.600020404466324,0.602337280287884,0.04,0.0373832160358634,286.274070287024,0.631440766702586,0.333122580508501
4127,-0.00777772196008038,-0.086150038656923,-0.374689896589377,-0.380319133231173,0.401523435830473,-0.0202748326372789,0.0823908656230319,0.0780929694442726,0.600622516712057,0.602337280287884,0.04,0.0391193620492874,286.561927754556,0.642996646054779,0.327464675832015
4187,-0.0649782279957623,-0.0780074360826895,-0.36084192525706,-0.396588879282253,0.410119991666197,0.0219956876922786,0.0467025740767435,0.136458405830962,0.601223668061808,0.602337280287884,0.04,0.0409582688004021,286.848376954085,0.650885678390947,0.32381902247529
4247,-0.122178734031444,-0.0698648335084562,-0.346993953924744,-0.412858625333333,0.418716547501921,0.0642662080218361,0.011014282530455,0.194823842217652,0.601751437381326,0.602337280287884,0.04,0.0426241365053524,287.099380073585,0.655432435100633,0.321854067282953
4307,-0.179379240067126,-0.0617222309342227,-0.333145982592427,-0.429128371384413,0.427313103337644,0.106536728351393,-0.0246740090158335,0.253189278604341,0.602164869239654,0.602337280287884,0.04,0.0439645085584482,287.295627339924,0.657251405544819,0.321182717863741
4367,-0.236579746102808,-0.0535796283599891,-0.31929801126011,-0.445398117435493,0.435909659173368,0.148807248680951,-0.060362300562122,0.311554714991031,0.602448385484947,0.602337280287884,0.04,0.0449107408785769,287.429852834117,0.657100459111393,0.32140659077453
4427,-0.29378025213849,-0.0454370257857557,-0.305450039927794,-0.461667863486573,0.444506215009092,0.191077769010509,-0.0960505921084104,0.369920151377721,0.602605747083291,0.602337280287884,0.04,0.0454590256477441,287.503982433904,0.655752547088229,0.322150310985929
4487,-0.350980758174171,-0.0372944232115223,-0.291602068595477,-0.477937609537653,0.453102770844816,0.233348289340066,-0.131738883654699,0.42828558776441,0.602654106325923,0.602337280287884,0.04,0.0456546806818264,287.526282362457,0.653901970746143,0.323087070948452
4547,-0.363374201148569,-0.0355301926537718,-0.288601674806809,-0.481462721182054,0.454965357942556,0.242506902078137,-0.139471346823061,0.44093143231486,0.603052190059754,0.602337280287884,0.04,0.0450219036042446,287.712908608291,0.649021152831653,0.3257280596934
4607,-0.363374201148569,-0.0355301926537718,-0.288601674806809,-0.481462721182054,0.454965357942556,0.242506902078137,-0.139471346823061,0.44093143231486,0.602948581057441,0.602337280287884,0.04,0.0443035140910465,287.666250381478,0.645215035849067,0.327596391505361
4667,-0.363374201148569,-0.0355301926537718,-0.288601674806809,-0.481462721182054,0.454965357942556,0.242506902078137,-0.139471346823061,0.44093143231486,0.602868437650478,0.602337280287884,0.04,0.0434840694261452,287.62775833993,0.641846828799846,0.32927144763596
4727,-0.363374201148569,-0.0355301926537718,-0.288601674806809,-0.481462721182054,0.454965357942556,0.242506902078137,-0.139471346823061,0.44093143231486,0.602759064534097,0.602337280287884,0.04,0.0426529810073467,287.575403320365,0.63908097480898,0.330636294338336
4787,-0.363374201148569,-0.0355301926537718,-0.288601674806809,-0.481462721182054,0.454965357942556,0.242506902078137,-0.139471346823061,0.44093143231486,0.602636090731278,0.602337280287884,0.04,0.0418658000670746,287.516686758089,0.637033143229567,0.331631444997692
4847,-0.363374201148569,-0.0355301926537718,-0.288601674806809,-0.481462721182054,0.454965357942556,0.242506902078137,-0.139471346823061,0.44093143231486,0.602514096705967,0.602337280287884,0.04,0.0411648747771043,287.45856142627,0.635726145583251,0.332246068841788
4907,-0.363374201148569,-0.0355301926537718,-0.288601674806809,-0.481462721182054,0.454965357942556,0.242506902078137,-0.139471346823061,0.44093143231486,0.602408483884836,0.602337280287884,0.04,0.0405826051831331,287.408318857662,0.635091349839677,0.332520031604943
4967,-0.363374201148569,-0.0355301926537718,-0.288601674806809,-0.481462721182054,0.454965357942556,0.242506902078137,-0.139471346823061,0.44093143231486,0.602320992908848,0.602337280287884,0.04,0.0401325733236097,287.366730093535,0.635019336226139,0.332509618636103
5027,-0.363374201148569,-0.0355301926537718,-0.288601674806809,-0.481462721182054,0.454965357942556,0.242506902078137,-0.139471346823061,0.44093143231486,0.602253989558591,0.602337280287884,0.04,0.0398106203855524,287.334932040567,0.635392469640329,0.332277581136341
5087,-0.363374201148569,-0.0355301926537718,-0.288601674806809,-0.481462721182054,0.454965357942556,0.242506902078137,-0.139471346823061,0.44093143231486,0.602208689507611,0.602337280287884,0.04,0.0396052113088404,287.313492373838,0.636081987269278,0.331892623541287
5147,-0.363374201148569,-0.0355301926537718,-0.288601674806809,-0.481462721182054,0.454965357942556,0.242506902078137,-0.139471346823061,0.44093143231486,0.60218436762763,0.602337280287884,0.04,0.0395000606726992,287.302047715352,0.636959630248193,0.331422118863417
5207,-0.363374201148569,-0.0355301926537718,-0.288601674806809,-0.481462721182054,0.454965357942556,0.242506902078137,-0.139471346823061,0.44093143231486,0.602178659999687,0.602337280287884,0.04,0.0394760377099177,287.299459558245,0.637908155231977,0.330926336089988
5267,-0.363374201148569,-0.0355301926537717,-0.288601674806809,-0.481462721182054,0.454965357942556,0.242506902078137,-0.139471346823061,0.44093143231486,0.602188030738478,0.602337280287884,0.04,0.0395128900087451,287.304033733842,0.638829389635447,0.330454379510535
5327,-0.363374201148569,-0.0355301926537717,-0.288601674806809,-0.481462721182054,0.454965357942556,0.242506902078137,-0.139471346823061,0.44093143231486,0.602208322383866,0.602337280287884,0.04,0.0395907601589098,287.313788181919,0.63964914788068,0.330042082591928
5387,-0.363374201148569,-0.0355301926537718,-0.288601674806809,-0.481462721182054,0.454965357942556,0.242506902078137,-0.139471346823061,0.44093143231486,0.6022375441034,0.602337280287884,0.04,0.0396932512686715,287.327785847974,0.640310854490982,0.329717075005418
5447,-0.351209074678298,-0.0316876762710489,-0.25738923411186,-0.481504130336731,0.418349947289562,0.210359207069375,-0.144847521538528,0.392841595001179,0.603582422676421,0.602337280287884,0.04,0.0384404631417102,287.972103655901,0.634928347958496,0.333257841876116
5507,-0.335679125992844,-0.0267823362079981,-0.217543565139585,-0.481556993087383,0.371606869860209,0.169319596419892,-0.151710723302953,0.33145031332414,0.60394914338643,0.602337280287884,0.04,0.0369842172814266,288.145968678944,0.625848145155914,0.338297084344395
5567,-0.320149177307391,-0.0218769961449476,-0.17769789616731,-0.481609855838035,0.324863792430855,0.128279985770409,-0.158573925067379,0.270059031647102,0.604081361753292,0.602337280287884,0.04,0.0351588774199855,288.207507147946,0.615557018477712,0.34402632632246
5627,-0.304619228621938,-0.0169716560818971,-0.137852227195035,-0.481662718588687,0.278120715001501,0.0872403751209257,-0.165437126831804,0.208667749970063,0.604037827638962,0.602337280287884,0.04,0.033013676554777,288.185495986186,0.605186383648243,0.349894928517157
5687,-0.289089279936485,-0.0120663160188465,-0.0980065582227604,-0.481715581339339,0.231377637572148,0.0462007644714427,-0.172300328596229,0.147276468293024,0.603855868406019,0.602337280287884,0.04,0.0306637362505191,288.097721914525,0.595641302961066,0.355393675950678
5747,-0.273559331251032,-0.00716097595579583,-0.0581608892504853,-0.48176844408999,0.184634560142794,0.0051611538219596,-0.179163530360655,0.0858851866159854,0.603569927799286,0.602337280287884,0.04,0.028254941936676,287.960614716905,0.587615975037041,0.360075998924641
5807,-0.258029382565578,-0.00225563589274543,-0.0183152202782105,-0.481821306840642,0.137891482713441,-0.0358784568275236,-0.18602673212508,0.0244939049389467,0.603216170122266,0.602337280287884,0.04,0.0259429742638093,287.791454190458,0.581593137040771,0.363591144246343
5867,-0.242499433880125,0.00264970417030531,0.0215304486940645,-0.481874169591294,0.091148405284087,-0.0769180674770066,-0.192889933889505,-0.0368973767380923,0.602833939471148,0.602337280287884,0.04,0.0238765503345819,287.609026825888,0.577825476292751,0.365729930042955
5927,-0.226969485194672,0.00755504423335594,0.0613761176663394,-0.481927032341946,0.0444053278547334,-0.11795767812649,-0.199753135653931,-0.0982886584151309,0.602463271239029,0.602337280287884,0.04,0.022179616349731,287.432431500666,0.57632514466345,0.366456877781631
5987,-0.211439536509219,0.0124603842964065,0.101221786638614,-0.481979895092598,-0.00233774957462026,-0.158997288775973,-0.206616337418356,-0.15967994009217,0.602141148600128,0.602337280287884,0.04,0.0209351913431402,287.279265093866,0.576874137912212,0.36591304116841
6047,-0.195909587823766,0.0173657243594571,0.141067455610889,-0.48203275784325,-0.0490808270039739,-0.200036899425456,-0.213479539182781,-0.221071221769209,0.601897411193409,0.602337280287884,0.04,0.0201757792047806,287.163694113445,0.579058772103948,0.364385899347432
6107,-0.180379639138312,0.0222710644225076,0.180913124583164,-0.482085620593902,-0.0958239044333275,-0.241076510074939,-0.220342740947207,-0.282462503446247,0.601751163092357,0.602337280287884,0.04,0.0198828898004963,287.094736596427,0.582327136019422,0.362253740388889
6167,-0.164849690452859,0.0271764044855581,0.220758793555439,-0.482138483344554,-0.142566981862681,-0.282116120724422,-0.227205942711632,-0.343853785123286,0.601708419749072,0.602337280287884,0.04,0.0199942124291606,287.075154290764,0.586063742387222,0.359919543384538
6227,-0.149319741767406,0.0320817445486088,0.260604462527714,-0.482191346095206,-0.189310059292035,-0.323155731373905,-0.234069144476057,-0.405245066800325,0.601761996971913,0.602337280287884,0.04,0.0204157283478272,287.10142172346,0.5896697348899,0.357751267766925
6287,-0.133789793081953,0.0369870846116593,0.300450131499989,-0.482244208845858,-0.236053136721388,-0.364195342023388,-0.240932346240483,-0.466636348477364,0.601894099322236,0.602337280287884,0.04,0.0210356028536175,287.164979308869,0.592633278938702,0.35604108523253
6347,-0.130424970866771,0.038049908291987,0.309083359777315,-0.482255662441832,-0.246180803497748,-0.37308725766411,-0.242419373289442,-0.479937792840722,0.605703283539737,0.609352493351387,0.04,0.022077888680325,289.048992827341,0.609474681670461,0.348474069834793
6407,-0.130424970866771,0.0380499082919869,0.309083359777315,-0.482255662441832,-0.246180803497748,-0.37308725766411,-0.242419373289442,-0.479937792840722,0.613845033778834,0.618308084496283,0.04,0.0232696237530926,292.933157525072,0.635462698343014,0.338713999206035
6467,-0.130424970866771,0.0380499082919869,0.309083359777315,-0.482255662441832,-0.246180803497748,-0.37308725766411,-0.242419373289442,-0.479937792840722,0.622634312148484,0.62726367564118,0.04,0.025308246138421,297.13081821102,0.663610510058852,0.328994865042354
6527,-0.130424970866771,0.038049908291987,0.309083359777315,-0.482255662441832,-0.246180803497748,-0.37308725766411,-0.242419373289442,-0.479937792840722,0.631908347992724,0.636219266786077,0.04,0.0279943531063036,301.558829931173,0.690789208135016,0.320760721481384
6587,-0.130424970866771,0.038049908291987,0.309083359777315,-0.482255662441832,-0.246180803497748,-0.37308725766411,-0.242419373289442,-0.479937792840722,0.641524817612308,0.645174857930974,0.04,0.0310238058733378,306.14885090372,0.714618975547817,0.314784084270816
6647,-0.130424970866771,0.0380499082919869,0.309083359777315,-0.482255662441832,-0.246180803497748,-0.37308725766411,-0.242419373289442,-0.479937792840722,0.65130096140378,0.654130449075871,0.04,0.0340764290287776,310.813576139493,0.733759437117154,0.311243977465698
6707,-0.130424970866771,0.0380499082919869,0.309083359777315,-0.482255662441832,-0.246180803497748,-0.37308725766411,-0.242419373289442,-0.479937792840722,0.661067038807203,0.663086040220767,0.04,0.0368585999355254,315.472347223827,0.747943213208428,0.309918390252191
6767,-0.130424970866771,0.038049908291987,0.309083359777315,-0.482255662441832,-0.246180803497748,-0.37308725766411,-0.242419373289442,-0.479937792840722,0.670709433837127,0.672041631365664,0.04,0.0391504302150117,320.071462667563,0.757712267425184,0.310382560993728
6827,-0.130424970866771,0.038049908291987,0.309083359777315,-0.482255662441832,-0.246180803497748,-0.37308725766411,-0.242419373289442,-0.479937792840722,0.680174906430282,0.680997222510561,0.04,0.0408312228083008,324.586416284869,0.764038826504936,0.312154491576763
6887,-0.130424970866771,0.038049908291987,0.309083359777315,-0.482255662441832,-0.246180803497748,-0.37308725766411,-0.242419373289442,-0.479937792840722,0.689457316882464,0.689952813655458,0.04,0.0418796821896064,329.013183611931,0.768039826697853,0.314763405848127
6947,-0.130424970866771,0.038049908291987,0.309083359777315,-0.482255662441832,-0.246180803497748,-0.37308725766411,-0.242419373289442,-0.479937792840722,0.69857234721477,0.698908404800354,0.04,0.0423446005731751,333.360751973383,0.770754311306989,0.31779947886133
7007,-0.130424970866771,0.038049908291987,0.309083359777315,-0.482255662441832,-0.246180803497748,-0.37308725766411,-0.242419373289442,-0.479937792840722,0.707551318725778,0.707863995945251,0.04,0.0423267330153083,337.643678176619,0.773066803453513,0.320919623847648
7067,-0.130424970866771,0.038049908291987,0.309083359777315,-0.482255662441832,-0.246180803497748,-0.37308725766411,-0.242419373289442,-0.479937792840722,0.71642958071119,0.716819587090148,0.04,0.0419519317737105,341.878838189303,0.775654611697687,0.323860898739727
7127,-0.130424970866771,0.038049908291987,0.309083359777315,-0.482255662441832,-0.246180803497748,-0.37308725766411,-0.242419373289442,-0.479937792840722,0.725241531472182,0.725775178235045,0.04,0.0413509315974947,346.082622507072,0.778984736696456,0.326441617488745
7187,-0.130424970866771,0.038049908291987,0.309083359777315,-0.482255662441832,-0.246180803497748,-0.37308725766411,-0.242419373289442,-0.479937792840722,0.734017724484792,0.734730769379942,0.04,0.0406434204005846,350.269569264192,0.783331978803527,0.328557380999871
7247,-0.140059739162061,0.0103376994686323,0.274131625993673,-0.460255748704743,-0.221752811416466,-0.376339569901199,-0.212247826219272,-0.454711546338896,0.742582098553555,0.743686360524838,0.04,0.0404690203735937,354.355634009428,0.789943337295295,0.329608253461841
7307,-0.152359443368815,-0.0250395883909696,0.229512391376256,-0.432170752444628,-0.190568140674402,-0.380491457863442,-0.173730957619054,-0.422507827400394,0.751255777314509,0.752641951669735,0.04,0.0402620927043622,358.492914515888,0.798083900408001,0.330055293714122
7367,-0.164659147575568,-0.0604168762505713,0.184893156758841,-0.404085756184513,-0.159383469932339,-0.384643345825684,-0.135214089018837,-0.390304108461893,0.75986447798787,0.761597542814632,0.04,0.0399898949824716,362.595977282119,0.808034096422197,0.329722034500258
7427,-0.176958851782322,-0.0957941641101729,0.140273922141424,-0.376000759924399,-0.128198799190276,-0.388795233787926,-0.09669722041862,-0.358100389523391,0.768599970520021,0.770553133959529,0.04,0.0396361356633056,366.768336167856,0.819667945493546,0.328782398838123
7487,-0.189258555989075,-0.131171451969775,0.0956546875240085,-0.347915763664284,-0.097014128448213,-0.392947121750169,-0.0581803518184026,-0.32589667058489,0.777333710480804,0.779508725104426,0.04,0.0393337872542658,370.935563251254,0.83273536432453,0.327300102140654
7547,-0.201558260195828,-0.166548739829376,0.0510354529065927,-0.31983076740417,-0.0658294577061497,-0.397099009712411,-0.0196634832181853,-0.293692951646388,0.786118437511032,0.788464316249322,0.04,0.03909003540164,375.12717057785,0.846934198117807,0.325449439693604
7607,-0.213857964402582,-0.201926027688978,0.00641621828917664,-0.291745771144055,-0.0346447869640866,-0.401250897674653,0.018853385382032,-0.261489232707886,0.794954214851092,0.797419907394219,0.04,0.038916566105012,379.343108291029,0.861955179783146,0.323371834847034
7667,-0.226157668609335,-0.23730331554858,-0.0382030163282394,-0.263660774883941,-0.00346011622202343,-0.405402785636896,0.0573702539822491,-0.229285513769385,0.80383611373963,0.806375498539116,0.04,0.0388092444026307,383.581000318048,0.87750947185349,0.321188473039414
7727,-0.238457372816089,-0.272680603408182,-0.0828222509456555,-0.235575778623826,0.0277245545200396,-0.409554673599138,0.0958871225824662,-0.197081794830884,0.812755981436663,0.815331089684013,0.04,0.0387540315345724,387.836935678343,0.893351274597955,0.318993314885986
7787,-0.250757077022842,-0.308057891267783,-0.127441485563071,-0.207490782363712,0.0589092252621028,-0.413706561561381,0.134403991182684,-0.164878075892382,0.821703911872476,0.824286680828909,0.04,0.0387321345264945,392.106174561731,0.909291394560384,0.316851141853526
7847,-0.263056781229595,-0.343435179127385,-0.172060720180487,-0.179405786103597,0.0900938960041659,-0.417858449523623,0.172920859782901,-0.13267435695388,0.830669610105488,0.833242271973806,0.04,0.0387239357989624,396.383808327466,0.925202257995839,0.314799401626383
7907,-0.275356485436349,-0.378812466986987,-0.216679954797903,-0.151320789843482,0.121278566746229,-0.422010337485865,0.211437728383118,-0.100470638015379,0.83964356592072,0.842197863118703,0.04,0.0387117584006271,400.665310533779,0.941015446777246,0.312852526704595
7967,-0.287656189643102,-0.414189754846588,-0.261299189415319,-0.123235793583368,0.152463237488292,-0.426162225448108,0.249954596983335,-0.0682669190768772,0.848617820782427,0.8511534542636,0.04,0.0386814776839336,404.946906354833,0.956713764283045,0.311007412120761
8027,-0.299955893849856,-0.44956704270619,-0.305918424032735,-0.0951507973232534,0.183647908230355,-0.43031411341035,0.288471465583553,-0.0360632001383758,0.857586471993133,0.860109045408497,0.04,0.038623254184091,409.225783276479,0.972319817219346,0.309249159218876
8087,-0.312255598056609,-0.484944330565792,-0.350537658650151,-0.0670658010631389,0.214832578972418,-0.434466001372592,0.32698833418377,-0.00385948119987415,0.866545649682016,0.869064636553393,0.04,0.038531559463132,413.500115631298,0.987883550463453,0.307556250516483
8147,-0.314920533968072,-0.492609409602039,-0.360205159483925,-0.060980718540114,0.221589257633199,-0.435365577097745,0.335333655713817,0.00311799123680112,0.87097897319882,0.871005014634788,0.04,0.0397893418673874,415.553875235907,0.992438395343273,0.307665256032894
8207,-0.314920533968072,-0.492609409602039,-0.360205159483925,-0.0609807185401139,0.221589257633199,-0.435365577097745,0.335333655713817,0.00311799123680112,0.871850123424978,0.871005014634788,0.04,0.0414996031052865,415.964697322452,0.9888688748803,0.30908109535522
8267,-0.314920533968072,-0.492609409602039,-0.360205159483925,-0.060980718540114,0.221589257633199,-0.435365577097745,0.335333655713817,0.00311799123680112,0.872319551563499,0.871005014634788,0.04,0.0427220729616656,416.18619440998,0.981789515586622,0.311475546227131
8327,-0.314920533968072,-0.492609409602039,-0.360205159483925,-0.060980718540114,0.221589257633199,-0.435365577097745,0.335333655713817,0.00311799123680112,0.872518121160281,0.871005014634788,0.04,0.0434308261127895,416.27907235683,0.97300048312233,0.314359217075801
8387,-0.314920533968072,-0.492609409602039,-0.360205159483925,-0.060980718540114,0.221589257633199,-0.435365577097745,0.335333655713817,0.00311799123680112,0.872515061647521,0.871005014634788,0.04,0.0436817252475078,416.276272795857,0.963849573248765,0.317341649080039
8447,-0.314920533968072,-0.492609409602039,-0.360205159483925,-0.060980718540114,0.221589257633199,-0.435365577097745,0.335333655713817,0.00311799123680112,0.872373592009142,0.871005014634788,0.04,0.0435663513830255,416.207912119914,0.955293553107941,0.320131317011386
8507,-0.314920533968072,-0.492609409602039,-0.360205159483925,-0.060980718540114,0.221589257633199,-0.435365577097745,0.335333655713817,0.00311799123680112,0.872148691620403,0.871005014634788,0.04,0.0431895529664762,416.100143845621,0.947940912756516,0.322530859977911
8567,-0.314920533968072,-0.492609409602039,-0.360205159483925,-0.060980718540114,0.221589257633199,-0.435365577097745,0.335333655713817,0.00311799123680112,0.871885191385403,0.871005014634788,0.04,0.0426539149751147,415.974274461851,0.942109913231932,0.324428931025358
8627,-0.314920533968072,-0.492609409602039,-0.360205159483925,-0.060980718540114,0.221589257633199,-0.435365577097745,0.335333655713817,0.00311799123680112,0.871617543932498,0.871005014634788,0.04,0.0420495126795685,415.846661304143,0.937891011839874,0.325788328470113
8687,-0.314920533968072,-0.492609409602039,-0.360205159483925,-0.060980718540114,0.221589257633199,-0.435365577097745,0.335333655713817,0.00311799123680112,0.871384082291705,0.871005014634788,0.04,0.0414549332556091,415.735665600275,0.93516212107805,0.326651797825978
8747,-0.314920533968072,-0.492609409602039,-0.360205159483925,-0.060980718540114,0.221589257633199,-0.435365577097745,0.335333655713817,0.00311799123680112,0.871191557175126,0.871005014634788,0.04,0.0409275712332876,415.644116879717,0.933667369336879,0.327102703147315
8807,-0.314920533968072,-0.492609409602039,-0.360205159483925,-0.060980718540114,0.221589257633199,-0.435365577097745,0.335333655713817,0.00311799123680112,0.871038456272526,0.871005014634788,0.04,0.0404896308966875,415.571393742811,0.93317298812624,0.32721873549216
8867,-0.314920533968072,-0.492609409602039,-0.360205159483925,-0.060980718540114,0.221589257633199,-0.435365577097745,0.335333655713817,0.00311799123680112,0.870925394852062,0.871005014634788,0.04,0.0401486942606913,415.517762962123,0.933438631765095,0.327083397018007
8927,-0.314920533968072,-0.492609409602039,-0.360205159483925,-0.0609807185401139,0.221589257633199,-0.435365577097745,0.335333655713817,0.00311799123680112,0.870850153259841,0.871005014634788,0.04,0.0399027019097334,415.48214751494,0.934231608485622,0.326777756665566
8987,-0.314920533968072,-0.492609409602039,-0.360205159483925,-0.060980718540114,0.221589257633199,-0.435365577097745,0.335333655713817,0.00311799123680134,0.870808249099147,0.871005014634788,0.04,0.0397429262075178,415.462402523198,0.935341635549152,0.326374438481267
9047,-0.285735793138653,-0.456221575103157,-0.344506106640034,-0.0332495573078262,0.210338053658808,-0.409616713318613,0.337410985106092,-0.00539249289159716,0.867792930478809,0.871005014634788,0.04,0.0414659105264674,414.009636377763,0.946809334016985,0.321293985142805
9107,-0.248478677186202,-0.409769020423732,-0.324464762584003,0.00215192511637122,0.195974814542565,-0.376745823387807,0.340062894968571,-0.0162569407150843,0.867058231296268,0.871005014634788,0.04,0.0437164178848373,413.672796362897,0.96979128919761,0.313424801487504
9167,-0.211221561233751,-0.363316465744307,-0.304423418527972,0.0375534075405685,0.181611575426322,-0.343874933457001,0.34271480483105,-0.0271213885385714,0.867309369868856,0.871005014634788,0.04,0.0467257343369995,413.797629373984,0.992793602764231,0.306255364352284
9227,-0.173964445281301,-0.316863911064883,-0.284382074471941,0.0729548899647657,0.167248336310078,-0.311004043526195,0.345366714693529,-0.0379858363620585,0.868049658839184,0.871005014634788,0.04,0.0503462076560119,414.153697400432,1.01222512421826,0.300634700056443
9287,-0.13670732932885,-0.270411356385459,-0.26434073041591,0.108356372388963,0.152885097193835,-0.278133153595389,0.348018624556009,-0.0488502841855458,0.869051406696054,0.871005014634788,0.04,0.0543295059028981,414.632969611466,1.02608427823056,0.296917281122737
9347,-0.0994502133763994,-0.223958801706034,-0.244299386359879,0.14375785481316,0.138521858077592,-0.245262263664583,0.350670534418488,-0.0597147320090331,0.870162755092459,0.871005014634788,0.04,0.0584470078736392,415.163780390683,1.03345095109902,0.295178189670892
9407,-0.0621930974239488,-0.17750624702661,-0.224258042303848,0.179159337237357,0.124158618961348,-0.212391373733778,0.353322444280967,-0.0705791798325203,0.871402382236913,0.871005014634788,0.04,0.0625564386390327,415.757460701897,1.0337371857518,0.295518442043626
9467,-0.0249359814714981,-0.131053692347185,-0.204216698247817,0.214560819661555,0.109795379845105,-0.179520483802971,0.355974354143446,-0.0814436276560075,0.873068936548961,0.871005014634788,0.04,0.0667730292150339,416.553085885417,1.02486004433982,0.29864859129879
9527,0.0123211344809524,-0.0846011376677607,-0.184175354191786,0.249962302085752,0.0954321407288616,-0.146649593872166,0.358626264005925,-0.0923080754794947,0.8738547393318,0.871005014634788,0.04,0.0707482613382268,416.916866814017,1.00865579938903,0.303711440538483
9587,0.0495782504334031,-0.0381485829883363,-0.164134010135755,0.285363784509949,0.0810689016126182,-0.113778703941359,0.361278173868404,-0.103172523302982,0.873542306322248,0.871005014634788,0.04,0.0734076133275253,416.762325540948,0.992446028429467,0.30855758794351
9647,0.0868353663858538,0.00830397169108835,-0.144092666079724,0.320765266934147,0.066705662496375,-0.0809078140105535,0.363930083730883,-0.114036971126469,0.872873383021941,0.871005014634788,0.04,0.0745719358045923,416.4423870108,0.979816547380917,0.312294858170889
9707,0.124092482338304,0.0547565263705127,-0.124051322023694,0.356166749358344,0.0523424233801316,-0.0480369240797476,0.366581993593362,-0.124901418949956,0.872208529281318,0.871005014634788,0.04,0.0746695604286114,416.125706172007,0.97126651768177,0.3148044072403
9767,0.161349598290755,0.101209081049937,-0.104009977967663,0.391568231782541,0.0379791842638883,-0.0151660341489415,0.369233903455842,-0.135765866773443,0.871622822540961,0.871005014634788,0.04,0.0741246153265441,415.846922329514,0.96640014033227,0.316177661899399
9827,0.198606714243206,0.147661635729362,-0.0839686339116316,0.426969714206738,0.023615945147645,0.0177048557818645,0.371885813318321,-0.146630314596931,0.871254415272529,0.871005014634788,0.04,0.0732878962271631,415.673778299654,0.9643463068985,0.316719121181655
9887,0.235863830195656,0.194114190408786,-0.0639272898556006,0.462371196630936,0.00925270603140166,0.0505757457126704,0.3745377231808,-0.157494762420418,0.871093599879748,0.871005014634788,0.04,0.0724907127526447,415.597656639593,0.963515763356197,0.316934080496974
9947,0.243936205318687,0.204178910589328,-0.0595849986434605,0.470041517822845,0.00614067088954903,0.0576977718643451,0.375112303651004,-0.159848726115507,0.872140090143616,0.871005014634788,0.04,0.0690885919537452,416.105657629485,0.959618626274154,0.31861016535296
10007,0.243936205318687,0.204178910589328,-0.0595849986434606,0.470041517822845,0.00614067088954891,0.0576977718643451,0.375112303651004,-0.159848726115507,0.872671726665249,0.871005014634788,0.04,0.0655590442357944,416.353316166965,0.950347615646297,0.321909812352763
10067,0.243936205318687,0.204178910589328,-0.0595849986434606,0.470041517822845,0.00614067088954891,0.0576977718643451,0.375112303651004,-0.137204292095553,0.871996318851977,0.871005014634788,0.04,0.0626437116976359,416.013397122185,0.941307164268301,0.324736143561344
10127,0.243936205318687,0.204178910589328,-0.0595849986434605,0.470041517822845,0.00614067088954903,0.0576977718643451,0.375112303651004,-0.0736812264772951,0.871152129299704,0.871005014634788,0.04,0.0600007451975951,415.623991749039,0.939556965107734,0.325036527042556
10187,0.243936205318687,0.204178910589328,-0.0595849986434606,0.470041517822845,0.00614067088954891,0.0576977718643451,0.375112303651004,-0.0348041604662451,0.870741785076748,0.871005014634788,0.04,0.0580614447328887,415.428103045125,0.940310564413576,0.324622959930456
10247,0.243936205318687,0.204178910589328,-0.0595849986434606,0.470041517822845,0.00614067088954891,0.0576977718643451,0.375112303651004,-0.0164400297091943,0.870519704000956,0.871005014634788,0.04,0.0568053289444499,415.324174287682,0.942904282614828,0.323649006579093
10307,0.243936205318687,0.204178910589328,-0.0595849986434605,0.470041517822845,0.00614067088954903,0.0576977718643451,0.375112303651004,-0.00776542038219087,0.870502099224396,0.871005014634788,0.04,0.0560691915532512,415.316912132654,0.94595749925022,0.322598741017046
10367,0.243936205318687,0.204178910589328,-0.0595849986434606,0.470041517822845,0.00614067088954891,0.0576977718643451,0.375112303651004,-0.00366784456467475,0.870577078408245,0.871005014634788,0.04,0.0557005840461539,415.353076257378,0.948702964285625,0.321693177228513
10427,0.243936205318687,0.204178910589328,-0.0595849986434606,0.470041517822845,0.00614067088954891,0.0576977718643451,0.375112303651004,-0.00173229523373476,0.870674990785192,0.871005014634788,0.04,0.0555562585897749,415.399807434172,0.950884664322194,0.320991198200942
10487,0.243936205318687,0.204178910589328,-0.0595849986434606,0.470041517822845,0.00614067088954891,0.0576977718643451,0.375112303651004,-0.000818010627751424,0.870764834800496,0.871005014634788,0.04,0.0555311683285556,415.442548426659,0.952502118113991,0.320479090787647
10547,0.243936205318687,0.204178910589328,-0.0595849986434606,0.470041517822845,0.00614067088954891,0.0576977718643451,0.375112303651004,-0.00038613520922077,0.870836672757523,0.871005014634788,0.04,0.0555596950483172,415.47667079544,0.953649822280495,0.320119689570715
10607,0.243936205318687,0.204178910589328,-0.0595849986434606,0.470041517822845,0.00614067088954891,0.0576977718643451,0.375112303651004,-0.000182132674439107,0.87089007170849,0.871005014634788,0.04,0.0556057342339242,415.502010716112,0.954440329049251,0.319874061194586
10667,0.243936205318687,0.204178910589328,-0.0595849986434606,0.470041517822845,0.00614067088954891,0.0576977718643451,0.375112303651004,-8.57691575345874e-05,0.870928013226562,0.871005014634788,0.04,0.0556517962475943,415.520004387163,0.954973316045438,0.319709378680986
10727,0.243936205318687,0.204178910589328,-0.0595849986434605,0.470041517822845,0.00614067088954891,0.0576977718643451,0.375112303651004,-4.02504712099982e-05,0.870954169264997,0.871005014634788,0.04,0.0556908837518563,415.532403788624,0.955326995391564,0.319600553296693
10787,0.243936205318687,0.204178910589328,-0.0595849986434606,0.470041517822845,0.00614067088954891,0.0576977718643451,0.375112303651004,-1.87490682800851e-05,0.870971818448416,0.871005014634788,0.04,0.0557213248119568,415.540768037278,0.95555881282293,0.31952945025908
10847,0.217907751769072,0.213045138824865,-0.0490902508153653,0.453531884615717,-0.0166661179334118,0.0651792233894373,0.347338856854447,-8.59257394386635e-06,0.864437047824245,0.857753182292322,0.04,0.058621883716274,412.315052619097,0.928891176249927,0.326151236213213
10907,0.18467993872701,0.22436372806172,-0.0356927003965203,0.432455757117255,-0.0457811674946382,0.074730012570406,0.311883392858843,-3.79500743158196e-06,0.848495510425163,0.840835949514706,0.04,0.0625267148012184,404.67932000563,0.882254353498805,0.337032574441855
10967,0.151452125684948,0.235682317298575,-0.0222951499776752,0.411379629618794,-0.0748962170558647,0.0842808017513745,0.276427928863239,-1.52880822869591e-06,0.830802761460469,0.82391871673709,0.04,0.063957816831183,396.234162344107,0.838278100772506,0.347310946960878
11027,0.118224312642886,0.247000906535431,-0.00889759955883017,0.390303502120332,-0.104011266617091,0.0938315909323432,0.240972464867635,-4.58336602297378e-07,0.813021313314587,0.807001483959475,0.04,0.0635326561643823,387.751813809597,0.799618811936726,0.356307949142095
11087,0.0849964996008246,0.258319495772286,0.00449995086001479,0.369227374621871,-0.133126316178318,0.103382380113312,0.20551700087203,4.73159905836826e-08,0.795439816773651,0.790084251181859,0.04,0.0620738940476698,379.36538053116,0.765385424805343,0.36419349533603
11147,0.0517686865587626,0.269638085009141,0.0178975012788598,0.348151247123409,-0.162241365739544,0.11293316929428,0.170061536876426,2.86168229523969e-07,0.778051402172354,0.773167018404243,0.04,0.060081592782074,371.070691055167,0.734350738723648,0.371285332776074
11207,0.0185408735167007,0.280956674245996,0.0312950516977048,0.327075119624948,-0.19135641530077,0.122483958475249,0.134606072880822,3.98993502942882e-07,0.760802656275757,0.756249785626627,0.04,0.0577952305178949,362.842216532685,0.705565013690874,0.377863941120875
11267,-0.0146869395253611,0.292275263482852,0.04469260211655,0.305998992126486,-0.220471464861997,0.132034747656218,0.099150608885218,4.52288135551432e-07,0.743647498320064,0.739332552849011,0.04,0.0553026222837316,354.658091833869,0.678379310094603,0.384142143585315
11327,-0.0479147525674231,0.303593852719707,0.058090152535395,0.284922864628025,-0.249586514423223,0.141585536837186,0.0636951448896139,3.9628610853351e-07,0.726678937936489,0.722415320071396,0.04,0.0525154806491978,346.573050384801,0.652468282370055,0.39029236933636
