time,bias_percent_1,bias_percent_2,bias_percent_3,bias_percent_4,bias_percent_5,bias_percent_6,bias_percent_8,bias_percent_9,normalized_power,power_SP,SP,CV,total_power_MW,fuel_fraction,thermal_efficiency
55,0,0,0,0,0,0,0,0,0.999838042475392,1,0.04,0.0399063598158726,477.025422217799,1.00002945907389,0.350496275342325
115,0.0285475016585575,0.0251685069325894,-0.006689377647632,0.0308629760618209,0.0303728639914921,-0.00371707119477185,-0.0251392861902872,-0.0245015053112916,0.972458193379092,0.95909557041489,0.04,0.0525142335229017,463.634414317869,0.935066866150551,0.364323909052945
175,0.05969023074062,0.0526250599499593,-0.0139868805359579,0.0645316772201709,0.0635068974367563,-0.00777205795270493,-0.0525639620342368,-0.051230420196337,0.928885425725319,0.914472556322043,0.04,0.0651822925520875,442.815628321174,0.846835926456781,0.384218561729102
235,0.0908329598226826,0.0800816129673294,-0.0212843834242838,0.098200378378521,0.0966409308820204,-0.0118270447106379,-0.0799886378781864,-0.0779593350813823,0.883859154746394,0.869849542229196,0.04,0.0734603127123044,421.329378063544,0.759472680389871,0.407628238727636
295,0.121975688904745,0.1075381659847,-0.0285818863126095,0.131869079536871,0.129774964327285,-0.0158820314685707,-0.107413313722136,-0.104688249966428,0.838505614110951,0.825226528136349,0.04,0.0779517466364123,399.689925097297,0.675991596640509,0.434446777614818
355,0.153118417986808,0.13499471900207,-0.0358793892009355,0.165537780695221,0.162908997772549,-0.0199370182265038,-0.134837989566086,-0.131417164851473,0.793054926731387,0.780603514043502,0.04,0.0791520957895243,378.004642257776,0.597308998623576,0.464999785056838
415,0.184261147068871,0.16245127201944,-0.0431768920892613,0.199206481853571,0.196043031217813,-0.0239920049844368,-0.109531514269733,-0.109531514269733,0.74382038550375,0.735980499950655,0.04,0.0806837348841957,354.666984837774,0.532814131981185,0.489102298649993
475,0.215403876150933,0.18990782503681,-0.0504743949775872,0.232875183011921,0.229177064663077,-0.0280469917423698,-0.0517386653554506,-0.0517386653554506,0.695837465435289,0.691357485857808,0.04,0.0827178527062056,331.869649806746,0.500323857019247,0.487383700934674
535,0.246546605232996,0.21736437805418,-0.0577718978659131,0.266543884170271,0.262311098108341,-0.0321019785003027,-0.0244393101193974,-0.0244393101193974,0.651025746082942,0.646734471764961,0.04,0.0864294228455513,310.434499430721,0.473150730587996,0.482086689676398
595,0.277689334315059,0.24482093107155,-0.065069400754239,0.300212585328621,0.295445131553605,-0.0361569652582357,-0.0115440347098131,-0.0115440347098131,0.606274196142736,0.602111457672113,0.04,0.0924838166851686,289.200269406091,0.44633043999889,0.476098554043664
655,0.308832063397121,0.27227748408892,-0.0723669036425649,0.333881286486971,0.328579164998869,-0.0402119520161687,-0.00545274596939964,-0.00545274596939964,0.562000370238887,0.557488443579266,0.04,0.0999035583560427,267.986680865518,0.418416053757076,0.470608261514188
715,0.339974792479184,0.299734037106291,-0.0796644065308907,0.367549987645321,0.361713198444134,-0.0442669387741016,-0.00257542853922961,-0.00257542853922961,0.517528517013638,0.512865429486419,0.04,0.108573990743545,246.848386494955,0.389408380609085,0.465778754469149
775,0.371117521561246,0.327190590123661,-0.0869619094192166,0.401218688803671,0.394847231889398,-0.0483219255320346,-0.00121628129180664,-0.00121628129180664,0.472919409688368,0.468242415393572,0.04,0.118046745126613,225.567239333063,0.359468834199509,0.461072751932195
835,0.402260250643309,0.354647143141031,-0.0942594123075425,0.434887389962022,0.427981265334662,-0.0523769122899676,-0.000574266288936434,-0.000574266288936434,0.428327104995378,0.423619401300725,0.04,0.127823088555225,204.319651722764,0.329523657418086,0.45559423153299
895,0.433402979725372,0.382103696158401,-0.101556915195868,0.468556091120372,0.461115298779926,-0.0564318990479006,-0.000271000235243057,-0.000271000235243057,0.384011272791423,0.378996387207878,0.04,0.138068867708867,183.134268490653,0.298789681874954,0.450358846858782
955,0.435998207148877,0.384391742243182,-0.102165040436562,0.471361816216901,0.463876468233698,-0.0567698146110617,-0.000127747257025702,-0.000127747257025702,0.364480741809835,0.375277802700141,0.04,0.122402241283691,173.862407746701,0.344311110619922,0.3710302583392
1015,0.435998207148877,0.384391742243182,-0.102165040436562,0.471361816216901,0.463876468233698,-0.0567698146110617,-6.00794272783367e-05,-6.00794272783367e-05,0.364691193380436,0.375277802700141,0.04,0.101056743151216,174.01878039747,0.411789943198935,0.310509620813432
1075,0.435998207148877,0.384391742243182,-0.102165040436562,0.471361816216901,0.463876468233698,-0.0567698146110616,-2.81155594628869e-05,-2.81155594628869e-05,0.368537059769009,0.375277802700141,0.04,0.0923398562374264,175.859921416963,0.4604977064951,0.280604143380321
1135,0.435998207148877,0.384391742243182,-0.102165040436562,0.471361816216901,0.463876468233698,-0.0567698146110617,-1.30169690464679e-05,-1.30169690464679e-05,0.371792205158508,0.375277802700141,0.04,0.0915488811404098,177.401982116552,0.48738975028685,0.267446397526431
1195,0.435998207148877,0.384391742243182,-0.102165040436562,0.471361816216901,0.463876468233698,-0.0567698146110617,-5.88493377842683e-06,-5.88493377842683e-06,0.373604603400382,0.375277802700141,0.04,0.0931545296725379,178.256255214334,0.500483239449317,0.261703732587846
1255,0.435998207148877,0.384391742243182,-0.102165040436562,0.471361816216901,0.463876468233698,-0.0567698146110617,-2.51601484879843e-06,-2.51601484879843e-06,0.374412071114515,0.375277802700141,0.04,0.0947393223176538,178.635999668415,0.506987214777794,0.258896782724932
1315,0.435998207148877,0.384391742243182,-0.102165040436562,0.471361816216901,0.463876468233698,-0.0567698146110616,-9.24657777799833e-07,-9.24657777799833e-07,0.374758614089248,0.375277802700141,0.04,0.0957650122501633,178.799177500986,0.510678077413505,0.257260422319545
1375,0.435998207148877,0.384391742243182,-0.102165040436562,0.471361816216901,0.463876468233698,-0.0567698146110616,-1.72957490462674e-07,-1.72957490462674e-07,0.374935813019224,0.375277802700141,0.04,0.0963392386083144,178.882962805834,0.513046314714226,0.25619289620768
1435,0.435998207148877,0.384391742243182,-0.102165040436562,0.471361816216901,0.463876468233698,-0.0567698146110617,1.82118898287832e-07,1.82118898287832e-07,0.375049686582873,0.375277802700141,0.04,0.0966544580857161,178.936955415733,0.514627481579941,0.255482846153983
1495,0.435998207148877,0.384391742243182,-0.102165040436562,0.471361816216901,0.463876468233698,-0.0567698146110617,3.49844312222056e-07,3.49844312222056e-07,0.375129227813353,0.375277802700141,0.04,0.0968372677799275,178.974675711829,0.515667611246782,0.255021271037679
1555,0.435998207148877,0.384391742243182,-0.102165040436562,0.471361816216901,0.463876468233698,-0.0567698146110617,4.29071811911352e-07,4.29071811911352e-07,0.375183336237685,0.375277802700141,0.04,0.0969505320488634,179.000314528336,0.516334220956875,0.254728513217654
1615,0.435998207148877,0.384391742243182,-0.102165040436562,0.471361816216901,0.463876468233698,-0.0567698146110617,4.66496055261134e-07,4.66496055261134e-07,0.375218375384199,0.375277802700141,0.04,0.0970230630794128,179.016905262306,0.516754648417735,0.254544858562197
1675,0.435998207148877,0.384391742243182,-0.102165040436562,0.471361816216901,0.463876468233698,-0.0567698146110617,4.84173932207855e-07,4.84173932207855e-07,0.375240308774234,0.375277802700141,0.04,0.0970694855389919,179.027286675277,0.517019350915169,0.254429291027646
1735,0.435998207148877,0.384391742243182,-0.102165040436562,0.471361816216901,0.463876468233698,-0.0567698146110616,4.92524330382176e-07,4.92524330382176e-07,0.375253876861013,0.375277802700141,0.04,0.0970987294256598,179.033708409627,0.51718747579818,0.254355705793276
1795,0.435998207148877,0.384391742243182,-0.102165040436562,0.471361816216901,0.463876468233698,-0.0567698146110617,4.96468760467298e-07,4.96468760467298e-07,0.375262299770305,0.375277802700141,0.04,0.0971168243722381,179.037695460257,0.517295779135751,0.254308116028043
1855,0.430068457908354,0.346789281532971,-0.0852565225019869,0.452911663013613,0.452804128509325,-0.0405954487034197,4.98331968469073e-07,4.98331968469073e-07,0.376223232498864,0.376706619320759,0.04,0.0954853637503809,179.509684955423,0.519932218905553,0.253685608527317
1915,0.423599640555056,0.305768415303651,-0.0668108665733594,0.432784223155481,0.440725212446373,-0.0229506858950829,4.99212081434182e-07,4.99212081434182e-07,0.378130534820229,0.378265328361434,0.04,0.0939176348307141,180.42178646134,0.521662250853394,0.25412900968696
1975,0.417130823201759,0.264747549074331,-0.0483652106447318,0.412656783297349,0.42864629638342,-0.00530592308674619,4.99627815311853e-07,4.99627815311853e-07,0.380036883152103,0.379824037402109,0.04,0.092904812805063,181.330068463922,0.521085415236917,0.255691083805836
2035,0.410662005848461,0.22372668284501,-0.0299195547161041,0.392529343439217,0.416567380320468,0.0123388397215907,4.99824193235999e-07,4.99824193235999e-07,0.381773545153107,0.381382746442784,0.04,0.0920630183735437,182.15738952637,0.519104684987713,0.257837761261707
2095,0.404193188495163,0.18270581661569,-0.0114738987874766,0.372401903581085,0.404488464257516,0.0299836025299274,4.9991695515895e-07,4.9991695515895e-07,0.383394519664725,0.382941455483459,0.04,0.0911563178998063,182.930156566044,0.516554217457025,0.260210052682442
2155,0.397724371141866,0.14168495038637,0.00697175714115105,0.352274463722953,0.392409548194563,0.0476283653382642,4.99960772580826e-07,4.99960772580826e-07,0.384967948506844,0.384500164524133,0.04,0.0901198792079846,183.680636568357,0.513843021897967,0.262656159015414
2215,0.391255553788568,0.100664084157049,0.0254174130697785,0.332147023864821,0.380330632131611,0.065273128146601,4.99981470367146e-07,4.99981470367146e-07,0.386526479852108,0.386058873564808,0.04,0.0889608638667431,184.424150292818,0.511111154713116,0.265128923325916
2275,0.38478673643527,0.0596432179277288,0.0438630689984061,0.312019584006689,0.368251716068659,0.0829178909549377,4.99991247262733e-07,4.99991247262733e-07,0.388079632763111,0.387617582605483,0.04,0.0876936180046129,185.16512701439,0.508403372680144,0.267611918041516
2335,0.378317919081973,0.0186223516984084,0.0623087249270338,0.291892144148557,0.356172800005706,0.100562653763274,4.99995865519286e-07,4.99995865519286e-07,0.389628947483781,0.389176291646158,0.04,0.086320780510952,185.904275714635,0.505744265103216,0.270092850269441
2395,0.371849101728675,-0.022398514530912,0.0807543808556612,0.271764704290425,0.344093883942754,0.118207416571611,4.99998047018864e-07,4.99998047018864e-07,0.391174751467703,0.390735000686833,0.04,0.0848335622437227,186.641752936944,0.503155605945801,0.27255940042195
2455,0.365380284375377,-0.0634193807602323,0.0992000367842889,0.251637264432293,0.332014967879801,0.135852179379948,4.9999907748141e-07,4.9999907748141e-07,0.392717597282308,0.392293709727507,0.04,0.0832150077096793,187.377823300733,0.500656365561889,0.2750002720972
2515,0.35891146702208,-0.104440246989553,0.117645692712916,0.231509824574161,0.319936051816849,0.153496942188285,4.99999564235044e-07,0.0287675084089729,0.393634893524584,0.393852418768182,0.04,0.0823360773720042,187.812713806666,0.500563064669403,0.275689904814791
2575,0.352442649668782,-0.145461113218873,0.136091348641544,0.211382384716029,0.307857135753897,0.171141704996622,4.99999794160186e-07,0.0625833671613876,0.395111300879815,0.395411127808857,0.04,0.0811619986895119,188.520612644648,0.50248779113701,0.275669046750071
2635,0.345973832315484,-0.186481979448193,0.154537004570172,0.191254944857897,0.295778219690944,0.188786467804958,4.99999902768618e-07,0.0963992259138023,0.39676261272008,0.396969836849532,0.04,0.0802658149040515,189.30845973692,0.503997102256555,0.275992104948732
2695,0.339505014962187,-0.227502845677514,0.172982660498799,0.171127504999765,0.283699303627992,0.206431230613295,4.99999954071365e-07,0.130215084666217,0.398367797625899,0.398528545890207,0.04,0.0794893901481636,190.073792118269,0.50510266760756,0.276501348323085
2755,0.338965946849412,-0.230921251196624,0.174519798492851,0.169450218344921,0.282692727289413,0.20790162751399,4.99999978304951e-07,0.133033072895585,0.400462333198552,0.400087254930881,0.04,0.0798595045100846,191.073697508061,0.503791675846627,0.278679226681603
2815,0.338965946849412,-0.230921251196624,0.174519798492852,0.16945021834492,0.282692727289413,0.20790162751399,4.99999989752033e-07,0.133033072895585,0.401907034385181,0.401645963971556,0.04,0.0804737373607995,191.760541924816,0.501922114618318,0.280722739625207
2875,0.338965946849412,-0.230921251196624,0.174519798492851,0.169450218344921,0.282692727289413,0.20790162751399,4.99999995159226e-07,0.133033072895585,0.403262913220438,0.403204673012231,0.04,0.0804771316778191,192.407762283431,0.501257317855847,0.282043788151931
2935,0.338965946849412,-0.230921251196624,0.174519798492852,0.169450218344921,0.282692727289413,0.20790162751399,4.99999997713389e-07,0.133033072895585,0.404683886715405,0.404763382052906,0.04,0.080190895893827,193.086367528601,0.501544944964698,0.282876214206363
2995,0.338965946849412,-0.230921251196624,0.174519798492852,0.16945021834492,0.282692727289413,0.20790162751399,4.99999998919887e-07,0.133033072895585,0.406176350434311,0.406322091093581,0.04,0.0798460389529447,193.798763997262,0.502383198857543,0.283446156424936
3055,0.338965946849412,-0.230921251196624,0.174519798492851,0.169450218344921,0.282692727289413,0.20790162751399,4.99999999489793e-07,0.133033072895585,0.407701577109847,0.407880800134255,0.04,0.079538421039606,194.526633086928,0.503479355397854,0.28389129687641
3115,0.338965946849412,-0.230921251196624,0.174519798492852,0.169450218344921,0.282692727289413,0.20790162751399,4.99999999758996e-07,0.133033072895585,0.409243385469154,0.40943950917493,0.04,0.0792768186759214,195.262319110407,0.504704973400044,0.284272949135393
3175,0.338965946849412,-0.230921251196624,0.174519798492851,0.169450218344921,0.282692727289413,0.20790162751399,4.99999999886159e-07,0.133033072895585,0.41079320195474,0.410998218215605,0.04,0.0790507820274473,196.001779676562,0.505997484770753,0.284620602048754
3235,0.338965946849412,-0.230921251196624,0.174519798492851,0.169450218344921,0.282692727289413,0.20790162751399,4.99999999946225e-07,0.133033072895585,0.412346968334917,0.41255692725628,0.04,0.0788482149740289,196.743103679303,0.507326416945936,0.2849487246245
