time,bias_percent_1,bias_percent_2,bias_percent_3,bias_percent_4,bias_percent_5,bias_percent_6,bias_percent_8,bias_percent_9,normalized_power,power_SP,SP,CV,total_power_MW,fuel_fraction,thermal_efficiency
55,0,0,0,0,0,0,0,0,0.999838042475392,1,0.04,0.0399063598158726,477.025422217799,1.00002945907389,0.350496275342325
115,-0.00436806397524504,0.017081179278391,0.0109372567530705,-0.00946454141892707,0.00446859117899567,0.0277422535411381,0.00892553122813604,-0.000977588331268521,0.995416599827416,0.994411372364015,0.04,0.042468001212576,474.866133899068,0.994762721548215,0.350757020635928
175,-0.00913322467551256,0.0357151930366356,0.0228688095746019,-0.0197894956941205,0.00934341791971792,0.0580065301314703,0.0186624743861026,-0.00204404832901605,0.989303674196615,0.988314687670213,0.04,0.0448195886989945,471.947555237267,0.98836810569474,0.350856635610162
235,-0.0138983853757799,0.0543492067948804,0.0348003623961334,-0.0301144499693138,0.0142182446604403,0.088270806721803,0.0283994175440693,-0.00311050832676358,0.983116544211487,0.982218002976411,0.04,0.04655494507736,468.995804233975,0.982495859553754,0.350746143702979
295,-0.0186635460760473,0.072983220553125,0.0467319152176649,-0.040439404244507,0.0190930714011627,0.118535083312135,0.0381363607020359,-0.00417696832451105,0.976963985824412,0.97612131828261,0.04,0.0478655483441494,466.060628084326,0.977072448488918,0.350485717720367
355,-0.0234287067763146,0.0916172343113697,0.0586634680391963,-0.0507643585197004,0.023967898141885,0.148799359902468,0.0478733038600024,-0.00524342832225858,0.970819577906748,0.970024633588808,0.04,0.0488934878191149,463.129275756773,0.971920370697361,0.350127502946495
415,-0.028193867476582,0.110251248069614,0.0705950208607278,-0.0610893127948938,0.0288427248826074,0.1790636364928,0.0576102470179691,-0.00630988832000605,0.964696358706273,0.963927948895006,0.04,0.0497119444236535,460.207990557918,0.966957134255748,0.349704812795775
475,-0.0329590281768493,0.128885261827859,0.0825265736822593,-0.071414267070087,0.0337175516233298,0.209327913083132,0.0673471901759357,-0.00737634831775353,0.958583449304537,0.957831264201204,0.04,0.0503735115615131,457.291586883151,0.962110035921931,0.349239327163027
535,-0.0377241888771168,0.147519275586104,0.0944581265037907,-0.0817392213452803,0.0385923783640521,0.239592189673465,0.0770841333339022,-0.00844280831550105,0.952477417932991,0.951734579507402,0.04,0.0509115910347374,454.37844463243,0.957331854231278,0.348746523503618
595,-0.0424893495773841,0.166153289344349,0.106389679325322,-0.0920641756204736,0.0434672051047745,0.269856466263797,0.0868210764918688,-0.00950926831324858,0.946376146582457,0.9456378948136,0.04,0.0513497592130481,451.467558954462,0.952590052860145,0.34823721650367
655,-0.0472545102776515,0.184787303102593,0.118321232146853,-0.102389129895667,0.0483420318454969,0.300120742854129,0.0965580196498354,-0.0105757283109961,0.94027805217863,0.939541210119799,0.04,0.0517055322377969,448.558177134467,0.947862527680723,0.347718742248671
715,-0.052019670977919,0.203421316860838,0.130252784968385,-0.11271408417086,0.0532168585862192,0.330385019444462,0.106294962807802,-0.0116421883087436,0.934181891739578,0.933444525425997,0.04,0.0519923619480441,445.649711408438,0.943135272113604,0.347195684678462
775,-0.0567848316781863,0.222055330619082,0.142184337789916,-0.123039038446054,0.0580916853269416,0.360649296034794,0.116031905965769,-0.0127086483064911,0.928086698685461,0.927347840732195,0.04,0.0522208355865771,442.741698818107,0.938400622488609,0.346670443623837
835,-0.0615499923784537,0.240689344377327,0.154115890611448,-0.133363992721247,0.0629665120676641,0.390913572625127,0.125768849123735,-0.0137751083042386,0.921991730065276,0.921251156038393,0.04,0.0523994430343622,439.833788101601,0.933655818601032,0.346143720265961
895,-0.066315153078721,0.259323358135572,0.16604744343298,-0.14368894699644,0.0678413388083866,0.421177849215459,0.135505792281702,-0.0148415683019862,0.915896434883103,0.915154471344591,0.04,0.0525350817102648,436.925718221427,0.928901776422125,0.345614927327446
955,-0.0667122498037434,0.260876192615426,0.16704173950144,-0.144549359852706,0.0682475743701133,0.423699872264653,0.136317204211532,-0.0149304399684651,0.914293387402147,0.914646414286775,0.04,0.0498313658311896,436.208350548676,0.930014910633333,0.344634491432474
1015,-0.0667122498037434,0.260876192615425,0.16704173950144,-0.144549359852706,0.0682475743701133,0.423699872264654,0.136317204211532,-0.0149304399684651,0.914348153925344,0.914646414286775,0.04,0.047411975587879,436.236504360014,0.932033466699821,0.343910292853484
1075,-0.0667122498037434,0.260876192615426,0.167041739501441,-0.144549359852706,0.0682475743701133,0.423699872264653,0.136317204211532,-0.0149304399684651,0.914461092936926,0.914646414286775,0.04,0.0456970822280392,436.290064345569,0.93335838509597,0.343464270709938
1135,-0.0667122498037434,0.260876192615425,0.16704173950144,-0.144549359852706,0.0682475743701133,0.423699872264653,0.136317204211532,-0.0149304399684651,0.914536640252753,0.914646414286775,0.04,0.0444483432380895,436.325862717912,0.93415306828892,0.34320024383449
1195,-0.0667122498037433,0.260876192615426,0.16704173950144,-0.144549359852706,0.0682475743701134,0.423699872264654,0.136317204211532,-0.0149304399684651,0.914584341209529,0.914646414286775,0.04,0.0435056241322661,436.348489005168,0.934612464274506,0.343049336824609
1255,-0.0667122498037434,0.260876192615426,0.167041739501441,-0.144549359852706,0.0682475743701133,0.423699872264653,0.136317204211532,-0.0134309161502118,0.914555214758557,0.914646414286775,0.04,0.0428184647967783,436.333210414763,0.93492756080644,0.342921711973805
1315,-0.0667122498037434,0.260876192615426,0.16704173950144,-0.144549359852706,0.0682475743701133,0.423699872264653,0.136317204211532,-0.00634402489983319,0.914381518996774,0.914646414286775,0.04,0.042393928512293,436.251056236833,0.936317457295869,0.342348198623288
