time,bias_percent_1,bias_percent_2,bias_percent_3,bias_percent_4,bias_percent_5,bias_percent_6,bias_percent_8,bias_percent_9,normalized_power,power_SP,SP,CV,total_power_MW,fuel_fraction,thermal_efficiency
19,0,0,0,0,0,0,0,0,0.999267562149263,1,0.04,0.0400805810918953,476.778139473252,0.99937690980473,0.350543323439688
79,0.0040483083604114,0.00906174643806503,0.00339805404813092,-0.00924231199306689,-0.0104598262725975,0.005595806452798,-0.00506528497268476,0.0020923156268604,0.998943003770094,0.99738383302032,0.04,0.0405230670158508,476.556084981718,0.996662974597464,0.351334154125388
139,0.0168324400248683,0.037677787821428,0.0141287510422284,-0.0384285603922256,-0.0434908566071163,0.0232667741984759,-0.0210609217285314,0.00869962813273514,0.991934988552589,0.989122253084487,0.04,0.0430634723578206,473.188417199562,0.980558043508959,0.354581011902732
199,0.0296165716893255,0.0662938292047912,0.0248594480363261,-0.0676148087913841,-0.0765218869416345,0.0409377419441538,-0.037056558484378,0.0153069406386099,0.983673163461205,0.980860673148655,0.04,0.0446328635145623,469.243732643644,0.963091768542317,0.35800202735567
259,0.0424007033537824,0.0949098705881544,0.0355901450304235,-0.0968010571905428,-0.109552917276153,0.0586087096898317,-0.0530521952402246,0.0219142531444847,0.975247654808389,0.972599093212822,0.04,0.0452817982302477,465.223508490751,0.946426382303271,0.361184820905363
319,0.0551848350182395,0.123525911971517,0.0463208420245211,-0.125987305589701,-0.142583947610672,0.0762796774355095,-0.0690478319960713,0.0285215656503595,0.966847028263482,0.964337513276989,0.04,0.0453398758765262,461.215107020341,0.930845738346809,0.364066304623598
379,0.0679689666826964,0.152141953354881,0.0570515390186187,-0.15517355398886,-0.17561497794519,0.0939506451811874,-0.0850434687519179,0.0351288781562344,0.958349699374875,0.956075933341157,0.04,0.0450806834623628,457.161413856459,0.916443369334464,0.366537666035262
439,0.0807530983471536,0.180757994738244,0.0677822360127163,-0.184359802388019,-0.208646008279709,0.111621612926865,-0.101039105507765,0.0417361906621092,0.949972022605665,0.947814353405324,0.04,0.0446529992536457,453.199108627149,0.90291554551281,0.368804823923789
499,0.0935372300116106,0.209374036121607,0.0785129330068139,-0.213546050787177,-0.241677038614227,0.129292580672543,-0.117034742263611,0.048343503167984,0.941795425149342,0.939552773469492,0.04,0.0443494843176123,449.258605911645,0.889234007547991,0.371223121319921
559,0.106321361676068,0.23799007750497,0.0892436300009114,-0.242732299186336,-0.274708068948746,0.146963548418221,-0.133030379019458,0.0549508156738588,0.933499280835198,0.931291193533659,0.04,0.0440590103476212,445.306756507397,0.875620566861705,0.373678410563506
619,0.119105493340525,0.266606118888333,0.0999743269950089,-0.271918547585495,-0.307739099283265,0.164634516163899,-0.149026015775304,0.0615581281797336,0.925231643414729,0.923029613597827,0.04,0.0437593830869176,441.361887104164,0.862003835854159,0.376218637020221
679,0.131889625004982,0.295222160271696,0.110705023989106,-0.301104795984653,-0.340770129617783,0.182305483909577,-0.165021652531151,0.0681654406856084,0.916944396763376,0.914768033661994,0.04,0.0434228723230112,437.408224685873,0.848483303023579,0.378789839167647
739,0.144673756669439,0.323838201655059,0.121435720983204,-0.330291044383812,-0.373801159952302,0.199976451655255,-0.181017289286998,0.0747727531914832,0.908679327327881,0.906506453726161,0.04,0.0430313315212625,433.460040846645,0.835173953478305,0.381352679577127
799,0.157457888333896,0.352454243038422,0.132166417977302,-0.35947729278297,-0.40683219028682,0.217647419400933,-0.197012926042844,0.0813800656973579,0.900324449562825,0.898244873790329,0.04,0.0425813427565848,429.479452074796,0.822228912606631,0.383799427465655
859,0.170242019998353,0.381070284421785,0.142897114971399,-0.388663541182129,-0.439863220621339,0.23531838714661,-0.213008562798691,0.0879873782032328,0.892005124730516,0.889983293854496,0.04,0.0421039404224474,425.515276389089,0.80969954101206,0.386141020012596
919,0.178977843302398,0.400624579367084,0.150229757917366,-0.408607477588221,-0.46243442468326,0.247393548439491,-0.223938914581853,0.0925023750822472,0.884435096659264,0.884337880898344,0.04,0.0410279869390176,421.962367016721,0.801641401191392,0.38676597215766
