time,bias_percent_1,bias_percent_2,bias_percent_3,bias_percent_4,bias_percent_5,bias_percent_6,bias_percent_8,bias_percent_9,normalized_power,power_SP,SP,CV,total_power_MW,fuel_fraction,thermal_efficiency
42,0,0,0,0,0,0,0,0,0.999747380257381,1,0.04,0.0399373111519451,476.983410322311,0.999860861798824,0.350524502674593
102,0,0,0,0,0,0,0,0,0.999970845008365,1,0.04,0.0399034179949659,477.086586277206,1.00027153169773,0.350456382474781
162,0,0,0,0,0,0,0,0,0.999997202609437,1,0.04,0.0399442357472619,477.098728603468,1.00031661483682,0.350449506861905
222,0,0,0,0,0,0,0,0,1.0000012777424,1,0.04,0.0399741893591845,477.100626253012,1.00031454320587,0.350451626543643
282,0,0,0,0,0,0,0,0,1.00000282243721,1,0.04,0.0399921138467385,477.101355677179,1.00030031916045,0.350457145689009
342,0,0,0,0,0,0,0,0,1.00000367174845,1,0.04,0.0400022743579257,477.101756248778,1.00027973836248,0.350464650607512
402,0,0,0,0,0,0,0,0,1.0000039834588,1,0.04,0.0400075557290263,477.101901122656,1.00025623365747,0.350472992488048
462,0,0,0,0,0,0,0,0,1.00000387863378,1,0.04,0.0400097520163471,477.101848376401,1.00023257501145,0.350481243528876
522,0,0,0,0,0,0,0,0,1.00000350230237,1,0.04,0.0400100406568,477.10166723311,1.00021068887468,0.3504887795219
582,0,0,0,0,0,0,0,0,1.00000298344975,1,0.04,0.0400092239392411,477.101418952019,1.00019168080544,0.35049525796423
642,0,0,0,0,0,0,0,0,1.00000241906249,1,0.04,0.0400078498254293,477.101149669138,1.00017600564311,0.350500553239829
702,0,0,0,0,0,0,0,0,1.0000018742339,1,0.04,0.0400062811619544,477.100890037532,1.00016366473528,0.350504687287304
762,-0.104643683051696,-0.174999998418493,-0.0789253333537725,0.159631513246357,0.174673132643256,-0.174996188951206,0.175,0.130418134465666,0.996141565777374,1,0.04,0.0395094493857964,475.261924259366,1.01617522451174,0.343652174440536
822,-0.149490975788138,-0.249999997740704,-0.112750476219675,0.228045018923367,0.249533046633223,-0.249994555644579,0.25,0.186311620665237,0.999562001837307,1,0.04,0.0394036130781436,476.898432629851,1.0238389693812,0.342254301972705
882,0.126313084075157,-0.249999318873528,0.00818257975413144,0.24341350567701,-0.100140067893245,-0.249998366693374,-0.0999452675574067,0.200305117242766,1.00610521093822,1,0.04,0.0370271031862801,480.064939747377,1.00239949978774,0.351895590304196
942,0.24451482401657,-0.249999027930453,0.0600110323143344,0.25,-0.249999974118875,-0.25,-0.249921810796295,0.206302330061707,1.00223340109626,1,0.04,0.0383754332483987,478.135176394988,0.974140441170748,0.360648224822361
1002,0.248347924848599,0.0502949162132242,0.1930033096943,0.249330915810535,-0.248882018407066,0.1,-0.246728968398107,0.236846757786777,0.988024355567369,1,0.04,0.0556524291433747,471.294871217364,1.00879248641997,0.343277667838349
1062,0.249990682348041,0.178992320846228,0.25,0.249044165443621,-0.248402894530576,0.25,-0.245360607370312,0.249937226811807,0.993430314626628,1,0.04,0.057198153661317,474.029012463019,1.07262984688859,0.324720511111412
1122,-0.100001990534099,0.218754391324974,0.25,-0.100286750366914,0.100479048767504,0.25,0.101391817788906,0.249981168043542,0.992865606849844,1,0.04,0.0550253934989132,473.703098261334,1.11042221877065,0.313453236485781
1182,-0.24999885034073,0.235795278673007,0.25,-0.25,0.249999881609538,0.25,0.25,0.25,1.00016945131574,1,0.04,0.0542617214394361,477.210883294689,1.12454006740169,0.311810030661337
1242,-0.249999655102219,-0.104261416398098,-0.0999999999999999,0.1,0.249973258822175,-0.0999999999999999,-0.0999969042428999,0.224697319078228,1.02256663848911,1,0.04,0.036063606194971,488.020131224664,1.04924781388904,0.341754577776995
1302,-0.25,-0.25,-0.25,0.25,0.249961849056162,-0.25,-0.249995577489857,0.213853312968897,1.01008028076054,1,0.04,0.0309664390947283,481.796459224416,0.939155119661653,0.376947571709726
1362,0.0999955625854183,0.0999999999999999,0.0999999999999999,0.25,0.249988540188211,0.0999999831336619,0.100001325590573,0.239155993890669,0.972831240212582,1,0.04,0.0643506558604805,463.944946543435,1.01094320020375,0.337205282462308
1422,0.249993660836312,0.25,0.25,0.25,0.249999979244804,0.249999975905231,0.249999998339328,0.25,0.986231358416705,1,0.04,0.066316160151257,470.678606243003,1.15003638804711,0.300723628618394
1482,0.0899045335369431,0.187061812819252,0.249999997074067,0.249999999406578,0.249999993773441,-0.0977992141630655,0.214701508981931,0.249980631321186,1.00601990961999,1,0.04,0.0561411673790042,480.088447366156,1.15576102382277,0.305216415201802
1542,0.0212949075514994,0.160088304027503,0.249999995820095,0.249999999152255,0.25,-0.246856009906621,0.199573584971617,0.249972330458837,1.00516607284971,1,0.04,0.0564308785764851,479.525357890775,1.11010661956946,0.317396082457477
1602,0.180955214160694,0.223026488767809,0.101534598696042,0.249880599986239,-0.0999999993369833,0.100943197028014,-0.115127914667967,-0.100008280322485,1.01901845145213,1,0.04,0.048066285277474,486.270718046543,1.03680201316975,0.344617210528473
1662,0.249381059850349,0.249999996513655,0.0379065713571629,0.24982942891509,-0.249999999052833,0.25,-0.105023829482086,-0.105023829482086,1.00272578396138,1,0.04,0.0486853043593084,478.343770461711,0.992463539357883,0.354144285115263
1722,0.249814317955105,-0.100000001045904,0.186371971407149,0.249948828674527,-0.24999999971585,0.132854581149603,-0.0805678520551026,0.0999957340651461,0.996844903940031,1,0.04,0.039384743678712,475.510868019115,0.993086621978188,0.35182604977554
1782,0.25,-0.25,0.25,0.25,-0.25,0.0826494016422904,-0.0723014779068918,0.249993893231925,0.999666302062526,1,0.04,0.0341157978400278,476.965283715396,1.00819838087309,0.347612552239351
1842,0.25,0.0999973132682364,0.25,-0.0999998921372596,0.1,-0.150202215469395,-0.0760084758135102,0.132535894008086,1.00321920724395,1,0.04,0.0363672312156521,478.65995721515,0.996138450393165,0.353071018185152
1902,0.25,0.249996161811766,0.25,-0.249999845910371,0.25,-0.249995765660118,-0.0819031010181872,0.082196751483584,1.00088752092494,1,0.04,0.0379639092680007,477.50182672452,0.981660341397409,0.357411455071803
1962,0.249999216002382,0.249998604668388,-0.0999999998717879,0.0379010739637514,0.249999996457094,-0.220665138511589,-0.0875282310662172,0.199658984901912,0.996149509086624,1,0.04,0.0374295539465345,475.254792933759,0.995141615400551,0.35091044348703
2022,0.249998880003402,0.24999965160694,-0.24999999981684,0.161287182481233,0.249999994938705,-0.208094869733648,-0.0941986675980847,0.249999942081196,0.999105273754912,1,0.04,0.0366178251379762,476.689922201545,1.00834670753401,0.347360764728537
2082,0.249999663842569,0.0138443762754614,0.0999978107788168,-0.126558305948682,-0.0999997697562609,0.0728658867226529,-0.102903360582207,0.249999979747148,1.00291306428554,1,0.04,0.0321387835107728,478.525929165514,1.00102642965021,0.351248604422224
2142,0.249999999773641,-0.0873650274380296,0.24999687246267,-0.249920658132931,-0.249999668911246,0.193277639489639,-0.118302498507415,0.249999995889699,1.00204690594669,1,0.04,0.0316141398283778,478.058916800308,0.981939212143213,0.357726815274242
2202,-0.099910813779846,0.148790491682852,-0.0999301357816347,-0.247664991787572,0.0998643753695517,-0.115584794611296,-0.141247345068882,-0.0999432166697039,1.01823468830014,1,0.04,0.0148081027762196,485.916272918161,0.919843294472728,0.388152397470607
2262,-0.249872591017055,0.249999999877516,-0.249898853600622,-0.246698277639561,0.249806108632751,-0.247954409225983,-0.188311751798389,-0.188311751798389,1.00669721879128,1,0.04,0.00889471392174872,480.224497233214,0.846718921631331,0.416734755321817
2322,0.100037758772981,-0.0999999844276515,0.100030343919813,-0.249009483254366,-0.100058104743261,-0.249307540746953,-0.24976663827369,-0.249975663758549,1.00247947607635,1,0.04,0.00226306417895416,478.208309344019,0.824354303254258,0.426243613636925
2382,0.249999337254425,-0.249999977701295,0.25,-0.249999999946426,-0.249999910475838,-0.249887454255941,-0.249999141965576,-0.25,0.998165797554373,1,0.04,0.00276956681806902,476.213813917649,0.832240349046639,0.420443746967445
2442,0.249999801176328,0.098643997417617,-0.1,0.0999237793396591,-0.210443863171852,-0.249878399565551,0.100000257410327,-0.25,0.979678808616229,1,0.04,0.0230965827123882,467.315883976435,0.90811241497366,0.378116479862157
2502,0.25,0.248062843897151,-0.25,0.24989111331941,-0.193491271470144,-0.249874518983956,0.25,-0.25,0.990064928328276,1,0.04,0.029982983161071,472.426372388806,1.00209846063126,0.346400423775972
2562,0.249999791237248,0.249418853169145,-0.175407553822527,0.249967300278315,0.116952618558957,0.100037644304813,0.249998678650444,0.0999843206110077,0.973970121095356,1,0.04,0.0533952960659424,464.603637836901,1.11274947109497,0.306789072006485
2622,0.249999701767497,0.25,-0.14343936260361,0.249999951832132,0.25,0.25,0.249998112357777,0.249977600872868,0.99037037374213,1,0.04,0.0597025535573286,472.634521345107,1.2219587130153,0.284199679159119
2682,0.249999888712418,0.249999177530386,0.131144261337032,0.249998827589184,0.154667157219166,0.124091859854113,0.2499884911452,-0.0604530220447049,1.00685446665401,1,0.04,0.0641892036140923,480.454762068694,1.21358458806798,0.290895582447738
2742,0.24999996883167,0.249998825043408,0.248822957311593,0.249998345770777,0.113810224598809,0.070131228363018,0.249984367768382,-0.193494717580808,1.00380651366696,1,0.04,0.0682143645625999,478.878299137912,1.17464674214475,0.299552228434343
2802,0.249999990649501,0.239079863859765,0.249646683215254,0.249998913518626,0.209110039619065,-0.153960336773459,0.249993027204546,0.116951584725758,0.996360594365006,1,0.04,0.0686159579087489,475.32970146001,1.18006397445386,0.295967535747591
2862,0.25,0.234400309066775,0.249999708602538,0.249999156839133,0.249952817484889,-0.249999578974806,0.249996738391474,0.25,1.00066002253973,1,0.04,0.0661963746859371,477.450530330334,1.19059123105463,0.294659451976544
2922,0.25,0.245320092720033,0.133759477097923,0.24999974705174,0.24998416613395,-0.245838601710202,0.249822401622798,0.25,1.00398157356559,1,0.04,0.063716727436722,479.016455180084,1.17275044822475,0.300123153602319
2982,0.25,0.25,0.0839422350245159,0.25,0.249997601269262,-0.244055325739657,0.249747685864794,0.25,1.00403104292323,1,0.04,0.0623183380371766,479.016861759075,1.14679400334996,0.306916377855025
3042,0.25,0.249995715072452,0.200182670507354,0.249999996455034,-0.0719008048190256,0.101783402278103,0.249566431416174,0.25,1.00057137521823,1,0.04,0.0626656355561913,477.349204784144,1.13437882904866,0.309195216940293
3102,0.25,0.249993878674931,0.25,0.249999994935762,-0.209857264571149,0.25,0.249488750938194,0.25,1.00136108338063,1,0.04,0.0605641164131674,477.754027325528,1.1303361471347,0.310564218194447
3162,0.249995481046474,0.0216869516125621,0.249999878384327,0.249975675279644,-0.237956934277985,0.205056355960556,0.249781231924566,-0.0279072098648663,1.01192855977642,1,0.04,0.0500682788827454,482.678063119946,1.08282581801406,0.327531923299265
3222,0.249993544352105,-0.0761588742713104,0.249999826263324,0.249965252569878,-0.249999649866629,0.185794794229366,0.249906580918726,-0.0131830402775704,1.00372150358187,1,0.04,0.0473460662500355,478.835707842852,1.04485103620841,0.336733890285993
3282,0.249992717258984,0.128546513879516,0.249999947878997,0.249989207437051,0.0989297966655487,-0.119258245169523,0.221671525450244,-0.00622693392758251,0.999681191092688,1,0.04,0.0500218400894988,476.925906291318,1.03889428269013,0.337313896717549
3342,0.249992362790504,0.216277394515585,0.25,0.249999473808697,0.248470988036482,-0.249995262054761,0.209570787392324,-0.00294111754013319,0.991599754960262,0.988318897521606,0.04,0.0522880051971183,472.982722240086,1.02949127406806,0.337580446217418
3402,0.21999579305083,-0.110113351087245,-0.0251143475310798,0.243139128106124,0.249541296390956,-0.246439068644204,-0.00168321527536503,0.100049344209515,0.984231919125997,0.971631608266758,0.04,0.03894931501903,469.314482685682,0.965064939584484,0.357323923936984
3462,0.207140120305256,-0.249995099202743,-0.143020496472971,0.240198979947879,0.249999999971444,-0.244914985753966,-0.00589728879568101,0.249999991193461,0.963204483770378,0.95494431901191,0.04,0.0355301323077959,459.397986149777,0.913374354631554,0.36956850222257
3522,-0.112857963908423,-0.249998446926601,-0.217903027848435,-0.102937763311516,-0.0999988144876865,-0.248405323696474,0.0999990893674299,-0.0222372474782887,0.966272052342806,0.938257029757062,0.04,0.00535610445325337,460.990459523751,0.790624190356515,0.428426687149095
3582,-0.25,-0.249999881665397,-0.249995541295062,-0.249996367565542,-0.249998306398742,-0.249901182814691,0.249998699096328,-0.0789309542622341,0.930230580108927,0.921569740502214,0.04,4.71922790001606e-06,443.424312339077,0.668410258142224,0.487451118273554
3642,-0.249943499733707,-0.249999963374683,-0.249998620717075,-0.249998910268239,-0.24916714756444,-0.24623893780838,0.249877978536078,0.0914031349547173,0.917219148155022,0.916563553725759,0.04,1.14290328530781e-05,437.917106251052,0.696702753831889,0.461847991605456
3702,-0.249919285333867,-0.249999998392949,-0.249999940469366,-0.249999999997966,-0.248810936635453,-0.244669404234246,0.249826241153114,0.237718763718564,0.916933720649815,0.916563553725759,0.04,0.00106999998948227,437.369293183137,0.654283510525391,0.491175832500615
3762,-0.249975279831504,-0.185538345522074,0.0999999194960865,0.0999848203821029,0.100338833052423,0.101593505109328,0.249946318700042,-0.0244929967330649,0.87129379057057,0.916563553725759,0.04,0.0192466974633712,415.794004736651,0.816895581412152,0.373995479017993
3822,-0.249999277473349,-0.157911922863128,0.24999985948128,0.249978314830704,0.249974448632942,0.249991894828003,0.249997780505868,-0.136869465498049,0.897339371746287,0.916563553725759,0.04,0.0270156445111227,428.274410803938,1.00904644289485,0.311864288605026
3882,0.0998025058806203,0.127621552532384,0.249983936646328,0.249993232166923,0.249992327154063,0.24978026825222,-0.100000665801449,0.00904873290059635,0.90228374525578,0.916563553725759,0.04,0.0462698414493331,430.552847135599,1.09392873554653,0.28919588638056
3942,0.249717555889464,0.249993041987603,0.249977112574206,0.249999625311017,0.249999989377401,0.249689571148312,-0.249999999933156,0.0715851036428729,0.913164820311719,0.916563553725759,0.04,0.0600180094768537,435.733098575277,1.13615704002798,0.28179732286743
4002,0.248861117066572,0.24998967509836,0.249941292055192,0.249998885509704,-0.100000001602245,-0.0926761171709204,-0.0880574294579118,0.19647551846965,0.922002076483726,0.916563553725759,0.04,0.0587652640237015,439.94589495668,1.12292569815815,0.287874320091706
4062,0.24849407185676,0.249988232145827,0.249925940404186,0.249998568451999,-0.249999997736379,-0.239404269307734,-0.0186534706828072,0.24999998196684,0.92350090301508,0.916563553725759,0.04,0.0610003447728985,440.591419813741,1.07880018084655,0.300088740693871
4122,-0.100447111111499,-0.0999110357805487,0.217176542362535,0.249999319321248,-0.249997752562576,0.10317871755655,0.169403210757604,0.249985248817503,0.919912940756095,0.916563553725759,0.04,0.0551483570949621,438.930878111041,1.05453108717498,0.305837984547736
4182,-0.24999333238361,-0.249867864891853,0.203141086058971,0.249999641122355,-0.249996790345232,0.249999997641244,0.249998931374923,0.249978934610644,0.923330805232545,0.916563553725759,0.04,0.0520810087740935,440.499709845983,1.01077031349107,0.320219536695525
4242,0.0994432015747261,0.0984053907810035,-0.113519924957119,-0.0963258479654416,0.099977037905616,0.249715601174495,0.249455964470737,0.0704701733616878,0.919444762714946,0.916563553725759,0.04,0.0571137395167143,438.652508326464,0.983709259700597,0.327648763965681
4302,0.249201716128298,0.247665357497942,-0.249231786821157,-0.244751057574497,0.249965821441694,0.249593716974459,0.249223264368943,-0.0064621528878647,0.918984692697527,0.916563553725759,0.04,0.0582476613658918,438.454662834516,0.971282238038028,0.331691179352645
4362,0.0737406564205094,0.249299607249383,-0.247927368606625,0.101574682727651,0.169372403152309,0.24970681349088,0.249766979310683,0.173060442373087,0.913289203425754,0.916563553725759,0.04,0.0594773444857207,435.689295180588,0.975094505968359,0.328310563351008
4422,-0.00145694059711445,0.25,-0.247368332228968,0.25,0.134832366742572,0.249755283426489,0.25,0.249998697484924,0.916145046777018,0.916563553725759,0.04,0.0562219322182757,437.11641194011,0.988576737417054,0.324893784034558
4482,0.1702361374293,0.248433735360909,0.0374931279942981,0.249955387500413,-0.134550289977229,0.0308731192312047,0.249979653653304,0.249999209671198,0.91937168834382,0.916563553725759,0.04,0.0566243803161318,438.651932439442,0.977525381449535,0.329721054830178
4542,0.243818885154906,0.247762479087013,0.159576610947127,0.249936267857733,-0.25,-0.0629335225667742,0.249970933790435,0.249999429179601,0.918647727841942,0.916563553725759,0.04,0.0562792792535433,438.277691735342,0.960876644978887,0.335147824303209
4602,0.197166952675898,0.0963716688668179,0.222872983284138,-0.10001911964268,-0.0060760995653726,0.155235715521278,0.24999128013713,0.24999982875388,0.915315350436486,0.916563553725759,0.04,0.052673650441583,436.682034249527,0.960692678205568,0.333991581507272
4662,0.177173267327752,0.031489893058163,0.25,-0.25,0.0984627149066104,0.248736817559015,0.25,0.25,0.91670311206959,0.916563553725759,0.04,0.049733959819701,437.366106616657,0.964164285685257,0.333310319967206
4722,0.228151980198325,-0.162186710946028,0.169578839341621,0.0999999965722963,-0.126170184570294,-0.100232924550127,0.25,-0.00716507786512847,0.931426020859445,0.916563553725759,0.04,0.0356758661188541,444.330934822218,0.907822680930315,0.359633548112076
4782,0.25,-0.245190969804967,0.135112627630887,0.249999995103281,-0.222441427203253,-0.249791385454044,0.25,-0.0122369317512744,0.920859721054833,0.916563553725759,0.04,0.0317374877095769,439.282439218641,0.856629269892658,0.376795414519435
4842,-0.1,-0.2484429337453,0.215526637526711,-0.0999831670666334,-0.241706491498361,0.0798138801751905,-0.0315747092861303,-0.0315747092861303,0.929367629410055,0.916563553725759,0.04,0.012674246738575,443.268749232479,0.808157607668176,0.403019189257933
4902,-0.25,-0.249836632576871,0.249989784624922,-0.249975950853739,-0.249962947624835,0.221073279730577,-0.0808580671378321,-0.0808580671378321,0.921875328332642,0.916563553725759,0.04,0.00474069312842282,439.780636676664,0.755200050759394,0.427886682221375
4962,0.0666076715424233,0.100042736291115,0.249996935387477,-0.0667582517368248,0.0999553978219569,-0.0624098640789283,0.144788520893465,-0.146647081230943,0.892675360275581,0.916563553725759,0.04,0.0321566158250312,425.797693344633,0.822691193598589,0.380295452496298
5022,0.202296673632033,0.249991037234537,0.25,0.0117636193132814,0.249920403013439,-0.183902639997288,0.249999984612157,-0.184645619631291,0.905293144517052,0.916563553725759,0.04,0.0391558307140961,432.026558511348,0.934142035378785,0.339822559447304
5082,-0.0783001400637874,-0.100002688829639,0.25,0.178529085793984,0.249908234872724,0.119829208000814,0.249880772973519,0.0999983140895058,0.904993967720313,0.916563553725759,0.04,0.0418942611718504,431.814473033274,0.994159098324605,0.319150830755258
5142,-0.198555917361996,-0.25,0.25,0.25,0.249903019955275,0.25,0.249829682271246,0.249997585945393,0.914297537014366,0.916563553725759,0.04,0.0451423410719368,436.242044530934,1.02335436442028,0.31322480697633
5202,0.115433217563462,0.0992408881415821,0.130602953599797,0.249995075658588,0.249970905986582,-0.099986528032418,0.249948904681374,-0.0999991568794893,0.924221304476014,0.916563553725759,0.04,0.0504026271816882,441.054676691135,1.00171743615835,0.323520551648207
5262,0.249999989674372,0.248915554487974,0.0794327908568524,0.249992965226555,0.25,-0.249980754332026,0.25,-0.181045917951854,0.918510019445292,0.916563553725759,0.04,0.0570447413018979,438.181030647409,0.969881415519464,0.331962946846712
5322,-0.099801088347148,0.249674666346392,-0.151170162742944,-0.100002110228711,-0.1,0.0999634870046224,-0.0995517085994987,0.100000671275202,0.92907869036545,0.916563553725759,0.04,0.0305214262561049,443.389823173984,0.928602517432013,0.350841161731747
5382,-0.249715836070657,0.25,-0.25,-0.249999999709539,-0.25,0.249939590434615,-0.157718533080968,0.249999999370558,0.91672062586867,0.904911379070523,0.04,0.0261964727286682,437.184145572932,0.841856734803796,0.381575858174754
5442,0.100083234326931,0.25,0.0963672448536437,0.0967290677562278,0.099829702407298,0.249960538125906,0.100192079897412,0.248454539777362,0.868239262613812,0.888265415277328,0.04,0.0688219461511022,413.944713414166,0.873576254625559,0.348173887147414
5502,0.249997121640183,0.25,0.24481034979092,0.245327239527271,0.249756717724712,0.249969515707889,0.24999993573069,0.247792199951706,0.865434089158241,0.871619451484134,0.04,0.0750568886641157,412.907030202729,0.963438657815286,0.314907413787786
5562,0.245465169664952,-0.0494847707930979,0.138166519610386,-0.101401828141819,-0.100069824426824,-0.00236036466960638,-0.0472907264536427,0.24930551750007,0.883550608010856,0.854973487690939,0.04,0.0420043849192345,421.659757252493,0.877696058705812,0.352998355791731
5622,0.243522904532711,-0.177835386847283,0.0924620209615853,-0.25,-0.249995485348911,-0.110501741974247,-0.0442564015766354,0.249954082163654,0.853778980225229,0.838327523897744,0.04,0.0370056865942691,407.079735058042,0.731463125656475,0.408923173006089
5682,0.247129098064836,-0.127782714195306,-0.147261393711524,-0.25,-0.249998645604673,0.141849430646962,0.122589696925921,-0.0385554827402294,0.832542738353147,0.821681560104549,0.04,0.0335052583350408,396.768604029093,0.656012196015882,0.44440615194528
5742,0.248674609578605,-0.106331568773031,-0.25,-0.25,-0.25,0.249999933198909,0.25,-0.0452964597979556,0.808756197005004,0.805035596311354,0.04,0.0288754533510624,385.725898518604,0.639731462302662,0.443032682812949
5802,-0.100375710993681,0.143100528499802,-0.249760015499974,0.0774986535944529,-0.249999971679957,-0.100000020040327,-0.0691708989537492,-0.0691708989537492,0.80183217606921,0.78838963251816,0.04,0.00897439478185742,382.444400534001,0.584834431338674,0.480496302186736
5862,-0.24996870552466,0.249999998759588,-0.249657164999962,0.217855219420647,-0.249999959542795,-0.25,-0.125197245388366,-0.125197245388366,0.778078043310663,0.797411673771177,0.04,4.06134354076312e-09,370.964893998397,0.610546808787446,0.446445575329026
5922,-0.249990611657398,0.249999999627876,0.100074388387832,0.00265759700900605,-0.249999987862839,-0.249967528476808,-0.206390334010475,-0.206390334010475,0.78469440627947,0.817434288615429,0.04,5.4273972418058e-10,374.674843922498,0.820851692835674,0.335385678175642
5982,-0.25,0.25,0.249959339839744,-0.0895699554531258,-0.25,-0.249953612109726,-0.249742925004188,-0.225913518290375,0.833324851938763,0.837456903459681,0.04,2.63222385347157e-06,397.999891659287,0.913263344790684,0.32021494931578
6042,-0.249999486294411,-0.1,-0.10000479034537,-0.201870982366794,-0.249999291599506,-0.219091708871317,-0.0396993901966248,-0.242774055487112,0.866581484241137,0.857479518303932,0.04,1.17751575284994e-05,413.576170426214,0.863556588314675,0.351900093219921
6102,-0.249999266134873,-0.25,-0.249989417567561,-0.249999993901223,-0.249998987999294,-0.205865178911999,0.050319267578045,-0.25,0.880955246279306,0.877502133148184,0.04,2.36000017195276e-05,420.422317887617,0.833200697292026,0.370758241639135
6162,0.0999789130603226,0.0999975743229468,0.100001946668224,0.0999985270862929,-0.249999696399788,0.113226554238287,0.190095780273414,0.0999831445144721,0.838229243637433,0.897524747992435,0.04,0.0397427892160693,399.674380963072,1.00425518787574,0.292426619201353
6222,0.249969561286835,0.249996534747067,0.249998245626417,0.2499978932238,-0.25,0.249980154159838,0.25,0.24997592073496,0.892190686047425,0.917547362836687,0.04,0.0476002697395054,426.090564746313,1.26831499362859,0.246847917151719
6282,-0.100000938887575,0.249998952019029,0.128092256818962,0.249999291734296,0.0999999916972042,-0.0999895055038797,-0.0999994601374212,-0.0867741234531981,0.953710568078861,0.937569977680939,0.04,0.0395584019886543,455.423588483288,1.26353254442784,0.264840113212923
6342,-0.249988296105179,0.249999987992728,0.0758468330443379,0.249999891095937,0.249999988138863,-0.249976502502616,-0.249999228767745,-0.231095570962409,0.966756186866096,0.95759259252519,0.04,0.0458666185749506,461.278355482005,1.16414295443777,0.291146409694397
6402,0.100001595672574,0.249999996397818,0.197687006690417,0.249999655928193,-0.100000003558341,-0.249991701432339,0.100000231369677,-0.0422573930783839,0.964966970748252,0.977615207369442,0.04,0.0572075508840332,460.426517498214,1.19151982115629,0.283931602189715
6462,0.249997263577325,0.25,0.249904223967307,0.249999555142017,-0.25,-0.249998215259362,0.25,0.0386732545861983,0.978155464009424,0.97374824140913,0.04,0.0616905190498305,466.69354065713,1.2199319518778,0.281093536822039
6522,0.249999164372241,0.249826781773154,-0.100023547181651,0.249971459919302,-0.25,0.100000532582682,-0.0999892315062114,0.186601172307828,0.973691318086762,0.959642883675434,0.04,0.0659401433786396,464.471408158657,1.1499451458032,0.296781302767733
6582,0.249999978998634,0.24975254539022,-0.249992591959776,0.249959419109568,-0.25,0.249999995943558,-0.249984616437445,0.249998851331383,0.9583093403878,0.945537525941738,0.04,0.0699617658773535,457.073961836132,1.06520844657294,0.315287357255301
6642,0.24999999369959,0.248198528123887,-0.249997078899743,-0.100001131099082,-0.101153557322056,0.249972654061896,0.100004615068767,-0.0999998593010305,0.945041742744572,0.931432168208042,0.04,0.0674560180429862,450.775687588596,0.987418901698486,0.335439131018935
6702,0.25,0.247532520724031,-0.249999001874014,-0.249984224045646,-0.0373622247457946,0.249960936112612,0.25,-0.249999306714922,0.927965389771882,0.917326810474346,0.04,0.0651682688656116,442.593706372851,0.913724782789452,0.355913536543154
6762,-0.0995857434441919,0.249259756165679,-0.211441054176511,-0.249995107114453,-0.186208667423738,0.249988280833784,0.249930781584932,-0.242008345865402,0.917678384758863,0.90322145274065,0.04,0.0508529254522797,437.744572445592,0.840900979579583,0.382499249968962
6822,-0.249408204920274,0.249999999926386,-0.194916219449009,-0.249999771286798,-0.25,0.25,0.249901116549903,-0.238583648358464,0.897836045165016,0.889116095006955,0.04,0.0407872066296964,428.187455777626,0.766448588399456,0.410492841164388
6882,0.100171354047058,0.249999999977916,0.116525134165297,-0.249999931386039,0.1,-0.0924914814175145,0.249970334964971,0.103424905492461,0.860161883936324,0.875010737273259,0.04,0.0599429731487767,410.18567278035,0.795304221391729,0.37896742047312
6942,0.249991165033058,0.25,0.25,-0.25,0.25,-0.239273544882164,0.25,0.25,0.858291524154786,0.860905379539563,0.04,0.0620752762653729,409.47894643186,0.850031064334056,0.353957774814635
7002,0.169482842951091,0.25,-0.1,0.0269815673133535,-0.1,-0.246781301788933,0.249999999163332,0.249973623534241,0.856739450913087,0.846800021805867,0.04,0.0506799662417138,408.723699563362,0.817242209404039,0.367480000043903
7062,0.134979276344533,0.25,-0.25,0.145687953304791,-0.25,-0.249998911891834,0.249999998804761,0.249962319334629,0.840379062738081,0.832694664072171,0.04,0.0488603946838475,400.79203356316,0.754210507017835,0.39046416143951
7122,0.215474502550379,0.25,0.0999999925788453,-0.131275362758875,0.0999928167628791,0.100000326432448,0.249999997799321,0.249276816087191,0.811860818304427,0.818589306338475,0.04,0.0713696624008829,387.145454703674,0.757115470415338,0.37572208238695
7182,0.249972456638599,0.25,0.249999989398351,-0.24997392678616,0.249989738232684,0.249999999999998,0.249999997368418,0.248983028981146,0.802198778892513,0.804483948604779,0.04,0.0730447206354414,382.667691241087,0.790968570854565,0.355481697446456
7242,0.249987905229391,0.25,0.248640251875009,-0.249992178035848,0.249984335466409,0.249999999999999,0.249999999210526,0.249694908694344,0.791100983462961,0.790378590871083,0.04,0.0729260378459472,377.330433311644,0.789505586667681,0.351173149915985
7302,0.249994526054017,0.25,0.248057507222149,-0.25,0.249982019995148,0.25,0.25,0.25,0.777518087198806,0.776273233137387,0.04,0.0740197375573224,370.843560610939,0.78201417028005,0.348442239115032
7362,-0.0999684064368552,0.24999994625529,-0.100575852707785,-0.249922450237866,-0.0389293741869862,0.249999861202473,0.249996638136631,-0.00438197508703017,0.781990072563136,0.762167875403691,0.04,0.0442029499552967,372.981844372265,0.714028303870771,0.383819416653296
7422,-0.249952520361514,0.249999923221843,-0.249990149820614,-0.249889214625523,-0.162748543122187,0.249999801717818,0.249995197338044,-0.00859124530267064,0.757163957300143,0.748062517669995,0.04,0.0326916758406668,361.033202415498,0.616645923154016,0.430195591259942
7482,-0.249975394655216,0.249999862062016,0.0993684821861341,-0.249957278894319,0.12611994303206,-0.0768938385842375,0.249998544621416,-0.0207186944742975,0.730759311212347,0.733957159936299,0.04,0.0370410251213414,348.490339933306,0.608651495257961,0.420704083132765
7542,-0.249985197923945,0.249999835850662,0.249093610189026,-0.249986449295232,0.249920722812452,-0.216991112999404,0.249999979171432,-0.0302212064591956,0.719205239753201,0.719851802202603,0.04,0.0354617451610532,343.046712876338,0.622486660134172,0.404928075610808
7602,0.1000031007557,-0.0999602001602194,0.249728078641535,-0.030500298151517,-0.0993295726360158,-0.2400973336576,-0.0465072546699766,-0.0465072546699766,0.718497093007481,0.705746444468907,0.04,0.0184151973042976,342.596893219596,0.576198507596727,0.436883826654118
7662,0.249998085904119,-0.249943072736312,0.24999999369261,0.0635651951957894,-0.249008270685359,-0.24999999965397,-0.0830630009872502,-0.0830630009872502,0.695081849401558,0.691641086735211,0.04,0.0168433886100586,331.488275020276,0.543263011628851,0.448345392619754
7722,-0.099995766324815,-0.249982414450597,-0.0999992534832485,0.0905545012435882,-0.248811257235231,0.0994916726205075,-0.113906273820785,-0.136263524641746,0.68524444858125,0.677535729001515,0.04,0.000597496210901596,326.881961200329,0.517348756502666,0.464261020467944
7782,-0.249993131565787,-0.24999927518529,-0.249998930844331,0.102121346692645,-0.248726822899461,0.249273817880998,-0.0563232497620893,-0.213877394086567,0.670549494614838,0.663430371267819,0.04,0.000109100033761508,319.735798965229,0.463959154210383,0.506367930145977
7842,-0.249968341318507,-0.249999673273092,-0.24997565554411,-0.144335120287682,-0.249618021412691,-0.100217773511665,0.158089934660506,-0.249998596442406,0.644448736790289,0.649325013534124,0.04,6.36573634620055e-07,307.290807054309,0.4673488949949,0.483128907884439
7902,-0.249957716926815,-0.24999984388215,-0.249965680415444,-0.249959320422108,-0.249999963632646,-0.24999988410852,0.249981299413046,-0.249997995801328,0.631642850202119,0.635219655800427,0.04,5.87550162854046e-07,301.316257715409,0.501622856813369,0.441367066234721
7962,-0.249987315078045,0.0246199387147946,0.099979860421211,-0.249582497100875,0.100000010910206,-0.249999927220963,-0.100005608558357,-0.249969089696815,0.622048435967158,0.621114298066732,0.04,0.0112588418560614,295.298945629967,0.494375898318259,0.438893635015514
8022,-0.25,0.142314131256342,0.249956520779778,-0.249421001391776,0.25,-0.249999945697724,-0.249999997688958,-0.24995670136631,0.598677324416634,0.607008940333036,0.04,0.0206442098273358,285.767170570916,0.61194551596848,0.34312649519064
8082,0.0999999999999999,-0.132293640517808,-0.095967524864506,0.100173699582467,-0.00117412731452862,-0.249952296391689,-0.249999544534758,-0.249986437808673,0.595249646804496,0.59290358259934,0.04,0.0278506919824377,283.872071241137,0.612394900496011,0.340600889043176
8142,0.25,-0.249982685563873,-0.244220687283485,0.25,-0.108820181877898,-0.249931875260531,-0.249999350325815,-0.249999181998257,0.580951054419126,0.578798224865644,0.04,0.0378807859491304,277.070235120976,0.596334709119932,0.341392881879423
8202,0.249999924314939,0.100005026817571,0.101733231244587,0.2499962691394,0.14235394489607,0.0975281189564504,0.100000194902255,0.0999862576115158,0.540964378400645,0.564692867131948,0.04,0.107901495928203,257.917109745536,0.672934967056064,0.281618858601156
8262,0.249999891878485,0.249999760695333,0.249999196328047,0.249994670199143,0.249999999227771,0.246439545049442,0.25,0.249980017444276,0.556126460944578,0.568613491100521,0.04,0.111455658617919,265.551546369757,0.78946218611553,0.247156580612509
8322,0.24927483558854,-0.100000006342896,0.249996024138826,0.249998244817549,0.249999818205933,0.248923299190823,0.191613310089852,-0.0999797574232617,0.588000941216677,0.580259535798638,0.04,0.0870638540267522,280.757328284215,0.788681057668583,0.261567852664876
8382,0.248964097178563,-0.249999906502136,0.24999466462916,0.249999776796866,0.249999740625145,0.249987765251415,0.166590442985503,-0.249962518080778,0.59696432616288,0.591905580496755,0.04,0.081378544054494,284.842009877399,0.73669586404495,0.284099510979999
8442,-0.100310770846431,-0.249999971950641,-0.0999660871126685,-0.10000006696094,-0.0999998790925696,0.24988696237081,0.224977132895651,-0.239859930015315,0.622375463471142,0.603551625194872,0.04,0.0336220335568643,297.237767608874,0.679307917597255,0.321508153134693
8502,-0.25,-0.25,-0.249949266430595,-0.25,-0.249999716114447,0.249843761136265,0.25,-0.207119544396953,0.626771947476875,0.615197669892989,0.04,0.0161257938862976,298.87203161971,0.548561622828223,0.400326676236838
8562,0.0139097549603911,-0.249929552264478,0.0999884384695148,0.0999997463636182,0.0872675021764226,0.249935845019454,-0.0618473400652358,-0.222560865701276,0.60648612542879,0.626843714591106,0.04,0.0352123483227637,289.30031370661,0.594650701503534,0.357471683248981
8622,0.127013935657702,-0.249899360377825,0.249961740569562,0.249999637662312,0.231810595729653,0.24997530954082,-0.195496200093194,-0.233454240216937,0.627376770814908,0.638489759289223,0.04,0.037179427937596,299.503136483874,0.696368079477582,0.316021911494085
8682,0.213050852850097,-0.233188984107378,-0.100011334361827,0.160774626530298,0.240796700812825,0.249992388320963,-0.0564578993670702,0.0996679789337839,0.637874838106246,0.65013580398734,0.04,0.0371279226794292,304.433919442836,0.760466404481156,0.294149207451618
8742,0.249923817361124,-0.226027394277187,-0.249999795046709,0.122535336045149,0.244647888705613,0.249999707798167,0.00312994380126858,0.249524680412509,0.657737017194657,0.661781848685457,0.04,0.0397427909475321,313.942255141066,0.804272642647301,0.286814533040762
8802,0.249437679472875,0.107178243925518,0.0999992120109176,0.211759944246434,0.248073465430468,-0.0991265813237247,-0.174061016859619,0.249822075992443,0.672214494761058,0.673427893383574,0.04,0.0575851107421685,320.862512745762,0.817330118935042,0.288453726134772
8862,0.249229334663625,0.249980660298105,0.249998786464186,0.249999062046984,0.24954156974112,-0.248752133804535,-0.220627715242084,0.249949531240985,0.683997973517043,0.685073938081691,0.04,0.0656032381935498,326.412679554005,0.817874004807052,0.29324815748927
8922,0.249762426360294,0.249991939951079,0.247429814137004,0.249999698574139,0.24977063247645,0.100374005302064,-0.172670565141839,-0.0778365696018527,0.697486965195744,0.696719982779808,0.04,0.0652635589819177,332.866165853161,0.819409424978592,0.298485593692437
8982,0.249990894230295,0.249996774088067,0.246328825996783,0.249999971371491,0.249868802220163,0.249999493490606,-0.114655235035642,-0.114655235035642,0.703868954342219,0.708366027477925,0.04,0.0646137203541512,335.897321675596,0.838483257394744,0.294351885500418
9042,0.249995266687313,-0.0866840009903482,-0.101098503635734,0.249980659848679,-0.100034021115171,0.249635502946391,0.100763916249552,0.109503864346549,0.719308260400232,0.720012072176042,0.04,0.0410070388525337,343.277098609321,0.848950658816553,0.297109855040242
9102,0.249997140597464,-0.230975761738241,-0.249995930621098,0.24997238348176,-0.249992373973172,0.24947950699887,0.248080822554983,0.249998232111895,0.734633489704566,0.731658116874159,0.04,0.0342705811847879,350.579787930422,0.835602035044567,0.30827766530735
9162,0.135390815504626,0.105707271478528,-0.249998779186329,0.24999087872366,0.0999762037896771,0.249843852099661,0.249424186704617,0.249999469633568,0.736096461548473,0.743304161572276,0.04,0.0510625533593614,351.2162386015,0.851133308482724,0.303201731488742
9222,0.0862738190362671,0.25,-0.25,0.249998805255903,0.249962737116612,0.25,0.249999914197318,0.25,0.750757849244182,0.754950206270393,0.04,0.0535600345814475,358.314292332252,0.89174870509247,0.295240763958572
9282,0.200880958907958,0.249999556522384,0.0999993398088093,0.249999471369532,0.249988821134984,-0.1,0.249999974259195,0.249999664117158,0.764809653441246,0.76659625096851,0.04,0.0589617818433811,364.996577976756,0.905980277477762,0.296022502364031
9342,0.249998304567254,0.249999366460548,0.249999056869727,0.249999756846801,0.25,-0.25,0.25,0.249999520167368,0.775523692983284,0.778242295666627,0.04,0.0608825192835021,370.086146411299,0.918793099921826,0.29596460740293
9402,0.249999491370176,0.249995919384274,0.249999399353608,0.24999486185944,0.249999641690345,0.0996513623525686,-0.00154508186344315,0.24999985605021,0.786108094001923,0.789888340364744,0.04,0.0626546761504504,375.024008268988,0.934024264974376,0.295022805540979
9462,0.25,0.249994442065871,0.249999546132414,0.249992764007714,0.249999488129065,0.249501946217955,-0.000729577712936118,0.25,0.795769701246038,0.801534385062861,0.04,0.0621865679603137,379.77616642991,0.97626973576427,0.28583312412248
9522,0.249999865952762,0.249998332619761,0.24999749458267,0.249996202556236,0.249999846438719,0.249802702368924,-0.000344362656284173,0.249999759896107,0.809250845474512,0.813180429760978,0.04,0.0610728092799124,386.195373502889,1.00340141427809,0.282804967891809
9582,0.249999808503946,0.25,0.249996615347065,0.249997676219889,0.25,0.249931597862196,-0.000162400811231069,0.249999656994439,0.821714078907894,0.824826474459095,0.04,0.06087915562996,392.13679123309,1.02403580089881,0.281369570059595
9642,0.249999942551184,0.249999976935704,0.24999898460412,0.249998227546151,0.249997320728303,0.249979260712926,-7.64485295546428e-05,0.249999840528137,0.833766410661678,0.836472519157212,0.04,0.0607494401072343,397.884871973466,1.04155704066358,0.28069135976353
9702,0.25,0.249999967051005,0.25,0.249998463828834,0.249996172469004,0.249999687648953,-3.58477391909402e-05,0.249999919185435,0.845636714187185,0.848118563855329,0.04,0.0605107971910477,403.547218280829,1.05742959347609,0.280412631983157
9762,0.25,-0.0999929142879921,0.249990604577614,-0.018391760493712,0.249998851711964,0.249999906285543,-2.35711391649036e-05,0.249999975755558,0.86461562224739,0.859764608553446,0.04,0.0469290388641899,412.685230879787,1.05158467131448,0.288356241428318
9822,0.25,-0.249989863433277,0.24998657796802,-0.133416142346232,0.249999999958947,0.24999999998694,-4.0587039216193e-05,0.249999999999897,0.876116779881616,0.871410653251563,0.04,0.0441796490122997,418.052911370722,1.01272622253655,0.303314989509836
9882,0.25,0.0989777346977207,-0.0999952436147387,0.100294044081354,0.249950768328908,-0.0997088431836661,-0.000220422951803381,-0.000220422951803381,0.895633751036992,0.88305669794968,0.04,0.0399442974765778,427.338403322982,0.955583388583206,0.32859277322601
9942,0.25,0.248535276753862,-0.249987452864493,0.200455552550319,0.249929669058892,-0.249584061685354,0.0664548404677089,-0.000182571226449888,0.896416248915157,0.894702742647797,0.04,0.0395902499906001,427.733593349349,0.928941945264326,0.338329185436104
10002,0.24870583915137,0.249554490741265,-0.24981994922169,-0.112936958319194,0.146732010507238,0.10010684294581,0.0747731699171764,-0.0030732099586696,0.904857111232078,0.906348787345914,0.04,0.0326125439975187,431.80744458587,0.934691477964902,0.339450551633299
10062,0.248151198787672,0.249991296735866,-0.249748161946203,-0.247248034406128,0.102504442556529,0.249974373502023,0.0783381682526625,-0.0157512236652912,0.917391192941772,0.917994832044031,0.04,0.0295122951841681,437.776867134395,0.939283527405764,0.342460730917321
10122,-0.100554640363698,-0.100002610318147,-0.249924448583861,-0.249174370565399,-0.144248667233041,-0.100007687585446,0.198501450475799,-0.0435518332837092,0.954439595310678,0.929640876742148,0.04,0.000243492422575524,455.581301544351,0.874900368547874,0.382614978624219
10182,-0.25,-0.249999999055582,-0.25,-0.249999943205087,-0.25,-0.249999999480076,0.25,-0.108239444540082,0.930884776938999,0.941286921440265,0.04,1.55950211510068e-07,444.138524998765,0.900562862274155,0.362375717946246
10242,-0.249999941082169,-0.249999987178044,-0.2499999983745,-0.249998955257012,-0.249999930023846,-0.248886719932628,0.249999975576873,0.130569999094618,0.96268660130348,0.952932966138382,0.04,2.0978156733846e-05,459.66752004594,0.916199017900811,0.368645275227552
10302,-0.249999915831669,-0.249999982087671,-0.249999997677858,-0.249998531850694,-0.249999900034066,-0.248409600126579,0.249999965109818,0.249655042787822,0.969239145219013,0.964579010836499,0.04,0.00419152210004065,461.922666036916,0.842527592212779,0.402846705927419
10362,-0.0289470879443408,0.0999974001422968,0.0999993835130547,0.100000440444792,0.0999994154153146,-0.169682802536106,0.249999912662104,0.249894837389102,0.921310106814253,0.976225055534616,0.04,0.0309213453163684,439.441233914781,1.03770217253453,0.311159278490089
10422,0.0657898382930858,0.249996278240854,0.24999911830916,0.25,0.249999122036478,-0.135942746425904,0.249999890184512,0.249997606503937,0.967357779452245,0.987871100232733,0.04,0.0397042692623573,461.854197336877,1.25975358796848,0.269385345906222
10482,-0.155263048512074,0.249996558759834,0.249998788912451,0.249999568960161,-0.0999982601504592,0.134217176072229,-0.100000032944646,0.249999281951181,1.00342221946917,0.991364913642168,0.04,0.0423553838615321,478.901138488655,1.25480724261863,0.280429391126229
10542,-0.25,0.249996678982254,0.249998647742433,0.2499993842288,-0.249997138230575,0.25,-0.25,0.25,1.00113613218709,0.991364913642168,0.04,0.0521022996519068,477.583070973663,1.17309579873493,0.299136990916366
10602,0.099959024279058,0.183973163417473,-0.0998165966209608,-0.0218495331685376,-0.249998592823883,-0.0988017241815039,0.1,0.25,0.9999529993878,0.991364913642168,0.04,0.049096482998814,477.086265726954,1.12346360604015,0.312027292271975
10662,0.249941463255797,0.155677371032567,-0.249737415633844,-0.138356212053111,-0.249999216221016,-0.248288177402149,0.25,0.25,0.999005292292497,0.991364913642168,0.04,0.0482783020001872,476.610591371545,1.07333641718591,0.326274025069562
10722,-0.100003777260837,-0.128132986993886,0.100078775309847,-0.216459025515048,0.0179840333814709,0.100513546779355,0.249986755550032,0.25,0.991031620969685,0.991364913642168,0.04,0.0508900898571546,472.794882924647,1.05644290284091,0.328837557631137
10782,-0.249980308910822,-0.249765997576652,0.25,-0.249931659855878,0.132833997496822,0.25,0.249981079357189,0.25,0.994252575072347,0.991364913642168,0.04,0.0499705957299934,474.355350660523,1.04279345186729,0.334241356050205
10842,0.100005720635843,0.100070200727005,0.249998865177747,-0.249979497956763,0.214843592290986,0.249767135875458,0.249994323807157,-0.0999598595640009,0.990471022085581,0.991364913642168,0.04,0.0596791923870255,472.567731573554,1.03792592203012,0.334543334284045
10902,0.2499997332987,0.25,0.249998378825353,-0.25,0.249990561488484,0.24966733696494,0.25,-0.249942656520001,0.9897917221928,0.991364913642168,0.04,0.0617464058918456,472.231837128452,1.04524022291426,0.331966168230901
10962,0.249999919579228,0.249999228142605,-0.048443391581529,-0.178833227269069,0.249997168425086,-0.0918410198021596,0.25,-0.249982729371911,0.99985426704135,0.991364913642168,0.04,0.0470985397520132,477.111696258516,1.02282231363166,0.342747697247647
11022,0.24999999941374,0.249998897346578,-0.176347007470193,-0.148333181812956,0.249999999969344,-0.238201744130917,0.25,-0.229021882246586,0.995763775760677,0.991364913642168,0.04,0.042949905334383,475.031582023729,0.976960604436612,0.357272927993193
11082,0.0718897888325481,0.249999669203973,0.122095897758942,-0.219496555503165,-0.0999881645062345,0.103530164588299,-0.1,-0.213450250096319,1.00083075389907,0.991364913642168,0.04,0.035169208947963,477.537253723157,0.938539027970954,0.373860512391164
11142,-0.00444315855939124,0.25,0.25,-0.249995144227541,-0.249983092138625,0.249986696896534,-0.21369398299692,-0.21369398299692,0.993329736317528,0.991364913642168,0.04,0.0313699888699564,473.873386766877,0.90566783202783,0.384457247845776
11202,-0.176299053650675,0.19310045496958,-0.0999999999999999,-0.249970318711107,-0.249991534326245,-0.100003985667303,0.1,-0.231544523963303,1.00012115136227,0.991364913642168,0.04,0.00892487949682553,477.426063081499,0.881108260174337,0.398136072025751
11262,-0.249951580118368,0.168714935670829,-0.25,-0.249959679204064,-0.249995152406653,-0.249999992480376,0.25,-0.25,0.996583622137329,0.991364913642168,0.04,0.00510729059406354,475.38064539436,0.81166742333065,0.430346283291648
11322,-0.249985474035511,-0.124329384985342,0.0999906353975546,0.100011181931224,-0.246155652175492,0.100000002255887,0.249999174598203,-0.249962755528278,0.970456906741498,0.991364913642168,0.04,0.0202549192335275,462.862353088542,0.87942680202529,0.386729086981026
11382,-0.25,-0.249919808123701,0.249986621996507,0.249998693846348,-0.244510152076423,0.25,0.249998820854575,-0.249946793611825,0.981962489079095,0.991364913642168,0.04,0.0248066794757848,468.553238401654,0.971824350430036,0.354263038637155
11442,-0.249982076472676,-0.249972745219579,-0.100004013400923,-0.0999997258359921,-0.248336908738187,-0.0999059652573488,-0.0993152855950383,-0.0398482173619331,1.01856758284599,0.991364913642168,0.04,0.00714903006429956,486.23653960336,0.907093776853132,0.393867440481286
11502,-0.249974394960966,-0.249995432546384,-0.249999999999821,-0.249999048556995,-0.249976947307515,-0.249865664653356,-0.249021331216301,0.0501940296023064,0.999438855280477,0.991364913642168,0.04,0.00486424734593461,476.74032323963,0.789067144726196,0.443938287420171
11562,0.10000768151171,0.100001370236085,0.0999863224295857,0.0642617808717608,0.100006915807746,0.100040258332236,0.100293598849755,-0.0208320033193036,0.921859058010027,0.979129931157847,0.04,0.0471456770218023,439.673971073727,0.986587743684974,0.327453559936577
11622,0.25,0.25,0.249980460613617,0.198944993484085,0.25,0.249999939611776,0.249999997449493,-0.0512717317142792,0.947077781625257,0.961651384751674,0.04,0.06161088163274,451.978848235964,1.17997874019983,0.281448283777024
11682,0.25,0.249497437674565,0.24998179784412,0.234683479464311,0.158170129679087,-0.0633081452169769,0.249999912724855,-0.0646373819488134,0.954072248272271,0.944172838345501,0.04,0.0681691259078198,455.163459756145,1.16249199837232,0.287694854126402
11742,0.25,0.249282053820808,0.249982370942907,0.249999973455837,0.118814470970125,-0.197583038715014,0.249999876414296,-0.0703655177636138,0.938039017942903,0.926694291939328,0.04,0.0773428958941677,447.379063087354,1.08621156288218,0.302632740297335
11802,0.249992031576161,0.249784616146242,0.249994711282872,0.249999991965454,0.210644341291037,0.115720129000246,0.249998995748558,-0.19610928929667,0.91519315540964,0.909215745533155,0.04,0.0855932174304876,436.456520100233,1.03578778808538,0.309617055105251
11862,0.249988616537373,0.25,0.25,0.249999999898148,0.25,0.249992915163929,0.249998618320384,-0.249999477096551,0.904455085197076,0.903972181611303,0.04,0.0823150165554204,431.502026317987,1.02408841573418,0.309599365704693
11922,-0.100003365734677,-0.0999998252141934,-0.0999778533076371,0.249999999969444,-0.0998422754882229,-0.100002125450821,-0.0999942678400041,-0.249999167343443,0.937328020035212,0.903972181611303,0.04,0.0317878594526312,447.52607224416,0.923366197076887,0.356122198958209
11982,-0.249999929565556,-0.249999750305991,-0.249968361868053,0.25,-0.24977467926889,-0.25,-0.249991219051599,-0.249999034592111,0.920879644719315,0.903972181611303,0.04,0.00942098303772693,439.144099933067,0.735369758436194,0.438789233330671
12042,-0.24999996346675,-0.249999925091797,0.0994670435731794,-0.0999519173157091,-0.24989338925015,-0.25,-0.249997299863889,-0.249920915800565,0.901160127817327,0.903972181611303,0.04,1.71727286944397e-05,429.660888008285,0.704771537249821,0.447952682393629
12102,-0.249999977995833,-0.25,0.249225074476565,-0.249931310451013,-0.249944264956404,-0.25,-0.2499999059263,-0.249887436318474,0.890953581110141,0.903972181611303,0.04,2.89486124658351e-06,425.132390342065,0.78491050012228,0.397977694691032
