time,bias_percent_1,bias_percent_2,bias_percent_3,bias_percent_4,bias_percent_5,bias_percent_6,bias_percent_8,bias_percent_9,normalized_power,power_SP,SP,CV,total_power_MW,fuel_fraction,thermal_efficiency
2,0,0,0,0,0,0,0,0,1.00591532894638,1,0.04,0.0415824002451904,479.848782055956,0.991787018211258,0.35550085839512
62,0.000885576799300907,-0.000549188143056085,-0.000233726155743739,-0.000351266781495497,-0.000228810835338095,-0.00105136154284833,-0.000229421576790628,0.000712155924457591,0.999874442467112,0.999037666584785,0.04,0.0399364615892239,477.039513627283,0.999035964454035,0.350855191536796
122,0.027452880778328,-0.0170248324347368,-0.0072455108280559,-0.0108892702263593,-0.00709313589548185,-0.0325922078282997,-0.00711206888051026,0.0220768336581837,0.979458219871719,0.970167664128349,0.04,0.0470624321269347,467.085693418644,0.949846156581929,0.361324967106436
182,0.0540201847573552,-0.0335004767264176,-0.0142572955003678,-0.0214272736712229,-0.0139574609556255,-0.0641330541137511,-0.0139947161842298,0.04344151139191,0.951023774082287,0.941297661671912,0.04,0.0525191162261201,453.500654598577,0.889798994430075,0.374490395542663
242,0.0805874887363826,-0.0499761210180982,-0.0212690801726799,-0.0319652771160866,-0.020821786015769,-0.0956739003992024,-0.0208773634879494,0.0648061891256361,0.921547088929645,0.912427659215475,0.04,0.0546910139484788,439.434869960183,0.832272019084255,0.387957273357199
302,0.10715479271541,-0.066451765309779,-0.0282808648449919,-0.0425032805609503,-0.0276861110759127,-0.127214746684654,-0.027760010791669,0.0861708668593623,0.892101285931082,0.883557656759038,0.04,0.054601391401194,425.387807093122,0.778481342373084,0.401505506091687
362,0.133722096694437,-0.0829274096014598,-0.035292649517304,-0.053041284005814,-0.0345504361360562,-0.158755592970105,-0.0346426580953886,0.107535544593089,0.862683731960498,0.854687654302602,0.04,0.0532078690249352,411.352228961949,0.727908156053463,0.415233080820155
422,0.160289400673464,-0.0994030538931405,-0.0423044341896161,-0.0635792874506778,-0.0414147611961999,-0.190296439255556,-0.0415253053991082,0.128900222326815,0.833407468716373,0.825817651846165,0.04,0.0508923019485401,397.37425479394,0.680901140098167,0.428815368074731
482,0.186856704652491,-0.115878698184821,-0.0493162188619281,-0.0741172908955414,-0.0482790862563436,-0.221837285541008,-0.0484079527028278,0.150264900060541,0.80357821359612,0.796947649389728,0.04,0.0479604430914241,383.340584387977,0.638185649434406,0.441359463116825
542,0.213424008631518,-0.132354342476502,-0.0563280035342401,-0.0846552943404053,-0.0551434113164871,-0.253378131826459,-0.0552906000065474,0.171629577794267,0.773952136072679,0.768077646933291,0.04,0.0448691086560298,369.204875372296,0.598942861182612,0.452935864675028
602,0.239991312610546,-0.148829986768183,-0.0633397882065522,-0.0951932977852688,-0.0620077363766308,-0.28491897811191,-0.062173247310267,0.192994255527993,0.744826403719403,0.739207644476854,0.04,0.0415971994132152,355.268425707517,0.563090182560987,0.463589223920073
