time,bias_percent_1,bias_percent_2,bias_percent_3,bias_percent_4,bias_percent_5,bias_percent_6,bias_percent_8,bias_percent_9,normalized_power,power_SP,SP,CV,total_power_MW,fuel_fraction,thermal_efficiency
0,0,0,0,0,0,0,0,0,1,1,0.04,0.0399999999999017,483.535990330301,1,0.355290406680714
60,0,0,0,0,0,0,0,0,0.99986730802323,1,0.04,0.0399011181501902,477.038933856421,1.00008254853725,0.350487596420825
120,0,0,0,0,0,0,0,0,0.999984894258656,1,0.04,0.0399155104488784,477.093053993773,1.00029667773106,0.350452323410914
180,0,0,0,0,0,0,0,0,0.99999908342514,1,0.04,0.039954736740038,477.099600558273,1.00031802537084,0.350449653185462
240,0,0,0,0,0,0,0,0,1.00000184307271,1,0.04,0.0399806160219785,477.10089274675,1.00031117922769,0.350453000840687
300,0,0,0,0,0,0,0,0,1.00000313894009,1,0.04,0.0399958181857298,477.101505240222,1.00029464494165,0.350459243536674
360,0,0,0,0,0,0,0,0,1.00000381719483,1,0.04,0.0400042737070849,477.101824380023,1.00027285304014,0.350467113058885
420,0,0,0,0,0,0,0,0,1.00000398918062,1,0.04,0.0400084759183764,477.101902902124,1.00024904750664,0.350475511719935
480,0,0,0,0,0,0,0,0,1.00000378784248,1,0.04,0.0400099965152643,477.101804465931,1.00022575808852,0.350483599936185
540,0,0,0,0,0,0,0,0,1.00000335636592,1,0.04,0.0400098824821963,477.1015973415,1.0002046529586,0.350490843265764
600,0,0,0,0,0,0,0,0,1.00000281522427,1,0.04,0.0400088506664817,477.101338670909,1.00018662127039,0.350496971998804
660,0,0,0,0,0,0,0,0,1.00000225129496,1,0.04,0.0400073868793372,477.101069695228,1.00017196198299,0.350501911548488
720,0,0,0,0,0,0,0,0,1.00000172081552,1,0.04,0.0400058096894572,477.100817000943,1.00016057578915,0.350505716146694
780,-0.25,-0.168399104337613,-0.25,0.25,0.248003865453381,-0.249976938930629,0.152723604514546,0.25,0.999907196154653,1,0.04,0.0361700486248316,477.100299993768,1.00940613874971,0.347294914838413
840,-0.25,-0.168399104337613,-0.25,0.25,0.248003865453381,-0.249976938930629,0.152723604514546,0.25,1.00030762119916,1,0.04,0.0366098139492898,477.242839951628,1.00321140189532,0.349543828153277
900,-0.249682718756718,0.249824460570391,-0.249991531351605,-0.25,-0.249999805630706,-0.25,0.0792151244028541,0.25,1.01313702942466,1,0.04,0.0287362983391246,483.425174105762,0.943179191339461,0.376608161941871
960,-0.249682718756718,0.249824460570391,-0.249991531351605,-0.25,-0.249999805630706,-0.25,0.0792151244028542,0.25,1.00254644065971,1,0.04,0.0294550278264043,478.291933006385,0.9164613893494,0.383471912554194
1020,-0.249968071180004,0.248363860963656,-0.249998513380458,-0.249995943542482,-0.25,-0.249983079496995,0.25,0.045643809725156,1.0014084771107,1,0.04,0.0272498613077338,477.761444864572,0.905379638389822,0.387735041934684
1080,-0.249968071180004,0.248363860963656,-0.249998513380458,-0.249995943542482,-0.25,-0.249983079496995,0.25,0.045643809725156,0.987220620043902,0.984455426756414,0.04,0.0292630976478893,470.877746797783,0.887465936620886,0.389862218912823
1140,-0.249986009102851,-0.249999995640473,-0.24999743689035,-0.25,-0.25,-0.25,0.249848215666533,0.25,0.980194202426147,0.968910853512828,0.04,0.0260647766432146,467.560207461833,0.833441756929988,0.412208519344461
1200,-0.249986009102851,-0.249999995640473,-0.24999743689035,-0.25,-0.25,-0.25,0.249848215666533,0.25,0.957025890358961,0.953366280269243,0.04,0.026677527649087,456.438171343865,0.798512661899295,0.420005353404697
1260,0.25,-0.249996706957908,-0.24983568038544,-0.25,0.249847665748956,-0.25,0.249986073289024,0.249992658216,0.915950838757429,0.937821707025657,0.04,0.0409191445830926,436.82364513892,0.895338541017878,0.358487102304038
1320,0.25,-0.249996706957908,-0.24983568038544,-0.25,0.249847665748956,-0.25,0.249986073289024,0.249992658215999,0.91913668567119,0.922277133782071,0.04,0.0417998325002871,438.444687526208,0.939424875860476,0.342931542143504
1380,-0.25,0.249860674610957,0.249815488004597,0.0384213246561592,-0.249999103713448,-0.0905357430557937,-0.155162030406184,-0.25,0.919032843771365,0.906732560538485,0.04,0.0437322838602053,438.501698487239,0.902033727249654,0.357193197916782
1440,-0.25,0.249860674610957,0.249815488004597,0.0384213246561593,-0.249999103713448,-0.0905357430557936,-0.155162030406184,-0.25,0.896979302230345,0.8911879872949,0.04,0.0512482535409477,427.803586939474,0.854895000051043,0.367693811773638
1500,-0.25,0.25,0.24999743153059,0.249991761975516,0.25,-0.249998347792921,-0.249936494940491,0.249494012572661,0.865764539074604,0.875643414051314,0.04,0.0691528813924968,412.905261155355,0.894880379238143,0.339031543502366
1560,-0.25,0.25,0.249997431530589,0.249991761975516,0.25,-0.249998347792921,-0.249936494940491,0.249494012572661,0.862825413859835,0.860098840807728,0.04,0.067414306078788,411.573444001937,0.896984558301039,0.337145257171533
1620,-0.249718645403935,-0.25,0.25,0.249994956442072,0.249926877561378,-0.249981793186375,-0.249999993094933,0.249174008766995,0.855150075484237,0.844554267564142,0.04,0.0561509228669184,407.904705019848,0.847491042970938,0.353653755394136
1680,-0.249718645403935,-0.25,0.25,0.249994956442072,0.249926877561378,-0.249981793186375,-0.249999993094933,0.249174008766995,0.835879176729214,0.829009694320557,0.04,0.0578106394760222,398.654642393297,0.79680203082263,0.367621641438295
1740,0.25,-0.25,0.25,0.249991912112742,0.25,0.249896515500066,0.249999834489516,0.249999999995345,0.798018884549032,0.813465121076971,0.04,0.0854547177111692,380.559246546024,0.853957865145722,0.327446620107196
1800,0.25,-0.25,0.25,0.249991912112742,0.25,0.249896515500066,0.249999834489516,0.249999999995345,0.799358282411485,0.797920547833385,0.04,0.0802315087838825,381.312563558305,0.872680103516509,0.321055945269237
1860,0.249840923716991,-0.249966124713127,0.249946032551883,-0.25,-0.25,0.249985570570955,0.249992478791803,0.249999427196303,0.799399162689206,0.782375974589799,0.04,0.0620286433758255,381.34093142473,0.796455505920355,0.351808704294213
1920,0.249840923716992,-0.249966124713127,0.249946032551883,-0.25,-0.25,0.249985570570955,0.249992478791803,0.249999427196303,0.775863275292109,0.766831401346214,0.04,0.0650260939449533,370.010087906808,0.72736334004235,0.373780665327717
1980,0.249829474851332,0.25,0.249999806891907,-0.249999876770449,0.249996116752162,0.249375963647249,0.25,0.0233234291314686,0.75486167470999,0.751286828102628,0.04,0.0826043645807214,359.985207459966,0.6976227876772,0.379156646181271
2040,0.249829474851332,0.25,0.249999806891907,-0.249999876770449,0.249996116752162,0.249375963647249,0.25,0.0233234291314686,0.73637033084023,0.735742254859042,0.04,0.0782987975382894,351.191351463056,0.689985601139904,0.373988683203542
2100,0.25,0.24661563106787,0.25,0.24999999270026,0.249999907290597,0.249944338430194,-0.0144786289283111,-0.0144786289283111,0.718807337988285,0.720197681615456,0.04,0.082972662296092,342.71246560139,0.670309188452382,0.375672500102658
2160,0.25,0.24661563106787,0.25,0.24999999270026,0.249999907290597,0.249944338430194,-0.00683892376852149,-0.00683892376852149,0.702217021512671,0.704653108371871,0.04,0.0780977065528428,334.913401885845,0.686222140300072,0.358610066845251
2220,-0.25,0.249890846399096,0.249782903728365,0.249982058901981,-0.25,-0.249996108506088,0.249060357821858,0.049771332355314,0.694787048226225,0.689108535128285,0.04,0.0444315492236375,331.18833308176,0.645648452985192,0.376906468414536
2280,-0.25,0.249890846399096,0.249782903728365,0.249982058901981,-0.25,-0.249996108506088,0.249060357821858,0.049771332355314,0.677837331353798,0.673563961884699,0.04,0.0421421612814858,323.257710147142,0.613975171856728,0.386859048349836
2340,-0.249972527534848,0.246538949830918,0.070462146030095,-0.25,-0.247945591861036,-0.249999512201737,-0.0134254597680538,0.246235075688684,0.672382699984955,0.658019388641113,0.04,0.0108965323759864,320.813267882334,0.548643090160534,0.429652243136957
2400,-0.249972527534848,0.246538949830918,0.070462146030095,-0.25,-0.247945591861036,-0.249999512201737,-0.0573313678959508,0.246235075688684,0.661655555991152,0.658019388641113,0.04,0.00755168430281096,315.639273291169,0.515337785149756,0.450042703073742
2460,-0.249999857072182,0.249999581827077,0.249591839427223,-0.249969319981137,-0.25,0.249915492418418,-0.11423950410659,0.241675718096197,0.64307800465678,0.658019388641113,0.04,0.0243225976531138,306.780932742721,0.588830901221579,0.382818085144608
2520,-0.249999857072182,0.249999581827077,0.249591839427223,-0.249969319981137,-0.25,0.249915492418418,-0.165810414686359,0.241675718096197,0.65342263892975,0.658019388641113,0.04,0.0230426344063612,311.775408512438,0.628375153385268,0.364567146481012
2580,0.25,0.25,-0.249998761221494,0.249999870932643,0.249999854699532,-0.249999850523799,0.25,-0.206651232750291,0.652275742345618,0.658019388641113,0.04,0.0459424013773796,311.102712382202,0.660831244107947,0.345913813823631
2640,0.25,0.25,-0.249998761221494,0.249999870932643,0.249999854699533,-0.249999850523799,0.25,-0.218085265474695,0.656251036794148,0.658019388641113,0.04,0.0500402091864781,313.12398146486,0.683966133043146,0.336384835243545
2700,0.249997594770396,-0.249999830684264,0.249998621953568,0.25,0.25,0.2499999621458,0.249999204671415,-0.203124924703353,0.649022693940843,0.658019388641113,0.04,0.0636300558872095,309.614743705897,0.724069592821925,0.314192634585038
2760,0.249997594770396,-0.249999830684264,0.249998621953568,0.25,0.25,0.2499999621458,0.249999204671415,-0.1660260412421,0.655708383892559,0.658019388641113,0.04,0.0619145572845864,312.866260138631,0.749090047165489,0.306887627896484
2820,-0.249999915648078,-0.25,0.25,0.25,-0.249999751168505,0.249999959085331,0.25,-0.12816398697644,0.671070111284869,0.658019388641113,0.04,0.0385584961927224,320.231258322051,0.700121263858758,0.336081904865131
2880,-0.249999915648078,-0.25,0.25,0.25,-0.249999751168505,0.249999959085331,0.25,-0.109470617768258,0.661944099446806,0.658019388641113,0.04,0.040777644085586,315.772308232037,0.654558752270556,0.354470488458486
2940,-0.249999519809599,-0.25,0.194731628578505,-0.25,-0.25,0.249999995168517,0.249998444444482,0.249999959597096,0.661246275105247,0.658019388641113,0.04,0.0301060743151653,315.564803523496,0.637596374203681,0.363661558697652
3000,-0.249999519809599,-0.25,0.194731628578505,-0.25,-0.25,0.249999995168517,0.249998444444482,0.249999959597096,0.659897194198634,0.658019388641113,0.04,0.0293155140496976,314.819128352064,0.619714601506882,0.373270836029573
3060,-0.25,0.249999999595175,-0.24999945305165,-0.249999990328694,-0.24999999995468,0.249999826626424,0.249998605771747,0.24999970366405,0.656637187737478,0.658019388641113,0.04,0.0283887535751743,313.289132383805,0.621358490658628,0.370474029546974
3120,-0.25,0.249999999595175,-0.24999945305165,-0.249999990328694,-0.24999999995468,0.249999826626424,0.249998605771747,0.24999970366405,0.656729371674058,0.658019388641113,0.04,0.0280716933004559,313.32395251433,0.629640487167807,0.365641621685514
3180,0.249955431149327,0.25,-0.249750745039531,-0.249957418970445,-0.248938128233351,-0.249989580936432,-0.207188998385726,-0.207188998385726,0.658358648833025,0.658019388641113,0.04,3.65169349320657e-08,314.014943983771,0.575652178550045,0.400815806866914
3240,0.249955431149327,0.25,-0.249750745039532,-0.249957418970446,-0.248938128233351,-0.249989580936432,-0.25,-0.249853917546848,0.662049421372873,0.678466549850057,0.04,8.56800061401302e-07,316.091305979838,0.661308875898545,0.351206767127103
3300,-0.249861712358461,-0.0155864022958729,-0.24401320014665,-0.248884756074758,-0.25,-0.0347307385195439,-0.25,-0.25,0.682578679275624,0.698913711059,0.04,6.68698637516881e-07,325.87468646193,0.761464106384949,0.31445308952657
3360,-0.249861712358461,-0.015586402295873,-0.24401320014665,-0.248884756074758,-0.25,-0.0347307385195441,-0.25,-0.25,0.71569431141426,0.719360872267944,0.04,2.80973234896618e-06,341.727861664213,0.812351758261649,0.309094260273716
3420,-0.248854607574514,0.180199133928896,0.24999998731469,0.249979020877469,0.248919744762202,0.25,-0.249749934856572,0.249719735768006,0.699394711802726,0.739808033476887,0.04,0.0507501557006297,333.783368500587,0.939748122360968,0.260980406243388
3480,-0.248854607574514,0.180199133928896,0.24999998731469,0.249979020877469,0.248919744762201,0.25,-0.249749934856572,0.249719735768006,0.749421794917455,0.760255194685831,0.04,0.0494451740621422,357.828006640768,1.05434610928814,0.249370918918002
3540,-0.16266093588526,0.25,0.249991584582546,0.241217867385278,0.248838169754743,0.249841686010425,-0.249989025381515,0.249995368761672,0.781651194558533,0.789136857041115,0.04,0.058134860686506,373.176198381754,1.10603021508465,0.247914324485427
3600,-0.16266093588526,0.25,0.249991584582546,0.241217867385278,0.248838169754743,0.249841686010425,-0.249989025381515,0.249995368761672,0.813905731764376,0.818018519396399,0.04,0.0607736718302728,388.559968584054,1.13813325919334,0.250853183501708
3660,0.249999992324535,-0.25,-0.0341621560206108,0.248323513487663,-0.25,0.249287792208521,-0.24994239919051,0.0522001099189544,0.840722045356193,0.818018519396399,0.04,0.0508298340461973,401.197698170837,1.03890636236232,0.283750544103519
3720,0.249999992324535,-0.25,-0.0341621560206107,0.248323513487663,-0.25,0.249287792208521,-0.24994239919051,0.0522001099189544,0.829751175387937,0.818018519396399,0.04,0.0596912968143322,395.820638913456,0.948523257147847,0.306623281940781
3780,0.0563470721408688,-0.249995076228807,0.249999216124996,-0.249997929792614,-0.249999841214765,0.249997090955308,-0.249999876193176,0.25,0.825770940334598,0.818018519396399,0.04,0.0533396179964275,393.965684416164,0.897973839104976,0.32236611619433
3840,0.0563470721408689,-0.249995076228807,0.249999216124996,-0.249997929792614,-0.249999841214765,0.249997090955308,-0.249999876193176,0.25,0.824547230086134,0.818018519396399,0.04,0.0503527382231251,393.374488270629,0.854188429188077,0.338381945513329
3900,0.24999900388323,-0.108515725681791,0.249969193181664,-0.249994467155346,0.249983441294474,0.249998570324528,-0.249999986698403,0.249999959036197,0.812343635856663,0.818018519396399,0.04,0.0663220247533685,387.528884184932,0.868657756048105,0.327800832680188
3960,0.24999900388323,-0.108515725681791,0.249969193181664,-0.249994467155346,0.249983441294474,0.249998570324528,-0.249999986698403,0.249999959036197,0.818466285330124,0.818018519396399,0.04,0.0605467762115501,390.513294024213,0.876987695722722,0.327187722729778
4020,0.25,0.249998845398484,-0.25,-0.2494696285376,0.249998162016093,0.249997546693996,-0.249999410392364,0.249992261721639,0.822645834269772,0.818018519396399,0.04,0.0560655245166505,392.501236033026,0.855716553412184,0.337027835900062
4080,0.25,0.249998845398483,-0.25,-0.249469628537599,0.249998162016093,0.249997546693996,-0.218576984184609,0.249992261721639,0.820568743635331,0.818018519396399,0.04,0.0558816967251008,391.481731310805,0.835749639799596,0.344183446015316
4140,0.249996448955933,0.249999346588344,-0.249998175899761,0.25,0.25,0.249972671922433,-0.150486373839627,0.25,0.813924869443139,0.818018519396399,0.04,0.0658489152028573,388.285870207313,0.847756473049078,0.336538805201396
4200,0.249996448955933,0.249999346588344,-0.249998175899761,0.25,0.25,0.249972671922433,-0.115466651180793,0.25,0.816758403669932,0.818018519396399,0.04,0.0613001221224287,389.684907326212,0.859453360158999,0.333154702786098
4260,0.24999813411364,0.25,-0.249992718454124,0.249996272114074,0.249999945891044,-0.25,-0.0687373444163689,-0.0687373444163689,0.830838837496447,0.818018519396399,0.04,0.0456428953805927,396.325563015859,0.786671087571331,0.370180529795035
4320,0.24999813411364,0.25,-0.249992718454124,0.249996272114074,0.249999945891044,-0.25,-0.0379077779321778,-0.0379077779321778,0.819030056300445,0.818018519396399,0.04,0.0439754322306897,390.7238243622,0.764130553441583,0.375713676504858
4380,-0.25,0.249991660362854,-0.25,0.249998148646257,0.249971935150838,-0.249999864154197,0.249993778197262,-0.0231904608362263,0.815434643159254,0.818018519396399,0.04,0.0280280952667945,389.046413726389,0.777536657627948,0.367650549326195
4440,-0.25,0.249991660362854,-0.25,0.249998148646257,0.249971935150838,-0.249999864154197,0.249993778197262,-0.0341366248706347,0.818036474194812,0.818018519396399,0.04,0.024721475592917,390.281837629893,0.775810191715826,0.369638787420162
4500,-0.249997270998958,0.249917690117757,-0.25,0.249993646907677,0.249996876338794,-0.249982797954211,0.25,0.249997163387269,0.80182854448283,0.805543574202742,0.04,0.0344251766340702,382.443416873454,0.789636212209218,0.35587281147331
4560,-0.249997270998958,0.249917690117757,-0.25,0.249993646907677,0.249996876338794,-0.249982797954211,0.25,0.249997163387269,0.79577202530992,0.793068629009084,0.04,0.0385264530961003,379.57981133081,0.781267071393948,0.356991817334485
4620,-0.25,0.249993024808679,0.249953929765744,0.249999067596672,0.249999311869755,-0.249999418480789,-0.0794116799890827,0.249987460958938,0.78597219644598,0.780593683815426,0.04,0.0538951882537865,374.755519112133,0.749650752054198,0.367319287125161
4680,-0.25,0.249993024808679,0.249953929765744,0.249999067596672,0.249999311869755,-0.249999418480789,-0.0636808441307451,0.249987460958938,0.76990979431294,0.768118738621769,0.04,0.0542438974439232,367.221580416991,0.737125421290854,0.366050903080355
4740,0.25,-0.0874437765968372,0.249999724153878,0.249999952091584,0.249993275220718,-0.24999937006071,-0.0365380926944417,0.249997120848698,0.75572987711389,0.755643793428111,0.04,0.0573375873292259,360.455351319959,0.731034035440182,0.362300185535196
4800,0.25,-0.0874437765968372,0.249999724153878,0.249999952091584,0.249993275220718,-0.24999937006071,-0.0172590271850946,0.249997120848698,0.744670667926447,0.743168848234454,0.04,0.0574561421187584,355.189284604809,0.724774716019791,0.360090361897743
4860,0.25,0.249996449150751,0.249997505994381,-0.249994257661075,0.249993463803049,-0.249998752335217,0.25,0.25,0.728691304095346,0.730693903040796,0.04,0.060732556404775,347.496293009193,0.717251881550146,0.355986194649929
4920,0.25,0.249996449150751,0.249997505994381,-0.249994257661075,0.249993463803049,-0.249998752335217,0.25,0.25,0.720671461485201,0.718218957847139,0.04,0.0610599352875366,343.748019142393,0.70977909953693,0.355853853994372
4980,0.249893590764951,0.131866384595838,0.25,0.25,-0.235723618488476,0.249996083304062,0.247481718099508,-0.00181861488882838,0.706339769729517,0.705744012653481,0.04,0.0701847346825762,336.785302768953,0.684820869761718,0.361352297319196
5040,0.249893590764951,0.131866384595838,0.25,0.25,-0.235723618488476,0.249996083304062,0.247481718099508,-0.000858784952197682,0.693707156603562,0.693269067459824,0.04,0.0683918369676331,330.874515469085,0.684157762305309,0.355354431607338
5100,0.249999582964852,0.148916748988921,0.249503270593797,0.249968695159877,-0.249953201500876,0.247233055049195,-0.00040539554489966,0.249925697754843,0.677682806034673,0.680794122266166,0.04,0.0702265107290124,323.11355267922,0.669191498901383,0.354780250058237
5160,0.249999582964852,0.148916748988921,0.249503270593797,0.249968695159877,-0.249953201500876,0.247233055049195,-0.000191230569644182,0.249925697754843,0.676921478717597,0.680794122266166,0.04,0.0630529206937235,322.971920311202,0.696718655328214,0.340613614270205
5220,-0.25,0.249935685069128,-0.156004680302671,-0.25,-0.249572820186744,-0.135441346211128,0.249515479846246,0.244902777941853,0.697982727291259,0.680794122266166,0.04,0.0136230382181323,333.441605074465,0.641841880140327,0.381721316298286
5280,-0.25,0.249935685069128,-0.156004680302671,-0.25,-0.249572820186745,-0.135441346211128,0.249515479846246,0.244902777941852,0.684752416313167,0.680794122266166,0.04,0.0168592008004377,326.605210851797,0.588602626595053,0.407713967638772
5340,-0.25,0.249999470003347,-0.25,-0.249964737023094,-0.24999576437564,-0.249987573218776,0.25,0.25,0.686339315714465,0.680794122266166,0.04,0.00960145914415056,327.469429604344,0.556397168124939,0.432454607636085
5400,-0.25,0.249999470003347,-0.25,-0.249964737023094,-0.24999576437564,-0.249987573218776,0.25,0.25,0.680254920901082,0.680794122266166,0.04,0.00905387713613719,324.522542141211,0.551439010286078,0.43241630321366
5460,-0.25,0.25,-0.249986856473469,-0.249999824884531,-0.24999999965891,0.24935560405403,0.249999818087761,0.249999941912432,0.6657496390778,0.680794122266166,0.04,0.0208903131395647,317.55146386502,0.62657510039438,0.372387987478422
5520,-0.25,0.25,-0.249986856473469,-0.249999824884531,-0.24999999965891,0.24935560405403,0.249999818087761,0.249999941912432,0.6737295223764,0.680794122266166,0.04,0.0221441740405848,321.452611112285,0.677734922010318,0.348507211964209
5580,0.25,0.249967773591922,0.249993228189178,-0.24999999805839,-0.249982992555962,-0.222851355522962,0.249995398953382,0.115010935022564,0.666130830732207,0.680794122266166,0.04,0.0375915031268206,317.870582012584,0.756702601681534,0.30865959800111
5640,0.25,0.249967773591922,0.249993228189178,-0.24999999805839,-0.249982992555962,-0.222851355522962,0.249995398953382,0.115010935022564,0.678832707568392,0.680794122266166,0.04,0.0462259280348713,323.926325892705,0.791356470154638,0.300766016518066
5700,-0.24997993084201,0.249999957239049,0.25,-0.25,-0.249738464603796,-0.249995845924016,-0.25,-0.249999784205034,0.705771791855279,0.680794122266166,0.04,0.0181194255032715,336.806224944757,0.681654552465688,0.363053348280104
5760,-0.24997993084201,0.249999957239049,0.25,-0.25,-0.249738464603796,-0.249995845924016,-0.25,-0.249999784205034,0.685311810905112,0.680794122266166,0.04,0.024106065869861,326.88917779967,0.617937678819285,0.388696421087628
5820,0.25,0.25,0.249992598431616,0.25,0.25,-0.249970471997297,-0.25,0.25,0.657652281171384,0.680794122266166,0.04,0.079298068244319,313.703903943257,0.719399137473248,0.320408985509267
5880,0.25,0.25,0.249992598431616,0.25,0.25,-0.249970471997297,-0.25,0.25,0.676175364013104,0.680794122266166,0.04,0.0701124694498999,322.693329623017,0.782739023694517,0.302919811746555
5940,0.24997099714327,0.2498517959517,-0.25,0.249993647084269,0.25,0.249994218795687,-0.25,0.249998217736505,0.680269789125984,0.680794122266166,0.04,0.0687506002971041,324.586345556438,0.793864030455305,0.300426887115984
6000,0.24997099714327,0.2498517959517,-0.25,0.24999364708427,0.25,0.249994218795687,-0.240760208291926,0.249998217736506,0.684015057811831,0.680794122266166,0.04,0.0712332851612285,326.32817766893,0.778464668334261,0.308013921254667
6060,0.249999728506788,-0.25,-0.249995745549531,0.25,-0.249862827545588,0.249748559008904,-0.181368063440689,-0.181368063440689,0.704536609249888,0.680794122266166,0.04,0.0349935135101471,335.954364867293,0.668901775701853,0.369039297969067
6120,0.249999728506788,-0.25,-0.249995745549531,0.25,-0.249862827545588,0.249748559008905,-0.156551670721505,-0.156551670721505,0.685407128977909,0.680794122266166,0.04,0.0338987563613355,326.952601384085,0.614659336121521,0.390845387341039
6180,0.25,0.25,0.177820000268874,0.25,0.0549988832050842,0.25,0.249987453040597,0.25,0.654040010504353,0.680794122266166,0.04,0.0829828567901507,311.999889785266,0.736709206480295,0.311180962468922
6240,0.25,0.25,0.177820000268874,0.25,0.0549988832050843,0.25,0.249987453040597,0.25,0.676349360125448,0.680794122266166,0.04,0.0721020180178392,322.770440978134,0.801317228629374,0.295967450550904
6300,0.249847569671625,-0.249999974285283,-0.249999972417197,0.25,0.25,0.249998060618782,0.249837697528693,-0.0329769765849106,0.691562881560326,0.680794122266166,0.04,0.0467899702027702,329.922228151944,0.745898415414133,0.325002400245828
6360,0.249847569671625,-0.249999974285283,-0.249999972417197,0.25,0.25,0.249998060618782,0.249837697528693,-0.0155800272122182,0.691768866207797,0.693280973074549,0.04,0.0447845481714108,330.105363035381,0.737478749538391,0.328895359397684
6420,0.249999988761943,-0.0474257906547635,-0.25,-0.249999995723255,-0.249701093008771,0.249999530571695,0.25,-0.0142476676631021,0.714896928250982,0.705767823882931,0.04,0.0197297225195187,341.240568181122,0.7040010503506,0.35615744373777
6480,0.249999988761943,-0.0474257906547635,-0.25,-0.249999995723255,-0.249701093008771,0.249999530571695,0.25,-0.0388753509832015,0.718975777559773,0.718254674691314,0.04,0.0191341645568883,343.095209878719,0.686282787456667,0.367338310677629
6540,0.249997536640048,-0.249999962995868,-0.249992995570928,-0.25,-0.249999021734941,0.25,0.25,0.25,0.725546286036402,0.730741525499697,0.04,0.0201385238565824,346.22526963384,0.698576722753155,0.364165943090362
6600,0.249997536640048,-0.249999962995868,-0.249992995570928,-0.25,-0.249999021734941,0.25,0.25,0.25,0.738916134301789,0.743228376308079,0.04,0.0186387146755093,352.62439631206,0.721727314297711,0.358999538378099
6660,0.249977937787667,-0.25,-0.25,-0.245851800121857,-0.249793720793766,-0.249169506223226,0.25,0.249756758061016,0.7620163638422,0.755715227116462,0.04,0.00863402772580975,363.677472885955,0.69816830073594,0.382746255346054
6720,0.249977937787667,-0.25,-0.25,-0.245851800121857,-0.249793720793766,-0.249169506223226,0.25,0.249756758061016,0.764286225280718,0.768202077924845,0.04,0.0106283324776284,364.732236020094,0.710097284053075,0.377407888823658
6780,0.25,0.25,-0.106483176419786,0.10386506764688,0.249605528766361,-0.25,0.25,-0.25,0.754763463628101,0.780688928733227,0.04,0.0314331136794274,360.381029629552,0.855942144534213,0.309365718939122
6840,0.25,0.25,-0.106483176419786,0.10386506764688,0.249605528766361,-0.25,0.25,-0.25,0.785857554546505,0.79317577954161,0.04,0.0360673737081847,375.099650233353,0.928305204614364,0.296900240986978
6900,0.249712311894553,0.25,-0.24999042643093,0.249999839477327,0.249961210302299,-0.249992391599458,0.127433564820342,0.249964413518193,0.795164685026989,0.805662630349993,0.04,0.0490032787747378,379.475193269677,0.988811539996708,0.281984048094361
6960,0.249712311894553,0.25,-0.24999042643093,0.249999839477327,0.249961210302299,-0.249992391599458,0.127433564820342,0.249964413518193,0.816777583161928,0.818149481158375,0.04,0.0536059836904045,389.817155834347,1.01133792881255,0.283217007458984
7020,0.24999874880283,0.25,-0.249999514104155,0.249998976399188,0.25,-0.25,-0.249982942416588,0.25,0.838699551358791,0.830636331966758,0.04,0.0523853059154886,400.273596501583,0.977193078195777,0.300975564476272
7080,0.24999874880283,0.25,-0.249999514104155,0.249998976399188,0.25,-0.25,-0.249982942416588,0.25,0.84512808618926,0.84312318277514,0.04,0.05436013394018,403.285899845436,0.955854791652258,0.310010063916875
7140,0.25,0.249937189156773,-0.25,0.249998635346875,0.25,-0.115975988214151,0.25,0.25,0.844453042389589,0.855610033583523,0.04,0.0610973933195622,402.948610025935,1.00477888431635,0.294668585671699
7200,0.25,0.249937189156773,-0.25,0.249998635346875,0.25,-0.115975988214151,0.25,0.25,0.865973498861767,0.868096884391906,0.04,0.0569300272561216,413.286870036777,1.03211397620468,0.294224359021306
7260,0.249965819819479,0.249999996874626,-0.249850116527301,0.25,-0.249999150008162,-0.25,0.25,0.249997254116786,0.889128175413718,0.880583735200288,0.04,0.045356521082578,424.348350430728,0.998815036553059,0.312170688902782
7320,0.24996581981948,0.249999996874626,-0.249850116527301,0.25,-0.249999150008162,-0.25,0.25,0.249997254116786,0.895887626427504,0.893070586008671,0.04,0.0465890417933816,427.501752869344,0.972414059060298,0.323028876458236
7380,0.139366591297023,0.109040327277797,0.25,0.25,-0.249999213844948,-0.25,0.249999805617976,-0.164647887132918,0.911111142557977,0.905557436817053,0.04,0.0443876480974832,434.601792521965,0.9312279654799,0.34291791922669
7440,0.139366591297023,0.109040327277797,0.25,0.25,-0.249999213844948,-0.25,0.249999805617976,-0.151263578991126,0.915707008400053,0.918044287625436,0.04,0.0389590364825339,436.962708083325,0.936899126092243,0.342693775942011
7500,-0.249998996574628,0.219607727392415,0.249991815199764,0.249999510191742,-0.249999893016606,-0.249998983097464,0.249979937134977,0.249987516939641,0.920218654466132,0.930531138433819,0.04,0.0342775740620009,439.12256102213,0.98355583123838,0.328051032800175
7560,-0.249998996574627,0.219607727392415,0.249991815199764,0.249999510191741,-0.249999893016606,-0.249998983097464,0.249979937134977,0.249987516939641,0.940276642597193,0.943017989242201,0.04,0.0326312658814463,448.71933300168,1.00741147133962,0.327282335684347
7620,-0.2499990763991,-0.249999925437001,0.249995611999453,-0.25,-0.249997752472661,0.249998567566798,-0.176812892967866,0.249999967041377,0.959968025658068,0.943017989242201,0.04,0.0195649992590519,457.900457645879,0.927525471755392,0.362743725295354
7680,-0.2499990763991,-0.249999925437001,0.249995611999453,-0.25,-0.249997752472661,0.249998567566799,-0.212358167812481,0.249999967041377,0.948036920517009,0.943017989242201,0.04,0.0221268260427507,452.271749241176,0.879314066783692,0.377928911140159
7740,-0.249998088345808,-0.249971542492929,0.25,-0.249999880726487,-0.25,0.249998143231615,-0.249994986978326,0.249998945418725,0.945501332452558,0.943017989242201,0.04,0.0207149681077739,451.066359860524,0.860653880383056,0.385093851036167
7800,-0.249998088345808,-0.249971542492929,0.25,-0.249999880726487,-0.25,0.249998143231615,-0.249994986978326,0.249998945418725,0.943540876924818,0.943017989242201,0.04,0.0207305300992355,450.152013996202,0.854460714806616,0.387098754243787
7860,-0.25,-0.249999901638745,-0.249998729664952,-0.249992392723888,-0.249999413243637,0.249989736233849,-0.249999999295209,-0.25,0.962826595085366,0.943017989242201,0.04,0.000310993507902469,459.165774886521,0.753074641575394,0.448008405054216
7920,-0.25,-0.249999901638745,-0.249998729664952,-0.249992392723888,-0.249999413243637,0.24998973623385,-0.249999999295209,-0.25,0.944058041082373,0.943017989242201,0.04,0.000338853721088775,450.335062424346,0.721426783841105,0.458667719533927
7980,0.249999582442394,0.24998650373469,0.249971013192929,0.25,-0.189904195873681,-0.249965566441193,0.249994389836671,0.249797153781669,0.889819565130713,0.943017989242201,0.04,0.0490272320488743,424.486020461424,0.983290148936233,0.317202338447572
8040,0.249999582442393,0.24998650373469,0.249971013192929,0.25,-0.189904195873681,-0.249965566441194,0.249994389836671,0.249797153781669,0.930431308778383,0.943017989242201,0.04,0.0476375215589123,444.048486983275,1.11724645504222,0.292035794403773
8100,0.249998059696795,0.249990399941729,0.25,0.249999876548514,-0.248540092075168,0.249999994621461,-0.117060512058702,0.25,0.942848593123497,0.943017989242201,0.04,0.0601451917324263,449.87245097327,1.13619493248493,0.290931822292668
8160,0.249998059696795,0.249990399941729,0.25,0.249999876548514,-0.248540092075168,0.249999994621461,-0.117060512058702,0.25,0.944497030758923,0.943017989242201,0.04,0.0664615919339704,450.629863677159,1.13026898467164,0.292949550052344
8220,0.249963133815374,-0.24999988322002,0.249938866361277,0.249998612874424,0.0739990664007548,0.25,-0.25,0.249982657135954,0.948465359586122,0.943017989242201,0.04,0.0612120885907718,452.537858507078,1.10549725592157,0.300782056763854
8280,0.249963133815374,-0.24999988322002,0.249938866361277,0.249998612874424,0.0739990664007548,0.25,-0.25,0.249982657135954,0.94732121244668,0.943017989242201,0.04,0.0623938681202882,451.958824577824,1.07664458103147,0.308447452650274
8340,0.25,-0.249978711190937,-0.25,0.249702456961924,-0.163494925376862,0.169696486396206,-0.249995953789158,0.249999978181092,0.957751969842363,0.943017989242201,0.04,0.0453007278084095,456.989868533526,1.00632616236443,0.333674089876847
8400,0.25,-0.249978711190937,-0.25,0.249702456961924,-0.163494925376862,0.169696486396206,-0.249995953789158,0.249999978181092,0.948936966355408,0.943017989242201,0.04,0.0449158283940103,452.700692926948,0.955497450624864,0.348125874025301
8460,0.249914044800718,0.25,-0.25,0.249993328114948,0.249999706797727,0.249999746412825,-0.249989344211453,0.249994612242069,0.934136664993131,0.943017989242201,0.04,0.0629699934198622,445.627016163004,0.986544343778799,0.331901776843635
8520,0.249914044800718,0.25,-0.25,0.249993328114948,0.249999706797727,0.249999746412825,-0.249989344211453,0.249994612242069,0.941266416742803,0.943017989242201,0.04,0.0571408973763264,449.106442457568,1.00944022373916,0.326906348810813
8580,0.249998999277729,-0.25,-0.249991026146111,0.25,0.249996945619226,-0.249999970278498,-0.0241319159918069,-0.0108665863700166,0.957164450228702,0.943017989242201,0.04,0.0333013309470922,456.726952110197,0.949911450839582,0.353287436949041
8640,0.249998999277729,-0.25,-0.249991026146111,0.25,0.249996945619226,-0.249999970278498,-0.0241319159918069,-0.0108665863700166,0.946829764194227,0.943017989242201,0.04,0.0340473854002717,451.690918744884,0.909153389385363,0.365055480909204
8700,0.249998529505605,0.25,-0.249969911721577,-0.249997924092838,-0.249994450374534,-0.249999951517206,0.0538169999716822,0.249999851941641,0.945610176914029,0.943017989242201,0.04,0.0284174052045185,451.21177584877,0.897991662942605,0.369200939157143
8760,0.249998529505605,0.25,-0.249969911721577,-0.249997924092838,-0.249994450374534,-0.249999951517206,0.0538169999716822,0.249999851941641,0.945249091649001,0.943017989242201,0.04,0.0291255979291425,450.970036994234,0.88212477664812,0.3756404425928
8820,0.249999800712082,0.249995627992227,-0.249999997522234,-0.249999686881714,-0.0223832396986407,-0.25,-0.249999967572225,-0.0990564458031032,0.954798543795323,0.943017989242201,0.04,0.0209759758905788,455.568453499979,0.825992357058702,0.40525864739696
8880,0.249999800712082,0.249995627992227,-0.249999997522235,-0.249999686881714,-0.0223832396986407,-0.25,-0.249999967572225,-0.0990564458031032,0.943479153015306,0.943017989242201,0.04,0.0208812064101425,450.101476307028,0.807744613161793,0.409440730406981
8940,0.249999981152968,0.25,-0.249999610143519,-0.25,0.249961503707707,-0.25,0.25,-0.25,0.930502674701588,0.943017989242201,0.04,0.0334376607024858,443.907538075457,0.865424038447657,0.376893148036059
9000,0.249999981152968,0.25,-0.249999610143519,-0.25,0.249961503707708,-0.25,0.25,-0.25,0.939049466466308,0.943017989242201,0.04,0.0324926540273316,448.044364391015,0.900893254821703,0.365428453553436
9060,0.249989562400729,-0.249999817058453,-0.25,-0.25,0.249941278956993,-0.249982779027826,0.249978928850906,-0.25,0.949944706266922,0.943017989242201,0.04,0.0230822739989162,453.265606836842,0.87844990218596,0.379132001959884
9120,0.249989562400729,-0.249999817058453,-0.25,-0.25,0.249941278956993,-0.249982779027826,0.249978928850906,-0.25,0.942406600270475,0.943017989242201,0.04,0.0254477584452433,449.604897921256,0.871531040219049,0.379055541926217
9180,-0.249999050557548,0.24999943264005,-0.249999984987853,0.249979840483851,0.24999999304622,-0.249999992561245,0.249999990644103,-0.24999278933815,0.932644694266814,0.943017989242201,0.04,0.0359085764749865,444.97114343224,0.927122991374305,0.35265429123546
9240,-0.249999050557548,0.24999943264005,-0.249999984987853,0.249979840483851,0.24999999304622,-0.249999992561245,0.249999990644103,-0.24999278933815,0.939959970490859,0.943017989242201,0.04,0.0363514366154016,448.474703635428,0.953112189976676,0.345739184884986
9300,-0.249999982031432,-0.223335170316741,-0.249995807262795,-0.249999467733081,-0.214819605764979,-0.24999512384756,0.249910020650325,0.134234172066947,0.966086248894223,0.943017989242201,0.04,0.0213839021687491,461.054287102136,0.862971014451986,0.392564055944955
9360,-0.249999982031432,-0.223335170316741,-0.249995807262795,-0.249999467733081,-0.214819605764979,-0.24999512384756,0.249910020650325,0.134234172066947,0.946362222327112,0.943017989242201,0.04,0.0228421770715564,451.446685415923,0.816784202878566,0.406119474327507
9420,-0.249999990910155,0.249999977528507,-0.249999979947528,-0.249998874931096,-0.249999999639378,-0.249999634798561,-0.249999078776654,0.249996607706221,0.938822791532615,0.943017989242201,0.04,0.0200480186762338,447.885329133817,0.830474720486525,0.396273559681972
9480,-0.249999990910155,0.249999977528507,-0.249999979947528,-0.249998874931096,-0.249999999639378,-0.249999634798561,-0.249999078776654,0.249996607706221,0.940059696329329,0.943017989242201,0.04,0.0194767926913653,448.507813659931,0.850582727194287,0.387443278079329
9540,0.249961061301089,-0.0398323912471976,-0.249999903974134,-0.249999202526451,-0.249999130637905,-0.249999809293254,0.249993183190269,0.249956211978269,0.908729194194804,0.920903851818473,0.04,0.037770835775016,433.371181927328,0.909481142626327,0.350123294249032
9600,0.249961061301089,-0.0398323912471976,-0.249999903974134,-0.24999920252645,-0.249999130637905,-0.249999809293254,0.249993183190269,0.249956211978269,0.899418494896507,0.898789714394745,0.04,0.0433971992150072,428.978100164693,0.922833335178292,0.341559621635163
9660,0.249990885497564,-0.249981688407738,-0.249999811297553,-0.249999848342578,0.249992855140805,-0.249999899914927,0.249999992228478,0.229637152657487,0.875893356044014,0.876675576971016,0.04,0.0527169390933162,417.726466525335,0.927658982805678,0.330870703108009
9720,0.249990885497564,-0.249981688407738,-0.249999811297553,-0.249999848342578,0.249992855140805,-0.249999899914927,0.249999992228478,0.229637152657487,0.860225018529319,0.854561439547288,0.04,0.0586556262050353,410.260615557973,0.901009613399484,0.33456852280735
9780,-0.249983159239747,0.25,-0.249996058006075,-0.249999999984335,-0.249943717408832,-0.249999548587376,0.249998876817424,-0.249999644589953,0.857155795242956,0.83244730212356,0.04,0.0492867205844601,408.832101697662,0.777497102746105,0.386367765642866
9840,-0.249983159239747,0.25,-0.249996058006075,-0.249999999984335,-0.249943717408832,-0.249999548587376,0.249998876817424,-0.249999644589953,0.821028779849231,0.810333164699831,0.04,0.0517648038553872,391.506161669657,0.693379800080494,0.41487961118627
9900,0.249791976717718,0.249996472100216,-0.249999960112442,0.249978323015359,-0.249995923390767,-0.24999949954714,-0.208676775797724,0.249995186492876,0.782646805152272,0.788219027276103,0.04,0.0745886905937496,373.234785285715,0.712115540030866,0.385111356850703
9960,0.249791976717718,0.249996472100216,-0.249999960112442,0.249978323015359,-0.249995923390767,-0.24999949954714,-0.208676775797724,0.249995186492876,0.771308030281145,0.766104889852375,0.04,0.0716063546175046,367.849699315155,0.697554952273344,0.387477648396714
10020,0.249997732480906,0.25,-0.249983335575294,-0.249999809400471,-0.25,-0.25,0.249999358826584,0.249946589925452,0.749538487222632,0.743990752428646,0.04,0.0683266519804851,357.517413523988,0.672136584819969,0.390835803088437
10080,0.249997732480906,0.25,-0.249983335575294,-0.249999809400471,-0.25,-0.25,0.249999358826584,0.249946589925452,0.728982881880259,0.721876615004918,0.04,0.0686087930446406,347.62467482804,0.627595162696615,0.406991823579701
10140,0.249988215093387,-0.25,-0.25,-0.249999990928107,-0.249965989893933,0.24851625015638,0.249999998126113,-0.249999999286163,0.716889682055171,0.699762477581189,0.04,0.0496284179938574,341.891472867651,0.539620097303233,0.465537670972177
10200,0.249988215093387,-0.25,-0.25,-0.249999990928107,-0.249965989893933,0.24851625015638,0.249999998126113,-0.249999999286163,0.683760849894312,0.677648340157461,0.04,0.0435708530681229,326.019805989043,0.484587969856995,0.494340317945593
10260,0.249999999996894,0.0619729569469996,-0.249979339842159,-0.249999634832195,0.24999472969395,0.25,0.249999999688654,-0.222123591377868,0.647674532765277,0.655534202733733,0.04,0.0670686023399113,308.80363734957,0.509020975964683,0.445760317578892
10320,0.249999999996895,0.0619729569469996,-0.249979339842159,-0.249999634832195,0.24999472969395,0.25,0.249999999688654,-0.172822913144744,0.634384550422896,0.633420065310004,0.04,0.0611961308778235,302.50947634209,0.515613820828382,0.431091152953804
10380,-0.25,-0.074532593656751,-0.25,0.25,0.249999561945887,0.249999997528578,-0.125668892124617,0.249768791091948,0.610557275108803,0.611305927886276,0.04,0.0514031876757064,291.214160351662,0.505095206083036,0.423637033751953
10440,-0.25,-0.074532593656751,-0.25,0.25,0.249999561945887,0.249999997528578,-0.0930965895993817,0.249768791091948,0.591418930142218,0.589191790462548,0.04,0.0461629138989227,281.977242682223,0.481818628801387,0.430016528082839
10500,0.246523537594766,0.197463720280147,0.249618420143857,0.249999993942956,0.249999999933876,0.249999365111532,0.249094138080782,0.25,0.552155733962856,0.567077653038819,0.04,0.107465728366631,263.297103556938,0.537711538336652,0.359791916798219
10560,0.246523537594766,0.197463720280147,0.249618420143857,0.249999993942956,0.249999999933877,0.249999365111532,0.249094138080782,0.25,0.543843283140112,0.544963515615091,0.04,0.104590062102103,259.347295408091,0.567487853797624,0.335799332915628
10620,0.249264535062439,0.249540532394604,-0.24999916072671,-0.175513475096503,0.249868124299576,0.249998001610947,0.249958256774859,-0.0120945094776898,0.557150243196665,0.557125118989893,0.04,0.0595924862941044,265.934969256496,0.569423936012307,0.343158219798338
10680,0.249264535062439,0.249540532394604,-0.24999916072671,-0.175513475096503,0.249868124299576,0.249998001610947,0.249958256774859,-0.00571428498352169,0.565080415041583,0.569286722364695,0.04,0.0540814620530851,269.686254636355,0.587075708281552,0.337535438865816
10740,0.249999888493545,0.227517564244131,-0.249848777165136,-0.249964592237575,-0.25,0.249999945948386,0.249999785595094,-0.00478222549971368,0.585704966101549,0.581448325739497,0.04,0.0283556158607146,279.575497554794,0.577898515365268,0.355469385966925
10800,0.249999888493545,0.227517564244131,-0.249848777165136,-0.249964592237575,-0.25,0.249999945948386,0.249999785595094,-0.0179993098540751,0.592022296524582,0.593609929114298,0.04,0.0282079947081728,282.531885756823,0.577369042092836,0.359557747193216
10860,0.249999526898968,0.249970560052051,-0.249941304471694,-0.249942464443418,-0.249927421044477,-0.25,0.24789875514675,0.249051517603537,0.605564928999779,0.6057715324891,0.04,0.0198634073863745,288.9969253466,0.575518080762156,0.368968190524517
10920,0.249999526898968,0.249970560052051,-0.249941304471694,-0.249942464443418,-0.249927421044477,-0.25,0.24789875514675,0.249051517603537,0.615237323308427,0.617933135863902,0.04,0.0209438130433615,293.613239635352,0.587784732203994,0.367038828614017
10980,0.249999874738703,0.25,-0.24999914200513,-0.25,-0.249999940083772,-0.249999958880363,0.25,0.25,0.626295953953379,0.630094739238704,0.04,0.0224364127576651,298.89683703468,0.60944309700949,0.360365190232136
11040,0.249999874738703,0.25,-0.24999914200513,-0.25,-0.249999940083772,-0.249999958880363,0.25,0.25,0.638008130807304,0.642256342613506,0.04,0.024478211206409,304.488361599774,0.634799780048275,0.352442770094599
11100,-0.166107698899984,0.25,-0.25,-0.249992212076386,-0.249999999304486,-0.25,0.249995253901583,-0.232993936041517,0.666374646908528,0.654417945988308,0.04,0.000112357972364439,317.795258337872,0.580797042205913,0.40204780307179
11160,-0.166107698899984,0.25,-0.25,-0.249992212076386,-0.249999999304486,-0.25,0.249995253901583,-0.25,0.665445605480919,0.666579549363109,0.04,0.000796742253600786,317.51252608383,0.573351812298007,0.40690623995174
11220,0.249999352813645,-0.24997913417576,0.25,0.249999955114672,0.25,-0.242666838613977,-0.249996543526721,0.25,0.641770491270596,0.678741152737911,0.04,0.0349112303447578,306.293572303079,0.75697204497295,0.297312191455187
11280,0.249999352813645,-0.24997913417576,0.25,0.249999955114672,0.25,-0.242666838613977,-0.249996543526721,0.25,0.681471418731848,0.690902756112713,0.04,0.037173964298898,325.328433710715,0.855779231322856,0.279328311461613
11340,0.25,-0.25,-0.249992309913832,0.249999761749738,0.193989315499696,0.249989519973083,-0.249996383872102,0.25,0.702366917810916,0.703064359487515,0.04,0.0438000991656699,335.234608200654,0.874600819998331,0.281639550875103
11400,0.25,-0.25,-0.249992309913832,0.249999761749738,0.193989315499696,0.249989519973083,-0.249996383872102,0.25,0.71499199005067,0.715225962862317,0.04,0.0506631369202397,341.222975604619,0.876180169426886,0.286153803333737
11460,0.249992936891387,-0.25,-0.24999369549747,0.25,-0.249999353616952,0.25,-0.25,-0.25,0.744208472444342,0.727387566237119,0.04,0.0364079577622496,355.218109328412,0.802046506176135,0.325424482841315
11520,0.249992936891387,-0.25,-0.24999369549747,0.25,-0.249999353616952,0.25,-0.25,-0.25,0.741618056930355,0.739549169611921,0.04,0.037848272458631,353.873636598939,0.767608194556503,0.338737503960682
