time,bias_percent_1,bias_percent_2,bias_percent_3,bias_percent_4,bias_percent_5,bias_percent_6,bias_percent_8,bias_percent_9,normalized_power,power_SP,SP,CV,total_power_MW,fuel_fraction,thermal_efficiency
22,0,0,0,0,0,0,0,0,0.99946316308294,1,0.04,0.0400275699634941,476.869584289861,0.999382417945429,0.350608624338692
82,0.00566155696426688,0.012970973712439,-0.00835171751388248,0.00102804648458766,-0.00688813073018525,-0.00727971609944643,0.0111707286017083,-0.00990089230053474,0.99896391960001,0.997475118461564,0.04,0.0404863583172522,476.570919776559,0.996553296751259,0.351383758915733
142,0.0211021668668132,0.0483463565645455,-0.03112912891538,0.00383180962437211,-0.0256739418125086,-0.0271334872797551,0.0416363520609125,-0.0369033258474477,0.993044969255746,0.990589077902193,0.04,0.0425246885899394,473.728246998086,0.982345191502521,0.354339716859608
202,0.0365427767693594,0.083721739416652,-0.0539065403168773,0.00663557276415656,-0.0444597528948319,-0.0469872584600637,0.0721019755201168,-0.0639057593943607,0.986120135980003,0.983703037342821,0.04,0.0436832465414073,470.422012595419,0.967275192863462,0.357348745710847
262,0.0519833866719059,0.119097122268759,-0.0766839517183749,0.00943933590394101,-0.0632455639771553,-0.0668410296403723,0.102567598979321,-0.0909081929412737,0.979062862888966,0.97681699678345,0.04,0.0440631695890916,467.054657985634,0.953084799871592,0.360073235092071
322,0.0674239965744521,0.154472505120865,-0.0994613631198723,0.0122430990437254,-0.0820313750594787,-0.0866948008206808,0.133033222438526,-0.117910626488187,0.971987968674635,0.969930956224079,0.04,0.0439744586404331,463.679200855755,0.940009787821045,0.36244316640902
382,0.0828646064769984,0.189847887972971,-0.12223877452137,0.01504686218351,-0.100817186141802,-0.106548572000989,0.16349884589773,-0.1449130600351,0.964958483278737,0.963044915664707,0.04,0.0436506344359372,460.324598166691,0.92799127772875,0.364481059412703
442,0.0983052163795446,0.225223270825078,-0.145016185922867,0.0178506253232944,-0.119602997224125,-0.126402343181298,0.193964469356934,-0.171915493582013,0.958086293180488,0.956158875105336,0.04,0.0433596236092642,457.048483164777,0.916151931133189,0.366563692690944
502,0.113745826282091,0.260598653677184,-0.167793597324365,0.0206543884630789,-0.138388808306449,-0.146256114361607,0.224430092816138,-0.198917927128926,0.951229123642509,0.949272834545965,0.04,0.0431653334017838,453.776837762349,0.904124261996622,0.36878128816925
562,0.129186436184637,0.295974036529291,-0.190571008725862,0.0234581516028634,-0.157174619388772,-0.166109885541915,0.254895716275343,-0.225920360675839,0.944358572495143,0.942386793986594,0.04,0.0430167405171449,450.498743994416,0.891979939319353,0.371101896324879
622,0.144627046087183,0.331349419381397,-0.21334842012736,0.0262619147426478,-0.175960430471095,-0.185963656722224,0.285361339734547,-0.252922794222752,0.93747224341127,0.935500753427222,0.04,0.0428784403073255,447.213126068531,0.879814025632904,0.373489448662421
682,0.16006765598973,0.366724802233504,-0.236125831528857,0.0290656778824322,-0.194746241553419,-0.205817427902532,0.315826963193751,-0.279925227769665,0.930569285780583,0.928614712867851,0.04,0.0427340861804536,443.919655390543,0.867709771574921,0.37591059179964
742,0.175508265892276,0.40210018508561,-0.258903242930355,0.0318694410222166,-0.213532052635742,-0.225671199082841,0.346292586652955,-0.306927661316578,0.923655285372543,0.92172867230848,0.04,0.0425738904365576,440.62092555627,0.855744562862424,0.378334238835001
802,0.190948875794822,0.437475567937717,-0.281680654331852,0.0346732041620011,-0.232317863718066,-0.24552497026315,0.37675821011216,-0.333930094863491,0.916734290303478,0.914842631749109,0.04,0.0423975314604228,437.318841512305,0.843980546794288,0.380732919190848
862,0.206389485697369,0.472850950789823,-0.30445806573335,0.0374769673017856,-0.251103674800389,-0.265378741443458,0.407223833571364,-0.337340107011272,0.909129331499646,0.907956591189737,0.04,0.042660605810221,433.68705290563,0.83474239057947,0.381749665011604
922,0.216168538635648,0.495255359929491,-0.318883759620965,0.0392526839569824,-0.263001355152527,-0.27795279652432,0.42651872842886,-0.33053094574169,0.903377633408446,0.903595432168802,0.04,0.0420971053326645,430.994011368169,0.831305789814844,0.380947481504485
