time,bias_percent_1,bias_percent_2,bias_percent_3,bias_percent_4,bias_percent_5,bias_percent_6,bias_percent_8,bias_percent_9,normalized_power,power_SP,SP,CV,total_power_MW,fuel_fraction,thermal_efficiency
7,0,0,0,0,0,0,0,0,0.997284989842244,1,0.04,0.0402900052586032,475.842435345539,1.00041572888691,0.349492076896689
67,0,0,0,0,0,0,0,0,0.999896825118205,1,0.04,0.0398960362650691,477.052510741335,1.00013662641714,0.350478619983716
127,0,0,0,0,0,0,0,0,0.999988345572534,1,0.04,0.0399205028913553,477.094643507774,1.00030271629352,0.350451375405617
187,0,0,0,0,0,0,0,0,0.999999598618722,1,0.04,0.0399584580144163,477.09984027872,1.00031799202906,0.350449840951083
247,0,0,0,0,0,0,0,0,1.00000203417356,1,0.04,0.0399828504578907,477.100983003097,1.00030963986595,0.350453606445263
307,0,0,0,0,0,0,0,0,1.0000032474009,1,0.04,0.0399970931094207,477.101556420897,1.00029230620608,0.350460100523979
367,0,0,0,0,0,0,0,0,1.0000038611489,1,0.04,0.04000494669557,477.101844865825,1.00027012347498,0.350468084471767
427,0,0,0,0,0,0,0,0,1.00000398207976,1,0.04,0.040008767682335,477.101899179819,1.00024626402681,0.350476484286886
487,0,0,0,0,0,0,0,0,1.00000374676733,1,0.04,0.0400100512116044,477.101784674326,1.00022315982579,0.350484495842342
547,0,0,0,0,0,0,0,0,1.00000329708021,1,0.04,0.0400097983776552,477.101568907559,1.00020238041727,0.350491618721191
607,0,0,0,0,0,0,0,0,1.00000274947261,1,0.04,0.0400086946624862,477.101307310107,1.00018473609321,0.350497609586761
667,0,0,0,0,0,0,0,0,1.00000218697714,1,0.04,0.0400072041905276,477.101039045776,1.00017046966478,0.350502412003095
727,0.029166654729531,0.00574781187469353,0.0289353238175415,0.0291666666666666,-0.00310808986550637,0.0291665632081654,0.00649936557990634,0.0273948834793699,0.998134645848333,1,0.04,0.0432823271493675,476.048662866788,1.00222715232434,0.349011599786403
787,0.249999897681694,0.0492669589259445,0.248017061293213,0.25,-0.0266407702757692,0.249999113212846,0.0557088478277683,0.234813286966028,0.982131820047759,1,0.04,0.0627724143635661,468.867789033241,1.09774875861066,0.313835537325957
847,0.249999904021625,0.0143547591017276,0.248248404142338,0.249977481185941,0.00563398625640377,0.249996592882685,0.0663775494581534,0.236577286858867,0.995660746286615,1,0.04,0.0607444337268927,475.019989303914,1.13830237979148,0.306625957944781
907,0.24999995202396,-0.249980468138771,0.25,0.249806981593779,0.25,0.249977510382896,0.147154861802498,0.249933286047505,0.997791727667916,1,0.04,0.0603191660468013,476.112622104717,1.15842630981362,0.30199236196596
967,0.191666631824771,-0.236375556415109,0.249999052859247,0.249826407197065,0.249902226740228,0.191649051592728,0.159153461258873,0.249940891392556,1.00162495061355,1,0.04,0.0602053129343474,478.051515460117,1.15528287534362,0.30404722196272
1027,-0.249999935397656,-0.133366939078807,0.249991881650685,0.249973486764794,0.249161943487672,-0.249980707818542,0.25,0.249998474719368,1.01310081166929,1,0.04,0.0491741689564372,483.277745785791,1.09294380162252,0.324902940466992
1087,-0.19169316241281,-0.146972774876134,0.249992826529112,0.249968623930867,0.24924156914882,-0.191649628165197,0.25,0.249998652668775,1.00492737084432,1,0.04,0.0515351621375481,479.265686608861,1.05276001102327,0.334504244437513
1147,0.249772404472447,-0.249988388770179,0.24999998060863,0.24993180533113,0.249844449154655,0.249999974924421,0.25,0.25,0.990644972973763,1,0.04,0.0621390931914134,472.78943399524,1.0943469701652,0.317444201590467
1207,0.249792999574576,-0.217361244521363,0.249997627273685,0.249938946835524,0.249862032443234,0.249999977849905,0.191667003347658,0.249999999914136,1.00039949413697,1,0.04,0.0575189875327939,477.456417467487,1.10887495337616,0.316377680212484
1267,0.249948933919266,0.0296728476482447,0.249979809166246,0.249993018225939,0.249995163056759,0.25,-0.0769208356501822,0.249999999264026,1.00141570279264,1,0.04,0.0604395494206124,477.737058453583,1.08386473538739,0.323868359269676
1327,0.249954480049355,-0.00295565124405073,0.249949460344447,0.191660499432913,0.19166239403347,0.25,-0.00644952159311039,0.24996950826446,0.999110406099577,1,0.04,0.0554847621651692,476.836112389469,1.08830267227837,0.32193939180334
1387,0.249996472177163,-0.25,0.249719676407972,-0.25,-0.25,0.25,0.249999553497686,0.249738647839178,1.01173616453549,1,0.04,0.0360319895537612,482.532965997225,1.03925487830173,0.341161168796675
1447,0.249996883756494,-0.191672273075493,0.249752380827042,-0.191678669399701,-0.230269503435077,0.25,0.249999596731147,0.249769138924607,1.00307531715027,1,0.04,0.0405911740792261,478.482458139108,1.00561411772478,0.349614418455063
1507,0.25,0.249951945067202,0.25,0.249897119431133,-0.0808814580149476,0.25,0.249999924070216,0.25,0.988002020553172,0.997937951620148,0.04,0.0598768431796389,471.472055984177,1.05808500905781,0.327408592063881
1567,0.25,0.249957510686069,0.249999996668363,0.192456445092878,-0.100371101319202,0.235768614370019,0.249999834976627,0.25,0.983086140427709,0.980263251221417,0.04,0.059061036808526,469.106381862983,1.0589310362251,0.32550550686073
1627,0.25,0.249999650371774,0.249999971443113,-0.24245151775391,-0.247935543479986,0.128016694600166,0.249999160410885,0.25,0.977237109725355,0.962588550822686,0.04,0.0510895828718042,465.947272087605,0.984329778491525,0.34781701686111
1687,0.249836065261397,0.249999646694185,0.191666641441417,-0.185205023914651,-0.189875681355204,0.1421533979127,0.249999258362948,0.204806862702906,0.953057846413515,0.944913850423955,0.04,0.0561935973941152,454.530421681068,0.927311427741646,0.360157132787729
1747,0.248594845097684,0.249999618849582,-0.25,0.248232715154022,0.249720417589574,0.249188437279035,0.25,-0.000349577707535106,0.927689238081378,0.927239150025224,0.04,0.064438220232357,442.544863748996,0.903959588723554,0.35971865840236
1807,0.190425537301578,0.19166798588914,-0.25,0.190516553411605,0.249753035537457,0.249283119596481,0.19173216619962,-0.000164864215323092,0.913087227793498,0.909564449626493,0.04,0.0574464323322576,435.900817315428,0.890202466424041,0.359793709791968
1867,-0.249999221726086,-0.249985806525636,-0.25,-0.246477242638125,0.25,0.25,-0.00516743967984997,0.249767289104237,0.91585631136315,0.891889749227762,0.04,0.0222833359778254,436.995081271831,0.774754034739035,0.414445452138572
1927,-0.223427264558308,-0.191657596696222,-0.191666668452916,-0.225971280909164,0.25,0.249999878819852,0.00759727294872397,0.243856884298356,0.88242279585746,0.874215048829031,0.04,0.0264782285189988,420.957210338879,0.711089239517775,0.434979232067975
1987,-0.0222395888594173,0.249970277726481,0.249999984689293,-0.0707118563898824,0.25,0.249998961313021,0.249969344510729,0.199106676482402,0.83782625692509,0.8565403484303,0.04,0.0634091024971722,399.811049644998,0.815864668454639,0.360073651385856
2047,0.00946255565916692,0.249835025332876,0.249999688566602,-0.033295489263115,0.249999714731016,0.249997282424419,0.249972918758434,0.146760645769057,0.839565449591425,0.838865648031569,0.04,0.0595678869824967,400.649417883931,0.838535160389032,0.351073391514969
2107,0.249493078442733,0.248810971495585,0.249997446494804,0.249999861839553,0.249997554837281,0.249984570839292,0.249999980919631,-0.0101183704107567,0.81965341668536,0.821190947632838,0.04,0.0760202864223653,390.913982957199,0.826796720720978,0.347405857140402
2167,0.24955221929108,0.248949691487767,0.249997744403744,0.249999866364752,0.216046799177753,0.249986370908042,0.249999976151647,-0.00477929325566389,0.803734430509573,0.803516247234107,0.04,0.075258451885816,383.396583230022,0.828341973064261,0.340089517785937
2227,0.25,0.25,0.25,0.24999990062698,-0.0410089222443883,0.25,0.249999940051201,-0.00225730375075796,0.790672502172308,0.785841546835376,0.04,0.0714243456736694,377.047414223472,0.804617450176251,0.344319164578386
2287,0.24999971533229,0.25,0.249999979813312,0.249999912220499,-0.0653912126930694,0.249999993126198,0.24999443589527,-0.00106600591443308,0.77118030319969,0.768166846436645,0.04,0.0731484704146207,367.828336530903,0.784071236468948,0.344702423852076
2347,0.249997559991056,0.25,0.249999826971244,0.25,-0.249999983233084,0.249999941081699,0.249952761571792,0.13990712437728,0.75080713075382,0.750492146037914,0.04,0.0729456610228887,358.143576912162,0.767450741212817,0.342895142721285
2407,0.249954476451414,0.249999999804163,0.191669195070102,0.25,-0.19166665188061,0.249999947895892,0.249932851702892,0.15273870112897,0.735440109013626,0.732817445639183,0.04,0.0752522030064835,350.6442697759,0.751545542580308,0.34281997506937
2467,0.24962827250841,0.249999998321399,-0.249977017895691,0.25,0.249999999788122,0.249999999489064,0.249782105552649,0.2498920679632,0.715659511137774,0.715142745240452,0.04,0.0770220371380925,341.401547275533,0.751607552056475,0.333755957204443
2527,0.249671640715763,0.249997402652245,-0.19164636580786,0.219005115535692,0.249938447119674,0.249999999548673,0.249806114685389,0.249899888526188,0.701439286360066,0.697468044841721,0.04,0.0817213985899771,334.503847254736,0.730672884838465,0.336382041797999
2587,0.25,0.249977749728646,0.25,-0.0156704382654938,0.249472405487138,0.25,0.249987898118994,0.249959101360235,0.682723661556007,0.67979334444299,0.04,0.0893183714818701,325.579694609776,0.712010036802616,0.33598962888264
2647,0.249999735920054,0.249980345593637,0.191666666666667,0.0153199044583771,0.249532810997738,0.249999980364669,0.249977580000415,0.249960448556483,0.664163160306945,0.662118644044258,0.04,0.0906594075241503,316.817073603867,0.697111654352326,0.333934208678997
2707,0.249997736457607,0.25,-0.25,0.249961070796256,0.249990167006572,0.249999831697159,0.249899457102606,0.24997064875664,0.649121977048931,0.647866018366637,0.04,0.0862635524703869,309.655942125332,0.681525011268221,0.333850703671358
2767,0.249998000537553,0.249983699218709,-0.249981847642194,0.249964765364304,0.249991314189139,0.191666632455134,0.249901971612495,0.249974073068365,0.653255803898697,0.659523387005985,0.04,0.0736096840601835,311.865830588874,0.713518391203928,0.321156930700039
2827,0.25,0.249860279017507,-0.249844408361666,0.249992738522384,0.25,-0.249999018948766,0.249921010044515,0.25,0.67187105657325,0.671180755645333,0.04,0.0560087905355905,320.568549682032,0.719177977233015,0.327521043307624
2887,0.191670370322465,0.249876579798798,-0.249859700841853,0.249992569626257,0.249999999763548,-0.249991793330088,0.227774790546561,0.25,0.679663637756885,0.68283812428468,0.04,0.0522615805769207,324.390553042833,0.735089685906027,0.324251911688966
2947,-0.249968254378867,0.25,-0.249975486763264,0.249991290841299,0.249999997973272,-0.249937085074381,0.0600962714906282,0.25,0.699423048921868,0.694495492924028,0.04,0.0277082886736543,333.869010098152,0.717927845991675,0.341703940666055
3007,-0.249966871609964,0.249990363877197,-0.24996257510689,0.249992306909815,0.249880811651884,-0.19161134836994,0.0822497360413069,0.249998901398601,0.703863210239757,0.706152861563376,0.04,0.0305422886516821,335.706338999328,0.718751150590209,0.343190822272306
3067,-0.249956402073986,0.249917404661683,-0.249864815422915,0.25,0.248978400932803,0.249997800963685,0.249983110496446,0.249990583416577,0.705531748658392,0.717810230202724,0.04,0.0421557253184704,336.867926197785,0.78557229388056,0.315085328417518
3127,-0.191628643548393,0.191598426541155,-0.191547253623575,0.249997653318911,0.249097587490643,0.249997919490432,0.197507315901959,0.191658539148848,0.727355669774149,0.729467598842072,0.04,0.0376043038144933,347.63152951574,0.819618917135631,0.311646218812341
3187,0.249995813859664,-0.249959550657133,0.25,0.249979885590663,0.25,0.249998816907231,-0.0407402583205377,-0.0407402583205377,0.736994044520598,0.74112496748142,0.04,0.0482603447337786,351.629281052662,0.808009693031143,0.319759265969382
3247,0.191664699529417,-0.200899059603462,0.249999009542343,0.249982232271752,0.191668933895441,0.191667329294087,-0.0336170769905323,-0.0336170769905323,0.749217544577818,0.752782336120768,0.04,0.0419282112152377,357.771099772745,0.834233739953102,0.315117252836454
3307,-0.249985166113889,0.170558944088622,0.249991510362942,0.25,-0.249980566610503,-0.249985362634004,-0.0381320940521065,-0.0381320940521065,0.777395695547115,0.764439704760116,0.04,0.0162286812881946,370.909508224802,0.777704895584044,0.350435270179679
3367,-0.249982821481455,0.17982703620441,0.249963267467257,0.191671305340086,-0.249982833839277,-0.249986515975454,-0.0697788958702912,-0.0697788958702912,0.777946054558131,0.776097073399464,0.04,0.0151919624340582,371.206400887309,0.753590019256063,0.361938677123843
3427,-0.249965069264454,0.249999733652525,0.249749428399925,-0.249960239942116,-0.25,-0.249995248417863,-0.12582882535634,-0.12582882535634,0.787211240820344,0.787754442038811,0.04,9.27318327885826e-07,375.50459155999,0.733619915171722,0.376096087668253
3487,-0.249959850291537,0.249999764726397,0.191445328419934,-0.249961562546543,-0.25,-0.191664970334491,-0.191658489653243,-0.206724985040778,0.789859463286807,0.800817501792049,0.04,8.05685731236614e-08,376.854583473072,0.783170195335819,0.353567490929688
3547,-0.249920335210882,0.25,-0.25,-0.249971576551489,-0.25,0.249978563725321,0.249999999990576,-0.173567980872868,0.816222134071271,0.821757933952448,0.04,0.0127205168793456,389.880351133869,0.795158894611005,0.360273321506391
3607,-0.249929629436279,0.249997145845541,-0.24989505917335,-0.24997479712385,-0.25,0.249980854519696,0.249986235206544,-0.182484479039239,0.819045031328688,0.821757933952448,0.04,0.0185472131217125,390.813210189841,0.813154858751148,0.353143039103103
3667,-0.25,0.249975535818924,-0.24910050720014,-0.249999181457444,-0.25,0.249998199105679,0.249882016127439,-0.249995108013188,0.820709851250556,0.821757933952448,0.04,0.0226105882889195,391.526855036969,0.820808925417857,0.350488814062291
3727,-0.191666912917687,0.249978389973382,-0.19087818922389,-0.191670192470506,-0.191666879256291,0.249998281473045,0.249895780912571,-0.249975072520961,0.820060745216362,0.821757933952448,0.04,0.0313323292356457,390.958242144811,0.829865100658771,0.346160531130069
3787,0.24999788927697,0.25,0.249947932596289,0.249963581287743,0.249998177803218,0.249998905111675,0.25,-0.249823375222669,0.796549400839316,0.821757933952448,0.04,0.0718142733226213,380.360594795482,0.988872729054945,0.282624491506161
3847,0.191664802588661,0.249761740990504,0.191620768959631,0.191635977830849,0.191669037083042,0.24999898521907,0.244736764041543,-0.249765090939944,0.818779634417917,0.821757933952448,0.04,0.0666515384406099,391.049748059075,1.03991008752271,0.276306368947902
3907,-0.249999996622822,0.247957779918606,-0.249999184289348,-0.249987305485636,-0.249965885512579,0.249999591746489,0.204886548927509,-0.249323795656449,0.853519433384045,0.821757933952448,0.04,0.0347906069036905,406.922190972769,0.907709564573435,0.329396620255286
3967,-0.22621640235562,0.248125602011689,-0.249987464625583,-0.191684903863263,-0.191636532202778,0.24999344650222,0.210149784885966,-0.191127568863901,0.828881937462483,0.821757933952448,0.04,0.0469753376427959,394.85686892588,0.832972094930205,0.348308378251798
4027,-0.0461406171896593,0.249396255002172,-0.249898730028506,0.249747565563271,0.25,0.249946918224188,0.25,0.249501005422532,0.801918520506038,0.821757933952448,0.04,0.0695434582273338,382.960876407726,0.933933196708739,0.301295934728362
4087,-0.0683444133172806,0.20383379461337,-0.191580410080048,0.191443934305036,0.249993248497437,0.191619842421361,0.191705845416324,0.249559179323863,0.822201167389435,0.821757933952448,0.04,0.0612209192305153,392.663680577296,0.960768763242901,0.300300831430364
4147,-0.236458869712126,-0.14113911975899,0.249972583815417,-0.249997845221601,0.24994212997803,-0.249999445800046,-0.249664182145793,0.249999638862507,0.846136668854017,0.821757933952448,0.04,0.0367381351100005,403.426007726806,0.843251292702814,0.351529319268571
4207,-0.179705334912378,-0.117344376910708,0.191644313769011,-0.191664763279081,0.191631700350747,-0.249955952410671,-0.24969883124434,0.249805143539558,0.829059574113419,0.821757933952448,0.04,0.037228230901782,395.729705554389,0.783806475301435,0.370974861347247
4267,0.25,0.0628158189405641,-0.249984016582349,0.25,-0.249861552541535,-0.249626645319689,-0.249961174419052,0.248332536094376,0.823241465175705,0.821757933952448,0.04,0.0412427294473256,392.626451368108,0.764881942459459,0.377172328549349
4327,0.191667656496356,0.0846539367131376,-0.2496180050425,0.19166684357235,-0.249877059065239,-0.24967020336572,-0.24393614042463,0.190199629277499,0.82344286039097,0.821757933952448,0.04,0.0320097768110929,393.149980640895,0.758713507063737,0.380745798123691
4387,-0.249991515745518,0.249999685562622,-0.246846774812216,-0.249998483665573,-0.249994465601857,-0.249999999999954,-0.198318025895433,-0.249949522335999,0.838880492324048,0.821757933952448,0.04,4.16008161061818e-05,399.829446893468,0.644192337163215,0.456051509939757
4447,-0.191659229569212,0.249960558718406,-0.247214649852312,-0.249998643149123,-0.249991150584792,-0.191666666978645,-0.146041855983447,-0.249955323186588,0.818627404987537,0.821757933952448,0.04,2.24775877304546e-05,390.716371126825,0.639498426476411,0.448928114945021
4507,0.249999508622817,0.249664312612195,-0.249999989441609,-0.249999850667427,-0.249966051169874,0.249999997325546,0.249763430493019,-0.249999243912476,0.792815751906205,0.821757933952448,0.04,0.0339870215954307,378.641551205808,0.762764230553651,0.364747755504101
4567,0.249981704143448,0.249702083734717,-0.191670552705936,-0.249999697742919,-0.191636856341972,0.249988013461315,0.202547848930951,-0.238549184604032,0.814323377572823,0.821757933952448,0.04,0.0360005514464005,388.222419992649,0.821852854162082,0.347089296378138
4627,0.249846898799655,0.249988065090958,0.249966611149872,-0.249998539885935,0.249998475926425,0.249897278489275,-0.154941554324708,-0.15185587841153,0.810589815772352,0.821757933952448,0.04,0.0565322463809896,386.877525815055,0.899732552573406,0.315947369861682
4687,0.248587035514174,0.24982724244299,0.191655863903734,-0.191665444208244,0.249997909640439,0.249909250824244,-0.107698486904105,-0.163306010677078,0.819016989358756,0.821757933952448,0.04,0.0608601474686284,390.664450727159,0.924665065428151,0.310437458926822
4747,0.239048070638384,0.248609585251237,-0.249839793817023,0.249999423065703,0.249993622046548,0.249999898503297,0.249999023566179,-0.249999869259089,0.818228061291808,0.821757933952448,0.04,0.0650443043146883,390.479130317394,0.950148409777827,0.301968094055268
4807,0.240321492953963,0.248182731529242,-0.249858484375592,0.249941441913232,0.249993955779382,0.249986185308049,0.249988828740327,-0.249623581343812,0.823057896875382,0.821757933952448,0.04,0.0665686307106412,392.697603516909,0.948890187539696,0.304086382121582
4867,0.249963119057626,0.244950839062707,-0.249999998604757,0.24950244175881,0.249996482613695,0.249882356829741,0.249911639344591,-0.246774544270998,0.824251617741933,0.821757933952448,0.04,0.0675031112353616,393.256788717392,0.935713898362642,0.308807489403899
4927,0.249966899203105,0.245539907838724,-0.191666665434202,0.191227181744123,0.249996892975431,0.19156274871366,0.214398872005336,-0.217127914940556,0.825538594704135,0.821757933952448,0.04,0.065287465651173,394.007462736166,0.917648484045765,0.315487947374598
4987,0.249995520304585,0.25,0.25,-0.249999786938506,0.25,-0.24999999845095,-0.0544835092775904,0.00733942141850662,0.833727494440551,0.821757933952448,0.04,0.0550011074656747,397.628402793824,0.856814800241429,0.340992726385055
5047,0.19715244770781,0.205834805654419,0.249999982489275,-0.191666478462347,0.249994759165376,-0.249999998631672,-0.0189604331952048,0.0356474833234286,0.824096984869722,0.821757933952448,0.04,0.0553120097322626,392.810077534018,0.822920112622982,0.350735415122584
5107,-0.202945101953487,-0.128558808676413,0.249999849908066,0.25,0.249955078560367,-0.25,0.25,0.249979952032123,0.817365226382227,0.821757933952448,0.04,0.0435056138066514,390.407885884107,0.86435887349979,0.331878533905178
5167,-0.150101518547317,-0.14272676712619,0.249999774365894,0.249999999860215,0.249960319394991,-0.25,0.249999967454948,0.249982197634324,0.824031638402747,0.821757933952448,0.04,0.0434010337459588,393.249790148023,0.857531874244595,0.336955775120106
5227,0.249999898670827,-0.249998452531649,0.249999202403731,0.24999999880184,0.25,-0.25,0.249999721042415,0.24999920005099,0.818927916013934,0.821757933952448,0.04,0.052804189823603,390.695498143865,0.867733673712714,0.330831330912007
5287,0.249999910492564,-0.249998633069623,0.24999601553851,0.191666667614829,0.191666666666667,-0.249999356884766,0.249999753587467,0.249958256169777,0.822736621752689,0.821757933952448,0.04,0.0485427637062664,392.723665857607,0.868812333363018,0.332135863003307
5347,0.25,-0.25,0.249971886416121,-0.249999982801117,-0.25,-0.249994487583712,0.25,0.249648252497733,0.837106727141744,0.8200594283741,0.04,0.0270655745659304,399.108221872208,0.797267431934227,0.367825070762613
5407,0.191674551576922,-0.249997748036793,0.249870619200403,-0.249989002999012,-0.25,-0.249995113431608,0.192933098456696,0.249689206459135,0.814148394629942,0.805500809131123,0.04,0.0305769407282737,388.46335701991,0.738262519291553,0.386628544788997
5467,-0.249932415054952,-0.249980697458227,0.249103881709973,-0.249905870211646,-0.25,-0.249999851994247,-0.0579759956077166,0.249999286452609,0.810949738389445,0.790942189888145,0.04,0.00928826896075277,386.926578491781,0.623848070720578,0.455726625782395
5527,-0.249940265628772,-0.191649715098774,0.198127951523839,-0.191583534308157,-0.191669152632705,-0.191666729820368,-0.111195184153811,0.249998973463255,0.784523345158045,0.776383570645167,0.04,0.0126463650940893,374.131550552035,0.559238179363607,0.491566407947429
5587,-0.249999705687696,0.249999151337079,-0.187832662742605,0.249999866103971,0.249978691719671,0.249998338067576,-0.158853250738426,0.249996603686715,0.742159461011601,0.76182495140219,0.04,0.0460264336179269,354.171576056129,0.684021201016031,0.380451076773069
5647,-0.19166643273624,0.219242214463643,-0.136752185422634,0.191666548391841,0.249981177685709,0.249995733525769,-0.177550037259803,0.249996373898883,0.745572221549299,0.747266332159212,0.04,0.0428469630331642,355.857487688881,0.714370940479953,0.366021844163978
5707,0.249999776753358,-0.0136317361495118,0.25,-0.25,0.25,0.249976013423515,-0.175130177978578,0.249994634076729,0.730277733911271,0.732707712916234,0.04,0.0589268083143537,348.271227983427,0.727558673375784,0.351725820237365
5767,0.249999539726316,0.0171252594635994,0.249999993856935,-0.191666672119711,0.2499975813522,0.249978811857423,-0.147703761543492,0.24999526010111,0.720904063486289,0.718149093673256,0.04,0.0653507084787848,343.796636744987,0.718097910063464,0.351781209134234
5827,0.249997745092993,0.249999654820011,0.249999947345158,0.249999953259616,0.249979268733145,0.249999999999866,0.249993070568184,0.25,0.694593995433727,0.703590474430279,0.04,0.0927977902948191,331.455697688688,0.754281107550555,0.322884305043507
5887,0.249998008165477,0.249999529447582,0.24999992186495,0.249999958712661,0.249979921132638,0.249999999999882,0.249993355689023,0.25,0.689534082089063,0.689031855187301,0.04,0.0903294342889769,328.886245300598,0.761328862542737,0.317415472346785
5947,0.25,0.249998580199189,0.249999728943374,0.25,0.249984860728803,0.25,0.249995514461091,0.25,0.676264861740044,0.674473235944323,0.04,0.0922100881054123,322.531876039897,0.751052064355323,0.315542073328619
6007,0.25,0.249998739894915,0.191666427233314,0.191666666666667,0.24998614433867,0.25,0.249995301278689,0.25,0.66184238126328,0.659914616701345,0.04,0.0920147453020382,315.74267480908,0.739400260650683,0.313767791377733
6067,0.25,0.249999949019698,-0.25,-0.25,0.249995863099094,0.25,0.249993687183367,0.25,0.656881093153667,0.645355997458368,0.04,0.0712211793945373,313.291250424615,0.688349489153777,0.334421313212641
6127,0.238867489133187,0.191668072395792,-0.249999995164797,-0.191666666666667,0.249996343977457,0.191666689663768,0.195270622266816,0.191666711421044,0.639039267690286,0.63079737821539,0.04,0.0728668999752888,305.17031042126,0.638202065342912,0.351349023153348
6187,0.15457847828446,-0.249987564899497,-0.249999958555404,0.25,0.249999984913635,-0.249999802881991,-0.00100445677541014,-0.00100445677541014,0.633393371998601,0.616238758972412,0.04,0.0463232035585043,301.962972735768,0.506560025546276,0.43800337144913
6247,0.124677601592851,-0.249961558799095,-0.249998348961106,0.25,0.249999986673711,-0.191666705445673,-0.000812840773026215,-0.000812840773026215,0.604461100237561,0.601680139729434,0.04,0.0379903148968481,288.171170490738,0.47072744091553,0.449816819710005
6307,-0.101714750500761,-0.249764655467484,-0.249986162032843,0.25,0.25,0.249998175143597,0.25,-0.00371273329073263,0.579953006282625,0.587121520486457,0.04,0.0379172687090134,276.807888749388,0.504394854164077,0.403238965547672
6367,-0.0606973139436303,-0.249766823795394,-0.191654443129012,0.249999899555112,0.249999984151042,0.249998381293131,0.25,-0.00974107455963196,0.573879862124354,0.572562901243479,0.04,0.035124420399215,273.876019506843,0.496756823309252,0.405102424452451
6427,0.249863277131786,-0.249783241135285,0.25,0.249999139043817,0.249999864151786,0.249999942139607,0.25,-0.00724930117774466,0.547669417722554,0.558004282000501,0.04,0.0738630329488475,261.122509763334,0.546909700712477,0.3508192056869
6487,0.249879114129192,-0.249807374822157,0.249994680324776,0.249999239488705,0.24999984843036,0.249999137511756,0.191666666666667,-0.00342404734249627,0.54279694032773,0.543445662757524,0.04,0.0699265727845839,259.029301828923,0.565900840368763,0.336328160818419
6547,0.24999902282383,-0.249990101308469,0.249954402783795,0.25,0.249999729396705,0.249993045329453,-0.00161713410323466,0.249999105542718,0.525663246792428,0.528887043514546,0.04,0.0790148463854193,250.745082451305,0.557744369634877,0.330332957734069
6607,0.249999120023473,-0.191657922822481,0.249956707475698,0.249999620899603,0.249986147495461,0.191716457044434,-0.000763612619582339,0.249996187165829,0.516103215519091,0.516026929849916,0.04,0.0803862139607019,246.252391175894,0.55524703236916,0.325873381006561
6667,0.249999855963628,0.25,0.249974157285813,0.249996750568029,0.249883313100327,-0.249520568542133,-0.000360439531526913,0.249974090883669,0.518456992352013,0.516026929849916,0.04,0.0813494728880314,247.270481820403,0.543855915582857,0.334074321165898
6727,0.191667066056159,0.249996738480452,0.191643857326703,0.208097092994913,0.249890342970482,-0.249575327337078,0.029001666949453,0.191644175026944,0.512885665859313,0.516026929849916,0.04,0.0750399877096799,244.728799701873,0.558036708850709,0.322238173885049
6787,-0.249995486100386,0.249972044118159,-0.249999842363706,-0.109143171487247,0.249943569130225,-0.249989929641662,0.249990864073919,-0.00445538559807814,0.523748889369351,0.516026929849916,0.04,0.0139867622369253,250.184631569561,0.528151084861048,0.348062414268614
6847,-0.191662939315227,0.249974961090151,-0.249999180910687,-0.125576468147068,0.249937211586489,-0.191657771183468,0.249991866109347,-0.0342012762876939,0.518674777707976,0.516026929849916,0.04,0.0195658391962757,247.470697427462,0.493963011475609,0.368115435998226
6907,0.249997772058116,0.249997046735234,-0.249994172766402,-0.25,0.249889075898199,0.25,0.249999452949014,0.249998151137893,0.497902186751818,0.516026929849916,0.04,0.066434863346008,237.650553985587,0.564410054277229,0.30938465225902
6967,0.203037660521945,0.249986602432728,-0.191661869995768,-0.249999445326369,0.249901810940033,0.25,0.205270393401683,0.191667205844517,0.516288745691893,0.516026929849916,0.04,0.0594706341014255,246.603370135959,0.587084625349098,0.308640544573369
7027,-0.152517469680493,0.249907524142319,0.249996993839029,-0.249995245654591,0.249998233399635,0.25,-0.0165565732465361,-0.0165565732465361,0.521511179542935,0.516026929849916,0.04,0.0616455156734658,248.727199429065,0.527956738136855,0.346162181559733
7087,-0.163890431456756,0.222175268488087,0.249997222097592,-0.249871177685585,0.191677326292703,0.249999999977531,-0.00782047050606447,-0.00782047050606447,0.514685200549897,0.516026929849916,0.04,0.0550301737774116,245.53329215891,0.52591428774228,0.34304421002786
7147,-0.249999999191317,0.0122024756774742,0.249998950340996,-0.248931805920254,-0.249895256088358,0.249999999807406,0.249999989384729,-0.00857429492965454,0.52016325272706,0.516026929849916,0.04,0.0222353566766139,248.352375820915,0.50943195127597,0.358209265389725
7207,-0.249999988656687,-0.0183878131515645,0.249995834421592,-0.19073129411164,-0.249907087889409,0.249999984736422,0.249998278718278,-0.0296248628056536,0.516756236103573,0.516026929849916,0.04,0.0246490488557624,246.524990126715,0.495735189079559,0.365397758232593
7267,-0.249999908894488,-0.25,0.249972242460391,0.249929723867864,-0.249996671525942,0.249999870627542,0.249985326529434,-0.0567936041650204,0.513834891452531,0.516026929849916,0.04,0.0324580216570549,245.185081096511,0.508994328679312,0.353944993621834
7327,-0.191668895383003,-0.191690669414136,0.247447520450475,0.233198657370382,-0.249997059847915,0.240584027020803,0.249980222619779,-0.0396611652136754,0.516256290431366,0.516026929849916,0.04,0.031179694459173,246.364278275459,0.509306401116199,0.35542934319411
7387,0.249980206918245,0.249794262164544,0.228331768089685,0.106520582460876,-0.25,0.169292639712644,0.249941578732389,0.24999965386014,0.500779933566491,0.516026929849916,0.04,0.0738407322114139,239.018035714343,0.589883614078121,0.297727545358343
7447,0.249383451917228,0.249817987473964,0.230859683307559,0.10692794686067,-0.249995921137229,0.136174532471143,0.249948394546943,0.24999374182141,0.516167890838225,0.516026929849916,0.04,0.070594880690605,246.3501332651,0.611383356252151,0.296069633520332
7507,0.244865164052382,0.249997621959571,0.249999612814319,0.110012277316256,-0.249965038319102,-0.11457685092879,0.25,0.249948979242459,0.522010385806106,0.516026929849916,0.04,0.0688392682226327,249.026335811715,0.581684059952821,0.314566732922504
7567,0.191481604876723,0.249997899397621,0.220446471528445,0.0680423488384238,-0.24996911714016,-0.073681130257639,0.221457510715986,0.192022991312112,0.518212406607511,0.516026929849916,0.04,0.0686101073242103,247.363142344234,0.563260288825812,0.322686303473451
7627,-0.212708200310409,0.25,-0.0033130267788888,-0.249729966779446,-0.249999999642459,0.235957897681077,0.00535009185131195,-0.00674426438345098,0.529551310910332,0.516026929849916,0.04,0.0242368340845138,252.723667770695,0.48820761160928,0.380361057291638
7687,-0.216820553905736,0.249995193570066,0.0262180701684114,-0.249761432277765,-0.249995178997351,0.194294851667578,0.033891538423439,-0.0237333974668803,0.51766465000793,0.516026929849916,0.04,0.0206138828850271,246.926690878003,0.457321754761729,0.396735306716205
7747,-0.247956945413211,0.249958802029135,0.249810661340827,-0.249999671050751,-0.249958679827244,-0.121153925291777,0.249991062469544,-0.0596700067128732,0.514868341514219,0.516026929849916,0.04,0.0161613988356437,245.643515907298,0.470142380249102,0.383911020735573
7807,-0.248123739948354,0.191631647394235,0.191500571970495,-0.249952205628066,-0.249891801281495,-0.13618596734107,0.191767739199994,-0.11072669005134,0.514720157170881,0.516026929849916,0.04,0.00846132763594487,245.567859538674,0.475638296973475,0.379358121062467
7867,-0.249386612857291,-0.249988237698583,-0.249990104690589,-0.24959282457059,-0.24938543514939,-0.25,-0.184136884417867,-0.184136884417867,0.458193441272227,0.516026929849916,0.04,9.341672968997e-11,218.492316905768,0.670864505574718,0.239307346727569
7927,-0.23720725885686,-0.191656276755018,-0.249991258665897,-0.208182601862057,-0.249457134381961,-0.25,-0.190841632884049,-0.249891929333199,0.500963446724264,0.516026929849916,0.04,2.10730541417287e-08,239.215503635268,0.868382263699887,0.202410507915181
7987,-0.144992149996453,0.249999998960549,-0.249999995907511,0.105351941502546,-0.25,-0.25,0.249999959380935,-0.249073679998852,0.533936266863916,0.516026929849916,0.04,0.0337812469865258,254.641566048256,0.669274177131935,0.279563136332849
8047,-0.0989097324968673,0.249824045140277,-0.249999996384968,0.122227548320987,-0.249986750600376,-0.249961134655655,0.201597140123856,-0.249053194364906,0.524908425904421,0.516026929849916,0.04,0.0466987427358543,250.585684453356,0.608084278139554,0.302793925371975
8107,0.25,0.248491823358215,-0.25,0.249999999946328,-0.249886433717506,-0.249666868477039,-0.164881348536881,-0.24889808885075,0.525649341878914,0.516026929849916,0.04,0.0635746321592051,250.672802300519,0.550344567711491,0.334678033367085
8167,0.19166730719811,0.248667777299757,-0.249999960536756,0.225177661778443,-0.249898658088017,-0.249705733821384,-0.116478524545356,-0.190693311818163,0.519035716274399,0.516026929849916,0.04,0.064146237729702,247.50494553324,0.520743255688602,0.349232701565082
8227,-0.249994509730489,0.25,-0.249999661743622,0.0372371013644577,-0.249991214036169,-0.25,0.249999999961906,0.25,0.516136341827248,0.516026929849916,0.04,0.047915552308354,246.668274629763,0.545697989321703,0.332135745884999
8287,-0.24987520537055,0.25,-0.249999701191631,0.0620594235781153,-0.249992239065283,-0.237969280323733,0.191675069914351,0.245598267352682,0.517935479925501,0.516026929849916,0.04,0.0434587345636974,247.23207128489,0.522882617580353,0.347420370426529
8347,-0.248971900931007,0.25,-0.24999999986941,0.24999986319581,-0.25,-0.146879545631999,-0.249927971874285,0.212270863022991,0.518418910574542,0.516026929849916,0.04,0.0317113339457535,247.227382345933,0.509155723289416,0.35678009509197
8407,-0.249091845515515,0.191666666666667,-0.249998828575536,0.249970845449248,-0.191666666666667,-0.100586480907901,-0.249706604456137,0.158339280674259,0.516679804430051,0.516026929849916,0.04,0.0298416682640366,246.500911217183,0.50533535146486,0.358421063653027
8467,-0.249999997369641,-0.25,-0.249989960207631,0.249751139653846,0.25,0.24991815200312,-0.248030536861586,-0.249999842823285,0.521522777465951,0.516026929849916,0.04,0.0251998581639043,248.858556414455,0.494608053847422,0.369697122230262
8527,-0.249999997676516,-0.19166666690985,-0.249991129361713,0.227927519194203,0.249999999699896,0.249927654833021,-0.18992697560279,-0.249999626352953,0.51540930735157,0.516026929849916,0.04,0.0272300193316597,245.904551560169,0.486153880258635,0.371661424573695
8587,-0.25,0.249999997915569,-0.249999981528334,0.0626915357140475,0.249999997427677,0.249999604830846,0.249999988213807,-0.249997987363293,0.499072065751859,0.516026929849916,0.04,0.0516370814011221,238.12936883957,0.56736310668984,0.308394443949972
8647,-0.218857064692073,0.249999993276006,-0.191672309171727,0.0262108595745624,0.24999135307603,0.249980993738838,0.249999503553597,-0.191664888837576,0.512862558849157,0.516026929849916,0.04,0.0516312840839614,244.703082804164,0.602863570835729,0.298246307410555
8707,0.0169394454965145,0.249999958147888,0.249951495814015,-0.249999974052967,0.249925902984989,0.249840081185062,0.249995833983438,0.25,0.502416085138543,0.516026929849916,0.04,0.0856136611039281,239.842555809309,0.679821222659241,0.25923056205168
8767,-0.00475140214465375,0.249998569173059,0.19162449606244,-0.249999841088692,0.24993363832337,0.249803141864471,0.24999574640294,0.19166666718991,0.519165546006185,0.516026929849916,0.04,0.0838102512911874,247.896929876533,0.685317985234107,0.265786975431142
8827,-0.168982105713501,0.249988052649346,-0.249994216342339,-0.249998834359177,0.249992205885395,0.249523458437135,0.24999508329345,-0.189704416160512,0.53642874515234,0.516026929849916,0.04,0.0592600181023543,255.837264957378,0.577807715611558,0.325338262590114
8887,-0.12010119425228,0.191656113871834,-0.193217647276934,-0.191666922254792,0.236201716274882,0.249574611701051,0.191662323575881,-0.119414915115956,0.521629733477042,0.517386541893045,0.04,0.0591766730666354,249.035907526606,0.53069549425303,0.344803167495817
8947,0.249997135382675,-0.249999994015047,0.236662089932556,0.249988983678414,0.131788009223854,0.249961914984986,-0.0603431633958286,-0.0603431633958286,0.521048676132344,0.529040359405581,0.04,0.0699017234022872,248.550712249503,0.543569299476123,0.335981038591107
9007,0.249995875702923,-0.191692046686163,0.179884846107189,0.249584626999099,0.0872460748230507,0.249963596603073,-0.0285089706213792,-0.0285089706213792,0.533318851310403,0.540694176918118,0.04,0.0501674477013136,254.613268102095,0.592846771155543,0.315568211703258
9067,0.249986338127665,0.249782411661101,-0.249999999999157,0.246523069284285,-0.249999999925886,0.249976328854306,-0.0142816498961281,-0.0142816498961281,0.5543905783163,0.552347994430654,0.04,0.0369818229493615,264.576417957999,0.596023775143817,0.326168656467782
9127,0.249985989600896,0.249807769821542,-0.191667446501145,0.18859568724106,-0.249999984424303,0.249976553239817,0.0198661273050735,-0.0103228481848101,0.562645561445117,0.56400181194319,0.04,0.0396970972135919,268.467351031616,0.601326370446059,0.328046874397208
9187,0.249983350755362,0.249999767322028,0.249993315698092,-0.249997348229074,-0.249999867055174,0.249978252158684,0.25,-0.00630137124672696,0.569823149230184,0.575655629455727,0.04,0.0451222427403865,272.00414955517,0.635214176735418,0.314637167425748
9247,0.249974039207558,0.249999698252522,0.191660762199981,-0.249997657602349,-0.19166654923207,0.249980591269543,0.249994241398916,-0.00297627907322334,0.584916027646358,0.587309446968263,0.04,0.0452860074933015,279.097357062588,0.653642756957537,0.313740039644695
9307,0.249903537488468,0.249999175297689,-0.25,-0.25,0.25,0.249998301680335,0.249950640562136,-0.0014060622341047,0.596664438259982,0.598963264480799,0.04,0.0434034586334291,284.849023597319,0.673367309911684,0.310826030823029
9367,0.24991214232388,0.249995161631183,-0.249992442164203,-0.24999999838822,0.191667114599128,0.249998499817629,0.249938952419824,-0.000663909801428665,0.609820433809469,0.610617081993336,0.04,0.0436733667045647,291.129150648165,0.680206151223966,0.314484912307392
9427,0.249977293220567,0.249964772441925,-0.249935218550312,-0.249999986184745,-0.249996160578899,0.25,0.249850456485178,-0.00357251978481904,0.629286486537424,0.622270899505872,0.04,0.0313763996454639,300.276462192855,0.648019236225216,0.340477226666696
9487,0.249979634811158,0.249968281359702,-0.249942776386109,-0.19168577801638,-0.249996545611347,0.25,0.249797740729955,-0.0148753167534279,0.634412533420064,0.633924717018409,0.04,0.0340275816082691,302.724090835422,0.638434409042358,0.348405798347394
9547,0.249997363997057,0.249994848880011,-0.25,0.249836083829817,-0.249999460857028,0.25,0.2493986071547,0.0896914056015631,0.633949416021459,0.645578534530945,0.04,0.0489590477185045,302.668966053,0.683999231813899,0.325137420176114
9607,0.249922640337556,0.24999526290517,-0.249999384097337,0.193459491060811,-0.191666690289399,0.249999578376527,0.249468762024361,0.100212010461009,0.653320607424946,0.657232352043481,0.04,0.0451793455365768,311.729787581393,0.714892344532045,0.32039987167023
9667,0.249356875487048,0.24999839766709,-0.24999472083432,-0.233391854190235,0.249995715436934,0.249996386084521,0.249999934608936,0.179868018682525,0.663783995836271,0.668886169556018,0.04,0.0458173725203059,316.876824615966,0.747805066130425,0.311355649731816
9727,0.249431906231793,0.249998584605929,-0.19166200340365,-0.229425213395517,0.218507326138806,0.249988885875945,0.249992038142955,0.153132682860732,0.679520785519592,0.680539987068554,0.04,0.0472699741675011,324.399581184937,0.761225105922108,0.313127966643854
9787,0.249999996156285,0.25,0.25,-0.199392075949798,-0.0199047642613017,0.249932098582441,0.249932250614816,-0.00177674241029436,0.691588633500933,0.69219380458109,0.04,0.0546358484051071,329.988731260732,0.759118120031606,0.319406998472276
9847,0.249999996604718,0.25,0.249938970185337,-0.146963000422321,-0.046749205332412,0.249909562686633,0.191606821376421,-0.000839005887665209,0.70174562419424,0.703847622093627,0.04,0.0513517008842298,335.074883476464,0.774078848972608,0.318061681506355
9907,0.25,0.25,0.249476887302889,0.25,-0.249999973442246,0.249738933761233,-0.000396052660358629,0.25,0.706791532495211,0.715501439606163,0.04,0.0571553604029258,337.381868026002,0.801108110204946,0.309446294360365
9967,0.24992013504208,0.25,0.191204823987168,0.25,-0.249658211438322,0.249707989054266,-0.00018681732442159,0.221857984847383,0.723395901534599,0.7271552571187,0.04,0.0517881855241753,345.406149429049,0.833198617428974,0.304604419981616
10027,0.24931544321783,0.25,-0.249997941117572,0.25,-0.247070584837178,0.249473693415799,-0.000781154665694456,0.00878272726328573,0.748151977790654,0.738809074631236,0.04,0.0367543486242908,356.888055141408,0.795428087214445,0.329674811586558
10087,0.249054295417067,0.24999970165993,-0.24999818130463,0.249070446177549,-0.206712180855951,0.249480432940915,-0.00361371542741002,0.036924722051691,0.750196819420961,0.749103280100643,0.04,0.0407971288799968,357.741182296489,0.781694812457574,0.33626865311035
10147,0.247077033497008,0.2499974427994,-0.249999999863777,0.242032395807562,0.0988585921447612,0.249531460773932,-0.00225272374141312,0.249999825449616,0.742364454741568,0.749103280100643,0.04,0.0519046021655258,354.345758002568,0.816388796526071,0.318922293151988
10207,0.189084716670022,0.249986393810601,-0.249963559632678,0.242961949630013,0.0591355296348864,0.24958612368364,-0.00106384248146907,0.191666532043321,0.750815313503892,0.749103280100643,0.04,0.0492647626684723,358.534435207577,0.819496033023495,0.321468700188048
10267,-0.249999967877157,0.249902737181119,-0.249687655025784,0.25,-0.241624800797022,0.25,0.25,-0.00290362156809294,0.756863407069804,0.749103280100643,0.04,0.032988281550718,361.270875496245,0.751715488140212,0.353129605625804
10327,-0.191666638291489,0.24991222987276,-0.191390761939443,0.191669936216312,-0.184269048603012,0.25,0.249999947182265,-0.0117522923256419,0.751906937109095,0.749103280100643,0.04,0.0341391289915764,358.73249238039,0.727645690275766,0.36224752737384
10387,0.25,0.249984103109477,0.25,-0.249971975288753,0.249995932294497,0.25,0.249999547276561,-0.0117830920406458,0.737835132647605,0.749103280100643,0.04,0.0594598717582122,352.088198194327,0.785990704968337,0.329146115576089
10447,0.24999995930168,0.249985957746704,0.25,-0.191641911505065,0.249996390886593,0.249999988180117,0.249993603433573,-0.00556564834235275,0.746641219771829,0.749103280100643,0.04,0.058160513972615,356.176658839928,0.811929334091588,0.322330869461148
10507,0.249999651157261,0.25,0.25,0.25,0.249999863083886,0.249999898686717,0.249948600050947,-0.00262874982994924,0.742820085148863,0.749103280100643,0.04,0.0700389707696235,354.452319344958,0.843479103524943,0.308772184952295
10567,0.249996828651186,0.25,0.249994198291209,0.249990405989799,0.191668100243303,0.249997872684715,0.24995226211491,-0.00124146378592276,0.746475283879952,0.749103280100643,0.04,0.0676367512712356,356.26441922352,0.86604242950626,0.302265066307559
10627,0.249975458248048,0.25,0.249950271067509,0.249917765626846,-0.249986675549684,0.249982532955273,0.249979989170622,0.25,0.746773095098433,0.749103280100643,0.04,0.0638441994837041,356.361313942183,0.869966902328186,0.30098336792584
10687,0.249978321452443,0.25,0.249956072776299,0.249925934648049,-0.231041171593412,0.249980675877413,0.24998053073958,0.25,0.749856740990236,0.749103280100643,0.04,0.0663422297939967,357.730087356029,0.868510182395733,0.30264620353995
10747,0.25,0.25,0.25,0.24998778580858,-0.0875966416387748,0.249966615145048,0.24998463119026,0.25,0.748052451686102,0.749103280100643,0.04,0.0709468131547616,356.917326350391,0.872127097699798,0.3007062998529
10807,0.249992937225996,0.249997601609271,0.242130690152813,0.249989210797579,-0.0482103667809178,0.249965563044978,0.249985815999244,0.249999934300074,0.748799621766855,0.749103280100643,0.04,0.0720255135931798,357.193782936779,0.873892573606484,0.300331246663949
10867,0.24993946193711,0.24997944236518,0.182548772738396,0.25,0.25,0.249957597144448,0.249994786695838,0.249999436857776,0.745549989192757,0.749103280100643,0.04,0.0767278234440793,355.747061077204,0.891446562333529,0.293224789152623
10927,0.249946215621003,0.249981782053531,0.19041808164711,0.191666949840487,0.191666790234935,0.249962544144262,0.194104132640649,0.191666169224368,0.750855410977433,0.749103280100643,0.04,0.0705471726052406,358.781954697739,0.898466596462123,0.293415689402852
10987,0.249997350656191,0.249999496836757,0.249999991955945,-0.249997572795829,-0.249998940843417,0.25,-1.0690236462793e-05,-1.0690236462793e-05,0.767014188303312,0.749103280100643,0.04,0.0496331188978174,365.723610203429,0.781732792509618,0.343755253566958
11047,0.249990826571872,0.249999555539135,0.191666706727712,-0.249997855969649,-0.191665731166353,0.24999999661347,-4.78586834328382e-06,-4.78586834328382e-06,0.752895272119699,0.749103280100643,0.04,0.0503859131003379,359.08380887979,0.739482013715248,0.356798388568064
11107,0.249941429933458,0.25,-0.249999595714623,-0.25,0.249999999245703,0.249999970972595,0.249999865686144,0.249999096134166,0.734832069313664,0.749103280100643,0.04,0.0531349138742683,350.995474843522,0.788027640372525,0.32727644037163
11167,0.249948263107888,0.191667846627067,-0.249998905042745,-0.249998120375628,0.249999975600681,0.249999974359126,0.249999875612186,0.212911397968816,0.749625521273404,0.749103280100643,0.04,0.048265348346277,357.861937440657,0.801374994369246,0.328121280922618
11227,0.25,-0.249989886053715,-0.24999367566995,-0.249983888933959,0.249999796574086,0.25,0.249999950766504,-0.00213274566821391,0.76125491229873,0.749103280100643,0.04,0.0329712332968979,363.181944200727,0.732302829400959,0.364408260693236
11287,0.24999948335696,-0.24999106600564,-0.249992847653809,-0.249985768558018,0.249998892115352,0.191666726539932,0.191666631156628,-0.011169770482377,0.752540075284052,0.749103280100643,0.04,0.029020217965383,359.348354580883,0.706408072542187,0.373778815440787
11347,0.249995571631084,-0.249999999927362,-0.249986578388737,-0.249999999997321,0.249992044070652,-0.249999486800585,-0.0410135021122955,-0.0410135021122955,0.75944860692936,0.749103280100643,0.04,0.00506083037863574,362.225052546212,0.634446818969016,0.419505767617018
11407,0.249995491521223,-0.191716673487095,-0.249987287319599,-0.249999999997634,0.249987895759147,-0.24999954667385,-0.103606045465091,-0.103606045465091,0.752291015846474,0.749103280100643,0.04,0.000359490735477415,358.908199681269,0.608199014232092,0.433603066361789
11467,0.249994884975134,0.249571369560639,-0.249992654938984,-0.25,0.249956487114899,-0.25,-0.175202863084746,0.25,0.731530277141229,0.749103280100643,0.04,0.0259143477181615,349.21113829888,0.686372141632645,0.373837716723704
