time,bias_percent_1,bias_percent_2,bias_percent_3,bias_percent_4,bias_percent_5,bias_percent_6,bias_percent_8,bias_percent_9,normalized_power,power_SP,SP,CV,total_power_MW,fuel_fraction,thermal_efficiency
13,0,0,0,0,0,0,0,0,0.999772472668643,1,0.04,0.0401663321013334,476.925204320287,0.998543460986245,0.350944126792987
73,-0.0023213087911945,0.00582445253670517,0.00534849460040709,0.0008623327226843,0.00106581975239658,0.00273326548400576,0.00196062620458366,0.00281751072118186,0.998450263971987,0.996939987508527,0.04,0.0409598198641068,476.284992697105,0.99712787535338,0.350970582415042
133,-0.013035041673631,0.0327065411676519,0.030033854294594,0.00484232990430394,0.005984987840381,0.0153483369486479,0.0110096702257391,0.0158214063574059,0.986003454379317,0.982816852932498,0.04,0.0463813395745226,470.31197085701,0.978715632818167,0.353088996807805
193,-0.0237487745560674,0.059588629798599,0.054719213988781,0.0088223270859238,0.0109041559283655,0.02796340841329,0.0200587142468945,0.0288253019936299,0.971841406256663,0.968693718356469,0.04,0.0504997266841406,463.551839658352,0.958841530150618,0.355227147921219
253,-0.0344625074385038,0.0864707184295456,0.0794045736829679,0.0128023242675434,0.0158233240163497,0.0405784798779322,0.0291077582680499,0.0418291976298539,0.957537526977305,0.95457058378044,0.04,0.0533299294075101,456.727346307144,0.939987745988747,0.357017496104617
313,-0.0451762403209402,0.113352807060493,0.104089933377155,0.0167823214491633,0.0207424921043342,0.0531935513425744,0.0381568022892054,0.0548330932660779,0.943244839233052,0.94044744920441,0.04,0.055301288172659,449.908598010187,0.92216794215164,0.358483316361988
373,-0.0558899732033766,0.140234895691439,0.128775293071342,0.0207623186307829,0.0256616601923187,0.0658086228072166,0.0472058463103608,0.0678369889023019,0.928981970908209,0.926324314628381,0.04,0.0567062567057531,443.103979734738,0.90524169164768,0.359663014028625
433,-0.066603706085813,0.167116984322386,0.153460652765529,0.0247423158124027,0.0305808282803031,0.0784236942718587,0.0562548903315161,0.0808408845385259,0.914741140590665,0.912201180052352,0.04,0.05772358586655,436.309838714911,0.889064490214116,0.360592274575286
493,-0.0773174389682493,0.193999072953333,0.178146012459716,0.0287223129940226,0.0354999963682875,0.0910387657365009,0.0653039343526716,0.0938447801747499,0.900518927293939,0.898078045476323,0.04,0.0584615734456234,429.524557532917,0.873518573718754,0.361302138026434
553,-0.0880311718506858,0.22088116158428,0.202831372153903,0.0327023101756422,0.0404191644562718,0.103653837201143,0.074352978373827,0.106848675810974,0.886312517640978,0.883954910900294,0.04,0.0589877202865315,422.746793045938,0.858503171624321,0.361820437198961
613,-0.0987449047331223,0.247763250215227,0.227516731848089,0.0366823073572619,0.0453383325442562,0.116268908665785,0.0834020223949824,0.119852571447198,0.872118461434771,0.869831776324265,0.04,0.0593436140984431,415.974890898469,0.843936689159181,0.362169542960955
673,-0.109458637615559,0.274645338846174,0.252202091542276,0.0406623045388816,0.0502575006322406,0.128883980130427,0.0924510664161379,0.132856467083422,0.85793256949759,0.855708641748236,0.04,0.0595535175741811,409.206848637013,0.829761258495887,0.362363475251291
733,-0.120172370497995,0.301527427477121,0.276887451236463,0.0446423017205015,0.0551766687202252,0.141499051595069,0.101500110437293,0.145860362719646,0.843729427403302,0.841585507172206,0.04,0.0596754700867768,402.423121983072,0.816005773872768,0.362363437213463
793,-0.130886103380431,0.328409516108067,0.30157281093065,0.0486222989021211,0.0600958368082094,0.154114123059711,0.110549154458449,0.15886425835587,0.828588490160805,0.827462372596177,0.04,0.0603756248534934,395.199194007164,0.806288898464865,0.360147203012683
853,-0.141599836262868,0.355291604739014,0.326258170624837,0.052602296083741,0.0650150048961939,0.166729194524354,0.119598198479604,0.171868153992094,0.813712610147473,0.813339238020148,0.04,0.0615176504543642,388.106150569473,0.802071558132085,0.355542961299146
913,-0.14999226035411,0.376349240833256,0.345595035718617,0.0557199605426763,0.0688683532317816,0.17661100050499,0.126686616296176,0.182054538907136,0.800407274904704,0.802276115935592,0.04,0.061977953041318,381.830141613513,0.804007687950114,0.348951189695608
973,-0.14999226035411,0.376349240833256,0.345595035718617,0.0557199605426764,0.0688683532317816,0.17661100050499,0.126686616296176,0.182054538907136,0.79852859727106,0.802276115935592,0.04,0.0571165690872789,380.981518230764,0.825727494697793,0.339017282757818
1033,-0.14999226035411,0.376349240833256,0.345595035718617,0.0557199605426763,0.0688683532317816,0.17661100050499,0.126686616296176,0.182054538907136,0.799449360571234,0.802276115935592,0.04,0.0547399860247689,381.425801069651,0.844859003216748,0.331726759892325
1093,-0.14999226035411,0.376349240833256,0.345595035718617,0.0557199605426764,0.0688683532317817,0.17661100050499,0.126686616296176,0.182054538907136,0.800401479102054,0.802276115935592,0.04,0.0542799884017334,381.877919642601,0.857918191252037,0.327064454655141
1153,-0.14999226035411,0.376349240833256,0.345595035718617,0.0557199605426763,0.0688683532317816,0.17661100050499,0.126686616296176,0.182054538907136,0.80105977043868,0.802276115935592,0.04,0.0545670017384249,382.189782240766,0.866426122469815,0.324117298727644
1213,-0.14999226035411,0.376349240833256,0.345595035718617,0.0557199605426763,0.0688683532317816,0.17661100050499,0.126686616296176,0.182054538907136,0.801483002137059,0.802276115935592,0.04,0.0550207960620667,382.390190357953,0.871957021839134,0.322230273169916
1273,-0.14999226035411,0.376349240833256,0.345595035718617,0.0557199605426763,0.0688683532317816,0.17661100050499,0.126686616296176,0.182054538907136,0.801752446827636,0.802276115935592,0.04,0.0554305249324042,382.517786791777,0.87559128503125,0.320999887596061
1333,-0.14999226035411,0.376349240833256,0.345595035718617,0.0557199605426764,0.0688683532317816,0.17661100050499,0.126686616296176,0.182054538907136,0.801925934030213,0.802276115935592,0.04,0.0557454388974541,382.599964440236,0.878010746530731,0.320184106299333
1393,-0.14999226035411,0.376349240833256,0.345595035718617,0.0557199605426764,0.0688683532317816,0.17661100050499,0.126686616296176,0.182054538907136,0.80203964711286,0.802276115935592,0.04,0.0559714679090747,382.65384433784,0.879639254127596,0.319636344682633
1453,-0.14999226035411,0.376349240833256,0.345595035718617,0.0557199605426763,0.0688683532317816,0.17661100050499,0.126686616296176,0.182054538907136,0.802115412092769,0.802276115935592,0.04,0.0561286856564933,382.689752173688,0.88074372440291,0.319265471028974
1513,-0.14999226035411,0.376349240833256,0.345595035718617,0.0557199605426764,0.0688683532317817,0.17661100050499,0.126686616296176,0.182054538907136,0.802166487009257,0.802276115935592,0.04,0.0562365334447689,382.713962186465,0.881496271264033,0.319013089583112
1573,-0.14999226035411,0.376349240833256,0.345595035718617,0.0557199605426763,0.0688683532317816,0.17661100050499,0.126686616296176,0.182054538907136,0.802201160501552,0.802276115935592,0.04,0.0563101102600581,382.730399056167,0.882010429104084,0.318840817615955
1633,-0.14999226035411,0.376349240833256,0.345595035718617,0.0557199605426763,0.0688683532317816,0.17661100050499,0.126686616296176,0.182054538907136,0.80222478576145,0.802276115935592,0.04,0.0563602192678063,382.741599050671,0.882362335579914,0.318722983181564
1693,-0.14999226035411,0.376349240833256,0.345595035718617,0.0557199605426763,0.0688683532317816,0.17661100050499,0.126686616296176,0.182054538907136,0.802240910437168,0.802276115935592,0.04,0.0563943331057539,382.749243339722,0.882603556820811,0.31864223807633
1753,-0.14999226035411,0.376349240833256,0.345595035718617,0.0557199605426763,0.0688683532317816,0.17661100050499,0.126686616296176,0.182054538907136,0.802251923144939,0.802276115935592,0.04,0.056417554544867,382.754464243261,0.882769196806311,0.318586794701346
1813,-0.143675729416343,0.367583600860982,0.342534039769341,0.0493886259396373,0.0666563480569889,0.176719248968307,0.119299029255383,0.175135672297553,0.80305668315744,0.802858760241134,0.04,0.0555333232038693,383.168882267196,0.882708849564746,0.318953540827991
1873,-0.114522509703574,0.327126800988949,0.328406366157301,0.0201670816179187,0.0564470934040987,0.177218857260538,0.0852024736824953,0.143202441791787,0.806876836234057,0.805547887805174,0.04,0.0521566600655323,384.98786114888,0.876698460084342,0.322664709833755
1933,-0.0853692899908048,0.286670001116915,0.314278692545261,-0.0090544627037998,0.0462378387512088,0.177718465552769,0.0511059181096071,0.111269211286021,0.810093421503812,0.808237015369215,0.04,0.048948500645918,386.499221083252,0.866637804191547,0.327691872125294
1993,-0.0562160702780357,0.246213201244882,0.30015101893322,-0.0382760070255184,0.0360285840983187,0.178218073845,0.0170093625367189,0.0793359807802546,0.812986274104823,0.810926142933255,0.04,0.0454595085914976,387.897770986768,0.854736941144934,0.333456729218888
