time,bias_percent_1,bias_percent_2,bias_percent_3,bias_percent_4,bias_percent_5,bias_percent_6,bias_percent_8,bias_percent_9,normalized_power,power_SP,SP,CV,total_power_MW,fuel_fraction,thermal_efficiency
24,0,0,0,0,0,0,0,0,0.999553990091873,1,0.04,0.0400222271187043,476.897243210864,0.999393569683775,0.3506250475005
84,-0.0115207249989428,0.00988868962850597,0.0108579957697849,-0.00528463707098763,0.00734129326680681,0.00272019618061495,0.0073257604969146,0.00704024078017824,0.990246985548337,0.980903611092299,0.04,0.0449829161710175,472.169257001471,0.97643728120457,0.355310490509524
144,-0.0403225374963001,0.034610413699771,0.0380029851942471,-0.0184962297484566,0.0256945264338237,0.00952068663215221,0.0256401617392011,0.0246408427306241,0.947152719785211,0.933162638823045,0.04,0.0598153569463352,451.649121392657,0.892932736661313,0.371652536060106
204,-0.0691243499936572,0.0593321377710361,0.0651479746187092,-0.0317078224259254,0.0440477596008408,0.0163211770836895,0.0439545629814876,0.0422414446810698,0.89928616409064,0.885421666553792,0.04,0.0706254668296733,428.662133806268,0.805488735774257,0.391030223593483
264,-0.0979261624910144,0.084053861842301,0.0922929640431713,-0.0449194151033946,0.0624009927678578,0.0231216675352267,0.0622689642237741,0.0598420466315156,0.850700467855151,0.837680694284539,0.04,0.0772588353882416,405.483478150221,0.723361314859417,0.411881760425051
324,-0.126727974988372,0.108775585913566,0.119437953467634,-0.0581310077808636,0.0807542259348747,0.029922157986764,0.0805833654660607,0.0774426485819613,0.802200699497332,0.789939722015285,0.04,0.081067863308091,382.344328914398,0.645857422314794,0.434983390710155
384,-0.155529787485729,0.133497309984831,0.146582942892096,-0.0713426004583325,0.0991074591018917,0.0367226484383014,0.0988977667083472,0.0950432505324071,0.753711536304046,0.742198749746032,0.04,0.0826183726884168,359.210271998725,0.57286803823412,0.460732481577615
444,-0.184331599983086,0.158219034056096,0.173727932316558,-0.0845541931358015,0.117460692268909,0.0435231388898386,0.117212167950634,0.112643852482853,0.703872828194426,0.694457777476779,0.04,0.083299365794984,335.649642253339,0.510107451741125,0.483480761078169
504,-0.213133412480443,0.182940758127361,0.20087292174102,-0.0977657858132704,0.135813925435926,0.0503236293413758,0.13552656919292,0.130244454433299,0.653603757473406,0.646716805207526,0.04,0.0846862480000382,311.658534624738,0.463731170475968,0.493818563636944
564,-0.2419352249778,0.207662482198626,0.228017911165482,-0.110977378490739,0.154167158602943,0.0571241197929132,0.153840970435207,0.147845056383744,0.604537804442807,0.598975832938272,0.04,0.0875525853126844,288.262468346906,0.428067179231214,0.494801316542423
624,-0.270737037475158,0.232384206269891,0.255162900589944,-0.124188971168208,0.17252039176996,0.0639246102444504,0.172155371677493,0.16544565833419,0.556251357624719,0.551234860669019,0.04,0.0929915632562412,265.306048506099,0.396722974097727,0.491376606225441
684,-0.299538849972515,0.257105930341156,0.282307890014407,-0.137400563845677,0.190873624936977,0.0707251006959877,0.19046977291978,0.183046260284636,0.508961228199947,0.503493888399765,0.04,0.10186217283515,242.727255009679,0.364506394165686,0.489291948898691
744,-0.328340662469872,0.281827654412421,0.309452879438869,-0.150612156523146,0.209226858103994,0.077525591147525,0.208784174162066,0.200646862235082,0.461462725502108,0.455752916130512,0.04,0.114532670807293,220.103105343582,0.330265591379041,0.489685807330569
804,-0.318798319440495,0.306549378483686,0.336597868863331,-0.163823749200615,0.227580091271011,0.0843260815990623,0.227098575404353,0.218247464185527,0.415223875883774,0.408011943861259,0.04,0.126955853713797,198.048571941987,0.290929669320833,0.500193885115917
864,-0.282332202314871,0.331271102554951,0.363742858287793,-0.177035341878084,0.245933324438028,0.0911265720505995,0.245412976646639,0.235848066135973,0.367145564864148,0.360270971592006,0.04,0.144819959961371,175.126390614475,0.248787833961474,0.517222172551521
924,-0.248438509879616,0.34610413699771,0.38002985194247,-0.184962297484566,0.256945264338238,0.0952068663215219,0.256401617392011,0.246408427306241,0.325182785620092,0.331626388230454,0.04,0.151463670629215,155.103978546104,0.240026002196761,0.474809415599622
984,-0.253639394899215,0.34610413699771,0.38002985194247,-0.184962297484566,0.256945264338238,0.0952068663215219,0.256401617392011,0.246408427306241,0.32010461419071,0.331626388230454,0.04,0.113410995056418,152.729544744216,0.306432558577048,0.366220647477754
1044,-0.287973598226096,0.34610413699771,0.38002985194247,-0.184962297484566,0.256945264338238,0.0952068663215219,0.256401617392011,0.246408427306241,0.323939304624284,0.331626388230454,0.04,0.0902707335132938,154.592987544804,0.363224278993923,0.312730036851784
1104,-0.324041350285882,0.34610413699771,0.38002985194247,-0.184962297484566,0.256945264338238,0.0952068663215219,0.256401617392011,0.246408427306241,0.328022669018665,0.331626388230454,0.04,0.0856369955752525,156.520835103661,0.391787125933594,0.293546341180899
1164,-0.350520657077156,0.34610413699771,0.38002985194247,-0.184962297484566,0.256945264338238,0.0952068663215219,0.256401617392011,0.246408427306241,0.329865328022459,0.331626388230454,0.04,0.0870134434516469,157.388339984571,0.405410027435397,0.285254657901388
1224,-0.367677672688211,0.34610413699771,0.38002985194247,-0.184962297484566,0.256945264338238,0.0952068663215218,0.256401617392011,0.246408427306241,0.33070461775643,0.331626388230454,0.04,0.0889291924422207,157.783504387495,0.412331022028989,0.281170830279397
1284,-0.378256481939882,0.34610413699771,0.38002985194247,-0.184962297484566,0.256945264338238,0.0952068663215219,0.256401617392011,0.246408427306241,0.331085917229356,0.331626388230454,0.04,0.0902707243481499,157.963131244832,0.416212035254374,0.278866134083916
1344,-0.384725721455695,0.34610413699771,0.38002985194247,-0.184962297484566,0.256945264338238,0.0952068663215219,0.256401617392011,0.246408427306241,0.3312791157625,0.331626388230454,0.04,0.0910420241347068,158.054421809439,0.418636641232111,0.277411262808905
1404,-0.388730779358259,0.34610413699771,0.38002985194247,-0.184962297484566,0.256945264338238,0.0952068663215219,0.256401617392011,0.246408427306241,0.331397922221544,0.331626388230454,0.04,0.0914633075605587,158.110716399118,0.420226804263568,0.276459954504897
1464,-0.391245112809376,0.34610413699771,0.38002985194247,-0.184962297484566,0.256945264338238,0.0952068663215218,0.256401617392011,0.246408427306241,0.331478537530501,0.331626388230454,0.04,0.0917033608830159,158.148933636359,0.421263829900286,0.275846051881915
1524,-0.392834226579664,0.34610413699771,0.38002985194247,-0.184962297484566,0.256945264338238,0.0952068663215219,0.256401617392011,0.246408427306241,0.331532621649861,0.331626388230454,0.04,0.0918498876090582,158.17455690599,0.42192594533683,0.27545779754555
1584,-0.393839112901639,0.34610413699771,0.38002985194247,-0.184962297484566,0.256945264338238,0.0952068663215219,0.256401617392011,0.246408427306241,0.33156741842478,0.331626388230454,0.04,0.0919427545400384,158.191031880227,0.422343124770477,0.275214370070939
1644,-0.3944737769987,0.34610413699771,0.38002985194247,-0.184962297484566,0.256945264338238,0.0952068663215219,0.256401617392011,0.246408427306241,0.331589178840248,0.331626388230454,0.04,0.0920016664493493,158.201331701326,0.422605825221751,0.275061199246045
1704,-0.394874680269495,0.34610413699771,0.38002985194247,-0.184962297484566,0.256945264338238,0.0952068663215218,0.256401617392011,0.246408427306241,0.331602686566541,0.331626388230454,0.04,0.0920384689412864,158.207725377898,0.422772528296706,0.274963852261651
1764,-0.395128579165954,0.34610413699771,0.38002985194247,-0.184962297484566,0.256945264338238,0.0952068663215219,0.256401617392011,0.246408427306241,0.331611112665509,0.331626388230454,0.04,0.0920610739612721,158.211714224021,0.422879491014907,0.274901234009548
1824,-0.396226879856394,0.337083263600013,0.36352607972368,-0.176827034449115,0.248470560350711,0.100202795914794,0.249525797861237,0.229514284491359,0.333438046444462,0.33649313804624,0.04,0.086717821804234,159.154978062382,0.430669890117984,0.271537861768359
1884,-0.385667140362307,0.31453108010577,0.322266649176703,-0.156488876860489,0.227283800381892,0.112692619897975,0.232336249034301,0.187278927454154,0.345956855360626,0.348660012585706,0.04,0.0709637710147202,165.156293595556,0.449123738362263,0.270199035235274
1944,-0.373125544218954,0.291978896611527,0.281007218629727,-0.136150719271862,0.206097040413074,0.125182443881156,0.215146700207365,0.145043570416949,0.358909088085432,0.360826887125172,0.04,0.0616732294798951,171.305859604265,0.462395285610259,0.272215905437564
2004,-0.360583948075601,0.269426713117284,0.23974778808275,-0.115812561683236,0.184910280444256,0.137672267864337,0.197957151380429,0.102808213379745,0.371688578310797,0.372993761664639,0.04,0.0544308926148489,177.352571968123,0.472009353963393,0.276084205628552
