time,bias_percent_1,bias_percent_2,bias_percent_3,bias_percent_4,bias_percent_5,bias_percent_6,bias_percent_8,bias_percent_9,normalized_power,power_SP,SP,CV,total_power_MW,fuel_fraction,thermal_efficiency
53,0,0,0,0,0,0,0,0,0.999826158240441,1,0.04,0.0399095806184678,477.019946416568,1.00000717992864,0.3505000605879
113,-0.0222068123476373,-0.00215130699603435,-0.0274183770178898,0.0284234240085598,0.000499894287470852,0.0108280420275581,-0.0176930880651433,-0.0279731252085061,0.985645995069522,0.976440443185353,0.04,0.0449224951852781,470.063779366426,0.957814271222424,0.360603685180605
173,-0.0473465999110002,-0.00458674887833752,-0.0584580491136143,0.0606008851503253,0.0010658123487583,0.0230862028134728,-0.0377229990822866,-0.0596408141237961,0.959779370404588,0.949769246791413,0.04,0.0495386605638911,457.695477863486,0.896428013444235,0.375159439198489
233,-0.0724863874743631,-0.00702219076064046,-0.0894977212093385,0.0927783462920911,0.00163173041004598,0.0353443635993876,-0.05775291009943,-0.0913085030390861,0.932437226060067,0.923098050397472,0.04,0.0505666268007994,444.64668619057,0.837563593163344,0.390078438032586
293,-0.0976261750377262,-0.0094576326429434,-0.120537393305063,0.124955807433857,0.00219764847133354,0.0476025243853024,-0.0777828211165733,-0.122976191954376,0.905143261451552,0.896426854003532,0.04,0.048906726947745,431.624984529883,0.783743545671028,0.404657202438397
353,-0.122765962601089,-0.0118930745252464,-0.151577065400787,0.157133268575622,0.00276356653262133,0.0598606851712174,-0.0978127321337167,-0.154643880869666,0.877598749902954,0.869755657609592,0.04,0.04565834785714,418.492004433117,0.735277666036787,0.418206199644055
413,-0.147905750164452,-0.0143285164075495,-0.182616737496512,0.189310729717388,0.00332948459390877,0.0721188459571322,-0.11784264315086,-0.186311569784956,0.849968564279731,0.843084461215652,0.04,0.0415520126189956,405.396260096726,0.692502374484956,0.430143284806756
