time,bias_percent_1,bias_percent_2,bias_percent_3,bias_percent_4,bias_percent_5,bias_percent_6,bias_percent_8,bias_percent_9,normalized_power,power_SP,SP,CV,total_power_MW,fuel_fraction,thermal_efficiency
36,0,0,0,0,0,0,0,0,0.99968891199591,1,0.04,0.0399583843898292,476.957506092932,0.999748751079786,0.350544771527653
96,0,0,0,0,0,0,0,0,0.999963758010495,1,0.04,0.0398999906304471,477.083324181199,1.0002587193197,0.350458475204728
156,0,0,0,0,0,0,0,0,0.999996313472287,1,0.04,0.0399404431584031,477.098317566832,1.00031552248537,0.350449587630793
216,0,0,0,0,0,0,0,0,1.00000105817985,1,0.04,0.0399718120505979,477.10052293532,1.00031545348085,0.350451231745524
276,0,0,0,0,0,0,0,0,1.00000270435077,1,0.04,0.0399907312969064,477.10129984744,1.00030208969621,0.350456484369552
336,0,0,0,0,0,0,0,0,1.00000361260006,1,0.04,0.0400015148809513,477.101728456715,1.00028198012826,0.350463844754156
396,0,0,0,0,0,0,0,0,1.0000039733914,1,0.04,0.0400071900753902,477.101896641651,1.0002586304802,0.350472149391932
456,0,0,0,0,0,0,0,0,1.0000039037139,1,0.04,0.0400096341904497,477.101860558491,1.00023488602488,0.350480442701217
516,0,0,0,0,0,0,0,0,1.00000354823111,1,0.04,0.0400100724696431,477.101689255848,1.00021276047012,0.350488069783717
576,0,0,0,0,0,0,0,0,1.00000303868802,1,0.04,0.0400093382891114,477.101445378475,1.00019343495878,0.350494662674466
636,0,0,0,0,0,0,0,0,1.00000247531836,1,0.04,0.0400080006745738,477.101176550999,1.00017742057357,0.350500077142523
696,0,0,0,0,0,0,0,0,1.00000192669032,1,0.04,0.0400064395018088,477.100914994334,1.00016475507684,0.350504323515058
756,0,0,0,0,0,0,0,0,1.00000143240208,1,0.04,0.0400048938314572,477.10067978602,1.00015518155649,0.350507505756196
816,0,0,0,0,0,0,0,0,1.00000101342197,1,0.04,0.0400035020061211,477.100480484124,1.00014828192994,0.350509777348099
876,0,0,0,0,0,0,0,0,1.00000067506174,1,0.04,0.0400023308832576,477.100319725911,1.00014357836129,0.350511307653983
936,0,0,0,0,0,0,0,0,1.00000041398554,1,0.04,0.0400013996329191,477.100195740609,1.00014059620753,0.350512261697097
996,0,0,0,0,0,0,0,0,1.00000022173236,1,0.04,0.0400006977981894,477.100104505981,1.00013890340386,0.350512787935473
1056,0,0,0,0,0,0,0,0,1.00000008715128,1,0.04,0.0400001982213577,477.100040712331,1.00013813054894,0.350513011926055
1116,0,0,0,0,0,0,0,0,0.999999998743147,1,0.04,0.0399998664634186,477.099998853549,1.00013797708701,0.350513034956471
1176,0,0,0,0,0,0,0,0,0.999999945612633,1,0.04,0.0399996667418003,477.099973743708,1.00013820959934,0.350512935021586
1236,0,0,0,0,0,0,0,0,0.999999918222952,1,0.04,0.0399995657277579,477.099960846333,1.00013865483191,0.350512769508083
1296,0,0,0,0,0,0,0,0,0.999999908656177,1,0.04,0.0399995344935228,477.099956397503,1.00013919046218,0.350512578520527
1356,0,0,0,0,0,0,0,0,0.999999910625067,1,0.04,0.039999549362616,477.099957407108,1.00013973519404,0.350512388353563
1416,0,0,0,0,0,0,0,0,0.999999919367293,1,0.04,0.0399995918769874,477.099961616219,1.00014023931036,0.350512214771642
1476,0,0,0,0,0,0,0,0,0.999999931465155,1,0.04,0.0399996483457324,477.099967405185,1.00014067628884,0.350512065879884
1536,0,0,0,0,0,0,0,0,0.999999944553668,1,0.04,0.0399997091708394,477.099973650127,1.00014103584584,0.350511944456574
1596,0,0,0,0,0,0,0,0,0.999999957133073,1,0.04,0.0399997680586152,477.099979643499,1.00014131831726,0.350511849864116
1656,0,0,0,0,0,0,0,0,0.999999968348638,1,0.04,0.0399998212690122,477.09998498152,1.00014153039837,0.350511779459386
1716,0,0,0,0,0,0,0,0,0.999999977797883,1,0.04,0.0399998669375022,477.099989474974,1.00014168205286,0.350511729611443
1776,0,0,0,0,0,0,0,0,0.999999985388807,1,0.04,0.0399999045075054,477.09999308193,1.00014178436431,0.35051169640509
1836,0,0,0,0,0,0,0,0,0.999999991222929,1,0.04,0.0399999342699106,477.099995852219,1.00014184815465,0.350511676084255
1896,0,0,0,0,0,0,0,0,0.999999995509255,1,0.04,0.0399999570113262,477.099997886024,1.00014188317446,0.350511665305319
1956,0,0,0,0,0,0,0,0,0.999999998505164,1,0.04,0.0399999737616268,477.099999306175,1.00014189770572,0.350511661256012
2016,0,0,0,0,0,0,0,0,1.00000000047335,1,0.04,0.0399999856159704,477.100000238038,1.00014189845008,0.350511661679753
2076,0,0,0,0,0,0,0,0,1.00000000165881,1,0.04,0.0399999936224641,477.100000798291,1.00014189059267,0.350511664845079
2136,0,0,0,0,0,0,0,0,1.00000000227461,1,0.04,0.0399999987171279,477.100001088295,1.00014187797018,0.350511669481841
2196,0,0,0,0,0,0,0,0,1.00000000249703,1,0.04,0.0400000016936577,477.100001191846,1.00014186328541,0.350511674704367
2256,0,0,0,0,0,0,0,0,1.00000000246455,1,0.04,0.0400000031951753,477.1000011747,1.0001418483327,0.350511679932129
2316,0,0,0,0,0,0,0,0,1.0000000022829,1,0.04,0.0400000037230196,477.100001087327,1.00014183420884,0.350511684817813
2376,0,0,0,0,0,0,0,0,1.00000000202697,1,0.04,0.0400000036529405,477.10000096479,1.00014182150066,0.350511689181525
2436,0,0,0,0,0,0,0,0,1.00000000174774,1,0.04,0.0400000032561635,477.100000831263,1.00014181044002,0.350511692959761
2496,0,0,0,0,0,0,0,0,1.00000000147988,1,0.04,0.0400000027129786,477.100000703901,1.00014180102378,0.350511696166223
2556,0,0,0,0,0,0,0,0,1.00000000123921,1,0.04,0.0400000021468929,477.100000589502,1.00014179311427,0.350511698854159
2616,0,0,0,0,0,0,0,0,1.0000000010364,1,0.04,0.0400000016256089,477.100000492887,1.00014178649863,0.350511701101711
2676,0,0,0,0,0,0,0,0,1.00000000087405,1,0.04,0.0400000011870847,477.100000415922,1.00014178094054,0.350511702993065
2736,0,0,0,0,0,0,0,0,1.0000000007482,1,0.04,0.0400000008418097,477.100000356096,1.00014177621164,0.350511704606415
2796,0,0,0,0,0,0,0,0,1.00000000065523,1,0.04,0.0400000005880277,477.10000031194,1.00014177210436,0.350511706013419
2856,0,0,0,0,0,0,0,0,1.00000000058967,1,0.04,0.0400000004156038,477.100000280909,1.00014176844337,0.350511707273661
2916,0,0,0,0,0,0,0,0,1.00000000054584,1,0.04,0.0400000003100592,477.100000260153,1.00014176508763,0.35051170843447
2976,0,0,0,0,0,0,0,0,1.00000000051828,1,0.04,0.0400000002565668,477.100000247106,1.0001417619285,0.350511709532038
3036,0,0,0,0,0,0,0,0,1.00000000050245,1,0.04,0.0400000002409667,477.100000239622,1.00014175888611,0.350511710592783
3096,0,0,0,0,0,0,0,0,1.00000000049498,1,0.04,0.0400000002510351,477.100000236094,1.00014175590443,0.350511711635159
3156,0,0,0,0,0,0,0,0,1.00000000049274,1,0.04,0.0400000002767789,477.100000234977,1.00014175294707,0.350511712670778
3216,0,0,0,0,0,0,0,0,1.00000000049281,1,0.04,0.0400000003107462,477.100000235115,1.00014174999295,0.350511713706187
3276,0,0,0,0,0,0,0,0,1.00000000049451,1,0.04,0.0400000003474304,477.100000235963,1.00014174703008,0.350511714745183
3336,0,0,0,0,0,0,0,0,1.0000000004966,1,0.04,0.0400000003826983,477.100000236947,1.00014174405487,0.350511715788606
3396,0,0,0,0,0,0,0,0,1.00000000049817,1,0.04,0.0400000004146122,477.10000023772,1.00014174106855,0.350511716835765
3456,0,0,0,0,0,0,0,0,1.00000000049925,1,0.04,0.0400000004418843,477.100000238199,1.00014173807446,0.350511717885432
3516,0,0,0,0,0,0,0,0,1.00000000049932,1,0.04,0.0400000004640246,477.100000238253,1.00014173507802,0.35051171893561
3576,0,0,0,0,0,0,0,0,1.00000000049869,1,0.04,0.040000000481184,477.100000237907,1.00014173208432,0.350511719984532
3636,0,0,0,0,0,0,0,0,1.00000000049692,1,0.04,0.0400000004937238,477.100000237013,1.00014172909908,0.35051172103009
3696,0,0,0,0,0,0,0,0,1.00000000049452,1,0.04,0.0400000005022532,477.100000235902,1.00014172612638,0.350511722071091
3756,0,0,0,0,0,0,0,0,1.00000000049181,1,0.04,0.0400000005073582,477.100000234603,1.00014172317,0.350511723106237
3816,0,0,0,0,0,0,0,0,1.00000000048869,1,0.04,0.0400000005097189,477.100000233108,1.00014172023307,0.350511724134421
3876,0,0,0,0,0,0,0,0,1.00000000048453,1,0.04,0.0400000005102179,477.100000231137,1.0001417173184,0.350511725154454
3936,0,0,0,0,0,0,0,0,0.996166983656637,0.993226848584207,0.04,0.0416709711504497,475.19827844814,0.990288263699078,0.352588304771014
3996,0,0,0,0,0,0,0,0,0.985651640939909,0.981938262891219,0.04,0.0443809519075554,470.165087361086,0.968050365281912,0.356867583490662
4056,0,0,0,0,0,0,0,0,0.974245593281151,0.970649677198231,0.04,0.0457599827064969,464.72111893018,0.945540912846377,0.361132654552112
4116,0,0,0,0,0,0,0,0,0.962718115021313,0.959361091505243,0.04,0.0461356695207481,459.221023357672,0.924324645016729,0.365049624179116
4176,0,0,0,0,0,0,0,0,0.951171301426178,0.948072505812255,0.04,0.0459198889679434,453.712005473676,0.904635648069867,0.368520158958065
4236,0,0,0,0,0,0,0,0,0.939627559223765,0.936783920119267,0.04,0.0453906493695307,448.204565621273,0.886491376607377,0.371497963271968
4296,0,0,0,0,0,0,0,0,0.92809975850459,0.925495334426279,0.04,0.0447263473918628,442.704818911897,0.869820584976362,0.373972135474057
4356,0,0,0,0,0,0,0,0,0.916596973007846,0.914206748733291,0.04,0.0440412879779166,437.217069707728,0.854489899454308,0.375962779778018
4416,0,0,0,0,0,0,0,0,0.905124548113426,0.902918163040303,0.04,0.0434064345805905,431.743823771958,0.840326251918044,0.377513840679958
4476,0,0,0,0,0,0,0,0,0.893684422351057,0.891629577347315,0.04,0.0428619072593596,426.286002472837,0.827138264479333,0.37868459334666
4536,0,0,0,0,0,0,0,0,0.882275891969178,0.880340991654327,0.04,0.0424255604621346,420.84322929794,0.814733815247923,0.379541508001608
4596,0,0,0,0,0,0,0,0,0.870896286297244,0.869052405961339,0.04,0.0420995509060594,415.414239741816,0.80293312620657,0.380151475005213
4656,0,0,0,0,0,0,0,0,0.859541799596051,0.857763820268351,0.04,0.0418755838388903,409.997192698472,0.791577225398932,0.380576763778179
4716,0,0,0,0,0,0,0,0,0.848208003794016,0.846475234575363,0.04,0.0417391289320067,404.589986050387,0.780532721747766,0.380871688509772
4776,0,0,0,0,0,0,0,0,0.836890377916118,0.835186648882375,0.04,0.0416727552212789,399.190460771351,0.769693358821662,0.381080820479612
4836,0,0,0,0,0,0,0,0,0.825584660252841,0.823898063189387,0.04,0.0416584883653235,393.796581189142,0.758979164288158,0.381238510436468
4896,0,0,0,0,0,0,0,0,0.814287069940034,0.812609477496399,0.04,0.0416795848641084,388.406547945072,0.748333941575047,0.381369340254718
4956,0,0,0,0,0,0,0,0,0.802994453753195,0.801320891803411,0.04,0.0417215046402034,383.018873377126,0.737721733892803,0.381489221883497
5016,0,0,0,0,0,0,0,0,0.791704305888428,0.790032306110423,0.04,0.0417724689633004,377.632352821656,0.727122842582777,0.381606780257979
5076,0,0,0,0,0,0,0,0,0.780414814772852,0.778743720417435,0.04,0.0418235828388188,372.24614058768,0.716529942910107,0.381724940659145
5136,0,0,0,0,0,0,0,0,0.769124725740195,0.767455134724446,0.04,0.0418686861978294,366.859628753253,0.705944355087225,0.381842380329392
5196,0,0,0,0,0,0,0,0,0.757833275805109,0.756166549031459,0.04,0.0419040595472582,361.47246521248,0.695372915520891,0.381954935444275
5256,0,0,0,0,0,0,0,0,0.746540097280445,0.74487796333847,0.04,0.0419279998783603,356.084471779774,0.684825389003147,0.382056733885021
5316,0,0,0,0,0,0,0,0,0.73524512367683,0.733589377645482,0.04,0.0419403279248405,350.695626609822,0.674312521435743,0.382141146313513
5376,0,0,0,0,0,0,2.8421709430404e-17,2.8421709430404e-17,0.723959798852997,0.722300791952494,0.04,0.0419478996726022,345.31164497684,0.663819393323477,0.382222249885646
5436,0,0,0,0,0,0,0,0,0.712699674485435,0.711012206259506,0.04,0.0419894828791455,339.939480418058,0.653190661789586,0.382398619057249
5496,0,0,0,0,0,0,0,0,0.701437094387414,0.699723620566518,0.04,0.0420533174983263,334.56605610809,0.642395619324174,0.382678429048642
5556,0,0,0,0,0,0,0,0,0.69016761729963,0.68843503487353,0.04,0.0421150242741625,329.189329438776,0.631471224492556,0.383042409436095
5616,0,0,0,0,0,0,0,0,0.67889086019235,0.677146449180542,0.04,0.0421601518777474,323.809131137324,0.620460924825757,0.383468179570207
5676,0,0,0,0,0,0,0,0,0.667607041187013,0.665857863487554,0.04,0.0421823209823593,318.425568553867,0.60940781691252,0.383932245157122
5736,0,0,0,0,0,0,0,0,0.656316836530943,0.654569277794566,0.04,0.0421806048195448,313.038963017855,0.598351772940591,0.384411605187094
5796,0,0,0,0,0,0,0,0,0.648724866536939,0.650053843517371,0.04,0.0392320455723912,309.491957812951,0.597878552112302,0.380356699735074
5856,0,0,0,0,0,0,0,0,0.648027199131154,0.650053843517371,0.04,0.0349484480663091,309.172842075702,0.609428307294729,0.372763509299106
5916,0,0,0,0,0,0,0,0,0.648054261117321,0.650053843517371,0.04,0.0333694594364893,309.187830001229,0.621601219552515,0.365481340943401
5976,0,0,0,0,0,0,0,0,0.648300895818258,0.650053843517371,0.04,0.0336174475105279,309.306877033817,0.632708869688122,0.359203309747978
6036,0,0,0,0,0,0,0,0,0.648650872421523,0.650053843517371,0.04,0.0348476277676709,309.474301271138,0.641872559992452,0.354266802325803
6096,0,0,0,0,0,0,0,0,0.649028539504617,0.650053843517371,0.04,0.036434327551823,309.65448505422,0.648798606531843,0.350688999129625
6156,0,0,0,0,0,0,0,0,0.649383431916795,0.650053843517371,0.04,0.0379943934557627,309.823460082954,0.653527023941566,0.348341666580555
6216,0,0,0,0,0,0,0,0,0.649681999650061,0.650053843517371,0.04,0.0393155933870095,309.9653775022,0.65633675451257,0.347009318850806
6276,0,0,0,0,0,0,0,0,0.649909740783719,0.650053843517371,0.04,0.04030450124972,310.07345555659,0.657631811651585,0.346446718652685
6336,0,0,0,0,0,0,0,0,0.650066791329943,0.650053843517371,0.04,0.0409482506643983,310.14784927632,0.657842391895723,0.346418912371064
6396,0,0,0,0,0,0,0,0,0.650161915517826,0.650053843517371,0.04,0.0412837897112825,310.192789215252,0.657360983447648,0.346722839380463
6456,0,0,0,0,0,0,0,0,0.650207730721038,0.650053843517371,0.04,0.0413738304366781,310.214309926279,0.656510307675824,0.347196193122073
6516,0,0,0,0,0,0,0,0,0.650217598833922,0.650053843517371,0.04,0.0412892712266726,310.218784179773,0.655533266469191,0.347718687672548
6576,0,0,0,0,0,0,0,0,0.650203838680002,0.650053843517371,0.04,0.0410974988611535,310.212076244569,0.65459607034095,0.348208992756547
6636,0,0,0,0,0,0,0,0,0.650176812304713,0.650053843517371,0.04,0.0408555160059833,310.199111905917,0.653798450233567,0.348619230216545
6696,0,0,0,0,0,0,0,0,0.650144558702436,0.650053843517371,0.04,0.0406067899926801,310.183708370642,0.653187061561303,0.348928213231655
6756,0,0,0,0,0,0,0,0,0.650112787848621,0.650053843517371,0.04,0.0403808178847781,310.168571434348,0.652769584975712,0.34913433053859
6816,0,0,0,0,0,0,0,0,0.65008509532126,0.650053843517371,0.04,0.0401944779806921,310.155401336486,0.652527944097158,0.349248790097894
6876,0,0,0,0,0,0,0,0,0.650063315566296,0.650053843517371,0.04,0.0400544001347917,310.145060734868,0.652429643784346,0.349289765005585
6936,0,0,0,0,0,0,0,0,0.650047936206014,0.650053843517371,0.04,0.0399597250814624,310.137773294924,0.652436715282099,0.349277772065813
6996,0,0,0,0,0,0,0,0,0.650038518006186,0.650053843517371,0.04,0.0399047904149772,310.133323659947,0.652512128262118,0.349232394272514
7056,0,0,0,0,0,0,0,0,0.650034072471605,0.650053843517371,0.04,0.0398814527180827,310.131237489128,0.652623830421481,0.349170271380414
7116,0,0,0,0,0,0,0,0,0.650033374138197,0.650053843517371,0.04,0.0398808861630936,310.130928969169,0.652746771877669,0.349104159686887
7176,0,0,0,0,0,0,0,0,0.650035188235511,0.650053843517371,0.04,0.0398948321544458,310.131809783478,0.652863387298066,0.349042793513909
7236,0,0,0,0,0,0,0,0,0.65003842128134,0.650053843517371,0.04,0.0399163433297698,310.13335970715,0.652963017280836,0.348991280211244
7296,0,0,0,0,0,0,0,0,0.650042200299994,0.650053843517371,0.04,0.0399401110562989,310.135164152709,0.653040717143434,0.348951786943172
7356,0,0,0,0,0,0,0,0,0.650045897504267,0.650053843517371,0.04,0.039962488678769,310.136925557583,0.653095812782673,0.348924330811561
7416,0,0,0,0,0,0,0,0,0.65004911725223,0.650053843517371,0.04,0.0399813151392555,310.138456853799,0.653130466204049,0.348907540501716
7476,0,0,0,0,0,0,0,0,0.650051659535138,0.650053843517371,0.04,0.039995629259455,310.139664031101,0.653148419044583,0.348899308257781
7536,0,0,0,0,0,0,0,0,0.650053473877159,0.650053843517371,0.04,0.0400053493736656,310.140523962704,0.653153998032369,0.348897295488516
7596,0,0,0,0,0,0,0,0,0.654341237511025,0.657951935934386,0.04,0.0369372552679174,312.273615208138,0.665500814040386,0.344779453052774
7656,0,0,0,0,0,0,0,0,0.666865929141614,0.671115423296077,0.04,0.0327700747859077,318.267135072866,0.691419442191806,0.338224359991219
7716,0,0,0,0,0,0,0,0,0.680232055399859,0.684278910657769,0.04,0.0315577086342711,324.645445740195,0.716849533045243,0.332763730510767
7776,0,0,0,0,0,0,0,0,0.693689896474986,0.69744239801946,0.04,0.0319867584719977,331.066746067598,0.740661901526046,0.328435604139635
7836,0,0,0,0,0,0,0,0,0.707208618035673,0.710605885381152,0.04,0.0331344638864593,337.516868400517,0.762453661971908,0.325264528749688
7896,0,0,0,0,0,0,0,0,0.72074356902768,0.723769372742843,0.04,0.0344927206328869,343.974302324952,0.782022542345082,0.323192595751945
7956,0,0,0,0,0,0,0,0,0.734244914315071,0.736932860104534,0.04,0.0357761865241228,350.415372408487,0.799474561203185,0.322057321751661
8016,0,0,0,0,0,0,0,0,0.747682762829501,0.750096347466226,0.04,0.0368387867901208,356.826010196936,0.815141069943901,0.321646185359115
8076,0,0,0,0,0,0,0,0,0.76104832400441,0.763259834827917,0.04,0.0376284834754655,363.202145423306,0.8294467617838,0.321747043960418
8136,0,0,0,0,0,0,0,0,0.774346490960211,0.776423322189609,0.04,0.0381527338046246,369.546207288482,0.842810874194559,0.322176081692034
8196,0,0,0,0,0,0,0,0,0.787588649356694,0.7895868095513,0.04,0.0384510137248531,375.863647881254,0.855594563141673,0.322787705325228
8256,0,0,0,0,0,0,0,0,0.80078787765083,0.802750296912992,0.04,0.0385750964230401,382.160713534821,0.868082295968949,0.323474325755199
8316,0,0,0,0,0,0,0,0,0.813956469071761,0.815913784274683,0.04,0.0385766154079297,388.443248452035,0.880482314466284,0.324161636790662
8376,0,0,0,0,0,0,0,0,0.827104794885967,0.829077271636375,0.04,0.0385003999639924,394.716193101596,0.892936390385271,0.324802301133301
8436,0,0,0,0,0,0,0,0,0.840241013957675,0.842240758998066,0.04,0.0383818280171064,400.983407658456,0.905532761433688,0.325369553393829
8496,0,0,0,0,0,0,0,0,0.853371126192057,0.855404246359758,0.04,0.038246610071151,407.247759774083,0.91831936128501,0.32585143615949
8556,0,0,0,0,0,0,0,0,0.866499280189172,0.868567733721449,0.04,0.0381118833343515,413.511197750166,0.931315595283712,0.326245909695625
8616,0,0,0,0,0,0,0,0,0.879628096946621,0.88173122108314,0.04,0.0379878441543615,419.774965373766,0.944522241888172,0.326557017933911
8676,0,0,0,0,0,0,0,0,0.89275901932076,0.894894708444832,0.04,0.0378795527173179,426.039753473935,0.957929091075797,0.326792016765129
8736,0,0,0,0,0,0,0,0,0.905892689657204,0.908058195806523,0.04,0.0377885267557565,432.305848461039,0.971520543850021,0.326959378036166
8796,0,0,0,0,0,0,0,0,0.919029239810035,0.921221683168215,0.04,0.0377140694714928,438.573321215978,0.985279445819113,0.327067553941148
8856,0,0,0,0,0,0,0,0,0.932168491594311,0.934385170529906,0.04,0.0376540997313426,444.842019882801,0.99918950813167,0.327124156056989
8916,0,0,0,0,0,0,0,0,0.940909905361937,0.939650565474583,0.04,0.0395452197129144,448.928475863296,1.0015450663573,0.329352780488429
8976,0,0,0,0,0,0,0,0,0.941857209251384,0.939650565474583,0.04,0.042624723169588,449.36054410482,0.989050104296489,0.333834579380697
9036,0,0,0,0,0,0,0,0,0.941690861261386,0.939650565474583,0.04,0.0441026660348086,449.278425384149,0.976301294282157,0.338132079371711
9096,0,0,0,0,0,0,0,0,0.941376797582877,0.939650565474583,0.04,0.0443979018982945,449.128285082399,0.965282481877875,0.34187760941156
9156,0,0,0,0,0,0,0,0,0.941055412427834,0.939650565474583,0.04,0.0440386982628739,448.975038322175,0.956200098813558,0.34500714416712
9216,0,0,0,0,0,0,0,0,0.940753010392308,0.939650565474583,0.04,0.0433724048067091,448.83096814576,0.948978374414223,0.347521097421607
9276,0,0,0,0,0,0,0,0,0.940481257029357,0.939650565474583,0.04,0.0426083702022401,448.701593635337,0.943454642528905,0.349455002944756
9336,0,0,0,0,0,0,0,0,0.940247435654424,0.939650565474583,0.04,0.0418685679495667,448.59035696081,0.939414206757212,0.350871009324083
9396,0,0,0,0,0,0,0,0,0.940054739789909,0.939650565474583,0.04,0.0412189674005867,448.498751374187,0.936614870643385,0.351847821004331
9456,0,0,0,0,0,0,0,0,0.939902718862319,0.939650565474583,0.04,0.0406888800007983,448.426535939719,0.934810049356708,0.352470364915058
9516,0,0,0,0,0,0,0,0,0.93978821958088,0.939650565474583,0.04,0.0402839559397631,448.372188685094,0.933767054447068,0.352821300153989
9576,0,0,0,0,0,0,0,0,0.939706394486753,0.939650565474583,0.04,0.0399954414501815,448.333387526517,0.933279298569849,0.352975145333747
9636,0,0,0,0,0,0,0,0,0.939651608173958,0.939650565474583,0.04,0.0398068245397654,448.307440543488,0.933172790254566,0.352995001870953
9696,0,0,0,0,0,0,0,0,0.939618121614482,0.939650565474583,0.04,0.0396985077931959,448.291610742625,0.933308061038917,0.352931377368661
9756,0,0,0,0,0,0,0,0,0.939600582820389,0.939650565474583,0.04,0.0396508802206985,448.283349904389,0.933578734816193,0.352822549771246
9816,0,0,0,0,0,0,0,0,0.939594323004346,0.939650565474583,0.04,0.0396461705396932,448.280436240598,0.933907954408752,0.352695880987307
9876,0,0,0,0,0,0,0,0,0.93959549339105,0.939650565474583,0.04,0.0396693957694718,448.28104051598,0.93424367323362,0.352569615599245
9936,0,0,0,0,0,0,0,0,0.939601086720962,0.939650565474583,0.04,0.0397086725049298,448.283734282726,0.934553599580491,0.352454810735
9996,0,0,0,0,0,0,0,0,0.939608876741928,0.939650565474583,0.04,0.0397551181240667,448.287461325615,0.934820355659913,0.352357165317811
10056,0,0,0,0,0,0,0,0,0.939617313661007,0.939650565474583,0.04,0.0398025099931073,448.29148700659,0.935037190246304,0.352278617374312
10116,0,0,0,0,0,0,0,0,0.939625396776852,0.939650565474583,0.04,0.0398468340120531,448.295337906556,0.935204418419087,0.352218650418019
10176,0,0,0,0,0,0,0,0,0.939632549534412,0.939650565474583,0.04,0.0398858039819519,448.298741604093,0.935326621713269,0.352175305852816
10236,0,0,0,0,0,0,0,0,0.939638504442857,0.939650565474583,0.04,0.0399184113208442,448.301572691369,0.935410567071117,0.352145924884256
10296,0,0,0,0,0,0,0,0,0.935256999143532,0.931867961345314,0.04,0.0420132530024731,446.127005141165,0.924049577872348,0.354746334119105
10356,0,0,0,0,0,0,0,0,0.923136583648837,0.918896954463199,0.04,0.0453739432807534,440.325542863594,0.898580616961173,0.360057207723378
10416,0,0,0,0,0,0,0,0,0.910001792492944,0.905925947581084,0.04,0.0470431164508059,434.056595053219,0.873001134144404,0.365330749322979
10476,0,0,0,0,0,0,0,0,0.896739208963398,0.89295494069897,0.04,0.0474381035888288,427.728699423254,0.849030059931332,0.37016896168206
10536,0,0,0,0,0,0,0,0,0.883458453740394,0.879983933816855,0.04,0.0470803329746468,421.392416391968,0.82689727745716,0.374446546784527
10596,0,0,0,0,0,0,0,0,0.870181305838076,0.86701292693474,0.04,0.0463237806199259,415.057975075812,0.806616440044387,0.3780910263712
10656,0,0,0,0,0,0,0,0,0.85692185171779,0.854041920052625,0.04,0.0453996487381192,408.732089600197,0.788109013927078,0.381072068247029
10716,0,0,0,0,0,0,0,0,0.843691432535034,0.841070913170511,0.04,0.0444599677518827,402.420111767499,0.771222318652737,0.383402344592947
10776,0,0,0,0,0,0,0,0,0.830497447358879,0.828099906288396,0.04,0.0436017329190274,396.125574100573,0.755750904689966,0.385131359032407
10836,0,0,0,0,0,0,0,0,0.817343436130312,0.815128899406281,0.04,0.0428809970571264,389.850122901211,0.741460221100328,0.386335391933123
10896,0,0,0,0,0,0,0,0,0.804229383476422,0.802157892524166,0.04,0.0423225882952024,383.593715491985,0.728108976867566,0.387105885376275
10956,0,0,0,0,0,0,0,0,0.791152542808379,0.789186885642052,0.04,0.0419283075473974,377.355035969637,0.715467105570377,0.387538768754477
11016,0,0,0,0,0,0,0,0,0.77810827113272,0.776215878759937,0.04,0.0416839835542982,371.131844051697,0.703328920256529,0.387725549557194
11076,0,0,0,0,0,0,0,0,0.765090771081347,0.763244871877822,0.04,0.0415656432416137,364.921384465585,0.691521545366121,0.387746846468119
11136,0,0,0,0,0,0,-2.8421709430404e-17,-2.8421709430404e-17,0.752093869018322,0.750273864995707,0.04,0.0415446581864293,358.720702353774,0.679908668699835,0.387668522579324
11196,0,0,0,0,0,0,0,0,0.739119151092458,0.737302858113593,0.04,0.0415950162901762,352.530798114775,0.668375967666375,0.387552831841729
11256,0,0,0,0,0,0,0,0,0.726185268102364,0.724331851231478,0.04,0.0417283276152806,346.360198255469,0.656692216224226,0.38754379452402
11316,0,0,0,0,0,0,0,0,0.713257915447845,0.711360844349363,0.04,0.0419165938335656,340.192548137191,0.644750208849395,0.38769301906758
11376,0,0,0,0,0,0,0,0,0.700326684809556,0.698389837467248,0.04,0.0421140253864429,334.023006725266,0.632559021789686,0.387998461149071
11436,0,0,0,0,0,0,0,0,0.687387710201791,0.685418830585134,0.04,0.0422889090602153,327.84975222512,0.620158371530243,0.388442665357755
11496,0,0,0,0,0,0,0,0,0.674438963555176,0.672447823703019,0.04,0.0424227421240726,321.671821103202,0.607603450597977,0.388998084230955
11556,0,0,0,0,0,0,0,0,0.661479720049965,0.659476816820904,0.04,0.0425073482195636,315.48888348978,0.594956390872384,0.389631090004838
11616,0,0,0,0,0,0,0,0,0.63489890345125,0.621652030335903,0.04,0.054047579368535,302.530487584559,0.543592426662649,0.40893136869307
11676,0,0,0,0,0,0,0,0,0.600469985343042,0.599894441181132,0.04,0.0568937909201945,286.419107646786,0.500880912683396,0.420167233795313
11736,0,0,0,0,0,0,0,0,0.597609693894399,0.599894441181132,0.04,0.0393424114464412,285.112609033308,0.511921405122193,0.409230327652541
11796,0,0,0,0,0,0,0,0,0.596962477487778,0.599894441181132,0.04,0.0296408398791937,284.807038142218,0.528372102796168,0.396064132140856
11856,0,0,0,0,0,0,0,0,0.596670557425954,0.599894441181132,0.04,0.0261653061099544,284.670736216074,0.547305525862575,0.382179746301052
11916,0,0,0,0,0,0,0,0,0.596748589952396,0.599894441181132,0.04,0.0265294063273164,284.710729498408,0.566514827280272,0.369272723385366
11976,0,0,0,0,0,0,0,0,0.597135530388802,0.599894441181132,0.04,0.0288969236778907,284.897443674236,0.58399446886857,0.358454878037433
12036,0,0,0,0,0,0,0,0,0.59773314678751,0.599894441181132,0.04,0.0320666871671895,285.183750330369,0.598262479735759,0.35025769512789
12096,0,0,0,0,0,0,0,0,0.598415419057067,0.599894441181132,0.04,0.035311016723716,285.509435868327,0.608547314609352,0.344731359348021
