time,bias_percent_1,bias_percent_2,bias_percent_3,bias_percent_4,bias_percent_5,bias_percent_6,bias_percent_8,bias_percent_9,normalized_power,power_SP,SP,CV,total_power_MW,fuel_fraction,thermal_efficiency
18,0,0,0,0,0,0,0,0,0.99926310486872,1,0.04,0.0401111691519695,476.759280870864,0.999338019377391,0.35054309923162
78,0,0,0,0,0,0,0,0,0.99993055612345,1,0.04,0.0398939907278319,477.068041192451,1.00019832481762,0.350468409433696
138,0,0,0,0,0,0,0,0,0.999992315090541,1,0.04,0.03992830557027,477.096472576769,1.00030944395129,0.350450361957417
198,0,0,0,0,0,0,0,0,1.00000025335496,1,0.04,0.0399639039294637,477.100145749571,1.00031743688152,0.350450259821987
258,0,0,0,0,0,0,0,0,1.00000230938174,1,0.04,0.039986088595979,477.10111314361,1.00030698685762,0.350454631510983
318,0,0,0,0,0,0,0,0,1.00000340161144,1,0.04,0.039998925982777,477.101629152896,1.00028850095106,0.350461487155682
378,0,0,0,0,0,0,0,0,1.00000391663224,1,0.04,0.0400058962660153,477.101870632952,1.0002657915141,0.350469621210403
438,0,0,0,0,0,0,0,0,1.00000396124559,1,0.04,0.0400091581624516,477.101888732883,1.00024191394161,0.350478000846423
498,0,0,0,0,0,0,0,0,1.00000367650409,1,0.04,0.0400100960874543,477.101750857614,1.00021914315836,0.350485878471314
558,0,0,0,0,0,0,0,0,1.00000320129876,1,0.04,0.0400096434747013,477.10152301279,1.00019889713068,0.350492805625524
618,0,0,0,0,0,0,0,0,1.00000264543424,1,0.04,0.040008439604428,477.101257648114,1.00018186770879,0.350498578282052
678,0,0,0,0,0,0,0,0,1.00000208682539,1,0.04,0.0400069148037348,477.100991292902,1.00016821433811,0.35050316728584
738,-0.0448472927364412,-0.0749999993222111,-0.0338251428659025,0.0684135056770101,0.0748599139899669,-0.0749983666933738,0.0750000000000001,0.055893486199571,0.99677460527891,1,0.04,0.0401709227658486,475.54366434858,1.00656814149219,0.347137791106145
798,-0.149490975788138,-0.249999997740704,-0.112750476219675,0.228045018923367,0.249533046633223,-0.249994555644579,0.25,0.186311620665237,0.998977063278093,1,0.04,0.0389556178454064,476.667881120601,1.02285415647405,0.342418208868847
858,-0.0312892358467255,-0.249999706797628,-0.0609220236594723,0.234631513246357,0.0996731404075935,-0.249996188951206,0.100023456761111,0.192308833484178,1.00347268288864,1,0.04,0.0379095344395085,478.844796001532,1.01649801717016,0.346132925008344
918,0.244514824016569,-0.249999027930453,0.0600110323143344,0.25,-0.249999974118875,-0.25,-0.249921810796295,0.206302330061707,1.00462648375683,1,0.04,0.0383955335373658,479.22660907247,0.979655869091549,0.359436400019672
978,0.246157581516011,-0.121301623297448,0.117007722620034,0.249713249633086,-0.249520850242385,-0.1,-0.2485534497685,0.219392799086737,0.99461956609381,1,0.04,0.0464236086073134,474.363168791886,0.980811391808616,0.355369487869809
1038,0.249990682348041,0.178992320846228,0.25,0.249044165443621,-0.248402894530576,0.25,-0.245360607370312,0.249937226811807,0.989028732623348,1,0.04,0.0588900184724876,471.983165615974,1.05630697131618,0.328315237293856
1098,0.0999938225414095,0.196033208194262,0.25,0.0993309158105347,-0.098882061688542,0.25,-0.0967524251592184,0.249956058768265,0.993286350858051,1,0.04,0.0566843796302557,473.864296647117,1.0930678275028,0.31853822261139
1158,-0.24999885034073,0.235795278673007,0.25,-0.25,0.249999881609538,0.25,0.25,0.25,0.997986297962518,1,0.04,0.0532018138974642,476.213417010428,1.12471722995246,0.311109272423743
1218,-0.249999195238511,0.0900566950711052,0.1,-0.1,0.249988471843525,0.1,0.100001326753043,0.239155993890669,1.01178637383306,1,0.04,0.0461542865042826,483.009953814296,1.10204884221395,0.322040071486651
1278,-0.25,-0.25,-0.25,0.25,0.249961849056162,-0.25,-0.249995577489857,0.213853312968897,1.01870973478579,1,0.04,0.030841700144814,485.807977372825,0.96420512290803,0.370211481614084
1338,-0.100001901749107,-0.1,-0.1,0.25,0.249973288112754,-0.100000007228431,-0.0999969047411014,0.224697319078228,0.988543932598756,1,0.04,0.0458175800942904,471.338179495034,0.946401612677306,0.365941635447366
1398,0.249993660836312,0.25,0.25,0.25,0.249999979244804,0.249999975905231,0.249999998339328,0.25,0.976018551540298,1,0.04,0.0698529736118152,465.92885294811,1.11566019900889,0.306861456143986
1458,0.181384034850868,0.223026491208251,0.249999998746028,0.249999999745677,0.249999985471363,0.100943180161676,0.234872074329015,0.249991699137651,0.998383474977368,1,0.04,0.060924074125632,476.521647590132,1.16906086116943,0.299502319345361
1518,0.0212949075514994,0.160088304027503,0.249999995820095,0.249999999152255,0.25,-0.246856009906621,0.199573584971617,0.249972330458837,1.0078729976359,1,0.04,0.0549871343341515,480.784756784866,1.12286340505038,0.314614285267899
1578,0.0897207532411544,0.187061811773348,0.186371968481215,0.249948828081105,0.10000000028415,-0.097799206934635,0.0647015136975098,0.0999806401239842,1.01203329635346,1,0.04,0.0521038770883996,483.036717263496,1.08165937779856,0.328128762474103
1638,0.249381059850349,0.249999996513655,0.0379065713571628,0.24982942891509,-0.249999999052833,0.25,-0.117597131539033,-0.117597131539033,1.00692207563251,1,0.04,0.0502151965143285,480.291241285501,0.999482770640357,0.353088872459227
1698,0.249566741895245,0.0999999975595581,0.101534599950014,0.249880600240563,-0.249999999336983,0.199794820492687,-0.0886294465154174,-0.0886294465154174,1.00198803664366,1,0.04,0.0422959830081984,478.085399262753,0.987619203104319,0.355689161079208
1758,0.25,-0.25,0.25,0.25,-0.25,0.0826494016422905,-0.0736208148185766,0.249993893231925,0.997598951356295,1,0.04,0.0346006704279701,476.022413703661,1.00727480026159,0.347243487525825
1818,0.25,-0.10000115145647,0.25,0.100000046226889,-0.1,-0.017144148548432,-0.07377299800653,0.199654750707423,1.00197446802151,1,0.04,0.034813764353145,478.076540937363,1.00362320953164,0.35001077456271
1878,0.25,0.249996161811766,0.25,-0.249999845910371,0.25,-0.249995765660118,-0.0796424660918588,0.0821967514835839,1.0024746466172,1,0.04,0.0381853292586958,478.235707441721,0.983965503286279,0.357122162732343
1938,0.249999664001021,0.249997208750318,0.100000000054948,-0.12661373739289,0.249999998481612,-0.237425496882177,-0.0852788376212121,0.132537708662867,0.997550616648175,1,0.04,0.0380108554769467,475.876741942832,0.985783548558154,0.354705228148665
1998,0.249998880003402,0.24999965160694,-0.24999999981684,0.161287182481233,0.249999994938705,-0.208094869733648,-0.0913119917072576,0.249999942081196,0.997822272935021,1,0.04,0.0364365493087737,476.099281911293,1.00607750680801,0.347712868093552
2058,0.249999215934474,0.148790247893449,-0.100000938132987,0.0379248302969834,0.10000009578372,-0.0876831169666621,-0.0988535150105518,0.249999958223747,1.0008973173692,1,0.04,0.0348550314265503,477.570251401516,1.00759251241597,0.348262738615503
2118,0.249999999773641,-0.0873650274380296,0.24999687246267,-0.249920658132931,-0.249999668911246,0.193277639489639,-0.1114722062774,0.249999995889699,1.00330909338018,1,0.04,0.0309866001227774,478.648431642119,0.987003055861088,0.356330353929851
2178,0.100038222536432,0.013844480756634,0.100028154643682,-0.24895394398492,-0.100057935648047,0.0609080248749525,-0.129903289236458,0.100024333364241,1.00981542261907,1,0.04,0.0240195467479408,481.999161615205,0.962615360215632,0.367915573765226
2238,-0.249872591017055,0.249999999877516,-0.249898853600622,-0.246698277639561,0.249806108632751,-0.247954409225983,-0.16676009344511,-0.16676009344511,1.01209227147412,1,0.04,0.010327514819994,482.720029266978,0.863422134479534,0.41079657829641
2298,-0.0999110125356108,0.100000006603873,-0.0999291975204357,-0.24768879433162,0.099864302900174,-0.24853432273497,-0.226497200360825,-0.226497200360825,1.00376443190772,1,0.04,0.00430510298081739,478.889345504605,0.830502119198248,0.423690870496611
2358,0.249999337254425,-0.249999977701295,0.25,-0.249999999946425,-0.249999910475838,-0.249887454255941,-0.249999141965576,-0.25,0.998810828915305,1,0.04,0.00238510159887059,476.52978350952,0.827858115466612,0.422949791647739
2418,0.249999536078097,-0.100581131221761,0.1,-0.100032665966675,-0.23304731877413,-0.249883573674345,-0.0999993993759033,-0.25,0.986940496587679,1,0.04,0.0128167685925354,470.852671598169,0.85996785793779,0.402306913478694
2478,0.25,0.248062843897151,-0.25,0.24989111331941,-0.193491271470144,-0.249874518983956,0.25,-0.25,0.984423228701337,1,0.04,0.0288465808935963,469.80683663756,0.977920031339646,0.352996717147076
2538,0.24999991053025,0.248643990728005,-0.218031808781083,0.249923764873226,-0.0604438900291004,-0.0999121632887691,0.249999433707333,-0.100006719738139,0.981039342612036,1,0.04,0.0427092358713194,467.789272070985,1.05046188736984,0.327208543006638
2598,0.249999701767498,0.25,-0.14343936260361,0.249999951832132,0.25,0.25,0.249998112357777,0.249977600872868,0.981387610656519,1,0.04,0.0585486867269134,468.463035285883,1.19770568388498,0.287395453653926
2658,0.249999781886749,0.249999647513023,-0.0257606666290494,0.249999470013726,0.209143067379643,0.196039368508905,0.249993988980958,0.116935905336766,1.00111069014153,1,0.04,0.0622431401132075,477.778728970978,1.22923974818533,0.285591246552463
2718,0.24999996883167,0.249998825043408,0.248822957311593,0.249998345770777,0.113810224598809,0.070131228363018,0.249984367768382,-0.193494717580808,1.00656862700793,1,0.04,0.0674189605762036,480.159061387585,1.18410760636261,0.297953598202903
2778,0.249999978182169,0.245319270250418,0.249175982698876,0.249998589091284,0.154653002464633,-0.0259080138383292,0.24998807895531,-0.0604463023065653,0.999137963933983,1,0.04,0.0687990828946139,476.609174143751,1.17156811859303,0.298916252659106
2838,0.25,0.234400309066775,0.249999708602538,0.249999156839133,0.249952817484889,-0.249999578974806,0.249996738391474,0.25,0.998134031528482,1,0.04,0.0669281752895809,476.276388337324,1.19185228966964,0.29362382563292
2898,0.25,0.239080216346743,0.200182466529131,0.249999409787393,0.249966252620201,-0.248216303004261,0.24992202263347,0.25,1.00287870740285,1,0.04,0.0649557115349797,478.501482687707,1.18214297185504,0.297418486682144
2958,0.25,0.25,0.0839422350245156,0.25,0.249997601269262,-0.244055325739657,0.249747685864794,0.25,1.00438080796211,1,0.04,0.0626722319374011,479.182144524405,1.15654215077177,0.304434479234691
3018,0.25,0.24999816360248,0.133759564517161,0.249999998480729,0.112041141517139,-0.0958387280177599,0.249670005386814,0.25,1.00217844144113,1,0.04,0.0624534143052763,478.097376825164,1.13596925941852,0.309246261485375
3078,0.25,0.249993878674931,0.25,0.249999994935762,-0.209857264571149,0.25,0.249488750938194,0.25,1.00068286976434,1,0.04,0.0615570008439928,477.449206105969,1.13362845962237,0.309464696025591
3138,0.249998063305632,0.152148052791059,0.249999947878997,0.249989572225997,-0.221899980159793,0.23073843826881,0.249614099932354,0.1,1.00802486170774,1,0.04,0.0544448868527378,481.099625331091,1.11366374265557,0.317420969896103
3198,0.249993544352105,-0.0761588742713104,0.249999826263324,0.249965252569878,-0.249999649866629,0.185794794229366,0.249906580918726,-0.0177949742950272,1.00654528185225,1,0.04,0.0479140720389522,480.147772951087,1.05412860703466,0.334684805206899
3258,0.249993189883625,0.0115720063647583,0.249999878384327,0.249975518941524,-0.100458458495696,0.0550577773441279,0.237805842860805,-0.00840567248899046,1.00113162728718,1,0.04,0.0480024522955122,477.603441720296,1.03833023881709,0.337976591740078
3318,0.249992362790504,0.216277394515585,0.25,0.249999473808697,0.248470988036482,-0.249995262054761,0.209570787392324,-0.00397027588087236,0.996495201412215,0.994993813223546,0.04,0.0516692201269534,475.34381770988,1.03751765370393,0.336641017694012
3378,0.23713669004493,0.0763956464000864,0.132093851058109,0.247059325650452,0.248929691616971,-0.248471179164522,0.0716995511746266,-0.00188179222436927,0.989926585109269,0.978306523968698,0.04,0.0448128754490815,472.381036380661,1.0016461958324,0.346523573975843
3438,0.207140120305256,-0.249995099202743,-0.143020496472971,0.240198979947878,0.249999999971444,-0.244914985753966,-0.00338525107278118,0.249999991193461,0.970446153049295,0.961619234713849,0.04,0.0345913463354015,462.869934941414,0.933778161409847,0.364225154570156
3498,0.0699980842136791,-0.249996533941539,-0.175113009919599,0.0931403756938523,0.100000508060388,-0.246410844872183,-0.0115747934636211,0.0999999941871453,0.965562604292493,0.944931945459001,0.04,0.0201442271396535,460.89594868955,0.863987490863504,0.391967548128466
3558,-0.25,-0.249999881665397,-0.249995541295062,-0.249996367565542,-0.249998306398742,-0.249901182814691,0.249998699096328,-0.052119244860469,0.950070745487385,0.928244656204153,0.04,2.38434350227328e-05,452.892190102724,0.692871663078194,0.480282439442569
3618,-0.24997578560016,-0.249999916683663,-0.249996861047353,-0.24999745729527,-0.249642095469756,-0.248331649240558,0.249946961713364,-0.103684370063745,0.904721882397323,0.916563553725759,0.04,8.47622788893738e-07,431.56434093043,0.69156086111004,0.458532182806489
3678,-0.249919285333867,-0.249999998392949,-0.249999940469366,-0.249999999997966,-0.248810936635453,-0.244669404234246,0.249826241153114,0.237718763718564,0.925287703405095,0.916563553725759,0.04,0.00115685482603572,441.147492935214,0.654896825056971,0.494954875704263
3738,-0.249943282975712,-0.222373575734003,-0.100000000484172,-0.100006505549365,-0.0991753210549348,-0.0962710145155714,0.24987770295894,0.12534229495358,0.880104712005309,0.916563553725759,0.04,0.0108101497839842,419.810811804411,0.711844724559741,0.433334258329438
3798,-0.249999277473349,-0.157911922863128,0.24999985948128,0.249978314830704,0.249974448632942,0.249991894828003,0.249997780505868,-0.136869465498049,0.885266820490695,0.916563553725759,0.04,0.0252470172761412,422.586799656659,0.961695589126734,0.322873929317526
3858,-0.100084227464505,-0.0355404334079085,0.249993035409158,0.249984707974798,0.24998211085628,0.249901197724096,0.0999984463741612,-0.0743330947557723,0.901628039729439,0.916563553725759,0.04,0.0363179448798488,430.160681293822,1.05844437832083,0.298618938253819
3918,0.249717555889464,0.249993041987603,0.249977112574206,0.249999625311017,0.249999989377401,0.249689571148312,-0.249999999933156,0.0715851036428729,0.909051861363964,0.916563553725759,0.04,0.0570886001065285,433.810082715064,1.12739550687254,0.282733987605304
3978,0.249350510679653,0.24999159903507,0.2499617609232,0.249999308253312,0.0999999932432673,0.102961419011498,-0.180596041158051,0.125109567140063,0.918379338042055,0.916563553725759,0.04,0.0607080753327801,438.245755110127,1.1353516824143,0.28362335276892
4038,0.248494071856761,0.249988232145827,0.249925940404186,0.249998568451999,-0.249999997736378,-0.239404269307734,-0.0186534706828072,0.24999998196684,0.924044578399822,0.916563553725759,0.04,0.0590766859950793,440.850012292124,1.09558151307153,0.295665627146347
4098,0.0989478505846495,0.100031403034523,0.235890484100621,0.249998890253106,-0.249999035519035,-0.0925829892230408,0.0619422499345118,0.249993667759981,0.919789791280588,0.916563553725759,0.04,0.060566541167505,438.79034996216,1.06180105339131,0.303646718631231
4158,-0.24999333238361,-0.249867864891853,0.203141086058971,0.249999641122355,-0.249996790345232,0.249999997641244,0.249998931374923,0.249978934610644,0.924587363909413,0.916563553725759,0.04,0.0514584189213667,441.115531890722,1.0273201674142,0.315501342943613
4218,-0.100234817830037,-0.100607898174914,0.0674292241949325,0.101574431513299,-0.100008006809154,0.249878113441208,0.249766231273129,0.173046608361091,0.920992018739756,0.916563553725759,0.04,0.0533931410762618,439.340247199777,0.990322989901118,0.325970880227744
4278,0.249201716128299,0.247665357497942,-0.249231786821157,-0.244751057574497,0.249965821441694,0.249593716974459,0.249223264368943,-0.00646215288786476,0.918406449607743,0.916563553725759,0.04,0.0595283778097044,438.178223256184,0.977017112392489,0.329536326336142
4338,0.174004119110675,0.248365750248559,-0.2486727504435,-0.0963257403021482,0.215425785031957,0.249642186910068,0.24945628505826,0.0704761022239719,0.916022377507131,0.916563553725759,0.04,0.0589864621255844,436.959749165181,0.967597149144325,0.331819213544237
4398,-0.00145694059711445,0.25,-0.247368332228968,0.25,0.134832366742572,0.249755283426489,0.25,0.249998697484924,0.914353722136497,0.916563553725759,0.04,0.0573765015149504,436.292463117849,0.987411888616451,0.324663925260532
4458,0.0721258071284916,0.249328743726104,-0.12528484927614,0.24998088035732,0.0193826567198001,0.15594864162851,0.24999128013713,0.249998916993327,0.918466175124973,0.916563553725759,0.04,0.0558410143724489,438.226667424686,0.9840596195392,0.327214143514031
4518,0.243818885154906,0.247762479087013,0.159576610947127,0.249936267857734,-0.25,-0.0629335225667742,0.249970933790434,0.249999429179601,0.919317034981287,0.916563553725759,0.04,0.056980822483797,438.584868071998,0.965944898624803,0.333622987292994
4578,0.22382519980676,0.182880703278358,0.186703627662988,0.0999553875004135,-0.145461185528017,0.0305675794709625,0.249979653653304,0.249999600425721,0.916575499544244,0.916563553725759,0.04,0.0547813028383718,437.259794659424,0.957784523304584,0.335448927521797
4638,0.177173267327751,0.031489893058163,0.25,-0.25,0.0984627149066105,0.248736817559015,0.25,0.25,0.91605700157612,0.916563553725759,0.04,0.0500338797943938,437.073853529954,0.964479500536991,0.332978737206323
4698,0.199021287129426,-0.051514365800776,0.215533788289266,-0.100000001469016,0.00219147227365136,0.0991783566550971,0.25,0.1,0.926324572261979,0.916563553725759,0.04,0.0415611979097891,442.185435709498,0.946501162433097,0.343271666721754
4758,0.25,-0.245190969804967,0.135112627630887,0.24999999510328,-0.222441427203253,-0.249791385454045,0.25,-0.00890372141462657,0.925292798512393,0.916563553725759,0.04,0.032596115974582,441.344509335479,0.867435703414762,0.373848042218811
4818,0.0999999999999999,-0.246584668636538,0.169575774729098,0.100007211316174,-0.230697883329728,-0.108531985898658,0.101150714361272,-0.0206770019332212,0.924246347473009,0.916563553725759,0.04,0.0213833875707752,441.11373200821,0.840007074561281,0.385853381189579
4878,-0.25,-0.249836632576871,0.249989784624922,-0.249975950853739,-0.249962947624835,0.221073279730577,-0.0577612280840681,-0.0577612280840681,0.926215714370361,0.916563553725759,0.04,0.0069367299680582,441.675055911782,0.768260124138478,0.422424653846662
4938,-0.11431099791039,-0.0998883316334484,0.249992849237445,-0.171454079803633,-0.0999979424333529,0.0995805038122178,0.004506569268543,-0.121624327465426,0.90378669310755,0.916563553725759,0.04,0.0166594388532691,430.744608574323,0.765520221624677,0.413445109590793
4998,0.202296673632033,0.249991037234538,0.25,0.0117636193132814,0.249920403013439,-0.183902639997288,0.249999984612157,-0.172836638988741,0.897394041598517,0.916563553725759,0.04,0.040456876982024,428.34331564754,0.906083315000311,0.34735898505616
5058,0.0820408963338243,0.0999937260641761,0.25,0.083234533519297,0.24991518809599,-0.0537318479981016,0.249948893909883,-0.100000715051678,0.906258762496872,0.916563553725759,0.04,0.04134087274421,432.271604113037,0.965163579938106,0.329086796746376
5118,-0.198555917361996,-0.25,0.25,0.25,0.249903019955275,0.25,0.249829682271246,0.249997585945393,0.912160094888053,0.916563553725759,0.04,0.0429405824402194,435.273973414379,1.01776411226876,0.314246350853367
5178,-0.0639891452510857,-0.100325333653608,0.198829837257056,0.249997889567966,0.249932113968692,0.100005773700392,0.249880777589872,0.0999989818775865,0.919677682906554,0.916563553725759,0.04,0.0469343221117725,438.857872349391,1.01820269379364,0.316697275958801
5238,0.249999989674372,0.248915554487974,0.0794327908568524,0.249992965226555,0.25,-0.249980754332026,0.25,-0.191321288275372,0.921499313494923,0.916563553725759,0.04,0.0569776394280795,439.561695377486,0.974875299698388,0.331303061557465
5298,0.100085241950863,0.249240888141582,-0.0193970464002033,0.0999950757457267,0.1,-0.100004650902034,0.100192124885929,-0.0999984328519399,0.923327741323442,0.916563553725759,0.04,0.0449964494955305,440.557651518413,0.956649332953768,0.338379973165768
5358,-0.249715836070657,0.25,-0.25,-0.249999999709539,-0.25,0.249939590434615,-0.153210499971241,0.249999999370558,0.926370539858769,0.911569764587801,0.04,0.0238985143888203,441.790772243962,0.871309050575291,0.372562459114498
5418,-0.0998019487574049,0.25,-0.101556895062724,-0.101401827938496,-0.100072984682586,0.249948568016597,-0.0995517278802916,0.249337659544903,0.89148187625482,0.894923800794606,0.04,0.0463319038298114,424.631111474147,0.825898063275517,0.377780936670696
5478,0.249997121640183,0.25,0.24481034979092,0.245327239527271,0.249756717724711,0.249969515707889,0.24999993573069,0.247792199951706,0.862368568836623,0.878277837001411,0.04,0.0773998393825058,411.554427748573,0.947640161247438,0.31910859129467
5538,0.248054856507941,0.121649383945815,0.199105851142119,0.0967290676690895,0.0998310568026249,0.141828138403248,0.122589651937405,0.24844076461529,0.874188727991907,0.861631873208217,0.04,0.0604713413413002,417.332929965997,0.944042828848509,0.324822147350083
5598,0.24352290453271,-0.177835386847283,0.0924620209615853,-0.25,-0.249995485348911,-0.110501741974247,-0.0516996424961348,0.249954082163654,0.869375038901946,0.844985909415022,0.04,0.0346233959429432,414.440694137996,0.770110678164087,0.395424818041457
5658,0.245068416046479,-0.156384241425007,-0.0102765853268902,-0.25,-0.249996839744238,-0.00235123942230007,-0.0384845357530654,0.105069799753851,0.842885725241501,0.828339945621827,0.04,0.0312889316168716,402.065120182029,0.685202987737549,0.43115341196049
5718,0.248674609578605,-0.106331568773031,-0.25,-0.25,-0.25,0.249999933198909,0.25,-0.0411984697180857,0.814993236237983,0.811693981828632,0.04,0.0320153732928437,388.693866007921,0.648864993563466,0.440157411325301
5778,0.0990816150476252,0.000567901486754863,-0.249897149499989,-0.109643434173806,-0.249999987862839,0.0999999532392365,0.1,-0.0561519844490877,0.804131079101776,0.795048018035438,0.04,0.0181843269976201,383.663676544368,0.617242305849345,0.456719627182986
5838,-0.24996870552466,0.249999998759588,-0.249657164999962,0.217855219420647,-0.249999959542795,-0.25,-0.0987215829842845,-0.0987215829842845,0.790861298225166,0.789402627833477,0.04,5.58158468688373e-05,377.358615980726,0.570812114480154,0.485753305943909
5898,-0.249978093867262,0.249999999131711,-0.0997722135480503,0.125627666958515,-0.249999971679957,-0.249986083632918,-0.171933344502563,-0.171933344502563,0.772591139629762,0.809425242677728,0.04,5.80632324529549e-10,368.776726779276,0.739608084161144,0.366367155011232
5958,-0.25,0.25,0.249959339839745,-0.0895699554531257,-0.25,-0.249953612109726,-0.249742925004188,-0.225913518290375,0.812271178221291,0.82944785752198,0.04,6.27735993530678e-07,387.619099974008,0.899219486482808,0.316733598838736
6018,-0.249999779840462,0.1,0.0999747126175527,-0.137698966987555,-0.249999696399788,-0.236727082150408,-0.159724267229518,-0.233139462803263,0.858542309839873,0.849470472366232,0.04,1.46366792738934e-05,409.790600498235,0.885507359168928,0.340035683175971
6078,-0.249999266134873,-0.25,-0.249989417567561,-0.249999993901223,-0.249998987999294,-0.205865178912,0.0503192675780449,-0.25,0.874923258081974,0.869493087210483,0.04,1.09873221345486e-05,417.54902872835,0.841626721804483,0.364537858634977
6138,-0.100008617908361,-0.10000103957588,-0.0999931186093678,-0.100000627763716,-0.249999291599506,-0.0691115789904483,0.110223487304632,-0.100007223779512,0.849235674828347,0.889515702054735,0.04,0.0183099264418124,405.189540469946,0.870685000727547,0.341941521133676
6198,0.249969561286835,0.249996534747067,0.249998245626417,0.2499978932238,-0.25,0.249980154159838,0.25,0.24997592073496,0.865001578628134,0.909538316898986,0.04,0.047833793989988,413.376778073147,1.20491209370652,0.252084062311296
6258,0.0999822040692309,0.249997570720765,0.197752821851793,0.249998492585441,-0.100000003558341,0.0999931571611019,0.100000231369677,0.105654473225749,0.929206441686652,0.929560931743238,0.04,0.044335873975663,443.902914260034,1.29944128966953,0.251007102331806
6318,-0.249988296105179,0.249999987992728,0.0758468330443379,0.249999891095937,0.249999988138863,-0.249976502502616,-0.249999228767745,-0.231095570962409,0.967019656070632,0.94958354658749,0.04,0.0419775411711501,461.307881014478,1.18683944303462,0.285596959372414
6378,-0.0999926282004276,0.249999991594909,0.128064050321229,0.249999790309761,0.099999991697204,-0.24998301632964,-0.0999994601374212,-0.150164923297827,0.965785149017455,0.969606161431741,0.04,0.0522412293152044,460.695327342126,1.16173257311173,0.29138172983022
6438,0.249997263577325,0.25,0.249904223967307,0.249999555142017,-0.25,-0.249998215259363,0.25,0.0386732545861983,0.974378372244296,0.979390384502609,0.04,0.0595501920892966,465.019206481986,1.22972021061656,0.277855665320115
6498,0.249998078203718,0.249925763617066,0.0999351791891825,0.249987514332282,-0.25,-0.0999987518984863,0.100004615068766,0.102070933609754,0.976689397184843,0.965285026768913,0.04,0.0650131987112957,465.93916432124,1.18365589638575,0.289240049257266
6558,0.249999978998634,0.24975254539022,-0.249992591959776,0.249959419109568,-0.25,0.249999995943558,-0.249984616437445,0.249998851331383,0.965358936309749,0.951179669035217,0.04,0.0682065960537293,460.426366062684,1.09638732992076,0.308567977171934
6618,0.249999985299044,0.249086537990363,-0.249994514934048,0.0999763261630033,-0.186208667423738,0.249988277994274,-0.0999892315062113,0.0999994039174917,0.949913584361205,0.937074311301521,0.04,0.0693707025123777,453.115427302993,1.02032381253204,0.326306333051826
6678,0.25,0.247532520724031,-0.249999001874014,-0.249984224045646,-0.0373622247457946,0.249960936112612,0.25,-0.249999306714922,0.935277504777568,0.922968953567825,0.04,0.0658164226742937,446.067982332815,0.939805040679111,0.348753004711736
6738,0.100177538523918,0.248272764484738,-0.233474167146513,-0.249988888217992,-0.101153557322056,0.249972655278828,0.249970334964971,-0.246574609207985,0.920596751060277,0.908863595834129,0.04,0.0588620693065548,439.170525381659,0.875607729114997,0.368534605807501
6798,-0.249408204920274,0.249999999926386,-0.194916219449009,-0.249999771286798,-0.25,0.25,0.249901116549903,-0.238583648358464,0.907556639027929,0.894758238100433,0.04,0.042918811828908,432.761272845749,0.788236932749172,0.403409652913219
6858,-0.0995883939342743,0.24999999994847,-0.0614413536143064,-0.249999839900759,-0.1,0.103217936535351,0.249930781584932,-0.0920085538509249,0.875401377105594,0.880652880366737,0.04,0.0489077664161648,417.229486477774,0.760243483368322,0.40325240244918
6918,0.249991165033058,0.25,0.25,-0.25,0.25,-0.239273544882164,0.25,0.25,0.856812542692534,0.866547522633041,0.04,0.0638556914460258,408.854536932434,0.843131189277563,0.356310271833767
6978,0.215487598426501,0.25,0.1,-0.131293614008563,0.1,-0.242491154985065,0.249999999641428,0.249988695800389,0.857114242215406,0.852442164899345,0.04,0.0574006565304102,408.936330774096,0.840428968897159,0.357527422870137
7038,0.134979276344533,0.25,-0.25,0.145687953304791,-0.25,-0.249998911891834,0.249999998804761,0.249962319334629,0.848906358227707,0.838336807165649,0.04,0.0475823057578125,404.835240155315,0.773351918717032,0.384641215960414
7098,0.169477230432753,0.25,-0.100000003180495,0.0269893892775054,-0.100003078530195,-0.0999992383242842,0.249999998373858,0.249668532228584,0.823736099777982,0.824231449431953,0.04,0.0601727098376776,392.732598476253,0.741928281385859,0.388946350798074
7158,0.249972456638599,0.25,0.24999998939835,-0.24997392678616,0.249989738232684,0.249999999999997,0.249999997368418,0.248983028981146,0.804097952927779,0.810126091698257,0.04,0.0749665881330762,383.618481108875,0.785330563744783,0.358923337919723
7218,0.249979077463224,0.25,0.24941724474549,-0.249981748750312,0.249987422761424,0.249999999999998,0.249999998157893,0.249288120286802,0.796119233026556,0.796020733964561,0.04,0.0726290462024589,379.73351749845,0.791455213127311,0.352539078069395
7278,0.249994526054017,0.25,0.248057507222149,-0.25,0.249982019995148,0.25,0.25,0.25,0.783038539684838,0.781915376230865,0.04,0.0735719169976042,373.47866760181,0.785266688021618,0.34946469116336
7338,0.100010412129357,0.249999976966553,0.0986432101093197,-0.249966764387657,0.126162851059948,0.249999940515345,0.249998559201413,0.100000022456705,0.777733166363358,0.767810018497169,0.04,0.0608882290466292,371.226738791781,0.763072900290865,0.357460366307788
7398,-0.249952520361514,0.249999923221843,-0.249990149820614,-0.249889214625523,-0.162748543122187,0.249999801717818,0.249995197338044,-0.00554310373043548,0.771100358620609,0.753704660763473,0.04,0.0330360532303374,367.422794635388,0.639085283159915,0.422437005736134
7458,-0.249962323630244,0.249999897010489,-0.100265021817722,-0.249918385026436,-0.0389477633417952,0.109902527302651,0.24999663188806,-0.0156958584613387,0.740632918294681,0.739599303029778,0.04,0.0341136577550401,353.039209086545,0.601382798321497,0.431346835430069
7518,-0.249985197923945,0.249999835850662,0.249093610189026,-0.249986449295232,0.249920722812452,-0.216991112999404,0.249999979171432,-0.0265831622112706,0.722886787763212,0.725493945296082,0.04,0.0374959900250858,344.844031856415,0.621012627520392,0.408015779604691
7578,-0.0999902127755256,0.10001696327457,0.249365525240101,-0.155920955947926,0.100242024763108,-0.226893778995774,0.10051998643268,-0.0373685971278922,0.720673537902158,0.711388587562386,0.04,0.0239456400807944,343.790752973644,0.606198520232978,0.41671007004551
7638,0.249998085904119,-0.249943072736312,0.24999999369261,0.0635651951957896,-0.249008270685359,-0.24999999965397,-0.066614587498613,-0.066614587498613,0.702366592241574,0.69728322982869,0.04,0.0184085812143959,334.936876335993,0.552147267719907,0.445720608328279
7698,0.100000720663147,-0.249959933471005,0.100000316331528,0.075132040644846,-0.24892383634959,-0.10021785439348,-0.111965937657267,-0.111965937657267,0.685157955058718,0.683177872094994,0.04,0.00876223474078725,326.895072349741,0.535655686230152,0.448412107922846
7758,-0.249993131565787,-0.24999927518529,-0.249998930844331,0.102121346692645,-0.248726822899461,0.249273817880998,-0.0563232497620893,-0.180553961048864,0.679874557337474,0.669072514361298,0.04,5.55111672336552e-06,324.155518548128,0.482031437529946,0.494120341084615
7818,-0.249982507174095,-0.249999445794348,-0.249988955715665,-0.0035028534417811,-0.249108765119417,0.0994917072841425,0.0355681149904514,-0.249999397297177,0.654801522783228,0.654967156627602,0.04,2.92468650276254e-06,312.146917661124,0.456332291244114,0.502611620558918
7878,-0.249957716926815,-0.24999984388215,-0.249965680415444,-0.249959320422108,-0.249999963632646,-0.24999988410852,0.249981299413046,-0.249997995801328,0.633995837329237,0.640861798893906,0.04,3.57443252792782e-07,302.423723694929,0.49235995492239,0.451323356687903
7938,-0.249970401848771,-0.132305651340602,-0.0999890200568778,-0.249797824713008,-0.0999999745428522,-0.249999902585281,0.099986910282445,-0.249985607470823,0.627325556383535,0.62675644116021,0.04,2.88232219669127e-06,299.229075235991,0.501007145360559,0.438848427854212
7998,-0.25,0.142314131256342,0.249956520779778,-0.249421001391776,0.25,-0.249999945697724,-0.249999997688958,-0.24995670136631,0.594148147841504,0.612651083426514,0.04,0.0155374168795077,284.285480192665,0.596368061195065,0.350263577012219
8058,-0.1,0.0246250862102777,0.101703358360799,-0.0995947009742429,0.142353945436631,-0.249979524566566,-0.249999803480015,-0.249969445555894,0.603347070910678,0.598545725692818,0.04,0.0250478918198183,287.592011912728,0.613426984137131,0.344483653873226
8118,0.25,-0.249982685563873,-0.244220687283485,0.25,-0.108820181877898,-0.249931875260531,-0.249999350325815,-0.249999181998257,0.585847202249305,0.584440367959122,0.04,0.0337811565473379,279.367728055925,0.602278474523565,0.340826669307385
8178,0.249999967563545,-0.0999879516861113,-0.0959547222000253,0.249998401059743,-0.00117412754619727,-0.101020449167539,-0.0999995452280707,-0.100005422165497,0.553642378875614,0.570335010225426,0.04,0.0737616290092821,264.102452970556,0.617455921031852,0.314283189266568
8238,0.249999891878485,0.249999760695333,0.249999196328047,0.249994670199143,0.249999999227771,0.246439545049442,0.25,0.249980017444276,0.543316142755592,0.563955073221274,0.04,0.118639667942183,259.497263787398,0.757839467465145,0.251599770165025
8298,0.249689153468508,0.0999998605360919,0.249997836818381,0.24999620217846,0.249999921646983,0.247504011110034,0.224977132895651,0.0999972567867596,0.574956104121317,0.575601117919391,0.04,0.0984464336039772,274.60733478209,0.805693330202554,0.250436162843371
8358,0.248964097178563,-0.249999906502136,0.24999466462916,0.249999776796866,0.249999740625145,0.249987765251415,0.166590442985503,-0.249962518080778,0.596483766884351,0.587247162617508,0.04,0.0813556408031152,284.574640248487,0.749242904315222,0.279079690785039
8418,0.0992748680249942,-0.249999934551495,0.100011485311234,0.0999998437578059,0.0999999036032673,0.24994456401687,0.191613310089852,-0.249881212966264,0.60574253996151,0.598893207315625,0.04,0.0600957549712981,289.307684625301,0.721351746896352,0.294691465151166
8478,-0.25,-0.25,-0.249949266430595,-0.25,-0.249999716114447,0.249843761136265,0.25,-0.212091075369442,0.635873199573747,0.610539252013742,0.04,0.0191442246293954,302.393116991133,0.57174941929907,0.388616150708301
8538,-0.136895819302689,-0.249969808113348,-0.0999759643305478,-0.100000108701306,-0.105456622561217,0.249883225657632,0.116351139972042,-0.214375746190961,0.614756471366779,0.622185296711859,0.04,0.0238118701284503,292.768497173924,0.541015923065199,0.397620687925035
8598,0.127013935657702,-0.249899360377825,0.249961740569562,0.249999637662312,0.231810595729653,0.24997530954082,-0.195496200093194,-0.230168563253844,0.615965917390203,0.633831341409976,0.04,0.041227865756812,294.20314170304,0.668879782688991,0.323187022206503
8658,0.163886900168728,-0.242737770547634,0.0999732798846807,0.211760347177163,0.235661783622441,0.249982629018024,-0.135908356924855,-0.100140956371183,0.634511233594018,0.645477386108093,0.04,0.0372772493735066,302.753464370267,0.730387212456676,0.304572463941186
8718,0.249923817361124,-0.226027394277187,-0.249999795046709,0.122535336045149,0.244647888705613,0.249999707798167,0.00312994380126858,0.249524680412509,0.649947954335702,0.65712343080621,0.04,0.0376053442793587,310.259574112551,0.793984806063459,0.287122797370054
8778,0.249715472551874,-0.0832249779045991,-0.10000022059344,0.1607744538457,0.246115993016265,0.100374155317356,-0.072809039339112,0.249652135661052,0.665839485000172,0.668769475504327,0.04,0.0480045171145235,317.772494213392,0.813321952392675,0.287083666734038
8838,0.249229334663625,0.249980660298105,0.249998786464186,0.249999062046984,0.24954156974112,-0.248752133804536,-0.235200467307205,0.249949531240986,0.680479340015858,0.680415520202444,0.04,0.0655682440970347,324.718601299639,0.815186029253844,0.292688133975196
8898,0.249457802533626,0.249985494435094,0.248897798323965,0.249999334844336,0.249639739484833,-0.0991266456159929,-0.193338023611743,0.109469773736912,0.692028423013294,0.692061564900561,0.04,0.0649439700519779,330.290385975153,0.821109225224941,0.295562735441313
8958,0.249990894230295,0.249996774088067,0.246328825996783,0.249999971371491,0.249868802220163,0.249999493490606,-0.138670113981851,-0.138670113981851,0.70022797670634,0.703707609598678,0.04,0.0662724899503748,334.13887846081,0.827517039787929,0.296691252203732
9018,0.249992768140446,0.105705013340175,0.0974313990114185,0.249991695004572,0.0999104493621624,0.249843497543085,-0.0790905663587953,-0.0778219593405798,0.715347749582498,0.715353654296795,0.04,0.0506907321874442,341.561335856519,0.848526054032297,0.295772776243061
9078,0.249997140597464,-0.230975761738241,-0.249995930621098,0.24997238348176,-0.249992373973172,0.24947950699887,0.248080822554983,0.249998232111895,0.729815429662358,0.726999698994912,0.04,0.0329265802307352,348.302402446718,0.842760111914035,0.303673695252387
9138,0.200880144129105,-0.0866830332167682,-0.249997151434768,0.249980310014003,-0.100005840646236,0.249635654899209,0.248656550047684,0.249998762478326,0.73644551980031,0.738645743693029,0.04,0.0426526891926569,351.328769833885,0.834235933586985,0.309442170566848
9198,0.0862738190362671,0.25,-0.25,0.249998805255903,0.249962737116612,0.25,0.249999914197318,0.25,0.743488545702176,0.750291788391146,0.04,0.05466609808073,354.876192762426,0.88115707619915,0.295922650579727
9258,0.135391164695563,0.249999809938164,-0.100000282939082,0.249999090733172,0.249973915981629,0.0999999999999999,0.249999939938122,0.24999985605021,0.759635550724584,0.761937833089263,0.04,0.0555382950880985,362.524488833677,0.90128122155258,0.295550502869087
9318,0.249998304567254,0.249999366460548,0.249999056869727,0.249999756846801,0.25,-0.25,0.25,0.249999520167368,0.771542424130545,0.77358387778738,0.04,0.0613333978365581,368.175627930264,0.912102118125199,0.296596654612186
9378,0.249998813197078,0.249997889142145,0.249999203648534,0.249997658995075,0.24999984643872,-0.100149416134613,0.1,0.249999664117158,0.783487771238629,0.785229922485497,0.04,0.0601277665989239,373.921310555363,0.927672437675319,0.296169437245911
9438,0.25,0.249994442065871,0.249999546132414,0.249992764007714,0.249999488129065,0.249501946217955,-0.000985003701332872,0.25,0.78976385948723,0.796875967183614,0.04,0.0634656354118924,376.921101577281,0.961972358648322,0.287900576685254
9498,0.249999942551184,0.24999610944611,0.249998666896809,0.249994237671366,0.249999641690346,0.249630841711228,-0.000465016777447076,0.249999897098332,0.804040983822713,0.808522011881731,0.04,0.061308793268048,383.713362985052,0.993636098870919,0.283748934352863
9558,0.249999808503946,0.25,0.249996615347065,0.249997676219889,0.25,0.249931597862196,-0.000219393512116604,0.249999656994439,0.816798231848209,0.820168056579848,0.04,0.0609267362655184,389.792901362781,1.01628354877521,0.281821230385334
9618,0.249999865952762,0.249999990115302,0.249997630742946,0.249997912502572,0.249998851740701,0.249952024798223,-0.000103369847474473,0.249999735651738,0.82897586603733,0.831814101277965,0.04,0.0608112128455412,395.599935265885,1.03480281870391,0.28090099989429
9678,0.25,0.249999967051005,0.25,0.249998463828834,0.249996172469004,0.249999687648953,-4.85644089972139e-05,0.249999919185435,0.840902846755522,0.843460145976082,0.04,0.0606206876236424,401.289012778088,1.05122459119651,0.280489387139381
9738,0.25,0.100003017905721,0.249995973390406,0.134974081976314,0.249997320715987,0.249999781350349,-2.2676275779581e-05,0.249999943429774,0.85547802071888,0.855106190674199,0.04,0.054634026165385,408.334620990597,1.06196554437589,0.282527322404826
9798,0.25,-0.249989863433277,0.24998657796802,-0.133416142346232,0.249999999958947,0.24999999998694,-5.49618070190646e-05,0.249999999999897,0.873669476654693,0.866752235372316,0.04,0.0428552957805987,416.869198445923,1.02414435862776,0.299084086837718
9858,0.25,-0.100432321377135,0.0999943687182665,-0.0332546338772668,0.24997890068893,0.100124781485251,-3.14972063204078e-05,0.100004552366101,0.888639396129483,0.878398280070433,0.04,0.0405509586846958,424.230529693899,0.988690882096332,0.315279742029809
9918,0.25,0.248535276753862,-0.249987452864493,0.200455552550318,0.249929669058892,-0.249584061685354,0.0664548404677089,-0.000206554771133246,0.894505118671615,0.89004432476855,0.04,0.0413199888607718,426.788392364046,0.93317461829798,0.336050354315472
9978,0.249445359636302,0.248972082748464,-0.249915665589006,0.0661444764633846,0.205702101108183,-0.099716531129141,0.0700198388031949,-0.00100674654485439,0.900610760025996,0.901690369466667,0.04,0.0357664238733223,429.746799039008,0.930626388248413,0.33930633162248
10038,0.248151198787672,0.249991296735866,-0.249748161946203,-0.247248034406128,0.10250444255653,0.249974373502023,0.0783381682526625,-0.00948282778601578,0.912774082911728,0.913336414164784,0.04,0.0300105956315779,435.582066713789,0.937672549720874,0.341329217559182
10098,0.09870583915137,0.0999939079984317,-0.249823713362342,-0.248073607045816,-0.00324689021042934,0.0999820616073935,0.129836717776864,-0.0282889686616314,0.933019954770366,0.924982458862901,0.04,0.0155141650740208,445.493625135499,0.928594522757783,0.352508872443106
10158,-0.25,-0.249999999055582,-0.25,-0.249999943205087,-0.25,-0.249999999480076,0.25,-0.0789514834957652,0.931584936572863,0.936628503561018,0.04,2.27225497582911e-07,444.422629215327,0.87619911658441,0.372690248613274
10218,-0.249999974749501,-0.249999993965208,-0.249999999303357,-0.249999519798769,-0.24999997001022,-0.249522879674027,0.249999989532945,-0.028210059162988,0.942933403548745,0.948274548259135,0.04,2.82450528680141e-06,450.285465201613,0.936025993847573,0.353471738076602
10278,-0.249999915831669,-0.249999982087671,-0.249999997677858,-0.249998531850694,-0.249999900034066,-0.24840960012658,0.249999965109818,0.249655042787822,0.967188153712511,0.959920592957252,0.04,0.00239363839427875,462.316887973277,0.853917135184659,0.397812757006017
10338,-0.155262989594243,-0.100001103989113,-0.100000262881752,-0.0999989722954858,-0.100000193412903,-0.214669544016377,0.249999942632226,0.249757811902656,0.932288177661286,0.971566637655369,0.04,0.0168041160963534,444.88995179253,0.9088808519618,0.359666773787421
10398,0.0657898382930858,0.249996278240854,0.24999911830916,0.25,0.249999122036478,-0.135942746425904,0.249999890184512,0.249997606503937,0.945738127889442,0.983212682353486,0.04,0.038413251984328,451.770187345846,1.20840853439015,0.274699874225059
10458,-0.0289471131948401,0.249996398463274,0.249998977139142,0.24999981526864,0.100000243956362,-0.0201599224981326,0.0999999231291586,0.249998324552756,0.991521305802034,0.991364913642168,0.04,0.0417998161127781,473.369916298027,1.28223877529526,0.271260416618085
10518,-0.25,0.249996678982254,0.249998647742433,0.2499993842288,-0.249997138230575,0.25,-0.25,0.25,1.00531949400228,0.991364913642168,0.04,0.0477866464634339,479.524988506217,1.19705300734293,0.294342204217689
10578,-0.100017561023261,0.221700886597348,0.10007782872955,0.133492705344227,-0.249997761627707,0.100513546779355,-0.1,0.25,0.999680724935886,0.991364913642168,0.04,0.0519193132765157,476.955374118964,1.14395341606194,0.306354372555213
10638,0.249941463255797,0.155677371032567,-0.249737415633844,-0.138356212053111,-0.249999216221016,-0.248288177402149,0.25,0.25,0.999813120500375,0.991364913642168,0.04,0.0475939389270992,476.987015332977,1.09182303404424,0.321002918303692
10698,0.0999649316058112,0.0340443604498016,-0.0998161909436909,-0.171828846393941,-0.135149252105664,-0.0988017241815041,0.249994323807157,0.25,0.994206744125118,0.991364913642168,0.04,0.0505168443840953,474.236715557905,1.05586266422235,0.330021639244463
10758,-0.249980308910822,-0.249765997576652,0.25,-0.249931659855878,0.132833997496822,0.25,0.249981079357189,0.25,0.994185488576629,0.991364913642168,0.04,0.0504619063286195,474.366140527486,1.04991701329257,0.331981119602385
10818,-0.0999862962479658,-0.099836198303656,0.249999513647606,-0.249952161899115,0.167980966694321,0.249900201089482,0.249986755550032,0.100017203044,0.991703550752981,0.991364913642168,0.04,0.0530628357198074,473.081492971516,1.03487367412817,0.335894811784445
10878,0.249999733298699,0.25,0.249998378825353,-0.25,0.249990561488484,0.24966733696494,0.25,-0.249942656520001,0.989890294184703,0.991364913642168,0.04,0.0637018707628504,472.265169489516,1.04139702415493,0.333214783061283
10938,0.249999813133212,0.249999669203973,0.12209476293669,-0.219499954543887,0.249993393032742,0.103306612636183,0.25,-0.249959830599391,0.994611803486989,0.991364913642168,0.04,0.0543206482292985,474.660470591219,1.04238167749236,0.334588471399336
10998,0.24999999941374,0.249998897346578,-0.176347007470193,-0.148333181812956,0.249999999969344,-0.238201744130917,0.25,-0.238846703963508,0.999205257801576,0.991364913642168,0.04,0.0429885558212965,476.628029613013,0.987899681255758,0.354504220344202
11058,0.173667052021801,0.249999228142604,-0.048442905229135,-0.178831770537331,0.100005072336953,-0.0917452118226812,0.1,-0.217854465879476,0.997634849558098,0.991364913642168,0.04,0.0389210397636063,476.060283406378,0.960961400119738,0.364007794929614
11118,-0.00444315855939112,0.25,0.25,-0.249995144227541,-0.249983092138625,0.249986696896534,-0.211936436282851,-0.211936436282851,0.996703940815225,0.991364913642168,0.04,0.0330454432206703,475.434609115404,0.9107433807912,0.383574250978066
11178,-0.0780956850270844,0.225614480701249,0.1,-0.249984504720498,-0.249986710219034,0.0999906900834611,-0.1,-0.220830138004535,0.994473010619756,0.991364913642168,0.04,0.0205581584473323,474.533186700389,0.899200532209273,0.387761522052973
11238,-0.249951580118368,0.168714935670829,-0.25,-0.249959679204064,-0.249995152406653,-0.249999992480376,0.25,-0.25,1.00131336939762,0.991364913642168,0.04,0.00486028771633409,477.678387023191,0.825444162218939,0.425209116805836
11298,-0.249966106082858,0.0431245125324704,-0.100004013401048,-0.0999721672889406,-0.248349652307584,-0.0999999947362635,0.249999646256373,-0.249984038083547,0.978014634486748,0.991364913642168,0.04,0.0121455815153688,466.671352573204,0.830616652463963,0.412824234570244
11358,-0.25,-0.249919808123701,0.249986621996507,0.249998693846348,-0.244510152076423,0.25,0.249998820854575,-0.249946793611825,0.976373450802925,0.991364913642168,0.04,0.0241782809701963,465.952117096426,0.949101298477195,0.360730943794575
11418,-0.24999231848829,-0.249942495450506,0.0999906353976083,0.0999993711253451,-0.246150190645751,0.100040300603993,0.100292775233312,-0.159904546647586,1.00096270588267,0.991364913642168,0.04,0.0166408755416955,477.885945952411,0.969314869874744,0.362254725808849
11478,-0.249974394960966,-0.249995432546384,-0.249999999999821,-0.249999048556995,-0.249976947307515,-0.249865664653355,-0.249021331216301,0.0501940296023063,1.00740696352612,0.991364913642168,0.04,0.00430949576310701,480.481119298529,0.809642005420176,0.436051686892854
11538,-0.0999820764726761,-0.099996802782469,-0.100005861815789,-0.115315835944671,-0.0999838631152604,-0.0999059833738161,-0.0993149326165629,0.0197543012073306,0.942347238485626,0.986121349720316,0.04,0.0234175253985161,450.451656796561,0.85260032958681,0.388201642621314
11598,0.25,0.25,0.249980460613617,0.198944993484085,0.25,0.249999939611776,0.249999997449493,-0.0512717317142793,0.935076043569481,0.968642803314143,0.04,0.0604509500882703,446.49781413174,1.14307594391687,0.287011255383114
11658,0.25,0.249784616146242,0.249981033712404,0.214261487475611,0.210644341291037,0.115725046113739,0.249999961138934,-0.0569998675290796,0.953378378454046,0.95116425690797,0.04,0.0658630364232281,454.914244100477,1.18549294576751,0.281958530015967
11718,0.25,0.249282053820808,0.249982370942907,0.249999973455838,0.118814470970125,-0.197583038715014,0.249999876414296,-0.0703655177636138,0.946357447105182,0.933685710501797,0.04,0.0737837578670668,451.333731296831,1.11398729910246,0.297695472343478
11778,0.249996584961212,0.249497437674565,0.249987659660035,0.24999998138853,0.158170129679087,-0.0633102525513307,0.249999498986122,-0.124255705563495,0.924767688030012,0.916207164095624,0.04,0.0823619134998329,441.007215784378,1.05095860399193,0.308329275005224
11838,0.249988616537372,0.25,0.25,0.249999999898147,0.25,0.249992915163929,0.249998618320384,-0.249999477096551,0.905703421057477,0.903972181611303,0.04,0.0854134138601679,432.074353932896,1.02531759152652,0.309638358767044
11898,0.0999920527064939,0.100000074908203,0.100009491439584,0.249999999928703,0.100067596219333,0.0999950406147505,0.100001667108789,-0.249999344345219,0.917807203440355,0.903972181611303,0.04,0.0601423626703435,438.336203440774,0.999891414438118,0.322113686852655
11958,-0.249999929565556,-0.249999750305991,-0.249968361868053,0.25,-0.24977467926889,-0.25,-0.249991219051599,-0.249999034592111,0.93602910350295,0.903972181611303,0.04,0.0112036518833483,446.203047165857,0.778127917812281,0.421343414890208
12018,-0.249999944094639,-0.249999825214193,-0.100210330964668,0.100020606864696,-0.249825554975144,-0.25,-0.249993825114009,-0.24996555511002,0.911278353893425,0.903972181611303,0.04,0.00120146848984801,434.695131729896,0.703823071895127,0.453811976854762
12078,-0.249999977995833,-0.25,0.249225074476565,-0.249931310451013,-0.249944264956404,-0.25,-0.2499999059263,-0.249887436318474,0.889829909737174,0.903972181611303,0.04,3.22316258529382e-06,424.519971712293,0.752613500705856,0.41445825894746
