time,bias_percent_1,bias_percent_2,bias_percent_3,bias_percent_4,bias_percent_5,bias_percent_6,bias_percent_8,bias_percent_9,normalized_power,power_SP,SP,CV,total_power_MW,fuel_fraction,thermal_efficiency
57,0,0,0,0,0,0,0,0,0.99985219670941,1,0.04,0.0399045306442518,477.03196640444,1.00005486367501,0.350492179857063
117,0,0,0,0,0,0,0,0,0.999983132152703,1,0.04,0.0399133913282592,477.092242594834,1.00029355986701,0.350452819731842
177,0,0,0,0,0,0,0,0,0.999998832553674,1,0.04,0.0399530798510796,477.099484006675,1.00031795155625,0.350449593433496
237,0,0,0,0,0,0,0,0,1.00000175689664,1,0.04,0.0399796147079195,477.100852073147,1.00031180115055,0.350452753077242
297,0,0,0,0,0,0,0,0,1.00000309001967,1,0.04,0.0399952444872251,477.101482123412,1.0002956258034,0.350458882905553
357,0,0,0,0,0,0,0,0,1.00000379621376,1,0.04,0.0400039680452134,477.101814581756,1.00027401500899,0.350466698741018
417,0,0,0,0,0,0,0,0,1.00000399067534,1,0.04,0.0400083399902867,477.101903760368,1.00025024308526,0.350475093434198
477,0,0,0,0,0,0,0,0,1.00000380449591,1,0.04,0.0400099664508627,477.101812503946,1.00022688113041,0.350483212322499
537,0,0,0,0,0,0,0,0,1.00000338149978,1,0.04,0.0400099149497884,477.101609284614,1.00020563974674,0.350490506250368
597,0,0,0,0,0,0,0,0,1.00000284355737,1,0.04,0.0400089159342345,477.101352227334,1.0001874431976,0.350496693928857
657,0,0,0,0,0,0,0,0,1.0000022791119,1,0.04,0.0400074649700379,477.10108292719,1.00017261511303,0.350501692385514
717,0,0,0,0,0,0,0,0,1.00000174596221,1,0.04,0.0400058878855567,477.100829015283,1.0001610719252,0.350505551102599
777,-0.237499653255651,-0.2375,0.237499871892881,0.237497711728208,-0.237499396153768,0.2375,-0.237499993649499,0.237481417363641,1.00042099216465,1,0.04,0.0398246720153045,477.308247645626,1.00139429341816,0.35022609589722
837,-0.249999635005949,-0.25,0.249999865150401,0.249997591292851,-0.249999364372388,0.25,-0.249999993315262,0.249980439330148,1.00004964830126,1,0.04,0.0394908813613022,477.118199703509,0.997689737135484,0.351386566598813
897,-0.249997316057254,0.224948063041152,0.249998491711058,0.24999978386736,-0.249999968218619,0.249999999967011,-0.249998374158715,0.183459117651009,0.994331133253691,1,0.04,0.0484953219144091,474.389816584783,1.02193935431874,0.341086798034156
957,-0.249997194007323,0.249945329517002,0.249998419424777,0.249999899266018,-0.25,0.249999999965275,-0.249998288939949,0.17995799545737,0.998084957640741,1,0.04,0.0478660926492993,476.204270830781,1.04115169002831,0.336073256236633
1017,0.22494972165711,-0.225001960027123,-0.225000079028761,0.249999947016556,-0.25,-0.225000000001736,-0.249999597207229,-0.228501390323874,1.02312727836772,1,0.04,0.0209936668683332,488.158699253113,0.944011539917074,0.37996046112441
1077,0.249946927744712,-0.249999185792603,-0.25,0.249999949529742,-0.25,-0.25,-0.249999666063402,-0.249999252733413,1.00426452074747,1,0.04,0.0212415999321688,479.068898562704,0.885943276526232,0.397325772823147
1137,-0.225002641080323,-0.235989583822017,-0.249994946502482,-0.224995560493977,0.224996845770508,-0.249999991841167,-0.24999998330317,-0.249999962636671,1.01244650679365,1,0.04,0.00832275430476952,483.066664781219,0.838386306226866,0.423367551595341
1197,-0.249999986807956,-0.235252236349881,-0.249994680528928,-0.249995324179435,0.249996679758429,-0.249999991411755,-0.25,-0.25,1.00270976986656,1,0.04,0.00726716699947979,478.375745204244,0.800340973595647,0.439186292471868
1257,-0.249999999340398,-0.249262084754185,-0.249997748930273,0.225000233791028,-0.22500016489666,-0.249999999570588,0.118489900360545,-0.25,0.991325614008672,1,0.04,0.0134857344799978,472.911245543192,0.83574162846194,0.415778743712337
1317,-0.25,-0.249999445196516,-0.24999791042508,0.25,-0.249999998825875,-0.25,0.137884105642679,-0.25,0.993932255611898,1,0.04,0.0134853189557833,474.20433510172,0.874129938784202,0.398606339215331
1377,-0.00684832240007927,0.222667001149144,0.224993551125586,0.249999817874682,0.225000000058706,0.222956287713794,-0.2306057626043,0.22488215612594,0.950530434464255,1,0.04,0.0505777546900979,453.587057627179,1.13005286739515,0.294928382400134
1437,0.00594913431570603,0.247544182535757,0.249993101733515,0.249999808289139,0.25,0.247848723909257,-0.249999966196247,0.249875953816779,0.981797289252527,0.989014139353039,0.04,0.0567257881296041,468.490361131107,1.24347989554682,0.276832177149635
1497,-0.237021414993988,-0.225118215792859,0.249997959713513,-0.224993758871305,0.249977950316658,0.136424942079573,0.224949606545293,0.249993797690839,0.991216168634429,0.977450075514133,0.04,0.0541155558140649,472.949730991918,1.20154674943307,0.28922044246669
1557,-0.249809338641867,-0.249995184125944,0.24999821539667,-0.249993420300803,0.249976789807009,0.13056053250959,0.249946952479058,0.25,0.976058512516345,0.965886011675226,0.04,0.0639006781508447,465.56936191237,1.12816167251782,0.303226901207425
1617,-0.0668342712448954,0.019720057617413,-0.225000089230166,-0.24999967101504,-0.223054198711781,-0.230591291187853,0.249997347623953,-0.225,0.985837213699348,0.95432194783632,0.04,0.0477264525912573,470.357290238448,0.977074246585419,0.353716231628808
1677,-0.0572040045397916,0.0339155966565372,-0.25,-0.25,-0.247950566528559,-0.249599281908771,0.25,-0.25,0.954973569159657,0.942757883997413,0.04,0.0491083042795882,455.466615643123,0.871417349574581,0.384047572132255
1737,0.00355736043057982,0.239146007756569,0.225,0.224988228296974,0.225102471673572,0.225009518292676,0.25,-0.247871860085723,0.912900612422923,0.931193820158507,0.04,0.0882561469836595,435.348526297625,0.935597982706204,0.341902658894106
1797,0.00675532700796771,0.249947608340781,0.25,0.249987608733657,0.25,0.249988928829594,0.25,-0.247759852721813,0.91613500249131,0.9196297563196,0.04,0.0782428757440747,437.067406869974,0.986843430638725,0.325427944627875
1857,0.2377891966782,0.24997196726556,0.249165726412696,0.249998973609289,0.249978202880576,0.249659759154935,0.25,0.225112007363909,0.897950066509903,0.908065692480694,0.04,0.0858865804757016,428.304284084353,1.03490241212926,0.304093890930607
1917,0.249948874029266,0.249973249314232,0.249121817276522,0.249999571760638,0.249977055663764,0.249642434435216,0.25,0.25,0.897872003415903,0.896501628641788,0.04,0.0833824940168253,428.333216349727,1.04723239460106,0.300533827620912
1977,-0.0383285632761469,-0.11524060899797,-0.225043885134726,-0.224999997257876,-0.224895232415702,0.249971426514821,0.0379165284591144,0.249998899109729,0.91969048215355,0.884937564802881,0.04,0.0376519381088293,438.915876819558,0.908621570899082,0.354938348474078
2037,-0.0535010599764317,-0.134462391014402,-0.249999974735318,-0.249999974574639,-0.249888510735674,0.249988741887432,0.0267542404832783,0.249998841168135,0.886752261119933,0.873373500963975,0.04,0.0389156340382809,422.883785665248,0.780138051174661,0.398294444487682
2097,-0.240101836581638,0.230726757638878,0.224999998492072,-0.249985596560518,-0.249994375280946,0.180880550451474,0.238837708446512,0.249999925085941,0.856380017880758,0.861809437125068,0.04,0.0546477329228905,408.430044525582,0.78363803980541,0.382963028045904
2157,-0.249922930087176,0.249947239146946,0.249999997082988,-0.249984839822932,-0.249999947099118,0.177243277218002,0.249999996234051,0.249999982134247,0.851922247275223,0.850245373286162,0.04,0.0476386736589749,406.380372160334,0.785757030756501,0.380013586717836
2217,-0.249971550386401,-0.140469609265522,0.247814330343246,0.225000758008853,-0.249999362163208,0.246338111645418,0.24999995486343,0.249703917264727,0.840110461241764,0.838681309447255,0.04,0.047803132715278,400.727110559005,0.777786569160632,0.378567181554037
2277,-0.249974109349519,-0.161017864445126,0.247699295251681,0.25,-0.249999331377108,0.24997468187844,0.249999952686029,0.249688334903173,0.828863514737147,0.827117245608349,0.04,0.0460965995421962,395.357261698112,0.765681411560114,0.379399096655008
2337,-0.249998107706026,0.229449106764852,-0.225115035237416,-0.224999394575089,0.224913013386761,-0.221350201862443,0.249991860589208,-0.0597987343749859,0.828649748210835,0.815553181769443,0.04,0.0221643734707976,395.258044704309,0.691492158457752,0.419998882274223
2397,-0.249999370777421,0.249999999986429,-0.25,-0.24999936271062,0.24990839995328,-0.246156774690911,0.249991434689375,-0.0800424743543105,0.807684651020169,0.803989117930536,0.04,0.0197165368452598,385.230050382537,0.654243555265483,0.432648677508215
2457,0.112441903006602,-0.224984425025754,-0.25,-0.249954134590421,-0.225004580002336,-0.247782211867565,0.249999567965331,-0.126013229181084,0.808240105540464,0.79242505409163,0.04,9.37058720832432e-05,385.559288977156,0.572926567187729,0.494477899327758
2517,0.131517759521551,-0.249983605289554,-0.25,-0.249951754163042,-0.25,-0.247867761192652,0.249999996032486,-0.201360122964972,0.774343731130515,0.780860990252723,0.04,5.88878906469453e-07,369.259370520737,0.581054930064266,0.466948528242373
2577,0.243580516151757,0.225000819735522,0.225,-0.244750775519105,0.223697823822159,0.225106135772397,0.249999833220906,0.227218529846715,0.727265948388853,0.769296926413817,0.04,0.0626824411955045,346.896605538832,0.764770463316126,0.333291025836663
2637,0.249478555974399,0.25,0.25,-0.244477039801003,0.248629288233851,0.249999498770558,0.249999824651876,0.24999929706801,0.771686583674605,0.790361105613075,0.04,0.0528313436398733,368.459091269119,0.924936489494022,0.292706279724926
2697,0.249915469598888,0.0879765578435062,-0.224993767601754,-0.249637207140105,0.044152892949105,0.249955404777393,0.249999991232594,-0.196792917034015,0.825136801987433,0.81314256076171,0.04,0.0281445244757373,393.992077404497,0.908367618524849,0.318698868139011
2757,0.249938465052808,0.0794490082563223,-0.249993439580793,-0.249908794894795,0.0333909774078026,0.24995308404091,0.25,-0.220308296723596,0.818694144388373,0.814281633519142,0.04,0.0396054200384583,390.570597005884,0.863196070613782,0.332464108240674
2817,0.249843696688896,-0.107443104676397,-0.249964952119266,-0.131470934376289,-0.23583045112961,0.0128372565749953,-0.225,-0.243477400957061,0.835914734296743,0.814281633519142,0.04,0.0167521576967703,398.876891433685,0.763614138987144,0.383812921555389
2877,0.249838708880269,-0.117279531672856,-0.249963452779185,-0.125237362770052,-0.25,0.000357476182052437,-0.25,-0.244696827495664,0.818990754959278,0.814281633519142,0.04,0.0172686318506728,390.678267387576,0.704648488848068,0.407381595159566
2937,0.249506831055144,0.231636023199107,0.225001827361041,0.230072507192644,-0.25,-0.236590030631169,0.0963829115966537,0.225245610117295,0.786677277062314,0.814281633519142,0.04,0.0600648012023699,375.268719869984,0.823882400656363,0.334681584373269
2997,0.24948936380119,0.249999999771316,0.25,0.248773026664365,-0.25,-0.249060952042391,0.114613591154372,0.24997942262324,0.808817357153043,0.814281633519142,0.04,0.056029087830443,385.978807288533,0.898001528384925,0.315821040645373
3057,0.227381108697494,0.249999999988566,0.243227265341304,0.249938651333218,0.201623611878822,0.225046767110754,0.243188335614762,0.243198790238228,0.800744585026937,0.814281633519142,0.04,0.0790198680556471,381.992107682079,0.961255529377201,0.291991504192465
3117,0.226217516323615,0.25,0.242870805622425,0.25,0.225393275661918,0.249999804960919,0.249955427428466,0.242841914849543,0.811896154485375,0.814281633519142,0.04,0.0774542263573593,387.410372951364,0.997555371069543,0.285357249180768
3177,0.24880185399279,-0.164589110955927,-0.224913124694985,0.183369471664615,-0.174038624489771,0.249966353197029,0.249936519564975,-0.183172383355989,0.851005050013271,0.827812210847494,0.04,0.0396176629215416,406.04417355641,0.912457855232877,0.326975449148602
3237,0.249990503343799,-0.186409590479924,-0.249533331553796,0.179862601752226,-0.195061356076702,0.249964592577877,0.249935524414265,-0.148218026183642,0.845041835328187,0.842054923824708,0.04,0.0388347292061503,403.212038639998,0.861924771798127,0.343731081115091
3297,-0.224998823024276,0.228100554778718,0.225023314978582,0.24645870247152,-0.247073741468604,0.147134111210213,0.249843332265576,0.225000006819116,0.84066282491406,0.856297636801921,0.04,0.0484030109415244,401.114643019862,0.918967480659981,0.320717789153817
3357,-0.249998261254175,0.249916878213384,0.249999980585549,0.249963760404114,-0.249811235436598,0.141721980611915,0.249838480047224,0.25,0.865556812794183,0.870540349779134,0.04,0.0420520744621996,413.105817246164,0.96725083160003,0.313817295381422
3417,-0.249999913062709,0.249995843910669,0.249992557144244,-0.224886529081058,0.225009422031978,-0.229917698043764,0.249989695123537,0.200023683869011,0.887301822470612,0.884783062756348,0.04,0.0331912546511587,423.479182420607,0.965678387752748,0.322221288806539
3477,-0.25,0.25,0.249992166436807,-0.249878649580278,0.249999982951377,-0.249477681130905,0.249997653811764,0.197393351441064,0.898654100140145,0.899025775733561,0.04,0.0347905544047331,428.846194754846,0.962267787102041,0.327461532178306
3537,-0.25,-0.225,-0.225000385600189,-0.249802767445333,-0.224027853826629,-0.249973884011722,-0.0736788691035527,-0.138045389113385,0.915218910414204,0.884903627793522,0.04,6.4101926654289e-07,436.364480150606,0.772154488529846,0.415240655493679
3597,-0.25,-0.25,-0.249999993602137,-0.249798773648757,-0.24897668734126,-0.249999999952818,-0.0907144755727799,-0.204185663842066,0.870361671929011,0.869288592436785,0.04,4.00096276140507e-08,415.019498966592,0.738160607451011,0.413116282991988
3657,0.224999999662083,-0.25,-0.249999999680107,-0.249987911224567,-0.249924427268944,-0.247645654305416,-0.242035723778639,-0.249985765073141,0.854696626622184,0.853673557080048,0.04,1.07711031588096e-06,407.812936849738,0.749582905251633,0.399756930028241
3717,0.249999999644298,-0.25,-0.25,-0.24999786583382,-0.249974308317769,-0.247521741376605,-0.25,-0.249985077157503,0.854806743028606,0.838058521723312,0.04,5.05149950789753e-05,407.78671036174,0.674572108222429,0.444180372671144
3777,0.249999999982215,-0.249999815880584,0.224998444222678,0.225000106708309,0.225001284584112,0.162309914990698,-0.25,0.225000746142125,0.790166706178535,0.822443486366575,0.04,0.062070231946652,376.816637890475,0.809144837665687,0.342183038885273
3837,0.25,-0.249999806190089,0.249998362339661,0.25,0.25,0.183880002167924,-0.25,0.25,0.802586573340037,0.806828451009838,0.04,0.0615100678593139,382.898666302673,0.883568872090139,0.318418375636799
3897,0.249995864008869,-0.249995186805308,0.0888436458862735,0.25,0.249999977197686,-0.228305897540358,-0.249999996595481,0.25,0.801856535941452,0.791213415653101,0.04,0.0576897395703951,382.502661017029,0.84315059878056,0.333337354480523
3957,0.249995646325125,-0.249994943679793,0.0803618187045162,0.25,0.249999975997564,-0.249999892261847,-0.249999996416295,0.25,0.78309605055573,0.775598380296365,0.04,0.0654156841803832,373.471838065161,0.789185988446555,0.347722801027175
4017,-0.225000217683744,-0.249999700907363,-0.233481909064774,-0.224999999743959,-0.224986937340595,-0.249999824324398,-0.249999999820815,0.212892184666957,0.801969679878844,0.759983344939628,0.04,0.0183370886145227,382.778372523402,0.640782892493627,0.438925850526311
4077,-0.25,-0.249999951287762,-0.25,-0.249999999730483,-0.249986248568919,-0.249999820748743,-0.25,0.210939141754692,0.761239932883422,0.744368309582891,0.04,0.0153397435946236,363.41666059964,0.504923342252814,0.528851890733356
4137,0.225,-0.249711974847897,-0.249999999991245,0.182152792817303,-0.249999312428446,-0.249999947576119,0.225,-0.226951787866434,0.711285890999391,0.728753274226154,0.04,0.028422002807551,339.470591461575,0.560230886719913,0.445235499929338
4197,0.25,-0.249696818193167,-0.249999999990784,0.204897676635608,-0.25,-0.249999954251244,0.25,-0.249998678899124,0.710578150355449,0.713138238869418,0.04,0.0264196778971332,338.904774004826,0.596221309315662,0.417661908791575
4257,0.0401020049061592,0.2118633638811,0.225000000000461,0.247725880739078,-0.126956951343738,0.225000002287438,0.249999999839259,-0.249981565529596,0.67831243002951,0.697523203512681,0.04,0.0699073213283573,323.53861310686,0.704570057364757,0.337408961432706
4317,0.0290547420064834,0.236156005042904,0.25,0.249979996744524,-0.120481001414461,0.25,0.249999999830799,-0.249980664825937,0.680692832454056,0.681908168155944,0.04,0.073317129146503,324.709651066173,0.742952426024637,0.321135907192844
4377,0.238952737100324,-0.225692199681328,-0.225,0.249998999837226,0.231475697134756,-0.225,-0.224999993639324,-0.249998887364457,0.689138510128015,0.666293132799207,0.04,0.0414799328469286,328.765248144678,0.647475002597933,0.37309340715599
4437,0.25,-0.249999999929972,-0.25,0.25,0.249999733900504,-0.25,-0.249999993295647,-0.249999846445431,0.6594032841688,0.65067809744247,0.04,0.0478983469961862,314.409698680444,0.56310562535625,0.410261482221781
4497,0.25,-0.249999999996499,-0.25,0.25,-0.126360577909788,0.017723285593413,0.0532249719453973,0.0486002502050831,0.628540688078856,0.635063062085734,0.04,0.0518753920951672,299.747688651911,0.584915986154522,0.37654512398159
4557,0.25,-0.25,-0.25,0.25,-0.146169015373488,0.0318139848351717,0.0691841806422944,0.0643160447656365,0.62253439701018,0.619448026728997,0.04,0.0484792090312134,296.909456324239,0.579656783326247,0.376363746924677
4617,-0.22361330235156,0.224999974078614,0.223933840996776,0.248139838866061,-0.244456057039204,0.239090530030974,0.240959199147826,0.102350527973406,0.596906821195609,0.60383299137226,0.04,0.0830232221309124,284.618105124063,0.601376309182124,0.347752998900081
4677,-0.248540318264799,0.24999997271433,0.248877727365028,0.248041935648485,-0.249629059232137,0.249999821883384,0.249999989595485,0.104352342879078,0.590896210431865,0.588217956015523,0.04,0.0785608367854551,281.822310438349,0.599627933083871,0.345341039131416
4737,-0.24992701591324,0.249999998635717,0.248567126281325,-0.225097903217576,0.225018432057304,0.249999991094047,0.249999999478394,-0.108349301710544,0.578982619383377,0.572602920658787,0.04,0.0750375262107109,276.013704566348,0.554695267345455,0.36562077246224
4797,-0.25,0.25,0.248550778855867,-0.25,0.249999878967274,0.249999999999871,0.249999999998547,-0.0511800892379354,0.559722546002225,0.55698788530205,0.04,0.0736637981909737,266.906938733502,0.533477820349821,0.367619188812217
4857,0.225,0.24364592892654,0.249927538942793,-0.25,-0.223952683707509,0.249982807405611,0.249998176467066,-0.024183198302104,0.565687914493117,0.570132851373338,0.04,0.0564890213062161,270.001717469779,0.552998177635297,0.358754620235373
4917,0.25,0.2433115041332,0.25,-0.25,-0.248897555427235,0.249981902532229,0.249998080491725,-0.0114259809700643,0.578092973535592,0.584791501730313,0.04,0.0474793683633685,275.929081229999,0.592883938057539,0.341965636034328
4977,-0.224999999804111,0.0919428324763056,0.24999962917429,0.0387962837280919,0.199094768333867,0.249997909767419,0.249999889751039,-0.00539943174096661,0.588850102295575,0.599450152087287,0.04,0.0437628741406123,281.088041160977,0.654251257811264,0.315683933275685
5037,-0.249999999793801,0.0839760602838375,0.249999609657147,0.0539960881348335,0.222673311689715,0.249998752253481,0.249999984975214,-0.00368503623400317,0.608456822794598,0.614108802444261,0.04,0.0392293367392033,290.417145313655,0.68942030596718,0.309522951216774
5097,0.224964566204853,0.241698607407208,0.249999980407086,-0.234798978393856,0.0894329068740026,0.249990316644159,0.249999999248761,0.224848305528374,0.615361021062054,0.628767452801236,0.04,0.0540920689306632,293.643246431475,0.742291827225571,0.290669868548732
5157,0.249962701257414,0.249999794097912,0.249999999920241,-0.249998718737471,0.0824202539889652,0.249989872664721,0.25,0.249821630238601,0.638760434139074,0.64342610315821,0.04,0.0547194439890635,304.911683970175,0.790336812514577,0.283476153838609
5217,0.249983519537509,0.249999985890504,0.207024094758763,0.224999847985565,0.24159255020939,-0.225000505727959,0.249999993184611,-0.000589724920198767,0.660843029691672,0.658084753515184,0.04,0.0585932418403899,315.344401217606,0.771808937646742,0.300213347815558
5277,0.249984615236461,0.249999995984851,0.204762205013422,0.249999772549936,0.249970039484149,-0.249999999327573,0.249999992825906,-0.000278301188114006,0.669300338227939,0.672743403872158,0.04,0.0583692749420155,319.420430324574,0.784300663720058,0.299250430722538
5337,-0.225000769238177,-0.224997067990424,-0.113406553013161,-0.224998629849816,-0.22499344157125,-0.249999999950814,-0.0165833739150585,-0.0165833739150585,0.684490145686811,0.687402054229133,0.04,7.17302209226574e-10,326.496631137274,0.732821141580161,0.327367371004935
5397,-0.25,-0.249996913462807,-0.130152277119823,-0.249998545765592,-0.249991519521534,-0.249999999983616,-0.0778721891088435,-0.0778721891088435,0.681631808341583,0.702060704586107,0.04,2.80833533350544e-10,325.360371569021,0.860525701935638,0.277814868617974
5457,-0.249881196129956,-0.24999984567314,-0.244002016451299,-0.24999992728828,-0.249999575976077,-0.249989980746573,-0.161699346011634,-0.161699346011634,0.703521036327104,0.716719354943081,0.04,2.63354828274217e-10,335.849412543396,0.958627741899986,0.257424143420105
5517,-0.249874943294691,-0.25,-0.249994107995061,-0.25,-0.25,-0.249989453418308,-0.249997922621475,-0.249999906950224,0.731981139435616,0.731378005300055,0.04,4.4874890859429e-08,349.342082451015,0.985057613135884,0.26058172170303
5577,0.139744124573668,-0.249999998349853,-0.240140882968007,0.147302160787173,0.224998680343466,0.224993335958048,-0.138780627954684,-0.079404712289846,0.740334199047384,0.74603665565703,0.04,0.0404108494981185,352.939578139285,0.881046062903974,0.294344837888077
5637,0.160250391303582,-0.249999998263003,-0.239622292177109,0.168212800828603,0.249998610887859,0.249992430135751,-0.132927086130117,-0.0704260178340367,0.749578867990448,0.746769588174878,0.04,0.04463822072567,357.66855939742,0.890570397523761,0.295098625477641
5697,0.0676731294363469,-0.247072762236317,-0.249481110700751,0.245910582470594,0.24999993045702,-0.0752594014752144,-0.125788560788387,-0.241021276142555,0.760028627401116,0.746769588174878,0.04,0.0389966905376012,362.642063224475,0.827436020999527,0.322031555645944
5757,0.0628006419696504,-0.246918697182281,-0.249999995886206,0.24999993939912,0.249999999908028,-0.092377918928423,-0.125412848928296,-0.249999973948267,0.752444671699712,0.746769588174878,0.04,0.0412736703016343,358.955240596251,0.778138549885233,0.338951876989927
5817,-0.230582563086178,0.225094683311893,-0.249999995889363,0.248886131093255,0.24999412995582,-0.241928958967537,0.135389685304502,-0.220563348899368,0.743968096567802,0.746769588174878,0.04,0.0480585183184723,354.917547853378,0.781730777500846,0.333599151753925
5877,-0.246023784404906,0.249937492811587,-0.249999995889529,0.248827509603473,0.249993821010967,-0.249800066338017,0.149116134474649,-0.219014052844163,0.748007087164696,0.746769588174878,0.04,0.0449771554270461,356.884584852811,0.780617023227629,0.33592664148642
5937,0.225189520434437,0.249887529216505,0.224985659620969,-0.223851962867986,-0.225000146234251,-0.245545463819879,0.244953268692993,-0.246118153207568,0.748824495851415,0.746769588174878,0.04,0.0500051942887544,357.313249132523,0.769160260200975,0.341339822794009
5997,0.249990220689139,0.249884899553606,0.249984904647837,-0.248729829840168,-0.249999828720841,-0.245321537371556,0.249997328388696,-0.247544684805642,0.749314825945832,0.746769588174878,0.04,0.0509093387158038,357.497865004704,0.754181633810466,0.348298959247671
6057,-0.224955464104348,0.248763008865831,0.249726976951353,0.225063096892969,0.209513192406164,0.225175596322529,-0.196719362533699,0.225072100371688,0.733359174759668,0.746769588174878,0.04,0.0711205779565893,349.835332015744,0.808200228737735,0.318052912348729
6117,-0.249952605409269,0.248703961987527,0.249713401809433,0.249999566721029,0.233698088254954,0.249938603359059,-0.220230767319088,0.2499466680126,0.744864647756264,0.746769588174878,0.04,0.0643083735057905,355.417167992414,0.838295699631698,0.311527105571811
6177,-0.0148246733005423,-0.0420714227805654,-0.224981860983816,-0.207777666358989,-0.225804724159881,-0.167109528457929,0.226487018005652,0.249997328905335,0.771368363814477,0.746769588174878,0.04,0.0270909701630116,368.337034624386,0.762940315173047,0.354739458913188
6237,-0.00244951897903036,-0.0573753903999387,-0.24996582218346,-0.231871204942147,-0.24998908270803,-0.189059430132507,0.249998480391165,0.249999995268111,0.753374398210465,0.746769588174878,0.04,0.0301294054924181,359.400864235733,0.688190583592392,0.383729393684589
6297,0.237347126496922,-0.240366422473638,0.225001708890827,-0.24908767522668,-0.249998962270993,0.228047028493375,0.249520192971289,-0.224984742046724,0.743133169767947,0.746769588174878,0.04,0.0387615487641854,354.583273651251,0.702804220974019,0.370713635461473
6357,0.249968002574604,-0.249997529424886,0.25,-0.249993805241655,-0.249999482247991,0.25,0.24949501994919,-0.24800302278644,0.74533472150511,0.746769588174878,0.04,0.0365236226854073,355.609248671598,0.717439510696946,0.364202089798266
6417,0.00563961243742551,-0.249987352267441,0.0875940259433143,0.224977418538889,-0.2499999741124,-0.224279185513767,0.24996959705146,-0.24999919693668,0.752847197933969,0.746769588174878,0.04,0.0230330141301787,359.238658957721,0.697734480845783,0.378309769920752
6477,-0.00721977651716281,-0.249986816627575,0.0790463430982255,0.249975904001023,-0.25,-0.249241247909228,0.249994574793685,-0.249999999999269,0.747149334294579,0.746769588174878,0.04,0.0237934368436433,356.442488853265,0.683082766299084,0.383416514814006
6537,-0.237860318342137,-0.249999340831379,0.237363542325899,0.249998795200051,-0.249806146834479,-0.24996203494349,0.249999368944728,0.224999999754602,0.738624271816971,0.746769588174878,0.04,0.0353681300847687,352.382516777187,0.723098329031924,0.358073079569135
6597,-0.249999294227662,-0.25,0.245696026495777,0.25,-0.249795944036294,-0.249999971103188,0.249999621268467,0.249999999741648,0.744264236541202,0.746769588174878,0.04,0.0353495245098896,355.092443308165,0.741287435515711,0.351973095282123
6657,0.225000013468316,-0.2499458434378,-0.225144009927558,0.249997103236539,-0.249988960486086,-0.249999998555159,0.249999882505905,0.249999996817448,0.74369425387946,0.746769588174878,0.04,0.0349687284921893,354.816821489011,0.752896510393557,0.346276957601531
6717,0.249999977031262,-0.249942993092421,-0.249925064476155,0.249996950775304,-0.249999119246602,-0.25,0.249999896255244,0.249999996663542,0.745358025035732,0.746769588174878,0.04,0.0372201543901407,355.620553193663,0.766299857067896,0.340990896677868
6777,0.249999998851563,0.224802239045747,-0.249996253223808,0.249999847538765,0.22500004403767,0.224999935076981,0.249999954440435,0.00913345209389996,0.73380727430185,0.746769588174878,0.04,0.0690456399054574,350.104380899533,0.838898968137894,0.306649712079524
6837,0.25,0.249788830210914,-0.25,0.25,0.25,0.249999931659979,0.249999957502813,-0.00354373446239697,0.744825068817695,0.746769588174878,0.04,0.0701063117839803,355.407649231757,0.872002508639834,0.299477164549248
6897,0.246121140505314,-0.225008227838467,-0.0628900877787296,0.249915523200594,0.25,0.14905561597508,0.249984089720689,0.237322490528869,0.746759116850845,0.746769588174878,0.04,0.0639027871203171,356.296884442322,0.875847533684065,0.298908448056661
6957,0.245916990005594,-0.249997546683171,-0.0530421976618206,0.249911077053257,0.25,0.143742757254822,0.249983254574262,0.249999660265251,0.75007028647035,0.746769588174878,0.04,0.0647570588089907,357.865138585522,0.859648456864477,0.305881479429115
7017,0.246267839797327,0.218078348478459,0.234841712620623,-0.225004155275938,0.25,-0.230306754167601,0.249895795684142,0.249999893087061,0.754623183751367,0.746769588174878,0.04,0.0680088427810165,360.090577099582,0.823422585550635,0.321324365094597
7077,0.246286305575839,0.242713921908018,0.24999349737233,-0.24999969381958,0.25,-0.249993570558255,0.249891192584662,0.24999990534084,0.751351958374379,0.746769588174878,0.04,0.0671682519338889,358.445625159269,0.787479910571602,0.334455603959597
7137,0.249814315278792,0.249377559761586,0.249998878016872,0.224898321484174,0.249999253676265,-0.249999637518853,0.247021425152453,0.249999670703545,0.743595173503421,0.746769588174878,0.04,0.0753836389579198,354.714435975152,0.789778159847073,0.330011002950001
7197,0.25,0.249728277543353,0.24999916120869,0.249892953868582,0.249999214396068,-0.249999956832569,0.246870384761284,0.249999658354213,0.743810380646301,0.746769588174878,0.04,0.0702770625396128,354.880578010775,0.810548823991652,0.32170493870427
7257,0.24991637785987,0.248549839254998,0.249912055042662,0.188624628217068,0.249909109070465,-0.249999997841628,0.249843519238064,0.249470256732701,0.74538159451183,0.746769588174878,0.04,0.0663117927541941,355.632326564605,0.822067583653248,0.31786915256913
7317,0.2499119766946,0.24848781618719,0.249907470507608,0.185399979498567,0.249904366684907,-0.25,0.25,0.249442393489463,0.745852093332139,0.746769588174878,0.04,0.0657462894792622,355.848394009893,0.828164441198286,0.315720736404277
7377,0.24999559883473,-0.210422942521896,-0.225003541362406,-0.228209080570845,0.249239235962288,-0.25,0.25,0.249964087014945,0.761164981979373,0.746769588174878,0.04,0.0261110383149112,363.351945235493,0.782595807959399,0.34114942892026
7437,0.25,-0.23457614034869,-0.249998857776617,-0.249977978469235,0.24920422908215,-0.25,0.25,0.249991544568918,0.75272486845853,0.746769588174878,0.04,0.0288951075730474,359.080678821358,0.721041442613513,0.36592028611009
7497,0.249474784883899,-0.249194627712964,0.224999627095845,-0.142880589167328,-0.225039788545893,0.224964331026802,0.0886167385202797,0.132523490134076,0.747969084308772,0.746769588174878,0.04,0.0400017505656972,356.8314396012,0.706143990581755,0.371299633739453
7557,0.249447141983052,-0.249964021784768,0.24999954735229,-0.137243884467227,-0.25,0.249962453712423,0.080122882652926,0.126340960953295,0.746120644839684,0.746769588174878,0.04,0.0370835065173878,355.970445382741,0.708862388422111,0.36898327781448
7617,0.249972221165259,-0.249543869837342,0.249995468273774,0.230413612316313,0.224580424508995,0.248750943357764,-0.0538841158366382,-0.0538841158366382,0.739054658002678,0.746769588174878,0.04,0.0523774880522762,352.495883261635,0.723668718879586,0.357905955677951
7677,0.249999856911691,-0.249521756576951,0.249995253585431,0.249764006883868,0.249558341588416,0.248687179654887,-0.0431643365897804,-0.0431643365897804,0.74205395395749,0.746769588174878,0.04,0.0474410662130289,354.057788852889,0.761911711618684,0.341447690649765
7737,-0.224911152237155,-0.248928568328581,-0.224920680302861,0.249945929739156,-0.225022082920579,-0.162622212385343,-0.0468015220353215,0.220982140445616,0.771350859158284,0.746769588174878,0.04,0.00152284671171801,368.664686322204,0.683996018827914,0.396034154551048
7797,-0.249906468508147,-0.248897347894456,-0.249916255770666,0.249955504626276,-0.25,-0.184270075124302,-0.0972611273970488,0.245770637067847,0.753621768160248,0.746769588174878,0.04,0.00245067087403319,359.558582059537,0.600405746838755,0.440027171571417
7857,-0.249992209617766,-0.249944867394723,-0.249240707787239,-0.225002220106999,0.225,0.228286496243785,0.224984223248805,0.248743641921491,0.730887284841542,0.746769588174878,0.04,0.0208372360378045,348.67153137372,0.656241250246198,0.390398049799296
7917,-0.249996722307746,-0.25,-0.249205152630217,-0.249999995092961,0.25,0.25,0.249983392893479,0.248900115861156,0.741360637929042,0.746769588174878,0.04,0.0204725283201787,353.708005301255,0.697622495680192,0.372545300117154
7977,0.225000143679603,0.225,0.224997536777567,0.224856110403337,0.249999924742467,0.249620756837217,0.249931284289501,0.249944994690243,0.712027318557566,0.746769588174878,0.04,0.0657781059748583,339.843254273042,0.882379482128292,0.282994457024092
8037,0.249999978731569,0.25,0.249955573062187,0.249848537008406,0.249999920781544,0.249600796670755,0.249928541731397,0.249999988312826,0.739918829950442,0.746769588174878,0.04,0.0695252223239839,353.139950340735,0.9737906781654,0.266462387618984
8097,-0.22495075318049,0.25,-0.224308194845357,-0.225007129398105,0.249999602304202,0.249595468997022,0.249930925049526,0.24999298774506,0.74851174599418,0.721094446034558,0.04,0.0544972104646552,357.073484218228,0.867682650142826,0.302378817284692
8157,-0.24994816012323,0.25,-0.24926944578786,-0.249999532893185,0.249999585542237,0.249595188593141,0.249931050487323,0.249992619294125,0.711673650508261,0.694067980623694,0.04,0.0718174072980073,339.265335973162,0.731908819249971,0.340594150064611
8217,-0.0792382357358614,0.249979378456804,0.225036527710607,0.0279440440502329,0.249999979277112,-0.224980652676602,0.249993103791823,-0.0952043123430007,0.687977736241022,0.667041515212831,0.04,0.0863531309857237,327.860904735583,0.602157746714807,0.400068199217002
8277,-0.0702535028733683,0.249978293112426,0.25,0.0425726533630443,0.25,-0.249958328532904,0.249996369755218,-0.0449708556425177,0.646197560928947,0.640015049801967,0.04,0.0863843556956236,308.034970454849,0.542629744571437,0.417110481964238
8337,0.233669242194031,0.249998914655621,0.25,-0.0159586860944714,0.236028817503193,0.224952630162162,0.24808267929226,0.224744331089882,0.617104823919061,0.638663726531424,0.04,0.0922349154872809,294.289196628273,0.615891316368527,0.351095218403876
8397,0.249665176144947,0.25,0.25,-0.019039282908025,0.235293492108624,0.249947943777692,0.247981958741578,0.249730736768793,0.629714888285559,0.638663726531424,0.04,0.076691184023546,300.513452105689,0.700148027182449,0.315376060760538
8457,0.248779595491133,0.249952371344858,0.249994131304117,0.236548035854599,0.249264674605431,0.249942323860107,0.249899097937079,0.24505604065518,0.632758171234069,0.638663726531424,0.04,0.0829143880953628,301.891890605942,0.73774260134792,0.300677728542086
8517,0.248732985983037,0.249949864573535,0.249993822425387,0.25,0.25,0.249942028074971,0.25,0.244810004017622,0.635232738362833,0.638663726531424,0.04,0.0831853861531969,303.085140069965,0.763594078256103,0.291646499696508
8577,0.168824956210829,0.249996445129952,0.249999691121269,-0.225,-0.225,-0.224979651249527,-0.00164543292884643,-0.00164543292884643,0.665818090205032,0.638663726531424,0.04,0.033592255033944,317.613346168878,0.646263891557447,0.361113336657681
8637,0.164619270433344,0.249998896738185,0.25,-0.25,-0.25,-0.249975529108711,-0.00808036910878744,-0.00808036910878744,0.64513072101605,0.638663726531424,0.04,0.035094723775855,307.692939484027,0.566720972614542,0.39893571833119
8697,0.196776273824902,-0.224999896060544,0.25,-0.2499999998389,-0.249999999811999,-0.248555342689037,0.231623050892778,0.224999939602207,0.630838440940572,0.638663726531424,0.04,0.021944589302487,301.223356448024,0.587207274599906,0.376922352064088
8757,0.198468747687616,-0.249999832523635,0.25,-0.249999999830421,-0.249999999802105,-0.24848059603537,0.246919852914764,0.249999936423376,0.638434475714582,0.638663726531424,0.04,0.0200891698020953,304.609260648502,0.587125157877698,0.381212461420641
8817,0.247423247397211,-0.249999991626182,0.249769068646865,0.225000000008479,-0.249786378100276,0.224540199885353,0.249845992645738,-0.0937666312878643,0.628867704694572,0.638663726531424,0.04,0.0450467188276971,299.928191782104,0.62930179241527,0.350197464018224
8877,0.249999800013505,-0.25,0.249756914365121,0.25,-0.249775134852812,0.249436031249601,0.25,-0.106843689095313,0.634998794795642,0.638663726531424,0.04,0.0445436591229952,302.987710471099,0.666160507694024,0.334195661041607
8937,0.249999990000675,-0.249452803817971,-0.130636103779322,0.249991680463564,0.223459736426332,0.249969951419336,0.249999999822122,0.224852628315025,0.627309021297441,0.638663726531424,0.04,0.0527440653048689,299.256844149373,0.712385127078012,0.308662538906123
8997,0.25,-0.249424004018917,-0.150656788944819,0.249991242593225,0.248366834914708,0.249998052480901,0.24999999981276,0.249844854506679,0.637561617748062,0.638663726531424,0.04,0.0533205156695884,304.2186321995,0.736311234614182,0.303584125663361
9057,-0.224217781690049,0.225027636724157,0.171946917535922,-0.222488494262494,0.249918341745735,0.249999902624045,0.249999999990638,-0.0617844796743924,0.64560528273962,0.638663726531424,0.04,0.0545174965225217,307.947138556262,0.693591293524534,0.32623249407864
9117,-0.249176612305315,0.249998775710635,0.188926059982277,-0.247355848833848,0.25,0.25,0.25,-0.0325612397175278,0.640656799983198,0.638663726531424,0.04,0.0544885639004643,305.635116291877,0.672617755742955,0.333879381399816
9177,0.225032503731482,0.249964875462174,-0.204721489776699,-0.249850152049162,-0.22499927980848,0.249997658968608,-0.0154370786511925,0.235930468286083,0.644208955032268,0.638663726531424,0.04,0.0412833098801622,307.302899957308,0.630886212842926,0.357907087224843
9237,0.249990878259735,0.249963091238571,-0.225439781869277,-0.249981431165757,-0.249999241903663,0.24999753575643,-0.00729439747057592,0.249998533905719,0.641621412904015,0.638663726531424,0.04,0.0405264189238093,306.107190895183,0.610505815788942,0.36841593191942
9297,-0.202987850783024,-0.225001845438071,0.0311776805882786,-0.24999900114719,-0.249812480367934,0.249937056078488,-0.0134700389341893,0.249999926695286,0.651691708245017,0.638663726531424,0.04,0.0118445687610363,310.952849595892,0.566216279501406,0.403521673093337
9357,-0.226828836522117,-0.25,0.0446838628228867,-0.249999925883055,-0.249802650813422,0.249933872937543,-0.0541397714873336,0.25,0.640767397127137,0.638663726531424,0.04,0.00945261790493737,305.71029814037,0.512557554156172,0.438250183157089
9417,0.226158558173894,-0.248610078511416,0.239734162600222,0.224923351511713,-0.047195790448824,0.249996693646877,-0.102445601627095,0.249235314980181,0.615689330107199,0.638663726531424,0.04,0.0454700521285875,293.734855482116,0.615333518990283,0.350751540865265
9477,0.25,-0.248536924748859,0.24999996785166,0.249919313479859,-0.0365322714822662,0.25,-0.121227118167478,0.24919506840019,0.632073035876394,0.638663726531424,0.04,0.0441119818019702,301.631501262503,0.689104038235004,0.321622613728346
9537,0.249970931881417,0.225073153762557,0.249999998392583,0.24985239802412,0.235673380176026,0.24999737725291,0.224946647642579,-0.115218494729626,0.629796214606829,0.638663726531424,0.04,0.0757540249858119,300.314503980089,0.719572666200664,0.306659431236555
9597,0.249969401980439,0.25,0.25,0.249848876158028,0.2499999934212,0.249997239213589,0.249940580879843,-0.0674237936895385,0.63517627427771,0.638663726531424,0.04,0.07550311795694,303.080784803498,0.756946715561491,0.29420345632125
9657,0.249991935202747,0.25,0.24999999911335,0.249991801736673,0.249982031876904,0.249999861960679,0.249997025249737,0.224891486284419,0.630657591373632,0.638663726531424,0.04,0.0827109017752601,300.824207679144,0.7844551405557,0.281772979640673
9717,0.249993121161816,0.25,0.249999999066684,0.249999324135549,0.249981086532468,0.25,0.249999996006047,0.24988577503623,0.637295613631331,0.638663726531424,0.04,0.0821088033764957,304.084306936459,0.806601305832579,0.277006374582293
9777,0.249999501774022,-0.0985618417184776,-0.224440348177829,0.249896059461252,-0.225000048368972,-0.225,0.249999999800302,0.249994166722198,0.659692423946379,0.638663726531424,0.04,0.0372290392276543,314.885362529126,0.728811858481741,0.317461978648109
9837,0.249999837595717,-0.116907201808924,-0.249410892769646,0.249890624478394,-0.249999055469048,-0.25,0.25,0.249999871547775,0.647586435637813,0.638663726531424,0.04,0.0426673880337037,308.896275399386,0.644541266683101,0.352141021534871
9897,-0.225000008120214,0.231389167006397,-0.249879200821934,-0.22500546877608,0.224999943488345,-0.249998013293987,0.249999999545478,0.249999993577389,0.642285492493806,0.638663726531424,0.04,0.0343535102795743,306.433132960239,0.616148617091621,0.365430607274389
9957,-0.25,0.249720554838783,-0.24990384861416,-0.25,0.249999890801892,-0.249997908730513,0.249999999521556,0.25,0.652227537423852,0.652762196479677,0.04,0.0235866972030023,311.28044435873,0.609680069962402,0.375149624067618
10017,-0.25,0.222833359020141,-0.249985044066339,0.224982198061162,0.249999994540095,0.225000104563474,0.245208774624147,-0.0401771384977416,0.654200587499312,0.667602691162049,0.04,0.0371332485749166,312.142318805814,0.659625726369403,0.347704045067586
10077,-0.25,0.221418243450738,-0.249989317511191,0.249981261117013,0.25,0.25,0.244956604892704,-0.0600154424929306,0.674408004721001,0.68244318584442,0.04,0.0311083020339695,321.902925125102,0.721613244808763,0.327774454714032
10137,0.224750259174803,-0.226427094139116,-0.249973192377377,-0.214671928977502,0.249879291442418,0.249992618610088,0.249747830244635,-0.0866850401896297,0.697853056930615,0.697283680526792,0.04,0.0194604585283796,333.105468811011,0.730997967546664,0.334826844276506
10197,0.249737114920845,-0.249997901380687,-0.249972343686124,-0.239127360035109,0.24987293836044,0.249992230115882,0.25,-0.125703990271155,0.708837357191006,0.712124175209163,0.04,0.0215184875809094,338.295693005785,0.745004302192621,0.333650948825684
10257,-0.225013065247655,-0.249999828796153,-0.249992753113915,-0.24936871968683,-0.225006353081978,-0.224973881822384,-0.183834553520976,-0.183834553520976,0.692360734571271,0.726964669891535,0.04,3.01886168364843e-10,330.148694778852,0.776224291648885,0.312519435544116
10317,-0.249999916835471,-0.249999930239072,-0.249993827294325,-0.249907738615868,-0.25,-0.249972098240188,-0.247648941746986,-0.249955890105303,0.711238974354378,0.741805164573906,0.04,3.82708471263923e-08,339.760163489282,1.01581507731691,0.245760724501157
10377,0.22489619056088,-0.249999885056796,0.224884323358356,0.224798532690619,0.224993606836379,0.225001395087991,-0.0942107295427654,0.225000826106479,0.737169832708359,0.756645659256278,0.04,0.0511120044598659,351.396252668973,0.973609008554586,0.26519615217231
10437,0.249890722529109,-0.249999882678781,0.249877910234812,0.249783073285697,0.249993270354084,0.25,-0.0861350341635958,0.249998548012363,0.766124597701439,0.771486153938649,0.04,0.0550918103439259,365.724071132756,1.04783743923401,0.256456853829137
10497,0.249991405164974,0.185775625431829,0.0371395091359458,0.249117810246312,-0.225000336482296,-0.182098164256686,0.232832755296756,0.249996735023662,0.791367223970085,0.786326648621021,0.04,0.0563234213053097,377.719736453426,1.03484197779047,0.268194777675843
10557,0.249996704251073,0.208711178490282,0.025942751183374,0.249082796402134,-0.25,-0.204840172901774,0.249620533689406,0.249996639603205,0.805235578345048,0.801167143303392,0.04,0.0611253126830841,384.285161857349,1.00771087769851,0.280202719102669
10617,-0.225000164787446,-0.0158885915895648,-0.236129266603542,-0.225045860179893,-0.249445376509293,-0.247742008645089,-0.223894200963568,-0.224947136419142,0.860258610929572,0.816007637985764,0.04,0.00601628604154144,410.847428983677,0.82710700514636,0.364983768302617
10677,-0.25,-0.027709632120083,-0.249922530697591,-0.25,-0.249416185799256,-0.25,-0.248816029103198,-0.249944177262423,0.842785076018674,0.830848132668136,0.04,0.00176285795216785,402.128679037418,0.696422974799309,0.424274210115574
10737,0.224816410106803,0.236113018017454,-0.24999612653488,-0.25,-0.249970179561846,-0.249999429779326,0.22505919854484,-0.249990190562269,0.823986524832324,0.845688627350507,0.04,0.0257756703316435,393.142418444975,0.772538580452604,0.373924915320812
10797,0.249806747480846,0.249998420656272,-0.25,-0.25,-0.249999337128298,-0.249999399767711,0.25,-0.249992612314893,0.853442711877202,0.860529122032879,0.04,0.0214838886099706,407.317585308333,0.838981976023332,0.356726362870523
10857,-0.225008808889729,0.249737687021266,-0.249999629388851,0.224832629077698,-0.00834832704363669,0.224965596864981,0.249999581652563,0.224998329018098,0.846050536740448,0.87536961671525,0.04,0.0420618925047374,403.743168835145,0.988475248402603,0.300119396608595
10917,-0.249999101330286,0.249723964198371,-0.249999609883001,0.249823820081788,0.00437014717134559,0.249963754582491,0.249999559634276,0.249997852246151,0.879825369411108,0.890210111397622,0.04,0.042263294936577,419.942911049132,1.0757396561401,0.286838704227618
10977,-0.249999955066514,-0.214595406855005,-0.249989592041947,-0.225006702576968,0.237718443808149,0.249998187729125,0.249999977981658,-0.225000107387693,0.923281867777644,0.905050606079993,0.04,0.0289597935978638,440.731275117215,1.01531689027305,0.318953179136232
11037,-0.25,-0.239033268489394,-0.249989064787155,-0.249997782716903,0.249999933104823,0.25,0.249999999999942,-0.25,0.89893828810983,0.887976801163513,0.04,0.039570160925679,428.711157911072,0.931491732289398,0.338174190112796
11097,0.225,0.219160585895912,-0.24999766973651,-0.249970355109162,-0.224982890608142,-0.224967906859482,0.249999999999997,0.224981020966975,0.868893931203934,0.869223296268145,0.04,0.0564183760975781,414.425051004575,0.919256154527913,0.331256287046315
11157,0.25,0.243276051916192,-0.249998122628581,-0.24996891155086,-0.249981986593035,-0.249966217746823,0.25,0.249980022070499,0.858935191455446,0.850469791372777,0.04,0.0618298899856074,409.676927668797,0.882824813138926,0.340974303554275
11217,0.25,-0.22533619740419,0.22499116479725,-0.249998445577543,-0.249998523365277,-0.249989255639048,0.249999978700257,-0.00891092003232069,0.845583518823777,0.83171628647741,0.04,0.0608081834829194,403.282436201357,0.805267178623329,0.367979805859083
11277,0.25,-0.25,0.249990600977557,-0.25,-0.24999939372171,-0.249990468159691,0.249999977579218,-0.0225367590903639,0.821568754546986,0.812962781582042,0.04,0.0608979493916189,391.799898431681,0.743505144583751,0.387199704722679
11337,-0.224813667673313,-0.249999974472274,-0.225000469951122,-0.25,0.225000030313914,-0.249984582121411,0.249999998878961,-0.238626837954518,0.814423803324442,0.794209276686674,0.04,0.0358673058069737,388.470204520862,0.652453680138066,0.437484535027213
11397,-0.24980386070875,-0.249999973128709,-0.25,-0.25,0.25,-0.249984272329923,0.25,-0.25,0.784882699503187,0.775455771791307,0.04,0.0303353328820251,374.284239392844,0.570638367088301,0.48194252419769
11457,-0.249978393978482,-0.249999998656435,-0.249996542439776,-0.249999851532202,-0.224954243817853,-0.249999213616496,-0.225,-0.249996649936736,0.770975778057867,0.756702266895939,0.04,1.12148148178987e-05,367.448738782445,0.453590739386367,0.595233352685713
11517,-0.249987579940047,-0.25,-0.249996360462922,-0.249999843718108,-0.24995183559774,-0.25,-0.25,-0.249996473617617,0.718979542307336,0.737948762000571,0.04,3.79250139143353e-07,342.922280722826,0.563797246055246,0.446917570890486
11577,0.225000613365869,0.225,0.224999259870866,0.224999923884167,0.225002323102385,0.224999994162699,0.224999998324137,0.0449341842617921,0.666329869038361,0.719195257105204,0.04,0.0825576741203848,317.869376531024,0.746799215649774,0.31275158059702
11637,0.249999991960917,0.25,0.249999029362118,0.249999911652708,0.249999910402391,0.249999993855473,0.249999998235933,0.0604568504659715,0.693190160404312,0.700441752209836,0.04,0.0821167347833755,330.768516913233,0.873553013243224,0.278220787892282
11697,-0.224997838341911,0.249999991622184,0.24999994565315,0.249999995582635,0.24999999552012,0.249999986108133,0.249999931162749,-0.234477157476701,0.696945371967405,0.681688247314468,0.04,0.0805379148476877,332.445088608976,0.81673982176893,0.299082406577885
11757,-0.249997724147323,0.249999991181246,0.249999993878994,0.25,0.25,0.249999985700378,0.249999927632581,-0.25,0.673796850678616,0.662934742419101,0.04,0.0920569561913956,321.285996885012,0.736536166831933,0.320517979559975
11817,-0.249999531907843,0.194936075057239,-0.22500000030605,-0.224982388936529,-0.110638930908739,-0.224999974838947,0.249994370113807,0.225,0.662775737379046,0.644181237523733,0.04,0.0486834782843996,316.219654142834,0.646921833789921,0.359163112648785
11877,-0.249999627053134,0.192037974208607,-0.25,-0.249981462038451,-0.129619927272357,-0.249999972762069,0.249994077612819,0.25,0.668202251574491,0.664949890204024,0.04,0.0335147127524061,318.900487144024,0.594805936666376,0.393944067251261
11937,-0.249999981352657,-0.227897536756707,0.224999909740206,0.225000926898078,-0.243980934061617,0.225000001361897,0.249999703880641,0.249990067006103,0.668203752855792,0.687798656440928,0.04,0.0408236917840574,318.93487444991,0.683901220266253,0.342659919183552
11997,-0.25,-0.249999405754882,0.24999990498969,0.25,-0.249999934418947,0.25,0.25,0.249989544216951,0.701693102094513,0.710647422677833,0.04,0.0318183640696324,334.974030312887,0.75240640767284,0.327124694018384
12057,-0.249999826496921,0.224995182725342,0.249995951646481,0.249997391136395,-0.249994368182976,0.249993920124106,0.249999891175656,0.249999067810629,0.717337134790675,0.733496188914737,0.04,0.0419594536785185,342.42245769432,0.839510222530246,0.29970288771455
12117,-0.24999981736518,0.249994897908511,0.249995743575786,0.249997253827784,-0.249994075223189,0.249993600130638,0.249999885448059,0.249999569052402,0.747842885064783,0.756344955151641,0.04,0.042043837869335,357.014860663258,0.907246946552171,0.289144845703496
