time,bias_percent_1,bias_percent_2,bias_percent_3,bias_percent_4,bias_percent_5,bias_percent_6,bias_percent_8,bias_percent_9,normalized_power,power_SP,SP,CV,total_power_MW,fuel_fraction,thermal_efficiency
4,0,0,0,0,0,0,0,0,0.999889129778748,1,0.04,0.04165800202302,476.578286052451,0.997099193471132,0.351196809930656
64,0,0,0,0,0,0,0,0,0.999885099551816,1,0.04,0.0398977780414155,477.047113668479,1.00011508264051,0.350482204567304
124,0,0,0,0,0,0,0,0,0.999986970279098,1,0.04,0.0399183592649401,477.094009972214,1.00030032343243,0.350451748368652
184,0,0,0,0,0,0,0,0,0.999999388858597,1,0.04,0.0399568878531932,477.099742593204,1.00031803976633,0.35044975247278
244,0,0,0,0,0,0,0,0,1.00000195394094,1,0.04,0.039981910017131,477.100945085015,1.00031031435857,0.350453342287586
304,0,0,0,0,0,0,0,0,1.00000320191837,1,0.04,0.0399965574379516,477.101534954965,1.00029331684909,0.35045973066977
364,0,0,0,0,0,0,0,0,1.00000384314814,1,0.04,0.0400046650605732,477.101836488668,1.00027129624668,0.350467667410533
424,0,0,0,0,0,0,0,0,1.00000398573169,1,0.04,0.0400086469161908,477.10190106224,1.00024745575014,0.350476068102027
484,0,0,0,0,0,0,0,0,1.00000376474444,1,0.04,0.0400100303658486,477.101793324636,1.00022426948568,0.350484113365569
544,0,0,0,0,0,0,0,0,1.00000332278574,1,0.04,0.0400098359090222,477.101581200649,1.00020334897936,0.350491288348141
604,0,0,0,0,0,0,0,0,1.00000277758036,1,0.04,0.0400087622223836,477.101320731163,1.00018553845331,0.350497338273268
664,0,0,0,0,0,0,0,0,1.00000221469947,1,0.04,0.0400072826572,477.101052145332,1.00017110355001,0.350502199486389
724,0.0105176100083937,-0.0166383548886381,-0.0166666150093,0.0166663418713852,-0.0166666666666667,0.0166666666666666,0.00878928666060506,0.00317890685054817,0.999707419241192,0.998877896154381,0.04,0.0402795655719627,476.936251788593,0.999117382617825,0.350750659018346
784,0.157764150125906,-0.249575323329572,-0.2499992251395,0.249995128070777,-0.25,0.25,0.131839299909075,0.0476836027582229,0.985638780107491,0.982046338470092,0.04,0.0432967182637113,470.224071270751,0.980059922961227,0.352538785020518
844,0.163912884124261,-0.249603388508327,-0.216672848696952,0.249994326607807,-0.219315302459189,0.24999996683268,0.106383357940352,0.0410654652985275,0.970744464782239,0.965214780785802,0.04,0.0468796240339435,463.155003094101,0.948631500232405,0.358743048474861
904,0.249995160101219,-0.249996301010893,0.249896421498712,0.249983106126217,0.21027046311217,0.249999502490205,-0.249999829621774,-0.051588459137209,0.949228428528711,0.948383223101513,0.04,0.0647237308802522,452.628035436109,0.937502209859655,0.354751161847619
964,0.249992444514198,-0.216682101901068,0.249903324643081,0.249983981393597,0.212918458957785,0.249999535657525,-0.249999840980323,-0.0314869532557674,0.934173728563108,0.931551665417224,0.04,0.0635642331497682,445.492213272551,0.924636554071222,0.35401668831995
1024,0.2499544262959,0.249716685636482,0.249999968664258,0.249996235136909,0.249990400796388,0.25,-0.25,0.249934129084415,0.907790350838441,0.914720107732935,0.04,0.0779593934666059,433.051322483938,0.956032826793663,0.332829061836067
1084,0.249957080028732,0.216403540090617,0.249999823080133,0.249996486127782,0.249984472468527,0.249999638828351,-0.228043555508446,0.249925239017032,0.899584181017099,0.897888550048646,0.04,0.0750069202729262,429.058210019858,0.954818765282597,0.330179379604727
1144,0.249994232288381,-0.249980497551493,0.249997784902379,0.25,0.249901475878473,0.249994582425269,0.0645499821782929,0.249800778073664,0.88363532127927,0.881056992364357,0.04,0.0658563947105071,421.583734047658,0.943228528702904,0.328413948679518
1204,0.249989327929923,-0.249972680798844,0.216670378235505,0.216666666666667,0.249869170849473,0.249927836026789,0.0769133059500505,0.249812387310299,0.870507139937134,0.864225434680068,0.04,0.0668798987131815,415.141919453809,0.906563556318172,0.336475160348103
1264,0.249920666911508,-0.249863246261761,-0.249913315100727,-0.25,0.249416900443468,0.248993386448056,0.249999838754657,0.249974916623192,0.862578081526652,0.847393876995779,0.04,0.0470361418547159,411.576939632485,0.833958620247801,0.362627893936965
1324,0.216592622450741,-0.244281527778084,-0.216585760760679,-0.216666666666667,0.216123443853338,0.249058459071185,0.249999849504346,0.249972694054756,0.838137956589023,0.83056231931149,0.04,0.0501398702227088,399.819298637228,0.776210578173332,0.378476459385601
1384,-0.25,-0.1661374690066,0.25,0.25,-0.249984948408497,0.24996947579499,0.25,0.249941578096645,0.818762185440964,0.813730761627201,0.04,0.0528722407707787,390.505494162012,0.744293534958764,0.385511713323801
1444,-0.216666666666667,-0.171585327142808,0.24999996104786,0.249999525761127,-0.249985951321669,0.249971510741991,0.216666666858929,0.249945123434655,0.800357979722893,0.796899203942911,0.04,0.0485225269299773,381.828050211298,0.716597969922022,0.391513671960298
1504,0.25,-0.247855341049719,0.249999415717904,0.24999288641691,-0.249999992106087,0.25,-0.00176110304278027,0.249994758166802,0.778809479714261,0.781189750104242,0.04,0.0558680855707947,371.378818247443,0.699660845520331,0.390017627061937
1564,0.216677625857095,-0.247998308009451,0.216670474701495,0.216660027322449,-0.216666769211571,0.249999785339326,-0.000837296444227575,0.216665934495558,0.777011976886466,0.781189750104242,0.04,0.0444933956671851,370.748966586398,0.726293778239252,0.37507861322909
1624,-0.249835612143578,-0.249999845445703,-0.249934699528234,-0.25,0.249998351311639,0.249996780089881,0.0381831178011967,-0.0168230990835178,0.795812837698967,0.781189750104242,0.04,0.00673596444192209,379.696270281552,0.647208457095486,0.431069031573163
1684,-0.249846569277579,-0.24999388955401,-0.217151169031886,-0.216666845721463,0.249998461224197,0.245170494319377,0.018970960815897,-0.068048534408491,0.782826522862577,0.781189750104242,0.04,0.00366640011927502,373.514608237365,0.612964056898774,0.447741406401419
1744,-0.249999969153599,-0.249910507070315,0.24181825791699,0.24999731417805,0.25,0.177602493532326,-0.12965401519044,0.25,0.754025212996829,0.781189750104242,0.04,0.03205616171788,359.719033299179,0.724628865634725,0.364756016153902
1804,-0.249999971210026,-0.216583691523452,0.209066485028125,0.249990271549777,0.216667988263064,0.149095668636399,-0.175505573098959,0.25,0.774945689761525,0.781189750104242,0.04,0.027301354957518,369.750085639576,0.785101700125978,0.346048556298404
1864,-0.25,0.249991726132625,-0.249458335415988,0.249891674753953,-0.249980176054046,-0.249999879906587,-0.222498821475073,0.25,0.797984455653575,0.781189750104242,0.04,0.0120428103846008,380.748200881222,0.726749284134153,0.384953190574289
1924,-0.216667001324755,0.249989838961086,-0.216161113054922,0.249897935812843,-0.249978738084288,-0.216666554579481,-0.216523059372534,0.25,0.781465626375425,0.781189750104242,0.04,0.0197648193007828,372.833342844826,0.716091289254694,0.382561296150289
1984,0.249994980128675,0.249963418559539,0.25,0.249985590637301,-0.249958606507668,0.25,0.249993457467895,0.25,0.751716112807782,0.781189750104242,0.04,0.0692696699280334,358.681712567884,0.876124513390825,0.300814023937871
2044,0.21666198145343,0.249965857322236,0.25,0.216653217928148,-0.249961290298304,0.216668030778547,0.249993528967577,0.249999985884483,0.77620843019007,0.781189750104242,0.04,0.0650702337304528,370.42009115801,0.93960914043391,0.289668971718062
2104,-0.25,0.25,0.25,-0.25,-0.249998863367202,-0.249979538321797,0.249994529963122,0.249999788267242,0.802447033968203,0.781189750104242,0.04,0.0377321712654022,383.096529418883,0.857988483944218,0.328081268286281
2164,-0.249999367115837,0.25,0.249999106946289,-0.25,-0.249998769746835,-0.249980902433677,0.249994894632247,0.248581213794666,0.787721366234122,0.781189750104242,0.04,0.0456528077998719,375.787312427593,0.800085496062821,0.345112263203966
2224,-0.249990506737555,0.25,0.249986604194335,-0.25,-0.249997459061696,-0.25,0.25,0.228721171178599,0.785382661779987,0.781189750104242,0.04,0.0436074052082608,374.690113440562,0.771240224056955,0.356974536290519
2284,-0.249991139621718,0.226541441076451,0.249986766936652,-0.25,-0.244316739582366,-0.249999318289863,0.25,0.230139759766692,0.783784882739578,0.781189750104242,0.04,0.0409134843948314,373.911579817976,0.753048571635361,0.364838450341412
2344,-0.25,-0.101878383853235,0.249989045329098,-0.25,-0.164786666871746,-0.249989774347945,0.25,0.25,0.788211559693067,0.781189750104242,0.04,0.0308654801945091,376.111750299196,0.718643141557286,0.384554849724835
2404,-0.25,-0.0784198249296863,0.216670343020477,-0.249998508580047,-0.137134222413629,-0.249977541187166,0.216680646612477,0.249905354949508,0.782765046044021,0.781189750104242,0.04,0.0284925185514436,373.501064880842,0.701800942197885,0.391050255252035
2464,-0.25,0.25,-0.249791489300208,-0.249977628700696,0.25,-0.249806276936252,-0.24770444436095,0.248580324242619,0.784335058750346,0.781189750104242,0.04,0.0189673593649779,374.145482467349,0.684760565344338,0.401473089661415
2524,-0.22659953958021,0.216698178348627,-0.226032896386912,-0.24997129327763,0.249999900845903,-0.249810201901708,-0.216470947425328,0.223817204767184,0.780579489980216,0.781189750104242,0.04,0.0187199778459312,372.443620471876,0.685880307535818,0.398994475150944
2584,0.101006906296853,-0.24952732477059,0.10658740439923,-0.249882597354695,0.249998512688543,-0.249865151418089,0.25,-0.122866467888898,0.772548685389086,0.781189750104242,0.04,0.0277454752118196,368.54414758144,0.729750171719692,0.371082086187435
2644,0.0776091354467203,-0.219901408091949,0.114687474560173,-0.249890424197715,0.216665278509307,-0.249855782027882,0.216667685516626,-0.107902827874096,0.777356427270187,0.781189750104242,0.04,0.0281600363264587,370.915918982804,0.758419132446063,0.359352663998693
2704,-0.249959656455137,0.194861425409025,0.228088456813379,-0.25,-0.25,-0.249724610564982,-0.249984717250603,0.101588132333146,0.789589832086935,0.781189750104242,0.04,0.0198618722011613,376.718345184906,0.728120874624349,0.380161352358088
2764,-0.24996177657781,0.165203997048423,0.229518964453242,-0.216680191069129,-0.249992191704284,-0.249734132802437,-0.249209611661195,0.11148225684427,0.780830536292874,0.781189750104242,0.04,0.02439455596516,372.487234842241,0.722616711657666,0.378754733564427
2824,-0.249991458295231,-0.25,0.249546071411328,0.249797133963063,-0.249882875564265,-0.249867444126809,-0.238358133409474,0.25,0.776071955034475,0.781189750104242,0.04,0.029848213761538,370.310749815616,0.750967706972861,0.362326195465773
2884,-0.249990715066965,-0.238469903954492,0.249564988588201,0.249806108314565,-0.249737566123627,-0.249876281185022,-0.205808647201392,0.249725563661781,0.778974937826727,0.781189750104242,0.04,0.032414130296687,371.610632343431,0.763172615933782,0.357783269917036
2944,-0.249980309871241,-0.0770485593173783,0.249829829064417,0.249931749235596,-0.247703233954697,-0.25,0.249884159711751,0.24588345492671,0.768622233158335,0.781189750104242,0.04,0.0477413666642506,366.743952127862,0.830935261549269,0.324302613024376
3004,-0.224734334151477,-0.055251231496389,0.249841173793456,0.249936108273165,-0.214523018357717,-0.249999944493482,0.216558549064301,0.246154450333734,0.778671176980318,0.781189750104242,0.04,0.0480637832861545,371.733216802313,0.857590926360302,0.318497383429836
3064,0.128709325925221,0.249911357997461,0.25,0.249997134799124,0.25,-0.249999167402236,-0.25,0.249948386032076,0.778359106264431,0.781189750104242,0.04,0.0722930926364699,371.284375612589,0.89321825127862,0.305424422521296
3124,0.123354808971594,0.249916843432524,0.25,0.243892998667936,0.216683061131918,-0.24998736252049,-0.249991758150434,0.249947513958236,0.78175972761765,0.781189750104242,0.04,0.0718936602365415,373.011521114539,0.897063286328516,0.305529985438353
3184,0.0483915716208157,0.249993639523407,0.25,0.158435092831303,-0.249754083021232,-0.249822094176057,-0.249876372256506,0.249935304924466,0.790837447486833,0.781189750104242,0.04,0.0572694061345258,377.348628571617,0.854058268418498,0.32464592104625
3244,0.0618282540295099,0.249993097550213,0.24999794754636,0.131206137847007,-0.249770477486483,-0.249833736849133,-0.249884614106072,0.249939590892767,0.786265773694911,0.781189750104242,0.04,0.0578183930171614,375.123306885504,0.816114632027475,0.33773615920046
3304,0.24994180775123,0.249985509925497,0.249969213195394,-0.249999231933138,-0.25,-0.249996734272197,-0.25,0.249999594448981,0.78761554964341,0.781189750104242,0.04,0.0490147961134817,375.766536280006,0.779444137722623,0.35423199320617
3364,0.249945641530547,0.249939829859181,0.216692384613147,-0.249999283137595,-0.216666666666667,-0.249996951987384,-0.216677609298417,0.249958390532207,0.784582830045909,0.781189750104242,0.04,0.0479983768478453,374.223311831345,0.754147563027221,0.364610509187887
3424,0.249999314440988,0.249300308930753,-0.249183215538303,-0.25,0.25,-0.25,0.249835860523745,0.249381535697371,0.77256403695333,0.781189750104242,0.04,0.0516175419927556,368.694298198009,0.798305823392232,0.339353083963422
3484,0.249924735976498,0.249346955002036,-0.249197929036306,-0.249999992586607,0.249999757173942,-0.227885934390395,0.249842147100674,0.249422757109644,0.782585071553622,0.781189750104242,0.04,0.0509502923421616,373.377904208314,0.799430470581623,0.343180491902345
3544,0.24888063747364,0.25,-0.249403918008356,-0.249999888799103,0.24999635760913,0.0817109841440815,0.249930159177682,0.24999985688147,0.77936819140019,0.781189750104242,0.04,0.0597239633569586,371.840599306853,0.805638344216372,0.3391340172616
3604,0.215632049527001,0.249999984411527,-0.216112595723314,-0.21669339131006,0.216663267101855,0.0929300406552169,0.21660704147165,0.241482727734593,0.782591376113702,0.781189750104242,0.04,0.0577015403687837,373.478151335939,0.801308159111078,0.342468247890119
3664,-0.249848181725934,0.249999766172905,0.249965916267262,0.249597573536539,-0.25,0.249996831811112,-0.0974358841781735,0.122242919678314,0.786792622601847,0.781189750104242,0.04,0.0543694345816313,375.276030929406,0.751429022193211,0.366958995503745
3724,-0.233784609276987,0.249999781761378,0.249967698594748,0.244467390020764,-0.216703402739458,0.249993286482589,-0.0422637074594669,0.12894956112927,0.780297780322845,0.781189750104242,0.04,0.0492678281698691,372.220781114928,0.747356082746023,0.365955028308955
3784,-0.00889459499172119,0.25,0.249992651179565,0.172644820799909,0.249448958908126,0.249943651883267,0.25,0.222842541442657,0.763278571360642,0.781189750104242,0.04,0.0660859457467979,364.18715754539,0.833885474119596,0.320902347890196
3844,0.00836504191713266,0.249999563253248,0.249993137265955,0.144491800594273,0.249485694980917,0.249947408424383,0.25,0.191319783973348,0.776628602838079,0.780276229223655,0.04,0.0600056193053018,370.725499979007,0.878824805666276,0.309959412494994
3904,0.249999958641087,0.249993448798712,0.249999942475415,-0.249650482284633,0.25,0.25,0.25,-0.00672749479138167,0.775495666120203,0.766573416014862,0.04,0.0631151623081416,369.851616574796,0.824059660917755,0.329779414294653
3964,0.249999255264047,0.249989674853811,0.249905862181994,-0.249673783465658,0.216666693702423,0.249999821728866,0.249994528588652,-0.00317756490004137,0.75814969835257,0.752870602806069,0.04,0.0681595360130269,361.605130413581,0.786146899253426,0.337975760575237
4024,0.249989407985489,0.249936839625193,0.248588738074102,-0.25,-0.249999594463653,0.249997325932985,0.249917928829779,-0.00150070443868079,0.749785561142803,0.739167789597276,0.04,0.0580722888666756,357.628060601206,0.729756426783082,0.360087740281829
4084,0.249990114119789,0.249941037304797,0.248682822202495,-0.216880356277535,-0.249999443391003,0.249867708791845,0.249892423786883,-0.000708615401225404,0.730463431952048,0.725464976388483,0.04,0.0605289440889766,348.375099662546,0.690725464066696,0.370592235044323
4144,0.25,0.249999804819258,0.25,0.246794655836968,-0.249997328373894,0.248053068815885,0.249535353186342,0.232005096016605,0.7016386668461,0.71176216317969,0.04,0.0783839993737394,334.626352888005,0.712733676709018,0.34497493111813
4204,0.249999648831159,0.249999199691884,0.25,0.246703185417422,-0.216671123046735,0.248182863492851,0.249566329640586,0.233204756282164,0.697701484829913,0.698059349970897,0.04,0.0750793096605014,332.847813059017,0.72738724541307,0.336228638940796
4264,0.249994732467383,0.249990727908645,0.25,0.245422599543774,0.249895751533489,0.249999988970374,0.25,0.25,0.679744779692309,0.684356536762103,0.04,0.0888930088178681,324.191514678355,0.746805737891583,0.318969144604427
4324,0.216661750302891,0.216658012812949,0.216667464535328,0.212394426240856,0.216607690401303,0.242636503830721,0.249999711442491,0.249990063028905,0.670646614254104,0.67065372355331,0.04,0.0878914635910048,319.846909104935,0.752884280456439,0.312153784719105
4384,-0.25,-0.249999998526805,-0.249988031970081,-0.25,-0.249425165449291,0.13954771187558,0.24999567163736,0.249850945433572,0.700905608024736,0.657864431225103,0.04,0.0113900646586824,334.502809752353,0.60719212738119,0.404788638510701
4444,-0.216666666666667,-0.249999994276476,-0.216655496505409,-0.216667055741762,-0.249463487752672,0.146771168015931,0.249995959891564,0.234681991092779,0.666989678423004,0.657864431225103,0.04,0.0151389933125567,318.191110107653,0.514814956936296,0.454141889018029
4504,0.25,-0.249999934771866,0.25,0.249994163873574,-0.25,0.247899553980842,0.249999995450418,0.0223166303216805,0.637134859108535,0.657864431225103,0.04,0.0531052494245554,303.898852015589,0.619642547864668,0.360364917639038
4564,0.216668785880399,-0.249999939120409,0.216683472231525,0.216661262575282,-0.25,0.214760671402518,0.216688254336006,0.00416304188014053,0.652352903664696,0.657864431225103,0.04,0.0399646184539709,311.311836446187,0.676418428148747,0.338169845270484
4624,-0.249968211794013,-0.25,-0.249747916527118,-0.249999355600805,-0.25,-0.249183684694016,-0.101612233315189,-0.101612233315189,0.628665182200689,0.657864431225103,0.04,2.15165977928743e-10,299.191233490798,0.677154635843172,0.324650207295164
4684,-0.249970331007745,-0.25,-0.249764717548739,-0.249999396451844,-0.249999990303657,-0.248880887042056,-0.171609792968154,-0.171609792968154,0.636480250415899,0.657864431225103,0.04,1.72747911384152e-10,303.850315908852,0.852603054452657,0.261858987506632
4744,-0.25,-0.25,-0.24999993185144,-0.249999968366379,-0.249999854554862,-0.244641719914623,0.249999536134464,-0.249971333043033,0.689857371027239,0.657864431225103,0.04,2.41585023877277e-07,329.481038606445,0.776489459379182,0.311780922650094
4804,-0.249983941221107,-0.249998585299022,-0.249999759231684,-0.216666637141954,-0.249999638468252,-0.211689388744494,0.249987614331157,-0.217981131187208,0.673172573809626,0.657864431225103,0.04,0.0090952010127162,321.210152031863,0.591174949500419,0.399234364250684
4864,-0.249759118316609,-0.249978779485328,-0.249997342555099,0.25,-0.249996613255701,0.249643247637306,0.249820709084858,0.229881694794345,0.634738412117531,0.657864431225103,0.04,0.0402505735488262,302.785215155932,0.693953577593154,0.320596607341667
4924,-0.223958417653009,-0.249974139897079,-0.234190191393974,0.249999992970401,-0.249996139785219,0.249667030755565,0.249832480998876,0.19789011693593,0.65504234044314,0.657864431225103,0.04,0.0358462480342159,312.713401862076,0.725695833086693,0.31662597559526
4984,0.137251391637389,-0.249909185661594,-0.0128900751382201,0.249999894556016,-0.249989511198461,0.249999994411192,0.249997287795124,-0.249991973081877,0.653696150309524,0.657864431225103,0.04,0.0476217559651318,311.844164257509,0.752298098644503,0.304580666945907
5044,0.111434635789696,-0.249915239492182,-0.0286969169943214,0.229704117860716,-0.249983284870077,0.216715513045207,0.249994109921104,-0.24997983915854,0.659022751611577,0.657864431225103,0.04,0.0506889872569116,314.400489872426,0.756380685245018,0.305419991025529
5104,-0.249999946078005,-0.249999993120415,-0.249992702979739,-0.0544367558734825,-0.249896116272694,-0.249267226078577,0.249949619684832,-0.249809964231827,0.688582913671358,0.657864431225103,0.04,0.0194858805413588,328.713194367636,0.623618393828263,0.387304815440127
5164,-0.249999876022081,-0.249999563782462,-0.216667469662789,-0.0674740329947502,-0.2165894594144,-0.228088868495085,0.249947207044189,-0.249822197460841,0.664687962507896,0.657864431225103,0.04,0.0221822733852085,317.106367743685,0.5553425180553,0.419564480176607
5224,-0.249998895239143,-0.249993553051122,0.249885796774507,-0.249995912692499,0.249703736601721,0.0684081376738147,0.24991343007519,-0.249993462667037,0.636509312684895,0.65629917082144,0.04,0.0460097575297414,303.581434546157,0.654265050274181,0.340938592163228
5284,-0.216677713937457,-0.244710681929772,0.249888293167632,-0.21666288868981,0.249680173328073,0.055599316586911,0.249911136901787,-0.216698615565891,0.635469902577249,0.632820264766498,0.04,0.0493588434609252,303.061354813712,0.656520496593019,0.33918524165512
5344,0.249818824286145,-0.170750486230863,0.249923242671392,0.249999447347844,0.249350287497,-0.123724178629742,0.249879032474156,0.249429243850161,0.598816008476682,0.609341358711555,0.04,0.0934074808694211,285.603956114807,0.716138575346883,0.293036573339282
5404,0.249830331676908,-0.142714808159613,0.245724754973508,0.249999160527388,0.249393218606388,-0.0988177015200292,0.249859544928307,0.216153019428786,0.594543824879752,0.585862452656612,0.04,0.099823345658195,283.603903474319,0.690560038876381,0.301762616881716
5464,0.249991435147592,0.249784684837885,0.186945927203133,0.249995145040999,0.249994254137824,0.249872978015954,0.249586719286418,-0.249714122470467,0.578287569430776,0.56238354660167,0.04,0.115491459810648,275.646199285902,0.598070708476292,0.338652395737653
5524,0.249991796717962,0.249799039182026,0.15781688027245,0.216662135371599,0.216661303873573,0.249881446148224,0.24961427133399,-0.142399943831145,0.545426613742249,0.54130117240702,0.04,0.115955041992256,259.998677298399,0.544318397685297,0.350972267371017
5584,0.249996858703153,0.25,-0.249989776757109,-0.25,-0.249999999825935,0.25,0.25,-0.0673885461528208,0.559086877265571,0.553770244256476,0.04,0.0485412720561896,267.048401585569,0.536442428367221,0.365781333895678
5644,0.249996324304648,0.232711706201479,-0.246071501389162,-0.249994828170089,-0.249999996851382,0.235067951605423,0.25,-0.0318785165314783,0.564495107486007,0.566239316105931,0.04,0.0396322817322839,269.395193580169,0.534311891120384,0.370467129019969
5704,0.24998884272557,-0.0093244069778101,-0.191215646237911,-0.249922422551335,-0.249999955207628,0.0260192740813391,0.25,-0.0292191371391505,0.584297983259293,0.578708387955386,0.04,0.0102012819447998,278.913402828415,0.520985641097701,0.393367346904679
5764,0.216656253210532,0.0079546051935464,-0.161826278578308,-0.249911752068781,-0.24999082762831,0.0409508608289318,0.2499999949957,-0.0668579440948087,0.589995073953731,0.591177459804842,0.04,0.00873679932804332,281.497481302692,0.52206583155652,0.396190373905613
5824,-0.25,0.249860775592537,0.249624868656134,-0.249762365313031,-0.249863041517849,0.249993075295232,0.249999924935494,-0.119807057036544,0.588841131321285,0.603646531654297,0.04,0.0230365088587225,280.990061675435,0.59718249866657,0.3457311926428
5884,-0.216666666666667,0.249102276851641,0.237651235705772,-0.216445488033865,-0.249872172083325,0.249993536942216,0.249999929939794,-0.172950495717403,0.609907774373835,0.616115603503753,0.04,0.0197111239001855,291.130937928738,0.635303846322909,0.336714292392139
5944,0.25,0.238483294479095,0.0700203744006993,0.24999079387446,-0.25,0.25,0.25,0.0584713519842222,0.607077170703913,0.628584675353208,0.04,0.0557291058235559,289.736714089298,0.743461845840903,0.286351538708926
6004,0.25,0.239251041426094,0.04868597293221,0.249988251152607,-0.216666835243471,0.22098741698204,0.249999247530309,0.0379087865836261,0.635439524809063,0.641053747202663,0.04,0.0546262909268358,303.385309991286,0.802224290828863,0.277877521498138
6064,0.25,0.249999498684081,-0.249995647626641,0.249952653046671,0.249997471347935,-0.185188745269404,0.24998871295464,-0.193575596947983,0.66017700288354,0.653522819052119,0.04,0.0502995957355949,315.037800973187,0.773557425060232,0.299243540547944
6124,0.216666666666667,0.246381431729435,-0.216733883211431,0.216730982693697,0.239589622606603,-0.189508546254487,0.249989465424331,-0.142926350914493,0.666654864180533,0.665991890901574,0.04,0.0551311963449456,318.0547756452,0.761115358356647,0.307047886035842
6184,-0.25,0.195728494364391,0.248930818601502,-0.248372402247941,0.0938797402279449,-0.249985760045644,0.25,0.25,0.676530174837823,0.67846096275103,0.04,0.0368560719144583,323.047909407725,0.777703536826446,0.305216169154933
6244,-0.216918725914794,0.199346571191913,0.230598262051047,-0.21539668111866,0.0709547493200304,-0.249986709375934,0.25,0.216976210580063,0.69211564911288,0.690930034600485,0.04,0.0362494698520264,330.440347082828,0.76772989640437,0.316256378175393
6304,0.246219111278091,0.249999646777225,-0.0260575296553242,0.246263414691278,-0.249995123390774,-0.25,0.25,-0.131879539917134,0.706708431495567,0.70339910644994,0.04,0.0471174895114008,337.134410621918,0.730253769794805,0.339221953640649
6364,0.213137837192885,0.216666336992076,-0.0409748634840408,0.213179187045193,-0.249995448498056,-0.216929520840454,0.249711164194769,-0.123976840921866,0.714042709813997,0.715868178299396,0.04,0.0425046727524438,340.695242718018,0.737232372661896,0.339559861945964
6424,-0.25,-0.25,-0.249817537086073,-0.25,-0.25,0.246057187393196,0.245667462921529,-0.136463975604679,0.752567617420357,0.728337250148851,0.04,0.000838225011675005,359.413801879087,0.658577030613036,0.400998591461798
6484,-0.249999273041973,-0.249992609091759,-0.249829701280335,-0.249999950607564,-0.249818762209035,0.213034901977981,0.245913173391293,-0.191698440272791,0.744065770197873,0.740806321998307,0.04,0.000419777601260693,354.974503425722,0.605825218398838,0.430531060631005
6544,-0.249989095629601,-0.249889136376378,-0.25,-0.249999259113456,-0.247281433135524,-0.24927709383503,0.249353119967999,0.249950030493136,0.757485839240584,0.753275393847762,0.04,0.00056178836716572,361.479424783058,0.593620543651369,0.447434364629284
6604,-0.216797024996233,-0.249584502982789,-0.25,-0.216714200188685,-0.247328536654228,-0.215992205508335,0.249388795910348,0.21662002846026,0.762914564233525,0.765744465697217,0.04,0.000326136059539347,364.152781988609,0.607736186215244,0.440274175321655
6664,0.24789196387092,-0.245319635472545,-0.25,0.249276624758114,-0.247987985916086,0.249996231065386,0.249888259103228,-0.25,0.736441871145339,0.778213537546673,0.04,0.0131424238944409,351.28256236419,0.819055769317973,0.31513583763847
6724,0.248032167797859,-0.212298721226673,-0.216666998703059,0.249324823321551,-0.214788786855013,0.249995612936258,0.249895708496346,-0.216667617798559,0.774346893594496,0.790682609396128,0.04,0.0189079128383775,369.644857329609,0.939175835631534,0.289196101928721
6784,0.249995022775003,0.249994078215526,0.249995019454118,0.249999603209662,0.25,0.249986959128463,0.25,0.249985733021619,0.766303219580956,0.803151681245584,0.04,0.061324226210441,365.978406893947,1.17132449821832,0.229579397587495
6844,0.216662044086015,0.216661178068229,0.249994518574886,0.216666346425062,0.216667320746414,0.249987828519899,0.249983109175454,0.249976896304117,0.811034781283054,0.815620753095039,0.04,0.066960698496784,387.208041416461,1.24360099693405,0.228779961609408
6904,-0.249999657559825,-0.249999423993926,0.24998750626564,-0.249999248559328,-0.249990188803793,0.25,0.249746637631808,0.249853182259083,0.860171235568032,0.828089824944495,0.04,0.0452151526941431,410.81287015954,1.11906024558982,0.269739935575036
6964,-0.24999968038917,-0.249996888337189,0.235415980529954,-0.216666256781269,-0.249989266715949,0.216666666666667,0.24976301037975,0.216529684375465,0.851900139270836,0.84055889679395,0.04,0.0551716345147698,406.683057878623,1.02582143946619,0.291298994254596
7024,-0.25,-0.249961389142869,0.0314146202303519,0.249995628111563,-0.249976357486133,-0.25,0.24999222885094,-0.249999285995198,0.872492329216533,0.853027968643405,0.04,0.0427217207157446,416.189183891978,0.916814697246956,0.333552268701489
7084,-0.249999728265765,-0.216630629866677,0.0126536455483284,0.249992936066137,-0.249977836927622,-0.249999557372693,0.249992746927544,-0.218702567786858,0.870271180358513,0.865497040492861,0.04,0.038625290396865,415.167954686816,0.871695864541838,0.349956057426062
7144,-0.24999592398647,0.25,-0.25,0.249955247430174,-0.249998549108463,-0.249993360590399,0.25,0.219451487129897,0.867469766439949,0.877966112342316,0.04,0.0439381594597371,414.046252242244,0.920457408831558,0.330521592436989
7204,-0.249996047289196,0.249999875662794,-0.24999144819619,0.230188586302602,-0.249998645834566,-0.249993803217706,0.25,0.188154721321237,0.888207761422795,0.890435184191772,0.04,0.0381121153609908,424.027659176721,0.940784743235766,0.331175802122446
7264,-0.249997773527348,0.249998134941915,-0.249871722942854,-0.0465446694834187,-0.25,-0.25,0.25,-0.25,0.915718433399391,0.902904256041227,0.04,0.0249707300716293,436.884367585322,0.879393059057599,0.36503806029753
7324,-0.216664588625525,0.249998212446841,-0.226323150930638,-0.0267750329513258,-0.247037360590304,-0.25,0.216666666666667,-0.241637114215921,0.915632142421419,0.915373327890682,0.04,0.0237871574439242,437.118542261004,0.868894202608847,0.369646846959325
7384,0.25,0.249999297515812,0.103356857240387,0.249999878497975,-0.20556040885456,-0.25,-0.25,-0.124556713238808,0.913885518866225,0.927842399740138,0.04,0.0411814389514113,436.013049721756,0.950017946671627,0.337227011981538
7444,0.249958180379304,0.216666011014757,0.0798143028271441,0.24999982160349,-0.20167142272685,-0.249999939026676,-0.249955089550364,-0.132918846933038,0.933874160792841,0.940311471589593,0.04,0.0374514481429573,445.69824251997,1.00132655164742,0.327054301595819
7504,0.249372705689564,-0.25,-0.249781458958258,0.249999025080693,-0.147225616938908,-0.249999085400139,-0.24932634325546,-0.24998871865226,0.964039519878616,0.952780543439048,0.04,0.0180618952682296,460.163198060763,0.964818022969107,0.350446035559881
7564,0.21608131969728,-0.249978877638147,-0.249796001309254,0.249996010501013,-0.120743921082894,-0.220019306317194,-0.249371252200133,-0.249989071734549,0.964602951488119,0.965249615288504,0.04,0.0228869570525128,460.113116144843,0.956112104722126,0.353598548277874
7624,-0.249998084194695,-0.249683164572209,-0.249999594223193,0.249953806385484,0.249999820901306,0.199697600844034,-0.249999977425556,-0.249994014886607,0.971416597045617,0.977718687137959,0.04,0.0272930599464538,463.785744291392,0.995519777694199,0.342312043514097
7684,-0.240390934925172,-0.249704286934062,-0.249997713106057,0.249954720514604,0.249999050253027,0.169742223495464,-0.249996138062257,-0.219824912894888,0.985349965750114,0.989356487530784,0.04,0.0276550280030868,470.116744449998,1.01971866781342,0.338750563534044
7744,-0.105890845151843,-0.25,-0.249971377466152,0.249967518322293,0.24998826117712,-0.249633059384509,-0.249942386976068,0.202542514989179,0.984478198962416,0.989356487530784,0.04,0.0323793727525038,469.752301500809,1.05207372800291,0.328078232945927
7804,-0.082286500726691,-0.249996259790623,-0.216642550298644,0.24996964408526,0.249415501307881,-0.216324858375219,-0.218746629086218,0.1723730139899,0.989129934233042,0.989356487530784,0.04,0.0367824497879403,471.995801307601,1.06061814452281,0.326989463767561
7864,0.248174321225443,-0.249943896859338,0.249961030046478,0.24999940476679,0.241396863138533,0.249989955754842,0.217993981371675,-0.25,0.972353462186442,0.989356487530784,0.04,0.0639620616479761,463.909990458493,1.1484174576764,0.29681689373862
7924,0.248293625269287,-0.249641147256492,0.243599090662687,0.243830261198398,0.241970397830386,0.216657292037852,0.220127715946896,-0.216666667294335,0.986707944120595,0.989356487530784,0.04,0.063342004948832,470.708327564838,1.18254354351087,0.292475449258686
7984,0.2499638818831,-0.245402652816642,0.154531939289608,0.157462251240901,0.249999883516328,-0.25,0.25,0.249999990584979,0.989316341213401,0.989356487530784,0.04,0.0616264333173566,472.139748033668,1.19002081938015,0.291521560984322
8044,0.247017649298989,-0.245708926479269,0.160896476670301,0.138723950514626,0.216666557948572,-0.249999299338498,0.25,0.24999927116127,0.993822965687307,0.989356487530784,0.04,0.0640714529397886,474.244664251231,1.168148932042,0.298303887638529
8104,0.20577039312144,-0.249996757756043,0.25,-0.123612259653213,-0.25,-0.249989490077473,0.25,0.249989199229344,1.00386541133987,0.989356487530784,0.04,0.0552176905070489,478.913427502047,1.09559316226164,0.321190267350755
8164,0.175431951282442,-0.249996968556259,0.216666747396184,-0.0987047756763322,-0.25,-0.249989488134591,0.249999844538512,0.249989919280721,0.995924003545712,0.989356487530784,0.04,0.055801794179843,475.043318466766,1.04536556291511,0.333902523399268
8224,-0.249306234463535,-0.249999919759277,-0.249998789057241,0.25,-0.25,-0.249989460934246,0.249997668077687,0.25,1.0053872869964,0.989356487530784,0.04,0.0387172262379333,479.904540014089,0.969241902036599,0.363812279639111
8284,-0.249352463543954,-0.24999985812889,-0.249997151697137,0.216666666666667,-0.249999902939391,-0.249980964010843,0.249997823539174,0.249926276450484,0.995011161097222,0.988304815692554,0.04,0.0364943067990741,474.664411509795,0.9188559679849,0.379571771778549
8344,-0.249999670669828,-0.249998995303468,-0.249974228655677,-0.25,-0.249998544090858,-0.249862007083201,0.25,0.248894146757257,0.990899358298415,0.972529738119093,0.04,0.0283252514709782,472.711748703888,0.819322324297289,0.423932082230176
8404,-0.249981879960153,-0.249999021195984,-0.24996135118818,-0.249999949474866,-0.249998610108738,-0.216538147506534,0.249966180830005,0.248967840021388,0.964028903065555,0.956754660545633,0.04,0.0274620807111416,459.768721780394,0.764708064141896,0.441772246841639
8464,-0.249732810024691,-0.249999383691208,-0.24978106664322,-0.249999242122995,-0.249999534359052,0.249995886566807,0.249492712450071,0.249999545719213,0.934295888604017,0.940979582972173,0.04,0.0319237156369544,445.602173759635,0.789988158846307,0.414458828754639
8524,-0.21641729424696,-0.245006905028233,-0.216462576081334,-0.249999278121099,-0.216666234558824,0.249996160795686,0.216193202517259,0.249999574929408,0.925140146964004,0.925204505398712,0.04,0.0286019858126797,441.690033967772,0.79303730125293,0.409240551484092
8584,0.249999926641285,-0.175112203746571,0.249996291785074,-0.249999782094549,0.249999962644371,0.25,-0.249999936542117,0.249999983872137,0.887674647040799,0.909429427825252,0.04,0.0511703775466239,423.2930571112,0.919787043336276,0.338149332073583
8644,0.249999636865203,-0.146771390163466,0.249996538999403,-0.221759480164656,0.249999965134747,0.249999703069092,-0.249999887840628,0.216676492393353,0.8934978131952,0.893654350251791,0.04,0.0541886485311263,426.428782364387,0.949881053581948,0.329861751966443
8704,0.249995580000052,0.25,0.25,0.173604746853846,0.25,0.249995546036377,-0.249999206019782,-0.249852388309635,0.885505621205028,0.877879272678331,0.04,0.0752697363358667,422.208965742613,0.913126453753459,0.339743536379223
8764,0.249995874666715,0.25,0.25,0.145364430396923,0.25,0.24998899690604,-0.216666336441183,-0.216528994918739,0.865492656267327,0.862104195104871,0.04,0.0772149492515542,412.521670249885,0.887815619389124,0.341411906253965
8824,0.25,0.25,0.25,-0.25,0.25,0.249897309081331,0.249993837659214,0.249998512553805,0.834849977870545,0.84632911753141,0.04,0.0787804204206459,398.451475283757,0.946042535911821,0.309470639153136
8884,0.24999999953995,0.25,0.249999651372728,-0.216666666666667,0.249999031101012,0.249904041161429,0.249978682472006,0.249998611716884,0.836311372603256,0.83055403995795,0.04,0.0788056794754806,398.918705391301,0.931235017470511,0.314760175464744
8944,0.24999999309925,0.25,0.249994770590924,0.25,0.249985466515184,0.249998290282791,0.249766509851096,0.25,0.817987817802783,0.814778962384489,0.04,0.090262059588609,390.127272086189,0.904914417007861,0.316776882066692
9004,0.249999968126013,0.249999997776224,0.216661785884863,0.249999241782826,0.249986435414172,0.249998404263938,0.249781672450279,0.238939370231506,0.803069624304684,0.799003884811029,0.04,0.0885167863082033,383.053998879575,0.87878112498407,0.320283050678393
9064,0.249999618500689,0.249999966643366,-0.25,0.249988626742394,0.25,0.25,0.24999394883884,0.0840905534725934,0.794775532624129,0.783228807237568,0.04,0.0764364251017197,379.067128024216,0.821190411485194,0.339177419273261
9124,0.249999634368389,0.216666635533808,-0.226852374600891,0.249989384959568,0.25,0.225976318932616,0.249994352249584,0.0951511682096893,0.772611557022903,0.767453729664108,0.04,0.0785413557544122,368.444652203947,0.780276483122997,0.346959206391198
9184,0.249999856516196,-0.25,0.0972143809866383,0.25,0.25,-0.110355216010764,0.25,0.249999774529033,0.75665150617915,0.751678652090648,0.04,0.0655520022678534,360.889946200735,0.749001253901863,0.354035584011093
9244,0.249999668242041,-0.216671189700519,0.0740667555875291,0.25,0.249999960017079,-0.119664868276713,0.249998535743918,0.249999170080549,0.739397985027526,0.735903574517187,0.04,0.0648547801823048,352.647128974966,0.724318887976149,0.357738118352626
9304,0.249997032403881,0.249932154492212,-0.25,0.25,0.249999400256182,-0.25,0.249978036158771,0.249990707801768,0.725270194956439,0.720128496943727,0.04,0.0697016194270041,345.893985210864,0.694000968180998,0.366216249014423
9364,0.249996389136267,0.216603445433218,-0.24999999428693,0.249999974541191,0.249997940052548,-0.249999751617779,0.249979499999708,0.24999132728165,0.707649779490465,0.704353419370266,0.04,0.0702518334097026,337.474867521532,0.671177703560074,0.369452484076826
9424,0.249987383389665,-0.249998481392711,-0.249999914303952,0.249999618117866,0.249977497201671,-0.24999627426668,0.249999993772828,0.25,0.694799193321137,0.688578341796806,0.04,0.0475093667092043,331.393383952479,0.638494453816364,0.381365481181264
9484,0.216654985079261,-0.216665432249094,-0.249999920017022,0.249999616053792,0.249976532448809,-0.249996522648901,0.216683195238101,0.25,0.676681902157645,0.673854936061576,0.04,0.0476165577467146,322.730518393199,0.610490326300809,0.388432826673771
9544,-0.249998591266391,0.249997255761548,-0.25,0.249999587156759,0.249963025908741,-0.25,-0.000538742569013896,0.25,0.673410392070153,0.673854936061576,0.04,0.0383810298846269,321.22535569898,0.591297868042955,0.399170264537349
9604,-0.249997444286652,0.249997058494938,-0.249999961067057,0.249994616477635,0.249965490848158,-0.249991508993466,-0.00831468045944467,0.249999999961633,0.670982113849898,0.673854936061576,0.04,0.027588594693518,320.12144416266,0.603603994863506,0.389688274498283
9664,-0.249981386570304,0.249994296762409,-0.249999416005856,0.249925026969902,0.25,-0.249872634901993,0.249881927415191,0.249999999424493,0.663440599192506,0.673854936061576,0.04,0.03200038098577,316.511978219183,0.642629027601718,0.361896587376927
9724,-0.216649357064704,0.216661343644916,-0.216666122105423,0.249930025171908,0.249999950438924,-0.216547792575194,0.216556465587511,0.249997932879861,0.670846072748013,0.673854936061576,0.04,0.0310766417901909,320.151860038965,0.66832068097727,0.351986336463274
9784,0.249999056013694,-0.25,0.249999992500631,0.25,0.249999256583858,0.25,-0.0624505649835811,0.249969001255004,0.662550021511349,0.673854936061576,0.04,0.0601983819781662,315.99399174994,0.703563605363639,0.330012306624811
9844,0.249999118946114,-0.216666759975849,0.216667174507026,0.222568831842535,0.249991515537393,0.24999500964113,-0.0452543926498789,0.249969070062467,0.670201676187227,0.673854936061576,0.04,0.0562128312623872,319.789980977937,0.738891364429546,0.318008653934576
9904,0.25,0.24999860036226,-0.249992277403445,-0.161467522361979,0.249883140886889,0.249925144616946,-0.0220669970633293,0.249970033366946,0.678850359100605,0.673854936061576,0.04,0.0500797915266676,323.925416927933,0.722803669888834,0.32929061542501
9964,0.25,0.216672324367846,-0.249992792243216,-0.167369633589821,0.249890913478424,0.231245619073023,-0.0104233980588689,0.21663869780915,0.676279117851727,0.673854936061576,0.04,0.0532741665719564,322.710341381945,0.704607230576883,0.336527425831308
10024,0.25,-0.249895539553941,-0.25,-0.24999919077961,0.249999729759903,-0.0302677385418974,-0.0119432442850338,-0.0119432442850338,0.689531788399235,0.674675309395531,0.04,0.0180477453387544,328.993773071728,0.612795335235039,0.394481738664042
10084,0.249996271790562,-0.249902503583678,-0.216667592038293,-0.216687682107805,0.249998976252936,-0.0448085160428951,-0.041816495208883,-0.041816495208883,0.687280073059969,0.686980909404859,0.04,0.0106000808494124,327.993131409317,0.593997068731119,0.405728133995628
10144,0.249944076858422,-0.25,0.249986119425604,0.249673439297461,0.249988427155397,-0.248379401056864,-0.0857508749656826,-0.0857508749656826,0.686953682096709,0.699286509414186,0.04,0.0316665706914698,327.800836179061,0.657749793662117,0.366187919462716
10204,0.216614619977632,-0.216666668917658,0.216653717930299,0.24969521000717,0.248943420078097,-0.215154134083314,-0.124357778064473,-0.124357778064473,0.704365102806069,0.711592109423513,0.04,0.0238490261462099,336.145321503365,0.711539793209555,0.347122331502955
10264,-0.249997776353437,0.249999966235134,-0.249999903003966,0.249999999943094,0.2343133209959,0.249999603546394,0.249997695148673,0.249999680263508,0.700580537690846,0.72389770943284,0.04,0.0378104229736667,334.590615494765,0.825348585906494,0.297872918503514
10324,-0.229032320632399,0.216683473470711,-0.249999648426339,0.249999999946887,0.20202576626284,0.216666296643301,0.249904919268215,0.249999701234445,0.729762627999564,0.736203309442167,0.04,0.0383178661314585,348.352623675947,0.877184581122599,0.291798310451702
10384,0.0644840594621337,-0.249747425231213,-0.249996084339556,0.25,-0.25,-0.25,0.248606056941807,0.249999994827571,0.767216837620217,0.748508909451495,0.04,0.0209988924727935,366.248528190841,0.805484149986815,0.334097761203724
10444,0.0435184554979916,-0.249753605963034,-0.216905943335256,0.240517500771865,-0.249999986066958,-0.249991342413431,0.215365695136402,0.249999995172399,0.762048704147569,0.760814509460822,0.04,0.0256731190026407,363.703225581837,0.785909100799585,0.340039611306838
10504,-0.25,-0.249840136208537,0.246356030724931,0.107762511577974,-0.249999791004373,-0.249870136201461,-0.249999370139274,0.25,0.780332475638824,0.773120109470149,0.04,0.0165591386732757,372.358565575898,0.75120820801678,0.364213215652792
10564,-0.249997999889742,-0.222015179638091,0.214084321047307,0.0839155618640835,-0.249997711900542,-0.234503448007822,-0.249991434531712,0.249999213148071,0.784991429331424,0.785425709479476,0.04,0.0164383157105207,374.5864104078,0.744219094258823,0.369833191630289
10624,-0.249969998346127,0.167534212348153,-0.237719614439432,-0.249941734130389,-0.249968604446907,-0.0193698132968714,-0.249880336025847,0.249988197221066,0.800622217004665,0.797731309488803,0.04,0.0121058893135248,382.139746688628,0.72969541830073,0.384800181584303
10684,-0.216638665123052,0.172991304385164,-0.238522355697729,-0.24994378694839,-0.233159583079376,-0.00141182574374648,-0.217170767996357,0.249988984008325,0.806530670064014,0.81003690949813,0.04,0.0136907776111,384.905655870075,0.745105262203995,0.379569526823784
10744,0.25,0.249390592903328,-0.249760733313883,-0.249972526400406,0.00216671606606064,0.25,0.240763184416507,0.249999999029959,0.785205909665289,0.822342509507457,0.04,0.0433225463415012,374.741793880097,0.944138933568463,0.291642559249437
10804,0.216666765504887,0.249431220043106,-0.249762422406647,-0.249900977707412,-0.0146443724292495,0.249999992109211,0.208046022359664,0.249037349398087,0.824055972632299,0.834648109516785,0.04,0.0424583566341633,393.407502846485,1.03841706894212,0.2783719658038
10864,-0.249998517426691,0.25,-0.249786069705339,-0.248899296005501,-0.249999611363592,0.249999881638165,-0.249994246436139,0.235560254551878,0.865507588212422,0.846953709526112,0.04,0.0283471257412817,413.105714198525,0.965696535404772,0.314322308388568
10924,-0.216665287349043,0.216666672311877,-0.232711588915535,-0.248972673731388,-0.216666303939352,0.216667612663866,-0.236153082862207,0.203211616231258,0.862139280087385,0.859259309535439,0.04,0.0342853104815872,411.61006403025,0.934314985051266,0.323703463956423
10984,0.249999933738028,-0.24999991532184,0.00633114214172519,-0.249999961893814,0.25,-0.249984152976326,-0.0423767928271641,-0.249669320257412,0.872222612713241,0.871564909544766,0.04,0.0357691127447064,416.080214538276,0.925998700801115,0.330157649214873
11044,0.249999938155493,-0.249887954706517,0.0225757326656102,-0.249999964434227,0.249999981618816,-0.216652665342606,-0.0562183399720197,-0.249691365573585,0.88337276991355,0.883050136220138,0.04,0.0355437507457447,421.549599822149,0.928997374941644,0.333417868532509
11104,0.25,-0.248320506091999,0.25,-0.25,0.249999724282238,0.249988161529482,-0.25,-0.25,0.879326009810188,0.883050136220138,0.04,0.0505049610923028,419.502688414058,0.944805384902678,0.326247404137633
11164,0.249999658398437,-0.215102252400035,0.25,-0.216666666666667,0.249983280902652,0.216655617427516,-0.25,-0.247819190649251,0.883791588160208,0.883050136220138,0.04,0.0507019479753783,421.737464251711,0.946253335302567,0.327483509169748
11224,0.24999487597655,0.249953299287464,0.25,0.25,0.249753073588435,-0.25,-0.25,-0.217287859738765,0.882106122647571,0.883050136220138,0.04,0.0655459223598251,420.797790814257,0.951116777300557,0.325083019407312
11284,0.249995217578114,0.216623079334966,0.216666882554536,0.25,0.249753393071562,-0.249997396143427,-0.249999985215383,-0.219431815974162,0.882417604866431,0.883050136220138,0.04,0.061651431706688,421.004356367878,0.956849208007728,0.323294089075023
11344,0.25,-0.25,-0.249996761681958,0.25,0.249757865835343,-0.249960942151407,-0.249999778230742,-0.24944720326973,0.895356725571527,0.883050136220138,0.04,0.0329766002159287,427.299806521742,0.908021589723902,0.345773095344785
11404,0.216666975581608,-0.25,-0.249996914782845,0.216667682333795,0.216440829209412,-0.249963519281872,-0.216666561701409,-0.249479002519624,0.887114740428688,0.883050136220138,0.04,0.0347293960910943,423.073098667381,0.869806676196471,0.357394077077511
11464,-0.24999536627588,-0.25,-0.24999905819527,-0.249984764993071,-0.249997683553627,-0.249999599108393,0.249998469709244,-0.249924192018149,0.910616000650614,0.883050136220138,0.04,0.0113513336563922,434.811427229723,0.761718316395923,0.419431676804422
11524,-0.216662781557587,-0.216673475495138,-0.23017136003022,-0.22834233613322,-0.216664508775071,-0.24999915325188,0.249998571676808,-0.249928988445158,0.889265133208489,0.883050136220138,0.04,0.0113350382772463,424.530981761419,0.700715579026703,0.445166313428775
11584,0.249993404498518,0.249897867572927,0.0474164142804841,0.074651667904698,0.249999938124709,-0.249992911260705,0.249999999222696,-0.249996138423285,0.844468743106564,0.883050136220138,0.04,0.0512426231320991,402.962872155709,0.920291125254397,0.321732160718379
11644,0.249993844154447,0.249904659114814,0.0609213196137667,0.053008223447095,0.249999941950772,-0.249993342125158,0.249999999182605,-0.249982900566947,0.87598045561186,0.883050136220138,0.04,0.0486206140689138,418.043565731886,1.00443929672054,0.305810592657323
11704,0.249999999337462,0.249999740701238,0.249989994279724,-0.249999998959348,0.249999995515654,-0.249999374227492,0.249999998621339,-0.249797570578206,0.884419577683889,0.883050136220138,0.04,0.0548693994859253,421.983145246776,1.00869465222916,0.307390232022248
11764,0.240183616761231,0.233845340438074,0.249990660970899,-0.249999995247888,0.2166669788617,-0.249999391876201,0.24999800586517,-0.21658743620358,0.885662886466977,0.883050136220138,0.04,0.0604529751424667,422.395473111317,0.994090167928443,0.312210965987535
11824,0.102754260693991,0.00768373675377597,0.24999999464736,-0.249999943287439,-0.249995254293661,-0.249999638958131,0.249970107278808,0.248354445041187,0.887884377165771,0.883050136220138,0.04,0.0499097409935217,423.879510058953,0.980370002843077,0.317692590264924
11884,0.112271838323203,-0.00949517497118472,0.216685607043228,-0.249999073868583,-0.249995496145949,-0.249999663026967,0.249972087537036,0.215130821128456,0.887997441482164,0.883050136220138,0.04,0.0513190659481791,423.805571703733,0.94937712817054,0.328006593257868
11944,0.24551792513218,-0.249999939120635,-0.249715819414613,-0.249986902004599,-0.249998882077984,-0.249999999990673,0.249999811152241,-0.249999913649766,0.908486251679287,0.883050136220138,0.04,0.0291534028305181,433.410987526224,0.821721507359283,0.387551961389666
12004,0.212520600351962,-0.24999930699394,-0.249728686857846,-0.249987775203941,-0.249989591177126,-0.249999999816328,0.23995632159558,-0.249999825607566,0.889792192916386,0.883050136220138,0.04,0.0275101905983869,424.448330083464,0.764573425672713,0.407906199948979
12064,-0.249441946571088,-0.249990457220215,-0.249908831063108,-0.249999999994735,-0.24985951856511,-0.249999997375501,0.0993474678023248,-0.249998593016767,0.901182610480353,0.883050136220138,0.04,0.00710689221574358,430.02451145147,0.669615807041827,0.471869807829983
