time,bias_percent_1,bias_percent_2,bias_percent_3,bias_percent_4,bias_percent_5,bias_percent_6,bias_percent_8,bias_percent_9,normalized_power,power_SP,SP,CV,total_power_MW,fuel_fraction,thermal_efficiency
57,0,0,0,0,0,0,0,0,0.99984915100619,1,0.04,0.0399035329803236,477.030556706071,1.00005017777369,0.35049278638655
117,0.0189211622764452,0.0251487962132692,-0.0317022609180808,-0.0243210775476272,0.0137815036253671,-0.00857163566251097,-0.01975567298985,-0.00516449957214189,0.987701371698821,0.980930367619886,0.04,0.044474951803682,471.087370364246,0.966504882859391,0.358139386218791
177,0.0388381751990191,0.0516212132798685,-0.0650730618844814,-0.0499222118082873,0.0282883495468062,-0.0175944100441013,-0.0405511182423237,-0.0106008149112387,0.968109173254192,0.960857070377661,0.04,0.0483389998143257,461.723208193663,0.921970096793169,0.367976043492373
237,0.0587551881215932,0.0780936303464676,-0.0984438628508821,-0.0755233460689474,0.0427951954682454,-0.0266171844256917,-0.0613465634947975,-0.0160371302503354,0.947607038587058,0.940783773135436,0.04,0.04967628116039,451.942654125046,0.879091341283215,0.37774959345108
297,0.0786722010441672,0.104566047413067,-0.131814663817283,-0.101124480329608,0.0573020413896845,-0.0356399588072823,-0.0821420087472711,-0.0214734455894321,0.927195528227262,0.920710475893211,0.04,0.0494283163452842,442.203118036829,0.838572378584137,0.387468073623261
357,0.0985892139667412,0.131038464479666,-0.165185464783683,-0.126725614590268,0.0718088873111236,-0.0446627331888726,-0.102937453999745,-0.0269097609285289,0.90682407577491,0.900637178650985,0.04,0.0483739258079918,432.483188264738,0.799859805102967,0.397292195063333
417,0.118506226889315,0.157510881546265,-0.198556265750084,-0.152326748850928,0.0863157332325627,-0.0536855075704631,-0.123732899252219,-0.0323460762676257,0.886469655807071,0.88056388140876,0.04,0.0467762657163136,422.782527198325,0.763251583237145,0.407008981437692
477,0.138423239811889,0.183983298612864,-0.231927066716485,-0.177927883111588,0.100822579154002,-0.0627082819520535,-0.144528344504692,-0.0377823916067224,0.865796207464699,0.860490584166535,0.04,0.0449327946418967,412.969347090942,0.729216661111338,0.416117432831303
537,0.158340252734463,0.210455715679464,-0.265297867682886,-0.203529017372248,0.115329425075441,-0.071731056333644,-0.165323789757166,-0.0432187069458191,0.845526037236472,0.84041728692431,0.04,0.0429326545326311,403.229923833097,0.697354185200846,0.42486799611979
