time,bias_percent_1,bias_percent_2,bias_percent_3,bias_percent_4,bias_percent_5,bias_percent_6,bias_percent_8,bias_percent_9,normalized_power,power_SP,SP,CV,total_power_MW,fuel_fraction,thermal_efficiency
17,0,0,0,0,0,0,0,0,0.999260134630504,1,0.04,0.0401502160514906,476.737727108826,0.999234418510042,0.350563594314782
77,0.00875667769342101,-0.00855990409399419,0.00259379927423504,0.00322457340766755,0.0088724447106257,-0.00516715151908534,0.00783016919138447,0.00995994720798575,0.998696162902537,0.99883167917331,0.04,0.0406795824811466,476.435572706586,1.00005964196474,0.3500523158513
137,0.0396625989643186,-0.038771330308091,0.0117483849480059,0.0146054207288471,0.0401869554540109,-0.0234041568805629,0.0354660604550944,0.0451127020597002,0.994091783156487,0.994708193902641,0.04,0.0430974616515094,474.247360920237,1.00305057608248,0.347405562116571
197,0.0705685202352161,-0.068982756522188,0.0209029706217765,0.0259862680500265,0.0715014661973959,-0.0416411622420406,0.0631019517188043,0.0802654569114146,0.989961270341057,0.990584708631972,0.04,0.045319754181643,472.278378234894,1.00667472922303,0.344717691696687
257,0.101474441506114,-0.099194182736285,0.0300575562955471,0.0373671153712061,0.102815976940781,-0.0598781676035185,0.0907378429825142,0.115418211763129,0.985961466195907,0.986461223361302,0.04,0.0474290940679283,470.370659865178,1.0097573911972,0.342277112513486
317,0.132380362777011,-0.129405608950382,0.0392121419693179,0.0487479626923856,0.134130487684166,-0.0781151729649961,0.118373734246224,0.150570966614844,0.982006623741709,0.982337738090633,0.04,0.0493790556704486,468.483962371562,1.01189637808277,0.340183592440951
377,0.163286284047909,-0.159617035164479,0.0483667276430886,0.0601288100135652,0.165444998427551,-0.0963521783264737,0.146009625509934,0.185723721466558,0.978056551655484,0.978214252819964,0.04,0.0511280720640015,466.599332225907,1.01298880939573,0.338449706262222
437,0.194192205318806,-0.189828461378576,0.0575213133168594,0.0715096573347446,0.196759509170936,-0.114589183687951,0.173645516773644,0.220876476318272,0.974087000128856,0.974090767549294,0.04,0.052631102838843,464.733422919392,1.01319473020881,0.337027750276082
497,0.225098126589704,-0.220039887592673,0.06667589899063,0.082890504655924,0.228074019914321,-0.132826189049429,0.201281408037354,0.256029231169987,0.970109783959599,0.969967282278625,0.04,0.0539630137342846,462.807469482983,1.01233134289484,0.335917285848206
557,0.256004047860601,-0.25025131380677,0.0758304846644006,0.0942713519771037,0.259388530657707,-0.151063194410907,0.228917299301064,0.291181986021701,0.966090019590536,0.965843797007956,0.04,0.0550529594184771,460.889504191518,1.01085172131494,0.335014835516668
617,0.286909969131499,-0.280462740020867,0.0849850703381713,0.105652199298283,0.290703041401091,-0.169300199772384,0.256553190564774,0.326334740873416,0.96204864675918,0.961720311737286,0.04,0.0559477210778811,458.961178834384,1.00883210241784,0.334281032573207
677,0.317815890402396,-0.310674166234964,0.0941396560119419,0.117033046619463,0.322017552144476,-0.187537205133862,0.284189081828484,0.36148749572513,0.957984581338397,0.957596826466617,0.04,0.0566717317015579,457.02204271223,1.00641048437631,0.333669623238344
737,0.348721811673294,-0.34088559244906,0.103294241685713,0.128413893940642,0.353332062887861,-0.20577421049534,0.311824973092194,0.396640250576845,0.953900776883412,0.953473341195948,0.04,0.0572486714485721,455.073517561105,1.0037120631769,0.333140240950908
797,0.379627732944191,-0.371097018663157,0.112448827359484,0.139794741261822,0.384646573631246,-0.224011215856817,0.339460864355904,0.431793005428559,0.949800817723747,0.949349855925278,0.04,0.0577014771397582,453.117313201845,1.00084116082457,0.332659687208297
857,0.410533654215089,-0.401308444877254,0.121603413033254,0.151175588583001,0.415961084374631,-0.242248221218295,0.367096755619613,0.466945760280273,0.945688182522103,0.945226370654609,0.04,0.0580514922838418,451.155088060046,0.997880841362679,0.332201700617694
917,0.432682897792566,-0.422959966997357,0.12816419943279,0.159331862496513,0.438403150407391,-0.255318075060687,0.386902477691939,0.492138567924002,0.942401292627973,0.942271206210629,0.04,0.0576820406067086,449.617532836121,0.995819583792799,0.331754827840961
977,0.432682897792566,-0.422959966997357,0.12816419943279,0.159331862496513,0.438403150407391,-0.255318075060687,0.386902477691939,0.492138567924002,0.941984974872173,0.942271206210629,0.04,0.0559908727468257,449.417941558127,0.996620122858747,0.331341192319486
1037,0.432682897792566,-0.422959966997357,0.12816419943279,0.159331862496513,0.438403150407391,-0.255318075060687,0.386902477691939,0.492138567924002,0.941743259661918,0.942271206210629,0.04,0.0548436432748546,449.304903284054,0.999439190635819,0.330323490548186
1097,0.432682897792566,-0.422959966997357,0.12816419943279,0.159331862496513,0.438403150407391,-0.255318075060687,0.386902477691939,0.492138567924002,0.94173116992756,0.942271206210629,0.04,0.0541651432790802,449.300384818298,1.0027333501182,0.329235007436979
1157,0.432682897792565,-0.422959966997357,0.12816419943279,0.159331862496513,0.438403150407391,-0.255318075060687,0.386902477691939,0.492138567924002,0.941816790472193,0.942271206210629,0.04,0.0538342250720459,449.341614240023,1.00565897989612,0.32830733176289
1217,0.432682897792566,-0.422959966997357,0.12816419943279,0.159331862496513,0.438403150407391,-0.255318075060687,0.386902477691939,0.492138567924002,0.941921668563615,0.942271206210629,0.04,0.0537140938640012,449.391634917652,1.00796999354602,0.327591071595935
1277,0.432682897792566,-0.422959966997357,0.12816419943279,0.159331862496513,0.438403150407391,-0.255318075060687,0.386902477691939,0.492138567924002,0.942014653935237,0.942271206210629,0.04,0.0537021987701084,449.435852402949,1.00969069144448,0.327064974497696
1337,0.432682897792566,-0.422959966997357,0.12816419943279,0.159331862496513,0.438403150407391,-0.255318075060687,0.386902477691939,0.492138567924002,0.942087723918912,0.942271206210629,0.04,0.0537361935982314,449.470553659447,1.01093124423446,0.326688842357016
1397,0.432682897792566,-0.422959966997357,0.12816419943279,0.159331862496513,0.438403150407391,-0.255318075060687,0.386902477691939,0.492138567924002,0.942141894850796,0.942271206210629,0.04,0.0537832553698811,449.496261871486,1.01180954932933,0.326423928164323
1457,0.432682897792566,-0.422959966997357,0.12816419943279,0.159331862496513,0.438403150407391,-0.255318075060687,0.386902477691939,0.492138567924002,0.942180827827024,0.942271206210629,0.04,0.05382840036172,449.514731602109,1.01242500915512,0.326238897464344
1517,0.432682897792565,-0.422959966997357,0.12816419943279,0.159331862496513,0.438403150407391,-0.255318075060687,0.386902477691939,0.492138567924002,0.942208332015835,0.942271206210629,0.04,0.0538661597990509,449.527776845851,1.01285378790626,0.326110252063711
1577,0.432682897792565,-0.422959966997357,0.12816419943279,0.159331862496513,0.438403150407391,-0.255318075060687,0.386902477691939,0.492138567924002,0.942227575174849,0.942271206210629,0.04,0.0538955885932866,449.536902733227,1.01315156170453,0.326021023943036
1637,0.432682897792566,-0.422959966997357,0.12816419943279,0.159331862496513,0.438403150407391,-0.255318075060687,0.386902477691939,0.492138567924002,0.942240965149538,0.942271206210629,0.04,0.0539175903312921,449.543252463964,1.01335802268364,0.325959204732321
1697,0.432682897792566,-0.422959966997357,0.12816419943279,0.159331862496513,0.438403150407391,-0.255318075060687,0.386902477691939,0.492138567924002,0.942250253822339,0.942271206210629,0.04,0.0539336136197398,449.547657035483,1.01350107942338,0.325916388507761
1757,0.432682897792566,-0.422959966997357,0.12816419943279,0.159331862496513,0.438403150407391,-0.255318075060687,0.386902477691939,0.492138567924002,0.942256686145943,0.942271206210629,0.04,0.0539450827786311,449.550707142812,1.013600205402,0.325886726283332
1817,0.416194271452534,-0.405929711170366,0.124201600892277,0.153564011245853,0.42960969844622,-0.241871011936663,0.373698177394963,0.489923355999472,0.941957924525151,0.940034017626439,0.04,0.0540999882206222,449.386511165945,1.00995649568101,0.326942998957921
1877,0.357999119664187,-0.34582292589863,0.110215958984584,0.1332068891847,0.398573985642086,-0.194410789145988,0.327094764582108,0.482104960971719,0.936184735313706,0.932138057917531,0.04,0.0555969846409888,446.593477033505,0.987272770698136,0.332376180280711
1937,0.29980396787584,-0.285716140626895,0.0962303170768901,0.112849767123548,0.367538272837953,-0.146950566355312,0.280491351769252,0.474286565943967,0.928126806845939,0.924242098208623,0.04,0.0560488157478625,442.743389585964,0.962898104418492,0.337851950208478
1997,0.241608816087493,-0.22560935535516,0.0822446751691967,0.0924926450623951,0.33650256003382,-0.0994903435646371,0.233887938956397,0.466468170916214,0.919841056737275,0.916346138499715,0.04,0.0553570903514298,438.790599226275,0.940759557605388,0.342715188220139
2057,0.183413664299145,-0.165502570083424,0.0682590332615033,0.0721355230012423,0.305466847229686,-0.052030120773962,0.187284526143542,0.458649775888461,0.911652500463699,0.908450178790807,0.04,0.0540516476700575,434.884739849509,0.920608191407691,0.347099517470064
2117,0.125218512510799,-0.105395784811689,0.05427339135381,0.0517784009400897,0.274431134425553,-0.00456989798328664,0.140681113330686,0.450831380860708,0.903516055313282,0.9005542190819,0.04,0.0524412282361031,431.028916100847,0.901892563040245,0.351160999781839
2177,0.0670233607224516,-0.0452889995399537,0.0402877494461168,0.0314212788789371,0.24339542162142,0.0428903248073885,0.0940777005178308,0.443012985832956,0.895540705136163,0.892658259372992,0.04,0.0507430768394293,427.198094687933,0.883912282660221,0.355119740398769
2237,0.00882820893410451,0.0148177857317814,0.0263021075384233,0.0110641568177842,0.212359708817287,0.0903505475980637,0.0474742877049754,0.435194590805203,0.887559685926565,0.884762299664084,0.04,0.0489314980866868,423.391627598113,0.866641525158977,0.358969415269351
2297,-0.0493669428542425,0.0749245710035168,0.01231646563073,-0.00929296524336837,0.181323996013153,0.137810770388739,0.000870874892120066,0.42737619577745,0.879636231845988,0.876866339955176,0.04,0.0470429793551343,419.61229169559,0.84979829649577,0.362816493418337
2357,-0.10756209464259,0.135031356275252,-0.0016691762769633,-0.0296500873045211,0.15028828320902,0.185270993179414,4.66951635834895e-07,0.419557800749697,0.870791050435269,0.868970380246268,0.04,0.0459241546913858,415.384967914351,0.837474405601317,0.364446605167239
2417,-0.165757246430937,0.195138141546987,-0.0156548181846567,-0.0500072093656738,0.119252570404887,0.232731215970089,4.82553491711759e-07,0.411739405721945,0.862673454514522,0.86107442053736,0.04,0.0448002320240656,411.547549716366,0.82741986545369,0.365467492050669
2477,-0.223952398219284,0.255244926818723,-0.0296404600923502,-0.0703643314268266,0.0882168576007532,0.280191438760765,4.91758887230609e-07,0.403921010694192,0.854675372083518,0.853178460828453,0.04,0.043965072071795,407.758368464078,0.817559717056196,0.36646970152852
2537,-0.282147550007631,0.315351712090458,-0.0436261020000435,-0.0907214534879793,0.0571811447966198,0.32765166155144,4.91633799296595e-07,0.396102615666439,0.846928887387491,0.845282501119545,0.04,0.043285372142973,404.01493187028,0.807667864185117,0.367552422352394
