time,bias_percent_1,bias_percent_2,bias_percent_3,bias_percent_4,bias_percent_5,bias_percent_6,bias_percent_8,bias_percent_9,normalized_power,power_SP,SP,CV,total_power_MW,fuel_fraction,thermal_efficiency
58,0,0,0,0,0,0,0,0,0.999854447088808,1,0.04,0.0399022652221705,477.033003503779,1.00005996659045,0.350491153421859
118,0.0192531124918215,0.0255900031643793,-0.0322584409341872,-0.0247477631186381,0.0140232843907245,-0.00872201523553735,-0.0201022637440579,-0.0052551048277935,0.987397548447382,0.980595812665849,0.04,0.0445602176900047,470.94178434528,0.965780323001198,0.358297310725107
178,0.0391701254143954,0.0520624202309784,-0.065629241900588,-0.0503488973792982,0.0285301303121636,-0.0177447896171279,-0.0408977089965316,-0.0106914201668903,0.967770295941445,0.960522515423624,0.04,0.0483805090766877,461.561443468577,0.921232481116523,0.368141652219954
238,0.0590871383369695,0.0785348372975776,-0.0990000428669887,-0.0759500316399584,0.0430369762336027,-0.0267675639987183,-0.0616931542490053,-0.016127735505987,0.947270287413636,0.940449218181399,0.04,0.0496823742373766,451.781030872137,0.878394483209736,0.377914076548023
298,0.0790041512595434,0.105007254364177,-0.132370843833389,-0.101551165900619,0.0575438221550419,-0.0357903383803086,-0.082488599501479,-0.0215640508450837,0.926856252435189,0.920375920939173,0.04,0.0494161291850595,442.041248127673,0.837911866441066,0.387631562561874
358,0.0989211641821174,0.131479671430776,-0.16574164479979,-0.127152300161279,0.072050668076481,-0.0448131127618991,-0.103284044753953,-0.0270003661841805,0.906355153995113,0.900302623696948,0.04,0.0483434976113986,432.320961455676,0.799387998445216,0.397377566391822
418,0.118838177104691,0.157952088497375,-0.199112445766191,-0.152753434421939,0.0865575139979202,-0.0538358871434895,-0.124079490006426,-0.0324366815232772,0.886150759166475,0.880229326454723,0.04,0.0467597480779316,422.618990285724,0.762628619736171,0.407183888092453
478,0.138755190027265,0.184424505563974,-0.232483246732592,-0.178354568682599,0.101064359919359,-0.06285866152508,-0.1448749352589,-0.037872996862374,0.865367471051319,0.860156029212498,0.04,0.0448797159013175,412.809386660501,0.728771233546718,0.41621048695282
538,0.158672202949839,0.210896922630574,-0.265854047698992,-0.203955702943259,0.115571205840798,-0.0718814359066704,-0.165670380511374,-0.0433093122014707,0.845168568084463,0.840082731970273,0.04,0.0429057654456809,403.057619420663,0.696849496619899,0.424994021844087
