time,bias_percent_1,bias_percent_2,bias_percent_3,bias_percent_4,bias_percent_5,bias_percent_6,bias_percent_8,bias_percent_9,normalized_power,power_SP,SP,CV,total_power_MW,fuel_fraction,thermal_efficiency
34,0,0,0,0,0,0,0,0,0.999651266193307,1,0.04,0.0399686691758836,476.940614943261,0.99970040690393,0.350549308481762
94,0.0176370923808149,0.0108092010641843,0.00658012096762775,0.00988762514982432,-0.0142019121662552,0.0151289072271935,-0.00538372668662851,-0.00967834449240314,0.992585450932309,0.987055631971375,0.04,0.0439609830088834,473.414704430315,0.982133289838813,0.354181593488746
154,0.0487613730528411,0.0298842617656865,0.0181920991457945,0.0273363754142204,-0.0392641101067054,0.041826978804594,-0.0148844208395024,-0.0267577759495852,0.971181377412545,0.96421262956792,0.04,0.0512929764102976,463.168497885429,0.940067240274324,0.362021839858605
214,0.0798856537248673,0.0489593224671884,0.0298040773239611,0.0447851256786163,-0.0643263080471558,0.0685250503819943,-0.0243851149923763,-0.043837207406767,0.947970021992894,0.941369627164465,0.04,0.0559006642442576,452.090474982344,0.898438410764477,0.369735986287702
274,0.111009934396894,0.0680343831686903,0.0414160555021278,0.0622338759430122,-0.0893885059876061,0.0952231219593948,-0.0338858091452502,-0.0609166388639491,0.924742240089228,0.91852662476101,0.04,0.0584124962419934,441.011217798739,0.859428201074486,0.377046325226901
334,0.14213421506892,0.0871094438701921,0.0530280336802944,0.0796826262074081,-0.114450703928056,0.121921193536795,-0.043386503298124,-0.077996070321131,0.901722221168094,0.895683622357555,0.04,0.0598162638326206,430.028688980025,0.821709402625808,0.38453320690348
394,0.173258495740946,0.106184504571694,0.0646400118584611,0.0971313764718042,-0.139512901868507,0.148619265114195,-0.0528871974509979,-0.095075501778313,0.878703192522444,0.8728406199541,0.04,0.0604589876431941,419.046189327402,0.785023254723958,0.392223896598054
454,0.204382776412972,0.125259565273196,0.0762519900366278,0.1145801267362,-0.164575099808957,0.175317336691596,-0.0623878916038717,-0.112154933235495,0.855666511438404,0.849997617550645,0.04,0.0604511367039802,408.055209370952,0.749459791451807,0.400060123760557
514,0.235507057084998,0.144334625974698,0.0878639682147945,0.132028877000596,-0.189637297749407,0.202015408268996,-0.0718885857567456,-0.129234364692677,0.832593510134735,0.82715461514719,0.04,0.0598645938172458,397.046647731553,0.715185693635385,0.407922247273312
574,0.266631337757025,0.1634096866762,0.0994759463929612,0.149477627264992,-0.214699495689858,0.228713479846397,-0.0813892799096195,-0.130066474424068,0.808789155053976,0.804311612743735,0.04,0.0593303646040981,385.667647468901,0.68352391981711,0.414585556354097
634,0.297755618429051,0.182484747377702,0.111087924571128,0.166926377529388,-0.239761693630308,0.255411551423797,-0.0794039084582737,-0.0794039084582737,0.784124473660488,0.78146861034028,0.04,0.059423983848143,373.895973886685,0.662977371598533,0.414387607813271
694,0.328879899101077,0.201559808079204,0.122699902749294,0.184375127793784,-0.264823891570758,0.282109623001197,-0.0380432623318748,-0.0380432623318748,0.760053880930042,0.758625607936825,0.04,0.0606180473855535,362.437984784127,0.652106228394214,0.408385237869122
754,0.360004179773104,0.220634868780706,0.134311880927461,0.20182387805818,-0.289886089511209,0.308807694578598,-0.0179700156042135,-0.0179700156042135,0.737217125905131,0.73578260553337,0.04,0.0627371721485408,351.545738966786,0.642559692789417,0.40199720673298
814,0.39112846044513,0.239709929482208,0.145923859105628,0.219272628322576,-0.314948287451659,0.335505766155998,-0.00848813023231337,-0.00848813023231337,0.714513389286267,0.712939603129915,0.04,0.0656331882473248,340.713660339526,0.632250588953135,0.395963340919985
874,0.422252741117156,0.25878499018371,0.157535837283794,0.236721378586972,-0.340010485392109,0.362203837733399,-0.00400922597603485,-0.00400922597603485,0.691763767841999,0.69009660072646,0.04,0.0688520487835104,329.859389116178,0.621269630403974,0.390124659089868
934,0.435739929408368,0.267050849821027,0.162567694494333,0.244282503701543,-0.350870771166304,0.373773002083605,-0.00189355145033672,-0.00189355145033672,0.675446938980726,0.68019796635163,0.04,0.0667050639873269,322.218079078609,0.630653839375006,0.37541665563311
994,0.435739929408368,0.267050849821027,0.162567694494333,0.244282503701543,-0.350870771166304,0.373773002083605,-0.000894182309455473,-0.000894182309455473,0.674678116095507,0.68019796635163,0.04,0.0596761331738152,321.900266019487,0.665190173441319,0.355574155225823
1054,0.435739929408367,0.267050849821027,0.162567694494333,0.244282503701543,-0.350870771166304,0.373773002083605,-0.000422116039201055,-0.000422116039201055,0.6764155516702,0.68019796635163,0.04,0.0569979516208022,322.731456624729,0.69155473220663,0.342901525284797
1114,0.435739929408367,0.267050849821027,0.162567694494333,0.244282503701543,-0.350870771166304,0.373773002083605,-0.000199128734424372,-0.000199128734424372,0.67785201129218,0.68019796635163,0.04,0.0568962146169772,323.412293155432,0.708287378207774,0.335507086270362
1174,0.435739929408367,0.267050849821027,0.162567694494333,0.244282503701543,-0.350870771166304,0.373773002083605,-9.3797489710077e-05,-9.3797489710077e-05,0.678755635156087,0.68019796635163,0.04,0.0576015927003692,323.839779194744,0.718564363506184,0.331145757936728
1234,0.435739929408368,0.267050849821027,0.162567694494333,0.244282503701543,-0.350870771166304,0.373773002083605,-4.40427688116267e-05,-4.40427688116267e-05,0.679292483559186,0.68019796635163,0.04,0.0583590135056855,324.093681825499,0.724957750927035,0.328482731457836
1294,0.435739929408367,0.267050849821027,0.162567694494333,0.244282503701543,-0.350870771166304,0.373773002083605,-2.05404143260452e-05,-2.05404143260452e-05,0.679613812571415,0.68019796635163,0.04,0.0589542045096716,324.245721173607,0.729041822973554,0.326795815409763
1354,0.435739929408367,0.267050849821027,0.162567694494333,0.244282503701543,-0.350870771166304,0.373773002083606,-9.43874082870423e-06,-9.43874082870423e-06,0.67981287359443,0.68019796635163,0.04,0.0593738233276347,324.33996952139,0.731715005388027,0.325696571246936
1414,0.435739929408367,0.267050849821027,0.162567694494333,0.244282503701543,-0.350870771166304,0.373773002083605,-4.19470646962869e-06,-4.19470646962869e-06,0.679940797057582,0.68019796635163,0.04,0.0596573514848947,324.400568993006,0.733493088968185,0.324967745405934
1474,0.435739929408367,0.267050849821027,0.162567694494333,0.244282503701543,-0.350870771166304,0.373773002083605,-1.7176117896463e-06,-1.7176117896463e-06,0.680025156775779,0.68019796635163,0.04,0.0598462602786815,324.440544511517,0.734685755698301,0.324480182957231
1534,0.435739929408367,0.267050849821027,0.162567694494333,0.244282503701543,-0.350870771166304,0.373773002083605,-5.47520666391568e-07,-5.47520666391568e-07,0.680081550974236,0.68019796635163,0.04,0.0599718848904367,324.467271783167,0.735488641415774,0.324152670136334
1594,0.435739929408367,0.267050849821027,0.162567694494333,0.244282503701543,-0.350870771166304,0.373773002083605,5.18862154297458e-09,5.18862154297458e-09,0.680119450859183,0.68019796635163,0.04,0.0600555953661592,324.485234793186,0.736029940210987,0.3239322108031
1654,0.435739929408367,0.267050849821027,0.162567694494333,0.244282503701543,-0.350870771166304,0.373773002083606,2.6626876384793e-07,2.6626876384793e-07,0.680144951819206,0.68019796635163,0.04,0.0601115046496238,324.497321177227,0.736395266442511,0.323783567595081
1714,0.435739929408368,0.267050849821027,0.162567694494333,0.244282503701543,-0.350870771166304,0.373773002083605,3.89593705537797e-07,3.89593705537797e-07,0.680162104734149,0.68019796635163,0.04,0.0601488956495003,324.505450920708,0.736642205943732,0.323683136998477
1774,0.435739929408367,0.267050849821027,0.162567694494333,0.244282503701543,-0.350870771166304,0.373773002083605,4.47848006721088e-07,4.47848006721088e-07,0.68017363615125,0.68019796635163,0.04,0.0601739061796988,324.510916233239,0.736809542211586,0.323615075786718
1834,0.404486576714496,0.273821908148051,0.160103195447478,0.246066789146858,-0.355824355967144,0.356735387178511,4.75365257122023e-07,4.75365257122023e-07,0.67947530346382,0.677345584974498,0.04,0.0600157366659842,324.155978356897,0.730628541399925,0.325995855192927
1894,0.349333601372369,0.285770834607505,0.155754079482438,0.249215528168003,-0.364565976203919,0.326669007934228,4.88363426639232e-07,4.88363426639232e-07,0.675363035251594,0.67231197077956,0.04,0.0601786841539085,322.176076732689,0.712850705930615,0.332085092959144
1954,0.294180626030243,0.297719761066959,0.151404963517399,0.252364267189147,-0.373307596440695,0.296602628689944,4.94503298035167e-07,4.94503298035167e-07,0.67013643579458,0.667278356584622,0.04,0.059351078500244,319.6796827707,0.694887392245476,0.338030026742858
2014,0.239027650688117,0.309668687526413,0.14705584755236,0.255513006210291,-0.38204921667747,0.26653624944566,4.97403554160363e-07,4.97403554160363e-07,0.664826729478449,0.662244742389684,0.04,0.0575948667424385,317.146961197951,0.678613927654401,0.343393809775756
2074,0.183874675345991,0.321617613985867,0.14270673158732,0.258661745231436,-0.390790836914245,0.236469870201376,4.98773531465374e-07,4.98773531465374e-07,0.659609681069081,0.657211128194746,0.04,0.0552891917178303,314.658764217348,0.663657332660302,0.348377911892607
2134,0.128721700003864,0.333566540445321,0.138357615622281,0.26181048425258,-0.399532457151021,0.206403490957093,4.99420659774309e-07,4.99420659774309e-07,0.654481889532115,0.652177513999808,0.04,0.0526309945002922,312.214156873142,0.64953364988642,0.353187734280391
2194,0.0735687246617379,0.345515466904774,0.134008499657242,0.264959223273724,-0.408274077387796,0.176337111712809,3.56858467429293e-07,3.56858467429293e-07,0.649380639449675,0.64714389980487,0.04,0.0497332578232753,309.779707193317,0.635939315837755,0.357924944180142
