time,bias_percent_1,bias_percent_2,bias_percent_3,bias_percent_4,bias_percent_5,bias_percent_6,bias_percent_8,bias_percent_9,normalized_power,power_SP,SP,CV,total_power_MW,fuel_fraction,thermal_efficiency
18,0,0,0,0,0,0,0,0,0.99926208645208,1,0.04,0.0401139896341259,476.756325079679,0.999338696680024,0.350540688370553
78,0,0,0,0,0,0,0,0,0.999930641631046,1,0.04,0.0398940797892265,477.068080601873,1.00019841824875,0.350468405646865
138,0,0,0,0,0,0,0,0,0.999992326821774,1,0.04,0.0399283764749963,477.096478033926,1.00030938951607,0.350450385036906
198,0,0,0,0,0,0,0,0,1.00000025614616,1,0.04,0.0399639448856482,477.10014704747,1.00031735485197,0.350450289513507
258,0,0,0,0,0,0,0,0,1.00000231011161,1,0.04,0.0399861096230249,477.101113435436,1.00030689690656,0.350454663239437
318,0,0,0,0,0,0,0,0,1.00000340101728,1,0.04,0.0399989347819008,477.101628852679,1.0002884121953,0.350461518031662
378,0,0,0,0,0,0,0,0,1.00000391515067,1,0.04,0.0400058977073094,477.101869920541,1.00026571008116,0.350469649219269
438,0,0,0,0,0,0,0,0,1.00000395929251,1,0.04,0.0400091554019621,477.101887806943,1.00024184342481,0.35047802487484
498,0,0,0,0,0,0,0,0,1.00000367442309,1,0.04,0.0400100912138542,477.101749862404,1.00021908502192,0.350485898111759
558,0,0,0,0,0,0,0,0,1.00000319919463,1,0.04,0.0400096377591789,477.101522022832,1.00019885145171,0.350492820905239
618,0,0,0,0,0,0,0,0,1.00000264387694,1,0.04,0.0400084341372948,477.101256825997,1.00018183287214,0.350498589886066
678,0,0,0,0,0,0,0,0,1.00000208545871,1,0.04,0.0400069099335049,477.100990621678,1.00016818925958,0.350503175581351
738,-0.075,-0.0749961834079119,0.0749986335088977,0.0749999103735008,-0.0749997823627065,0.0749999999999999,-0.0749995911565285,0.00432432062836455,0.999230115861639,0.993796708412074,0.04,0.0398598869207781,476.722171148867,0.989756076903778,0.353909197782549
798,-0.25,-0.249987278026373,0.249995445029659,0.249999701245002,-0.249999274542355,0.25,-0.249998637188428,0.0144144020945486,0.983438530050053,0.973119069785654,0.04,0.043266692000362,468.978552118786,0.923729801778455,0.37304627050826
858,-0.249996052262106,-0.249990897653345,0.249996811520761,0.249999790871502,-0.249999492179648,0.25,-0.2499990460319,0.0850840222055645,0.956209155475924,0.952441431159234,0.04,0.0468108261216609,455.977146919182,0.884331078696479,0.37886358556297
918,-0.249986840873687,-0.249999343449614,0.25,0.25,-0.25,0.25,-0.25,0.249979802464601,0.934405107335029,0.931763792532815,0.04,0.0480872043651536,445.683643974993,0.874178443454029,0.374611650306845
978,-0.249990788611581,-0.249999537753685,0.249999254719762,0.249998844709103,-0.121206226178248,0.249994977562325,-0.162313494663695,0.249984847600437,0.910689872731934,0.911086153906395,0.04,0.0537600785775644,434.221783538672,0.855024727599166,0.373153576326687
1038,-0.25,-0.249999991129852,0.249997515732539,0.249996149030341,0.179312579405838,0.249983258541083,0.0422883511210178,0.249996619584053,0.888646130410846,0.890408515279975,0.04,0.06076511360593,423.904862265882,0.878975500913556,0.354361314369333
1098,-0.249999993676886,-0.249999993790896,0.249998226823803,0.24998935868193,0.200518794933553,0.249988280978758,0.104601845784713,0.249997479874203,0.871656439745867,0.869730876653555,0.04,0.0637132631576617,415.672886937914,0.864075210767432,0.353471846060275
1158,-0.249999978922954,-0.25,0.249999886036752,0.249973514535636,0.249999964498221,0.25,0.25,0.249999487217885,0.851653304241191,0.849053238027136,0.04,0.0672178064634748,406.205448639996,0.855433092446482,0.348910768898427
1218,-0.249999968015522,-0.249999997597203,0.0999999202257267,0.249980736177437,0.249994204582078,0.100015992586252,0.100000255313188,0.249998044365666,0.84312413553878,0.828375599400716,0.04,0.0566113357498214,402.315436706189,0.809456464864188,0.365197568162366
1278,-0.249999942564846,-0.249999991990675,-0.25,0.249997586674972,0.249980764777743,-0.24994669137916,-0.162783030547515,0.249994677710489,0.824487847409636,0.807697960774296,0.04,0.035910019660664,392.997168974686,0.674494326435852,0.428120276488077
1338,-0.249999866236865,-0.249999418026764,-0.249999983390796,0.20890515328937,0.100205127883523,-0.249962465862381,-0.131294626744842,0.0999979674370939,0.80257775542187,0.787020322147876,0.04,0.0196009639255061,382.910958421557,0.609090835560826,0.461923871671972
1398,-0.249999688138243,-0.249998078777639,-0.249999944635986,0.113022808722965,-0.249271358202991,-0.249999272989895,-0.0846369204705731,-0.182626713798193,0.766764384228607,0.766342683521456,0.04,9.38305273697073e-08,365.415925484952,0.52345925774989,0.512931371712085
1458,-0.249969800130984,-0.249975531284175,-0.249999960471046,0.00422516215442329,-0.0994997896749267,-0.249999487862799,0.0157529660665584,-0.249996039722934,0.742663855011762,0.745665044895037,0.04,5.20534452099102e-08,354.391074909522,0.573854208301537,0.453770105853327
1518,-0.249900061447379,-0.249922920466093,-0.24999999741952,-0.249636013172174,0.249967203557224,-0.249999989232909,0.249996034653199,-0.2499999671634,0.733778736323845,0.724987406268617,0.04,0.00896057766234532,350.331294553236,0.493960076528344,0.521124823385307
1578,-0.14588673171902,-0.200914330878843,-0.100040412821284,-0.2497450085005,0.249976721313384,-0.0999999926024766,0.249996999412696,-0.100000134616332,0.689826745507409,0.704309767642197,0.04,0.0326259476576995,328.6704649023,0.502399790615612,0.480690905674691
1638,0.096811037647151,-0.0865609551752601,0.2498652845746,-0.249999330933259,0.249998929411091,0.249999999535199,0.24999925051819,0.249999474660161,0.659123922321285,0.683632129015777,0.04,0.0584383325544371,314.749019388241,0.728263618371025,0.317563403169114
1698,0.142524337597146,0.0144073313510409,0.249900138890486,-0.15555299578369,0.249998886529789,0.249998264513946,0.249999463172346,0.249994092387469,0.657735572476361,0.662954490389357,0.04,0.0745822799396504,313.762916202323,0.772245350324116,0.298538940351502
1758,0.249188704147136,0.24999999991241,0.249981465627551,0.0648217862319721,0.249998786473416,0.249994216131022,0.249999959365378,0.249981533751186,0.648179003427073,0.648480143350864,0.04,0.1016264731864,309.255302464057,0.778838713631235,0.291759025830052
1818,0.249432092899541,0.249999833006843,0.249911275427307,-0.0296247490397453,0.249999142403312,0.249982370743868,0.249999696147396,0.249987066562874,0.650652452826586,0.648480143350864,0.04,0.0966986081999333,310.464579402967,0.772752529129713,0.295206761356281
1878,0.249999999988487,0.249999443560521,0.249747498293406,-0.249999998007086,0.249999972906401,0.249954731507176,0.249999081972104,0.249999976456814,0.653602467349386,0.648480143350864,0.04,0.0877171401028486,311.819380100491,0.744838953008979,0.307606422717211
1938,0.100035644766135,0.249999578184906,0.0998261087516,-0.104988984052884,0.196577983594967,0.249968312055023,0.249996763556741,0.24999998351977,0.650706128349324,0.648480143350864,0.04,0.0823416851910153,310.464924394807,0.7256755497599,0.314358152236619
1998,-0.249881184086021,0.24999989230847,-0.249990466845948,0.233370048506918,0.0719266752016202,0.25,0.249991353920896,0.25,0.655288475158386,0.648480143350864,0.04,0.0591778871491915,312.50501578086,0.690015740360813,0.332776516121382
2058,-0.0999173280743936,0.100000116002495,-0.249993326792163,0.238359032892489,-0.0246508477806502,0.19846072594707,0.249993947744627,0.249999979529605,0.655657330419073,0.65519409275658,0.04,0.0481307173917013,312.894528636148,0.679558829346202,0.338318374696885
2118,0.249998335952737,-0.249999362044781,-0.25,0.249999996458823,-0.249998401405948,0.0782024198235665,0.25,0.249999931765349,0.67416680016498,0.677573924108967,0.04,0.0285971793213732,321.802504759096,0.691321744338805,0.342029747135379
2178,0.099998835166916,-0.24999819496181,-0.25,0.249998870364837,-0.249998814884852,0.0493371178230012,0.25,0.249999718090183,0.6988417030596,0.699953755461355,0.04,0.0179660925112519,333.898864827162,0.717431336123788,0.341970998839702
2238,-0.25,-0.249995471768212,-0.25,0.249996242812204,-0.249999779668962,-0.0180152535116511,0.25,0.249999219514794,0.7284634074309,0.722333586813742,0.04,0.0101190343430402,347.114502849784,0.676803354361427,0.376846887967765
2298,-0.249999974853362,-0.249996812570064,-0.25,0.249997369968543,-0.249991254578327,-0.0875858427769235,0.249967930473951,0.100002712290279,0.748823166742419,0.744713418166129,0.04,0.00213755452323179,357.420194959057,0.684356013473664,0.383752904806105
2358,-0.249999916177874,-0.249999941107719,-0.25,0.25,-0.249971362700177,-0.249917217729225,0.249893101579836,-0.211618436461518,0.740455964643402,0.767093249518517,0.04,1.30120831992428e-07,353.481373249513,0.796971242918936,0.325895646356927
2418,-0.249999747431264,-0.100491425315284,-0.249998258790286,0.249999984866137,-0.249975928502446,-0.249942052410458,0.249886641373081,-0.0999923965301794,0.79897878573469,0.789473080870904,0.04,1.75491677896875e-05,382.360547544287,0.876961336085835,0.320366653540188
2478,-0.249999353689176,0.248361778200398,-0.249994195967621,0.249999949553791,-0.249986582041074,-0.25,0.249871567557318,0.25,0.795941248364062,0.811852912223292,0.04,0.018927793183331,379.925049604586,0.942814276761987,0.29609185091038
2538,-0.100004853146826,0.0988550096372786,-0.249995937177335,0.100000045671631,-0.137351952259078,-0.1,0.249890707399745,0.111227934996749,0.826108897946086,0.834232743575679,0.04,0.0227787668658224,394.331175013858,1.00428703248044,0.288508049121356
2598,0.249982314785324,-0.249994117009999,-0.25,-0.249999730053409,0.125462183898912,0.25,0.249935367032075,-0.212573550010838,0.85131786793263,0.856612574928067,0.04,0.0280029348054415,406.345305357597,1.04052143619179,0.286945151664741
2658,0.0999876214706617,-0.249990338471142,-0.10000062637644,-0.249997442262573,0.100119348216073,0.249999999976512,0.249952948999083,-0.22378656822236,0.87581095493112,0.878992406280454,0.04,0.0325151662589119,418.057872800581,1.06719826767421,0.287836570210746
2718,-0.249999996263549,-0.249981521880474,0.249997912078532,-0.249992104083956,0.0409860649561138,0.249999999921707,0.249993973588769,-0.249950277382578,0.900974495214515,0.901372237632841,0.04,0.0354122409460125,430.026393648089,1.07238420475853,0.294645206241065
2778,-0.100457956206817,-0.249987065312027,0.249987588565827,-0.216467500024793,0.10369007568158,0.249992826929186,0.249993987963268,-0.176405508035833,0.909084298644178,0.912435732956471,0.04,0.0450625041989656,433.518743709752,1.08259436659361,0.294236667331621
2838,0.248473470592225,-0.249999999985652,0.249963500369517,-0.138243423886746,0.249999434041001,0.249976089946637,0.249994021503768,-0.00480104622675913,0.896723176420034,0.897094444212999,0.04,0.0646058398525435,427.878134231279,1.11123083233062,0.282924454229179
2898,0.0989756416067618,-0.249977806673316,0.249959628244419,-0.14197155980976,0.1000248382683,0.249983262962646,0.249995815046211,0.0716391660271756,0.893591897234941,0.881753155469527,0.04,0.0681058010841672,426.318419940005,1.06050853078302,0.295375593683997
2958,-0.249852626025985,-0.249926022277866,0.249950593285857,-0.150670543630128,-0.249915885201335,0.25,0.249999999978578,0.249999661286357,0.884027424446665,0.866411866726055,0.04,0.064363876666924,421.577569321605,0.95324890203193,0.324956971121013
3018,-0.24989683821819,-0.249947846233782,0.24995520074184,-0.180466849729039,-0.249941012008081,0.249998781753632,0.249999999613577,0.249999761900961,0.862948265356795,0.851070577982583,0.04,0.0662357288042272,411.575216352354,0.874163978484743,0.345948127937266
3078,-0.25,-0.249998768797587,0.249965951472465,-0.24999156395983,-0.249999641223822,0.249995939178774,0.249999998761908,0.249999996668371,0.845531022505768,0.835729289239111,0.04,0.0625645015277701,403.258311761545,0.809319152099621,0.36611555927979
3138,-0.249999999998941,-0.200972900685719,0.249975229624069,-0.0999942203814903,-0.2499790749972,0.2499971560156,0.249994809829865,0.100000015379353,0.829469098956108,0.820388000495638,0.04,0.059886287655142,395.624716577888,0.755730549703893,0.384654762577173
3198,-0.249999999996472,-0.0865792084246966,0.249996878644477,0.249999581301302,-0.249931087135083,0.249999995301527,0.249982702321764,-0.249999940961691,0.810708652322804,0.805046711752166,0.04,0.0616346221839997,386.640273350299,0.708451886144872,0.401006492915534
3258,-0.249999986376109,-0.135542140635417,0.249980475255106,0.249999545657451,-0.249792967516586,0.249999678557053,0.249983590533551,-0.213775425187415,0.79301036408866,0.789705423008694,0.04,0.0526898654772319,378.247754323222,0.686890654630987,0.404616348893349
3318,-0.249999954595262,-0.249788982460432,0.249942200679909,0.249999462488465,-0.249470688406757,0.249998939486613,0.249985663027719,-0.174288044252721,0.77791338108872,0.774364134265222,0.04,0.0438594882568802,370.975032849877,0.662327617118283,0.411553684383898
3378,-0.249994224931302,-0.249851165186676,0.24995839179929,0.249990770439061,-0.249627746063534,0.249999203651086,0.100072997419988,-0.143426749537758,0.766004363583366,0.75902284552175,0.04,0.0354496578026879,365.427636297576,0.639958883420979,0.419569579995653
3438,-0.249980855715396,-0.249996258214576,0.249996171077847,0.249970488990452,-0.249994213929347,0.249999820034857,-0.146836652991506,0.10521245339962,0.74467862116688,0.743681556778278,0.04,0.0336533278349046,355.165042982082,0.623400030651915,0.418618166191226
3498,-0.249978828890135,-0.249997374632472,0.145413210693753,0.249979342289862,-0.249994356369904,0.0999998756308296,-0.154361642394809,0.148647609146412,0.732257450254729,0.728340268034806,0.04,0.0230904185050809,349.358867249321,0.611251135384853,0.41995887942987
3558,-0.249974099631193,-0.249999979607562,-0.098613696869133,0.249999999988486,-0.249994688731205,-0.249999994645234,-0.0836805677991987,0.249996305888925,0.720129421839572,0.712998979291334,0.04,0.0153525420179544,342.862682816749,0.536936915836192,0.46919311593103
3618,-0.249981785819968,-0.249998523857833,-0.1440180437657,0.249999168567618,-0.0999965180785682,-0.249997318777651,-0.133575317622743,0.100000703903463,0.701500310357321,0.697657690547862,0.04,0.00904782537525529,334.543689622799,0.511509742219756,0.480566628151008
3678,-0.249999720260444,-0.249995127108465,-0.249961519857691,0.249997228585595,0.249999213444251,-0.249991075086624,-0.249996400544348,-0.249989034062614,0.680549951431958,0.68231640180439,0.04,2.5013298394778e-05,324.66577422776,0.504916596490538,0.47246706359838
3738,-0.249767145248098,-0.249955245817443,-0.249973040542886,0.0999980600099162,0.100472261009555,-0.249945870297771,-0.249976128432715,-0.0999923238438297,0.680820547963786,0.678915651553972,0.04,9.07038501579359e-05,325.35049215744,0.49921990526023,0.478866273473778
3798,-0.249224470219289,-0.249862189471726,-0.249999922141675,-0.25,-0.248423961338068,-0.249840392457115,-0.249928826838906,0.25,0.693505087913972,0.703376157787349,0.04,9.5704342393476e-06,330.781647923755,0.516082123999814,0.470952673329415
3858,-0.249457129153503,-0.249900493146311,-0.106222813047023,-0.129627921689009,-0.248818741933274,-0.158604146913804,-0.0999575976200846,0.249999687714945,0.721621729997007,0.727836664020725,0.04,3.89138574392199e-05,345.443586626368,0.639246528745903,0.397066668512641
3918,-0.25,-0.249989868387011,0.229257108173831,0.151240261036635,-0.249739896655422,0.0542804260205881,0.249975270557165,0.249998959049816,0.717573052132865,0.752297170254101,0.04,0.0199823028307192,343.142038122183,0.880456689099914,0.286365440980365
3978,-0.249993882477193,-0.193891345491436,0.23547987672181,0.0322675356816152,-0.151864202242965,-0.036352278055778,0.249982689390016,0.249996012537432,0.756702533320191,0.776757676487478,0.04,0.0249257194806587,361.250350149787,1.02080385324852,0.260028321310726
4038,-0.249979608257309,-0.0629947920684283,0.249999670000427,-0.245335490146765,0.0765124180527682,-0.247828587567299,0.25,0.249989137341867,0.787047295351847,0.801218182720854,0.04,0.030794066840052,375.706467224884,1.11358530141824,0.247901901071976
4098,-0.100089581749132,0.0303759279485267,0.249904731196862,-0.246732842137893,0.126676329374039,-0.0984800376750811,0.249996744305741,0.236753961160648,0.805969034561537,0.825678688954231,0.04,0.04461970375808,384.497520293654,1.19925673069381,0.2355787185089
4158,0.249653813436613,0.248240941321422,0.249683207321878,-0.249993330117191,0.243725455790337,0.249999912073427,0.249989147685804,0.20587188340447,0.835642710022715,0.850139195187607,0.04,0.0648289516715074,399.105549981383,1.33154946957143,0.220234390857714
4218,0.249737122387701,0.248768658924995,0.249713987946789,-0.249995331082033,0.245607819053236,0.249995441771637,0.249992403380063,0.219110318383129,0.872216303912089,0.867261549550971,0.04,0.0729219473848444,416.267080205703,1.34071448451506,0.22813422401438
4278,0.24993150994024,0.25,0.249785809404914,-0.25,0.25,0.24998501106746,0.25,0.25,0.879764952932386,0.867261549550971,0.04,0.0845254134122119,419.752492848601,1.27423366007451,0.242046544590534
4338,0.099952056958168,0.10000076213787,0.249850066551473,-0.24999816882035,0.100000068874578,0.249989507747222,0.204817725618691,0.0999999999999999,0.888605927681523,0.867261549550971,0.04,0.0796080129198208,424.221493147824,1.18359674676489,0.263356221004949
4398,-0.25,-0.249997459540434,0.249999999893445,-0.249993896067834,-0.249999770418075,0.25,0.0993924187289689,-0.25,0.898510210853302,0.867261549550971,0.04,0.0596954061218239,428.412415768542,0.976317680218252,0.322422670540502
4458,-0.249999812058727,-0.249998221678303,0.249999938307307,-0.0999957272474837,-0.0999998403432081,0.249990237231003,-0.00542530377578737,-0.100040596638853,0.872622830886725,0.867261549550971,0.04,0.063560641145122,416.096340714256,0.887932704078532,0.344324971867186
4518,-0.249999373529091,-0.25,0.24999979460632,0.25,0.249999996498146,0.249967457436678,-0.249999989620219,0.249864677870491,0.863517909732975,0.867261549550971,0.04,0.0645072622725984,412.079755572891,0.916675098244955,0.330309087170236
4578,-0.249999561470364,-0.249998807653354,0.249999856224424,0.249969946112399,0.0999999975487024,0.249977120985174,-0.249997021013249,0.142936088354047,0.875157211167914,0.867261549550971,0.04,0.0513444198012486,417.701508966773,0.901857595615466,0.34031630179148
4638,-0.25,-0.249996025511179,0.25,0.249899820374662,-0.25,0.249999669264999,-0.249990094263652,-0.106563953850987,0.878051034658094,0.867261549550971,0.04,0.0393969835186312,418.79391050954,0.818063316866664,0.376156105823241
4698,-0.249998753226884,-0.249997217857825,0.246629416248996,0.249929874262263,-0.100000445393061,0.0999997684854995,-0.175129632242801,0.000405232248777281,0.862622965217727,0.867261549550971,0.04,0.0380835528449165,411.40288382224,0.806214595798624,0.374948267767158
4758,-0.249995844089614,-0.25,0.238764720829988,0.25,0.249998515356464,-0.25,-0.000455220860814563,0.249999999814894,0.859895185060475,0.867261549550971,0.04,0.0369267991075993,410.367178029007,0.868417617214825,0.347215151912689
4818,-0.249986249008785,-0.25,0.0921353840556468,0.249999999649975,0.249998855121916,-0.249998582132219,0.0746594047990181,0.100006919769473,0.872399131603132,0.867261549550971,0.04,0.0315967967308934,416.372470621491,0.870454851268844,0.351471758013453
4878,-0.249963860486848,-0.25,-0.249999735084483,0.249999998833249,0.249999647907969,-0.249995273774062,0.249926864671961,-0.249976933669842,0.874953284982408,0.867261549550971,0.04,0.0241632207045887,417.361740554623,0.803061799417436,0.381872464105006
4938,-0.249974553722674,-0.25,-0.249999814559138,0.100000040299255,0.0999997542754862,-0.249996691641844,0.149019745144236,-0.207588587710849,0.881673714925278,0.867261549550971,0.04,0.015141048374211,420.751878567705,0.767595971068365,0.402761596245588
4998,-0.249999504606267,-0.25,-0.25,-0.249999862946731,-0.249999997533639,-0.25,-0.0864302004204561,-0.108682447139865,0.879917602483176,0.867261549550971,0.04,0.000135234614545887,419.588516703674,0.644959059786989,0.478020060478487
5058,-0.24999963448228,-0.249999715726761,-0.100000241185741,-0.24999935870574,-0.249999998273547,-0.100000319594881,0.0144988597056808,-0.00107771299790522,0.868365006423779,0.867261549550971,0.04,0.011169477783616,412.113807681708,0.639415116338306,0.47357519059431
5118,-0.249999937526311,-0.249999052422536,0.249999196047531,-0.249998182143426,-0.25,0.24999893468373,0.25,0.25,0.844798626365583,0.867261549550971,0.04,0.0277569510645665,403.049014740237,0.840416453020983,0.35238547105482
5178,-0.110905392980759,-0.249999326443007,0.249999437233271,-0.249998727500398,-0.100000728087191,0.249999254278611,0.249998872918085,0.249999863043112,0.845984050745634,0.867261549550971,0.04,0.0351530121465201,403.44227653658,0.935024862961021,0.317039170360129
5238,0.213648544292195,-0.249999965824105,0.25,-0.25,0.249997573042697,0.25,0.249996243060283,0.24999954347704,0.848899250767641,0.867261549550971,0.04,0.0486039482669827,405.226295951303,1.08384600495509,0.274716481163909
5298,0.224553893053661,-0.100000132599904,0.249999637746752,-0.249999995866138,0.249998102944601,0.249999119125414,0.249997370142198,0.249999424460018,0.863112532337534,0.867261549550971,0.04,0.0610325747731653,411.801771456069,1.12081322239121,0.269966353862797
5358,0.249999706830417,0.249999478256567,0.249998792489174,-0.249999986220459,0.249999339382377,0.249997063751379,0.25,0.249999146753635,0.86820858165347,0.867261549550971,0.04,0.0779564538029086,414.282726792721,1.12822232442526,0.269809236758625
5418,0.249998717343085,0.249999634779597,0.249999103119738,-0.249999970981134,0.249999537567664,0.249997944625965,0.24999950782629,0.249999402727544,0.873836453226721,0.872371123079656,0.04,0.0806518843232552,416.993094788293,1.11113597615938,0.275750513765294
5478,0.249996408539312,0.25,0.249999827924389,-0.24999993542271,0.25,0.25,0.249998359420966,0.25,0.888131522912396,0.889403034841939,0.04,0.0762273781878743,423.858084690052,1.11676736838097,0.278876829322362
5538,0.100003949420165,0.102827362478477,0.249920095449909,-0.249999954795897,0.100234736543806,0.249852342143291,0.249952301247569,0.1,0.915042891790564,0.906434946604223,0.04,0.0597526305717103,437.013107284553,1.10930556757764,0.289466257703537
5598,-0.249978455191177,-0.240575458405077,0.249734053009457,-0.25,-0.249217544853981,0.249507807144303,0.249844832176309,-0.25,0.942956233998869,0.918357284837822,0.04,0.0353417670369882,449.679013371964,0.956529337769419,0.345429163463797
5658,-0.249418859106012,-0.2433732673599,0.24981383710662,-0.1,-0.249452281397787,0.249505348141569,0.248186680528045,-0.249697643680199,0.924677048477975,0.918357284837822,0.04,0.0382925979799711,441.048476249797,0.886355983949134,0.365622422003856
5718,-0.248113134907291,-0.249901488254487,0.25,0.25,-0.25,0.249499610468522,0.244317660015429,-0.244282782023998,0.918001617274552,0.918357284837822,0.04,0.0391324846338125,437.994890676764,0.885524331263317,0.363432048485487
5778,-0.248679194435104,-0.249870761723256,0.249977811376491,0.25,-0.249986582075781,0.249649727327965,0.211362003606846,-0.242980225067014,0.919775409554592,0.918357284837822,0.04,0.0336075968599652,438.844216008168,0.881356100522007,0.365858913283988
5838,-0.25,-0.249799066483718,0.249926037921636,0.25,-0.249955273585936,0.25,0.134465471986818,-0.25,0.91943883084902,0.918357284837822,0.04,0.0303131294211408,438.635621526883,0.870253146162956,0.370350531286989
5898,-0.25,-0.249859346538602,0.0999482265451451,0.25,-0.249968691510155,0.154842467063779,0.0199332697475081,-0.1,0.920634635886547,0.918357284837822,0.04,0.0228912510768055,439.310734488655,0.868062772942446,0.371856485005267
5958,-0.25,-0.25,-0.25,0.25,-0.25,-0.0671917764540684,-0.247308535477548,0.25,0.924915239345184,0.918357284837822,0.04,0.013394491367513,441.375294688084,0.809793312544497,0.40048708080412
6018,-0.249237524947201,-0.25,-0.249999810848056,0.25,-0.100608176502298,-0.121984638507719,-0.0981803004696023,0.249760854495962,0.909251494046057,0.918357284837822,0.04,0.0191623196396428,433.841390597633,0.813570681394282,0.391823401238633
6078,-0.247458416490669,-0.25,-0.249999369493521,0.25,0.247972744992339,-0.249834649966237,0.249785581215605,0.249202848319873,0.907964350765237,0.918357284837822,0.04,0.0274577041269456,433.233918873397,0.895865380180087,0.35533204343544
6138,-0.248209507628614,-0.25,-0.127642654022683,0.1,0.0985809214946371,-0.24988425383418,0.110016773874282,0.249441993823911,0.923290074471768,0.918357284837822,0.04,0.0239272376321264,440.669097660131,0.91344384728509,0.35447484207439
6198,-0.249962053617153,-0.25,0.157856348742605,-0.25,-0.25,-0.249999996192712,-0.216110443255472,0.25,0.926423336966537,0.918357284837822,0.04,0.017596096440259,442.10022447183,0.833492598967209,0.389738818141757
6258,-0.249973437532007,-0.25,0.185490649419615,-0.249999971961462,-0.247998605108536,-0.10099962402543,-0.0763168152829679,0.249997943406707,0.904401579552454,0.914530742740119,0.04,0.0268232865019082,431.464375898851,0.840314765735027,0.377274650235831
6318,-0.25,-0.25,0.249970684332636,-0.249999906538207,-0.243328683695122,0.246667911031561,0.249868316652876,0.249993144689023,0.89258931612686,0.901775602414444,0.04,0.040379994767926,425.858443278023,0.924233826070949,0.338561896861275
6378,-0.25,-0.25,0.249978506430273,-0.249992394372395,-0.0953368594129249,0.17225933749481,0.249905389095898,0.2499914056372,0.885853412364948,0.889020462088768,0.04,0.0459404178449532,422.53539822262,0.941605220017309,0.329722752755945
6438,-0.25,-0.25,0.249996757991426,-0.249974865985502,0.249977397245534,-0.00136066742427499,0.249991891462951,0.249987347849611,0.87581966304761,0.876265321763093,0.04,0.0526886590859919,417.807733097992,0.956744398888668,0.320874512492376
6498,-0.0999999999999999,-0.100845693642332,0.249997400512114,-0.249922893228246,0.249942436520207,-0.0403767946434868,0.24997324916994,0.244166738446513,0.862040030186454,0.863510181437418,0.04,0.0631902015178348,411.07876214949,0.944801898967366,0.319697292950154
6558,0.25,0.247181021192228,0.249998899727054,-0.249801623461317,0.249860861494444,-0.131414424821648,0.24992975048625,0.23058531650595,0.85193235496541,0.850755041111742,0.04,0.0818822922037505,406.430293558397,0.954060051593015,0.313014917739094
6618,0.249957238628495,0.248019882838482,0.249999229808938,-0.249861136422922,0.249832655264875,-0.0169900973751535,0.249923154347583,0.235745267125361,0.842165152590393,0.837999900786067,0.04,0.0855646987185646,401.651111145889,0.925760207763369,0.318790330228738
6678,0.249857462094985,0.24997722667974,0.25,-0.25,0.249766840729214,0.25,0.24990776335736,0.247785151903988,0.828411162996132,0.825244760460391,0.04,0.0887433699350634,395.182589354004,0.911155081505089,0.318683939544146
6738,0.0999007525598946,0.129216436882227,0.25,-0.0999999999999999,0.24983678851045,0.25,0.13224916805646,0.0984496063327914,0.826084876146145,0.812489620134716,0.04,0.0792523180680567,394.238422973345,0.864382224939349,0.33512574901772
6798,-0.249998236355316,-0.152558739311971,0.25,0.25,0.25,0.25,-0.126196793924127,-0.126196793924127,0.815843996930933,0.79973447980904,0.04,0.063144164813604,388.87286687167,0.737156630700949,0.387616755270567
6858,-0.249998765448721,-0.181791117518379,0.25,0.24999997767188,0.25,0.25,-0.0599798028952107,-0.0599798028952107,0.789727628552666,0.786979339483365,0.04,0.0557651626151439,376.659705130669,0.706323079947384,0.391832487084901
6918,-0.25,-0.25,0.25,0.249999925572932,0.25,0.25,-0.0283344385052282,0.25,0.771362477847005,0.77422419915769,0.04,0.0496151491835747,367.976680100924,0.727787453629501,0.371509914822407
6978,-0.249999670136452,-0.25,0.25,0.249999947901053,0.25,0.25,-0.0133841177675278,0.249969447158937,0.762651371933804,0.761469058832014,0.04,0.0473809381509491,363.76799324741,0.724251853189622,0.369053684400159
7038,-0.249998900454839,-0.25,0.25,0.25,0.25,0.25,-0.00632191575775279,0.249898157196456,0.750338049197085,0.748713918506339,0.04,0.0477976170674084,357.885950674963,0.714339855975306,0.368124264366266
7098,-0.249999230318387,-0.249999769849316,0.25,0.25,0.249992727753339,0.136100515342941,-0.0030930388189898,0.0999287100375193,0.745466516649889,0.735958778180663,0.04,0.0406883702584348,355.726295028864,0.690505684623925,0.378532686576733
7158,-0.25,-0.249999232831055,0.25,0.25,0.249975759177795,-0.129664948856865,0.25,-0.00231760915019899,0.725456454704631,0.723203637854988,0.04,0.0401539210338716,346.007464421316,0.653333895825155,0.389139174853175
7218,-0.25,-0.249997641353656,0.100004076468262,0.25,0.249983031424457,-0.165762892374651,0.25,-0.00278806034747959,0.715206718877589,0.710448497529313,0.04,0.0308677003911067,341.232999194403,0.635983882449255,0.39423900494123
7278,-0.25,-0.249993927906393,-0.249986411772461,0.25,0.25,-0.249991427249486,0.25,-0.0226955170712465,0.706484799813436,0.697693357203637,0.04,0.0157217283580028,336.675733668813,0.576351083890811,0.429219433714688
7338,-0.100003174783167,-0.249995749534475,-0.249989996444317,0.100000011028333,0.100001640200366,-0.249982817532967,0.125359947598826,0.039006607250428,0.705100693574263,0.684938216877962,0.04,0.00604754693124843,336.346857455458,0.525092265536756,0.470659066757617
7398,0.249989417389445,-0.25,-0.249998360678646,-0.249999963238889,-0.249994532665447,-0.249962728194423,-0.135906991143376,0.249991399579329,0.679211379436558,0.672183076552286,0.04,0.000233526003910545,323.855833120879,0.464839884473608,0.511921082419389
7458,0.100010776870978,-0.249999182825195,-0.0999988524750519,-0.249992955082911,-0.249996172865813,-0.0999739169249758,-0.0408267946604375,0.249991338929113,0.654897010955657,0.659427936226611,0.04,0.0155161546462538,311.783193197114,0.457634287209067,0.500597667150482
7518,-0.249939384338779,-0.249997276083984,0.25,-0.249976602718961,-0.25,0.249999976037068,0.249999980918787,0.249991197411944,0.647133578464896,0.646672795900936,0.04,0.0263422123132235,309.057209655288,0.558619680925819,0.406515699994117
7578,-0.238632365688758,-0.133247049102173,0.249999738220126,-0.249983621903273,-0.100000808008747,0.249999968122285,0.249999921683971,0.249993775642847,0.620968416343509,0.63391765557526,0.04,0.0431861284774899,295.47192174478,0.599366337207424,0.362225103769552
7638,-0.212249322172043,0.139170147188717,0.24999912740042,-0.25,0.249997306637509,0.24999994965446,0.2499997834694,0.249999791514956,0.608523987073765,0.621162515249585,0.04,0.058200770587292,290.493616474076,0.714901369828223,0.298569293438841
7698,-0.073576835115196,0.172419070587957,0.249999318171527,-0.25,0.249996650228941,0.249997517948951,0.24999939254403,0.249999854060469,0.608567128576476,0.608407374923909,0.04,0.0735347558048848,290.084259887857,0.722609213309186,0.294968300632648
7758,0.249992301350781,0.249999891852851,0.24999976330411,-0.25,0.249995118608948,0.249991843969428,0.249998480384832,0.25,0.600269032018895,0.595652234598234,0.04,0.0955823895735696,286.359365372282,0.711159693228232,0.295868638768546
7818,0.249994610945547,0.249986254587672,0.249999834312877,-0.25,0.249987725020571,0.249994146899122,0.249998013962471,0.249999974203556,0.591710994938179,0.582897094272559,0.04,0.0985593113742624,282.210892350541,0.662264788952963,0.313109888125244
7878,0.25,0.249954434302254,0.25,-0.25,0.249970473314357,0.249999520401741,0.249996925643628,0.249999914011852,0.576495966141678,0.570141953946883,0.04,0.0993860435730094,274.915002187847,0.616190772826533,0.32782187177937
7938,0.100000000020824,0.249966995728068,0.25,-0.249997309455065,0.24997933132005,0.249998692071734,0.0999983030932371,0.100002087795705,0.571788958583135,0.568192527370991,0.04,0.0834537404006217,273.086280627753,0.59351579736191,0.338082176726504
7998,-0.249999999930586,0.249996305721634,0.25,-0.249991031516883,0.25,0.249996759301718,-0.016505560338841,-0.016505560338841,0.586429643210603,0.591456432877925,0.04,0.0470138241786303,279.863818564813,0.595200771283333,0.34549196094546
8058,-0.249999928582058,0.249997414005144,0.249999949210335,-0.0999937227407507,0.249999938849022,0.249996685995064,-0.00978257214615197,-0.00978257214615197,0.604018451916457,0.61472033838486,0.04,0.0365694755106243,288.290030023964,0.650019178027874,0.325880316547519
8118,-0.24999976210216,0.25,0.249999830701117,0.24999999773689,0.249999796163407,0.249996514946204,-0.00648700103485362,0.249964042582444,0.620789909163295,0.637984243891795,0.04,0.0435414317704889,296.480102267025,0.758129301995181,0.287347184023664
8178,-0.249205782282674,0.244148862090883,0.249999880866156,0.249990305249667,0.19068388641698,0.249988855474496,0.0421713757102332,0.24989117996144,0.652833633915541,0.661248149398729,0.04,0.041233182629034,311.613979186002,0.822299185897147,0.278446490279372
8238,-0.247353162703873,0.230496206969609,0.249999997917913,0.249967689446144,0.0522800970086491,0.249970983373845,0.249946490832927,0.249721167179097,0.677697186371379,0.684512054905664,0.04,0.0438087584270088,323.550857215279,0.871884164122414,0.272670680080989
8298,-0.248147213892711,0.0863473893162172,0.0999999985425393,0.249945177929015,0.108663235278504,0.0999802011229691,0.249962384632443,0.249804768972435,0.709535613062894,0.707775960412599,0.04,0.0356496369659949,338.89955075443,0.892742291765939,0.278932783280502
8358,-0.25,-0.24999985187503,-0.25,0.249892651055712,0.240223891241498,-0.24999829079574,0.249999470164649,0.249999839823556,0.741282968361708,0.731039865919533,0.04,0.0182994887394568,353.70278952882,0.816903946650655,0.318142849799348
8418,-0.249998511508737,-0.2499998548839,-0.249999995880437,0.249924855738999,0.243149392865896,-0.249998803557018,0.249999629115254,0.249999440872692,0.754398977841875,0.754303771426468,0.04,0.0191658006350129,360.077573020036,0.804617243374379,0.328822414142882
8478,-0.249995038362456,-0.249999861904596,-0.249999986268122,0.25,0.249975563322823,-0.25,0.25,0.249998509987342,0.774968249727488,0.777567676933403,0.04,0.0181092933962718,369.906011352948,0.816926405922669,0.332707913836498
8538,-0.249996526853719,-0.150975328912344,-0.197340089378922,0.100568266576095,0.249982711357586,-0.100000372303617,0.100299199359828,0.2499898327572,0.79513395415648,0.800831582440337,0.04,0.0177225228322679,379.476785144366,0.841544522269385,0.331331549481561
8598,-0.25,0.080081914736243,-0.0744669966374547,-0.248105778079683,0.249999390105367,0.249998758987942,-0.205736644663317,0.249969585886867,0.816619664406684,0.824095487947272,0.04,0.0198102840461249,389.816511737637,0.887732600029052,0.322650794228117
8658,-0.100022564820413,-0.0189425330846833,-0.127126580562502,-0.248672797027756,0.249966143191589,0.24999772803455,-0.0993057978932918,0.249970509978385,0.838156223213105,0.847359393454206,0.04,0.0239228304348652,399.929379094379,0.928837680119642,0.316372087479826
8718,0.249924783931958,-0.249999578000178,-0.249998943054279,-0.249995841239926,0.249888567059439,0.249995322476637,0.249986900890365,0.249972666191927,0.859047330152827,0.870623298961141,0.04,0.0308769541348275,410.105265696081,1.00918927976699,0.298591467583731
8778,0.249937069690726,-0.249999690172019,-0.249999260137996,-0.249997088867948,0.0999219969416073,0.249851890155353,0.101828860654971,0.120569615005993,0.895862149126568,0.886908032815995,0.04,0.0261284682811026,427.776844856125,1.02822435986174,0.305691991044808
8838,0.249965736461185,-0.249999951906314,-0.25,-0.25,-0.25,0.249517214739023,-0.243873233227617,-0.181370837761187,0.905698912417588,0.886908032815995,0.04,0.0209458641470833,431.911674238405,0.8901656905778,0.356515788642487
8898,0.249967407842932,-0.249999414869078,-0.100003438319545,-0.249999999943108,-0.24999999487119,0.14758951013599,-0.2457112632547,-0.201959581091493,0.891657153471959,0.886908032815995,0.04,0.0245407939408863,425.357595403208,0.842169672350491,0.371115651398485
8958,0.249971307733678,-0.249998161782195,0.249988538934851,-0.24999999981036,-0.249999982903965,-0.0902418006044203,-0.249999999984561,-0.24999998219554,0.887797256237125,0.886908032815995,0.04,0.025230054083892,423.558814495575,0.831907148745019,0.374105027036685
9018,0.249977716240263,-0.249998713247537,0.249991977254396,-0.249999962914456,-0.249999972608219,0.0118297761451688,-0.141696719185738,-0.247344976446882,0.881326954216266,0.886908032815995,0.04,0.0303262686700856,420.366943330264,0.839292018326697,0.368018914569641
9078,0.249992669422296,-0.25,0.25,-0.249999876824014,-0.249999948584812,0.249996788560876,0.111010936011517,-0.241149963033345,0.879443585795955,0.886908032815995,0.04,0.0388816382497059,419.676100094384,0.899180762030688,0.342942972000641
