time,bias_percent_1,bias_percent_2,bias_percent_3,bias_percent_4,bias_percent_5,bias_percent_6,bias_percent_8,bias_percent_9,normalized_power,power_SP,SP,CV,total_power_MW,fuel_fraction,thermal_efficiency
40,0,0,0,0,0,0,0,0,0.999725470195932,1,0.04,0.0399438939341234,476.973247082186,0.999814940047433,0.350533133270834
100,0.000680351285753318,0.00337510124271546,0.0109254925420785,-0.00498677845917155,0.00916627522941815,0.0133776068699924,-0.0088036156944512,0.0161751879083576,0.980739401596863,0.968710450808787,0.04,0.0488014606155879,467.593591748064,0.955906330893345,0.359424675238838
160,0.00170087821438301,0.00843775310678871,0.0273137313551961,-0.0124669461479289,0.0229156880735453,0.0334440171749811,-0.0220090392361279,0.040437969770894,0.936488107227931,0.921776127021969,0.04,0.0624147129604339,446.419247089002,0.868949998042183,0.377487695795524
220,0.00272140514301282,0.0135004049708618,0.0437019701683137,-0.0199471138366862,0.0366651009176725,0.0535104274799696,-0.0352144627778048,0.0647007516334302,0.888538545623061,0.87484180323515,0.04,0.0716194249798681,423.542509157592,0.782865365039186,0.397525142263209
280,0.00374193207164285,0.0185630568349351,0.0600902089814313,-0.0274272815254433,0.0504145137617998,0.0735768377849585,-0.0484198863194815,0.0889635334959665,0.840871462864923,0.827907479448331,0.04,0.0770896106688323,400.800708549095,0.701239001033504,0.419968864973014
340,0.00476245900027266,0.0236257086990083,0.076478447794549,-0.0349074492142006,0.0641639266059269,0.0936432480899471,-0.0616253098611583,0.113226315358503,0.79319181958049,0.780973155661512,0.04,0.0799167974509331,378.052664367225,0.624046458761304,0.445133270997324
400,0.00578298592890235,0.0286883605630816,0.0928666866076667,-0.042387616902958,0.0779133394500542,0.113709658394936,-0.0748307334028351,0.137489097221039,0.745515807457823,0.734038831874693,0.04,0.0805122402418772,355.306544235073,0.55132463022609,0.473533259677049
460,0.00680351285753215,0.0337510124271547,0.109254925420784,-0.0498677845917153,0.0916627522941814,0.133776068699924,-0.0616504972941873,0.161751879083576,0.695265207420942,0.687104508087874,0.04,0.0815041585930162,331.619143061216,0.491768551957918,0.495488428258942
520,0.00782403978616207,0.038813664291228,0.125643164233902,-0.0573479522804726,0.105412165138308,0.153842479004913,-0.0291213371504895,0.186014660946112,0.646048313500859,0.640170184301055,0.04,0.0832618521789947,308.06923824483,0.451843694472057,0.500973536177959
580,0.00884456671479194,0.0438763161553012,0.142031403047019,-0.0648281199692298,0.119161577982436,0.173908889309902,-0.0137556674352411,0.210277442808648,0.59827781393175,0.593235860514236,0.04,0.0871320032164171,285.401439817842,0.418653226330259,0.500906184283759
640,0.00986509364342174,0.0489389680193744,0.158419641860137,-0.0723082876579871,0.132910990826563,0.19397529961489,-0.00649744703540841,0.234540224671185,0.551482726245181,0.546301536727417,0.04,0.0938971448245753,263.002156886485,0.386209141625427,0.500370200087563
700,0.0108856205720516,0.0540016198834476,0.174807880673255,-0.0797884553467444,0.14666040367069,0.214041709919879,-0.00306891040091927,0.258803006533721,0.504626810375788,0.499367212940599,0.04,0.102913296139873,240.665635559685,0.353596959396713,0.500103894542561
760,0.0119061475006814,0.0590642717475208,0.191196119486372,-0.0872686230355017,0.160409816514817,0.234108120224868,-0.00144938558929755,0.283065788396257,0.457871260351166,0.45243288915378,0.04,0.113663661554498,218.319974967441,0.320130022668295,0.501096932018727
820,0.0129266744293113,0.0641269236115941,0.20758435829949,-0.0947487907242589,0.174159229358945,0.254174530529856,-0.000684377009473567,0.307328570258794,0.411150735461682,0.405498565366961,0.04,0.125872198661247,196.04064925178,0.28592586292764,0.503787477242796
880,0.0139472013579411,0.0691895754756673,0.223972597112608,-0.102228958413016,0.187908642203072,0.274240940834845,-0.000323012777143619,0.33159135212133,0.364551589545294,0.358564241580142,0.04,0.140012983572397,173.802760235508,0.24984509797614,0.511140758117907
940,0.0142873770008177,0.070877126097025,0.229435343383647,-0.104722347642602,0.192491779817781,0.280929744269841,-0.000152316346359485,0.339678946075509,0.333279429101548,0.342919466984536,0.04,0.131334042727536,158.948630266785,0.270947913623027,0.43104802034095
1000,0.0142873770008177,0.070877126097025,0.229435343383647,-0.104722347642602,0.192491779817781,0.280929744269841,-7.16849882478965e-05,0.339678946075509,0.333409885058477,0.342919466984536,0.04,0.0936631919829292,159.113332262866,0.334694649918359,0.349311173050873
1060,0.0142873770008177,0.070877126097025,0.229435343383647,-0.104722347642602,0.192491779817781,0.280929744269841,-3.35976122808963e-05,0.339678946075509,0.337162331843191,0.342919466984536,0.04,0.0808529646061951,160.878319557749,0.375005053587631,0.315220952613395
1120,0.0142873770008177,0.070877126097025,0.229435343383647,-0.104722347642602,0.192491779817781,0.280929744269841,-1.56064951519503e-05,0.339678946075509,0.339139381711214,0.342919466984536,0.04,0.0792184989929262,161.817449191893,0.401498305917337,0.296139480380518
1180,0.0142873770008177,0.070877126097025,0.229435343383647,-0.104722347642602,0.192491779817781,0.280929744269841,-7.10813349458907e-06,0.339678946075509,0.340705650164453,0.342919466984536,0.04,0.0809757904645639,162.561268770677,0.417775710140016,0.285909489717859
1240,0.0142873770008177,0.070877126097025,0.229435343383647,-0.104722347642602,0.192491779817781,0.280929744269841,-3.09381074066128e-06,0.339678946075509,0.341785187983523,0.342919466984536,0.04,0.0836386837232677,163.072224488847,0.426535370748123,0.280918034168731
1300,0.0142873770008177,0.070877126097025,0.229435343383647,-0.104722347642602,0.192491779817781,0.280929744269841,-1.19758793649953e-06,0.339678946075509,0.342385955128562,0.342919466984536,0.04,0.0859802870833565,163.355552941461,0.430759370374611,0.278646661962356
1360,0.0142873770008177,0.070877126097025,0.229435343383647,-0.104722347642602,0.192491779817781,0.280929744269841,-3.0187995698918e-07,0.339678946075509,0.342660535252396,0.342919466984536,0.04,0.0875886855376827,163.484690712924,0.432758416323001,0.277578767750326
1420,0.0142873770008177,0.070877126097025,0.229435343383647,-0.104722347642602,0.192491779817781,0.280929744269841,1.21220526138471e-07,0.339678946075509,0.34277358658965,0.342919466984536,0.04,0.0885354577182334,163.537842752116,0.433816348326064,0.276991872752603
1480,0.0142873770008177,0.070877126097025,0.229435343383647,-0.104722347642602,0.192491779817781,0.280929744269841,3.21078094584733e-07,0.339678946075509,0.34282492981799,0.342919466984536,0.04,0.0890450371716947,163.56207046591,0.434472170008825,0.276614736179741
1540,0.0142873770008177,0.070877126097025,0.229435343383647,-0.104722347642602,0.192491779817781,0.280929744269841,4.15483677320031e-07,0.339678946075509,0.34285536747691,0.342919466984536,0.04,0.0893123210385345,163.576494599093,0.434913104539347,0.276358660913736
1600,0.0142873770008177,0.070877126097025,0.229435343383647,-0.104722347642602,0.192491779817781,0.280929744269841,4.60077505419104e-07,0.339678946075509,0.342876667847152,0.342919466984536,0.04,0.0894569663920709,163.586600091418,0.435209999950934,0.276187193461124
1660,0.0142873770008177,0.070877126097025,0.229435343383647,-0.104722347642602,0.192491779817781,0.280929744269841,4.81142038330314e-07,0.339678946075509,0.342891639606006,0.342919466984536,0.04,0.0895399579632245,163.593698434944,0.435404841348288,0.276075580072698
1720,0.0142873770008177,0.070877126097025,0.229435343383647,-0.104722347642602,0.192491779817781,0.280929744269841,4.91092171917896e-07,0.339678946075509,0.342901637992377,0.342919466984536,0.04,0.0895899086661452,163.598434573897,0.435530163293533,0.276004130762387
1780,0.0142873770008177,0.070877126097025,0.229435343383647,-0.104722347642602,0.192491779817781,0.280929744269841,4.95792259920229e-07,0.339678946075509,0.342908011871904,0.342919466984536,0.04,0.0896205816416848,163.601451967602,0.435610475072899,0.275958334628043
1840,0.0249853774405645,0.067134912847962,0.216126068063124,-0.103691826559039,0.175241941030265,0.279777043680032,4.98012413542846e-07,0.340188649883588,0.342524261131626,0.341489930832047,0.04,0.0895838807782899,163.407921928244,0.432170239027841,0.27782602611243
1900,0.0410323781001847,0.0615215929743674,0.196162155082341,-0.102146044933695,0.149367182848991,0.278047992795318,4.99061135091439e-07,0.340953205595708,0.340694323019133,0.339345626603315,0.04,0.090287595647515,162.528036814815,0.424190961677753,0.281527974105825
1960,0.0570793787598049,0.0559082731007728,0.176198242101557,-0.100600263308351,0.123492424667717,0.276318941910605,4.99556513723791e-07,0.341717761307827,0.338441761816227,0.337201322374583,0.04,0.090196417509064,161.452442545763,0.416365764702896,0.284920883987679
2020,0.0731263794194251,0.0502949532271783,0.156234329120774,-0.0990544816830067,0.0976176664864437,0.274589891025891,4.99790512910439e-07,0.342482317019946,0.336190985552627,0.335057018145851,0.04,0.0894209574684582,160.379097385344,0.409269186828931,0.287934293100795
2080,0.0891733800790453,0.0446816333535838,0.13627041613999,-0.0975087000576626,0.0717429083051699,0.272860840141177,4.99901045775152e-07,0.343246872732065,0.334002406870007,0.332912713917118,0.04,0.0883378867853424,159.33532106943,0.402558034457864,0.290829353025674
2140,0.105220380738665,0.0390683134799892,0.116306503159207,-0.0959629184323184,0.0458681501238962,0.271131789256464,4.99953257555701e-07,0.344011428444185,0.331846350006845,0.330768409688386,0.04,0.08713506687086,158.306802499219,0.39596757889594,0.293761329597005
2200,0.121267381398286,0.0334549936063946,0.0963425901784232,-0.0944171368069743,0.0199933919426225,0.26940273837175,4.99977920537477e-07,0.344775984156304,0.329698088485948,0.328624105459654,0.04,0.0858527987014423,157.281870724452,0.389408581999692,0.296775348624577
2260,0.137314382057906,0.0278416737328001,0.0763786771976397,-0.0928713551816301,-0.00588136623865131,0.267673687487036,4.99989570449885e-07,0.345540539868423,0.327546125103259,0.326479801230922,0.04,0.0844753973931084,156.255112045867,0.382884115233397,0.299862088749128
2320,0.153361382717526,0.0222283538592056,0.0564147642168562,-0.0913255735562859,-0.0317561244199251,0.265944636602323,4.9999507345274e-07,0.346305095580542,0.325385011099545,0.324335497002189,0.04,0.0829738039866545,155.223961798305,0.376440122700763,0.302982492327044
2380,0.169408383377146,0.016615033985611,0.0364508512360727,-0.0897797919309418,-0.0576308826011989,0.264215585717609,4.99997672874895e-07,0.347069651292662,0.323213926400589,0.322191192773457,0.04,0.081321753270022,154.188067482413,0.370137173151896,0.306085486747521
2440,0.185455384036766,0.0110017141120165,0.0164869382552891,-0.0882340103055976,-0.0835056407824726,0.262486534832895,4.99998900749152e-07,0.347834207004781,0.321036156486253,0.320046888544725,0.04,0.0795055115170368,153.149019255022,0.364023578290885,0.309128738689704
2500,0.201502384696386,0.00538839423842188,-0.00347697472549447,-0.0866882286802534,-0.109380398963746,0.260757483948182,4.9999948075313e-07,0.3485987627169,0.318856313628554,0.317902584315993,0.04,0.0775262395873137,152.10901612081,0.358121138928063,0.312089873012212
2560,0.217549385356007,-0.000224925635172724,-0.023440887706278,-0.0851424470549093,-0.13525515714502,0.259028433063468,0.00653775105285395,0.34936331842902,0.316544335387053,0.31575828008726,0.04,0.0758322802371155,151.002919683529,0.352667445565396,0.314611540095486
2620,0.233596386015627,-0.00583824550876722,-0.0434048006870615,-0.0835966654295651,-0.161129915326294,0.257299382178754,0.0216493574188799,0.350127874141139,0.314263751522572,0.313613975858528,0.04,0.0742130328640568,149.917877060384,0.348526970030975,0.31606158177097
2680,0.249643386675247,-0.0114515653823618,-0.063368713667845,-0.082050883804221,-0.187004673507568,0.255570331294041,0.0367609637849059,0.350892429853258,0.312101048938301,0.311469671629796,0.04,0.0727154262258126,148.886277318988,0.344612212369391,0.317452450258882
2740,0.25499238689512,-0.0133226720068933,-0.0700233513281062,-0.0815356232624396,-0.195629592901326,0.254993980999136,0.0417981659069145,0.351147281757298,0.309807488310082,0.309325367401063,0.04,0.0723180904480913,147.790595169206,0.341030385686262,0.318425909675366
2800,0.254992386895121,-0.0133226720068933,-0.0700233513281062,-0.0815356232624395,-0.195629592901326,0.254993980999136,0.0417981659069145,0.351147281757298,0.307542016660644,0.307181063172331,0.04,0.0721890092975588,146.710622290201,0.338554398090579,0.318410789426744
2860,0.25499238689512,-0.0133226720068933,-0.0700233513281062,-0.0815356232624396,-0.195629592901326,0.254993980999136,0.0417981659069145,0.351147281757298,0.305340942257759,0.305036758943599,0.04,0.072101157116864,145.660798995679,0.336525038778796,0.318038708488449
2920,0.25499238689512,-0.0133226720068933,-0.0700233513281062,-0.0815356232624396,-0.195629592901326,0.254993980999136,0.0417981659069145,0.351147281757298,0.303167914721473,0.302892454714867,0.04,0.0721210224919033,144.624204990037,0.33471606456289,0.317481997617548
2980,0.25499238689512,-0.0133226720068933,-0.0700233513281062,-0.0815356232624395,-0.195629592901326,0.254993980999136,0.0417981659069145,0.351147281757298,0.30100976616052,0.300748150486134,0.04,0.0722374295386081,143.594637208318,0.333016106925498,0.31683099231563
3040,0.254992386895121,-0.0133226720068933,-0.0700233513281062,-0.0815356232624395,-0.195629592901326,0.254993980999136,0.0417981659069145,0.351147281757298,0.298859472600148,0.298603846257402,0.04,0.0724256919986196,142.568775356218,0.331365569208859,0.316134369943537
3100,0.25499238689512,-0.0133226720068933,-0.0700233513281062,-0.0815356232624395,-0.195629592901326,0.254993980999136,0.0417981659069145,0.351147281757298,0.296713025972091,0.29645954202867,0.04,0.0726626927715841,141.544725627988,0.329734310111647,0.315416368834625
3160,0.25499238689512,-0.0133226720068933,-0.0700233513281062,-0.0815356232624396,-0.195629592901326,0.254993980999136,0.0417981659069145,0.351147281757298,0.294568250218963,0.294315237799938,0.04,0.0729307983330203,140.521460887455,0.328108542552538,0.31468771917633
3220,0.25499238689512,-0.0133226720068933,-0.0700233513281062,-0.0815356232624396,-0.195629592901326,0.254993980999136,0.0417981659069145,0.351147281757298,0.292424050516887,0.292170933571205,0.04,0.0732179752769089,139.49846522552,0.326482965658184,0.313952234924039
3280,0.254992386895121,-0.0133226720068933,-0.0700233513281062,-0.0815356232624396,-0.195629592901326,0.254993980999136,0.0417981659069145,0.351147281757298,0.290279932018192,0.290026629342473,0.04,0.0735166484262653,138.475505915496,0.324856290743545,0.31321053086431
3340,0.254992386895121,-0.0133226720068933,-0.0700233513281062,-0.0815356232624396,-0.195629592901326,0.254993980999136,0.0417981659069145,0.351147281757298,0.288135708718632,0.287882325113741,0.04,0.073822369195007,137.45249584836,0.323228869294425,0.312461967735618
3400,0.25499238689512,-0.0133226720068933,-0.0700233513281062,-0.0815356232624396,-0.195629592901326,0.254993980999136,0.0417981659069145,0.351147281757298,0.285991338713831,0.285738020885009,0.04,0.0741327028575883,136.429415801268,0.321601540227639,0.311705579172533
3460,0.25499238689512,-0.0133226720068933,-0.0700233513281062,-0.0815356232624396,-0.195629592901326,0.254993980999136,0.0417981659069145,0.351147281757298,0.283846837714475,0.283593716656276,0.04,0.0744464216231523,135.40627346327,0.319975137453597,0.31094045372438
3520,0.25499238689512,-0.0133226720068933,-0.0700233513281062,-0.0815356232624395,-0.195629592901326,0.254993980999136,0.0417981659069145,0.351147281757298,0.281702237342602,0.281449412427544,0.04,0.0747629770294494,134.383084042993,0.318350323842813,0.310165853436033
3580,0.254992386895121,-0.0133226720068933,-0.0700233513281062,-0.0815356232624396,-0.195629592901326,0.254993980999136,0.0417981659069145,0.351147281757298,0.279557567973517,0.279305108198812,0.04,0.0750821716364934,133.359861765033,0.316727573391139,0.309381214146182
3640,0.239239211340871,-0.0230347059128854,-0.0800914116672645,-0.0740818194756734,-0.205814988414162,0.24940905633195,0.0389418261416428,0.325068375434528,0.279159307551284,0.278590340122568,0.04,0.0684030360077645,133.19838391259,0.315488835777057,0.310219887800321
3700,0.215609448009497,-0.0376027567718735,-0.0951935021760019,-0.0629011137955241,-0.221093081683417,0.24103166933117,0.0346573164937351,0.285950015950373,0.279621754239365,0.278590340122568,0.04,0.0590534279656014,133.408468910151,0.309730803682028,0.316485397590877
