time,bias_percent_1,bias_percent_2,bias_percent_3,bias_percent_4,bias_percent_5,bias_percent_6,bias_percent_8,bias_percent_9,normalized_power,power_SP,SP,CV,total_power_MW,fuel_fraction,thermal_efficiency
36,0,0,0,0,0,0,0,0,0.999680269734387,1,0.04,0.0399588086923702,476.953847257685,0.999739683797962,0.350545261720938
96,-0.00285909642016043,0.0111804082549469,0.00715893169291883,-0.00619497256511602,0.00292489604443347,0.0181585659541995,0.0058421658947799,-0.000639875998648506,0.99724081016154,0.996341989183719,0.04,0.0415829658101856,475.73925723717,0.99678714380732,0.350688269078018
156,-0.00762425712042773,0.0298144220131916,0.0190904845144504,-0.0165199268403093,0.00779972278515584,0.0484228425445319,0.0155791090527466,-0.00170633599639604,0.991261401893684,0.990245304489917,0.04,0.0441504072858028,472.881749494626,0.990344753269966,0.350849469569506
216,-0.0123894178206951,0.0484484357714363,0.0310220373359818,-0.0268448811155026,0.0126745495258783,0.0786871191348642,0.0253160522107132,-0.00277279599414356,0.985073453385397,0.984148619796115,0.04,0.0460596683346067,469.929370001736,0.984299137488992,0.350800465082173
276,-0.0171545785209626,0.0670824495296808,0.0429535901575132,-0.037169835390696,0.0175493762666006,0.108951395725196,0.0350529953686797,-0.00383925599189098,0.978812905023027,0.978051935102313,0.04,0.0474875763150949,466.986216407385,0.978840715993064,0.350547369356995
336,-0.02191973922123,0.0857164632879254,0.0548851429790446,-0.0474947896658892,0.0224242030073229,0.139215672315529,0.0447899385266463,-0.00490571598963857,0.972761788506091,0.971955250408512,0.04,0.0485940553728956,464.055855097226,0.973526985273598,0.350249027942497
396,-0.0266848999214974,0.10435047704617,0.0668166958005761,-0.0578197439410826,0.0272990297480453,0.169479948905861,0.0545268816846129,-0.00597217598738604,0.966634028700006,0.96585856571471,0.04,0.0494717106978597,461.13242603644,0.968513473772165,0.349844194580266
456,-0.0314500606217647,0.122984490804415,0.0787482486221077,-0.0681446982162759,0.0321738564887677,0.199744225496194,0.0642638248425795,-0.00703863598513357,0.960518336038638,0.959761881020908,0.04,0.05017871594294,458.214703392267,0.963635604168846,0.349390312639657
516,-0.0362152213220321,0.14161850456266,0.0906798014436391,-0.0784696524914692,0.0370486832294901,0.230008502086526,0.0740007680005461,-0.0081050959828811,0.954410393157199,0.953665196327106,0.04,0.0507529830720672,455.300654512969,0.958839698451964,0.348904800023566
576,-0.0409803820222994,0.160252518320904,0.102611354265171,-0.0887946067666625,0.0419235099702124,0.260272778676859,0.0837377111585128,-0.00917155598062857,0.948307805512147,0.947568511633304,0.04,0.0512206578956938,452.389144458507,0.954089208043048,0.348399776602597
636,-0.0457455427225669,0.178886532079149,0.114542907086702,-0.0991195610418558,0.0467983367109348,0.290537055267191,0.0934746543164794,-0.0102380159783761,0.942208853165451,0.941471826939502,0.04,0.0516009029875353,449.479357613936,0.949359024645442,0.347883591178835
696,-0.0505107034228342,0.197520545837394,0.126474459908233,-0.109444515317049,0.0516731634516573,0.320801331857523,0.103211597474446,-0.0113044759761236,0.936112196419401,0.935375142245701,0.04,0.0519083011403888,446.570657086402,0.944632782996244,0.347361631723831
756,-0.0552758641231015,0.216154559595638,0.138406012729765,-0.119769469592242,0.0565479901923796,0.351065608447856,0.112948540632413,-0.0123709359738711,0.930016790263786,0.929278457551899,0.04,0.052154248165623,443.662543733659,0.939900977635274,0.346836935113036
816,-0.0600410248233691,0.234788573353883,0.150337565551296,-0.130094423867436,0.061422816933102,0.381329885038188,0.122685483790379,-0.0134373959716186,0.923921818307465,0.923181772858097,0.04,0.052347833296048,440.754633206302,0.935159443097448,0.346310691001076
876,-0.0648061855236364,0.253422587112128,0.162269118372828,-0.140419378142629,0.0662976436738244,0.41159416162852,0.132422426948346,-0.0145038559693661,0.917826672105343,0.917085088164295,0.04,0.0524964141173652,437.846637742768,0.930408050208621,0.345782679972074
936,-0.0667122498037433,0.260876192615426,0.16704173950144,-0.144549359852706,0.0682475743701134,0.423699872264653,0.136317204211532,-0.0149304399684651,0.914387014039712,0.914646414286775,0.04,0.050762507544153,436.250197083963,0.929326048368873,0.344923037638833
996,-0.0667122498037434,0.260876192615426,0.16704173950144,-0.144549359852706,0.0682475743701133,0.423699872264653,0.136317204211532,-0.0149304399684651,0.914310279660126,0.914646414286775,0.04,0.0480905446002752,436.218313493281,0.931466022439482,0.344105451575204
1056,-0.0667122498037434,0.260876192615426,0.16704173950144,-0.144549359852706,0.0682475743701133,0.423699872264654,0.136317204211532,-0.0149304399684651,0.914429250908098,0.914646414286775,0.04,0.0461793758239614,436.275091359674,0.933007575344662,0.343581621131147
1116,-0.0667122498037434,0.260876192615426,0.16704173950144,-0.144549359852706,0.0682475743701133,0.423699872264654,0.136317204211532,-0.0149304399684651,0.914516436515757,0.914646414286775,0.04,0.044804746183994,436.31633900634,0.933945122533974,0.343269165703845
1176,-0.0667122498037434,0.260876192615425,0.16704173950144,-0.144549359852706,0.0682475743701133,0.423699872264654,0.136317204211532,-0.0149304399684651,0.914571430141771,0.914646414286775,0.04,0.0437775455856709,436.34238818959,0.934494867527704,0.343087709166006
1236,-0.0667122498037434,0.260876192615426,0.16704173950144,-0.144549359852706,0.0682475743701134,0.423699872264653,0.136317204211532,-0.0149304399684651,0.914606640813017,0.914646414286775,0.04,0.0429882625512434,436.359037551446,0.934797250453568,0.342989815936392
1296,-0.0667122498037434,0.260876192615426,0.16704173950144,-0.144549359852706,0.0682475743701133,0.423699872264653,0.136317204211532,-0.00804484547600084,0.914405120686382,0.914646414286775,0.04,0.0425139880534744,436.261851226698,0.935810599645316,0.342542098647437
