time,bias_percent_1,bias_percent_2,bias_percent_3,bias_percent_4,bias_percent_5,bias_percent_6,bias_percent_8,bias_percent_9,normalized_power,power_SP,SP,CV,total_power_MW,fuel_fraction,thermal_efficiency
59,0,0,0,0,0,0,0,0,0.999859575568599,1,0.04,0.0399010929494848,477.03536996029,1.00006939340178,0.350489588330794
119,0.0136271659579467,-0.00014577820656018,-0.0340405163514138,-0.0260622956614814,0.0335365023207647,0.0122226573644645,-0.0213434247216912,-0.00412931592045794,0.985520696886921,0.978236964509226,0.04,0.0450566442290661,470.030035579926,0.962667021182788,0.358760146773197
179,0.0274853008304348,-0.000294027230180632,-0.068657990607089,-0.0525663251477334,0.0676414199351017,0.0246524784130725,-0.0430486024047671,-0.00832862024634738,0.963807452159926,0.956105064010133,0.04,0.04912162664156,459.654088655667,0.91521114549334,0.369032404952283
239,0.0413434357029229,-0.000442276253801083,-0.103275464862764,-0.0790703546339856,0.101746337549439,0.0370822994616804,-0.0647537800878429,-0.0125279245722368,0.941198076694787,0.933973163511041,0.04,0.0505227432116956,448.865037691629,0.869684316929997,0.379235353740993
299,0.055201570575411,-0.00059052527742142,-0.137892939118439,-0.105574384120238,0.135851255163776,0.0495121205102885,-0.0864589577709187,-0.0167272288981262,0.918467210536171,0.911841263011949,0.04,0.0500851458183151,438.019901308312,0.827581342948139,0.388899896834228
359,0.0690597054478991,-0.000738774301041872,-0.172510413374114,-0.13207841360649,0.169956172778113,0.0619419415588964,-0.108164135453995,-0.0209265332240156,0.895884151370887,0.889709362512856,0.04,0.0486290647180892,427.234874447363,0.788792769841548,0.397977437449567
419,0.0829178403203872,-0.000887023324662209,-0.207127887629789,-0.158582443092742,0.20406109039245,0.0743717626075044,-0.12986931313707,-0.025125837549905,0.873470434953888,0.867577462013764,0.04,0.046716382343308,416.544302528166,0.752504757794074,0.406730391475353
479,0.0967759751928753,-0.00103527234828266,-0.241745361885464,-0.185086472578994,0.238166008006787,0.0868015836561124,-0.151574490820146,-0.0293251418757945,0.850787316575072,0.845445561514671,0.04,0.0447175271498562,405.731706224628,0.71882557323195,0.414734442959052
539,0.110634110065363,-0.00118352137190311,-0.276362836141139,-0.211590502065246,0.272270925621124,0.0992314047047203,-0.173279668503222,-0.0335244462016839,0.828291192405213,0.823313661015579,0.04,0.0426066026221226,395.119183774982,0.687470295914966,0.422307558257894
