time,bias_percent_1,bias_percent_2,bias_percent_3,bias_percent_4,bias_percent_5,bias_percent_6,bias_percent_8,bias_percent_9,normalized_power,power_SP,SP,CV,total_power_MW,fuel_fraction,thermal_efficiency
2,0,0,0,0,0,0,0,0,1.00591532894638,1,0.04,0.0415824002451904,479.848782055956,0.991787018211258,0.35550085839512
62,-0.000694193455674508,0.000535023260805133,-0.000403490920425497,-0.000434905462992674,8.97686187670388e-06,0.000119412124131827,0.000854854391455092,0.000246773517430029,0.999873670444427,0.999955528265489,0.04,0.03992516238627,477.04035515153,1.00004703583855,0.350501086879549
122,-0.0215199971259126,0.01658572108496,-0.0125082185331909,-0.0134820693527759,0.000278282718179867,0.00370177584808528,0.026500486135107,0.00764997904033049,0.998732504061683,0.998621376230152,0.04,0.0402306196755873,476.485507281277,0.999660287715071,0.350228861408808
182,-0.0423458007961506,0.0326364189091149,-0.0246129461459561,-0.0265292332425589,0.000547588574482916,0.00728413957203884,0.052146117878759,0.015053184563231,0.997474196608802,0.997287224194816,0.04,0.0405291274757859,475.884799958877,0.998605194202048,0.350156900204014
242,-0.0631716044663887,0.0486871167332697,-0.0367176737587215,-0.039576397132342,0.000816894430785851,0.0108665032959923,0.0777917496224111,0.0224563900861314,0.996192377373691,0.995953072159479,0.04,0.0407786007353091,475.273144751304,0.997203819813876,0.350198287571731
302,-0.0839974081366266,0.0647378145574246,-0.0488224013714869,-0.052623561022125,0.00108620028708901,0.0144488670199457,0.103437381366063,0.0298595956090319,0.994899879109985,0.994618920124143,0.04,0.0409773649952689,474.656415291484,0.995531801068752,0.350331262122889
362,-0.104823211806865,0.0807885123815794,-0.0609271289842521,-0.0656707249119081,0.00135550614339195,0.0180312307438992,0.129083013109715,0.0372628011319324,0.99359774489212,0.993284768088806,0.04,0.0411299351393799,474.035093157002,0.993648200484181,0.350535913908315
422,-0.125649015477103,0.0968392102057342,-0.0730318565970175,-0.0787178888016913,0.00162481199969511,0.0216135944678526,0.154728644853367,0.0446660066548328,0.992286746650937,0.99195061605347,0.04,0.0412416853169776,473.409548986322,0.991608001447353,0.350793604944408
482,-0.146474819147341,0.112889908029889,-0.0851365842097828,-0.0917650526914743,0.00189411785599816,0.0251959581918061,0.180374276597019,0.0520692121777333,0.990967962193898,0.990616464018133,0.04,0.0413182834015847,472.780299811061,0.98946019720195,0.351087784647131
542,-0.167300622817579,0.128940605854044,-0.0972413118225481,-0.104812216581257,0.0021634237123011,0.0287783219157595,0.206019908340671,0.0594724177006337,0.989642471206673,0.989282311982797,0.04,0.0413652514176036,472.147858626955,0.987247186025668,0.351404077160764
602,-0.188126426487817,0.144991303678199,-0.109346039435313,-0.11785938047104,0.00243272956860426,0.0323606856397131,0.231665540084323,0.0668756232235343,0.988311214074157,0.98794815994746,0.04,0.0413876029538649,471.512673630799,0.985005421562378,0.351730011193466
662,-0.208952230158055,0.161042001502354,-0.121450767048079,-0.130906544360824,0.00270203542490719,0.0359430493636665,0.257311171827975,0.0742788287464347,0.986975021133706,0.986614007912124,0.04,0.0413896899543629,470.875139826804,0.982766180124926,0.352054772253292
722,-0.229778033828293,0.177092699326509,-0.133555494660844,-0.143953708250607,0.00297134128121036,0.03952541308762,0.282956803571627,0.0816820342693352,0.98563463608395,0.985279855876787,0.04,0.0413752085883862,470.235611194196,0.980556081328669,0.352369048869773
782,-0.250603837498531,0.193143397150664,-0.145660222273609,-0.15700087214039,0.00324064713751341,0.0431077768115736,0.308602435315279,0.0890852397922356,0.98429055244854,0.983945703841451,0.04,0.0413471616910414,469.594319938158,0.978398119922939,0.352664627621144
842,-0.271429641168769,0.209194094974818,-0.157764949886375,-0.170048036030173,0.00350995299381646,0.046690140535527,0.334248067058931,0.0964884453151361,0.982942650327267,0.982611551806114,0.04,0.0413076564046459,468.95120195323,0.976314563745466,0.352933239013546
902,-0.291561251383332,0.224709769538168,-0.169466186578715,-0.182660294456963,0.00377028198824269,0.0501530921353486,0.359038844411128,0.103644877320607,0.981590301002244,0.981321871505289,0.04,0.0412271614982944,468.307503630241,0.974380266503032,0.353148456861169
962,-0.291561251383332,0.224709769538168,-0.169466186578715,-0.182660294456963,0.00377028198824269,0.0501530921353487,0.359038844411128,0.103644877320607,0.981297867156381,0.981321871505289,0.04,0.0407587906553688,468.176164902388,0.973995877539008,0.353188746444408
1022,-0.291561251383332,0.224709769538168,-0.169466186578715,-0.182660294456963,0.00377028198824269,0.0501530921353487,0.359038844411128,0.103644877320607,0.981217539242295,0.981321871505289,0.04,0.0403722743885621,468.138461719476,0.974498250581539,0.352978242340695
1082,-0.291561251383332,0.224709769538168,-0.169466186578715,-0.182660294456963,0.00377028198824269,0.0501530921353486,0.359038844411128,0.103644877320607,0.981181441407521,0.981321871505289,0.04,0.0401096205214952,468.121600309582,0.97528341044022,0.352681370995478
