time,bias_percent_1,bias_percent_2,bias_percent_3,bias_percent_4,bias_percent_5,bias_percent_6,bias_percent_8,bias_percent_9,normalized_power,power_SP,SP,CV,total_power_MW,fuel_fraction,thermal_efficiency
51,0,0,0,0,0,0,0,0,0.999813287560987,1,0.04,0.0399132216256095,477.014056471665,0.999983365629477,0.350504079780752
111,0.0181663316076107,0.00836374993183881,0.0132566714522567,0.00459377981595469,0.0207530809532119,-0.0118926879865328,0.0229315487225794,0.0299106413922165,0.984721618024251,0.979550463812776,0.04,0.047212583748393,469.63230128102,0.975724720112357,0.353659499729499
171,0.0395384864400937,0.0182034557340019,0.0288527555137351,0.00999822665825411,0.0451684703099315,-0.025884085617748,0.0499098413373787,0.0650996312654123,0.96087602588348,0.955492185945453,0.04,0.0548806881582207,458.370301056661,0.941063460749856,0.35789220218687
231,0.0609106412725769,0.0280431615361651,0.0444488395752136,0.0154026735005538,0.0695838596666513,-0.0398754832489632,0.076888133952178,0.100288621138608,0.936880386574632,0.931433908078131,0.04,0.0603494948501567,446.792326554181,0.90641436945955,0.36218761886427
291,0.0822827961050598,0.0378828673383282,0.0600449236366919,0.0208071203428531,0.0939992490233709,-0.0538668808801784,0.103866426566977,0.135477611011804,0.912583512693053,0.907375630210808,0.04,0.0641994084242245,435.200524413381,0.87349043950454,0.366088368366994
351,0.103654950937543,0.0477225731404915,0.0756410076981704,0.0262115671851527,0.118414638380091,-0.0678582785113934,0.130844719181777,0.170666600885,0.888447278162991,0.883317352343485,0.04,0.0670348510864436,423.687164905456,0.841493875720092,0.369955104956031
411,0.125027105770026,0.0575622789426546,0.0912370917596488,0.0316160140274524,0.14283002773681,-0.0818496761426086,0.157823011796576,0.205855590758196,0.864437499839677,0.859259074476163,0.04,0.0693299377603893,412.232179151809,0.80932346443999,0.37426088005045
471,0.146399260602509,0.0674019847448178,0.106833175821127,0.0370204608697517,0.16724541709353,-0.0958410737738238,0.184801304411375,0.241044580631391,0.840404530689156,0.83520079660884,0.04,0.071145465618099,400.765726799788,0.776929490419926,0.379021323346602
531,0.167771415434992,0.0772416905469811,0.122429259882606,0.0424249077120513,0.19166080645025,-0.109832471405039,0.211779597026174,0.276233570504587,0.816198486728665,0.811142518741517,0.04,0.0725736547038311,389.208401353183,0.744755009273994,0.383993125630633
591,0.189143570267475,0.0870813963491441,0.138025343944084,0.0478293545543509,0.21607619580697,-0.123823869036254,0.238757889640974,0.311422560377783,0.790389318096602,0.787084240874195,0.04,0.0746585865687563,376.889920238498,0.719918858329636,0.384667636250529
651,0.210515725099958,0.0969211021513073,0.153621428005562,0.0532338013966503,0.240491585163689,-0.137815266667469,0.265736182255773,0.346611550250979,0.76507254202293,0.763025963006872,0.04,0.0771443337471917,364.818373486563,0.704311642796785,0.380598008391262
711,0.231887879932441,0.106760807953471,0.169217512067041,0.0586382482389499,0.264906974520409,-0.151806664298684,0.292714474870572,0.381800540124175,0.740530260690582,0.73896768513955,0.04,0.0804923528107521,353.113964429959,0.693038422969763,0.374379668911069
771,0.253260034764925,0.116600513755634,0.184813596128519,0.0640426950812494,0.289322363877129,-0.165798061929899,0.319692767485372,0.416989529997371,0.716402764618887,0.714909407272227,0.04,0.0846975017752691,341.604763761983,0.682860623790559,0.367575472552541
831,0.274632189597408,0.126440219557797,0.200409680189998,0.069447141923549,0.313737753233849,-0.179789459561115,0.346671060100171,0.452178519870567,0.692426806651587,0.690851129404904,0.04,0.0894555630735505,330.166378878278,0.672406209927396,0.360791092859199
891,0.296004344429891,0.13627992535996,0.216005764251476,0.0748515887658485,0.338153142590568,-0.19378085719233,0.37364935271497,0.487367509743762,0.668476276186807,0.666792851537582,0.04,0.0944674975582418,318.739542331887,0.661320857425208,0.354142787088323
951,0.299210167654763,0.137755881230285,0.218345176860698,0.0756622557921935,0.341815450994076,-0.195879566837012,0.37769609660719,0.492645858224742,0.657636886688066,0.663184109857483,0.04,0.0893627264071276,313.743799223685,0.683096372391329,0.337479850877076
1011,0.299210167654763,0.137755881230285,0.218345176860698,0.0756622557921934,0.341815450994076,-0.195879566837012,0.37769609660719,0.492645858224742,0.658148232137858,0.663184109857483,0.04,0.0829784480924663,314.016275387844,0.716097431911018,0.322206812119972
1071,0.299210167654763,0.137755881230285,0.218345176860698,0.0756622557921935,0.341815450994076,-0.195879566837012,0.37769609660719,0.492645858224742,0.659898257587428,0.663184109857483,0.04,0.0805946487428611,314.849868862488,0.739297590767721,0.312924020945843
1131,0.299210167654763,0.137755881230285,0.218345176860698,0.0756622557921934,0.341815450994076,-0.195879566837012,0.37769609660719,0.492645858224742,0.661162395629908,0.663184109857483,0.04,0.0803292440508032,315.448319148836,0.753722038112115,0.307518806239199
1191,0.299210167654763,0.137755881230285,0.218345176860698,0.0756622557921935,0.341815450994077,-0.195879566837012,0.37769609660719,0.492645858224742,0.661918671440501,0.663184109857483,0.04,0.0807081684746818,315.805911824536,0.762661716114746,0.304258686172493
1251,0.299210167654763,0.137755881230285,0.218345176860698,0.0756622557921934,0.341815450994077,-0.195879566837012,0.37769609660719,0.492645858224742,0.662362403115009,0.663184109857483,0.04,0.0811459257695314,316.015798279475,0.768387403939762,0.30219218844133
1311,0.299210167654763,0.137755881230285,0.218345176860698,0.0756622557921935,0.341815450994076,-0.195879566837012,0.37769609660719,0.492645858224742,0.66263379108915,0.663184109857483,0.04,0.0814885334332861,316.144281481623,0.772183169625274,0.300828982832093
1371,0.299210167654763,0.137755881230285,0.218345176860698,0.0756622557921935,0.341815450994077,-0.195879566837012,0.37769609660719,0.492645858224742,0.662808944322836,0.663184109857483,0.04,0.0817283038321515,316.227271739622,0.774757105040104,0.299908261797778
1431,0.299210167654763,0.137755881230285,0.218345176860698,0.0756622557921935,0.341815450994077,-0.195879566837012,0.37769609660719,0.492645858224742,0.662926471284635,0.663184109857483,0.04,0.0818906829955761,316.282983891489,0.776521252365669,0.29927962937934
1491,0.299210167654763,0.137755881230285,0.218345176860698,0.0756622557921935,0.341815450994077,-0.195879566837012,0.37769609660719,0.492645858224742,0.663006854526503,0.663184109857483,0.04,0.0820002633173414,316.321095599098,0.77773453171811,0.298848754534968
1551,0.299210167654763,0.137755881230285,0.218345176860698,0.0756622557921935,0.341815450994076,-0.195879566837012,0.37769609660719,0.492645858224742,0.663062161322478,0.663184109857483,0.04,0.0820745816161753,316.347318830112,0.778569305018257,0.298553080442126
1611,0.299210167654763,0.137755881230285,0.218345176860698,0.0756622557921934,0.341815450994076,-0.195879566837012,0.37769609660719,0.492645858224742,0.663100216818915,0.663184109857483,0.04,0.0821252273631894,316.365362095554,0.779143567982769,0.29835004953246
1671,0.299210167654763,0.137755881230285,0.218345176860698,0.0756622557921935,0.341815450994077,-0.195879566837012,0.37769609660719,0.492645858224742,0.663126362351063,0.663184109857483,0.04,0.0821598176984114,316.377758147679,0.779538746979163,0.298210488339414
1731,0.299210167654763,0.137755881230285,0.218345176860698,0.0756622557921934,0.341815450994077,-0.195879566837012,0.37769609660719,0.492645858224742,0.663144301588094,0.663184109857483,0.04,0.0821834382744394,316.386263340354,0.779810998077866,0.298114389764316
1791,0.299210167654763,0.137755881230285,0.218345176860698,0.0756622557921935,0.341815450994076,-0.195879566837012,0.37769609660719,0.492645858224742,0.663156601454014,0.663184109857483,0.04,0.0821995373393064,316.392094789924,0.779998947217285,0.298048049243186
1851,0.270181659234553,0.144236771401842,0.191934050063596,0.0836432870362252,0.334203804022921,-0.204211111306289,0.345784084918853,0.481507801741523,0.66355990197605,0.661482815545979,0.04,0.080876978485248,316.578568928144,0.771951255014929,0.301332732798572
1911,0.236030472857836,0.151861348074263,0.160862136184653,0.0930327355586153,0.325248925233326,-0.214012928328967,0.308240541756104,0.468404205878912,0.662085496526394,0.659481292826561,0.04,0.0796508245617263,315.865568912411,0.756714565347373,0.306707835338284
1971,0.201879286481118,0.159485924746683,0.12979022230571,0.102422184081005,0.316294046443732,-0.223814745351645,0.270696998593355,0.455300610016301,0.660021163731031,0.657479770107144,0.04,0.0776299676658343,314.879277974251,0.741153658928454,0.312169522590466
2031,0.167728100104401,0.167110501419103,0.0987183084267666,0.111811632603396,0.307339167654137,-0.233616562374324,0.233153455430606,0.44219701415369,0.657922690120084,0.655478247387726,0.04,0.0748626336589788,313.878429241738,0.726210449327165,0.317580372113797
2091,0.133576913727683,0.174735078091524,0.0676463945478233,0.121201081125786,0.298384288864543,-0.243418379397002,0.195609912267857,0.42909341829108,0.655870817109486,0.653476724668309,0.04,0.071559292749543,312.899785948794,0.711661909041111,0.323062255656926
2151,0.0994257273509657,0.182359654763944,0.03657448066888,0.130590529648176,0.289429410074948,-0.25322019641968,0.158066369105108,0.415989822428469,0.653846929522425,0.651475201948891,0.04,0.0678319165620456,311.935329616218,0.697316318104162,0.328692211482864
2211,0.0652745409742481,0.189984231436365,0.00550256678993685,0.139979978170566,0.280474531285353,-0.263022013442359,0.120522825942359,0.402886226565858,0.651821543835192,0.649473679229474,0.04,0.0637398483929164,310.967507885782,0.683113134975759,0.334485313326194
2271,0.0311233545975306,0.197608808108785,-0.0255693470890066,0.149369426692956,0.271519652495759,-0.272823830465037,0.0829792827796098,0.389782630703247,0.649784683962043,0.647472156510056,0.04,0.0592887199921973,309.996019289313,0.669082537779482,0.340432565630875
2331,-0.00302783177918695,0.205233384781206,-0.0566412609679497,0.158758875215347,0.262564773706164,-0.282625647487715,0.0454357396168607,0.376679034840637,0.64773630091761,0.645470633790639,0.04,0.0544902369956781,309.024942953285,0.655276882739914,0.346516057288669
