time,bias_percent_1,bias_percent_2,bias_percent_3,bias_percent_4,bias_percent_5,bias_percent_6,bias_percent_8,bias_percent_9,normalized_power,power_SP,SP,CV,total_power_MW,fuel_fraction,thermal_efficiency
40,0,0,0,0,0,0,0,0,0.999725470195932,1,0.04,0.0399438939341234,476.973247082186,0.999814940047433,0.350533133270834
100,0.0146128672151533,0.0156691242394718,-0.023061628740825,0.00976709269016703,0.00831969838624366,-0.000745158943107526,-0.0216754926188569,0.0196652771644767,0.998531030934879,0.998184283452277,0.04,0.0408335811702469,476.378550391439,0.998609395127333,0.350518728109426
160,0.0365321680378833,0.0391728105986793,-0.0576540718520622,0.0244177317254173,0.020799245965609,-0.00186289735776893,-0.0541887315471421,0.0491631929111917,0.995810380856779,0.995460708630694,0.04,0.042141105423436,475.079052842962,0.996294299140639,0.35037484042401
220,0.0584514688606132,0.0626764969578868,-0.0922465149632994,0.0390683707606677,0.0332787935449745,-0.00298063577243022,-0.0867019704754275,0.0786611086579068,0.993034303991873,0.99273713380911,0.04,0.0431413665425206,473.754651393289,0.994272343751828,0.350108620144211
280,0.0803707696833429,0.0861801833170944,-0.126838958074537,0.0537190097959181,0.0457583411243398,-0.00409837418709162,-0.119215209403713,0.108159024404622,0.990275103592065,0.990013558987526,0.04,0.0439172954918315,472.438382664311,0.992503134397308,0.349758246854398
340,0.102290070506073,0.109683869676302,-0.161431401185774,0.0683696488311683,0.0582378887037053,-0.00521611260175291,-0.151728448331998,0.137656940151337,0.987531326267226,0.987289984165942,0.04,0.0445354619041143,471.1294234255,0.990883608736849,0.349359260797333
400,0.124209371328803,0.13318755603551,-0.196023844297011,0.0830202878664188,0.0707174362830707,-0.0063338510164142,-0.184241687260283,0.167154855898052,0.984797987815791,0.984566409344358,0.04,0.0450351881185212,469.825756486368,0.989348352790034,0.348933175623521
460,0.146128672151533,0.156691242394717,-0.230616287408249,0.097670926901669,0.0831969838624361,-0.0074515894310756,-0.216754926188569,0.196652771644767,0.982069272125973,0.981842834522774,0.04,0.0454442359030362,468.523569936642,0.987843923071379,0.348495991829235
520,0.168047972974263,0.180194928753925,-0.265208730519486,0.112321565936919,0.0956765314418016,-0.00856932784573701,-0.249268165116854,0.226150687391482,0.979406159376692,0.97911925970119,0.04,0.0458033509837626,467.254174867189,0.986201032982655,0.348130772372075
580,0.189967273796993,0.203698615113132,-0.299801173630723,0.12697220497217,0.108156079021167,-0.0096870662603983,-0.281781404045139,0.255648603138197,0.976844819805967,0.976395684879606,0.04,0.0462253480781981,466.032302584174,0.983710322668106,0.348099554918449
640,0.211886574619723,0.22720230147234,-0.334393616741961,0.14162284400742,0.120635626600532,-0.0108048046750596,-0.314294642973425,0.285146518884912,0.974271463690464,0.973672110058022,0.04,0.0466710941894202,464.804332562967,0.980271836990695,0.348400137896678
700,0.233805875442452,0.250705987831547,-0.368986059853198,0.156273483042671,0.133115174179898,-0.011922543089721,-0.330092745934551,0.314644434631627,0.971160217771558,0.970948535236439,0.04,0.0474158828339757,463.309225964463,0.977013289191105,0.348437712391419
760,0.255725176265183,0.274209674190755,-0.403578502964435,0.170924122077921,0.145594721759263,-0.0130402815043823,-0.31177871922847,0.344142350378342,0.96793995389494,0.968224960414855,0.04,0.048382168634295,461.781523523426,0.97807851961195,0.346910549929418
820,0.277644477087912,0.297713360549963,-0.438170946075673,0.185574761113171,0.158074269338629,-0.0141580199190436,-0.291299066777423,0.373640266125057,0.965203505414688,0.965501385593271,0.04,0.0494485250701756,460.47734993305,0.979787351677576,0.345327464894212
880,0.299563777910642,0.32121704690917,-0.47276338918691,0.200225400148422,0.170553816917994,-0.015275758333705,-0.268286012553195,0.403138181871772,0.962552288086928,0.962777810771687,0.04,0.0506527035560094,459.212708551621,0.981168263719269,0.343894383097871
940,0.306870211518219,0.329051609028906,-0.484294203557322,0.205108946493505,0.174713666111116,-0.0156483378052587,-0.242703316423453,0.412970820454011,0.961770821190854,0.961869952497826,0.04,0.0505498304493534,458.863359695236,0.982325379963606,0.343227986019571
1000,0.306870211518219,0.329051609028906,-0.484294203557323,0.205108946493505,0.174713666111116,-0.0156483378052587,-0.216334099239057,0.412970820454011,0.961989619747007,0.961869952497826,0.04,0.0499215613660201,458.966420251177,0.981973452193985,0.34342811142245
1060,0.306870211518219,0.329051609028906,-0.484294203557323,0.205108946493505,0.174713666111116,-0.0156483378052588,-0.190446394661629,0.412970820454011,0.962097863336359,0.961869952497826,0.04,0.0493467872441722,459.017493529825,0.980792267768115,0.343879969930967
1120,0.306870211518219,0.329051609028906,-0.484294203557322,0.205108946493505,0.174713666111116,-0.0156483378052587,-0.165575451724323,0.412970820454011,0.962152634166021,0.961869952497826,0.04,0.0487703745307815,459.043310820549,0.979188797667842,0.344462463485154
1180,0.306870211518219,0.329051609028906,-0.484294203557323,0.205108946493505,0.174713666111116,-0.0156483378052588,-0.141977802011098,0.412970820454011,0.962176369701114,0.961869952497826,0.04,0.0481879219536828,459.054444413239,0.97738699072534,0.345105847892167
1240,0.306870211518219,0.329051609028906,-0.484294203557322,0.205108946493505,0.174713666111116,-0.0156483378052587,-0.11978033352853,0.412970820454011,0.962180974950203,0.961869952497826,0.04,0.0476075346362731,459.056524431311,0.975522875507386,0.345766873302645
1300,0.306870211518219,0.329051609028906,-0.484294203557323,0.205108946493505,0.174713666111116,-0.0156483378052587,-0.0990370441580369,0.412970820454011,0.962173805370619,0.961869952497826,0.04,0.0470389026369781,459.053031940898,0.973680555372038,0.346418470043359
1360,0.306870211518219,0.329051609028906,-0.484294203557323,0.205108946493505,0.174713666111116,-0.0156483378052588,-0.079754699055071,0.412970820454011,0.962159663531594,0.961869952497826,0.04,0.0464901398187619,459.046244829504,0.971910727736727,0.347044159174094
1420,0.306870211518219,0.329051609028906,-0.484294203557323,0.205108946493505,0.174713666111116,-0.0156483378052587,-0.0619073373378007,0.412970820454011,0.962141731683009,0.961869952497826,0.04,0.0459671057194518,459.03766770684,0.970242003834885,0.347634546542828
1480,0.306870211518219,0.329051609028906,-0.484294203557322,0.205108946493505,0.174713666111116,-0.0156483378052587,-0.0454461753197181,0.412970820454011,0.962122098299528,0.961869952497826,0.04,0.045473548591843,459.028294721321,0.968688421063691,0.348184973274807
1540,0.306870211518219,0.329051609028906,-0.484294203557322,0.205108946493505,0.174713666111116,-0.0156483378052587,-0.0303070632741944,0.412970820454011,0.962102111221276,0.961869952497826,0.04,0.0450114807790059,459.018758810297,0.967254559117022,0.348693880082224
1600,0.306870211518219,0.329051609028906,-0.484294203557323,0.205108946493505,0.174713666111116,-0.0156483378052588,-0.0164691779782476,0.412970820454011,0.962082009362727,0.961869952497826,0.04,0.0445830418113665,459.008917482608,0.965939769223322,0.349161018963214
