time,bias_percent_1,bias_percent_2,bias_percent_3,bias_percent_4,bias_percent_5,bias_percent_6,bias_percent_8,bias_percent_9,normalized_power,power_SP,SP,CV,total_power_MW,fuel_fraction,thermal_efficiency
23,0,0,0,0,0,0,0,0,0.99951704944427,1,0.04,0.0400234542933021,476.887208672833,0.999382215275805,0.350621653410659
83,0.00551894519735151,0.00858162386657602,0.00377016581660575,0.00787338898866335,-0.00501162188050739,0.0115652608064305,0.0136768944557638,0.00890239803517721,0.99414331399155,0.990092507349032,0.04,0.0433598460355029,474.1413890114,0.989675730622017,0.352021852079114
143,0.0199161935382687,0.0309684687359045,0.0136053809903598,0.0284126646112633,-0.0180854180905268,0.0417355063884231,0.0493557495577564,0.0321260450834657,0.970281316306794,0.964246874346506,0.04,0.0528444638584151,462.717283562744,0.953779304101997,0.356469603833935
203,0.0343134418791857,0.0533553136052332,0.0234405961641138,0.0489519402338632,-0.0311592143005462,0.0719057519704157,0.085034604659749,0.0553496921317541,0.944277126698466,0.93840124134398,0.04,0.0599410533611519,450.306271034196,0.916720156637455,0.360932417762253
263,0.0487106902201029,0.0757421584745619,0.0332758113378679,0.0694912158564631,-0.0442330105105655,0.102075997552408,0.120713459761742,0.0785733391800426,0.918095446022538,0.912555608341454,0.04,0.0649313320460751,437.815375791985,0.881523618715017,0.36493182000234
323,0.0631079385610199,0.0981290033438904,0.0431110265116218,0.090030491479063,-0.0573068067205849,0.132246243134401,0.156392314863734,0.101796986228331,0.892076825485919,0.886709975338928,0.04,0.0685643218556766,425.404157555725,0.847845345647026,0.36867166975304
383,0.0775051869019371,0.120515848213219,0.052946241685376,0.110569767101663,-0.0703806029306041,0.162416488716394,0.192071169965727,0.125020633276619,0.866247297131552,0.860864342336402,0.04,0.0714886104958512,413.081325056686,0.814313810256638,0.372733508684249
443,0.0919024352428542,0.142902693082548,0.0627814568591301,0.131109042724263,-0.0834543991406235,0.192586734298386,0.227750025067719,0.148244280324908,0.840431038580511,0.835018709333875,0.04,0.0738729803938999,400.764318810728,0.780603434777793,0.377236117509397
503,0.106299683583771,0.165289537951876,0.0726166720328841,0.151648318346863,-0.0965281953506429,0.222756979880379,0.263428880169712,0.171467927373196,0.814400577238171,0.809173076331349,0.04,0.0759104173798629,388.334322215504,0.747093581438568,0.381931472817047
563,0.120696931924688,0.187676382821205,0.0824518872066382,0.172187593969463,-0.109601991560662,0.252927225462371,0.299107735271704,0.194691574421485,0.786720754026001,0.783327443328823,0.04,0.0786894049118402,375.125272660587,0.721564322002363,0.381993479010667
623,0.135094180265605,0.210063227690533,0.0922871023803923,0.192726869592063,-0.122675787770682,0.283097471044364,0.334786590373697,0.217915221469773,0.759597828139383,0.757481810326297,0.04,0.0819099309008721,362.191991890855,0.705410006431435,0.377269680352271
683,0.149491428606523,0.232450072559862,0.102122317554146,0.213266145214663,-0.135749583980701,0.313267716626357,0.37046544547569,0.241138868518062,0.733245057487276,0.731636177323771,0.04,0.0860009177549867,349.623838675827,0.693724663822565,0.370312675590177
743,0.16388867694744,0.254836917429191,0.1119575327279,0.233805420837262,-0.14882338019072,0.343437962208349,0.406144300577682,0.26436251556635,0.707324823185227,0.705790544321245,0.04,0.0909499813343555,337.259536398675,0.683214653580753,0.362711848321185
803,0.178285925288357,0.277223762298519,0.121792747901654,0.254344696459862,-0.16189717640074,0.373608207790342,0.441823155679675,0.287586162614639,0.681583032624054,0.679944911318719,0.04,0.0964662954452739,324.978855347703,0.672351950627817,0.355151057157462
863,0.192683173629274,0.299610607167848,0.131627963075408,0.274883972082462,-0.174970972610759,0.403778453372335,0.477502010781668,0.310809809662927,0.655881597946345,0.654099278316193,0.04,0.102253790271653,312.71671435623,0.660661840773856,0.347797573425679
923,0.201561476772839,0.313415828170601,0.137693012432557,0.287549858716399,-0.183033146940271,0.422383438147897,0.499503971427896,0.325131058676038,0.634523034855337,0.638161137964635,0.04,0.103804019674719,302.667794445966,0.661731449460664,0.336077248478231
983,0.201561476772839,0.313415828170601,0.137693012432557,0.287549858716399,-0.183033146940271,0.422383438147897,0.499503971427896,0.325131058676038,0.63215700772733,0.638161137964635,0.04,0.095466428382246,301.609297503117,0.697211523404947,0.317859243127325
1043,0.201561476772839,0.313415828170601,0.137693012432557,0.287549858716399,-0.183033146940271,0.422383438147897,0.499503971427896,0.325131058676038,0.633733805626484,0.638161137964635,0.04,0.0907362599872742,302.3683202816,0.727394684791758,0.305436433792859
1103,0.201561476772839,0.313415828170601,0.137693012432557,0.287549858716399,-0.183033146940271,0.422383438147897,0.499503971427896,0.325131058676038,0.635274445355774,0.638161137964635,0.04,0.0892265240573576,303.099679445861,0.747635416977774,0.297886133043396
1163,0.201561476772839,0.313415828170601,0.137693012432557,0.287549858716399,-0.183033146940271,0.422383438147897,0.499503971427896,0.325131058676038,0.636330240137682,0.638161137964635,0.04,0.089115268413775,303.599819179816,0.760559094974294,0.293307535462845
1223,0.201561476772839,0.313415828170601,0.137693012432557,0.287549858716399,-0.183033146940271,0.422383438147897,0.499503971427896,0.325131058676038,0.637002746675952,0.638161137964635,0.04,0.0894332638419653,303.918176908856,0.768730919904683,0.290493889868513
1283,0.201561476772839,0.313415828170601,0.137693012432557,0.287549858716399,-0.183033146940271,0.422383438147897,0.499503971427896,0.325131058676038,0.637420690767587,0.638161137964635,0.04,0.0897988007618381,304.115992767955,0.773930649919192,0.288729985637004
1343,0.201561476772839,0.313415828170601,0.137693012432557,0.287549858716399,-0.183033146940271,0.422383438147897,0.499503971427896,0.325131058676038,0.637680548517014,0.638161137964635,0.04,0.0900953864908172,304.239006187295,0.777286253626355,0.287599802056073
1403,0.201561476772839,0.313415828170601,0.137693012432557,0.287549858716399,-0.183033146940271,0.422383438147897,0.499503971427896,0.325131058676038,0.637844758899529,0.638161137964635,0.04,0.0903081088876206,304.316767802206,0.779484514792963,0.286862029676034
1463,0.201561476772839,0.313415828170601,0.137693012432557,0.287549858716399,-0.183033146940271,0.422383438147897,0.499503971427896,0.325131058676038,0.637950733853837,0.638161137964635,0.04,0.0904526911320663,304.366969151661,0.780941603703345,0.286374033188197
1523,0.201561476772839,0.313415828170601,0.137693012432557,0.287549858716399,-0.183033146940271,0.422383438147897,0.499503971427896,0.325131058676038,0.638020349748192,0.638161137964635,0.04,0.090548793301657,304.399954849009,0.781914711701442,0.286048632251811
1583,0.201561476772839,0.313415828170601,0.137693012432557,0.287549858716399,-0.183033146940271,0.422383438147897,0.499503971427896,0.325131058676038,0.638066609223146,0.638161137964635,0.04,0.0906122311039905,304.421876812201,0.782567381266641,0.285830647808924
1643,0.201561476772839,0.313415828170601,0.137693012432557,0.287549858716399,-0.183033146940271,0.422383438147897,0.499503971427896,0.325131058676038,0.63809753239267,0.638161137964635,0.04,0.0906540944419683,304.436531945449,0.783006224791992,0.285684203639751
1703,0.201561476772839,0.313415828170601,0.137693012432557,0.287549858716399,-0.183033146940271,0.422383438147897,0.499503971427896,0.325131058676038,0.638118253811003,0.638161137964635,0.04,0.0906817596014887,304.44635246265,0.783301878401164,0.285585585607
1763,0.201561476772839,0.313415828170601,0.137693012432557,0.287549858716399,-0.183033146940271,0.422383438147897,0.499503971427896,0.325131058676038,0.638132147732021,0.638161137964635,0.04,0.0907000528199559,304.452937250054,0.78350153381743,0.28551898667112
1823,0.208137311033501,0.308631539021775,0.143505596534196,0.275100715094489,-0.179700119517526,0.403032749634131,0.498038161653154,0.319709407877739,0.638990959370724,0.639017928702784,0.04,0.0897130867799801,304.8837378703,0.783864622363049,0.285790555342849
1883,0.225291661278704,0.29615078472049,0.158668859408037,0.242624688254723,-0.171005265371234,0.352552692641699,0.49421431006687,0.305565971012612,0.641606538349867,0.641253034976214,0.04,0.0874528253251602,306.130905816107,0.782584702557229,0.287428943441317
1943,0.242446011523907,0.283670030419206,0.173832122281878,0.210148661414957,-0.162310411224943,0.302072635649267,0.490390458480586,0.291422534147484,0.644113868441452,0.643488141249645,0.04,0.0854184586717459,307.326188436116,0.779438939726478,0.289715777726212
2003,0.25960036176911,0.271189276117921,0.18899538515572,0.17767263457519,-0.153615557078651,0.251592578656835,0.486566606894302,0.277279097282357,0.646516148854006,0.645723247523075,0.04,0.0834160544998527,308.471640818211,0.775093365749924,0.292425943755149
2063,0.276754712014313,0.258708521816636,0.204158648029561,0.145196607735424,-0.144920702932359,0.201112521664404,0.482742755308017,0.263135660417229,0.648852077848718,0.647958353796506,0.04,0.0813632672915551,309.585722153945,0.770024906383708,0.295413832435805
2123,0.293909062259516,0.246227767515352,0.219321910903402,0.112720580895658,-0.136225848786068,0.150632464671972,0.478918903721733,0.248992223552102,0.65115100364045,0.650193460069936,0.04,0.0792392064666535,310.682326864937,0.764508918316041,0.298599220347566
2183,0.311063412504719,0.233747013214067,0.234485173777243,0.0802445540558922,-0.127530994639776,0.10015240767954,0.475095052135449,0.234848786686974,0.653429777108203,0.652428566343367,0.04,0.0770456685042496,311.769412548069,0.758695577893952,0.301939984331164
2243,0.328217762749922,0.221266258912782,0.249648436651084,0.0477685272161262,-0.118836140493484,0.0496723506871077,0.471271200549165,0.220705349821847,0.65569716252579,0.654663672616797,0.04,0.0747893566372218,312.851113917052,0.752668266039102,0.305413884117133
2303,0.345372112995125,0.208785504611498,0.264811699524926,0.0152925003763602,-0.110141286347193,-0.000807706305324132,0.467447348962881,0.20656191295672,0.657957695325734,0.656898778890228,0.04,0.0724759627710644,313.929571101429,0.746475966739283,0.309008960494964
2363,0.362526463240329,0.196304750310213,0.279974962398767,-0.0171835264634058,-0.101446432200901,-0.0512877632977559,0.463623497376597,0.192418476091592,0.660211699135308,0.659133885163658,0.04,0.0701090836115311,315.00519943981,0.740145429184986,0.312719769327691
2423,0.379680813485532,0.183823996008928,0.295138225272608,-0.0496595533031718,-0.0927515780546092,-0.101767820290188,0.459799645790313,0.178275039226465,0.662465667401983,0.661368991437089,0.04,0.0676901027922235,316.080304250926,0.733706857761754,0.316540681225533
2483,0.396835163730735,0.171343241707644,0.310301488146449,-0.0821355801429379,-0.0840567239083176,-0.15224787728262,0.455975794204029,0.164131602361337,0.664717543143336,0.663604097710519,0.04,0.0652196872703789,317.154650733583,0.727166149536115,0.320473487682708
2543,0.413989513975938,0.158862487406359,0.32546475102029,-0.114611606982704,-0.075361869762026,-0.202727934275052,0.452151942617744,0.14998816549621,0.66697610194392,0.66583920398395,0.04,0.0626975257169885,318.228254573736,0.720520691457942,0.324524101325766
2603,0.431143864221141,0.146381733105074,0.340628013894132,-0.14708763382247,-0.0666670156157343,-0.253207991267484,0.44832809103146,0.135844728631082,0.66922928363217,0.66807431025738,0.04,0.0601314917974573,319.297395123241,0.713777508935754,0.328690530653582
2663,0.448298214466344,0.13390097880379,0.355791276767973,-0.179563660662236,-0.0579721614694425,-0.303688048259915,0.444504239445176,0.121701291765955,0.671487206270661,0.670309416530811,0.04,0.0574999446429951,320.370043492689,0.706966689681724,0.332971931174786
2723,0.458876730450886,0.126204513651331,0.365141955540175,-0.199590543880092,-0.052610334745896,-0.334817416738582,0.442146197633634,0.112979505699126,0.673091729007037,0.672544522804241,0.04,0.0557190821116142,321.137515004921,0.701331812016616,0.336451276233004
2783,0.458876730450886,0.126204513651331,0.365141955540175,-0.199590543880092,-0.052610334745896,-0.334817416738582,0.442146197633634,0.112979505699126,0.674541940890961,0.674779629077671,0.04,0.0547780472066115,321.839473571423,0.701867047978504,0.336929573577556
2843,0.458876730450887,0.126204513651331,0.365141955540175,-0.199590543880092,-0.052610334745896,-0.334817416738582,0.442146197633634,0.112979505699126,0.67670543653937,0.677014735351102,0.04,0.0540444614650859,322.874150758315,0.703804199360191,0.337082417045596
2903,0.458876730450887,0.126204513651331,0.365141955540175,-0.199590543880092,-0.052610334745896,-0.334817416738582,0.442146197633634,0.112979505699126,0.678972747446552,0.679249841624532,0.04,0.0536673397933709,323.955858970439,0.70564183524998,0.337330953843328
2963,0.458876730450886,0.126204513651331,0.365141955540175,-0.199590543880092,-0.052610334745896,-0.334817416738582,0.442146197633634,0.112979505699126,0.681217177775397,0.681484947897963,0.04,0.0534631013517321,325.026462870744,0.707365615845382,0.33762100042738
