time,bias_percent_1,bias_percent_2,bias_percent_3,bias_percent_4,bias_percent_5,bias_percent_6,bias_percent_8,bias_percent_9,normalized_power,power_SP,SP,CV,total_power_MW,fuel_fraction,thermal_efficiency
30,0,0,0,0,0,0,0,0,0.999606161949866,1,0.04,0.0399956599750085,476.912498100406,0.999593026091111,0.35056629809806
90,-0.0160318569521094,0.0127809343931561,-0.0148292967082382,-0.0146263191425095,-0.0155606387209814,0.0024803105524536,0.0171160764481608,-0.0166699781648157,0.991690680710289,0.98244607419605,0.04,0.0432035854647277,472.933676772755,0.973629332377313,0.356912096536562
150,-0.0480955708563282,0.0383428031794681,-0.0444878901247145,-0.0438789574275286,-0.0466819161629443,0.00744093165736069,0.0513482293444825,-0.050009934494447,0.960177431275067,0.947338222588149,0.04,0.0509795626789202,457.823715392094,0.897716727016977,0.374725842214829
210,-0.0801592847605469,0.0639046719657804,-0.0741464835411906,-0.0731315957125476,-0.077803193604907,0.0124015527622679,0.0855803822408041,-0.0833498908240784,0.924557395175228,0.912230370980248,0.04,0.0545523013331021,440.819866147847,0.820421850096025,0.394801338440238
270,-0.112222998664766,0.0894665407520924,-0.103805076957667,-0.102384233997567,-0.10892447104687,0.0173621738671751,0.119812535137126,-0.11668984715371,0.888453155961371,0.877122519372348,0.04,0.0541290753020454,423.59435554942,0.748638580049499,0.415750362543241
330,-0.144286712568985,0.115028409538404,-0.133463670374143,-0.131636872282586,-0.140045748488833,0.0223227949720822,0.154044688033447,-0.150029803483341,0.852187141492325,0.842014667764447,0.04,0.0507717371828725,406.563836586968,0.683523778893384,0.437048661567974
390,-0.176350426473203,0.140590278324717,-0.16312226379062,-0.160889510567605,-0.171167025930796,0.0272834160769894,0.188276840929769,-0.183369759812972,0.816495003808084,0.806906816156546,0.04,0.0457713803565675,389.376193663135,0.623197289464006,0.459090721924267
