time,bias_percent_1,bias_percent_2,bias_percent_3,bias_percent_4,bias_percent_5,bias_percent_6,bias_percent_8,bias_percent_9,normalized_power,power_SP,SP,CV,total_power_MW,fuel_fraction,thermal_efficiency
29,0,0,0,0,0,0,0,0,0.999590006476283,1,0.04,0.0400033456771485,476.907454815689,0.999568840770572,0.350571073032978
89,0.00978286930687079,-0.0135256245789213,-6.79143649373373e-05,0.00756879773845822,0.0133078913356395,0.000588369355158193,0.00656031390153254,0.0157795668517444,0.995377137182712,0.993127166784398,0.04,0.0422212513132098,474.798473635389,0.993258286843922,0.351238240813811
149,0.0300232885624656,-0.0415096754318623,-0.000208426844118208,0.0232283792663027,0.0408414596162728,0.00180568526238199,0.0201333771460826,0.0484269465450086,0.981928048046126,0.978907511855566,0.04,0.046891545410612,468.365456290339,0.975040879247336,0.35295286283062
209,0.0502637078180604,-0.0694937262848032,-0.00034893932329885,0.0388879607941474,0.0683750278969063,0.00302300116960578,0.0337064403906326,0.0810743262382727,0.967653327038863,0.964687856926734,0.04,0.0502358615841156,461.553406195834,0.956331292534571,0.354624118998427
269,0.0705041270736554,-0.0974777771377441,-0.000489451802479607,0.054547542321992,0.0959085961775397,0.00424031707682968,0.0472795036351827,0.113721705931537,0.953317136555219,0.950468201997902,0.04,0.0525280932009204,454.713539343894,0.938308173923459,0.356079574576027
329,0.0907445463292502,-0.125461827990685,-0.000629964281660364,0.0702071238498365,0.123442164458173,0.00545763298405336,0.0608525668797327,0.146369085624801,0.938982071879919,0.93624854706907,0.04,0.0541275622187368,447.874421368844,0.920968303600592,0.357327345216836
389,0.110984965584845,-0.153445878843626,-0.000770476760841007,0.0858667053776811,0.150975732738807,0.00667494889127727,0.0744256301242827,0.179016465318065,0.92466050702259,0.922028892140238,0.04,0.0552681677653885,441.041690350042,0.904264132881229,0.358376080298063
449,0.13122538484044,-0.181429929696567,-0.000910989240021877,0.101526286905526,0.17850930101944,0.00789226479850095,0.0879986933688328,0.211663845011329,0.910349498401232,0.907809237211405,0.04,0.0560965899617433,434.213992186603,0.888129623061015,0.359237887997715
509,0.151465804096034,-0.209413980549508,-0.00105150171920275,0.11718586843337,0.206042869300073,0.00910958070572474,0.101571756613383,0.244311224704594,0.896049466223594,0.893589582282573,0.04,0.0567068292900668,427.391536756165,0.872500190716049,0.359927528028743
569,0.171706223351629,-0.237398031402448,-0.00119201419838328,0.132845449961215,0.233576437580707,0.0103268966129486,0.115144819857933,0.276958604397858,0.881760696534191,0.879369927353742,0.04,0.0571618888751121,420.574452899835,0.857308473609431,0.360462797295697
629,0.191946642607224,-0.265382082255389,-0.00133252667756415,0.148505031489059,0.26111000586134,0.0115442125201723,0.128717883102483,0.309605984091122,0.867482633091942,0.865150272424909,0.04,0.0575048051100114,413.762470128821,0.842488665839088,0.36086245989539
689,0.212187061862819,-0.29336613310833,-0.00147303915674479,0.164164613016904,0.288643574141973,0.0127615284273961,0.142290946347033,0.342253363784386,0.853213959792054,0.850930617496077,0.04,0.0577650875472174,406.954953916101,0.827981422840448,0.361144015920865
749,0.232427481118414,-0.321350183961271,-0.00161355163592555,0.179824194544749,0.316177142422607,0.0139788443346199,0.155864009591583,0.37490074347765,0.83895289540218,0.836710962567245,0.04,0.0579628851440548,400.151052150056,0.813737276981955,0.361322018838402
809,0.252667900374009,-0.349334234814212,-0.00175406411510642,0.195483776072593,0.34371071070324,0.0151961602418438,0.169437072836133,0.407548123170915,0.824432056265149,0.822491307638413,0.04,0.0583075491626724,393.216207233893,0.800271799630348,0.361034390574166
869,0.272908319629603,-0.377318285667153,-0.00189457659428706,0.211143357600438,0.371244278983874,0.0164134761490676,0.183010136080683,0.440195502864179,0.809322561412636,0.808271652709581,0.04,0.0591637245678973,386.009163135494,0.791560301254575,0.358317719419775
929,0.283365869578327,-0.391776711941172,-0.00196717470853048,0.219234141389824,0.385469955928868,0.0170424227011332,0.190022885423701,0.457063315705699,0.798870042719562,0.800924830996351,0.04,0.0575180942572857,381.121646759364,0.794561967001671,0.352444323026792
989,0.283365869578328,-0.391776711941172,-0.00196717470853048,0.219234141389824,0.385469955928868,0.0170424227011332,0.190022885423701,0.457063315705699,0.798266182209057,0.800924830996351,0.04,0.0534834482406289,380.855234743832,0.810619109581346,0.345221446458563
1049,0.283365869578328,-0.391776711941172,-0.00196717470853048,0.219234141389824,0.385469955928867,0.0170424227011332,0.190022885423701,0.457063315705699,0.798814093320535,0.800924830996351,0.04,0.0516518813982258,381.119115645301,0.824526376557232,0.339633761543663
1109,0.283365869578327,-0.391776711941172,-0.00196717470853048,0.219234141389824,0.385469955928868,0.0170424227011332,0.190022885423701,0.457063315705699,0.799400347501136,0.800924830996351,0.04,0.0511552318478848,381.398171153884,0.834832764003123,0.335686439249879
1169,0.283365869578328,-0.391776711941172,-0.00196717470853048,0.219234141389824,0.385469955928868,0.0170424227011332,0.190022885423701,0.457063315705699,0.799875180914759,0.800924830996351,0.04,0.0512601394851061,381.623710698178,0.842040641442663,0.33300976823625
1229,0.283365869578328,-0.391776711941172,-0.00196717470853048,0.219234141389824,0.385469955928868,0.0170424227011332,0.190022885423701,0.457063315705699,0.800226001062007,0.800924830996351,0.04,0.051576137768425,381.790153540335,0.84689393795487,0.331245796439344
1289,0.283365869578328,-0.391776711941172,-0.00196717470853048,0.219234141389824,0.385469955928868,0.0170424227011332,0.190022885423701,0.457063315705699,0.800470650261081,0.800924830996351,0.04,0.0519190267327806,381.906131923627,0.850073694671967,0.330106997561193
1349,0.283365869578328,-0.391776711941172,-0.00196717470853048,0.219234141389824,0.385469955928868,0.0170424227011332,0.190022885423701,0.457063315705699,0.800634498492701,0.800924830996351,0.04,0.052214481480867,381.983762879248,0.852117503722046,0.329382174586713
1409,0.283365869578327,-0.391776711941172,-0.00196717470853048,0.219234141389824,0.385469955928868,0.0170424227011332,0.190022885423701,0.457063315705699,0.800741246310733,0.800924830996351,0.04,0.0524427389280824,382.034321031706,0.853414476395385,0.328925127281137
1469,0.283365869578327,-0.391776711941172,-0.00196717470853048,0.219234141389824,0.385469955928867,0.0170424227011332,0.190022885423701,0.457063315705699,0.800809544943209,0.800924830996351,0.04,0.0526080474542248,382.066661033609,0.854230772639331,0.328638626592798
1529,0.283365869578328,-0.391776711941172,-0.00196717470853048,0.219234141389824,0.385469955928868,0.0170424227011332,0.190022885423701,0.457063315705699,0.800852739931722,0.800924830996351,0.04,0.0527227933496634,382.087111105007,0.854741915211963,0.328459677861512
1589,0.283365869578327,-0.391776711941172,-0.00196717470853048,0.219234141389824,0.385469955928867,0.0170424227011332,0.190022885423701,0.457063315705699,0.800879855459834,0.800924830996351,0.04,0.0528001278658132,382.099947333893,0.855061027484635,0.328348125861692
1649,0.283365869578327,-0.391776711941172,-0.00196717470853048,0.219234141389824,0.385469955928867,0.0170424227011332,0.190022885423701,0.457063315705699,0.800896792293261,0.800924830996351,0.04,0.0528511496041052,382.1079644881,0.855259993124504,0.328278627478952
1709,0.283365869578328,-0.391776711941172,-0.00196717470853048,0.219234141389824,0.385469955928868,0.0170424227011332,0.190022885423701,0.457063315705699,0.800907333199605,0.800924830996351,0.04,0.0528842788401305,382.112953855365,0.855384091101561,0.328235287125698
1769,0.283365869578328,-0.391776711941172,-0.00196717470853048,0.219234141389824,0.385469955928868,0.0170424227011332,0.190022885423701,0.457063315705699,0.800913875101918,0.800924830996351,0.04,0.0529055251901997,382.116050200735,0.85546167916994,0.328208176591469
1829,0.289296943648501,-0.37484269988769,-0.0139124574151947,0.201831260283704,0.374157998759413,0.0169819668543889,0.196615394035662,0.439248586646186,0.80226513835787,0.802430196648011,0.04,0.0519281837787677,382.786291203066,0.856198854778695,0.328500783401665
1889,0.301568131379893,-0.339806812880486,-0.0386268354289829,0.165825299374492,0.350753949443298,0.0168568857921595,0.210255067025928,0.402390526523055,0.805609261358037,0.805544746272134,0.04,0.0502645765197293,384.384274822672,0.856388061330461,0.329799265699579
1949,0.313839319111286,-0.304770925873282,-0.063341213442771,0.129819338465279,0.327349900127184,0.0167318047299299,0.223894740016193,0.365532466399925,0.808972131367065,0.808659295896258,0.04,0.0488398336472646,385.986806351717,0.854998813598443,0.331712337140903
2009,0.326110506842678,-0.269735038866078,-0.0880555914565592,0.0938133775560656,0.30394585081107,0.0166067236677004,0.237534413006458,0.328674406276795,0.812234347854012,0.811773845520381,0.04,0.0474451818680888,387.54435009146,0.852545199678589,0.334009387213103
2069,0.338381694574071,-0.234699151858874,-0.112769969470347,0.0578074166468527,0.280541801494956,0.0164816426054708,0.251174085996723,0.291816346153665,0.815434309610491,0.814888395144505,0.04,0.0459846262090228,389.066741643979,0.84944102704172,0.336546866296181
2129,0.350652882305463,-0.19966326485167,-0.137484347484136,0.0218014557376397,0.257137752178842,0.0163565615432412,0.264813758986989,0.254958286030534,0.818723638277743,0.818002944768628,0.04,0.0444784467730217,390.64235605063,0.845570372537493,0.339456593992537
2189,0.362924070036856,-0.164627377844466,-0.162198725497924,-0.0142045051715733,0.233733702862728,0.0162314804810118,0.278453431977254,0.218100225907404,0.822053744934094,0.821117494392751,0.04,0.0430742518744879,392.227149907695,0.84034229075459,0.342954186094189
