time,bias_percent_1,bias_percent_2,bias_percent_3,bias_percent_4,bias_percent_5,bias_percent_6,bias_percent_8,bias_percent_9,normalized_power,power_SP,SP,CV,total_power_MW,fuel_fraction,thermal_efficiency
57,0,0,0,0,0,0,0,0,0.99984915100619,1,0.04,0.0399035329803236,477.030556706071,1.00005017777369,0.35049278638655
117,0.0121449250812342,0.027185239314195,0.0101941621443927,-0.0277269359792007,-0.0313794788177926,0.016787419358394,-0.0151958549180543,0.00627694688058108,0.994794422994758,0.992151499060959,0.04,0.0422073634230203,474.556460436925,0.986904406526843,0.353319395136973
177,0.0249290567456912,0.0558012806975581,0.0209248591384902,-0.0569131843783593,-0.0644105091523112,0.0344583871040719,-0.0311914916739009,0.0128842593864559,0.986739787557076,0.983889919125126,0.04,0.0441831334088501,470.707316792464,0.969440538137733,0.356766813289964
237,0.0377131884101483,0.0844173220809213,0.0316555561325878,-0.0860994327775179,-0.0974415394868297,0.0521293548497498,-0.0471871284297476,0.0194915718923307,0.978342280145751,0.975628339189294,0.04,0.0451276250073635,466.700031013167,0.952415131728553,0.360052822100672
297,0.0504973200746052,0.113033363464284,0.0423862531266853,-0.115285681176677,-0.130472569821348,0.0698003225954277,-0.0631827651855942,0.0260988843982054,0.96989692702316,0.967366759253461,0.04,0.0453747185065182,462.670620182456,0.936436233054344,0.363034909980035
357,0.0632814517390623,0.141649404847647,0.0531169501207829,-0.144471929575835,-0.163503600155867,0.0874712903411056,-0.0791784019414408,0.0327061969040802,0.961455010552989,0.959105179317629,0.04,0.045205974251318,458.642511964466,0.921604853751919,0.365665704671141
417,0.0760655834035193,0.170265446231011,0.0638476471148804,-0.173658177974994,-0.196534630490385,0.105142258086783,-0.0951740386972875,0.0393135094099551,0.953059445187486,0.950843599381796,0.04,0.0448258367330167,454.634922939944,0.907788311685593,0.367987344277255
477,0.0888497150679764,0.198881487614374,0.0745783441089779,-0.202844426374152,-0.229565660824904,0.122813225832461,-0.111169675453134,0.0459208219158299,0.94478008291183,0.942582019445964,0.04,0.044464309218432,450.68891434315,0.894242044519298,0.370319402348441
537,0.101633846732433,0.227497528997737,0.0853090411030756,-0.232030674773311,-0.262596691159423,0.140484193578139,-0.127165312208981,0.0525281344217046,0.936534908943536,0.934320439510131,0.04,0.0441633036143797,446.754542848675,0.880627713303597,0.372761718349469
597,0.11441797839689,0.2561135703811,0.0960397380971732,-0.26121692317247,-0.295627721493941,0.158155161323817,-0.143160948964827,0.0591354469275795,0.928268199199986,0.926058859574298,0.04,0.0438486542361015,442.816670107617,0.867015346606285,0.375276918034392
657,0.127202110061347,0.284729611764463,0.106770435091271,-0.290403171571628,-0.32865875182846,0.175826129069495,-0.159156585720674,0.0657427594334542,0.919987274382869,0.917797279638466,0.04,0.0435536519656494,438.85862590403,0.853422171168878,0.377846491555524
717,0.139986241725805,0.313345653147826,0.117501132085368,-0.319589419970787,-0.361689782162978,0.193497096815173,-0.175152222476521,0.0723500719393291,0.911694928418081,0.909535699702633,0.04,0.043185519712224,434.901155764562,0.840024014140652,0.38041141163798
777,0.152770373390262,0.341961694531189,0.128231829079466,-0.348775668369946,-0.394720812497497,0.211168064560851,-0.191147859232367,0.0789573844452039,0.903398478496526,0.901274119766801,0.04,0.0427640280578978,430.941272176109,0.826921168551845,0.38292053410308
837,0.165554505054719,0.370577735914552,0.138962526073563,-0.377961916769104,-0.427751842832015,0.228839032306529,-0.207143495988214,0.0855646969510787,0.895056993491267,0.893012539830968,0.04,0.0422635963748207,426.973083916729,0.814259679141905,0.385293998935006
897,0.178338636719176,0.399193777297916,0.149693223067661,-0.407148165168263,-0.460782873166534,0.246510000052207,-0.223139132744061,0.0921720094569535,0.886713432512783,0.884750959895136,0.04,0.0418176534715749,422.979012813655,0.802042729980008,0.387503820776663
