time,bias_percent_1,bias_percent_2,bias_percent_3,bias_percent_4,bias_percent_5,bias_percent_6,bias_percent_8,bias_percent_9,normalized_power,power_SP,SP,CV,total_power_MW,fuel_fraction,thermal_efficiency
57,0,0,0,0,0,0,0,0,0.99984915100619,1,0.04,0.0399035329803236,477.030556706071,1.00005017777369,0.35049278638655
117,-0.0234261989340887,0.0295505249844647,0.0330906175851255,-0.0028633997835575,0.00382600981302573,0.00714133734639495,0.0313145737746408,0.0135384803310725,0.984768062729541,0.979841848241273,0.04,0.0469656884261029,469.673427197724,0.974640976413899,0.354083752947755
177,-0.0480853557068136,0.0606563407575852,0.0679228466221,-0.00587750481888122,0.0078533885635793,0.0146585345531266,0.0642772830111047,0.0277895122585172,0.963830929025877,0.958622741126823,0.04,0.0532856148711233,459.673668434208,0.942273327990808,0.358449026168033
237,-0.0727445124795387,0.0917621565307059,0.102755075659074,-0.00889160985420494,0.0118807673141328,0.0221757317598582,0.0972399922475686,0.042040544185962,0.942368185928794,0.937403634012373,0.04,0.0575860846170415,449.432930673772,0.910892126628351,0.36253723550684
297,-0.0974036692522637,0.122867972303826,0.137587304696048,-0.0119057148895288,0.015908146064686,0.0296929289665898,0.130202701484033,0.0562915761134067,0.920885596357063,0.916184526897923,0.04,0.0604721706739999,439.183822849058,0.881100031128325,0.36624844914784
357,-0.122062826024989,0.153973788076947,0.172419533733023,-0.0149198199248525,0.0199355248152395,0.0372101261733214,0.163165410720496,0.0705426080408514,0.899434072012641,0.894965419783473,0.04,0.0624324357204345,428.949535519916,0.852765455293483,0.369599418266472
417,-0.146721982797714,0.185079603850068,0.207251762769997,-0.0179339249601761,0.023962903565793,0.0447273233800531,0.19612811995696,0.0847936399682962,0.878010182073166,0.873746312669023,0.04,0.063765393648725,418.728407174825,0.825714545968541,0.372612282107697
477,-0.171381139570439,0.216185419623188,0.242083991806971,-0.0209480299954999,0.0279902823163463,0.0522445205867846,0.229090829193424,0.099044671895741,0.856611544371857,0.852527205554574,0.04,0.0646494108683719,408.519308911717,0.799791713864323,0.375310197264833
537,-0.196040296343164,0.247291235396309,0.276916220843946,-0.0239621350308236,0.0320176610668999,0.0597617177935163,0.262053538429888,0.113295703823186,0.835236039825713,0.831308098440124,0.04,0.0651914989427225,398.32122825506,0.774853321307893,0.37771882481317
597,-0.220699453115889,0.27839705116943,0.31174844988092,-0.0269762400661473,0.0360450398174532,0.0672789150002479,0.295016247666352,0.12754673575063,0.813841651309526,0.810088991325674,0.04,0.0655149574163261,388.107254496616,0.7508386577804,0.379804243076336
657,-0.245358609888614,0.30950286694255,0.346580678917894,-0.029990345101471,0.0400724185680067,0.0747961122069795,0.327978956902816,0.141797767678075,0.791243792282378,0.788869884211224,0.04,0.0665528143681201,377.322762923702,0.732466822837995,0.378512062374219
717,-0.270017766661339,0.340608682715671,0.381412907954868,-0.0330044501367947,0.0440997973185601,0.082313309413711,0.36094166613928,0.15604879960552,0.769023215710644,0.767650777096774,0.04,0.0681442556737877,366.727288162453,0.721501619919393,0.373474188915678
777,-0.294676923434064,0.371714498488792,0.416245136991843,-0.0360185551721185,0.0481271760691136,0.0898305066204426,0.393904375375744,0.170299831532965,0.747447459581524,0.746431669982325,0.04,0.0706210782981918,356.43734892135,0.71385775320808,0.366881827241905
837,-0.319336080206789,0.402820314261912,0.451077366028817,-0.0390326602074422,0.0521545548196671,0.0973477038271742,0.426867084612208,0.184550863460409,0.72620481915453,0.725212562867875,0.04,0.0739332291787985,346.304068079417,0.706894272544862,0.359962953603812
897,-0.343995236979514,0.433926130035033,0.485909595065792,-0.0420467652427659,0.0561819335702205,0.104864901033906,0.459829793848672,0.198801895387854,0.705075977032966,0.703993455753425,0.04,0.0777834491053678,336.223855308688,0.699545467018046,0.353156539983651
957,-0.34522819481815,0.435481420823689,0.48765120651764,-0.0421974704945321,0.0563833025077482,0.105240760894242,0.461477929310495,0.199514446984226,0.697977730248388,0.702932500397702,0.04,0.0714471407643639,333.001897326299,0.723558117731838,0.33816446095872
1017,-0.34522819481815,0.435481420823689,0.48765120651764,-0.0421974704945321,0.0563833025077482,0.105240760894242,0.461477929310495,0.199514446984226,0.698995110783053,0.702932500397702,0.04,0.0667015962245135,333.502972255816,0.750188953785575,0.326650795387347
1077,-0.34522819481815,0.435481420823689,0.48765120651764,-0.0421974704945322,0.0563833025077481,0.105240760894242,0.461477929310495,0.199514446984226,0.700396537652021,0.702932500397702,0.04,0.0654509370983213,334.168473932958,0.768071147648552,0.319682380381862
1137,-0.34522819481815,0.435481420823689,0.48765120651764,-0.0421974704945321,0.0563833025077482,0.105240760894243,0.461477929310495,0.199514446984226,0.701338357986623,0.702932500397702,0.04,0.0656490565629209,334.614353213801,0.77934770100116,0.315477204392365
1197,-0.34522819481815,0.435481420823689,0.48765120651764,-0.0421974704945322,0.0563833025077481,0.105240760894242,0.461477929310495,0.199514446984226,0.70191808865425,0.702932500397702,0.04,0.0662054599285282,334.88866191588,0.786479016981855,0.312872923455484
1257,-0.34522819481815,0.435481420823689,0.48765120651764,-0.0421974704945321,0.0563833025077481,0.105240760894242,0.461477929310495,0.199514446984226,0.702271429332695,0.702932500397702,0.04,0.0667300758518184,335.055874865081,0.791083911713753,0.311207002967822
1317,-0.34522819481815,0.435481420823689,0.48765120651764,-0.0421974704945321,0.0563833025077482,0.105240760894242,0.461477929310495,0.199514446984226,0.702491364217095,0.702932500397702,0.04,0.0671286311381974,335.160009195231,0.794131552889349,0.310109033850411
1377,-0.34522819481815,0.435481420823689,0.48765120651764,-0.0421974704945322,0.0563833025077481,0.105240760894242,0.461477929310495,0.199514446984226,0.70263307386465,0.702932500397702,0.04,0.067407802987609,335.22714498647,0.796188858903206,0.309369687352308
1437,-0.34522819481815,0.435481420823689,0.48765120651764,-0.0421974704945321,0.0563833025077481,0.105240760894242,0.461477929310495,0.199514446984226,0.702727317277484,0.702932500397702,0.04,0.0675975233279251,335.271813244825,0.797594597115596,0.308865582071067
1497,-0.34522819481815,0.435481420823689,0.48765120651764,-0.0421974704945321,0.0563833025077482,0.105240760894242,0.461477929310495,0.199514446984226,0.702791294289855,0.702932500397702,0.04,0.0677255202313435,335.302143555894,0.79856084524566,0.30851976644186
1557,-0.34522819481815,0.435481420823689,0.48765120651764,-0.0421974704945322,0.0563833025077481,0.105240760894242,0.461477929310495,0.199514446984226,0.702835161531709,0.702932500397702,0.04,0.0678120499244217,335.322942266731,0.799226608067533,0.30828188821695
1617,-0.34522819481815,0.435481420823689,0.48765120651764,-0.0421974704945321,0.0563833025077481,0.105240760894242,0.461477929310495,0.199514446984226,0.702865345095804,0.702932500397702,0.04,0.0678707958039704,335.337253533317,0.799685796797179,0.308118018856182
1677,-0.34522819481815,0.435481420823689,0.48765120651764,-0.0421974704945321,0.0563833025077481,0.105240760894242,0.461477929310495,0.199514446984226,0.702886124104202,0.702932500397702,0.04,0.0679108182337071,335.347105689149,0.800002781104978,0.308004982431584
1737,-0.34522819481815,0.435481420823689,0.48765120651764,-0.0421974704945321,0.0563833025077481,0.105240760894242,0.461477929310495,0.199514446984226,0.702900423349941,0.702932500397702,0.04,0.0679381374611121,335.353885469142,0.800221889725957,0.307926872932935
1797,-0.34522819481815,0.435481420823689,0.48765120651764,-0.0421974704945321,0.0563833025077481,0.105240760894242,0.461477929310495,0.199514446984226,0.702910259250489,0.702932500397702,0.04,0.0679567934873141,335.358548964037,0.800373663990113,0.307872762266086
1857,-0.33909780189907,0.407411256111009,0.435307382300492,-0.0618063909452214,0.0403367877531938,0.129613283618334,0.422006734305887,0.186703554397574,0.700220546670861,0.69580456654842,0.04,0.0674748598965656,334.028191099105,0.780025575369431,0.314650883434277
1917,-0.332644756721091,0.377863714308188,0.380208619966651,-0.0824473598406838,0.0234457195905053,0.155268570696326,0.380458107985247,0.17321840430636,0.693139343546433,0.688301478286018,0.04,0.0668973185879617,330.635387716912,0.750608936995168,0.323660931228536
1977,-0.326191711543112,0.348316172505367,0.325109857632811,-0.103088328736146,0.00655465142781657,0.180923857774318,0.338909481664606,0.159733254215147,0.685352355561842,0.680798390023616,0.04,0.0643761977074419,326.919972304044,0.722321526145284,0.332556600579242
2037,-0.319738666365133,0.318768630702546,0.27001109529897,-0.123729297631608,-0.0103364167348722,0.206579144852309,0.297360855343966,0.146248104123934,0.677687434212318,0.673295301761213,0.04,0.0604148083424791,323.264203735979,0.695361171481266,0.341587410638742
2097,-0.313285621187154,0.289221088899725,0.214912332965129,-0.144370266527071,-0.0272274848975609,0.232234431930301,0.255812229023326,0.13276295403272,0.670116189032973,0.665792213498811,0.04,0.0554874023106334,319.65184357543,0.668990501113048,0.351084728160079
