time,bias_percent_1,bias_percent_2,bias_percent_3,bias_percent_4,bias_percent_5,bias_percent_6,bias_percent_8,bias_percent_9,normalized_power,power_SP,SP,CV,total_power_MW,fuel_fraction,thermal_efficiency
40,0,0,0,0,0,0,0,0,0.999725470195932,1,0.04,0.0399438939341234,476.973247082186,0.999814940047433,0.350533133270834
100,-0.00714248858829092,0.0179213924206314,0.0164569064627914,0.00265333145441321,0.00327944539198973,0.0084100476430948,0.00603269601410364,0.00866926375748267,0.993352299094557,0.990584576949314,0.04,0.0434763993805344,473.827770166149,0.989509193075878,0.35184821590217
160,-0.0178562214707274,0.0448034810515782,0.0411422661569782,0.00663332863603284,0.00819861347997392,0.0210251191077369,0.015081740035259,0.0216731593937067,0.979681519279667,0.976461442373285,0.04,0.0484225368601198,467.293250497401,0.969684811066828,0.354089942653613
220,-0.0285699543531639,0.0716855696825248,0.0658276258511651,0.0106133258176526,0.0131177815679583,0.033640190572379,0.0241307840564144,0.0346770550299307,0.965397264760999,0.962338307797256,0.04,0.0519004232023884,460.479562047821,0.950258021099825,0.356060249095713
280,-0.0392836872356002,0.0985676583134718,0.0905129855453521,0.0145933229992725,0.0180369496559429,0.0462552620370211,0.0331798280775699,0.0476809506661547,0.951101267657462,0.948215173221226,0.04,0.0543028682112271,453.656757934444,0.931847100797152,0.357715206713154
340,-0.0499974201180365,0.125449746944419,0.115198345239539,0.0185733201808921,0.0229561177439273,0.0588703335016634,0.0422288720987253,0.0606848463023787,0.936823491265671,0.934092038645197,0.04,0.0559907770764372,446.845068757786,0.914450086095438,0.359047279727088
400,-0.060711153000473,0.152331835575365,0.139883704933726,0.0225533173625118,0.0278752858319115,0.0714854049663055,0.0512779161198807,0.0736887419386027,0.922571119822767,0.919968904069168,0.04,0.0572043524408656,440.045436547129,0.897876713413244,0.360110255410344
460,-0.0714248858829094,0.179213924206312,0.164569064627913,0.0265333145441316,0.032794453919896,0.0841004764309476,0.0603269601410361,0.0866926375748267,0.908338999081319,0.905845769493139,0.04,0.0580854803362231,433.255440838734,0.881997127902167,0.360937105036639
520,-0.0821386187653458,0.206096012837259,0.1892544243221,0.0305133117257513,0.0377136220078804,0.0967155478955898,0.0693760041621915,0.0996965332110507,0.894124276106468,0.89172263491711,0.04,0.0587215830501317,426.473723476149,0.866701368122929,0.361557581017224
580,-0.0928523516477823,0.232978101468206,0.213939784016287,0.0344933089073711,0.0426327900958648,0.109330619360232,0.0784250481833469,0.112700428847275,0.879923901552361,0.877599500341081,0.04,0.0591671642601892,419.698826124039,0.851896756514788,0.361997412325413
640,-0.103566084530219,0.259860190099153,0.238625143710474,0.0384733060889909,0.0475519581838494,0.121945690824874,0.0874740922045024,0.125704324483499,0.865734073593601,0.863476365765051,0.04,0.0594551573512273,412.928924479296,0.837511845293601,0.362275548888242
700,-0.114279817412655,0.2867422787301,0.26331050340466,0.0424533032706106,0.0524711262718336,0.134560762289516,0.0965231362256578,0.138708220119723,0.851550347938894,0.849353231189022,0.04,0.0596041251386525,406.161898777094,0.82350065883715,0.362401432774934
760,-0.124993550295092,0.313624367361047,0.287995863098847,0.0464333004522302,0.057390294359818,0.147175833754158,0.105572180246813,0.151712115755947,0.836960447961106,0.835230096612993,0.04,0.0599336635246702,399.192667126446,0.810801059447159,0.361761981506495
820,-0.135707283177528,0.340506455991994,0.312681222793034,0.0504132976338501,0.0623094624478025,0.159790905218801,0.114621224267969,0.164716011392171,0.821826585055886,0.821106962036964,0.04,0.060824756191318,391.974994915169,0.803889882964935,0.358274976653918
880,-0.146421016059964,0.36738854462294,0.337366582487221,0.0543932948154697,0.0672286305357869,0.172405976683443,0.123670268289124,0.177719907028395,0.807184177796517,0.806983827460935,0.04,0.0622214570462632,384.992981037649,0.801163392668818,0.353090791207259
940,-0.14999226035411,0.376349240833256,0.345595035718617,0.0557199605426764,0.0688683532317816,0.17661100050499,0.126686616296176,0.182054538907136,0.798783432937353,0.802276115935592,0.04,0.059629764598285,381.086172447618,0.813216482779832,0.344327488235185
1000,-0.14999226035411,0.376349240833256,0.345595035718617,0.0557199605426763,0.0688683532317816,0.17661100050499,0.126686616296176,0.182054538907136,0.798870945320209,0.802276115935592,0.04,0.0557192723155307,381.147202453982,0.835109663399758,0.335354318762533
1060,-0.14999226035411,0.376349240833256,0.345595035718617,0.0557199605426763,0.0688683532317816,0.17661100050499,0.126686616296176,0.182054538907136,0.799910296362708,0.802276115935592,0.04,0.0543798972954367,381.645273942726,0.851416245381259,0.329361348832246
1120,-0.14999226035411,0.376349240833256,0.345595035718617,0.0557199605426764,0.0688683532317816,0.17661100050499,0.126686616296176,0.182054538907136,0.800732476619762,0.802276115935592,0.04,0.0543633044422878,382.03476570891,0.862204711837804,0.32557209228363
1180,-0.14999226035411,0.376349240833256,0.345595035718617,0.0557199605426764,0.0688683532317816,0.17661100050499,0.126686616296176,0.182054538907136,0.801274005999367,0.802276115935592,0.04,0.0547687587782893,382.29122999568,0.869207760472627,0.323165816577254
1240,-0.14999226035411,0.376349240833256,0.345595035718617,0.0557199605426763,0.0688683532317816,0.17661100050499,0.126686616296176,0.182054538907136,0.801619239505087,0.802276115935592,0.04,0.0552157945395436,382.454703033444,0.873778874325463,0.321612664177761
1300,-0.14999226035411,0.376349240833256,0.345595035718617,0.0557199605426764,0.0688683532317816,0.17661100050499,0.126686616296176,0.182054538907136,0.80183980919516,0.802276115935592,0.04,0.0555842517994811,382.559165574034,0.876800408281222,0.320591899292363
1360,-0.14999226035411,0.376349240833256,0.345595035718617,0.0557199605426763,0.0688683532317816,0.17661100050499,0.126686616296176,0.182054538907136,0.801982940685626,0.802276115935592,0.04,0.0558570293071519,382.626973826413,0.878822716775512,0.319910861050974
1420,-0.14999226035411,0.376349240833256,0.345595035718617,0.0557199605426764,0.0688683532317816,0.17661100050499,0.126686616296176,0.182054538907136,0.802077496090099,0.802276115935592,0.04,0.0560494822354954,382.671781609806,0.880189129452007,0.319451634073259
1480,-0.14999226035411,0.376349240833256,0.345595035718617,0.0557199605426764,0.0688683532317816,0.17661100050499,0.126686616296176,0.182054538907136,0.802140869056224,0.802276115935592,0.04,0.0561823149244279,382.701818714078,0.881118065825691,0.31913989410969
1540,-0.14999226035411,0.376349240833256,0.345595035718617,0.0557199605426763,0.0688683532317816,0.17661100050499,0.126686616296176,0.182054538907136,0.802183747386113,0.802276115935592,0.04,0.0562731480075793,382.722144307206,0.881751897191623,0.318927423768056
1600,-0.14999226035411,0.376349240833256,0.345595035718617,0.0557199605426764,0.0688683532317816,0.17661100050499,0.126686616296176,0.182054538907136,0.802212914060033,0.802276115935592,0.04,0.0563350511632297,382.735971008691,0.882185320831483,0.318782248870988
1660,-0.14999226035411,0.376349240833256,0.345595035718617,0.0557199605426764,0.0688683532317816,0.17661100050499,0.126686616296176,0.182054538907136,0.802232805652518,0.802276115935592,0.04,0.0563771993060674,382.745401056283,0.882482171946483,0.318682867942144
1720,-0.14999226035411,0.376349240833256,0.345595035718617,0.0557199605426763,0.0688683532317816,0.17661100050499,0.126686616296176,0.182054538907136,0.802246387269283,0.802276115935592,0.04,0.0564058920428599,382.751839799146,0.882685804048059,0.318614708885715
1780,-0.14999226035411,0.376349240833256,0.345595035718617,0.0557199605426764,0.0688683532317817,0.17661100050499,0.126686616296176,0.182054538907136,0.802255664534941,0.802276115935592,0.04,0.0564254210242922,382.756237963924,0.882825768050076,0.318567856010028
1840,-0.130556780545597,0.349378040918567,0.336176586643923,0.036238930994864,0.0620621834631883,0.176944072699811,0.103955579247584,0.160765718569959,0.804899377157078,0.804068867644952,0.04,0.0539206633216016,384.048026364069,0.880746409781105,0.320397657614312
1900,-0.101403560832828,0.308921241046534,0.322048913031883,0.00701738667314532,0.0518529288102983,0.177443680992042,0.0698590236746956,0.128832488064192,0.808396323238155,0.806757995208993,0.04,0.0507507934612301,385.687355353685,0.872461178961518,0.324820900096939
1960,-0.0722503411200587,0.2684644411745,0.307921239419843,-0.0222041576485732,0.0416436741574082,0.177943289284273,0.0357624681018074,0.096899257558426,0.811383390928672,0.809447122773033,0.04,0.0474237756141532,387.134452766777,0.86149324907829,0.330190535447966
