time,bias_percent_1,bias_percent_2,bias_percent_3,bias_percent_4,bias_percent_5,bias_percent_6,bias_percent_8,bias_percent_9,normalized_power,power_SP,SP,CV,total_power_MW,fuel_fraction,thermal_efficiency
28,0,0,0,0,0,0,0,0,0.999587363968722,1,0.04,0.0400104300837633,476.904392089835,0.999530219675005,0.350582367361777
88,0.0099736722551587,0.00459186270767611,0.0072781725620232,0.00252207519307308,0.0113938483664691,-0.00652931889456715,0.0125898698869063,0.0164215286074914,0.992885894138657,0.988772803661916,0.04,0.0437674664571553,473.547753260317,0.988053584521443,0.352158324292369
148,0.0313458270876419,0.0144315685098393,0.0228742566235018,0.00792652203537273,0.0358092377231889,-0.0205207165257823,0.0395681625017056,0.0516105184806872,0.97035839124597,0.964714525794593,0.04,0.0522241863791236,462.768110508811,0.954253683791962,0.356331532012075
208,0.052717981920125,0.0242712743120024,0.0384703406849801,0.0133309688776721,0.0602246270799087,-0.0345121141569974,0.0665464551165049,0.0867995083538831,0.946198921378305,0.940656247927271,0.04,0.0584810839471597,451.238222445106,0.919422019146754,0.360616551181635
268,0.074090136752608,0.0341109801141657,0.0540664247464587,0.0187354157199717,0.0846400164366285,-0.0485035117882126,0.0935247477313042,0.121988498227079,0.92189357446838,0.916597970059948,0.04,0.0628759497479068,439.642252970291,0.885946288997764,0.364625222979453
328,0.0954622915850911,0.0439506859163289,0.069662508807937,0.0241398625622711,0.109055405793348,-0.0624949094194276,0.120503040346103,0.157177488100275,0.89766655438387,0.892539692192626,0.04,0.0660252715102524,428.085209589411,0.853748791748777,0.368429839904718
388,0.116834446417574,0.0537903917184921,0.0852585928694155,0.0295443094045708,0.133470795150068,-0.0764863070506427,0.147481332960903,0.192366477973471,0.873640969111354,0.868481414325303,0.04,0.068505629040148,416.623221171312,0.821691790492672,0.372553974316602
448,0.138206601250057,0.0636300975206553,0.100854676930894,0.0349487562468703,0.157886184506788,-0.0904777046818579,0.174459625575702,0.227555467846666,0.849622093622247,0.84442313645798,0.04,0.0705085378571364,405.163560230584,0.78935947465184,0.37714662773204
508,0.15957875608254,0.0734698033228185,0.116450760992372,0.0403532030891698,0.182301573863507,-0.104469102313073,0.201437918190501,0.262744457719862,0.825562619841812,0.820364858590658,0.04,0.0720071277834819,393.684434479581,0.756945411530129,0.382153955863779
568,0.180950910915024,0.0833095091249818,0.132046845053851,0.0457576499314694,0.206716963220227,-0.118460499944288,0.228416210805301,0.297933447593058,0.800312340494584,0.796306580723335,0.04,0.0738337661989231,381.622545796818,0.728106654461639,0.385117896111881
628,0.202323065747506,0.0931492149271448,0.147642929115329,0.0511620967737689,0.231132352576947,-0.132451897575503,0.2553945034201,0.333122437466254,0.774669588306206,0.772248302856013,0.04,0.0761078224177846,369.394496263222,0.70953047744939,0.382537523242572
688,0.22369522057999,0.102988920729308,0.163239013176808,0.0565665436160684,0.255547741933667,-0.146443295206719,0.282372796034899,0.36831142733945,0.749869717321266,0.74819002498869,0.04,0.0790964242464501,357.568389106899,0.697103628661629,0.376891593618409
748,0.245067375412473,0.112828626531471,0.178835097238286,0.061970990458368,0.279963131290387,-0.160434692837934,0.309351088649699,0.403500417212646,0.725622834023016,0.724131747121367,0.04,0.0830015140481842,346.003120082906,0.686751004810471,0.37019912490944
808,0.266439530244956,0.122668332333634,0.194431181299764,0.0673754373006675,0.304378520647106,-0.174426090469149,0.336329381264498,0.438689407085841,0.701610188176897,0.700073469254045,0.04,0.0875874252906548,334.547669527981,0.676482647640621,0.363375819437739
868,0.287811685077439,0.132508038135798,0.210027265361243,0.072779884142967,0.328793910003826,-0.188417488100364,0.363307673879297,0.473878396959037,0.677658149368532,0.676015191386722,0.04,0.0925309004489928,323.120259196766,0.665646177187811,0.356677260740851
928,0.299210167654763,0.137755881230285,0.218345176860698,0.0756622557921935,0.341815450994076,-0.195879566837012,0.37769609660719,0.492645858224742,0.659129738402286,0.663184109857483,0.04,0.0925575537556424,314.421925714986,0.670317721144436,0.344656758047889
988,0.299210167654763,0.137755881230285,0.218345176860698,0.0756622557921935,0.341815450994076,-0.195879566837012,0.37769609660719,0.492645858224742,0.657578178794873,0.663184109857483,0.04,0.0849103926486536,313.739788233194,0.70435872117627,0.327288223714631
1048,0.299210167654763,0.137755881230285,0.218345176860698,0.0756622557921934,0.341815450994076,-0.195879566837012,0.37769609660719,0.492645858224742,0.659258225682141,0.663184109857483,0.04,0.081142364024716,314.546077751264,0.73162658185353,0.315899889698715
1108,0.299210167654763,0.137755881230285,0.218345176860698,0.0756622557921935,0.341815450994076,-0.195879566837012,0.37769609660719,0.492645858224742,0.660747789785656,0.663184109857483,0.04,0.0802987530835852,315.252195720509,0.749004769744133,0.309263177032028
1168,0.299210167654763,0.137755881230285,0.218345176860698,0.0756622557921934,0.341815450994076,-0.195879566837012,0.37769609660719,0.492645858224742,0.661675843064377,0.663184109857483,0.04,0.0805379658554287,315.691097571231,0.759712264862963,0.305328872212934
1228,0.299210167654763,0.137755881230285,0.218345176860698,0.0756622557921935,0.341815450994076,-0.195879566837012,0.37769609660719,0.492645858224742,0.662218643496213,0.663184109857483,0.04,0.0809861547117642,315.947780811665,0.766474005620457,0.302881365701885
1288,0.299210167654763,0.137755881230285,0.218345176860698,0.0756622557921934,0.341815450994076,-0.195879566837012,0.37769609660719,0.492645858224742,0.662544183305867,0.663184109857483,0.04,0.0813703233343313,316.101845241974,0.77090243446538,0.30128831611439
1348,0.299210167654763,0.137755881230285,0.218345176860698,0.0756622557921935,0.341815450994076,-0.195879566837012,0.37769609660719,0.492645858224742,0.662750167122039,0.663184109857483,0.04,0.0816470639990099,316.199416412566,0.773884201119418,0.300220096158677
1408,0.299210167654763,0.137755881230285,0.218345176860698,0.0756622557921934,0.341815450994076,-0.195879566837012,0.37769609660719,0.492645858224742,0.662886672961128,0.663184109857483,0.04,0.0818358694728942,316.264116305153,0.77592183486264,0.299492962733592
1468,0.299210167654763,0.137755881230285,0.218345176860698,0.0756622557921934,0.341815450994076,-0.195879566837012,0.37769609660719,0.492645858224742,0.662979541250352,0.663184109857483,0.04,0.0819632280045531,316.30814542391,0.777322130339159,0.298995064748425
1528,0.299210167654763,0.137755881230285,0.218345176860698,0.0756622557921934,0.341815450994076,-0.195879566837012,0.37769609660719,0.492645858224742,0.663043358928939,0.663184109857483,0.04,0.0820494160109142,316.338403854113,0.778285577760355,0.298653502630328
1588,0.299210167654763,0.137755881230285,0.218345176860698,0.0756622557921935,0.341815450994077,-0.195879566837012,0.37769609660719,0.492645858224742,0.663087284990822,0.663184109857483,0.04,0.0821080579756816,316.359230756012,0.778948383252667,0.298419024854671
1648,0.299210167654763,0.137755881230285,0.218345176860698,0.0756622557921934,0.341815450994076,-0.195879566837012,0.37769609660719,0.492645858224742,0.66311748230689,0.663184109857483,0.04,0.0821480884129006,316.373548011525,0.779404396807121,0.298257923439345
1708,0.299210167654763,0.137755881230285,0.218345176860698,0.0756622557921934,0.341815450994076,-0.195879566837012,0.37769609660719,0.492645858224742,0.663138210705977,0.663184109857483,0.04,0.0821754320994703,316.383375612013,0.779718389387067,0.298147076118274
1768,0.299210167654763,0.137755881230285,0.218345176860698,0.0756622557921934,0.341815450994076,-0.195879566837012,0.37769609660719,0.492645858224742,0.6631524258808,0.663184109857483,0.04,0.0821940854710789,316.390115139672,0.77993495838837,0.298070637212743
1828,0.283272947345628,0.141314017010748,0.203844950383858,0.0800439984359756,0.337636507558932,-0.200453748114262,0.360175776464574,0.48653084682219,0.663637268437877,0.662250065921755,0.04,0.0813292779570071,316.624304402163,0.776710778175551,0.299529494252575
1888,0.249121760968911,0.148938593683168,0.172773036504915,0.0894334469583657,0.328681628769338,-0.21025556513694,0.322632233301825,0.473427250959579,0.662781896899919,0.660248543202338,0.04,0.0801943267300378,316.19991323491,0.762747891004543,0.304603863306209
1948,0.214970574592193,0.156563170355588,0.141701122625971,0.098822895480756,0.319726749979743,-0.220057382159619,0.285088690139076,0.460323655096969,0.660829916033256,0.65824702048292,0.04,0.0785053496448908,315.265264110043,0.7470467572927,0.310086610743577
2008,0.180819388215476,0.164187747028009,0.110629208747028,0.108212344003146,0.310771871190148,-0.229859199182297,0.247545146976327,0.447220059234358,0.658721569666323,0.656245497763503,0.04,0.0759966259186589,314.259410705182,0.731875835529191,0.315504501408468
2068,0.146668201838758,0.171812323700429,0.0795572948680848,0.117601792525536,0.301816992400554,-0.239661016204975,0.210001603813577,0.434116463371747,0.656652948609351,0.654243975044085,0.04,0.0728793152429407,313.272852737173,0.717208860563767,0.320945870301768
2128,0.112517015462041,0.17943690037285,0.0484853809891415,0.126991241047927,0.292862113610959,-0.249462833227654,0.172458060650828,0.421012867509136,0.654618847840957,0.652242452324668,0.04,0.0693094927155835,312.30253669047,0.702793187899708,0.326514629650713
2188,0.0783658290853233,0.18706147704527,0.0174134671101983,0.136380689570317,0.283907234821365,-0.259264650250332,0.134914517488079,0.407909271646526,0.652596444463042,0.65024092960525,0.04,0.06535339846723,311.337373954866,0.688537369724272,0.332244972575543
2248,0.0442146427086057,0.194686053717691,-0.013658446768745,0.145770138092707,0.27495235603177,-0.26906646727301,0.0973709743253303,0.394805675783915,0.650565421895689,0.648239406885833,0.04,0.0610361840472309,310.368597046408,0.674438937831617,0.338134756427201
2308,0.0100634563318881,0.202310630390111,-0.0447303606476883,0.155159586615097,0.265997477242175,-0.278868284295689,0.0598274311625812,0.381702079921304,0.648529670512814,0.646237884166416,0.04,0.056370144737082,309.3971703181,0.660533934197898,0.344172272798467
