time,bias_percent_1,bias_percent_2,bias_percent_3,bias_percent_4,bias_percent_5,bias_percent_6,bias_percent_8,bias_percent_9,normalized_power,power_SP,SP,CV,total_power_MW,fuel_fraction,thermal_efficiency
7,0,0,0,0,0,0,0,0,0.997044013995372,1,0.04,0.0403050960317049,475.819235665395,1.00062055435299,0.349403500428718
67,-0.00274800760378605,-0.00159812306613981,-0.00147021565836849,0.0039092720690694,0.00234879285432919,-0.00270950567102705,-3.17408574400702e-05,-0.000796638521875877,0.99902090932461,0.994137956920099,0.04,0.0408438051471092,476.432904404129,0.99320228349893,0.352467205192688
127,-0.0263023584933802,-0.0152963207759099,-0.0140720641586694,0.0374173183753793,0.0224813030342945,-0.0259338399941156,-0.000303805349783431,-0.00762496870938349,0.960201973881898,0.94389187337809,0.04,0.0543692247280911,457.732131321792,0.904443563605295,0.371864399729492
187,-0.0498567093829744,-0.02899451848568,-0.0266739126589704,0.0709253646816892,0.0426138132142595,-0.049158174317204,-0.000575869842126792,-0.0144532988968912,0.910122187589517,0.89364578983608,0.04,0.0648242755620912,433.810241362127,0.801919927572191,0.397487495791979
247,-0.0734110602725685,-0.0426927161954501,-0.0392757611592714,0.104433410987999,0.0627463233942246,-0.0723825086402926,-0.00084793433447004,-0.0212816290843988,0.858529036328965,0.843399706294071,0.04,0.0696594158845029,409.194145480643,0.7058352134407,0.425971719126253
307,-0.0969654111621627,-0.0563909139052201,-0.0518776096595724,0.137941457294309,0.0828788335741898,-0.095606842963381,-0.0011199988268134,-0.0281099592719064,0.806959991380509,0.793153622752062,0.04,0.070097666999214,384.590401819494,0.617761107336791,0.457438332544642
367,-0.120519762051757,-0.0700891116149903,-0.0644794581598735,0.171449503600619,0.103011343754155,-0.11883117728647,-0.00139206331915676,-0.0349382894594141,0.755796101342511,0.742907539210053,0.04,0.0666034045891374,360.198572191368,0.538293747221346,0.491674096201318
427,-0.144074112941351,-0.0837873093247604,-0.0770813066601745,0.204957549906929,0.12314385393412,-0.142055511609558,-0.00166412781150009,-0.0417666196469217,0.70377259533146,0.692661455668044,0.04,0.0606234083452891,335.673794299722,0.467666678792318,0.527394609273225
487,-0.167628463830945,-0.0974855070345305,-0.0896831551604756,0.238465596213238,0.143276364114085,-0.165279845932647,-0.00193619230384344,-0.0485949498344293,0.652327440187751,0.642415372126034,0.04,0.0529878129634096,311.135741375838,0.404359028001859,0.565376086614735
547,-0.19118281472054,-0.111183704744301,-0.102285003660777,0.271973642519548,0.16340887429405,-0.188504180255735,-0.00220825679618679,-0.0504023228998666,0.600902623687462,0.592169288584025,0.04,0.0452425414051029,286.576372342239,0.348219885442991,0.604702116660821
