time,bias_percent_1,bias_percent_2,bias_percent_3,bias_percent_4,bias_percent_5,bias_percent_6,bias_percent_8,bias_percent_9,normalized_power,power_SP,SP,CV,total_power_MW,fuel_fraction,thermal_efficiency
33,0,0,0,0,0,0,0,0,0.999636165810251,1,0.04,0.039974824303135,476.933619100827,0.999679123868012,0.350551629606346
93,-0.00200248560157729,0.0164609214085499,-0.0161123110497828,-0.0041232216453609,-0.0189099352136651,-0.0120959914900617,0.00827695143959846,0.00128202084021063,0.990413000412855,0.981593365944463,0.04,0.0438979579432147,472.321250850509,0.972754997738328,0.356770298278906
153,-0.00564336851353596,0.0463898694240952,-0.0454074220493877,-0.0116199882732899,-0.053291635602147,-0.034088703290174,0.0233259540570502,0.00361296782241175,0.95977236176071,0.948126758570759,0.04,0.0519576336708477,457.642493333638,0.903385485151247,0.37222703330684
213,-0.00928425142549463,0.0763188174396406,-0.0747025330489925,-0.0191167549012188,-0.087673335990629,-0.0560814150902861,0.038374956674502,0.0059439148046128,0.925837376509168,0.914660151197055,0.04,0.056154335545794,441.445075243026,0.833342413839638,0.389231398104872
273,-0.0129251343374533,0.106247765455186,-0.103997644048597,-0.0266135215291475,-0.122055036379111,-0.0780741268903981,0.0534239592919537,0.00827486178681392,0.891733226234405,0.881193543823351,0.04,0.0571035577565049,425.174774868357,0.767166025696899,0.407223474483014
333,-0.016566017249412,0.136176713470731,-0.133292755048202,-0.0341102881570764,-0.156436736767593,-0.10006683869051,0.0684729619094055,0.010605808769015,0.857580903060358,0.847726936449647,0.04,0.0559133439039952,408.879830848226,0.704907379958391,0.426204771200964
393,-0.0202069001613708,0.166105661486277,-0.162587866047807,-0.0416070547850053,-0.190818437156075,-0.122059550490623,0.0835219645268573,0.0129367557512161,0.823266675180235,0.814260329075943,0.04,0.0529542485947866,392.569217998336,0.647462471162324,0.445508832513743
453,-0.0238477830733293,0.196034609501822,-0.191882977047412,-0.0491038214129341,-0.225200137544557,-0.144052262290735,0.0985709671443091,0.0152677027334173,0.789149482607587,0.780793721702239,0.04,0.0489882057534901,376.249258262531,0.594634531885729,0.464922112604708
513,-0.027488665985288,0.225963557517367,-0.221178088047017,-0.056600588040863,-0.259581837933039,-0.166044974090847,0.113619969761761,0.0175986497156183,0.754906002160891,0.747327114328535,0.04,0.0439831488738707,360.074769110499,0.547713318430135,0.483052201362575
