time,bias_percent_1,bias_percent_2,bias_percent_3,bias_percent_4,bias_percent_5,bias_percent_6,bias_percent_8,bias_percent_9,normalized_power,power_SP,SP,CV,total_power_MW,fuel_fraction,thermal_efficiency
32,0,0,0,0,0,0,0,0,0.999620875550017,1,0.04,0.0399816325672792,476.926414708071,0.999656501683247,0.350554267144667
92,-0.00571399087063264,0.014337113936505,0.0131655251702331,0.00212266516353054,0.00262355631359173,0.00672803811447579,0.00482615681128289,0.00693541100598617,0.994999014491919,0.992467661559451,0.04,0.0427252792034921,474.617990492574,0.991952603489697,0.351566876808015
152,-0.0164277237530691,0.0412192025674519,0.03785088486442,0.00610266234515018,0.00754272440157604,0.0193431095791179,0.0138752008324383,0.0199393066422102,0.981568573545659,0.978344526983422,0.04,0.0478512170474932,468.194056502492,0.97235339730786,0.353798866021545
212,-0.0271414566355056,0.0681012911983987,0.0625362445586069,0.01008265952677,0.0124618924895606,0.0319581810437601,0.0229242448535937,0.0329432022784342,0.967400095136846,0.964221392407393,0.04,0.051487625007183,461.435407648324,0.952730952745894,0.355873228076514
272,-0.037855189517942,0.0949833798293455,0.0872216042527938,0.0140626567083898,0.0173810605775448,0.0445732525084022,0.0319732888747491,0.0459470979146582,0.953007437543261,0.950098257831364,0.04,0.0540307107896158,454.566151507962,0.93423738947766,0.357515212065592
332,-0.0485689224003784,0.121865468460293,0.111906963946981,0.0180426538900094,0.0223002286655293,0.0571883239730444,0.0410223328959045,0.0589509935508821,0.938725555413218,0.935975123255334,0.04,0.0557971040051477,447.752516078333,0.916718935521531,0.358885993496549
392,-0.0592826552828149,0.148747557091239,0.136592323641168,0.0220226510716293,0.0272193967535137,0.0698033954376866,0.05007137691706,0.0719548891871062,0.924470193175638,0.921851988679305,0.04,0.05706416337596,440.951463272688,0.900043821337454,0.359982848798787
452,-0.0699963881652512,0.175629645722186,0.161277683335354,0.0260026482532489,0.0321385648414981,0.0824184669023287,0.0591204209382154,0.0849587848233302,0.910235551776556,0.907728854103276,0.04,0.0579836611808687,434.160268431469,0.88407843814129,0.360839402245184
512,-0.0807101210476876,0.202511734353133,0.185963043029542,0.0299826454348687,0.0370577329294824,0.0950335383669708,0.0681694649593708,0.0979626804595542,0.896018669338991,0.893605719527247,0.04,0.0586487107150959,427.377523171694,0.868710598021439,0.361485793687218
572,-0.0914238539301241,0.22939382298408,0.210648402723729,0.0339626426164884,0.041976901017467,0.107648609831613,0.0772185089805262,0.110966576095778,0.881816584813082,0.879482584951218,0.04,0.0591174037825,420.601812819385,0.853845140817245,0.361948436745517
632,-0.10213758681256,0.256275911615027,0.235333762417915,0.0379426397981082,0.0468960691054513,0.120263681296255,0.0862675530016817,0.123970471732002,0.867625594485666,0.865359450375189,0.04,0.0594250847723117,413.831361802848,0.839407517426944,0.362247354224413
692,-0.112851319694997,0.283158000245974,0.260019122112102,0.0419226369797279,0.0518152371934357,0.132878752760897,0.0953165970228371,0.136974367368226,0.853441330391319,0.851236315799159,0.04,0.059591879523674,407.064083773602,0.825348159295781,0.362393395721638
752,-0.123565052577433,0.31004008887692,0.284704481806289,0.0459026341613476,0.0567344052814201,0.145493824225539,0.104365641043992,0.14997826300445,0.838987328130208,0.83711318122313,0.04,0.0598429246143549,400.160274274137,0.812201099436636,0.362013757575688
812,-0.13427878545987,0.336922177507867,0.309389841500476,0.0498826313429674,0.0616535733694044,0.158108895690182,0.113414685065148,0.162982158640674,0.823818676637546,0.822990046647101,0.04,0.0606818936412429,392.924827524304,0.804499127239331,0.358871169677419
872,-0.144992518342306,0.363804266138814,0.334075201194663,0.0538626285245871,0.0665727414573888,0.170723967154824,0.122463729086303,0.175986054276898,0.809109512591598,0.808866912071072,0.04,0.0619996886317105,385.911140318524,0.801394127527255,0.353830964593924
932,-0.14999226035411,0.376349240833256,0.345595035718617,0.0557199605426763,0.0688683532317816,0.17661100050499,0.126686616296176,0.182054538907136,0.799076558441322,0.802276115935592,0.04,0.0603346520461239,381.218491588723,0.81025270033998,0.345706979630734
992,-0.14999226035411,0.376349240833256,0.345595035718617,0.0557199605426763,0.0688683532317816,0.17661100050499,0.126686616296176,0.182054538907136,0.798744609763583,0.802276115935592,0.04,0.0560691712168605,381.088250350577,0.832458205823384,0.336370419248
1052,-0.14999226035411,0.376349240833256,0.345595035718617,0.0557199605426764,0.0688683532317817,0.17661100050499,0.126686616296176,0.182054538907136,0.799789670759391,0.802276115935592,0.04,0.0544545264340759,381.583083704139,0.849587593415343,0.330016480119144
1112,-0.14999226035411,0.376349240833256,0.345595035718617,0.0557199605426764,0.0688683532317817,0.17661100050499,0.126686616296176,0.182054538907136,0.800640721162981,0.802276115935592,0.04,0.0543280357066396,381.991295368136,0.861020604407792,0.325982734479189
1172,-0.14999226035411,0.376349240833256,0.345595035718617,0.0557199605426764,0.0688683532317816,0.17661100050499,0.126686616296176,0.182054538907136,0.801214996424789,0.802276115935592,0.04,0.0547075925304656,382.263287469882,0.868438761245508,0.323428336848743
1232,-0.14999226035411,0.376349240833256,0.345595035718617,0.0557199605426764,0.0688683532317817,0.17661100050499,0.126686616296176,0.182054538907136,0.801581712557073,0.802276115935592,0.04,0.0551596119453818,382.43693232848,0.873274160626281,0.321783589696075
1292,-0.14999226035411,0.376349240833256,0.345595035718617,0.0557199605426763,0.0688683532317816,0.17661100050499,0.126686616296176,0.182054538907136,0.801815684114835,0.802276115935592,0.04,0.0555407941801195,382.547738376402,0.876464723118045,0.320705105809837
1352,-0.14999226035411,0.376349240833256,0.345595035718617,0.0557199605426763,0.0688683532317816,0.17661100050499,0.126686616296176,0.182054538907136,0.801967150318484,0.802276115935592,0.04,0.0558257531033433,382.619492065944,0.878596918617608,0.319986820648939
1412,-0.14999226035411,0.376349240833256,0.345595035718617,0.0557199605426763,0.0688683532317816,0.17661100050499,0.126686616296176,0.182054538907136,0.80206698575328,0.802276115935592,0.04,0.0560277026712381,382.666800382494,0.88003605098495,0.319503042288325
1472,-0.14999226035411,0.376349240833256,0.345595035718617,0.0557199605426764,0.0688683532317817,0.17661100050499,0.126686616296176,0.182054538907136,0.802133787934502,0.802276115935592,0.04,0.0561673681586812,382.698462278131,0.881013787192245,0.319174868868916
1532,-0.14999226035411,0.376349240833256,0.345595035718617,0.0557199605426763,0.0688683532317816,0.17661100050499,0.126686616296176,0.182054538907136,0.802178941816212,0.802276115935592,0.04,0.0562629496785146,382.719866203604,0.8816806616536,0.318951293035908
1592,-0.14999226035411,0.376349240833256,0.345595035718617,0.0557199605426763,0.0688683532317816,0.17661100050499,0.126686616296176,0.182054538907136,0.802209640031519,0.802276115935592,0.04,0.0563281054888366,382.734418898679,0.882136570976922,0.318798573027937
1652,-0.14999226035411,0.376349240833256,0.345595035718617,0.0557199605426764,0.0688683532317817,0.17661100050499,0.126686616296176,0.182054538907136,0.802230571203258,0.802276115935592,0.04,0.0563724707147797,382.74434177189,0.88244876013933,0.318694052086466
1712,-0.14999226035411,0.376349240833256,0.345595035718617,0.0557199605426764,0.0688683532317817,0.17661100050499,0.126686616296176,0.182054538907136,0.802244861259284,0.802276115935592,0.04,0.0564026732256577,382.751116353052,0.882662865501953,0.31862238677495
1772,-0.14999226035411,0.376349240833256,0.345595035718617,0.0557199605426764,0.0688683532317817,0.17661100050499,0.126686616296176,0.182054538907136,0.802254622052729,0.802276115935592,0.04,0.0564232306035598,382.75574374513,0.882809983776086,0.318573140524861
1832,-0.134443876507299,0.354772280901505,0.338060276458862,0.0401351369044264,0.0634234174169069,0.176877458260846,0.108501786657302,0.165023482637394,0.804375471594784,0.80371031730308,0.04,0.0543720052073695,383.799366614326,0.881485300377593,0.319921815405675
1892,-0.10529065679453,0.314315481029472,0.323932602846822,0.0109135925827079,0.0532141627640169,0.177377066553078,0.074405231084414,0.133090252131628,0.807927048691946,0.806399444867121,0.04,0.051158375271687,385.487691020209,0.873826762643592,0.324145390248063
1952,-0.0761374370817614,0.273858681157438,0.309804929234781,-0.0183079517390107,0.0430049081111268,0.177876674845309,0.0403086755115259,0.101157021625862,0.810987061389541,0.809088572431161,0.04,0.0478802022326859,386.947207456438,0.863070605343908,0.329427664629128
