time,bias_percent_1,bias_percent_2,bias_percent_3,bias_percent_4,bias_percent_5,bias_percent_6,bias_percent_8,bias_percent_9,normalized_power,power_SP,SP,CV,total_power_MW,fuel_fraction,thermal_efficiency
58,0,0,0,0,0,0,0,0,0.999854447088808,1,0.04,0.0399022652221705,477.033003503779,1.00005996659045,0.350491153421859
118,-0.0255334815025202,-0.0100917257958694,0.00932994798677998,0.0289279046886793,-0.0282220597710717,-0.0296157580364027,-0.00595800607632003,-0.0196343002159435,0.988264628428431,0.98084726077032,0.04,0.043361675309925,471.359813672796,0.963293112369483,0.359541292001303
178,-0.0519474278844375,-0.0205314421364238,0.0189816183179316,0.0588533233321407,-0.0574172940170079,-0.0602527491085433,-0.0121214606380303,-0.0399456452669195,0.969011683118251,0.961034082256858,0.04,0.0459008674488028,462.155823817589,0.914478031763562,0.371338372283854
238,-0.0783613742663549,-0.0309711584769783,0.0286332886490835,0.088778741975602,-0.086612528262944,-0.0908897401806839,-0.0182849151997407,-0.0602569903178955,0.948711971141234,0.941220903743396,0.04,0.0457572772604821,452.468031540751,0.867374361358921,0.383297508029657
298,-0.104775320648272,-0.0414108748175329,0.0382849589802352,0.118704160619063,-0.11580776250888,-0.121526731252825,-0.024448369761451,-0.0805683353688715,0.928248829516703,0.921407725229934,0.04,0.0437013111133371,442.711836130313,0.824125608874404,0.394713881258311
