time,bias_percent_1,bias_percent_2,bias_percent_3,bias_percent_4,bias_percent_5,bias_percent_6,bias_percent_8,bias_percent_9,normalized_power,power_SP,SP,CV,total_power_MW,fuel_fraction,thermal_efficiency
45,0,0,0,0,0,0,0,0,0.999767618191966,1,0.04,0.0399276439350582,476.993036160012,0.999901487408613,0.350517334526633
105,-0.00897946436387656,-0.00427281598260981,-0.00734032129182935,-0.018988723300033,0.0266631919689095,-0.0192790986734231,0.0221188039060532,0.0235777549534772,0.990575109554773,0.98599780921481,0.04,0.0434145487236901,472.472577111341,0.981521738480763,0.353696986950182
165,-0.0209520835157118,-0.00996990395942316,-0.0171274163476018,-0.0443070210334106,0.0622141145941221,-0.0449845635713204,0.0516105424474574,0.0550147615581133,0.972724371794993,0.967328221501222,0.04,0.047642099639703,463.938880924878,0.948866049294607,0.359261384431945
225,-0.0329247026675471,-0.0156669919362362,-0.0269145114033741,-0.069625318766788,0.0977650372193347,-0.0706900284692177,0.0811022809888615,0.0864517681627494,0.954020726158236,0.948658633787635,0.04,0.0499731014756099,455.024603127235,0.915903517276477,0.365039473194627
285,-0.0448973218193825,-0.0213640799130494,-0.0367016064591467,-0.0949436165001655,0.133315959844547,-0.0963954933671151,0.110594019530266,0.117888774767386,0.935014922344772,0.929989046074048,0.04,0.0510442192937232,445.944940673233,0.88427267745093,0.370552468867138
345,-0.0568699409712177,-0.0270611678898626,-0.0464887015149192,-0.120261914233543,0.16886688246976,-0.122100958265013,0.14008575807167,0.149325781372022,0.91606498391201,0.911319458360461,0.04,0.0512047387239742,436.903942685092,0.854292215659309,0.37578045771349
405,-0.068842560123053,-0.0327582558666758,-0.0562757965706916,-0.14558021196692,0.204417805094972,-0.14780642316291,0.169577496613074,0.180762787976658,0.897128520315042,0.892649870646874,0.04,0.0508644063263969,427.869557360761,0.825952480087569,0.380637000632271
465,-0.0808151792748883,-0.038455343843489,-0.0660628916264641,-0.170898509700298,0.239968727720185,-0.173511888060807,0.199069235154478,0.212199794581294,0.878223088441603,0.873980282933286,0.04,0.0502669044531617,418.850019059497,0.799094403618095,0.385136896697911
525,-0.0927877984267237,-0.0441524318203021,-0.0758499866822365,-0.196216807433675,0.275519650345397,-0.199217352958705,0.228560973695883,0.24363680118593,0.859337393424196,0.855310695219699,0.04,0.049562716809223,409.839722146348,0.773561635609291,0.389290496521963
585,-0.104760417578559,-0.0498495197971154,-0.085637081738009,-0.221535105167053,0.31107057297061,-0.224922817856602,0.258052712237287,0.275073807790567,0.84045911124257,0.836641107506112,0.04,0.0488361472864939,400.831260399959,0.749321924561763,0.393050018205561
645,-0.116733036730394,-0.0555466077739285,-0.0954241767937814,-0.24685340290043,0.346621495595823,-0.250628282754499,0.287544450778691,0.306510814395203,0.821762280278361,0.817971519792525,0.04,0.04809041818028,391.959912828306,0.726217649876091,0.39657883163893
705,-0.12870565588223,-0.0612436957507417,-0.105211271849554,-0.272171700633808,0.382172418221035,-0.276333747652397,0.317036189320095,0.337947820999839,0.802679320348686,0.799301932078938,0.04,0.0475994799963326,382.926977340562,0.70365674927542,0.39986167625249
765,-0.140678275034065,-0.066940783727555,-0.114998366905326,-0.297489998367185,0.417723340846248,-0.302039212550294,0.3465279278615,0.369384827604475,0.784124010196479,0.78063234436535,0.04,0.0471466319652768,373.95613357257,0.681138675600816,0.403403625073703
825,-0.1526508941859,-0.0726378717043681,-0.124785461961099,-0.322808296100563,0.45327426347146,-0.327744677448192,0.376019666402904,0.400821834209111,0.765263841742762,0.761962756651763,0.04,0.0465871958618698,364.956998416256,0.660041478531617,0.406279719474632
885,-0.164623513337735,-0.0783349596811813,-0.134572557016871,-0.34812659383394,0.488825186096673,-0.353450142346089,0.405511404944308,0.432258840813747,0.746414589941808,0.743293168938176,0.04,0.0459197823511911,355.974709525101,0.640320604708108,0.408485216411281
945,-0.167616668125694,-0.0797592316753845,-0.137019330780814,-0.354456168267284,0.497712916752976,-0.359876508570563,0.412884339579659,0.440118092464906,0.737660630847333,0.738625772009779,0.04,0.0406583495074324,351.922350183927,0.638362052271532,0.405074088351152
1005,-0.167616668125694,-0.0797592316753845,-0.137019330780814,-0.354456168267284,0.497712916752976,-0.359876508570563,0.412884339579659,0.440118092464906,0.736293110991033,0.738625772009779,0.04,0.0350730721881613,351.277347232579,0.650008262202311,0.397087251031413
1065,-0.167616668125694,-0.0797592316753846,-0.137019330780814,-0.354456168267284,0.497712916752976,-0.359876508570563,0.412884339579659,0.440118092464906,0.73549326849194,0.738625772009779,0.04,0.0317326925151421,350.899181141115,0.667377284940365,0.386336383660052
1125,-0.167616668125694,-0.0797592316753846,-0.137019330780814,-0.354456168267284,0.497712916752976,-0.359876508570563,0.412884339579659,0.440118092464906,0.73510733311852,0.738625772009779,0.04,0.0303319495915806,350.718273972066,0.687899686110725,0.374617412749922
1185,-0.167616668125694,-0.0797592316753845,-0.137019330780814,-0.354456168267284,0.497712916752976,-0.359876508570563,0.412884339579659,0.440118092464906,0.735116921113147,0.738625772009779,0.04,0.0304080120601508,350.725856231378,0.709162238998085,0.36339325154265
1245,-0.167616668125694,-0.0797592316753846,-0.137019330780814,-0.354456168267284,0.497712916752976,-0.359876508570563,0.412884339579659,0.440118092464906,0.735470759847589,0.738625772009779,0.04,0.0315184721894605,350.89705592738,0.728968342797241,0.353692403508696
1305,-0.167616668125694,-0.0797592316753846,-0.137019330780814,-0.354456168267284,0.497712916752976,-0.359876508570563,0.412884339579659,0.440118092464906,0.736067569494533,0.738625772009779,0.04,0.0332683010781195,351.183224962673,0.745631582124052,0.346070152381604
1365,-0.167616668125694,-0.0797592316753845,-0.137019330780814,-0.354456168267284,0.497712916752976,-0.359876508570563,0.412884339579659,0.440118092464906,0.736781856610636,0.738625772009779,0.04,0.0353127361037685,351.524449031652,0.758187142716357,0.340669926704504
1425,-0.167616668125694,-0.0797592316753845,-0.137019330780814,-0.354456168267284,0.497712916752976,-0.359876508570563,0.412884339579659,0.440118092464906,0.73749932650199,0.738625772009779,0.04,0.0373681623546794,351.866397476366,0.766394327980971,0.33734959177402
1485,-0.167616668125694,-0.0797592316753846,-0.137019330780814,-0.354456168267284,0.497712916752976,-0.359876508570563,0.412884339579659,0.440118092464906,0.73813785067556,0.738625772009779,0.04,0.039223543204567,352.17017669367,0.770576670932217,0.335808275768755
1545,-0.167616668125694,-0.0797592316753845,-0.137019330780814,-0.354456168267284,0.497712916752976,-0.359876508570563,0.412884339579659,0.440118092464906,0.738650843136596,0.738625772009779,0.04,0.0407426810337167,352.413863643818,0.771408216679138,0.33567840323583
1605,-0.167616668125694,-0.0797592316753846,-0.137019330780814,-0.354456168267284,0.497712916752976,-0.359876508570563,0.412884339579659,0.440118092464906,0.739021629305124,0.738625772009779,0.04,0.0418578455991177,352.589593109483,0.769721502774827,0.336581736631579
1665,-0.167616668125694,-0.0797592316753845,-0.137019330780814,-0.354456168267284,0.497712916752976,-0.359876508570563,0.412884339579659,0.440118092464906,0.739254319246898,0.738625772009779,0.04,0.0425576095614257,352.699571185805,0.766361667133837,0.338162802810324
1725,-0.167616668125694,-0.0797592316753846,-0.137019330780814,-0.354456168267284,0.497712916752976,-0.359876508570563,0.412884339579659,0.440118092464906,0.739366175185619,0.738625772009779,0.04,0.0428737975141277,352.752064851819,0.762093717155723,0.340107226381881
1785,-0.167616668125694,-0.0797592316753846,-0.137019330780814,-0.354456168267284,0.497712916752976,-0.359876508570563,0.412884339579659,0.440118092464906,0.739380848430292,0.738625772009779,0.04,0.0428673619441993,352.758395330701,0.757551124249191,0.342152791499937
1845,-0.181470923002527,-0.073924420349143,-0.119497211409001,-0.344452575900176,0.470423813551486,-0.321520917043676,0.39353739625922,0.421669972825464,0.737060127080015,0.735381710129528,0.04,0.0433987086611708,351.61975504545,0.749118771353347,0.344887348632541
1905,-0.199943262838303,-0.0661446719141544,-0.0961343855799159,-0.331114452744031,0.434038342616167,-0.270380128341158,0.367741471831969,0.397072479972873,0.732947723155108,0.731056294289193,0.04,0.0439500973431927,349.655733865062,0.737856979118492,0.348195489719549
1965,-0.218415602674079,-0.0583649234791657,-0.0727715597508311,-0.317776329587887,0.397652871680848,-0.219239339638641,0.341945547404717,0.372474987120283,0.728651987650309,0.726730878448858,0.04,0.0440517965674154,347.605222409735,0.726110929698718,0.351753149730137
2025,-0.236887942509856,-0.050585175044177,-0.0494087339217464,-0.304438206431742,0.361267400745528,-0.168098550936124,0.316149622977466,0.347877494267693,0.724250494471182,0.722405462608523,0.04,0.0437665347773298,345.504591329387,0.714625714917933,0.355246542336758
2085,-0.255360282345632,-0.0428054266091883,-0.0260459080926615,-0.291100083275597,0.324881929810209,-0.116957762233607,0.290353698550214,0.323280001415103,0.719781034972503,0.718080046768188,0.04,0.0431989744434804,343.371809254545,0.703882810779639,0.358442050830934
2145,-0.273832622181408,-0.0350256781741997,-0.00268308226357692,-0.277761960119453,0.288496458874889,-0.0658169735310902,0.264557774122963,0.298682508562513,0.715276694127439,0.713754630927854,0.04,0.0424629244704787,341.222636654652,0.694157733495596,0.361188857714506
2205,-0.292304962017185,-0.027245929739211,0.0206797435655079,-0.264423836963308,0.25211098793957,-0.0146761848285731,0.238761849695711,0.274085015709923,0.71076765943618,0.709429215087519,0.04,0.041668230763326,339.071448998666,0.68553900313076,0.363424105233633
2265,-0.310777301852961,-0.0194661813042222,0.0440425693945928,-0.251085713807164,0.21572551700425,0.0364646038739439,0.21296592526846,0.249487522857332,0.70627669738327,0.705103799247184,0.04,0.0409097973085793,336.928991699172,0.677957617383486,0.365166150951734
2325,-0.329249641688737,-0.0116864328692336,0.0674053952236775,-0.237747590651019,0.179340046068931,0.0876053925764611,0.187170000841208,0.224890030004742,0.701802473534496,0.700778383406849,0.04,0.0402461680676095,334.794399799173,0.671295526728424,0.366453697349915
2385,-0.347721981524514,-0.00390668443424511,0.0907682210527622,-0.224409467494875,0.142954575133611,0.138746181278978,0.161374076413957,0.200292537152152,0.697330517867758,0.696452967566514,0.04,0.0396859665596247,332.660788756934,0.665515805444307,0.367280537337387
2445,-0.36619432136029,0.00387306400074374,0.114131046881847,-0.21107134433873,0.106569104198292,0.189886969981495,0.135578151986705,0.175695044299562,0.692863081395346,0.692127551726179,0.04,0.0392215423455959,330.529510637567,0.660601393514669,0.367642263602555
2505,-0.384666661196066,0.0116528124357324,0.137493872710932,-0.197733221182585,0.0701836332629721,0.241027758684012,0.109782227559454,0.151097551446972,0.688413017385955,0.687802135885844,0.04,0.0388558319032822,328.40655722287,0.65647517734954,0.367576879958777
2565,-0.403139001031843,0.0194325608707211,0.160856698540017,-0.184395098026441,0.0337981623276528,0.292168547386529,0.0839863031322022,0.126500058594381,0.683987042335086,0.683476720045509,0.04,0.0385945378870241,326.295128561949,0.653003669136203,0.367155167281633
2625,-0.421611340867619,0.0272123093057098,0.184219524369101,-0.171056974870296,-0.00258730860766673,0.343309336089047,0.0581903787049506,0.101902565741791,0.679586775293265,0.679151304205174,0.04,0.0384365157505416,324.195963735307,0.650033763517161,0.366459820748657
2685,-0.440083680703395,0.0349920577406983,0.207582350198186,-0.157718851714151,-0.0389727795429862,0.394450124791563,0.0323944542776991,0.0773050728892011,0.675210483253534,0.674825888364839,0.04,0.0383718140351414,322.108210499017,0.647416825664006,0.365571633476421
2745,-0.444701765662339,0.0369369948494456,0.213423056655457,-0.154384320925115,-0.048069147276816,0.407235321967193,0.0259454731708862,0.0711556996760536,0.670503069249099,0.670500472524504,0.04,0.0381709903550365,319.859892752324,0.646011884324337,0.363809433493653
2805,-0.44470176566234,0.0369369948494456,0.213423056655457,-0.154384320925115,-0.0480691472768161,0.407235321967193,0.0259454731708862,0.0711556996760535,0.666136172501538,0.666175056684169,0.04,0.0380737499027318,317.794759929553,0.646309563651779,0.361294063655635
2865,-0.44470176566234,0.0369369948494456,0.213423056655457,-0.154384320925115,-0.0480691472768161,0.407235321967193,0.0259454731708862,0.0711556996760535,0.661897993499295,0.661849640843834,0.04,0.0384032628796217,315.758123877216,0.646110458408522,0.359089278475657
2925,-0.44470176566234,0.0369369948494456,0.213423056655457,-0.154384320925115,-0.0480691472768161,0.407235321967193,0.0259454731708862,0.0711556996760535,0.657675160242029,0.657524225003499,0.04,0.0389213423226863,313.743430566808,0.645232551824999,0.357283572189916
2985,-0.444701765662339,0.0369369948494456,0.213423056655457,-0.154384320925115,-0.048069147276816,0.407235321967193,0.0259454731708863,0.0711556996760535,0.653479048655127,0.653198809163164,0.04,0.0395020785228615,311.74147849399,0.643600601534568,0.35590396450263
3045,-0.44470176566234,0.0369369948494456,0.213423056655457,-0.154384320925115,-0.0480691472768161,0.407235321967193,0.0259454731708862,0.0711556996760535,0.649285436140237,0.64887339332283,0.04,0.0400505516598012,309.742478621439,0.64121790604713,0.354935798476213
3105,-0.44470176566234,0.0369369948494456,0.213423056655457,-0.154384320925115,-0.0480691472768161,0.407235321967193,0.0259454731708862,0.0711556996760535,0.645053495845302,0.644547977482495,0.04,0.0405272699513224,307.721351976696,0.638167310360031,0.354305385808193
3165,-0.44470176566234,0.0369369948494456,0.213423056655457,-0.154384320925115,-0.0480691472768161,0.407235321967193,0.0259454731708863,0.0711556996760535,0.640807232191982,0.64022256164216,0.04,0.0408809386122528,305.695266101261,0.634593104547325,0.353954991322241
3225,-0.44470176566234,0.0369369948494456,0.213423056655457,-0.154384320925115,-0.0480691472768161,0.407235321967193,0.0259454731708862,0.0711556996760535,0.636536490905506,0.635897145801825,0.04,0.0411125372205123,303.657504247133,0.630640821018651,0.353799011829671
3285,-0.44470176566234,0.0369369948494456,0.213423056655457,-0.154384320925115,-0.0480691472768161,0.407235321967193,0.0259454731708862,0.0711556996760535,0.632243090163529,0.63157172996149,0.04,0.0412319004165482,301.608956884752,0.626451514874264,0.353762217169498
3345,-0.44470176566234,0.0369369948494456,0.213423056655457,-0.154384320925115,-0.0480691472768161,0.407235321967193,0.0259454731708863,0.0711556996760535,0.627930771881831,0.627246314121155,0.04,0.0412585151638922,299.551416916949,0.62214698749137,0.353779816161428
3405,-0.44470176566234,0.0369369948494456,0.213423056655457,-0.154384320925115,-0.0480691472768161,0.407235321967193,0.0259454731708863,0.0711556996760535,0.623604073947815,0.62292089828082,0.04,0.0412164104396825,297.487053704527,0.617823017652757,0.353800679272889
3465,-0.44470176566234,0.0369369948494456,0.213423056655457,-0.154384320925115,-0.0480691472768161,0.407235321967193,0.0259454731708863,0.0711556996760536,0.619267605127504,0.618595482440485,0.04,0.0411301330333954,295.418063865223,0.613547573768844,0.35378831164849
3525,-0.44470176566234,0.0369369948494456,0.213423056655457,-0.154384320925115,-0.0480691472768161,0.407235321967193,0.0259454731708862,0.0711556996760535,0.614925548548619,0.61427006660015,0.04,0.0410218951769582,293.346440195099,0.60936245096496,0.353720157104719
3585,-0.44470176566234,0.0369369948494456,0.213423056655457,-0.154384320925115,-0.0480691472768161,0.407235321967193,0.0259454731708863,0.0711556996760536,0.610581374158604,0.609944650759815,0.04,0.040909824636168,291.273829100569,0.605287058258163,0.353585749245969
3645,-0.437639230071286,0.0229835195063844,0.216768104567857,-0.162816595416401,-0.0425301667124655,0.409875868080697,3.08442571862884e-05,0.0594637841146488,0.609226600954363,0.608863296799732,0.04,0.0382144535646728,290.661123308381,0.60287767912671,0.354252088247827
3705,-0.428222515949881,0.0043788857156361,0.221228168451057,-0.174059628071449,-0.0351448592933315,0.413396596232037,-0.0345219942944136,0.0438745633661093,0.609192796000752,0.608863296799732,0.04,0.0353550597240415,290.645708541568,0.600866569346588,0.355418925415738
3765,-0.418805801828477,-0.0142257480751122,0.225688232334257,-0.185302660726498,-0.0277595518741975,0.416917324383377,-0.0690748328460136,0.0282853426175697,0.60915262053212,0.608863296799732,0.04,0.0331662078885852,290.626265354728,0.599030404165606,0.356484516533372
3825,-0.409389087707072,-0.0328303818658603,0.230148296217457,-0.196545693381546,-0.0203742444550635,0.420438052534716,-0.103627671397613,0.0126961218690302,0.609088710734615,0.608863296799732,0.04,0.0315472588254034,290.595689129663,0.597541623662828,0.357335102527868
3885,-0.399972373585667,-0.0514350156566087,0.234608360100657,-0.207788726036594,-0.0129889370359296,0.423958780686056,-0.138180509949213,-0.00289309887950935,0.609024945313376,0.608863296799732,0.04,0.0304044031112899,290.565341556299,0.596445697612472,0.357954294174609
3945,-0.390555659464263,-0.070039649447357,0.239068423983857,-0.219031758691642,-0.0056036296167955,0.427479508837396,-0.172733348500813,-0.0184823196280489,0.608976005304744,0.608863296799732,0.04,0.0296553411107284,290.542143658936,0.595678680346978,0.358386594146701
4005,-0.381138945342858,-0.0886442832381053,0.243528487867057,-0.230274791346691,0.00178167780233855,0.431000236988735,-0.207286187052413,-0.0340715403765884,0.608947837420033,0.608863296799732,0.04,0.029220015418575,290.528876338985,0.595124514489619,0.358703934648989
4065,-0.371722231221454,-0.107248917028854,0.247988551750257,-0.241517824001739,0.0091669852214726,0.434520965140075,-0.241839025604013,-0.049660761125128,0.608940511083165,0.608863296799732,0.04,0.0290206131837704,290.525535974163,0.594655996783961,0.358982422929748
4125,-0.362305517100049,-0.125853550819602,0.252448615633457,-0.252760856656787,0.0165522926406067,0.438041693291415,-0.276391864155613,-0.0652499818736676,0.608950590979909,0.608863296799732,0.04,0.0289853022695811,290.530464297633,0.594160405758742,0.359287945944535
4185,-0.352888802978644,-0.14445818461035,0.256908679516657,-0.264003889311835,0.0239376000597407,0.441562421442754,-0.310944702707213,-0.0808392026222071,0.608972992312787,0.608863296799732,0.04,0.0290520145457075,290.541227732969,0.593552948451352,0.359668974793876
4245,-0.34347208885724,-0.163062818401098,0.261368743399857,-0.275246921966883,0.0313229074788746,0.445083149594094,-0.345497541258813,-0.0964284233707467,0.609002338064251,0.608863296799732,0.04,0.0291708385760035,290.555263341608,0.59278105207783,0.360154719400388
4305,-0.334055374735835,-0.181667452191847,0.265828807283057,-0.286489954621931,0.0387082148980087,0.448603877745434,-0.380050379810413,-0.112017644119286,0.609033844522865,0.608863296799732,0.04,0.0293047251160476,290.570295487433,0.591822395358731,0.36075677501228
4365,-0.32463866061443,-0.200272085982595,0.270288871166257,-0.29773298727698,0.0460935223171427,0.452124605896773,-0.414603218362013,-0.127606864867826,0.609063797389216,0.608863296799732,0.04,0.0294287815545807,290.58456239423,0.590679284440259,0.361472676167728
4425,-0.315221946493026,-0.218876719773343,0.274748935049457,-0.308976019932028,0.0534788297362768,0.455645334048113,-0.449156056913613,-0.143196085616365,0.609089711204698,0.608863296799732,0.04,0.0295286220068596,290.596886636405,0.589371470873628,0.362290147737135
4485,-0.305805232371621,-0.237481353564091,0.279208998932657,-0.320219052587076,0.0608641371554108,0.459166062199452,-0.483708895465213,-0.158785306364905,0.609110265107454,0.608863296799732,0.04,0.0295982224464926,290.606647804553,0.587928950051726,0.363191248710295
4545,-0.30345105384127,-0.242132512011778,0.280324014903457,-0.323029810750838,0.0627104640101943,0.460046244237287,-0.492347105103113,-0.16268261155204,0.608172204692262,0.608863296799732,0.04,0.030933326601788,290.155214214317,0.589763642801671,0.361498966196566
4605,-0.30345105384127,-0.242132512011778,0.280324014903457,-0.323029810750838,0.0627104640101943,0.460046244237287,-0.492347105103113,-0.16268261155204,0.60800284106702,0.608863296799732,0.04,0.0323399908762103,290.078123010311,0.594795500104656,0.358345519437249
4665,-0.30345105384127,-0.242132512011778,0.280324014903457,-0.323029810750838,0.0627104640101943,0.460046244237287,-0.492347105103113,-0.16268261155204,0.608062845138913,0.608863296799732,0.04,0.0339530241949509,290.107658132659,0.599777491395145,0.355405141384775
4725,-0.30345105384127,-0.242132512011778,0.280324014903457,-0.323029810750838,0.0627104640101943,0.460046244237287,-0.492347105103113,-0.16268261155204,0.608202100011987,0.608863296799732,0.04,0.0355858221270232,290.174512228662,0.604056290047586,0.352968970598372
4785,-0.30345105384127,-0.242132512011778,0.280324014903457,-0.323029810750838,0.0627104640101943,0.460046244237288,-0.492347105103113,-0.16268261155204,0.608374397532102,0.608863296799732,0.04,0.0370795541461712,290.256835523894,0.60735052783923,0.35115408030029
4845,-0.30345105384127,-0.242132512011778,0.280324014903457,-0.323029810750838,0.0627104640101943,0.460046244237288,-0.492347105103113,-0.16268261155204,0.608548100696997,0.608863296799732,0.04,0.0383422786575926,290.339622142528,0.609592280654961,0.349962511622479
4905,-0.30345105384127,-0.242132512011778,0.280324014903457,-0.323029810750838,0.0627104640101943,0.460046244237288,-0.492347105103113,-0.16268261155204,0.608702176798444,0.608863296799732,0.04,0.0393333730293485,290.412917852161,0.610861401815152,0.349323595929384
4965,-0.30345105384127,-0.242132512011778,0.280324014903457,-0.323029810750838,0.0627104640101943,0.460046244237287,-0.492347105103113,-0.16268261155204,0.608825270541916,0.608863296799732,0.04,0.0400497034735528,290.471351269325,0.611324620888984,0.349129136383215
5025,-0.30345105384127,-0.242132512011778,0.280324014903457,-0.323029810750838,0.0627104640101943,0.460046244237287,-0.492347105103113,-0.16268261155204,0.608913896354248,0.608863296799732,0.04,0.0405135763742263,290.513386457367,0.611185478648217,0.34925915425848
5085,-0.30345105384127,-0.242132512011778,0.280324014903457,-0.323029810750838,0.0627104640101943,0.460046244237287,-0.492347105103113,-0.16268261155204,0.60896954791236,0.608863296799732,0.04,0.0407639858532814,290.539692185005,0.610646574620187,0.349599033295349
5145,-0.30345105384127,-0.242132512011778,0.280324014903457,-0.323029810750838,0.0627104640101943,0.460046244237287,-0.492347105103113,-0.16268261155204,0.60899698811795,0.608863296799732,0.04,0.0408471377528337,290.552583591456,0.609888048979869,0.350049365320821
5205,-0.30345105384127,-0.242132512011778,0.280324014903457,-0.323029810750838,0.0627104640101943,0.460046244237287,-0.492347105103113,-0.16268261155204,0.60900238515878,0.608863296799732,0.04,0.0408104614615425,290.55500942467,0.609055189846681,0.350530970697009
5265,-0.30345105384127,-0.242132512011778,0.280324014903457,-0.323029810750838,0.0627104640101943,0.460046244237287,-0.492347105103113,-0.16268261155204,0.60899217993758,0.608863296799732,0.04,0.0406977405714663,290.55004156751,0.608254730367873,0.350986266092962
5325,-0.30345105384127,-0.242132512011778,0.280324014903457,-0.323029810750838,0.0627104640101944,0.460046244237288,-0.492347105103113,-0.16268261155204,0.608972331278313,0.608863296799732,0.04,0.0405460901625208,290.540516827211,0.607556369705854,0.351378190969493
5385,-0.30345105384127,-0.242132512011778,0.280324014903457,-0.323029810750838,0.0627104640101943,0.460046244237287,-0.492347105103113,-0.16268261155204,0.608947873432079,0.608863296799732,0.04,0.0403844540206072,290.528828701994,0.606997551056119,0.351687530830359
5445,-0.271710348896392,-0.23298441293087,0.282328055040891,-0.322644283497241,0.0747700107335794,0.442866456765741,-0.477980265257413,-0.159084885222785,0.607808897265113,0.608863296799732,0.04,0.0417555654319554,289.97544049278,0.60935153650574,0.349661633850916
5505,-0.229389408969888,-0.220786947489659,0.28500010855747,-0.322130247159111,0.0908494063647593,0.419960073470346,-0.458824478796479,-0.154287916783778,0.607305691946586,0.608863296799732,0.04,0.0434546851892686,289.744622590377,0.618191650778917,0.344387139866142
5565,-0.187068469043385,-0.208589482048449,0.287672162074049,-0.321616210820982,0.106928801995939,0.39705369017495,-0.439668692335546,-0.149490948344771,0.607321863476163,0.608863296799732,0.04,0.0454881745469779,289.754179483362,0.627587033923056,0.339242631163018
5625,-0.144747529116881,-0.196392016607238,0.290344215590628,-0.321102174482852,0.123008197627119,0.374147306879555,-0.420512905874613,-0.144693979905764,0.607493647406631,0.608863296799732,0.04,0.0476945586258393,289.836941257744,0.636207663555814,0.334741469172235
5685,-0.102426589190377,-0.184194551166027,0.293016269107207,-0.320588138144723,0.139087593258299,0.35124092358416,-0.40135711941368,-0.139897011466757,0.607733579027181,0.608863296799732,0.04,0.0498305696774045,289.951725443919,0.643497444216389,0.331080458083782
5745,-0.0601056492638738,-0.171997085724816,0.295688322623786,-0.320074101806593,0.155166988889479,0.328334540288764,-0.382201332952746,-0.135100043027751,0.607993528173989,0.608863296799732,0.04,0.0517371423447727,290.075783661251,0.649251036919842,0.328286858899302
5805,-0.0177847093373701,-0.159799620283606,0.298360376140365,-0.319560065468464,0.171246384520659,0.305428156993369,-0.363045546491813,-0.130303074588744,0.608268427609196,0.608863296799732,0.04,0.0533448382620803,290.20754317591,0.653418475604008,0.32634124251806
5865,0.0245362305891335,-0.147602154842395,0.301032429656944,-0.319046029130334,0.187325780151839,0.282521773697974,-0.34388976003088,-0.125506106149737,0.608646483368339,0.608863296799732,0.04,0.054769986800018,290.388487054955,0.655527987556336,0.32549388339667
5925,0.0668571705156371,-0.135404689401184,0.303704483173523,-0.318531992792205,0.203405175783019,0.259615390402578,-0.324733973569946,-0.12070913771073,0.609071792564333,0.608863296799732,0.04,0.0561106942083794,290.591492498268,0.655156729789092,0.32590600701448
5985,0.109178110442141,-0.123207223959973,0.306376536690102,-0.318017956454075,0.219484571414199,0.236709007107183,-0.305578187109013,-0.115912169271723,0.609408843239527,0.608863296799732,0.04,0.0573280256994183,290.751313689451,0.652481298984521,0.32742232889264
6045,0.151499050368644,-0.111009758518762,0.309048590206681,-0.317503920115946,0.235563967045379,0.213802623811788,-0.28642240064808,-0.111115200832716,0.609739422337769,0.608863296799732,0.04,0.0582022902732484,290.909232147562,0.64791226594052,0.329910378805108
6105,0.193819990295148,-0.0988122930775515,0.31172064372326,-0.316989883777816,0.251643362676559,0.190896240516392,-0.267266614187147,-0.10631823239371,0.610014555930196,0.608863296799732,0.04,0.0586812737153996,291.039683365302,0.64151767446512,0.333348311296349
6165,0.236140930221652,-0.0866148276363407,0.314392697239839,-0.316475847439687,0.267722758307739,0.167989857220997,-0.248110827726213,-0.101521263954703,0.610160317086317,0.608863296799732,0.04,0.0586287333552488,291.107961509195,0.633955209175709,0.337403967129194
6225,0.278461870148155,-0.07441736219513,0.317064750756418,-0.315961811101557,0.283802153938919,0.145083473925602,-0.22895504126528,-0.096724295515696,0.610126679862716,0.608863296799732,0.04,0.0580143454797497,291.090412606558,0.62621058945922,0.341556197953828
6285,0.320782810074659,-0.0622198967539191,0.319736804272997,-0.315447774763428,0.299881549570099,0.122177090630206,-0.199734366647352,-0.0919273270766892,0.609628950449999,0.608863296799732,0.04,0.0572845592520452,290.846088860624,0.619912597931704,0.344736638133673
6345,0.331363045056285,-0.0591705303936164,0.320404817652142,-0.315319265678895,0.303901398477894,0.116450494806358,-0.154951822611535,-0.0907280849669375,0.612258417348726,0.614733392142936,0.04,0.0526794303873867,292.137355502611,0.628731507750031,0.341410241755962
6405,0.331363045056285,-0.0591705303936164,0.320404817652142,-0.315319265678895,0.303901398477894,0.116450494806358,-0.118175465228085,-0.0907280849669375,0.619897455440222,0.622560185933875,0.04,0.0473129790698147,295.815789757681,0.645333236828521,0.336815442136019
6465,0.331363045056285,-0.0591705303936164,0.320404817652142,-0.315319265678895,0.303901398477894,0.116450494806358,-0.0916990521871918,-0.0907280849669375,0.62826329544952,0.630386979724815,0.04,0.0444717019331846,299.805523584822,0.659351007737744,0.334100889560855
6525,0.331363045056285,-0.0591705303936164,0.320404817652142,-0.315319265678895,0.303901398477894,0.116450494806358,-0.0732930275450914,-0.0732930275450914,0.635997265087639,0.638213773515754,0.04,0.043491112299766,303.500215221975,0.672950708506553,0.331383152365158
6585,0.331363045056285,-0.0591705303936163,0.320404817652142,-0.315319265678895,0.303901398477894,0.116450494806358,-0.0599616283651529,-0.0599616283651529,0.644168894832761,0.646040567306693,0.04,0.0430219273496545,307.397942900758,0.685226880250056,0.329625834226309
6645,0.331363045056285,-0.0591705303936163,0.320404817652142,-0.315319265678895,0.303901398477894,0.116450494806358,-0.0495452118139256,-0.0495452118139256,0.652278195831522,0.653867361097633,0.04,0.042924848723491,311.265958889631,0.695663612789396,0.328766089350034
6705,0.331363045056285,-0.0591705303936164,0.320404817652142,-0.315319265678895,0.303901398477894,0.116450494806358,-0.040615097049858,-0.040615097049858,0.660280458841363,0.661694154888572,0.04,0.0429090029189747,315.08308464184,0.704849243489717,0.328460785283572
6765,0.331363045056285,-0.0591705303936164,0.320404817652142,-0.315319265678895,0.303901398477894,0.116450494806358,-0.032422480163314,-0.032422480163314,0.668325341370364,0.669520948679512,0.04,0.0428564213868092,318.864890059435,0.713155778390317,0.328531466965313
6825,0.331363045056285,-0.0591705303936164,0.320404817652142,-0.315319265678895,0.303901398477894,0.116450494806358,-0.024677765489521,-0.024677765489521,0.676137037506167,0.677347742470451,0.04,0.0427259374278766,322.625891017169,0.721250454971632,0.328675848775936
6885,0.331363045056285,-0.0591705303936164,0.320404817652142,-0.315319265678895,0.303901398477894,0.116450494806358,-0.0173397664038614,-0.0173397664038614,0.683949889999548,0.68517453626139,0.04,0.0425357454114718,326.375054496729,0.729080229328126,0.328924567352716
6945,0.331363045056285,-0.0591705303936164,0.320404817652142,-0.315319265678895,0.303901398477894,0.116450494806358,-0.0104588999275964,-0.0104588999275964,0.691792195212985,0.69300133005233,0.04,0.0423108477530629,330.116647004049,0.736696743037295,0.329255737661381
7005,0.331363045056285,-0.0591705303936164,0.320404817652142,-0.315319265678895,0.303901398477894,0.116450494806358,-0.00502608361609775,-0.00502608361609775,0.699629831057653,0.700828123843269,0.04,0.0420583598287819,333.855911283309,0.744234351059992,0.329612774593687
7065,0.331363045056285,-0.0591705303936164,0.320404817652142,-0.315319265678895,0.303901398477894,0.116450494806358,-0.00237388023582633,-0.00237388023582633,0.707444200619201,0.708654917634208,0.04,0.0418039639099793,337.585249575897,0.75169725729805,0.329985740216453
7125,0.331363045056285,-0.0591705303936164,0.320404817652142,-0.315319265678895,0.303901398477894,0.116450494806358,-0.00112107337162345,-0.00112107337162345,0.715237666979081,0.716481711425148,0.04,0.0415321070991596,341.302128014062,0.759163912319475,0.33033768211316
7185,0.331363045056285,-0.0591705303936164,0.320404817652142,-0.315319265678895,0.303901398477894,0.116450494806358,-0.000529295178795245,-0.000529295178795245,0.723202724969997,0.724308505216087,0.04,0.0412338907793755,345.047195398407,0.766514504591177,0.330759860954832
