time,bias_percent_1,bias_percent_2,bias_percent_3,bias_percent_4,bias_percent_5,bias_percent_6,bias_percent_8,bias_percent_9,normalized_power,power_SP,SP,CV,total_power_MW,fuel_fraction,thermal_efficiency
34,0,0,0,0,0,0,0,0,0.999651266193307,1,0.04,0.0399686691758836,476.940614943261,0.99970040690393,0.350549308481762
94,-0.0157160730847082,-0.00412608332415118,-0.0200607385325256,-0.00230974073367645,0.0101235124846523,0.00653267441301568,0.00432555839551634,-0.000623890519156134,0.997976696836521,0.995867922857189,0.04,0.0402802438772943,476.092829844186,0.993668295808257,0.352050433803103
154,-0.0434503197047818,-0.0114074068373591,-0.0554620418252181,-0.00638575379310566,0.027988534516392,0.0180609233771606,0.011958896740545,-0.00172487378825537,0.991524241702527,0.988576022016934,0.04,0.0410200446849041,472.999715330095,0.976450504723775,0.355930595664575
214,-0.0711845663248552,-0.0186887303505671,-0.0908633451179105,-0.0104617668525349,0.0458535565481315,0.0295891723413058,0.0195922350855737,-0.00282585705735443,0.984247198331927,0.981284121176679,0.04,0.0408910233953098,469.52567464735,0.95820730265906,0.360043143891219
274,-0.0989188129449285,-0.025970053863775,-0.126264648410603,-0.0145377799119641,0.0637185785798711,0.041117421305451,0.0272255734306025,-0.00392684032645354,0.976836103178422,0.973992220336423,0.04,0.0401098960046467,465.989396752946,0.940507833176801,0.364056084656571
334,-0.126653059565002,-0.0332513773769829,-0.161665951703295,-0.0186137929713932,0.0815836006116107,0.0526456702695962,0.0348589117756311,-0.00502782359555277,0.969390593029697,0.966700319496168,0.04,0.0390038026418686,462.436909417168,0.923678200509471,0.367863308274905
394,-0.154387306185075,-0.0405327008901908,-0.197067254995988,-0.0226898060308224,0.0994486226433502,0.0641739192337413,0.0424922501206599,-0.00612880686465189,0.961908979257957,0.959408418655913,0.04,0.0377770923132918,458.867104112279,0.907900292702978,0.371367115746803
454,-0.182121552805149,-0.0478140244033988,-0.23246855828868,-0.0267658190902515,0.11731364467509,0.0757021681978865,0.0501255884656886,-0.00722979013375107,0.954385168317643,0.952116517815658,0.04,0.0365265463058498,455.277216839394,0.893430538331218,0.37442927845201
514,-0.209855799425222,-0.0550953479166068,-0.267869861581372,-0.0308418321496807,0.135178666706829,0.0872304171620317,0.0577589268107173,-0.00833077340285018,0.946846101298654,0.944824616975403,0.04,0.0353105912272066,451.680392962359,0.880434258656669,0.37695454309263
574,-0.237590046045296,-0.0623766714298147,-0.303271164874065,-0.0349178452091099,0.153043688738569,0.0987586661261769,0.0653922651557461,-0.0094317566719493,0.939335196198315,0.937532716135148,0.04,0.034190401360779,448.097263892609,0.868826961641059,0.378960267948968
634,-0.265324292665369,-0.0696579949430227,-0.338672468166757,-0.038993858268539,0.170908710770308,0.110286915090322,0.0730256035007748,-0.0105327399410484,0.931850611887142,0.930240815294892,0.04,0.0332050236774759,444.526371407668,0.858408813691644,0.380502959205155
694,-0.293058539285442,-0.0769393184562305,-0.37407377145945,-0.0430698713279681,0.188773732802048,0.121815164054467,0.0806589418458034,-0.0116337232101475,0.924344816199163,0.922948914454637,0.04,0.0323303367792124,440.945100548719,0.849213775140744,0.381524267692573
754,-0.320792785905516,-0.0842206419694385,-0.409475074752142,-0.0471458843873974,0.206638754833787,0.133343413018612,0.0882922801908322,-0.0127347064792467,0.916813365170486,0.915657013614382,0.04,0.0315284395262192,437.351719923695,0.841412163549714,0.381923805590407
814,-0.348527032525589,-0.0915019654826464,-0.444876378044834,-0.0512218974468265,0.224503776865527,0.144871661982757,0.0959256185358608,-0.0138356897483458,0.909276715489083,0.908365112774127,0.04,0.0307906755684773,433.756022303545,0.835078446647351,0.381656724921093
874,-0.376261279145663,-0.0987832889958544,-0.480277681337527,-0.0552979105062557,0.242368798897266,0.156399910946903,0.10355895688089,-0.0149366730174449,0.901751898334579,0.901073211933872,0.04,0.0301248582317331,430.166075477718,0.830173493454134,0.380734271163052
934,-0.388279452681028,-0.101938529184911,-0.495618246097693,-0.0570641828320083,0.250110308444354,0.161395485498032,0.106866736830402,-0.0154137657673879,0.896228204388628,0.897913388236428,0.04,0.0292169328033603,427.57029878868,0.832882216741043,0.377206020850068
994,-0.388279452681028,-0.101938529184911,-0.495618246097693,-0.0570641828320083,0.250110308444354,0.161395485498032,0.106866736830402,-0.0154137657673879,0.895079207127715,0.897913388236428,0.04,0.0282882212790668,427.037320861638,0.848237250473966,0.36991604354456
1054,-0.388279452681028,-0.101938529184911,-0.495618246097694,-0.0570641828320083,0.250110308444354,0.161395485498032,0.106866736830402,-0.015413765767388,0.894688196818967,0.897913388236428,0.04,0.0282235625478755,426.854333633852,0.867008744441904,0.361751960586816
1114,-0.388279452681028,-0.101938529184911,-0.495618246097693,-0.0570641828320083,0.250110308444354,0.161395485498032,0.106866736830402,-0.0154137657673879,0.894686029061777,0.897913388236428,0.04,0.0288985801510468,426.856004551408,0.886539128103345,0.353783979696517
1174,-0.388279452681028,-0.101938529184911,-0.495618246097694,-0.0570641828320083,0.250110308444354,0.161395485498032,0.106866736830402,-0.015413765767388,0.894977975254676,0.897913388236428,0.04,0.0301008872024418,426.997231179857,0.90487250656762,0.346730736638192
1234,-0.388279452681028,-0.101938529184911,-0.495618246097694,-0.0570641828320083,0.250110308444354,0.161395485498032,0.106866736830402,-0.015413765767388,0.895462924489712,0.897913388236428,0.04,0.0316238896496367,427.229719226165,0.920640045833421,0.34097793020267
1294,-0.388279452681028,-0.101938529184911,-0.495618246097693,-0.0570641828320082,0.250110308444354,0.161395485498032,0.106866736830402,-0.0154137657673879,0.896040759623655,0.897913388236428,0.04,0.0332835333409234,427.505772464346,0.933083687413692,0.336648018487074
1354,-0.388279452681028,-0.101938529184911,-0.495618246097693,-0.0570641828320083,0.250110308444354,0.161395485498032,0.106866736830402,-0.015413765767388,0.896626684104697,0.897913388236428,0.04,0.0349279786193651,427.785096095868,0.941991418869337,0.33368246070981
1414,-0.388279452681028,-0.101938529184911,-0.495618246097694,-0.0570641828320083,0.250110308444354,0.161395485498032,0.106866736830402,-0.015413765767388,0.897159148985589,0.897913388236428,0.04,0.0364427932591802,428.038532051947,0.947570309779478,0.331914402451442
1474,-0.388279452681028,-0.101938529184911,-0.495618246097693,-0.0570641828320083,0.250110308444354,0.161395485498032,0.106866736830402,-0.015413765767388,0.897601232082689,0.897913388236428,0.04,0.0377517894173587,428.248649775063,0.9502987003118,0.331123911256861
1534,-0.388279452681028,-0.101938529184911,-0.495618246097694,-0.0570641828320083,0.250110308444354,0.161395485498032,0.106866736830402,-0.0154137657673879,0.897937435477009,0.897913388236428,0.04,0.0388142627170575,428.408186592387,0.950789627653901,0.331076230851954
1594,-0.388279452681028,-0.101938529184911,-0.495618246097694,-0.0570641828320083,0.250110308444354,0.161395485498032,0.106866736830402,-0.0154137657673879,0.898168342527056,0.897913388236428,0.04,0.0396197056328916,428.517552480731,0.949682709759314,0.33154673913522
1654,-0.388279452681028,-0.101938529184911,-0.495618246097694,-0.0570641828320083,0.250110308444353,0.161395485498032,0.106866736830402,-0.015413765767388,0.898304993531259,0.897913388236428,0.04,0.040181051968681,428.582075598599,0.947569549885349,0.332336149551357
1714,-0.388279452681028,-0.101938529184911,-0.495618246097693,-0.0570641828320082,0.250110308444354,0.161395485498032,0.106866736830402,-0.015413765767388,0.898364501944883,0.897913388236428,0.04,0.0405274321808262,428.609914221241,0.944950513976982,0.333278903097132
1774,-0.388279452681028,-0.101938529184911,-0.495618246097694,-0.0570641828320083,0.250110308444354,0.161395485498032,0.106866736830402,-0.015413765767388,0.898365171984475,0.897913388236428,0.04,0.0406973076716637,428.609842519546,0.942216472986863,0.334245926624826
1834,-0.354847228323439,-0.0833975752858192,-0.471728236487099,-0.0700182500734032,0.240312059883979,0.159946354511815,0.121110127101264,-0.0208388381440408,0.89393251245496,0.893586249520216,0.04,0.0428492255312527,426.429649279449,0.938177038675474,0.333977546417673
1894,-0.295849185339459,-0.0506782448756571,-0.429569395997814,-0.0928783687346885,0.223021033012729,0.157389064536137,0.146245521696901,-0.0304124952793105,0.886080625179696,0.88595012237396,0.04,0.0464882495382269,422.689579057043,0.937063165720066,0.331441854527435
1954,-0.236851142355479,-0.017958914465495,-0.38741055550853,-0.115738487395974,0.205730006141479,0.154831774560459,0.17138091629254,-0.0399861524145803,0.878754713413465,0.878313995227704,0.04,0.0501385350676307,419.196761697631,0.934819268596486,0.329492049560935
2014,-0.177853099371499,0.0147604159446671,-0.345251715019245,-0.138598606057259,0.188438979270229,0.152274484584781,0.196516310888178,-0.04955980954985,0.871716867829984,0.870677868081448,0.04,0.0538856518144333,415.841238149367,0.92957430659962,0.328698801229576
2074,-0.118855056387519,0.0474797463548292,-0.30309287452996,-0.161458724718544,0.171147952398979,0.149717194609104,0.221651705483816,-0.0591334666851197,0.864817416392833,0.863041740935192,0.04,0.0578030210912943,412.548807239041,0.920006008545012,0.329487807468007
2134,-0.0598570134035389,0.0801990767649913,-0.260934034040676,-0.184318843379829,0.153856925527729,0.147159904633426,0.246787100079453,-0.0687071238203895,0.857643132369593,0.855405613788936,0.04,0.0615514819411745,409.123109726593,0.906961762830799,0.331451287447984
2194,-0.000858970419558773,0.112918407175153,-0.218775193551391,-0.207178962041114,0.136565898656479,0.144602614657748,0.271922494675092,-0.0782807809556591,0.850203906602543,0.84776948664268,0.04,0.0646274900348551,405.572694910053,0.892304302288142,0.333972261832898
2254,0.0581390725644213,0.145637737585316,-0.176616353062106,-0.2300390807024,0.119274871785229,0.14204532468207,0.29705788927073,-0.0878544380909289,0.842695448592076,0.840133359496424,0.04,0.0669440460737803,401.990465820652,0.876797507080295,0.336876815303984
2314,0.117137115548401,0.178357067995478,-0.134457512572822,-0.252899199363685,0.101983844913979,0.139488034706392,0.322193283866367,-0.0974280952261986,0.835364082698099,0.832497232350168,0.04,0.0687197915463183,398.494111535096,0.859924803681134,0.340499210017933
2374,0.176135158532382,0.21107639840564,-0.0922986720835369,-0.27575931802497,0.0846928180427294,0.136930744730714,0.347328678462005,-0.107001752361468,0.827991246903324,0.824861105203912,0.04,0.0700511676124826,394.975352337796,0.841258085026314,0.34498119351229
2434,0.235133201516361,0.243795728815802,-0.0501398315942523,-0.298619436686255,0.0674017911714794,0.134373454755037,0.372464073057644,-0.116575409496738,0.820500722490235,0.817224978057656,0.04,0.0706265749282592,391.401154446924,0.821493531172676,0.350084296726029
2494,0.294131244500342,0.276515059225964,-0.00798099110496764,-0.32147955534754,0.0501107643002296,0.131816164779359,0.397599467653281,-0.126149066632008,0.812954453343422,0.8095888509114,0.04,0.0701806702432093,387.800062100228,0.801056924773936,0.355712536558696
2554,0.353129287484322,0.309234389636126,0.0341778493843169,-0.344339674008826,0.0328197374289796,0.129258874803681,0.422734862248919,-0.135722723767278,0.805215679249497,0.801952723765144,0.04,0.0687650213015252,384.105655467099,0.78074418201159,0.361490277612843
2614,0.412127330468302,0.341953720046288,0.0763366898736016,-0.367199792670111,0.0155287105577296,0.126701584828003,0.447870256844557,-0.135853541250497,0.796998173277262,0.794316596618889,0.04,0.0670054028127198,380.141915542186,0.762403817644948,0.366366177067619
2674,0.471125373452282,0.37467305045645,0.118495530362886,-0.390059911331396,-0.00176231631352039,0.124144294852325,0.473005651440196,-0.0682640624702937,0.786939427941971,0.786680469472632,0.04,0.0660087480222227,375.37633405784,0.757203013424324,0.364258111192626
2734,0.496691192078673,0.388851426967521,0.136764361241576,-0.399965962751286,-0.00925509462439516,0.123036135862865,0.483897655764972,-0.0322452580205784,0.778774209254858,0.779044342326376,0.04,0.0644721237503777,371.491255208894,0.758696064088719,0.359778693424735
2794,0.496691192078673,0.388851426967521,0.136764361241576,-0.399965962751286,-0.00925509462439527,0.123036135862865,0.483897655764972,-0.015231268913442,0.771401678463349,0.77140821518012,0.04,0.0631846505466013,368.033204336653,0.759082813399426,0.356248070378691
2854,0.496691192078673,0.388851426967521,0.136764361241576,-0.399965962751286,-0.00925509462439527,0.123036135862865,0.483897655764972,-0.00719444649838347,0.764098017119157,0.763772088033865,0.04,0.0629675209855151,364.492804697151,0.757197657560618,0.353699441468017
2914,0.496691192078673,0.388851426967521,0.136764361241576,-0.399965962751286,-0.00925509462439516,0.123036135862865,0.483897655764972,-0.00339813594968808,0.756691628227893,0.756135960887608,0.04,0.0631587295458862,360.958487281669,0.753924011661441,0.35179070377902
2974,0.496691192078673,0.388851426967521,0.136764361241576,-0.399965962751286,-0.00925509462439527,0.123036135862865,0.483897655764972,-0.00160489433072842,0.749235142262081,0.748499833741353,0.04,0.0635508486795192,357.400582892959,0.749472307347932,0.350392129304051
3034,0.496691192078673,0.38885142696752,0.136764361241576,-0.399965962751286,-0.00925509462439527,0.123036135862865,0.483897655764972,-0.000757830987862019,0.741728515703598,0.740863706595096,0.04,0.0640216315339463,353.818805963123,0.744144078403866,0.349364327661865
3094,0.496691192078673,0.388851426967521,0.136764361241576,-0.399965962751286,-0.00925509462439527,0.123036135862865,0.483897655764972,-0.000357708495041656,0.734181625661353,0.733227579448841,0.04,0.0645122997472962,350.21791263435,0.738203731483153,0.348591501786756
3154,0.496691192078673,0.388851426967521,0.136764361241576,-0.399965962751286,-0.00925509462439527,0.123036135862865,0.483897655764972,-0.000168704909167069,0.726605628418028,0.725591452302585,0.04,0.0649993140686523,346.603211867898,0.731848054476266,0.347989657422245
3214,0.496691192078673,0.388851426967521,0.136764361241576,-0.399965962751286,-0.00925509462439516,0.123036135862865,0.483897655764972,-7.94263604366104e-05,0.719009424865141,0.717955325156329,0.04,0.0654760466538067,342.978930200693,0.725215193373395,0.347500331810227
3274,0.496691192078673,0.388851426967521,0.136764361241576,-0.399965962751286,-0.00925509462439516,0.123036135862865,0.483897655764972,-3.72543602255673e-05,0.71139936560082,0.710319198010073,0.04,0.0659428380373274,339.34808112489,0.718400144268147,0.347083256202276
3334,0.496691192078673,0.388851426967521,0.136764361241576,-0.399965962751286,-0.00925509462439527,0.123036135862865,0.483897655764972,-1.73338123774963e-05,0.703779822832443,0.702683070863817,0.04,0.0664022968629189,335.712735594434,0.711467929575219,0.346710636119556
3394,0.496691192078673,0.388851426967521,0.136764361241576,-0.399965962751286,-0.00925509462439516,0.123036135862865,0.483897655764972,-7.92405650673351e-06,0.696153774854424,0.695046943717561,0.04,0.066857342181608,332.07430682803,0.704463107936352,0.346363162697178
3454,0.496691192078673,0.388851426967521,0.136764361241576,-0.399965962751286,-0.00925509462439516,0.123036135862865,0.483897655764972,-3.47922365260383e-06,0.688523234666723,0.687410816571305,0.04,0.0673105003904344,328.433744779384,0.697416394114995,0.346027246058109
3514,0.496691192078673,0.38885142696752,0.136764361241576,-0.399965962751286,-0.00925509462439527,0.123036135862865,0.483897655764972,-1.37964324132744e-06,0.680889589521299,0.679774689425049,0.04,0.067763769000376,324.791713010635,0.690349001774397,0.345693262142359
3574,0.496691192078673,0.388851426967521,0.136764361241576,-0.399965962751286,-0.00925509462439527,0.123036135862865,0.483897655764972,-3.87876385725646e-07,0.673253794991484,0.672138562278793,0.04,0.0682186743201628,321.148661817425,0.683275592300381,0.345354314247134
3634,0.485963361935943,0.392761344694761,0.143686402587375,-0.371672650584995,-0.0168546240565287,0.1267404842222,0.47596951572282,8.05988822791163e-08,0.667548056240472,0.668829573848748,0.04,0.0677963960961083,318.470200608663,0.683640778835161,0.342291029366798
3694,0.467031896978184,0.399661199507539,0.155901769668197,-0.321743276173894,-0.0302655583485288,0.133277569562203,0.461978680354316,3.01889879747428e-07,0.666872844834948,0.668829573848748,0.04,0.066292828043568,318.166406344567,0.695123563169652,0.336315581436369
3754,0.448100432020425,0.406561054320317,0.168117136749019,-0.271813901762792,-0.043676492640529,0.139814654902206,0.447987844985812,4.06419849427754e-07,0.66720807912905,0.668829573848748,0.04,0.0659362340452092,318.327892952266,0.705627964321172,0.331477143125978
3814,0.429168967062666,0.413460909133095,0.180332503829841,-0.221884527351691,-0.0570874269325291,0.146351740242209,0.433997009617308,4.55796076596392e-07,0.667506069095792,0.668829573848748,0.04,0.0663383710741194,318.468893520752,0.714104212841079,0.327687669783414
3874,0.410237502104907,0.420360763945872,0.192547870910663,-0.171955152940589,-0.0704983612245292,0.152888825582212,0.420006174248804,4.79119644151849e-07,0.667663658950982,0.668829573848748,0.04,0.0669983520229938,318.543159776334,0.72136465776437,0.324465181368942
3934,0.391306037147148,0.42726061875865,0.204763237991485,-0.122025778529488,-0.0839092955165294,0.159425910922216,0.4060153388803,4.90136865084021e-07,0.667735803336131,0.668829573848748,0.04,0.0676929413754839,318.577123694795,0.728046377910102,0.321521646797163
3994,0.372374572189389,0.434160473571428,0.216978605072307,-0.0720964041183863,-0.0973202298085295,0.165962996262219,0.392024503511796,4.95341007065288e-07,0.667768255144275,0.668829573848748,0.04,0.0683581239129636,318.592404262587,0.734468258629704,0.318725684067265
4054,0.35344310723163,0.441060328384206,0.229193972153128,-0.0221670297072849,-0.11073116410053,0.172500081602222,0.378033668143292,4.97799258009689e-07,0.667783346281696,0.668829573848748,0.04,0.0689868825992344,318.599514166166,0.740770917342553,0.31602094096826
4114,0.33451164227387,0.447960183196984,0.24140933923395,0.0277623447038167,-0.12414209839253,0.179037166942225,0.364042832774788,4.98960448024758e-07,0.667790178607155,0.668829573848748,0.04,0.069585486418014,318.602726790637,0.747018353828183,0.313381166203798
4174,0.315580177316111,0.454860038009761,0.253624706314772,0.0776917191149181,-0.13755303268453,0.185574252282228,0.350051997406285,4.99508952746852e-07,0.667792401588639,0.668829573848748,0.04,0.0701604211892483,318.603759769307,0.753244159661922,0.310791977478888
4234,0.296648712358352,0.461759892822539,0.265840073395594,0.12762109352602,-0.15096396697653,0.192111337622231,0.336061162037781,4.99768046802308e-07,0.667791728871553,0.668829573848748,0.04,0.0707161429690302,318.603419451318,0.759468690991273,0.308244427486368
4294,0.277717247400593,0.468659747635317,0.278055440476416,0.177550467937121,-0.16437490126853,0.198648422962234,0.322070326669277,4.99890433587451e-07,0.667789164141612,0.668829573848748,0.04,0.0712555065742191,318.602183462587,0.765705141735777,0.305732678173592
4354,0.258785782442834,0.475559602448095,0.290270807557238,0.227479842348223,-0.17778583556053,0.205185508302237,0.308079491300773,4.99948244736963e-07,0.66778538559068,0.668829573848748,0.04,0.0717803695710726,318.600373989031,0.771962052753691,0.303252929703266
4414,0.239854317485075,0.482459457260873,0.30248617463806,0.277409216759324,-0.19119676985253,0.21172259364224,0.294088655932269,4.99975552660804e-07,0.667780866818911,0.668829573848748,0.04,0.0722920218253369,318.598212682051,0.778244754248382,0.300802754871046
4474,0.220922852527316,0.48935931207365,0.314701541718881,0.327338591170426,-0.204607704144531,0.218259678982243,0.280097820563765,4.99988451949451e-07,0.667775920099984,0.668829573848748,0.04,0.0727913881333808,318.595851820909,0.784556388199715,0.298380632494829
4534,0.212719217712287,0.492349249159187,0.319994867453904,0.348974653415236,-0.210419109004397,0.221092415962911,0.274035125237413,4.99994545113052e-07,0.667881954669295,0.668829573848748,0.04,0.072842112608441,318.648679594323,0.790643098310918,0.296132665160221
4594,0.212719217712287,0.492349249159187,0.319994867453904,0.348974653415236,-0.210419109004397,0.221092415962911,0.274035125237413,4.99997423306082e-07,0.668187606661055,0.668829573848748,0.04,0.0727468582526656,318.794631639301,0.795126934710784,0.294597604051323
4654,0.212719217712287,0.492349249159187,0.319994867453904,0.348974653415236,-0.210419109004397,0.221092415962911,0.274035125237413,4.99998782861751e-07,0.668432987677496,0.668829573848748,0.04,0.0728288918216459,318.910928378564,0.79795995876923,0.293658772353025
4714,0.212719217712287,0.492349249159187,0.319994867453904,0.348974653415236,-0.210419109004397,0.221092415962911,0.274035125237413,4.99999425067329e-07,0.668585989691639,0.668829573848748,0.04,0.0729557724387176,318.983293888024,0.799695223856841,0.293088050661582
4774,0.212719217712287,0.492349249159187,0.319994867453904,0.348974653415236,-0.210419109004397,0.221092415962911,0.274035125237413,4.99999728422325e-07,0.668675824578941,0.668829573848748,0.04,0.0730660656004283,319.025776333829,0.800778124869652,0.292730685397735
4834,0.212719217712287,0.492349249159188,0.319994867453904,0.348974653415236,-0.210419109004397,0.221092415962911,0.274035125237413,4.99999871716398e-07,0.668729549129187,0.668829573848748,0.04,0.0731460535357272,319.051198856119,0.801475261219512,0.292499370267308
4894,0.212719217712287,0.492349249159187,0.319994867453904,0.348974653415236,-0.210419109004397,0.221092415962911,0.274035125237413,4.99999939403405e-07,0.668763152985636,0.668829573848748,0.04,0.0731999829500238,319.067112273621,0.801935206641097,0.2923461896168
4954,0.212719217712287,0.492349249159187,0.319994867453904,0.348974653415236,-0.210419109004397,0.221092415962911,0.274035125237413,4.99999971376331e-07,0.668785004965826,0.668829573848748,0.04,0.073235431249593,319.077465769474,0.80224288714639,0.292243550217429
5014,0.212719217712287,0.492349249159187,0.319994867453904,0.348974653415236,-0.210419109004397,0.221092415962911,0.274035125237413,4.999999864792e-07,0.668799529366159,0.668829573848748,0.04,0.0732586407290494,319.084349015963,0.802450015725815,0.292174418995139
5074,0.212719217712287,0.492349249159188,0.319994867453904,0.348974653415236,-0.210419109004397,0.221092415962911,0.274035125237413,4.99999993613257e-07,0.66880926193125,0.668829573848748,0.04,0.0732738851012043,319.088961636687,0.802589902433586,0.292127717589249
5134,0.212719217712287,0.492349249159187,0.319994867453904,0.348974653415236,-0.210419109004397,0.221092415962911,0.274035125237413,4.9999999698313e-07,0.668815789607343,0.668829573848748,0.04,0.0732839276316361,319.092055283075,0.802684687679097,0.292096053522148
5194,0.212719217712287,0.492349249159187,0.319994867453904,0.348974653415236,-0.210419109004397,0.221092415962911,0.274035125237413,4.99999998574938e-07,0.668820161194829,0.668829573848748,0.04,0.0732905427955878,319.094127049876,0.80274924968349,0.292074457708539
5254,0.212719217712287,0.492349249159187,0.319994867453904,0.348974653415236,-0.210419109004397,0.221092415962911,0.274035125237413,4.99999999326852e-07,0.66882308432885,0.668829573848748,0.04,0.0732948833898149,319.095512344761,0.802793591907825,0.292059592928248
5314,0.212719217712287,0.492349249159187,0.319994867453904,0.348974653415236,-0.210419109004397,0.221092415962911,0.274035125237413,4.99999999682029e-07,0.668825037313626,0.668829573848748,0.04,0.0732977084995288,319.096437865607,0.802824421931459,0.292049224342206
5374,0.212719217712287,0.492349249159187,0.319994867453904,0.348974653415236,-0.210419109004397,0.221092415962911,0.274035125237413,4.99999999849802e-07,0.668826342009225,0.668829573848748,0.04,0.0732995224460556,319.097056166875,0.802846225356376,0.292041858846155
5434,0.217854148312948,0.462990447797775,0.312791609409408,0.345661099599456,-0.187563436940426,0.22415150965455,0.252252395827815,4.99999999929052e-07,0.669194382929531,0.668829573848748,0.04,0.072792081157677,319.277092043645,0.801913423681714,0.292546530643957
5494,0.22691579054941,0.41118079833646,0.30007997756618,0.339813651689254,-0.147229898004006,0.229549910286853,0.213812285104994,4.99999999966487e-07,0.669557368148704,0.668829573848748,0.04,0.0720682838665594,319.447502718712,0.798117246869589,0.29409488955063
5554,0.235977432785871,0.359371148875144,0.287368345722951,0.333966203779053,-0.106896359067585,0.234948310919156,0.175372174382174,4.99999999984169e-07,0.669692895832817,0.668829573848748,0.04,0.0713207346006738,319.511116842243,0.793149876779499,0.295995690776939
5614,0.245039075022333,0.307561499413829,0.274656713879723,0.328118755868852,-0.066562820131165,0.240346711551459,0.136932063659354,4.99999999992522e-07,0.669747240455789,0.668829573848748,0.04,0.0704512399733831,319.536693744866,0.787733477523918,0.298054793464938
5674,0.254100717258794,0.255751849952514,0.261945082036494,0.32227130795865,-0.0262292811947449,0.245745112183762,0.0984919529365331,4.99999999996468e-07,0.66977422687296,0.668829573848748,0.04,0.0694611120933658,319.549444013616,0.782113110425275,0.300208632746783
5734,0.263162359495255,0.203942200491198,0.249233450193266,0.316423860048449,0.0141042577416755,0.251143512816065,0.0600518422137126,4.99999999998332e-07,0.669790329394196,0.668829573848748,0.04,0.0683618562957497,319.557066073517,0.776377833800314,0.302433554662113
5794,0.272224001731716,0.152132551029882,0.236521818350037,0.310576412138247,0.0544377966780958,0.256541913448368,0.021611731490892,0.022386715763615,0.669097277757693,0.668829573848748,0.04,0.0677093862210264,319.214237701904,0.772011424636732,0.303817791626465
5854,0.281285643968178,0.100322901568567,0.223810186506809,0.304728964228046,0.0947713356145159,0.261940314080671,4.99999999999628e-07,0.0786640840873083,0.668005302641588,0.668829573848748,0.04,0.0675847612055585,318.697852691663,0.774614173456372,0.302307118957583
5914,0.290347286204639,0.0485132521072516,0.211098554663581,0.298881516317845,0.135104874550936,0.267338714712974,4.99999999999824e-07,0.134941452411002,0.667721650750684,0.668829573848748,0.04,0.0678200824964384,318.570809398819,0.781188749330793,0.299643371695773
5974,0.2994089284411,-0.00329639735406386,0.198386922820352,0.293034068407643,0.175438413487357,0.272737115345278,4.99999999999917e-07,0.191218820734695,0.667898664583586,0.668829573848748,0.04,0.0684934088023588,318.655956825545,0.787176529829705,0.297443567169519
6034,0.308470570677562,-0.0551060468153793,0.185675290977124,0.287186620497442,0.215771952423777,0.278135515977581,4.99999999999961e-07,0.247496189058388,0.668049966926652,0.668829573848748,0.04,0.0694229514972006,318.727499115628,0.792122856525246,0.295652575378375
6094,0.317532212914023,-0.106915696276695,0.172963659133895,0.281339172587241,0.256105491360197,0.283533916609884,4.99999999999981e-07,0.303773557382082,0.668122137088854,0.668829573848748,0.04,0.0703600798938852,318.761390470696,0.796481238505394,0.294066016577085
6154,0.326593855150484,-0.15872534573801,0.160252027290667,0.275491724677039,0.296439030296617,0.288932317242187,4.99999999999991e-07,0.360050925705775,0.668141229011463,0.668829573848748,0.04,0.071190503469272,318.770193817607,0.800631125834212,0.292549872234086
6214,0.335655497386946,-0.210534995199326,0.147540395447439,0.269644276766838,0.336772569233038,0.29433071787449,4.99999999999996e-07,0.416328294029468,0.668132447166434,0.668829573848748,0.04,0.0718870365397195,318.765855809774,0.804786672979251,0.291035319012454
6274,0.344717139623407,-0.262344644660641,0.13482876360421,0.263796828856637,0.377106108169458,0.299729118506793,4.99999999999998e-07,0.472605662353162,0.668111848753064,0.668829573848748,0.04,0.0724587037430756,318.755980300074,0.809047788955801,0.289493516973879
6334,0.348643851259207,-0.284795492760545,0.129320389805478,0.261262934762216,0.394583975041907,0.302068425447458,4.99999999999999e-07,0.496992521960096,0.665722153863274,0.661717872037732,0.04,0.0756854911689159,317.550695669245,0.79896437760719,0.292038647439202
6394,0.348643851259207,-0.284795492760545,0.129320389805478,0.261262934762216,0.394583975041907,0.302068425447458,5e-07,0.496992521960096,0.654581154148902,0.64916781001829,0.04,0.0824703344950377,312.198090308575,0.76646071365524,0.299291938565263
6454,0.348643851259207,-0.284795492760545,0.129320389805478,0.261262934762216,0.394583975041907,0.302068425447458,5e-07,0.496992521960096,0.641233208443995,0.636617747998849,0.04,0.0868564646786768,305.824797000684,0.73620667865565,0.305230283100622
6514,0.348643851259207,-0.284795492760545,0.129320389805478,0.261262934762216,0.394583975041907,0.302068425447458,5e-07,0.496992521960096,0.6277801827364,0.624067685979407,0.04,0.0892036434359229,299.407889102136,0.711553306998523,0.309179346047767
6574,0.348643851259207,-0.284795492760545,0.129320389805478,0.261262934762216,0.394583975041907,0.302068425447458,5e-07,0.496992521960096,0.614575667931762,0.611517623959966,0.04,0.0905424672047244,293.110066617038,0.691365734743958,0.311513992591884
6634,0.348643851259207,-0.284795492760545,0.129320389805478,0.261262934762216,0.394583975041907,0.302068425447458,5e-07,0.496992521960096,0.601598944250081,0.598967561940524,0.04,0.0915311792799067,286.920398174569,0.674171482042705,0.312712847049491
6694,0.348643851259207,-0.284795492760545,0.129320389805478,0.261262934762216,0.394583975041907,0.302068425447458,5e-07,0.496992521960096,0.588780605209123,0.586417499921083,0.04,0.0924856591212268,280.805772949213,0.658878699631084,0.313152036575276
6754,0.348643851259207,-0.284795492760545,0.129320389805478,0.261262934762216,0.394583975041907,0.302068425447458,5e-07,0.496992521960096,0.576064266511446,0.573867437901641,0.04,0.0935288126118592,274.739442186158,0.644769304663952,0.31309154122279
6814,0.348643851259207,-0.284795492760545,0.129320389805478,0.261262934762216,0.394583975041907,0.302068425447458,5e-07,0.496992521960096,0.563411582375739,0.5613173758822,0.04,0.0946931776024111,268.703239367699,0.631390806775233,0.312701038996181
6874,0.348643851259207,-0.284795492760545,0.129320389805478,0.261262934762216,0.394583975041907,0.302068425447458,5e-07,0.496992521960096,0.550797832775655,0.548767313862758,0.04,0.0959754376402241,262.685457371599,0.618464547498153,0.312087157141288
6934,0.348643851259207,-0.284795492760545,0.129320389805478,0.261262934762216,0.394583975041907,0.302068425447458,5e-07,0.496992521960096,0.538207541158034,0.536217251843317,0.04,0.0973615633504005,256.678768898587,0.605821755618522,0.311314793586578
6994,0.348643851259207,-0.284795492760545,0.129320389805478,0.261262934762216,0.394583975041907,0.302068425447458,5e-07,0.496992521960096,0.52563118667626,0.523667189823875,0.04,0.0988372432032231,250.678675483448,0.593361652102951,0.310422071285115
7054,0.348643851259207,-0.284795492760545,0.129320389805478,0.261262934762216,0.394583975041907,0.302068425447458,5e-07,0.496992521960096,0.513063028186786,0.511117127804434,0.04,0.100391387302864,244.682454080645,0.581024748821098,0.309430324195178
7114,0.348643851259207,-0.284795492760545,0.129320389805478,0.261262934762216,0.394583975041907,0.302068425447458,5e-07,0.496992521960096,0.500499633631617,0.498567065784992,0.04,0.102016626275122,238.688488187289,0.568776300574168,0.308350500601704
7174,0.348643851259207,-0.284795492760545,0.129320389805478,0.261262934762216,0.394583975041907,0.302068425447458,5e-07,0.496992521960096,0.487939012275016,0.486017003765551,0.04,0.103708829621174,232.695833176307,0.556596126561216,0.307187191352459
7234,0.32493693656679,-0.255889376438167,0.125649959455855,0.261313712096469,0.393463257610674,0.298618892885652,5e-07,0.479603430161857,0.475862999941715,0.473466941746109,0.04,0.105142748954495,226.939227748192,0.543236643394621,0.306955339153052
7294,0.283101204756642,-0.204878582928089,0.119172729427109,0.261403319156917,0.391485520967322,0.292531482482466,5e-07,0.44891679757673,0.463501126892154,0.460916879726668,0.04,0.106780659266771,221.036133703102,0.52716906580622,0.308083212154437
7354,0.241265472946494,-0.153867789418011,0.112695499398363,0.261492926217365,0.389507784323969,0.28644407207928,5e-07,0.418230164991603,0.450828734086484,0.448366817707227,0.04,0.108040121660133,214.989395528405,0.511474863017849,0.308849868103052
7414,0.199429741136346,-0.102856995907933,0.106218269369617,0.261582533277812,0.387530047680617,0.280356661676094,5e-07,0.387543532406476,0.438134035928358,0.435816755687785,0.04,0.108918148049067,208.932903279135,0.496657036185092,0.309104211920914
7474,0.157594009326198,-0.0518462023978549,0.0997410393408709,0.26167214033826,0.385552311037264,0.274269251272907,5e-07,0.356856899821349,0.425467190821591,0.423266693668344,0.04,0.109589992802026,202.889795971213,0.482602648649695,0.308905172595198
7534,0.11575827751605,-0.00083540888777685,0.093263809312125,0.261761747398707,0.383574574393912,0.268181840869721,5e-07,0.326170267236222,0.412828227483998,0.410716631648902,0.04,0.110174067300303,196.859937526004,0.469135358373126,0.308328629563631
7594,0.0739225457059022,0.0501753846223013,0.0867865792833791,0.261851354459155,0.38159683775056,0.262094430466535,5e-07,0.295483634651095,0.400209137171588,0.398166569629461,0.04,0.110728815375175,190.839495488636,0.456118851665246,0.307429057606385
7654,0.0320868138957542,0.101186178132379,0.0803093492546331,0.261940961519603,0.379619101107207,0.256007020063349,0.0243743934842132,0.264797002065968,0.387108189175085,0.385616507610019,0.04,0.112107583427271,184.583985995485,0.444703695908462,0.304984633043696
7714,-0.00974891791439382,0.152196971642457,0.073832119225887,0.26203056858005,0.377641364463855,0.249919609660162,0.0675824457867384,0.234110369480841,0.374265967808211,0.373066445590578,0.04,0.113483210825512,178.462149265782,0.436600653533987,0.300342238858281
7774,-0.0515846497245417,0.203207765152535,0.067354889197141,0.262120175640498,0.375663627820503,0.243832199256976,0.110790498089264,0.203423736895713,0.361741461427661,0.360516383571136,0.04,0.115333258604437,172.487527028309,0.428724657664433,0.295620066090554
7834,-0.0934203815346897,0.254218558662613,0.060877659168395,0.262209782700945,0.373685891177151,0.23774478885379,0.153998550391789,0.172737104310586,0.34924732831652,0.347966321551695,0.04,0.117708103550613,166.526469735974,0.420518561379453,0.290973060227378
7894,-0.135256113344838,0.305229352172692,0.0544004291396491,0.262299389761393,0.371708154533798,0.231657378450604,0.197206602694314,0.142050471725459,0.33672785379626,0.335416259532253,0.04,0.120414201540673,160.553182710536,0.412068646410198,0.286288579972896
7954,-0.177091845154986,0.35624014568277,0.0479231991109031,0.26238899682184,0.369730417890446,0.225569968047418,0.240414654996839,0.111363839140332,0.32417804046591,0.322866197512812,0.04,0.123319965889457,154.565436278555,0.40355611460827,0.281425293901462
8014,-0.218927576965134,0.407250939192848,0.041445969082157,0.262478603882288,0.367752681247093,0.219482557644231,0.283622707299364,0.0806772065552053,0.311636990991135,0.31031613549337,0.04,0.126387794321907,148.583656314225,0.395093743787735,0.276328426905183
8074,-0.260763308775282,0.458261732702926,0.0349687390534111,0.262568210942736,0.365774944603741,0.213395147241045,0.326830759601889,0.0499905739700782,0.299405458408474,0.297766073473929,0.04,0.13027034690161,142.749419316753,0.385368702279643,0.272177728968716
8134,-0.278892125893012,0.480366409890626,0.0321619393742878,0.26260704066893,0.364917925391622,0.210757269399664,0.345554248932984,0.0366930331831898,0.290017212340758,0.292327713265504,0.04,0.127159177501701,138.336440803494,0.38679808049425,0.26278886779665
8194,-0.278892125893012,0.480366409890626,0.0321619393742878,0.26260704066893,0.364917925391622,0.210757269399664,0.345554248932984,0.0366930331831898,0.289034526751114,0.292327713265504,0.04,0.115763429564946,137.903681329318,0.406755521552822,0.249113394174313
8254,-0.278892125893012,0.480366409890626,0.0321619393742878,0.26260704066893,0.364917925391622,0.210757269399664,0.345554248932984,0.0366930331831898,0.290039960203085,0.292327713265504,0.04,0.110088157334645,138.386794643676,0.422743893611477,0.240531513156152
8314,-0.278892125893012,0.480366409890626,0.0321619393742878,0.26260704066893,0.364917925391622,0.210757269399664,0.345554248932984,0.0366930331831898,0.291000084100783,0.292327713265504,0.04,0.108807981697603,138.842354320733,0.432515698548217,0.235871120625198
8374,-0.278892125893012,0.480366409890626,0.0321619393742878,0.26260704066893,0.364917925391622,0.210757269399664,0.345554248932984,0.0366930331831898,0.291606126336482,0.292327713265504,0.04,0.109242574962272,139.128800537893,0.437916740215729,0.233442631403284
8434,-0.278892125893012,0.480366409890626,0.0321619393742878,0.26260704066893,0.364917925391622,0.210757269399664,0.345554248932984,0.0366930331831898,0.291932748183449,0.292327713265504,0.04,0.110012227362362,139.282929795912,0.44084888525551,0.232146864831575
8494,-0.278892125893012,0.480366409890626,0.0321619393742878,0.26260704066893,0.364917925391622,0.210757269399664,0.345554248932984,0.0366930331831898,0.292100097959121,0.292327713265504,0.04,0.110644198750732,139.361892443599,0.44250240536636,0.231410507954101
8554,-0.278892125893012,0.480366409890626,0.0321619393742878,0.26260704066893,0.364917925391622,0.210757269399664,0.345554248932984,0.0366930331831898,0.292188472269109,0.292327713265504,0.04,0.111065699977376,139.403634422869,0.443492619312793,0.230962980939361
8614,-0.278892125893012,0.480366409890626,0.0321619393742878,0.26260704066893,0.364917925391622,0.210757269399664,0.345554248932984,0.0366930331831898,0.292238935682813,0.292327713265504,0.04,0.111324495698875,139.427503797344,0.444115787877792,0.230678392458363
8674,-0.278892125893012,0.480366409890626,0.0321619393742878,0.26260704066893,0.364917925391622,0.210757269399664,0.345554248932984,0.0366930331831898,0.292270035294539,0.292327713265504,0.04,0.111479555851362,139.442229118029,0.444518566006407,0.230493715343832
8734,-0.278892125893012,0.480366409890626,0.0321619393742878,0.26260704066893,0.364917925391622,0.210757269399664,0.345554248932984,0.0366930331831898,0.29229004745254,0.292327713265504,0.04,0.111572986789338,139.451708627334,0.444781295245967,0.23037322437942
8794,-0.278892125893012,0.480366409890626,0.0321619393742878,0.262607040668929,0.364917925391622,0.210757269399664,0.345554248932984,0.0366930331831898,0.292303082989274,0.292327713265504,0.04,0.11163017416557,139.457883556325,0.444953012724505,0.230294515118942
8854,-0.278892125893012,0.480366409890626,0.0321619393742878,0.26260704066893,0.364917925391622,0.210757269399664,0.345554248932984,0.0366930331831898,0.292311543237944,0.292327713265504,0.04,0.111665611660765,139.461890704953,0.445065537157041,0.230242906079346
8914,-0.278892125893012,0.480366409890626,0.0321619393742878,0.26260704066893,0.364917925391622,0.210757269399664,0.345554248932984,0.0366930331831898,0.292316992183087,0.292327713265504,0.04,0.111687632616454,139.464471250229,0.445139829534421,0.230208738902265
8974,-0.278892125893012,0.480366409890626,0.0321619393742878,0.26260704066893,0.364917925391622,0.210757269399664,0.345554248932984,0.0366930331831898,0.292320480442734,0.292327713265504,0.04,0.111701203225608,139.466123116628,0.445189598604556,0.230185729550925
9034,-0.256917531948367,0.452561642042105,0.0271125773414205,0.239646105361967,0.340922254589625,0.218107419727348,0.320640687824288,0.0387564242711149,0.293160716994648,0.292327713265504,0.04,0.107752508005149,139.874099208908,0.443076185876672,0.231960251223028
9094,-0.218138836751934,0.403494404662361,0.0182019384598901,0.199126807761444,0.298576953174338,0.23107827324679,0.276675579985412,0.042397702661571,0.293796337280851,0.292327713265504,0.04,0.103534107410067,140.17441297293,0.43540276614707,0.236555057973497
9154,-0.179360141555501,0.354427167282617,0.00929129957835983,0.158607510160921,0.256231651759051,0.244049126766232,0.232710472146537,0.046038981052027,0.294214872900543,0.292327713265504,0.04,0.0994153639871525,140.372292623264,0.424822087445554,0.242788985690607
9214,-0.140581446359068,0.305359929902873,0.000380660696829352,0.118088212560398,0.213886350343763,0.257019980285674,0.188745364307662,0.0496802594424831,0.294414685512971,0.292327713265504,0.04,0.0948387906047527,140.466155801955,0.412616916223475,0.2501378106842
9274,-0.101802751162635,0.25629269252313,-0.00852997818470101,0.0775689149598752,0.171541048928476,0.269990833805116,0.144780256468787,0.0533215378329391,0.29447959703208,0.292327713265504,0.04,0.0894471164371009,140.496445339041,0.399795864657725,0.25821514730779
9334,-0.0630240559662016,0.207225455143386,-0.0174406170662314,0.0370496173593523,0.129195747513189,0.282961687324558,0.100815148629911,0.0569628162233951,0.294497897577273,0.292327713265504,0.04,0.0831382637022903,140.505096621267,0.38680693820157,0.26690241213357
9394,-0.0242453607697684,0.158158217763642,-0.0263512559477618,-0.00346968024117069,0.0868504460979012,0.295932540843999,0.0568500407910359,0.0606040946138512,0.294545486355041,0.292327713265504,0.04,0.07593352389481,140.528436958918,0.373636445807729,0.276356484768005
9454,0.0145333344266646,0.109090980383899,-0.0352618948292923,-0.0439889778416936,0.0445051446826139,0.308903394363441,0.0128849329521606,0.0642453730043072,0.294724670213729,0.292327713265504,0.04,0.0679704529254448,140.61500076458,0.359698364853377,0.287241949936865
9514,0.0533120296230977,0.0600237430041548,-0.0441725337108226,-0.0845082754422164,0.00215984326732649,0.321874247882883,4.31011655715989e-07,0.0678866513947633,0.294263911248936,0.292327713265504,0.04,0.0610740097076939,140.390300972655,0.346403003037118,0.297790015963085
