time,bias_percent_1,bias_percent_2,bias_percent_3,bias_percent_4,bias_percent_5,bias_percent_6,bias_percent_8,bias_percent_9,normalized_power,power_SP,SP,CV,total_power_MW,fuel_fraction,thermal_efficiency
10,0,0,0,0,0,0,0,0,0.999306289714295,1,0.04,0.0399533746902805,476.885373519287,0.998913053252763,0.350784980877261
70,0.00515098687848297,-0.00503523770234949,0.00152576427896179,0.00189680788686326,0.00521908512389746,-0.00303950089357954,0.00460598187728499,0.00585879247528572,0.999282681057466,0.999312752454888,0.04,0.04037551682778,476.707640764082,0.999891551730449,0.350311093238311
130,0.0360569081493804,-0.0352466639164465,0.0106803499527325,0.0132776552080428,0.0365335958672825,-0.0212765062550573,0.0322418731409949,0.0410115473270002,0.994591112846951,0.995189267184219,0.04,0.0428307803705703,474.485225676825,1.00263187900758,0.347724956401321
190,0.0669628294202781,-0.0654580901305434,0.0198349356265032,0.0246585025292223,0.0678481066106677,-0.0395135116165349,0.0598777644047048,0.0761643021787146,0.990433837891394,0.99106578191355,0.04,0.0450656940981455,472.503724675364,1.00626738210577,0.345021784635047
250,0.0978687506911756,-0.0956695163446402,0.0289895213002739,0.0360393498504018,0.0991626173540526,-0.0577505169780126,0.0875136556684148,0.111317057030429,0.986424791155436,0.98694229664288,0.04,0.0471902318254852,470.591670660542,1.00944222938602,0.342544850466178
310,0.128774671962073,-0.125880942558737,0.0381441069740447,0.0474201971715813,0.130477128097438,-0.0759875223394904,0.115149546932125,0.146469811882144,0.982467393634663,0.982818811372211,0.04,0.0491612645179572,468.703780782286,1.01170081971742,0.340408997945153
370,0.159680593232971,-0.156092368772834,0.0472986926478153,0.0588010444927609,0.161791638840823,-0.0942245277009681,0.142785438195835,0.181622566733858,0.978517843385727,0.978695326101542,0.04,0.050935251106987,466.819428295779,1.01291435200931,0.338634244356137
430,0.190586514503868,-0.186303794986931,0.0564532783215859,0.0701818918139404,0.193106149584208,-0.112461533062446,0.170421329459544,0.216775321585572,0.974532751115829,0.974571840830872,0.04,0.0524693145225537,464.948229536795,1.0132205948133,0.337174922130257
490,0.221492435774766,-0.216515221201028,0.0656078639953569,0.0815627391351197,0.224420660327593,-0.130698538423923,0.198057220723254,0.251928076437287,0.970577913765144,0.970448355560203,0.04,0.053821823342127,463.030818156358,1.01246291595007,0.336035723245941
550,0.252398357045663,-0.246726647415125,0.0747624496691276,0.0929435864562993,0.255735171070978,-0.148935543785401,0.225693111986964,0.287080831289001,0.966559988149574,0.966324870289534,0.04,0.0549363512032089,461.113747312444,1.01105481055798,0.335110508317462
610,0.283304278316561,-0.276938073629222,0.0839170353428983,0.104324433777479,0.287049681814363,-0.167172549146879,0.253329003250674,0.322233586140716,0.962521349276611,0.962201385018864,0.04,0.0558525856789934,459.186726899745,1.00909103118231,0.334359491521766
670,0.314210199587458,-0.307149499843319,0.0930716210166688,0.115705281098658,0.318364192557748,-0.185409554508356,0.280964894514384,0.35738634099243,0.958459806774344,0.958077899748195,0.04,0.0565952936172172,457.248791471199,1.00670949030429,0.33373601800429
730,0.345116120858356,-0.337360926057416,0.10222620669044,0.127086128419838,0.349678703301133,-0.203646559869834,0.308600785778094,0.392539095844144,0.9543781225534,0.953954414477526,0.04,0.0571881869220429,455.301274305518,1.00403757103415,0.333198914366172
790,0.376022042129253,-0.367572352271513,0.11138079236421,0.138466975741017,0.380993214044518,-0.221883565231312,0.336236677041804,0.427691850695859,0.950279865125198,0.949830929206856,0.04,0.0576543373302032,453.345878119246,1.00118211327211,0.332714145602819
850,0.406927963400151,-0.39778377848561,0.120535378037981,0.149847823062197,0.412307724787903,-0.240120570592789,0.363872568305514,0.462844605547573,0.946168537834798,0.945707443936187,0.04,0.0580153110124686,451.384274033664,0.998228602201431,0.332254667943827
910,0.432682897792565,-0.422959966997357,0.12816419943279,0.159331862496513,0.438403150407391,-0.255318075060687,0.386902477691939,0.492138567924002,0.942424943710977,0.942271206210629,0.04,0.057920500438512,449.634096142882,0.995901746994188,0.331739678026725
970,0.432682897792566,-0.422959966997357,0.12816419943279,0.159331862496513,0.438403150407391,-0.255318075060687,0.386902477691939,0.492138567924002,0.942032404712276,0.942271206210629,0.04,0.0561580242584924,449.440321697632,0.996391095165843,0.331433857426427
1030,0.432682897792566,-0.422959966997357,0.12816419943279,0.159331862496513,0.438403150407391,-0.255318075060687,0.386902477691939,0.492138567924002,0.9417569521995,0.942271206210629,0.04,0.0549517083551017,449.311211318469,0.999061223245912,0.330453098718111
1090,0.432682897792565,-0.422959966997357,0.12816419943279,0.159331862496513,0.438403150407391,-0.255318075060687,0.386902477691939,0.492138567924002,0.941725385523688,0.942271206210629,0.04,0.0542236229755599,449.297536416249,1.00235871917993,0.329355970802032
1150,0.432682897792566,-0.422959966997357,0.12816419943279,0.159331862496513,0.438403150407391,-0.255318075060687,0.386902477691939,0.492138567924002,0.941804839625296,0.942271206210629,0.04,0.053859569411835,449.335895758574,1.005348045084,0.328404691457216
1210,0.432682897792565,-0.422959966997357,0.12816419943279,0.159331862496513,0.438403150407391,-0.255318075060687,0.386902477691939,0.492138567924002,0.941909732207187,0.942271206210629,0.04,0.0537209556770012,449.385951714248,1.0077324889585,0.327664135136536
1270,0.432682897792566,-0.422959966997357,0.12816419943279,0.159331862496513,0.438403150407391,-0.255318075060687,0.386902477691939,0.492138567924002,0.942004795663726,0.942271206210629,0.04,0.0537003421898233,449.431168140377,1.0095170358802,0.327117826276675
1330,0.432682897792566,-0.422959966997357,0.12816419943279,0.159331862496513,0.438403150407391,-0.255318075060687,0.386902477691939,0.492138567924002,0.942080231605008,0.942271206210629,0.04,0.0537311255059982,449.466996710916,1.01080731695609,0.326726309537733
1390,0.432682897792565,-0.422959966997357,0.12816419943279,0.159331862496513,0.438403150407391,-0.255318075060687,0.386902477691939,0.492138567924002,0.942136436749621,0.942271206210629,0.04,0.0537776870578507,449.493672193139,1.01172231832209,0.326450191750007
1450,0.432682897792566,-0.422959966997357,0.12816419943279,0.159331862496513,0.438403150407391,-0.255318075060687,0.386902477691939,0.492138567924002,0.94217694315744,0.942271206210629,0.04,0.0538234636875059,449.512888934712,1.01236408407808,0.326257193434506
1510,0.432682897792565,-0.422959966997357,0.12816419943279,0.159331862496513,0.438403150407391,-0.255318075060687,0.386902477691939,0.492138567924002,0.942205602483097,0.942271206210629,0.04,0.0538621893857722,449.526482340224,1.01281142023018,0.326122954687546
1570,0.432682897792565,-0.422959966997357,0.12816419943279,0.159331862496513,0.438403150407391,-0.255318075060687,0.386902477691939,0.492138567924002,0.94222567141683,0.942271206210629,0.04,0.0538925633225094,449.536000002899,1.01312216685454,0.326029828443858
1630,0.432682897792566,-0.422959966997357,0.12816419943279,0.159331862496513,0.438403150407391,-0.255318075060687,0.386902477691939,0.492138567924002,0.942239642839722,0.942271206210629,0.04,0.0539153604482499,449.542625382248,1.01333765055854,0.325965303111672
1690,0.432682897792565,-0.422959966997357,0.12816419943279,0.159331862496513,0.438403150407391,-0.255318075060687,0.386902477691939,0.492138567924002,0.942249337354766,0.942271206210629,0.04,0.0539320045425757,449.547222483627,1.01348696488128,0.32592061240276
1750,0.432682897792565,-0.422959966997357,0.12816419943279,0.159331862496513,0.438403150407391,-0.255318075060687,0.386902477691939,0.492138567924002,0.942256051871472,0.942271206210629,0.04,0.0539439381915404,449.550406378879,1.01359042348117,0.32588965330801
1810,0.422983705827841,-0.412942169452068,0.125833259114841,0.155939008819654,0.433230531606702,-0.247408037928908,0.37913524222313,0.490835502086043,0.942187158006585,0.940955212925811,0.04,0.0539946069938517,449.506367724582,1.01177341962625,0.326442923655457
1870,0.364788554039494,-0.352835384180333,0.111847617207148,0.135581886758502,0.402194818802569,-0.199947815138233,0.332531829410274,0.48301710705829,0.937054063898708,0.933059253216904,0.04,0.0554520703497382,447.01005172557,0.9901841721123,0.331708030237795
1930,0.306593402251147,-0.292728598908597,0.0978619752994545,0.115224764697349,0.371159105998435,-0.152487592347558,0.285928416597419,0.475198712030538,0.92909269379044,0.925163293507996,0.04,0.0560656684716737,443.204357432082,0.96563676774778,0.337244522157395
1990,0.2483982504628,-0.232621813636862,0.083876333391761,0.0948676426361963,0.340123393194302,-0.105027369556883,0.239325003784563,0.467380317002785,0.92080394744442,0.917267333799088,0.04,0.0554782482240635,439.249889997199,0.943226953684387,0.342176464749021
2050,0.190203098674453,-0.172515028365127,0.0698906914840677,0.0745105205750436,0.309087680390169,-0.0575671467662073,0.192721590971708,0.459561921975032,0.912602096496766,0.90937137409018,0.04,0.054222794892468,435.337696425861,0.922878756405407,0.346606180062601
2110,0.132007946886106,-0.112408243093392,0.0559050495763743,0.0541533985138908,0.278051967586035,-0.0101069239755321,0.146118178158853,0.45174352694728,0.904505564654304,0.901475414381272,0.04,0.0526573273942818,431.475384822963,0.903953153877244,0.350723427490394
2170,0.0738127950977586,-0.0523014578216563,0.0419194076686809,0.0337962764527382,0.247016254781902,0.037353298815143,0.0995147653459973,0.443925131919527,0.896482750852352,0.893579454672364,0.04,0.0509409473731195,427.652108182688,0.885967951913647,0.354672308038493
2230,0.0156176433094116,0.00780532745007895,0.0279337657609875,0.0134391543915854,0.215980541977769,0.0848135216058182,0.0529113525331419,0.436106736891774,0.888499135893914,0.885683494963456,0.04,0.0491478256338014,423.837443191415,0.868632183582537,0.358523874435013
2290,-0.0425775084789356,0.0679121127218143,0.0139481238532941,-0.00691796766956736,0.184944829173635,0.132273744396494,0.00630793972028648,0.428288341864021,0.88051128133713,0.877787535254549,0.04,0.047273273070665,420.033976802768,0.851773116998874,0.36233907337556
2350,-0.100772660267283,0.12801889799355,-3.75180543991291e-05,-0.02727508973072,0.153909116369502,0.179733967187169,4.63929601889765e-07,0.420469946836269,0.871686849166162,0.869891575545641,0.04,0.0460729322772691,415.826683445873,0.838779512479751,0.364266486302285
2410,-0.15896781205563,0.188125683265285,-0.0140231599620926,-0.0476322117918727,0.122873403565369,0.227194189977844,4.80958136985545e-07,0.412651551808516,0.863552015736935,0.861995615836733,0.04,0.0449159488622732,411.990918477884,0.82862623811197,0.365328571178759
2470,-0.217162963843977,0.24823246853702,-0.0280088018697859,-0.0679893338530254,0.0918376907612354,0.274654412768519,4.91005298874271e-07,0.404833156780763,0.855688874246022,0.854099656127825,0.04,0.0440846929849521,408.186891685451,0.818568380300113,0.366402784520409
2530,-0.275358115632324,0.308339253808756,-0.0419944437774792,-0.088346455914178,0.0608019779571022,0.322114635559194,4.95751220129205e-07,0.39701476175301,0.84765864230573,0.846203696418917,0.04,0.0434138603883997,404.413597314674,0.808915673618531,0.367347573098298
