time,bias_percent_1,bias_percent_2,bias_percent_3,bias_percent_4,bias_percent_5,bias_percent_6,bias_percent_8,bias_percent_9,normalized_power,power_SP,SP,CV,total_power_MW,fuel_fraction,thermal_efficiency
41,0,0,0,0,0,0,0,0,0.99973432630934,1,0.04,0.0399404845089674,476.977286347619,0.999833536914432,0.350529581814931
101,-0.00906613057701225,-0.00955673254587362,-0.011817994758805,-0.013323339527391,0.0204900249748271,-0.0169511135072244,0.0114742213664326,-0.0125961747137321,0.982819039165358,0.970208044633986,0.04,0.0466009007440864,468.614559555714,0.95358423983554,0.361086614379144
161,-0.0223336387384936,-0.0235421948081278,-0.0291126212351048,-0.0328209095674755,0.0504754273770127,-0.0417576210787722,0.0282657648295047,-0.0310296011240717,0.941291515350143,0.926610061171526,0.04,0.0565984564018795,448.897757669024,0.863016171320577,0.382193396106924
221,-0.0356011468999748,-0.0375276570703817,-0.0464072477114046,-0.05231847960756,0.0804608297791984,-0.0665641286503201,0.0450573082925768,-0.0494630275344114,0.89725952223356,0.883012077709066,0.04,0.0615269024432862,427.720605992375,0.773848028827121,0.406124480724109
281,-0.0488686550614561,-0.0515131193326357,-0.0637018741877044,-0.0718160496476445,0.110446232181384,-0.0913706362218679,0.0618488517556488,-0.067896453944751,0.852303563510416,0.839414094246606,0.04,0.0619646446314944,406.277771061377,0.691794685893519,0.43151958934978
341,-0.0621361632229375,-0.0654985815948897,-0.0809965006640044,-0.0913136196877291,0.14043163458357,-0.116177143793416,0.0786403952187209,-0.0863298803550906,0.807485612978052,0.795816110784146,0.04,0.0590769055605698,384.894729535234,0.617069408781833,0.458313472326665
401,-0.0754036713844189,-0.0794840438571439,-0.0982911271403044,-0.110811189727814,0.170417036985756,-0.140983651364964,0.095431938681793,-0.10476330676543,0.762354372601379,0.752218127321686,0.04,0.0533655739892686,363.548587880365,0.550699654295519,0.485067675416039
461,-0.0886711795459001,-0.0934695061193979,-0.115585753616604,-0.130308759767898,0.200402439387942,-0.165790158936512,0.112223482144865,-0.12319673317577,0.717916863690494,0.708620143859226,0.04,0.0459175645683517,342.425437729785,0.491656579148322,0.511751165927939
