time,bias_percent_1,bias_percent_2,bias_percent_3,bias_percent_4,bias_percent_5,bias_percent_6,bias_percent_8,bias_percent_9,normalized_power,power_SP,SP,CV,total_power_MW,fuel_fraction,thermal_efficiency
29,0,0,0,0,0,0,0,0,0.999598468497055,1,0.04,0.0400020546522491,476.911421937165,0.9995816370466,0.35056950131494
89,0,0,0,0,0,0,0,0,0.999953311366479,1,0.04,0.0398967124461245,477.078515744008,1.00023976764729,0.350461583111852
149,0,0,0,0,0,0,0,0,0.999995034922744,1,0.04,0.0399358474744185,477.09772716385,1.00031372577087,0.350449783413571
209,0,0,0,0,0,0,0,0,1.00000077507446,1,0.04,0.039968878844606,477.100390015221,1.00031636584143,0.350450814473213
269,0,0,0,0,0,0,0,0,1.00000255833896,1,0.04,0.0399890170722152,477.101230801375,1.00030407086865,0.350455739547943
329,0,0,0,0,0,0,0,0,1.00000353658347,1,0.04,0.0400005652788212,477.101692685493,1.00028455498045,0.350462916341926
389,0,0,0,0,0,0,0,0,1.00000395613647,1,0.04,0.0400067231813383,477.101888829285,1.0002614225568,0.350471165363757
449,0,0,0,0,0,0,0,0,1.00000392934726,1,0.04,0.0400094716949719,477.101873051916,1.00023760346545,0.350479499695367
509,0,0,0,0,0,0,0,0,1.00000359991978,1,0.04,0.0400100950052685,477.10171406405,1.00021521334193,0.350487228490925
569,0,0,0,0,0,0,0,0,1.00000310263548,1,0.04,0.0400094638914637,477.101475867826,1.00019552368906,0.350493953127212
629,0,0,0,0,0,0,0,0,1.00000254157347,1,0.04,0.0400081741002209,477.101208062757,1.00017911357628,0.350499507001129
689,0,0,0,0,0,0,0,0,1.00000198832904,1,0.04,0.0400066243108457,477.100944377625,1.00016606670895,0.350503885445204
749,-0.0753541687687557,-0.120832598660523,-0.120833320601259,0.120817181165772,0.120833300412313,-0.120833328282834,0.120833291888519,0.120833222484144,0.993450845588265,0.99438004080216,0.04,0.0400609047332419,473.934457845994,1.00331640926734,0.347084361903161
809,-0.155905176762943,-0.249998479987288,-0.249999973657777,0.249966581722287,0.249999931887543,-0.24999998955069,0.249999914252109,0.24999977065685,0.986096170253904,0.982752539013527,0.04,0.0410595335743618,470.3781227624,0.989888018574044,0.349152955957745
869,-0.0748096165245665,-0.249998432219863,-0.00833448394567563,0.00831606722318133,0.00858502015176441,-0.24999999460119,0.248618429178979,0.233488546562749,0.978719666893112,0.971125037224893,0.04,0.0419428108059653,466.889740263038,0.956902979515438,0.358509856324082
929,0.0118787409716288,-0.249998381158133,0.249997591263811,-0.25,-0.249479195841654,-0.25,0.247141669273221,0.215838617358709,0.965621543805133,0.959497535436259,0.04,0.043045010757542,460.597414610489,0.908528001991702,0.372509930495914
989,0.126970682835341,-0.00833559113084459,0.249998208136766,-0.249999999865324,-0.00806425118485481,-0.2499739732403,0.248506247006534,0.232349952302,0.939391417637465,0.947870033647625,0.04,0.0570429665742273,447.996155648498,0.912038979178416,0.360923835315787
1049,0.25,0.249993598208671,0.249998867552683,-0.24999999972136,0.25,-0.249946151531656,0.249964933549041,0.25,0.932531115898906,0.936242531858992,0.04,0.0681844321272528,444.910655524491,0.958693999557734,0.340994578591712
1109,0.25,0.249845699670997,0.249998339310667,-0.249999999856036,0.00951268491234703,-0.00840932660316946,0.00831583999448401,0.249999998816658,0.93331601923465,0.924615030070358,0.04,0.063395549235163,445.290238393736,0.936610971137237,0.349332193043649
1169,0.25,0.249687601234174,0.249997774638166,-0.25,-0.247559962250317,0.249785210389351,-0.249998708287974,0.249999997551706,0.920960449627907,0.912987528281724,0.04,0.0612278027627997,439.234512593967,0.871344840923216,0.370391549213019
1229,0.00849444957859089,0.00823853689517364,0.00833218356305235,-0.249998884997602,-0.24873931382933,0.00822303126818292,-0.00833266594878665,0.203295612924464,0.913045684187395,0.901360026493091,0.04,0.0371370238923897,435.634083465364,0.826842986591997,0.387127016312668
1289,-0.249666656044295,-0.249862187053413,-0.25,-0.249997693098486,-0.25,-0.249998608482031,0.25,0.153370236253964,0.910114002579618,0.889732524704457,0.04,0.0165275223028367,433.663022114838,0.664829173536634,0.479288490068707
1349,-0.00816110562288554,-0.172435250384914,-0.24944763461426,-0.249713325406652,-0.00833346092621616,-0.0084735052534545,0.176363033035972,-0.0208534459327842,0.865313082865476,0.878105022915823,0.04,0.0210254137537194,412.482897574399,0.659509798166415,0.459556984062549
1409,0.25,-0.0896685249806561,-0.248857175063987,-0.249409346149863,0.249999736014725,0.249708501646059,0.0976476545571837,-0.207092554477239,0.856928150273819,0.866477521127189,0.04,0.0286452290990837,408.892116160751,0.760449578954107,0.39508722715463
1469,0.236811817052311,-0.167162071240006,-0.00774287378305996,-0.249694828844096,0.011957147878971,0.00818338097289802,0.133537693108354,-0.01738428627297,0.851645939361069,0.854850019338556,0.04,0.027929682834499,406.322645786203,0.786727663619441,0.379490826910376
1529,0.222714104246161,-0.25,0.25,-0.25,-0.242502170473042,-0.249998644574274,0.171902906732019,0.185407310772973,0.843534709928442,0.843222517549922,0.04,0.0319245243274288,402.321850113967,0.780829034375691,0.378592792919226
1589,0.23590228719385,-0.249831397693938,0.249986743755299,-0.00833333337473528,-0.00446494145292684,-0.00833263303004162,0.209649835144877,0.216579394273624,0.813422192081302,0.831595015761288,0.04,0.0543391444398685,387.968630502674,0.828014969642065,0.344281034794966
1649,0.25,-0.249651167642631,0.249972573286825,0.249999999914341,0.249988648189266,0.25,0.25,0.249901276636389,0.812121810340502,0.819967513972654,0.04,0.0691342521248017,387.516863604409,0.916597093382257,0.310646744762993
1709,0.00833333333333348,-0.249773063555466,0.210048648056381,0.249992462610102,0.249988934468535,0.249343490564228,0.24979855866865,0.249947457279575,0.814215570621707,0.808340012184021,0.04,0.0671629689558678,388.475339663678,0.909892200340489,0.31370987458997
1769,-0.25,-0.24990336608298,0.167371348672113,0.249984405491778,0.249989240491202,0.248641704615645,0.249583224831691,0.249996822794705,0.805556889987133,0.796712510395387,0.04,0.0655391810233437,384.179722257957,0.848716508781177,0.332603231637169
1829,-0.00833432717309085,-0.0082835125503218,-0.0326152961886336,0.00832564537783617,0.00832778750224054,0.249028121697705,0.00873891859777356,0.249985845332074,0.799453794468663,0.785085008606753,0.04,0.0572985910470186,381.461607046662,0.787198472587749,0.356058425947888
1889,0.249997943779812,0.249999779157002,-0.24639412345357,-0.249999236123273,-0.249999972589408,0.249441188233702,-0.123698849310102,0.249974110803055,0.78354428960535,0.77345750681812,0.04,0.0558424960756282,373.65715417183,0.696863080045222,0.393985757078815
1949,0.24999893761957,0.249999885886018,-0.248136963733395,-0.171225536424245,-0.249674529206333,0.249711280587412,0.0692876091871004,0.249978545467984,0.76174774166892,0.761830005029486,0.04,0.0579193876063614,363.256611793726,0.671059360250999,0.397747323250302
2009,0.25,0.249999999975655,-0.249999999894588,-0.0870191677804568,-0.249326641452011,0.25,0.249987511511627,0.249983285971874,0.750927644463392,0.750202503240852,0.04,0.0563400755053786,358.221591313189,0.679861955302038,0.38715573427629
2069,0.249991693632245,0.249992316375774,-0.203500774303452,-0.165793236686565,-0.00798543141687242,0.249997889010079,0.00840930301610675,0.249894077877733,0.74333007253923,0.738575001452218,0.04,0.054473858088575,354.573339564676,0.659733486354951,0.394904630187573
2129,0.249982814411541,0.249984102872452,-0.153794705568099,-0.249999999999992,0.25,0.249995632434647,-0.00854240957268386,0.249798717501239,0.726642060449413,0.726947499663585,0.04,0.0601859309879397,346.607114028654,0.659483268080488,0.386178745240632
2189,0.249991120779296,0.243916820140119,-0.20024972764959,-0.00833333333332894,0.00944244377601638,0.00833107675790097,-0.00403761577271729,0.249895979910593,0.722233992010645,0.715319997874951,0.04,0.0496286194423269,344.56500705335,0.641386774361267,0.394735190822481
2249,0.25,0.2374311041159,-0.24990854435739,0.25,-0.247705288739277,-0.25,0.249955599093037,0.249999950072315,0.706067242424218,0.703692496086317,0.04,0.0480875064927601,336.771660632088,0.622030388693585,0.397812671422828
2309,0.00841683728686087,0.00183940379321518,-0.0854316710913559,0.00833898791270303,-0.121198723904982,-0.25,0.00833563303237685,0.00833508995777335,0.713630125982153,0.692064994297683,0.04,0.0119056711845259,340.632607595199,0.565055318065237,0.442945127541652
2369,-0.249827233199598,-0.25,0.0903884348137153,-0.24998830087027,0.0140324316075393,-0.25,-0.047474980156794,-0.047474980156794,0.673550343430874,0.68043749250905,0.04,7.08502163027006e-10,321.117964149024,0.53582932941147,0.440344723169086
2429,-0.148851918511701,-0.249951100123747,-0.0741078348447149,-0.249958338249001,-0.113574713599461,-0.25,-0.122856581105802,-0.00833142812287123,0.652630608761586,0.668809990720416,0.04,2.92299133273213e-07,311.441547218504,0.622148793759068,0.367821372926127
2489,-0.0409127890177427,-0.249898827842236,-0.249948674824417,-0.249926309240059,-0.249982351579358,-0.25,-0.191154146799112,0.249999999719668,0.673329462728064,0.657182488931782,0.04,4.77476788741435e-06,321.188596817119,0.552077720070342,0.427478792027017
2549,0.0996950527344338,-0.239081603353458,-0.00832988019121854,-0.00831263221183036,-0.0765798642086002,-0.0083334757990761,0.0220703555610864,0.249999289221305,0.597716742202309,0.645554987143148,0.04,0.0345411644105655,286.767799593003,0.579603371201486,0.363541636086216
2609,0.249999987021243,-0.227518363382696,0.249952279589097,0.249964057025242,0.108781415394624,0.249999705243291,0.249999996015092,0.249998529723054,0.616476703086594,0.633927485354515,0.04,0.0638083788226304,294.335115657764,0.761170558695965,0.28412848334879
2669,0.249987164872552,-0.0724756066834678,0.249975344454367,0.00831476279637502,0.177031845579303,0.00836330502271153,0.00861990475188117,0.249999240354617,0.632990629371711,0.622299983565881,0.04,0.0643671179057442,302.108705498124,0.754714048617006,0.294127398718793
2729,0.249973458437743,0.0932597539260516,0.25,-0.25,0.249989201983614,-0.249937674523425,-0.249407089357068,0.249999999995253,0.62729870479882,0.610672481777247,0.04,0.0713425955009956,299.087800963895,0.639495469654227,0.343649648257697
2789,0.249986286859501,-0.0725480991722285,0.25,-0.00984788138173326,0.208622665691243,-0.00843121570864048,-0.2105400219634,0.249999987041314,0.600538992942961,0.599044979988614,0.04,0.0853388233191174,286.28890131899,0.591792237851242,0.355459334656348
2849,0.25,-0.249790976622114,0.25,0.246866452313655,0.164403264826984,0.24973086095544,-0.118171128282277,0.249999973193999,0.586683654942546,0.58741747819998,0.04,0.0825481271630102,279.865478902612,0.607470024391347,0.338515965143351
2909,0.249309061630964,-0.249892004588092,0.249998014509183,0.00672646322557057,-0.0358916465060582,0.249858527687245,-0.00833333333333336,0.249999986150233,0.581898941088517,0.575789976411346,0.04,0.0668062898213377,277.517004630739,0.589390548555886,0.345972124438988
2969,0.248570472339926,-0.25,0.249995892087964,-0.249974904420313,-0.25,0.249994999021245,0.25,0.25,0.576781001426737,0.578765500558568,0.04,0.0524814744776189,275.259680533361,0.576784825340974,0.350657758048159
3029,0.248730977006795,-0.00833352201836715,0.249997877578782,-0.00832036728382843,-0.0116613545670007,0.249997413507496,0.242337958478365,0.25,0.581519517204486,0.597351155878601,0.04,0.0659460743193735,277.456195253867,0.62939512644832,0.323911022503964
3089,0.248902550961034,0.249999609617171,0.25,0.25,0.243114438826895,0.249999994510041,0.234147500300066,0.25,0.599383897522431,0.615936811198634,0.04,0.0755198554612533,286.184766022546,0.7429082438844,0.283051858404147
3149,0.249432984657246,0.249993591380467,0.249460679217579,0.00979608898919719,0.00477579339389592,0.249999884533214,0.000142875595069036,0.21996616402787,0.637194299029087,0.634522466518667,0.04,0.0498040511947753,304.397262138066,0.786949035907326,0.284216188185323
3209,0.249999999987679,0.249987158092954,0.24888416389844,-0.246973608987868,-0.25,0.249999766971777,-0.00168616416227054,0.187861029023178,0.657072883202902,0.6531081218387,0.04,0.0427602088469761,313.550407834147,0.745204272801223,0.30916242839735
3269,0.0357258544527608,0.249918727454061,0.249423450775694,-0.0067697045121206,-0.00835960997515747,0.00840656645426236,-0.000877744602673946,-0.000877744602673946,0.67501460265707,0.671693777158733,0.04,0.0393010417284957,322.256642898796,0.737455964271812,0.321085329108462
3329,-0.193325818360428,0.249845577460761,0.24999992985138,0.249999986479196,0.249945634534157,-0.249848234098943,-0.00112927760783619,-0.00112927760783619,0.686713571458672,0.690279432478766,0.04,0.0362794873068642,327.745361227378,0.748652714640751,0.321670197839977
3389,-0.220717700975025,0.00882278491868988,0.24999945938644,0.00833332634758437,0.182423387488958,-0.00827666978278296,-0.00952801640809811,0.00613720060863068,0.707994273028909,0.7088650877988,0.04,0.0196573710646614,337.837904237157,0.772392299951868,0.321384638793885
3449,-0.249998678942352,-0.248822269178007,0.249998956475642,-0.25,0.110244433750987,0.24995500241725,-0.0413444294398252,0.249981108306545,0.722804455756422,0.718467676380817,0.04,0.0184913518488831,344.842014275212,0.761272788351272,0.332839256531923
3509,-0.0083409530921632,-0.00828620179250174,0.00833338633296694,-0.249868232409535,-0.0638309521688207,0.00831340448249455,0.00395380303549977,0.00832901006412152,0.728245191972951,0.718467676380817,0.04,0.0130573428690804,347.453289476522,0.716360702877349,0.356384945391612
3569,0.24998282281666,0.248838559895452,-0.249998774854031,-0.249727377399039,-0.24991153711758,-0.249993131240865,0.186528683659018,-0.142077941145411,0.723744350729757,0.718467676380817,0.04,0.0179572891857424,345.253651042254,0.671341917261702,0.37787589749403
3629,0.0102863787399433,0.00773331023824881,-0.249982049465071,-0.00867773203302409,-0.249954294169132,-0.00833267280533539,0.216162847309502,-0.197960123449803,0.719829351170747,0.718467676380817,0.04,0.0205323094839588,343.353365049567,0.654804622560255,0.385286904212494
3689,-0.245940854583443,-0.249999887671175,-0.249964170601011,0.248996026806509,-0.249999999982861,0.24999402414299,0.247840746384156,-0.156033012748238,0.719122635472058,0.718467676380817,0.04,0.0205586061145903,343.244044067974,0.646829761444327,0.389912979493207
3749,-0.00698873034136204,-0.201345514606381,-0.0829686897600814,0.249481280516696,-0.00847839442952454,0.00853990434303466,0.17483880072629,-0.201442296621852,0.704357442437918,0.718467676380817,0.04,0.0287884726274081,336.107278146275,0.67099110596919,0.368057633628372
3809,0.248442850745001,-0.149335667537117,0.0955437207940157,0.25,0.249699873575766,-0.249566223718986,0.0968022381265033,-0.249983255245371,0.709961802581673,0.718467676380817,0.04,0.0402707913169874,338.821591428017,0.747066534813916,0.333247171421253
3869,0.249195472884917,-0.0847453063662837,0.170183068785991,0.249999565968341,0.197833139868638,-0.00810952141922405,0.170287456518102,-0.246068068600251,0.709426155337701,0.718467676380817,0.04,0.0561240570265554,338.394744407009,0.783792452403938,0.317232160232723
3929,0.25,-0.0157004375284961,0.249969958018791,0.249999102003464,0.142389390043777,0.249999367246039,0.248840621005674,-0.241882869083054,0.712550089229172,0.718467676380817,0.04,0.0658741052134482,340.045432771811,0.841173253712269,0.297034002379572
3989,0.25,0.11271638793736,0.24957135632204,0.248344938017764,0.192249856959673,0.00833801255787557,0.249235356405999,-0.00413949500963446,0.714827455708228,0.718467676380817,0.04,0.0723091306414969,341.026669660242,0.857720867778744,0.292144048837826
4049,0.25,0.249989546193966,0.2491452648531,0.246576693757188,0.245548976766319,-0.249989642453609,0.24965731493738,0.249999973827469,0.718965365850379,0.718467676380817,0.04,0.0758163672098365,343.075307944593,0.870798924356768,0.289485125999393
4109,0.249992067586528,0.249340678868415,0.00789173188096424,0.248202202631634,0.247700009687623,-0.00832798987536194,0.176127874722786,0.249311500037352,0.722000587314026,0.718467676380817,0.04,0.0749921407984578,344.480571000056,0.852339466873182,0.296966055264883
4169,0.249983588110057,0.248647062072136,-0.249999975778905,0.249939815566387,0.249999389706947,0.249999983570351,0.0975274386313227,0.248575545296191,0.722868581201718,0.718467676380817,0.04,0.0721167482609613,344.867751008432,0.825485866501539,0.306971191024958
4229,0.249809707902309,0.249298748670711,-0.248710867962111,0.249968893470106,0.249999676852159,0.249993556110257,0.170968982415003,0.00759981145411482,0.7261475844806,0.718467676380817,0.04,0.0686374876697541,346.492405690487,0.794094797887751,0.320609248131814
4289,0.249623835956096,0.249995379172636,-0.247332856157952,0.249999976746496,0.249999983800489,0.249986685377053,0.24947546025273,-0.013797755534386,0.719152695967948,0.718467676380817,0.04,0.0692995684840219,343.093971967695,0.779293779944959,0.323494241443273
4349,0.24980253605031,0.0155591513354312,-0.0245327137455156,0.105427738529866,0.00833332496358628,0.249964331099018,0.229366020655917,0.115994237642368,0.719840637830718,0.718467676380817,0.04,0.0574420441307453,343.47798089214,0.776465544061511,0.325035943308098
4409,0.249993560288954,-0.235045092214684,0.213632955729847,-0.0491149988741189,-0.25,0.249940435146635,0.207869723155876,0.249999366908877,0.722076127212639,0.718467676380817,0.04,0.0470886386502619,344.475706357903,0.752467931266841,0.33637621523328
4469,0.249912788962523,-0.00064624085760272,0.0178000405936917,0.0877999230759491,-0.159845710181776,0.151400348820671,-0.00145913657234765,0.249891305160694,0.724634471220474,0.718467676380817,0.04,0.0468052191656524,345.727863952969,0.728229397182501,0.348835642353248
4529,0.249826447199788,0.249918048524105,-0.191538592827716,0.234157253436367,-0.0634738831347086,0.0460643944722258,-0.000688980259638897,0.249775790878154,0.718989932118156,0.718467676380817,0.04,0.0541070212568342,343.023557676227,0.719440631258979,0.350335108355447
4589,0.249825818502778,0.0908537862632488,-0.0920637072234955,0.192114629322376,-0.153566701826706,0.14463312636025,-0.000333051661514983,0.0082400196757218,0.727039707674192,0.718467676380817,0.04,0.0419279334642685,346.979668627862,0.698570158528763,0.364962862870125
4649,0.249825146447354,-0.0791804251190453,0.0142715153189475,0.14717251389018,-0.249872818359532,0.249999701826758,-0.000759272098752157,-0.000759272098752157,0.720407567237094,0.718467676380817,0.04,0.037940217363361,343.672949027036,0.67323407165326,0.375088663816469
4709,0.0205866229887367,0.0799234470218266,-0.11341128170986,-0.0447942011567401,-0.248948454002224,0.00845905817053824,-0.00811863764407517,-0.00811863764407517,0.729162488126075,0.718467676380817,0.04,0.0105165603900853,348.03041313337,0.647597631525558,0.394881348941689
4769,-0.224461453811855,0.25,-0.249899788878585,-0.25,-0.247960340378896,-0.249739560910249,0.168000025353981,0.249890600385136,0.723267771710175,0.718467676380817,0.04,0.00602605763007907,345.237066699026,0.58333406571848,0.434865300432673
4829,-0.0142083921751658,0.248752540565617,-0.0451693641592186,-0.00833333333333326,-0.00728206240648717,-0.00819887458175981,-0.0340333202337764,0.00836044307794593,0.695025271272964,0.718467676380817,0.04,0.0220292031601251,331.8849395909,0.631963078014129,0.385878441546449
4889,0.210544880608881,0.247419049446105,0.173680400195966,0.25,0.249994717495053,0.249999790114211,-0.153097112820895,-0.153097112820895,0.70350971703789,0.718467676380817,0.04,0.0519515378017736,335.797022583604,0.748222395139812,0.329762156359303
4949,0.209290707186818,0.248666508880488,-0.0309940052386808,0.175631555108783,0.00833138334093553,0.249998877463847,-0.155456448731773,-0.115027483146383,0.720291765581505,0.718467676380817,0.04,0.0386801245231244,343.813087364042,0.776795666407715,0.325214788799295
5009,0.207950039045992,0.25,-0.2497838869102,0.0961342519492068,-0.249998387651397,0.249997901872077,-0.157359636293254,-0.0710015101081887,0.724906985448954,0.718467676380817,0.04,0.0336338556783339,345.778861838336,0.72562833259565,0.350137708426246
5069,0.22791572072836,0.241115889460703,-0.211147528998543,-0.0711637543959047,-0.14307226671063,0.00835413445979123,-0.174067832535158,0.0756057997657697,0.720160747446746,0.718467676380817,0.04,0.0329665600745742,343.569666858624,0.708110617159114,0.356507264608425
5129,0.24925834597503,0.231619081642833,-0.169846594679185,-0.249999554282058,-0.0287719305325672,-0.249954720360239,-0.191754977060945,0.232323958596553,0.721122792401235,0.718467676380817,0.04,0.0284199098754432,344.059154333371,0.69763152682449,0.362377892705088
5189,0.249616812087099,0.24049773587663,-0.208583891206526,-0.0135886713947791,-0.13569883077516,-0.249976605519457,-0.183717356865351,0.0724044511205128,0.724733639377088,0.718467676380817,0.04,0.0315064976220298,345.74938342024,0.670945912753028,0.378641819996976
5249,0.25,0.249988711092068,-0.249992725425408,0.239126410312312,-0.25,-0.25,-0.113083233986991,-0.0985439879055989,0.720098571318743,0.718467676380817,0.04,0.0358220590741625,343.515868648986,0.646918035425201,0.390168515537592
5309,0.248017930657606,0.00833716713751926,-0.247946345710127,0.00927748976534554,-0.249811960890788,-0.249972319567586,0.0623940371606376,0.0699189275831564,0.717155499535755,0.718467676380817,0.04,0.0252810342119488,342.457000243172,0.656098016751967,0.383523517146181
5369,0.245899166877804,-0.249980000538033,-0.245758836359309,-0.236423080474516,-0.249610953567147,-0.249942730139833,0.249973189077068,0.249999975174584,0.721623475941186,0.718467676380817,0.04,0.0233122214137385,344.488405339297,0.618473449971785,0.409268410335329
5429,0.247720165678829,-0.249989384339585,-0.00614220853757718,-0.0726260253803396,-0.00813235296646644,-0.00830374390558029,0.00831948102315175,0.00833332050686869,0.693740650396413,0.707543281882651,0.04,0.033422610742972,330.702772429384,0.649154112429626,0.374321436960042
5489,0.249666750604063,-0.249999415299866,0.249999703961516,0.102467378341021,0.249999944227364,0.25,-0.25,-0.25,0.685219335217375,0.684941086369204,0.04,0.0554626336949956,326.802963087289,0.671725647788773,0.357477515624066
5549,0.0197397732995694,-0.00833303123826397,0.249999847046783,-0.0678918545238057,0.00833330451747133,0.249899377916394,-0.25,-0.249999354118694,0.672700080299094,0.662338890855757,0.04,0.051312478487985,320.878858412907,0.636468110514797,0.370441071264817
5609,-0.226044236922476,0.25,0.25,-0.25,-0.25,0.249791816378746,-0.25,-0.249998663693849,0.651250438971019,0.639736695342311,0.04,0.0456719021067814,310.443744387159,0.549348341276361,0.415231002363248
5669,0.00376894592549047,0.00833333333333337,0.24973944248091,-0.25,-0.24966783373522,0.193794453070549,-0.00849415045794632,-0.249997279639914,0.617332073487763,0.617134499828864,0.04,0.0498841721411181,294.23830292299,0.517013827952241,0.418168894323812
5729,0.249431313797454,-0.25,0.249460915477744,-0.25,-0.249312759452179,0.133935202637648,0.249667274914594,-0.249995800133983,0.596902825537476,0.594532304315418,0.04,0.048903854849848,284.667599053014,0.522289803077583,0.400480309361213
5789,0.102476976049842,-0.00874427063914032,0.00805481012991373,-0.25,-0.24961710649388,0.189948640004791,0.0081632057498212,-0.239377031835741,0.595796744494664,0.592751204672416,0.04,0.0278256459565409,284.438541162875,0.505187094808123,0.413705096450916
5849,-0.0546121436113989,0.249149784884537,-0.249999992138457,-0.25,-0.249942442986734,0.249825073052427,-0.249996316460798,-0.249785722374126,0.610803990880608,0.613227138546098,0.04,0.000222707976176488,291.453293009386,0.490407365238622,0.436683375636211
5909,0.0925258346686452,0.00795817313659899,-0.249999907877447,-0.249999736065067,-0.249382634467419,0.249835457204245,-0.249997934760017,-0.249887786584872,0.615322002720062,0.63370307241978,0.04,2.06357877654309e-06,293.649618913004,0.572211759491876,0.377074652187256
5969,0.249811259726623,-0.249867342869818,-0.249999817805333,-0.249999453927724,-0.248784218464014,0.249846557504465,-0.249999664666079,-0.249996889706703,0.638722070426916,0.654179006293462,0.04,2.51487445609799e-06,305.013739349015,0.686618624066112,0.32640627531353
6029,0.00834753467465384,-0.249931460482739,-0.249999905866089,-0.249999717862657,-0.249371846206407,0.00825952289038446,-0.249999112967039,-0.00846491743070538,0.680815693326309,0.674654940167143,0.04,3.26306861487414e-05,325.368050496739,0.707280186071655,0.338016647181309
6089,-0.249768861070555,-0.25,-0.25,-0.25,-0.25,-0.249988686524667,-0.249998523219789,0.249724432243637,0.696137126075121,0.695130874040825,0.04,0.00370369233798885,332.717834496229,0.618821333491913,0.395062201658592
6149,-0.00822305436377008,-0.00833333333333337,-0.00834020225825441,-0.00833333333333337,-0.00834413945874508,-0.249994154704411,-0.00833257033022414,0.249857623325879,0.654459437641008,0.715606807914507,0.04,0.030765557273647,311.557371913534,0.775023344459648,0.295377849288436
6209,0.249981083840035,0.25,0.249985788431198,0.25,0.249977642499148,-0.25,0.25,0.25,0.697230081241872,0.736082741788189,0.04,0.0462185859237037,333.25215886679,1.14777498840413,0.213339312479741
6269,0.00889772927392403,0.00833333333333326,0.00832599068945228,0.061497513610322,0.00832178195789334,-0.249999975530814,0.0666791773961897,0.00833333333333337,0.783410693081563,0.756558675661871,0.04,0.0308748691056207,374.557429522957,1.16133373776809,0.236982375958749
6329,-0.248812063538125,-0.25,-0.25,-0.140005144254507,-0.25,-0.249999949374098,-0.129284460559607,-0.25,0.800878229414604,0.777034609535552,0.04,0.0252431259240107,381.978673341011,0.898588324775766,0.312343894275862
6389,-0.0077195661613647,-0.00833333333333337,-0.00833333333333337,0.0484973421351716,-0.25,-0.00838113843972428,0.0540328214376569,-0.25,0.769514043016985,0.796168086890363,0.04,0.054708612119776,367.034785055936,0.917533970994548,0.293927180916168
6449,0.25,0.25,0.25,0.25,-0.25,0.249901038765985,0.249992674607146,-0.25,0.794857997075573,0.813866524518106,0.04,0.0705546223987766,379.585243715921,1.0862976470988,0.256752782231445
6509,0.25,0.0086918639193234,0.249999999642313,0.00833333333333348,-0.25,0.249948870029093,0.00832956459610637,-0.00833333333333326,0.832908618995185,0.831564962145848,0.04,0.0589849281498426,397.667838966295,1.12031238852339,0.260817067157924
6569,0.25,-0.24925821258071,0.249999999259958,-0.25,-0.25,0.25,-0.249999966795005,0.25,0.85642170211833,0.84926339977359,0.04,0.0539014114541826,408.697163515512,1.07356152811173,0.279723761746217
6629,0.25,-0.00795007650003367,0.249999999617645,-0.00833333333333348,-0.00833355509342436,0.00836620603024062,-0.249999982844086,0.008379208986859,0.871054460456876,0.866961837401332,0.04,0.0623573178051011,415.711776794939,1.04497350241059,0.292308689641414
6689,0.25,0.25,0.25,0.25,0.249999541186019,-0.24993198752364,-0.25,-0.249905084854775,0.883796273503053,0.884660275029075,0.04,0.0665874911721044,421.744404660522,1.03353930730626,0.299831327420525
6749,0.249999994582305,0.25,0.0678683254314362,0.25,0.00833309644466101,-0.249964781329604,-0.00833333333333337,-0.211261239073796,0.896799166324186,0.902358712656817,0.04,0.0551881485051183,428.003864309257,1.05941024864827,0.296850781407798
6809,0.249999988790977,0.25,-0.126824154279787,0.25,-0.24999999965817,-0.249999836777359,0.25,-0.169952300480335,0.919167091151493,0.920057150284559,0.04,0.0461572701535441,438.697592182487,1.07680171742278,0.299353394724851
6869,0.249999994208671,0.227535379067966,-0.18635914637789,0.0083418502338069,-0.00833401991100379,-0.00833324900384639,0.00833333333333337,-0.208642021040073,0.94137355142346,0.937755587912302,0.04,0.0434624013670619,449.308220112268,1.06942430720654,0.308708785596997
6929,0.25,0.203521473933724,-0.25,-0.249982378826607,0.24999857912907,0.249999999995425,-0.25,-0.249999998190138,0.956806649390394,0.955454025540044,0.04,0.041139809226183,456.588838510342,1.0496137173505,0.319632159677713
6989,0.248773403918973,-0.0152754224623658,-0.00833333333333348,-0.00832422906041347,0.23142676978173,0.00833333333096971,-0.249999999044303,-0.249999970316038,0.971575559002127,0.973152463167786,0.04,0.0383695065744896,463.666515244226,1.0558984181826,0.322654904117546
7049,0.247462215004772,-0.24916175998922,0.25,0.25,0.211574145996643,-0.25,-0.249999998022696,-0.249999940519587,0.983722828542239,0.98229665594212,0.04,0.0376266264990558,469.363909336431,1.05935356166436,0.325554301263962
7109,0.00702214441913236,-0.249566909327763,0.248901544422941,0.00833333333333337,0.230146640262063,-0.25,-0.00833333231172651,-0.00833459399710136,0.977006198194532,0.98229665594212,0.04,0.0381353373670837,466.103756529439,1.06601942575179,0.321271470130487
7169,-0.25,-0.25,0.247727333288844,-0.25,0.249999996200959,-0.25,0.25,0.249997328147624,0.985172147266761,0.98229665594212,0.04,0.0382251305772618,470.035584507741,1.06361418537793,0.324714209134802
7229,-0.249990985633437,-0.25,0.00716003318788773,-0.249999459026127,0.00833333137049578,-0.249999386004564,0.00833333333333337,0.00833195287627262,1.01203251880129,0.98229665594212,0.04,0.0225938479367321,483.106218928953,0.980210280180466,0.362141295959759
7289,-0.249981349586422,-0.25,-0.249998115195894,-0.249998880743711,-0.25,-0.249998729664616,-0.25,-0.25,0.999990878808647,0.98229665594212,0.04,0.00714933898182038,476.67626895584,0.785979563437546,0.445622338878655
7349,-0.24997929600166,-0.249972047947987,-0.00835695009636117,-0.24999942171711,-0.125565096232685,-0.0281733023325612,-0.00833335857073735,-0.00833414558590459,0.954457175030153,0.98229665594212,0.04,0.0272324199835992,454.731650490406,0.81379571980288,0.410576849801847
7409,-0.249977100790362,-0.249942168168248,0.24994912294107,-0.24999999999902,0.00745152503582324,0.208950430332739,0.249999947784682,0.249998319477439,0.964977719178052,0.98229665594212,0.04,0.0367597569482381,460.533149632139,0.991745770691344,0.341204865746005
7469,-0.246143110710495,-0.232091002123554,0.00987765031236052,-0.00833333426776403,0.124683286894316,-0.0126047796536809,0.00860207545924493,0.24999909453256,0.982016002374164,0.98229665594212,0.04,0.0318401288619547,468.624246916047,1.03132193211102,0.33387598188462
7529,-0.242044707521671,-0.213008721179225,-0.246750475601088,0.249999998065648,0.249999997846498,-0.249439659294337,-0.249443925992084,0.249999923039757,0.982850349194431,0.98229665594212,0.04,0.0308115645722446,468.895826273962,1.01429259917772,0.339678286980305
7589,-0.00437072702286685,0.0107779763822991,-0.00678625905712818,0.2499404372229,0.249916654591434,-0.24941544707128,-0.00810716131659297,0.249973332110679,0.959772524203621,0.98229665594212,0.04,0.0521739306560348,457.771801952277,1.06984396247221,0.314400532859013
7649,0.249694562475854,0.249998239292894,0.249727213800208,0.249876768735825,0.249827563525675,-0.249389565039736,0.249873518164104,0.249944907324423,0.969438230743922,0.98229665594212,0.04,0.0688099245826369,462.697822730744,1.19504195418733,0.284491293501552
7709,0.249526310525111,0.249480060949588,0.00819290138744168,0.249935956797325,0.00831152909763387,-0.217458414949214,0.00861530507123132,0.0106742122006117,1.00132657161876,0.98229665594212,0.04,0.0567436083763564,478.038542342988,1.16885976019684,0.300507407699065
7769,0.249346454991557,0.248926146168813,-0.249998949812412,0.249999226794101,-0.249860783566825,-0.183325116576587,-0.249281405476323,-0.245097910173118,1.00044602791631,0.98229665594212,0.04,0.0519399037890398,477.112522162252,1.00922959266906,0.347364566091912
7829,0.249633239989581,0.249328271970475,-0.249801454633027,0.00833293823448378,-0.249383853253844,0.011885284982385,-0.0140291297581522,-0.247467253151372,0.980794867758764,0.98229665594212,0.04,0.0518907382554903,467.8347505022,0.977662094311752,0.35160769972373
7889,0.249939803263331,0.249758130586046,-0.249590339096443,-0.249999990915452,-0.24887403119514,0.220558472855769,0.237447440837134,-0.249999999093643,0.981815994678484,0.98229665594212,0.04,0.0470279565246861,468.472696087549,0.996499702001672,0.34543137965129
7949,0.00830258621005953,0.249875034136123,-0.249774746261738,-0.249999954843305,-0.00775288074222181,-0.00687812235785259,0.243494281391983,-0.00833333286504893,0.979211594508007,0.98229665594212,0.04,0.0437938741850237,467.161445515832,1.00119955409036,0.342847527914942
8009,-0.249999266502058,0.25,-0.249971871162569,-0.249999916283424,0.249997314569518,-0.25,0.249958145433374,0.25,0.983588154978883,0.98229665594212,0.04,0.0404505810786546,469.261277771693,1.00232207225074,0.344002897815027
8069,-0.249999581937658,0.0440763425750609,-0.0694716771051056,-0.249985403382129,0.201248266400509,-0.00833333333333337,0.00831170847391002,0.207451722785386,0.986613570398097,0.98229665594212,0.04,0.0384766788099177,470.775565823069,0.987952182557922,0.350132693959496
8129,-0.249999919127438,-0.176048946396426,0.1234768061977,-0.249969889591089,0.149137214909499,0.25,-0.25,0.161969081624937,0.985698462226464,0.98229665594212,0.04,0.038344164050917,470.228474066611,0.953480361204835,0.362369675992127
8189,-0.00833512513531389,0.0298747110285134,0.184623389996623,-0.00831777628872953,-0.0437790743619322,0.00833338798697264,-0.25,-0.0371492312892805,0.982854254839426,0.98229665594212,0.04,0.040474448492236,468.965515917584,0.944709076164164,0.364751845328356
8249,0.249996206373509,0.25,0.249986979574782,0.25,-0.249999935307256,-0.249999886923505,-0.25,-0.249999841645858,0.981916633912159,0.98229665594212,0.04,0.0467733485232124,468.424939077555,0.933160727603289,0.368840185856183
8309,0.249998019760714,0.00833360891179768,0.249993272780304,0.00833334349262088,-0.249999966115571,-0.008611991695499,-0.249999981480827,-0.00844059269305734,0.972710115596389,0.98229665594212,0.04,0.0402778101325531,464.055102055757,0.965774709123387,0.353059904893276
8369,0.249999958209105,-0.24999942983766,0.25,-0.249999978980784,-0.249999999048597,0.249423344582715,-0.24999996168447,0.249777914808212,0.976017378081595,0.974863658174747,0.04,0.0363232469104719,465.61517022751,0.991699393567275,0.344986221697973
8429,0.249900657129309,-0.00834762916925331,0.249612010748872,-0.249681611320237,-0.00833333284177525,0.249700558764033,-0.249999980203643,0.249884931188906,0.956805194305174,0.959485042104322,0.04,0.0549836039232135,456.285831845267,0.981951054245879,0.34143011097734
8489,0.249794507699183,0.249969812924561,0.249197263618356,-0.249341287269306,0.25,0.249996891164752,-0.25,0.249999328009648,0.943689243285766,0.944106426033896,0.04,0.0670367547535163,450.18426960814,1.00262481619745,0.329918403715886
8549,0.249891455171932,0.249983516532209,0.00791858620281755,-0.00832391882499144,0.00833333333333326,0.192211371128025,-0.249925988514027,0.00834745621358451,0.945790645533914,0.92872780996347,0.04,0.0587296380580306,451.292953477406,0.951620259832333,0.348457285583714
8609,0.249995088677284,0.249998165216246,-0.25,0.249315337098242,-0.25,0.130440642812902,-0.249846872787643,-0.249970061913242,0.927959917880263,0.913349193893045,0.04,0.0544591037362393,442.474772197138,0.827404168676313,0.392939317032386
8669,0.0320374038607325,0.249999052028394,-0.00833503351467573,0.00797959083409148,-0.00833333333333337,-0.0534390012133338,-0.00825421787482918,-0.249959081994381,0.898837396571617,0.897970577822619,0.04,0.0517404573309718,428.626244446671,0.791890142713006,0.397711819912466
8729,-0.200951845425926,0.25,0.249996482383429,-0.25,0.25,-0.25,0.249999999445765,-0.234346533538492,0.883345088749861,0.882591961752193,0.04,0.0427334371892192,421.358259045418,0.799561883698759,0.387216722582135
8789,0.0170082131966052,0.00833333360190977,0.00833679053169135,-0.0818159775898521,0.00833333333333337,-0.249996550705608,0.00846498178401507,-0.218417228681733,0.883772297358485,0.867213345681768,0.04,0.0232835096503758,421.693199321854,0.751200140360841,0.412473083235794
8849,0.25,-0.249999999444325,-0.249989086964994,0.0979669429175473,-0.25,-0.249992863528845,-0.241500958338588,-0.241500958338588,0.863680962226597,0.851834729611342,0.04,0.0073548773149578,411.796846183377,0.639058605850078,0.473474947791205
8909,0.00834245530672808,-0.0928549700833519,-0.24999436159858,-0.0702170794926006,-0.25,-0.00855752487435086,-0.249855650218061,-0.25,0.83987651245067,0.836456113540916,0.04,0.00321191079566518,400.547012255246,0.610396108609833,0.482165815545555
8969,-0.249981126951597,0.0751276475094123,-0.25,-0.25,-0.25,0.249528526790798,-0.24999250657588,-0.25,0.820695593992556,0.82107749747049,0.04,0.00372271932055248,391.494447761766,0.58791464438854,0.48928962310214
9029,-0.249990248924992,-0.0820173818597302,-0.25,-0.249991893605581,-0.249857540926379,0.0081093714292798,-0.120775422639009,-0.25,0.815361106318359,0.805698881400065,0.04,0.000324942375080414,388.766454762399,0.558250914426025,0.511698350910388
9089,-0.25,-0.249999999461227,-0.25,-0.249983228149478,-0.249705257089061,-0.249959380853722,0.0173531843279909,-0.25,0.789993058097267,0.790320265329639,0.04,1.07567043418271e-05,376.776641034654,0.546412487917914,0.506661646397074
9149,-0.25,-0.00833333305611291,-0.24974354030388,-0.249991330049964,-0.242339608923672,-0.213836686621301,0.12363407668585,-0.249999915273393,0.768184432429946,0.774941649259213,0.04,0.0112520035021214,364.65256980302,0.543248333553887,0.493214177566488
9209,-0.25,0.24999999999763,-0.249469393732165,-0.249999990702208,-0.234465985022738,-0.175222772096988,0.237244685758045,-0.249999824703572,0.746292953301755,0.759563033188788,0.04,0.0169704096682663,355.963628703392,0.666695668140494,0.392312971823885
9269,-0.156561666225597,0.0083333338921874,-0.246665871767435,-0.00833403394967263,-0.24193745216781,0.0302786922378667,0.00174308764165653,-0.249940112948461,0.733162948095628,0.744184417118362,0.04,0.0226737337278531,349.665834450762,0.724447489755607,0.354650816633916
9329,-0.0566793094322696,-0.249999998841217,-0.24366900346031,0.249998540509934,-0.249924192909093,0.249952671354436,-0.25,-0.249876283141274,0.723697726665279,0.728805801047936,0.04,0.0297037543245132,345.226570675394,0.774758614159646,0.327410404846215
9389,0.0913579395098114,-0.00860796881779163,-0.00506507960163128,0.249999245930133,-0.249908694952465,0.249975237569738,-0.247386480827308,-0.0082694129563248,0.691601413561939,0.713427184977511,0.04,0.0608738854475286,329.708489351422,0.833471355853344,0.290665928241439
9449,0.249604653896174,0.249431787414146,0.249994287281784,0.25,-0.249892128171241,0.249999360075751,-0.244592718953052,0.25,0.69346034295614,0.698048568907085,0.04,0.0883654745812081,330.938118877228,0.920237377208247,0.264241849987089
9509,0.249792733165521,0.249706423497309,0.248587408735204,0.248209683080167,-0.141722018533987,0.249989746812132,-0.00553959034883189,0.00833333333333348,0.691767766732049,0.682669952836659,0.04,0.101009181813554,329.957601146485,0.882006562581266,0.274878642455818
9569,0.249993783418961,0.25,0.247083504081963,0.246295896027932,-0.0260919013355417,0.249979470564816,0.249999960917748,-0.25,0.67801828696324,0.667291336766234,0.04,0.108809457219184,323.362898367948,0.818435932161438,0.29030878421556
9629,0.00833012143312988,0.131035817610917,0.00682647710901404,0.00642033525791908,-0.134314114502935,0.249989385787444,0.2499998723443,-0.249967455553089,0.66796767185223,0.651912720695808,0.04,0.0894067428649804,318.7214997221,0.743100861243714,0.31515069697044
9689,-0.25,0.00386720885017382,-0.25,-0.249998367634164,-0.249999928578424,0.24999998481853,0.249999777662337,-0.249932666661564,0.657109455919377,0.636534104625382,0.04,0.0569318557757395,313.243429164587,0.590711590265776,0.389637863915111
9749,-0.00833333333333337,-0.11883527542741,-0.00840093870968337,-0.231203530217983,-0.0201995150589347,0.00833332548957389,0.14985123713179,-0.0980612273282447,0.620601138805107,0.621155488554957,0.04,0.0626786248287248,295.848688987254,0.535890366827197,0.405647099653763
9809,0.25,-0.25,0.249860126807552,-0.211112497117927,0.22544920284121,-0.25,0.0427959007025851,0.0642841043728897,0.606840234913301,0.605776872484531,0.04,0.0655814922252624,289.472471841304,0.547997152128493,0.38813574845731
9869,0.249999108612477,-0.249999999985374,0.109414274392595,-0.229908123510929,0.235886911170728,-0.00833335508932987,0.142944548696336,-0.0876198794073403,0.60140436176923,0.60444963467507,0.04,0.0531662748806212,287.005354060348,0.544476171340348,0.387316320078434
9929,0.249998155749953,-0.24999999996974,-0.0407174988785659,-0.25,0.247044461454007,0.249999954987593,0.25,-0.133500108644984,0.612003737825832,0.618142835696295,0.04,0.0407462713932003,292.096312931318,0.577165839968209,0.371860571297603
9989,0.249682737533733,-0.00833333331769882,-0.141838369723498,-0.00833333738504962,0.00680631482621186,0.24999997674359,0.00833333450530833,-0.114477595335487,0.62884821971701,0.631836036717521,0.04,0.0288695452158765,300.229025247807,0.606705152640587,0.363604851402264
10049,0.249345566337085,0.25,-0.249933093730149,0.249999991617139,-0.249999979844879,0.25,-0.11811976460815,-0.11811976460815,0.640512757865659,0.645529237738746,0.04,0.0321359869631357,305.68817380027,0.625926971739929,0.35884727085608
10109,0.00802225588014665,0.00833333333333337,-0.00829876509418693,0.249634521220366,-0.00922634802671553,0.00833333333333337,-0.00833355805699293,-0.132562864584108,0.652182506780893,0.659222438759972,0.04,0.024610212705726,311.11207489743,0.659373083363648,0.34668921291723
10169,-0.249944041504857,-0.25,0.249999999999428,0.249243845968644,0.248152361847873,-0.25,0.249999532462496,-0.16260063982547,0.669253174908188,0.672915639781197,0.04,0.019742503567778,319.471599687431,0.697134835483872,0.33672095766991
10229,-0.249970334911211,-0.00833370342120361,0.249999999999705,0.00794282921128502,0.00765216117225748,-0.249999245484032,0.249999757769884,-0.00833332163174961,0.682822646590069,0.686608840802423,0.04,0.0220507400448854,325.929329601161,0.716391789814314,0.334293182392865
10289,-0.249998441655934,0.249999234300958,0.25,-0.249999636977615,-0.249434260239607,-0.249998438932479,0.249999998615713,0.25,0.6959368375852,0.700302041823648,0.04,0.0267668290050199,332.116452704246,0.741938109032459,0.328910235038992
10349,-0.249997770517904,0.214412621027763,0.206158509313423,-0.249999587046547,-0.24970685544949,-0.00833393105720984,0.00833333274132167,0.234321822058572,0.71104622776257,0.713995242844874,0.04,0.0256243774954943,339.371562429592,0.765962726475824,0.325553589224707
10409,-0.249997053094492,0.176371758563313,0.159293467545013,-0.249999533671956,-0.249998250329021,0.249997094602561,-0.249999999745097,0.217562390466011,0.725225856449995,0.727688443866099,0.04,0.0259213804167228,346.100087173791,0.778605098935751,0.326617267730886
10469,-0.00880084229977876,-0.0295395903666609,-0.0385317084350767,-0.00833311503906998,-0.00834074803749343,0.00833208067053442,-0.249944190029811,-0.00842119193680532,0.743084500376604,0.741381644887324,0.04,0.0233384352683272,354.680696240457,0.782605521985551,0.333003900671414
10529,0.249029589929052,-0.249651721981461,-0.25,0.249999953154705,0.249982788894829,-0.24999948594646,-0.249884531368643,-0.249989848988092,0.754353070350103,0.75507484590855,0.04,0.0240634265762456,359.957281386841,0.77173491776818,0.342718452918288
10589,0.249480526796061,-0.00815352533735665,-0.00833333334719748,0.249999972234109,0.249991090335001,-0.00834277782957554,-0.00837016995574885,-0.00832808864384754,0.740392024799616,0.768768046929776,0.04,0.0564110462880749,353.058928172337,0.848860552544498,0.305608565814337
10649,0.249962562757346,0.249999719351169,0.249999999971316,0.249999992629334,0.249999964288289,0.249979910157438,0.249800354313207,0.25,0.760320838499524,0.782461247951001,0.04,0.0703391509359473,363.100503341021,1.04320070185089,0.255748830632191
10709,0.249980657424629,0.249999854998104,0.249982867927489,0.249999995968193,0.00833331488228259,0.00832396143565552,0.00823324970603829,0.0890275042455955,0.809216866063394,0.796154448972226,0.04,0.0566317396648018,386.50164051663,1.05556748050952,0.269041958467125
10769,0.25,0.25,0.249964554363399,0.249999999537318,-0.25,-0.249997914784181,-0.249993655218866,-0.0830465429401473,0.826049219833471,0.809847649993452,0.04,0.0527592074042795,394.02188956635,0.918065255631211,0.315356272714561
10829,0.00833333333333337,0.00833333333333337,0.249557259078456,0.00835230016478545,-0.249999996550207,-0.249940717263157,-0.249990260233183,0.0773373879779189,0.826926392524663,0.823540851014677,0.04,0.0346337987883775,394.688346377184,0.885555661900069,0.32748628431697
10889,-0.25,-0.25,0.249121874463517,-0.249960757785163,-0.249999992862497,-0.249879575085511,-0.249986631110556,0.248782279648955,0.849133260335859,0.837234052035903,0.04,0.0153444071453802,404.907498595681,0.80156871349829,0.371167326148466
10949,-0.249998467553474,-0.249999997799655,0.149707162394659,-0.00840119343403183,-0.0347503010760464,-0.14869311925577,-0.00832797922938209,0.249363518369236,0.831836746055575,0.850927253057128,0.04,0.0284559024362777,396.709160840583,0.830696392650141,0.350900979997227
11009,-0.249996829420982,-0.249999995447563,0.0434362632865696,0.249817651217177,0.195344197040504,-0.0405282871619094,0.249996786574632,0.249984842518502,0.852212933157567,0.864620454078354,0.04,0.0345408260528249,406.809046812886,0.950819125416368,0.314374542113421
11069,-0.249793377612946,-0.195943206647884,0.143273516288193,0.00823911979554146,0.221286729776502,0.0470294905839955,0.00845366183051533,0.195493619659545,0.8786085673611,0.878313655099579,0.04,0.0318479839672478,419.382115067346,0.979497472591343,0.314601842801593
11129,-0.249575894645734,-0.138158363448227,0.249996097083032,-0.25,0.249018402701189,0.140625735760652,-0.249747609447678,0.137244381431004,0.892721350406719,0.892006856120805,0.04,0.0328471142718883,425.982428363472,0.961935847274665,0.325387040507773
11189,-0.00811421223362959,-0.192215154448251,0.249915745548383,-0.00833333333333348,0.249492576411039,0.19324254759922,-0.01769769278721,0.186951673717002,0.887262458301365,0.90570005714203,0.04,0.0490060464778061,423.224640544415,1.00892057900907,0.308225553136583
11249,0.25,-0.25,0.249829852528587,0.25,0.249999451756051,0.249488105081827,0.230355666401566,0.240087055126173,0.90482919391783,0.919393258163256,0.04,0.056924432966304,431.960402968724,1.13776228187683,0.278963306248132
11309,0.25,-0.00834465403828267,0.00869462814110068,0.249999999984455,0.00855334720180792,0.00807021046183866,-0.00180642895140085,0.00323566247521939,0.951401374761878,0.933086459184481,0.04,0.043792713035626,454.356088868092,1.12370520093362,0.297097254027822
11369,0.25,0.249976577851829,-0.249070611721384,0.249999999967838,-0.249544212838935,-0.249997194131942,-0.249979703294228,-0.249950308979248,0.962889629430777,0.946779660205706,0.04,0.038768903386956,459.273824132056,0.968605661025341,0.348400979446943
11429,0.00833333333333326,0.249925292711937,-0.249421440403303,0.00833333331671645,-0.00832200750612037,-0.00840083163376471,-0.190417477132992,-0.111062176970595,0.953023844714124,0.960472861226932,0.04,0.0369117777371473,454.671159712537,0.964603428407501,0.346340502260014
11489,-0.25,0.249870470665846,-0.249796464166734,-0.25,0.249536211987578,0.249857348967735,-0.126747511236499,0.0374044469007242,0.9662589872782,0.967547681754565,0.04,0.0317824030953436,461.059166424382,1.00362192788881,0.337552396364396
11549,-0.0807785111317305,0.00911449287475512,-0.246140438339665,-0.249995010569986,0.249760376193582,0.0082597688774548,0.0551034381079214,0.139907761531413,0.967194739785463,0.967547681754565,0.04,0.0320946322032067,461.456506633449,1.00187964846855,0.338430811702842
11609,0.100113425244695,-0.248245345453653,-0.242232272800384,-0.249989677041351,0.25,-0.249999713288017,0.249495832234715,0.249480270274563,0.969262047951651,0.967547681754565,0.04,0.0334815750456032,462.443074500533,0.991583064745427,0.342676131384283
11669,0.172558603043093,-0.00849797116758168,-0.245986674280199,-0.167167843064251,0.107366060789683,-0.247372116165097,0.00807284665460287,0.00840838117044376,0.974462689014964,0.967547681754565,0.04,0.0315104480016991,465.01815926201,0.967293255019135,0.35323719671766
11729,0.25,0.247783704793391,-0.25,-0.0786341584680393,-0.0451047018144493,-0.244563305447492,-0.25,-0.249289155458097,0.97425257144357,0.967547681754565,0.04,0.034924477566434,464.720552395325,0.900271735270259,0.379291351922087
11789,0.249995368922635,0.0119548409777095,-0.0086049659470001,0.080205684791513,0.0940998477440822,-0.0904363933641806,-0.00834042700756305,-0.0084566863126127,0.944519515462482,0.967547681754565,0.04,0.0520388798145782,450.359188886417,0.946106724650184,0.349762766363445
11849,0.249990418460625,-0.240138082411467,0.249438001488965,0.25,0.242904711065271,0.0743199609317734,0.249985323432628,0.248984918636009,0.952007987041762,0.967547681754565,0.04,0.056138369454173,454.413556579914,1.10117676041756,0.303213768582569
11909,0.249994576675607,-0.00326510500145901,0.249709634102632,0.249227508023291,0.246334100717057,-0.0816838485654059,0.0083350363084424,0.00780887462860466,0.978887036224685,0.967547681754565,0.04,0.0551478853376001,467.246502254087,1.09894785126486,0.312409082271725
11969,0.249999021664036,0.249943939816136,0.25,0.248401740737843,0.25,-0.248446541476184,-0.249980787858791,-0.25,0.977158414872399,0.967547681754565,0.04,0.059492844167526,466.046973003562,1.00134014229488,0.341981600946923
12029,0.00833283175159841,0.249869103689262,0.00833333333333326,0.0075109458676767,0.249999125863079,-0.0078558630110557,-0.0083234498204319,-0.00979854916945777,0.956342894172345,0.967547681754565,0.04,0.0524363301990009,456.190501246031,1.01886338078017,0.328991714844632
12089,-0.249999991947904,0.24978910645019,-0.25,-0.249993007269397,0.249998191440852,0.249327276037874,0.249999911530917,0.246968518959743,0.967808728218903,0.967547681754565,0.04,0.0417691042918636,461.787204907029,1.04870457648129,0.323551493207729
12149,-0.241440486459791,0.249891038332598,-0.00834447227943463,-0.249994023073615,0.00833284496916713,0.24963092506053,0.249930914881044,0.00682919104076291,0.976491977986859,0.967547681754565,0.04,0.041231051746574,465.970381658793,1.01979996093494,0.335736066508256
12209,-0.232290670248359,0.25,0.249976953904618,-0.249995108933295,-0.249999077121255,0.249955515395093,0.249857159841524,-0.249871469838147,0.973994367523371,0.967547681754565,0.04,0.0423353924311636,464.614883718087,0.95823260419894,0.3562680285717
12269,0.00081605609871167,0.00833773433624321,0.249625183812609,-0.00833406458849515,-0.249809942501681,0.191796725809725,0.249926199251454,-0.249428255785097,0.966142220182192,0.967547681754565,0.04,0.0428243527796139,460.87916723417,0.948256646118519,0.357121386062582
12329,0.249999108400753,-0.249990894476738,0.249249153714253,0.249993258676636,-0.24960776411524,0.129626985218471,0.25,-0.248954475245629,0.964991523798009,0.967547681754565,0.04,0.0424268218896438,460.426763046538,0.969752463592868,0.348862544809824
12389,0.249999535790894,-0.249992668099972,0.00795766907680138,0.248348396994828,-0.00966940392814774,0.187207349556793,0.197814612475939,-0.00779316812404909,0.958938335672961,0.967547681754565,0.04,0.0440572619299728,457.437836215761,0.996367836066902,0.337339394011108
12449,0.249999992656217,-0.24999456404205,-0.249974607604613,0.246590096576343,0.246816429375296,0.248758773504654,0.142030232708839,0.249999953281778,0.963212266615715,0.967547681754565,0.04,0.0438846725239155,459.619213867851,1.04543583326699,0.323039381446272
12509,0.235446046286484,-0.00846003738979016,-0.249986880595717,0.248238216564444,0.2483551284819,0.0410799566844512,0.189945605959459,0.00852146670878599,0.97425308704482,0.967547681754565,0.04,0.0455687303492156,464.908444505122,1.03415936662312,0.330319826048892
12569,0.219888379477459,0.249732042824694,-0.25,0.25,0.249999944768269,-0.180921537157834,0.241165487710122,-0.22411008989226,0.971718647592295,0.967547681754565,0.04,0.0499746390354838,463.537968098467,0.987568981237563,0.344883604135113
12629,0.234442329396687,0.249086023148834,-0.00833632485135945,0.0674069052500011,0.249693611929119,0.0273572058017857,0.245435501867248,-0.00817501961716431,0.955419774452585,0.967547681754565,0.04,0.057594655630104,455.659599093302,1.00967626565223,0.331598878097726
12689,0.25,0.248395450391879,0.24999381065236,-0.127778816724136,0.249366152687269,0.25,0.249999999759347,0.249911406529823,0.958563634296558,0.967547681754565,0.04,0.0592733130076911,457.460119084537,1.09805532269555,0.306114353247902
