time,bias_percent_1,bias_percent_2,bias_percent_3,bias_percent_4,bias_percent_5,bias_percent_6,bias_percent_8,bias_percent_9,normalized_power,power_SP,SP,CV,total_power_MW,fuel_fraction,thermal_efficiency
13,0,0,0,0,0,0,0,0,0.999772472668643,1,0.04,0.0401663321013334,476.925204320287,0.998543460986245,0.350944126792987
73,-0.00393071001257806,0.00613745406864928,-0.00524834928533801,-0.0041437058181441,0.00677682074030554,-0.00201194674683995,-0.00514446982678095,-0.00338362483257612,0.996649680915916,0.989442979965358,0.04,0.0418037640417364,475.303102951138,0.9871459150633,0.353788712774188
133,-0.0220724485321691,0.0344641651547228,-0.0294714998330523,-0.0232685019018859,0.0380544549263308,-0.0112978548091783,-0.0288881767196164,-0.0190003548290816,0.957311259344681,0.940718272113166,0.04,0.0551255944014917,456.35912241067,0.893877037305762,0.375131584707864
193,-0.0402141870517602,0.0627908762407964,-0.0536946503807665,-0.0423932979856276,0.0693320891123562,-0.0205837628715165,-0.0526318836124516,-0.0346170848255871,0.908518543980663,0.891993564260974,0.04,0.0646512132747824,433.059109553502,0.791224953131353,0.402162784824922
253,-0.0583559255713511,0.0911175873268699,-0.0779178009284807,-0.0615180940693693,0.100609723298382,-0.0298696709338547,-0.076375590505287,-0.0502338148220925,0.858742027312476,0.843268856408781,0.04,0.069048193755551,409.309162580448,0.693686469567986,0.433553722368711
313,-0.0764976640909423,0.119444298412943,-0.102140951476195,-0.0806428901531111,0.131887357484407,-0.0391555789961928,-0.100119297398122,-0.065850544818598,0.808787592262475,0.794544148556589,0.04,0.0692856820340862,385.474892619719,0.603205653852769,0.469553810090979
373,-0.0946394026105333,0.147771009499017,-0.126364102023909,-0.0997676862368529,0.163164991670432,-0.048441487058531,-0.123863004290958,-0.0814672748151035,0.758728418459654,0.745819440704396,0.04,0.0654922590506084,361.847625754332,0.521436564487057,0.509892849765254
433,-0.112781141130124,0.17609772058509,-0.150587252571623,-0.118892482320595,0.194442625856458,-0.0577273951208692,-0.147606711183793,-0.097084004811609,0.708762913558956,0.697094732852204,0.04,0.0587801178676966,338.013434165652,0.447329875829681,0.555214415223887
493,-0.130922879649715,0.204424431671164,-0.174810403119338,-0.138017278404336,0.225720260042483,-0.0670133031832075,-0.0983948210691478,-0.0983948210691478,0.656107960849637,0.648370025000012,0.04,0.0525217419548011,313.005940610329,0.390645974233899,0.588740487847469
553,-0.149064618169306,0.232751142757237,-0.199033553667052,-0.157142074488078,0.256997894228509,-0.0762992112455457,-0.0581081722446991,-0.0581081722446991,0.605393936898146,0.599645317147819,0.04,0.0446707887066405,288.819650363442,0.353027652970679,0.601135933035256
