time,bias_percent_1,bias_percent_2,bias_percent_3,bias_percent_4,bias_percent_5,bias_percent_6,bias_percent_8,bias_percent_9,normalized_power,power_SP,SP,CV,total_power_MW,fuel_fraction,thermal_efficiency
36,0,0,0,0,0,0,0,0,0.999680269734387,1,0.04,0.0399588086923702,476.953847257685,0.999739683797962,0.350545261720938
96,0.00537674696740623,0.0113405237553925,-0.0198001364605108,0.00158805104630778,-0.000481895124518587,0.0157022855084068,-0.00472087039891875,0.00404770706329793,0.993923631129574,0.989641919897499,0.04,0.0427367782832638,474.08822710161,0.985685444055157,0.353407290005731
156,0.0143379919130836,0.0302413966810466,-0.0528003638946955,0.00423480279015439,-0.00128505366538275,0.0418727613557518,-0.0125889877304499,0.0107938855021279,0.977740719600295,0.972378453059998,0.04,0.0474078573118246,466.342916738578,0.953398354912337,0.359406281119984
216,0.0232992368587609,0.0491422696067008,-0.0858005913288799,0.00688155453400088,-0.00208821220624714,0.0680432372030966,-0.0204571050619811,0.0175400639409579,0.960244785193819,0.955114986222497,0.04,0.0500659717084326,457.992693772184,0.921106602472729,0.365345136898117
276,0.0322604818044382,0.068043142532355,-0.118800818763065,0.00952830627784738,-0.0028913707471113,0.0942137130504416,-0.0283252223935123,0.0242862423797878,0.94260969392575,0.937851519384996,0.04,0.0511808750276105,449.578717793902,0.890938443736011,0.37077694487393
336,0.0412217267501154,0.0869440154580091,-0.151801046197249,0.0121750580216939,-0.00369452928797568,0.120384188897786,-0.0361933397250435,0.0310324208186178,0.92496617820584,0.920588052547495,0.04,0.0513537315703217,441.161143216819,0.863036576963599,0.375597529919717
396,0.0501829716957926,0.105844888383663,-0.184801273631434,0.0148218097655404,-0.00449768782883996,0.146554664745131,-0.0440614570565747,0.0377785992574477,0.907426998216725,0.903324585709994,0.04,0.051037239115848,432.794661120488,0.837102842059795,0.379889906427769
456,0.0591442166414699,0.124745761309317,-0.217801501065618,0.0174685615093869,-0.00530084636970423,0.172725140592476,-0.0519295743881058,0.0445247776962776,0.889996225549634,0.886061118872492,0.04,0.0506075882586876,424.478669306502,0.812299346911443,0.38396747991032
516,0.0681054615871471,0.143646634234972,-0.250801728499803,0.0201153132532334,-0.00610400491056839,0.198895616439821,-0.0597976917196371,0.0512709561351076,0.872578049978738,0.868797652034991,0.04,0.0501566110842884,416.168513461115,0.788440051840223,0.387842339319744
576,0.0770667065328244,0.162547507160626,-0.283801955933988,0.0227620649970798,-0.00690716345143278,0.225066092287166,-0.0676658090511683,0.0580171345739375,0.855168477979054,0.85153418519749,0.04,0.0497110113699586,407.86249131051,0.765476912564144,0.391504129635526
636,0.0860279514785017,0.18144838008628,-0.316802183368172,0.0254088167409263,-0.00771032199229694,0.251236568134511,-0.0755339263826994,0.0647633130127675,0.837771068552437,0.834270718359989,0.04,0.049290705450748,399.562293503439,0.743343752109588,0.394956693254992
696,0.0949891964241791,0.200349253011934,-0.349802410802357,0.0280555684847729,-0.00851348053316121,0.277407043981856,-0.0834020437142306,0.0715094914515974,0.820389523086844,0.817007251522488,0.04,0.0489117206322282,391.269641949575,0.721962893782919,0.398213475288309
756,0.103950441369856,0.219250125937588,-0.382802638236541,0.0307023202286193,-0.00931663907402549,0.303577519829201,-0.0912701610457618,0.0782556698904274,0.803018439967176,0.799743784684986,0.04,0.0485801303104461,382.98203407813,0.701239996060995,0.401297449083199
816,0.112911686315534,0.238150998863242,-0.415802865670726,0.0333490719724658,-0.0101197976148898,0.329747995676545,-0.099138278377293,0.0850018483292573,0.785721229983026,0.782480317847485,0.04,0.0482887991528356,374.72547096523,0.681079311560889,0.404268778277425
876,0.121872931261211,0.257051871788896,-0.448803093104911,0.0359958237163123,-0.010922956155754,0.35591847152389,-0.107006395708824,0.0917480267680872,0.768320571146542,0.765216851009984,0.04,0.0480719926802735,366.427821195379,0.66147639969746,0.407032195598669
936,0.125457429239482,0.264612220959158,-0.462003184078585,0.0370545244138509,-0.0112442195720997,0.366386661862828,-0.110153642641437,0.0944464981436192,0.757155621846291,0.758311464274984,0.04,0.0435897790065218,361.227954676654,0.657100093982697,0.403928502115538
