time,bias_percent_1,bias_percent_2,bias_percent_3,bias_percent_4,bias_percent_5,bias_percent_6,bias_percent_8,bias_percent_9,normalized_power,power_SP,SP,CV,total_power_MW,fuel_fraction,thermal_efficiency
45,0,0,0,0,0,0,0,0,0.999767618191966,1,0.04,0.0399276439350582,476.993036160012,0.999901487408613,0.350517334526633
105,-0.0136063038896932,0.0212450333145553,-0.0181673629107856,-0.0143435970628062,0.0234582256395191,-0.0069644310467537,-0.0178077801696265,-0.0117125474973791,0.978179332375236,0.963456469110856,0.04,0.048888146314751,466.357211380594,0.941207785169693,0.364072488474087
165,-0.0317480424092843,0.0495717444006287,-0.0423905134584999,-0.033468393146548,0.0547358598255444,-0.0162503391090919,-0.0415514870624618,-0.0273292774938845,0.931866336535965,0.914731761258663,0.04,0.0609041181388016,444.160971227141,0.838645863442267,0.389149486019996
225,-0.0498897809288753,0.0778984554867021,-0.0666136640062141,-0.0525931892302898,0.0860134940115697,-0.0255362471714301,-0.0652951939552972,-0.04294600749039,0.88199821597343,0.866007053406471,0.04,0.0675634525478743,420.405470910973,0.738392124307615,0.418346345451879
285,-0.0680315194484664,0.106225166572776,-0.0908368145539283,-0.0717179853140316,0.117291128197595,-0.0348221552337683,-0.0890389008481325,-0.0585627374868955,0.83211514948366,0.817282345554278,0.04,0.0696495405365073,396.60484062425,0.644494522657529,0.452161369996915
345,-0.0861732579680574,0.134551877658849,-0.115059965101643,-0.0908427813977734,0.148568762383621,-0.0441080632961066,-0.112782607740968,-0.0741794674834009,0.782104162115061,0.768557637702086,0.04,0.0679079922839629,372.74389217679,0.558098466077051,0.490743304749837
405,-0.104314996487648,0.162878588744923,-0.139283115649357,-0.109967577481515,0.179846396569646,-0.0533939713584447,-0.136526314633803,-0.0897961974799064,0.732175097688946,0.719832929849894,0.04,0.0622401457258423,349.179987106499,0.480964238605897,0.533446947866516
465,-0.122456735007239,0.191205299830996,-0.163506266197071,-0.129092373565257,0.211124030755671,-0.062679879420783,-0.122359598501145,-0.105412927476412,0.680794287427296,0.671108221997701,0.04,0.0554436047801459,324.665013849866,0.414323535809227,0.57577202929827
525,-0.140598473526831,0.21953201091707,-0.187729416744785,-0.148217169648999,0.242401664941697,-0.0719657874831212,-0.0748634291078565,-0.0748634291078565,0.628669018847133,0.622383514145509,0.04,0.0481801897624842,299.848250501416,0.36966278945904,0.596005763070225
585,-0.158740212046422,0.247858722003143,-0.211952567292499,-0.16734196573274,0.273679299127722,-0.0812516955454594,-0.0434687451721167,-0.0434687451721167,0.579386089225034,0.573658806293317,0.04,0.0416290213166816,276.3785330911,0.334262912710895,0.607534283562805
