time,bias_percent_1,bias_percent_2,bias_percent_3,bias_percent_4,bias_percent_5,bias_percent_6,bias_percent_8,bias_percent_9,normalized_power,power_SP,SP,CV,total_power_MW,fuel_fraction,thermal_efficiency
34,0,0,0,0,0,0,0,0,0.999651266193307,1,0.04,0.0399686691758836,476.940614943261,0.99970040690393,0.350549308481762
94,0.00208883518905816,-0.0101379323187825,-0.00885641889621911,-0.00429682503455524,-0.0181645896610733,-0.00775711255737531,-0.0156048563203191,-0.0194389659137915,0.993220952630629,0.984452390195315,0.04,0.0421049206567666,473.708141044313,0.972875001990466,0.357773756074224
154,0.00577501493445493,-0.0280284011166341,-0.024485393418959,-0.0118794574484759,-0.0502197478864966,-0.0214461347174495,-0.0431428380620587,-0.0537430234087178,0.968605540426652,0.957015431716459,0.04,0.0467289876576011,461.904980158054,0.90419226198143,0.375358742046042
214,0.0094611946798517,-0.0459188699144856,-0.0401143679416987,-0.0194620898623969,-0.08227490611192,-0.0351351568775236,-0.0706808198037983,-0.088047080903644,0.94067356977255,0.929578473237603,0.04,0.0474028073702945,448.570295503596,0.83473385018676,0.394854563711501
274,0.0131473744252485,-0.0638093387123371,-0.0557433424644383,-0.0270447222763177,-0.114330064337343,-0.0488241790375977,-0.0982188015455379,-0.12235113839857,0.912153597697873,0.902141514758747,0.04,0.0443541301727796,435.130755497906,0.771073460837343,0.414647165970842
