time,bias_percent_1,bias_percent_2,bias_percent_3,bias_percent_4,bias_percent_5,bias_percent_6,bias_percent_8,bias_percent_9,normalized_power,power_SP,SP,CV,total_power_MW,fuel_fraction,thermal_efficiency
31,0,0,0,0,0,0,0,0,0.999611393524587,1,0.04,0.0399885483229303,476.919119724913,0.999627123061136,0.350559207613186
91,-0.0109926485520098,0.0126395455843411,6.41940626575206e-05,-0.0131844128276124,-0.00980234202563906,0.00279742359578972,0.0155346524134602,-0.00524096137673496,0.999444179062956,0.99887150744502,0.04,0.0400183250791067,476.824771646949,0.998509366806717,0.350882204171785
151,-0.0322687425236415,0.0371031821991951,0.000188440635542975,-0.0387026312036365,-0.0287746169139729,0.00821179184570519,0.0456017216008026,-0.0153847575897704,0.997609236899378,0.996687328306348,0.04,0.0403400823711401,475.9429046034,0.993265774341214,0.35208219414538
211,-0.0535448364952733,0.0615668188140492,0.000312687208428542,-0.0642208495796606,-0.0477468918023064,0.0136261600956207,0.075668790788145,-0.0255285538028059,0.995473955828141,0.994503149167677,0.04,0.0404197597572801,474.923321660519,0.987381070433557,0.353421833845393
271,-0.0748209304669051,0.0860304554289032,0.00043693378131411,-0.0897390679556846,-0.0667191666906401,0.0190405283455361,0.105735859975487,-0.0356723500158413,0.993279868708998,0.992318970029006,0.04,0.0402934026143203,473.876264170555,0.981470104638564,0.354766461825005
331,-0.0960970244385368,0.110494092043757,0.00056118035419945,-0.115257286331709,-0.0856914415789738,0.0244548965954516,0.13580292916283,-0.0458161462288768,0.991062480509881,0.990134790890334,0.04,0.0400487249107434,472.818218724706,0.97571853975172,0.356060929835236
391,-0.117373118410169,0.134957728658611,0.000685426927085132,-0.140775504707733,-0.104663716467307,0.0298692648453672,0.165869998350172,-0.0559599424419123,0.988834267896937,0.987950611751663,0.04,0.0397488274883258,471.755071440931,0.970217113961157,0.357274749063636
451,-0.1386492123818,0.159421365273465,0.000809673499970586,-0.166293723083757,-0.123635991355641,0.0352836330952827,0.195937067537515,-0.0661037386549477,0.986601697019271,0.985766432612991,0.04,0.0394349264332635,470.689926039633,0.964997866933185,0.358396059739759
511,-0.159925306353432,0.183885001888319,0.00093392007285604,-0.191811941459781,-0.142608266243975,0.0406980013451981,0.226004136724857,-0.0762475348679832,0.984372800352141,0.98358225347432,0.04,0.0391337675809639,469.626566365201,0.960056659886411,0.359426809823641
571,-0.181201400325064,0.208348638503173,0.00105816664574149,-0.217330159835805,-0.161580541132309,0.0461123695951136,0.256071205912199,-0.0863913310810187,0.982151526899385,0.981398074335649,0.04,0.0388618180213416,468.566867327989,0.9553551623346,0.360380594756987
631,-0.202477494296696,0.232812275118027,0.00118241321862695,-0.242848378211829,-0.180552816020642,0.0515267378450291,0.286138275099542,-0.0965351272940542,0.979938790029056,0.979213895196977,0.04,0.0386265837829571,467.511226940031,0.950841660885579,0.36127550677139
691,-0.223753588268327,0.257275911732881,0.00130665979151263,-0.268366596587853,-0.199525090908976,0.0569411060949444,0.316205344286884,-0.10667892350709,0.97772940784187,0.977029716058306,0.04,0.0384260823020105,466.457119097358,0.946481988346163,0.362121281209922
751,-0.245029682239959,0.281739548347735,0.00143090636439797,-0.293884814963877,-0.21849736579731,0.06235547434486,0.346272413474226,-0.116822719720125,0.975513694052186,0.974845536919634,0.04,0.0382488383963626,465.399917673989,0.942293785241439,0.362906420372172
811,-0.266305776211591,0.306203184962589,0.00155515293728365,-0.319403033339901,-0.237469640685643,0.0677698425947755,0.376339482661569,-0.126966515933161,0.973285219922627,0.972661357780963,0.04,0.0380800902893303,464.336602230595,0.938343743753955,0.36360147191118
871,-0.287581870183223,0.330666821577443,0.00167939951016899,-0.344921251715926,-0.256441915573977,0.0731842108446908,0.406406551848911,-0.137110312146196,0.971044132278318,0.970477178642292,0.04,0.0379101981114945,463.267293735446,0.934710621233762,0.364174170009171
931,-0.297865315602845,0.342490912607956,0.00173945202039704,-0.357255057264337,-0.265611848436672,0.0758011554988167,0.420938968622793,-0.142013146982497,0.969184050232228,0.969421492058601,0.04,0.0375401706761804,462.390527848289,0.933475068542193,0.363966055472936
991,-0.297865315602845,0.342490912607956,0.00173945202039704,-0.357255057264337,-0.265611848436672,0.0758011554988168,0.420938968622794,-0.142013146982497,0.968746217031461,0.969421492058601,0.04,0.0369792097038634,462.187018558484,0.936920576033377,0.362467976073305
1051,-0.297865315602845,0.342490912607956,0.00173945202039704,-0.357255057264337,-0.265611848436672,0.0758011554988167,0.420938968622793,-0.142013146982496,0.968595282499605,0.969421492058601,0.04,0.0367321755529561,462.116121339886,0.941637243322542,0.360597049239253
1111,-0.297865315602845,0.342490912607955,0.00173945202039704,-0.357255057264337,-0.265611848436672,0.0758011554988167,0.420938968622793,-0.142013146982496,0.968557882357049,0.969421492058601,0.04,0.036774871229145,462.099035285831,0.946789958908172,0.358621311714442
1171,-0.297865315602845,0.342490912607955,0.00173945202039704,-0.357255057264337,-0.265611848436672,0.0758011554988167,0.420938968622793,-0.142013146982496,0.968602484980864,0.969421492058601,0.04,0.037031624739026,462.120859458975,0.951829766207006,0.356739308755703
1231,-0.297865315602845,0.342490912607955,0.00173945202039704,-0.357255057264337,-0.265611848436672,0.0758011554988167,0.420938968622793,-0.142013146982496,0.968702905192759,0.969421492058601,0.04,0.0374279719846296,462.169112260447,0.95636875948671,0.355083271445565
1291,-0.297865315602845,0.342490912607955,0.00173945202039704,-0.357255057264337,-0.265611848436672,0.0758011554988168,0.420938968622794,-0.142013146982496,0.968835051126223,0.969421492058601,0.04,0.0378978587877387,462.232323189333,0.960168671126793,0.353726385668442
1351,-0.297865315602845,0.342490912607955,0.00173945202039715,-0.357255057264337,-0.265611848436672,0.0758011554988168,0.420938968622793,-0.142013146982497,0.96897853942669,0.969421492058601,0.04,0.038386852847183,462.300802546407,0.963121833596767,0.352694019360049
1411,-0.297865315602845,0.342490912607955,0.00173945202039704,-0.357255057264337,-0.265611848436672,0.0758011554988167,0.420938968622793,-0.142013146982496,0.969117685655983,0.969421492058601,0.04,0.0388534436778189,462.367103553631,0.965224619006251,0.35197613103903
1471,-0.297865315602845,0.342490912607955,0.00173945202039704,-0.357255057264337,-0.265611848436672,0.0758011554988167,0.420938968622794,-0.142013146982496,0.969241713917098,0.969421492058601,0.04,0.0392689329567075,462.426126643439,0.966548052239811,0.351539062041784
1531,-0.297865315602845,0.342490912607955,0.00173945202039715,-0.357255057264337,-0.265611848436672,0.0758011554988168,0.420938968622794,-0.142013146982496,0.969344392780596,0.969421492058601,0.04,0.0396163156014612,462.474931664964,0.967209550267638,0.351335712456033
1591,-0.297865315602845,0.342490912607956,0.00173945202039704,-0.357255057264337,-0.265611848436672,0.0758011554988167,0.420938968622794,-0.142013146982496,0.969423269166735,0.969421492058601,0.04,0.0398885241300595,462.512372214685,0.967348566435148,0.351313661516213
1651,-0.297865315602845,0.342490912607955,0.00173945202039704,-0.357255057264337,-0.265611848436672,0.0758011554988167,0.420938968622793,-0.142013146982497,0.969478737051406,0.969421492058601,0.04,0.040086316226427,462.538655143682,0.967107530652928,0.351421189596205
1711,-0.297865315602845,0.342490912607955,0.00173945202039704,-0.357255057264337,-0.265611848436672,0.0758011554988167,0.420938968622793,-0.142013146982497,0.969513113900099,0.969421492058601,0.04,0.040216060968815,462.554903381036,0.966618532851528,0.351611319404205
1771,-0.297865315602845,0.342490912607956,0.00173945202039704,-0.357255057264337,-0.265611848436672,0.0758011554988168,0.420938968622793,-0.142013146982497,0.969529826927796,0.969421492058601,0.04,0.0402876884851106,462.562752400043,0.965994906317101,0.351844282760535
1831,-0.30148389016749,0.331106125889899,-0.014294147774316,-0.351759104596737,-0.263111848760786,0.0570106530714934,0.415533100215734,-0.146457949286915,0.966414263979859,0.962085401337853,0.04,0.0408779540106589,460.995713014739,0.95302828323462,0.35542320070635
1891,-0.308487582873254,0.309071054822695,-0.0453269215705344,-0.341121776852994,-0.258273139710685,0.020641938696029,0.405070129105295,-0.155060792456757,0.954116653933409,0.947886516071891,0.04,0.0423374282064697,455.102557156508,0.917335868988221,0.364531931499202
1951,-0.315491275579018,0.28703598375549,-0.076359695366753,-0.330484449109251,-0.253434430660584,-0.0157267756794355,0.394607157994857,-0.163663635626599,0.9403495073641,0.933687630805929,0.04,0.0422665515295515,448.528992170957,0.87721497576441,0.375698238924826
2011,-0.322494968284783,0.265000912688284,-0.107392469162972,-0.319847121365508,-0.248595721610483,-0.0520954900548999,0.384144186884418,-0.172266478796442,0.926109093412545,0.919488745539967,0.04,0.0407046678946469,441.732072332981,0.836521433474051,0.388004297661252
2071,-0.329498660990547,0.242965841621079,-0.13842524295919,-0.309209793621765,-0.243757012560381,-0.0884642044303641,0.37368121577398,-0.180869321966284,0.911570883033813,0.905289860274004,0.04,0.0380071108787085,434.792900926213,0.797323585212881,0.400684469830488
2131,-0.336502353696311,0.220930770553874,-0.169458016755409,-0.298572465878022,-0.23891830351028,-0.124832918805829,0.363218244663542,-0.189472165136126,0.89678446736101,0.891090975008042,0.04,0.0345301945512885,427.737568658232,0.761163317208008,0.412908879754193
2191,-0.343506046402075,0.19889569948667,-0.200490790551627,-0.28793513813428,-0.234079594460179,-0.161201633181293,0.352755273553103,-0.198075008305969,0.881837083695513,0.87689208974208,0.04,0.0306419320734039,420.605152764899,0.729184508537066,0.423830134120349
2251,-0.35050973910784,0.176860628419465,-0.231523564347846,-0.277297810390537,-0.229240885410078,-0.197570347556757,0.342292302442665,-0.206677851475811,0.866802277180313,0.862693204476117,0.04,0.0267272768920496,413.431678756839,0.702082995844177,0.432683139722623
2311,-0.357513431813604,0.154825557352259,-0.262556338144064,-0.266660482646794,-0.224402176359977,-0.233939061932222,0.331829331332227,-0.215280694645653,0.851753350477149,0.848494319210155,0.04,0.023137596183293,406.251964461211,0.680084576076934,0.438921874151454
2371,-0.364517124519368,0.132790486285054,-0.293589111940283,-0.256023154903051,-0.219563467309876,-0.270307776307686,0.321366360221788,-0.223883537815495,0.836749558176922,0.834295433944193,0.04,0.0201135758241798,399.094204004411,0.663034975448582,0.442276290754491
2431,-0.371520817225133,0.110755415217849,-0.324621885736501,-0.245385827159308,-0.214724758259774,-0.306676490683151,0.31090338911135,-0.232486380985338,0.82181826840853,0.82009654867823,0.04,0.0177747959989784,391.971023138738,0.650526695384011,0.442734652906893
2491,-0.378524509930897,0.0887203441506443,-0.35565465953272,-0.234748499415565,-0.209886049209673,-0.343045205058615,0.300440418000912,-0.24108922415518,0.80694774437397,0.805897663412268,0.04,0.0161031354441426,384.876781706079,0.642169942008929,0.440378811401933
2551,-0.385528202636661,0.0666852730834393,-0.386687433328939,-0.224111171671823,-0.205047340159572,-0.37941391943408,0.289977446890473,-0.249692067325022,0.792153743811904,0.791698778146306,0.04,0.0150083244614851,377.819324375085,0.637557553691399,0.435431103156562
2611,-0.392531895342425,0.0446502020162343,-0.417720207125157,-0.21347384392808,-0.200208631109471,-0.415782633809544,0.279514475780035,-0.258294910494865,0.777435598765889,0.777499892880343,0.04,0.0143772087863766,370.818760768659,0.636195438544946,0.428278056847327
2671,-0.39953558804819,0.0226151309490292,-0.448752980921376,-0.202836516184337,-0.19536992205937,-0.452151348185008,0.269051504669596,-0.266897753664707,0.762998324242905,0.763301007614381,0.04,0.0141869048604235,363.956840489584,0.637156032408006,0.419719129351023
2731,-0.402920706189309,0.0119648465998802,-0.463752154922881,-0.197695141108195,-0.193031212685154,-0.46972956013315,0.263994401966218,-0.27105579453013,0.746858839722724,0.749102122348419,0.04,0.0153722284701347,356.205991124054,0.643249222745441,0.406889634045507
2791,-0.402920706189309,0.0119648465998803,-0.463752154922881,-0.197695141108194,-0.193031212685154,-0.46972956013315,0.263994401966218,-0.271055794530131,0.731544860265849,0.734903237082457,0.04,0.0175205756698127,348.904525054613,0.661501482921295,0.38755242273057
2851,-0.402920706189309,0.0119648465998802,-0.463752154922881,-0.197695141108195,-0.193031212685154,-0.46972956013315,0.263994401966218,-0.271055794530131,0.717355497169677,0.720704351816494,0.04,0.0203657690158896,342.140265892875,0.681255791537973,0.369018940395664
2911,-0.402920706189309,0.0119648465998802,-0.463752154922881,-0.197695141108194,-0.193031212685154,-0.46972956013315,0.263994401966218,-0.27105579453013,0.703809508470729,0.706505466550532,0.04,0.0238869611880059,335.681967829604,0.698344074853263,0.353193933940433
2971,-0.402920706189309,0.0119648465998803,-0.463752154922881,-0.197695141108194,-0.193031212685154,-0.46972956013315,0.263994401966218,-0.27105579453013,0.690727497866283,0.69230658128457,0.04,0.0278787542557288,329.443315423042,0.709573823085898,0.341144041854641
3031,-0.402920706189309,0.0119648465998802,-0.463752154922881,-0.197695141108195,-0.193031212685154,-0.46972956013315,0.263994401966218,-0.271055794530131,0.677870732734282,0.678107696018607,0.04,0.0320667039022271,323.310117158584,0.713085913525074,0.333144090463693
3091,-0.402920706189309,0.0119648465998802,-0.463752154922881,-0.197695141108195,-0.193031212685154,-0.46972956013315,0.263994401966218,-0.271055794530131,0.664999154048639,0.663908810752645,0.04,0.0361374896881277,317.167834305587,0.708541452612082,0.328911114760358
3151,-0.402920706189309,0.0119648465998802,-0.463752154922881,-0.197695141108195,-0.193031212685154,-0.46972956013315,0.263994401966218,-0.271055794530131,0.65189147176329,0.649709925486683,0.04,0.0397658850250173,310.911985649999,0.696843905731144,0.327835994160667
3211,-0.402920706189309,0.0119648465998802,-0.463752154922881,-0.197695141108195,-0.193031212685154,-0.46972956013315,0.263994401966218,-0.271055794530131,0.638466819671141,0.635511040220721,0.04,0.0426844360583983,304.504301804651,0.679825995553158,0.329117019460049
3271,-0.402920706189309,0.0119648465998802,-0.463752154922881,-0.197695141108195,-0.193031212685154,-0.46972956013315,0.263994401966218,-0.27105579453013,0.624706778787942,0.621312154954758,0.04,0.0447340499226349,297.936952401319,0.659491486137458,0.33194784536963
3331,-0.402920706189309,0.0119648465998802,-0.463752154922881,-0.197695141108194,-0.193031212685154,-0.46972956013315,0.263994401966218,-0.27105579453013,0.610658972439113,0.607113269688796,0.04,0.0458789185002866,291.232692175722,0.637687929645678,0.335572686340215
3391,-0.402920706189309,0.0119648465998802,-0.463752154922881,-0.197695141108195,-0.193031212685154,-0.46972956013315,0.263994401966218,-0.271055794530131,0.596386222006074,0.592914384422834,0.04,0.0461879545876711,284.421646038317,0.6158999069404,0.339318222497662
3451,-0.402920706189309,0.0119648465998802,-0.463752154922881,-0.197695141108195,-0.193031212685154,-0.46972956013315,0.263994401966218,-0.271055794530131,0.581954712084652,0.578715499156871,0.04,0.0458054315121802,277.535368608986,0.595214457526696,0.342609610756274
3511,-0.402920706189309,0.0119648465998802,-0.463752154922881,-0.197695141108194,-0.193031212685154,-0.46972956013315,0.263994401966218,-0.27105579453013,0.567434008598282,0.564516613890909,0.04,0.0449224161245073,270.607383654406,0.576325347042066,0.345005960456352
3571,-0.402920706189309,0.0119648465998802,-0.463752154922881,-0.197695141108195,-0.193031212685154,-0.46972956013315,0.263994401966218,-0.27105579453013,0.552930170662653,0.550317728624947,0.04,0.0438069523256586,263.687667397277,0.559318655048921,0.346405827985366
3631,-0.379191027395106,-0.00233798319998039,-0.461899110121893,-0.204133666756894,-0.192790512304365,-0.459046331533315,0.241182245961346,-0.264666075023901,0.543171541649542,0.543454934079732,0.04,0.0402007681929623,259.097698028168,0.551887193072933,0.344959345114284
3691,-0.33326261682568,-0.0300208795868071,-0.4583125717974,-0.216595329302764,-0.19232464059961,-0.438369114888475,0.197029685951917,-0.252298875979586,0.541331773439559,0.543454934079732,0.04,0.0352579629122116,258.260720867538,0.56211668806841,0.337587654667582
3751,-0.287334206256254,-0.0577037759736338,-0.454726033472907,-0.229056991848634,-0.191858768894856,-0.417691898243635,0.152877125942488,-0.239931676935271,0.540454403334496,0.543454934079732,0.04,0.0323365617681019,257.845612616649,0.578536015742575,0.327479427105682
3811,-0.241405795686828,-0.0853866723604606,-0.451139495148414,-0.241518654394504,-0.191392897190102,-0.397014681598795,0.108724565933058,-0.227564477890956,0.540046544650542,0.543454934079732,0.04,0.03118900762783,257.655018562869,0.59840224958502,0.316373475003653
3871,-0.195477385117401,-0.113069568747287,-0.44755295682392,-0.253980316940374,-0.190927025485348,-0.376337464953954,0.0645720059236294,-0.215197278846641,0.540140231629016,0.543454934079732,0.04,0.0314940152326129,257.703546832658,0.618724422865315,0.306039731967876
3931,-0.149548974547975,-0.140752465134114,-0.443966418499427,-0.266441979486244,-0.190461153780594,-0.355660248309114,0.0204194459142002,-0.202830079802326,0.540665015174193,0.543454934079732,0.04,0.0329038338149573,257.956832862677,0.636723908100359,0.297680615566181
3991,-0.103620563978549,-0.168435361520941,-0.440379880174934,-0.278903642032113,-0.18999528207584,-0.334983031664274,-0.023733114095229,-0.190462880758011,0.541477071021922,0.543454934079732,0.04,0.0350420193887143,258.345864656345,0.650357160053657,0.291879950902971
4051,-0.0576921534091231,-0.196118257907768,-0.43679334185044,-0.291365304577983,-0.189529410371086,-0.314305815019433,-0.0678856741046582,-0.178095681713696,0.542406642579335,0.543454934079732,0.04,0.0375314449035814,258.789637154473,0.658569934899371,0.288735150263277
4111,-0.0117637428396971,-0.223801154294594,-0.433206803525947,-0.303826967123853,-0.189063538666332,-0.293628598374593,-0.112038234114088,-0.165728482669382,0.543305159636829,0.543454934079732,0.04,0.0400279444077721,259.215453863712,0.661272362042742,0.288028321969827
4171,0.0341646677297291,-0.251484050681421,-0.429620265201454,-0.316288629669723,-0.188597666961577,-0.272951381729753,-0.156190794123517,-0.153361283625067,0.544050619860706,0.543454934079732,0.04,0.0422473524980416,259.571746449858,0.659149630579843,0.289353061921858
4231,0.0800930782991552,-0.279166947068248,-0.426033726876961,-0.328750292215593,-0.188131795256823,-0.252274165084913,-0.200343354132946,-0.140994084580752,0.54460074523647,0.543454934079732,0.04,0.043991935823407,259.832536343362,0.65329681951338,0.292238658139575
4291,0.126021488868581,-0.306849843455075,-0.422447188552468,-0.341211954761463,-0.187665923552069,-0.231596948440072,-0.244495914142375,-0.128626885536436,0.544942765699251,0.543454934079732,0.04,0.0451566403857237,259.994119576412,0.644970618969125,0.296195373380238
4351,0.171949899438007,-0.334532739841902,-0.418860650227974,-0.353673617307333,-0.187200051847315,-0.210919731795232,-0.288648474151804,-0.116259686492122,0.545099342608764,0.543454934079732,0.04,0.0457270794609287,260.067484996077,0.635340985589233,0.300769546988525
4411,0.217878310007433,-0.362215636228728,-0.415274111903481,-0.366135279853203,-0.186734180142561,-0.190242515150392,-0.332801034161234,-0.103892487447807,0.545106702048519,0.543454934079732,0.04,0.0457609152607074,260.0699651699,0.62538047313799,0.305562854930637
4471,0.26380672057686,-0.389898532615555,-0.411687573578988,-0.378596942399073,-0.186268308437807,-0.169565298505551,-0.376953594170663,-0.0915252884034919,0.545002100424636,0.543454934079732,0.04,0.0453623740720099,260.019309415591,0.615835779758278,0.310238262312251
4531,0.286005452352082,-0.403278599202521,-0.409954080055483,-0.384620079296243,-0.186043137113842,-0.159571310460545,-0.39829399817522,-0.0855478088654061,0.544912827507065,0.543454934079732,0.04,0.0446903621148721,259.973705491837,0.607310401097758,0.314538188692363
4591,0.286005452352082,-0.403278599202521,-0.409954080055483,-0.384620079296243,-0.186043137113842,-0.159571310460545,-0.39829399817522,-0.0855478088654061,0.544704193247079,0.543454934079732,0.04,0.0437432424449485,259.876119496004,0.59931996601316,0.318612128017624
4651,0.286005452352082,-0.403278599202521,-0.409954080055483,-0.384620079296243,-0.186043137113842,-0.159571310460545,-0.39829399817522,-0.0855478088654063,0.544381110208976,0.543454934079732,0.04,0.0425944505814176,259.721472059329,0.59307196372109,0.32177710338472
4711,0.286005452352082,-0.403278599202521,-0.409954080055483,-0.384620079296243,-0.186043137113842,-0.159571310460545,-0.39829399817522,-0.0855478088654063,0.544026106031344,0.543454934079732,0.04,0.0413708393576144,259.552009192956,0.588911468153659,0.323838932900622
4771,0.286005452352082,-0.403278599202521,-0.409954080055483,-0.384620079296243,-0.186043137113842,-0.159571310460545,-0.39829399817522,-0.0855478088654063,0.543676412104121,0.543454934079732,0.04,0.0402109094339791,259.385344011406,0.586876446114723,0.324753193260429
4831,0.286005452352082,-0.403278599202521,-0.409954080055483,-0.384620079296243,-0.186043137113842,-0.159571310460545,-0.39829399817522,-0.0855478088654061,0.543362221620142,0.543454934079732,0.04,0.0392215157918123,259.235833467491,0.586812942438375,0.324601128336695
4891,0.286005452352082,-0.403278599202521,-0.409954080055483,-0.384620079296243,-0.186043137113842,-0.159571310460545,-0.39829399817522,-0.0855478088654063,0.543107823572602,0.543454934079732,0.04,0.0384729956618829,259.115010127853,0.588408475351487,0.323570059205289
4951,0.286005452352082,-0.403278599202521,-0.409954080055483,-0.384620079296243,-0.186043137113842,-0.159571310460545,-0.39829399817522,-0.0855478088654063,0.542929054232422,0.543454934079732,0.04,0.0379993077549873,259.030361931538,0.591237718485202,0.32191648440818
5011,0.286005452352082,-0.403278599202521,-0.409954080055483,-0.384620079296243,-0.186043137113842,-0.159571310460545,-0.39829399817522,-0.0855478088654061,0.542832847081791,0.543454934079732,0.04,0.0378012055712552,258.985119003601,0.594814469268331,0.319924840803956
5071,0.286005452352082,-0.403278599202521,-0.409954080055483,-0.384620079296243,-0.186043137113842,-0.159571310460545,-0.39829399817522,-0.0855478088654063,0.542816579044422,0.543454934079732,0.04,0.0378520045070456,258.977958540549,0.598649148844587,0.317866756217554
5131,0.286005452352082,-0.403278599202521,-0.409954080055483,-0.384620079296243,-0.186043137113842,-0.159571310460545,-0.39829399817522,-0.0855478088654063,0.542869278299626,0.543454934079732,0.04,0.0381048509933566,259.003586923002,0.602301759832557,0.315970343862966
5191,0.286005452352082,-0.403278599202521,-0.409954080055483,-0.384620079296243,-0.186043137113842,-0.159571310460545,-0.39829399817522,-0.0855478088654063,0.542973897163571,0.543454934079732,0.04,0.0385006727623431,259.053833758372,0.605423506933063,0.314402087345747
5251,0.286005452352082,-0.403278599202521,-0.409954080055483,-0.384620079296243,-0.186043137113842,-0.159571310460545,-0.39829399817522,-0.0855478088654061,0.543110271375226,0.543454934079732,0.04,0.0389760116966729,259.119067065326,0.607781743598714,0.313261048312116
5311,0.286005452352082,-0.403278599202521,-0.409954080055483,-0.384620079296243,-0.186043137113842,-0.159571310460545,-0.39829399817522,-0.0855478088654063,0.543258150071796,0.543454934079732,0.04,0.0394700132034924,259.189635388522,0.609266577837951,0.312582710012734
5371,0.286005452352082,-0.403278599202521,-0.409954080055483,-0.384620079296243,-0.186043137113842,-0.159571310460545,-0.39829399817522,-0.0855478088654063,0.543399707716887,0.543454934079732,0.04,0.039930126113999,259.257060420589,0.609881111105079,0.312348975586918
5431,0.292307188103285,-0.375021503978612,-0.399092647571109,-0.354575336908,-0.178886651198054,-0.155216145268789,-0.401442398060599,-0.0715888578868528,0.540382077413166,0.543454934079732,0.04,0.0425082475228528,257.809128570219,0.61675442384719,0.307143050924082
5491,0.304504096008838,-0.320330351932337,-0.378070520181997,-0.296424222608174,-0.165035388135237,-0.146786793284746,-0.407536075258107,-0.0445715334122331,0.538909876754263,0.543454934079732,0.04,0.0465501844175426,257.113139005893,0.642814273482303,0.293895837590582
5551,0.316701003914391,-0.265639199886061,-0.357048392792886,-0.238273108308348,-0.15118412507242,-0.138357441300702,-0.413629752455614,-0.0175542089376133,0.53952640794122,0.543454934079732,0.04,0.0522444447839862,257.417969610854,0.668311677058473,0.283018280060205
5611,0.328897911819944,-0.210948047839786,-0.336026265403775,-0.180121994008521,-0.137332862009603,-0.129928089316658,-0.419723429653121,0.00946311553700639,0.541135759920414,0.543454934079732,0.04,0.0597148669770125,258.190324480282,0.685813430832985,0.276623233526276
5671,0.341094819725497,-0.15625689579351,-0.315004138014663,-0.121970879708695,-0.123481598946786,-0.121498737332614,-0.425817106850629,0.0364804400116263,0.542942121545869,0.543454934079732,0.04,0.0681650315216255,259.051704513898,0.692559969201975,0.27484240824742
5731,0.353291727631049,-0.101565743747235,-0.293982010625552,-0.0638197654088691,-0.10963033588397,-0.113069385348571,-0.431910784048136,0.0634977644862461,0.544767930422302,0.543454934079732,0.04,0.0767078304681973,259.924975097634,0.688557137476981,0.277372054169104
5791,0.365488635536602,-0.0468745917009596,-0.272959883236441,-0.00566865110904303,-0.0957790728211528,-0.104640033364527,-0.438004461245644,0.0905150889608657,0.547689136041025,0.543454934079732,0.04,0.0854227552778613,261.328879537125,0.670300917247044,0.286465462455298
5851,0.377685543442155,0.00781656034531579,-0.25193775584733,0.052482463190783,-0.0819278097583359,-0.0962106813804834,-0.444098138443151,0.117532413435485,0.548927122779174,0.543454934079732,0.04,0.0937177663801061,261.891444559639,0.638179088880789,0.301532006611852
5911,0.389882451347708,0.0625077123915912,-0.230915628458218,0.110633577490609,-0.0680765466955191,-0.0877813293964397,-0.450191815640659,0.144549737910105,0.548425202094497,0.543454934079732,0.04,0.0974315488056599,261.648775245657,0.607156482800366,0.316645081167358
5971,0.402079359253261,0.117198864437867,-0.209893501069107,0.168784691790435,-0.0542252836327023,-0.079351977412396,-0.456285492838166,0.171567062384725,0.547703398357744,0.543454934079732,0.04,0.0967662818144761,261.302504923063,0.580063070116437,0.330996218711518
6031,0.414276267158814,0.171890016484142,-0.188871373679995,0.226935806090262,-0.0403740205698854,-0.0709226254283523,-0.462379170035674,0.198584386859345,0.54672422044287,0.543454934079732,0.04,0.0927201452298085,260.833351965767,0.558316465816472,0.343271195550893
6091,0.426473175064367,0.226581168530418,-0.167849246290884,0.285086920390088,-0.0265227575070687,-0.0624932734443087,-0.356927189816039,0.225601711333964,0.543187496118987,0.543454934079732,0.04,0.090020529442379,259.133315025036,0.551420449104936,0.345298792429094
6151,0.43867008296992,0.281272320576693,-0.146827118901773,0.343238034689914,-0.0126714944442518,-0.054063921460265,-0.224104651939499,0.252619035808584,0.541781276124757,0.543454934079732,0.04,0.0866275841624559,258.47877697128,0.559613799565169,0.33938383365133
6211,0.450866990875473,0.335963472622969,-0.125804991512662,0.40138914898974,0.00117976861856494,-0.0456345694762213,-0.11028133580855,0.279636360283204,0.541042922729906,0.543454934079732,0.04,0.0849524367643013,258.119922415558,0.572074721674707,0.331530466097394
6271,0.463063898781026,0.390654624669244,-0.10478286412355,0.459540263289566,0.0150310316813818,-0.0372052174921775,-0.0520927034553521,0.306653684757824,0.539689935263385,0.543454934079732,0.04,0.0852594134529903,257.47798981787,0.592132973330172,0.319503441431077
6331,0.468959070935377,0.41708868149161,-0.0946221692188131,0.487646635201149,0.02172580882841,-0.0331310306998897,-0.024606470190343,0.31971205825389,0.538858346768328,0.540375376120833,0.04,0.0852664931853468,257.071439215323,0.609913168755066,0.309699493324099
6391,0.468959070935377,0.41708868149161,-0.0946221692188132,0.487646635201149,0.0217258088284099,-0.0331310306998898,-0.0116229595983217,0.31971205825389,0.534806567986778,0.534414941361674,0.04,0.0866086814581081,255.114269631216,0.60973406491069,0.307431927838927
6451,0.468959070935377,0.41708868149161,-0.0946221692188131,0.487646635201149,0.02172580882841,-0.0331310306998897,-0.00549000749173045,0.31971205825389,0.529086413389623,0.528454506602515,0.04,0.0880464278472091,252.379798287539,0.605817649957605,0.306102828905151
6511,0.468959070935377,0.41708868149161,-0.0946221692188131,0.487646635201149,0.02172580882841,-0.0331310306998897,-0.00259301979172527,0.31971205825389,0.523107305798482,0.522494071843357,0.04,0.0889379371883655,249.527021007008,0.601796003973311,0.304665275848509
6571,0.468959070935377,0.41708868149161,-0.0946221692188132,0.487646635201149,0.0217258088284099,-0.0331310306998897,-0.00122458619099062,0.31971205825389,0.517163852406716,0.516533637084198,0.04,0.0895574016608397,246.691803313656,0.597777514492159,0.303228362756572
6631,0.468959070935377,0.41708868149161,-0.0946221692188132,0.487646635201148,0.02172580882841,-0.0331310306998897,-0.000578186995150268,0.31971205825389,0.511254494538933,0.510573202325039,0.04,0.090106450651077,243.872566156593,0.593503880371352,0.30192151475727
6691,0.468959070935377,0.41708868149161,-0.0946221692188132,0.487646635201149,0.0217258088284099,-0.0331310306998897,-0.000272851084090615,0.31971205825389,0.505346208054688,0.50461276756588,0.04,0.0906532346395504,241.053648757264,0.588907316146148,0.300760941890081
6751,0.468959070935377,0.41708868149161,-0.0946221692188132,0.487646635201149,0.0217258088284099,-0.0331310306998898,-0.000128621296659467,0.31971205825389,0.499424741601394,0.498652332806721,0.04,0.0912064893167297,238.228399592464,0.584047257622771,0.299709300734246
6811,0.468959070935377,0.41708868149161,-0.0946221692188132,0.487646635201149,0.02172580882841,-0.0331310306998897,-6.04922924084869e-05,0.31971205825389,0.493489490708867,0.492691898047562,0.04,0.0917617698446248,235.396594815504,0.579009230999314,0.298723483326596
6871,0.468959070935377,0.41708868149161,-0.0946221692188132,0.487646635201149,0.0217258088284099,-0.0331310306998898,-2.83105822159533e-05,0.31971205825389,0.487544126796015,0.486731463288404,0.04,0.09231619774837,232.559996533374,0.573862057768363,0.297770847686193
6931,0.468959070935377,0.41708868149161,-0.0946221692188132,0.487646635201149,0.0217258088284099,-0.0331310306998898,-1.31090908349841e-05,0.31971205825389,0.481592222782498,0.480771028529245,0.04,0.0928698229819012,229.720302622376,0.568651807242939,0.296829890784958
6991,0.468959070935377,0.41708868149161,-0.0946221692188132,0.487646635201149,0.0217258088284099,-0.0331310306998898,-5.92844882364735e-06,0.31971205825389,0.475636215000841,0.474810593770086,0.04,0.0934240364852885,226.878666248943,0.563407532308731,0.295886865984187
7051,0.468959070935377,0.41708868149161,-0.0946221692188132,0.487646635201148,0.0217258088284099,-0.0331310306998898,-2.53656980317787e-06,0.31971205825389,0.469677610639111,0.468850159010927,0.04,0.09398035770437,224.035799233188,0.558147522826522,0.294932814707049
7111,0.468959070935377,0.41708868149161,-0.0946221692188132,0.487646635201149,0.0217258088284099,-0.0331310306998898,-9.34367204675049e-07,0.31971205825389,0.463717325363868,0.462889724251768,0.04,0.0945400500444025,221.192135997144,0.552883526687902,0.293961671785967
7171,0.468959070935377,0.41708868149161,-0.0946221692188132,0.487646635201149,0.0217258088284099,-0.0331310306998898,-1.77543877204526e-07,0.31971205825389,0.457755941859522,0.45692928949261,0.04,0.0951040085332848,218.347953300017,0.547623205571741,0.292969195548267
7231,0.44041898058025,0.386072843093962,-0.0741862774478886,0.485289541989892,0.0236837717818635,-0.0162209018806595,1.79952452871823e-07,0.321120121681368,0.451499340821323,0.450968854733451,0.04,0.0955161869544824,215.361339625485,0.543134289410147,0.291350118160846
7291,0.385180096021941,0.326042188130771,-0.0346329385364216,0.480727426097139,0.0274733774982253,0.0165083797049476,3.48820960724527e-07,0.323845405734552,0.445788920632406,0.445008419974292,0.04,0.0955620282214606,212.641926047716,0.538972625056725,0.289892424251147
7351,0.329941211463632,0.266011533167579,0.00492040037504523,0.476165310204385,0.0312629832145872,0.0492376612905545,4.28588417185707e-07,0.326570689787736,0.440160727082587,0.439047985215133,0.04,0.096248550039405,209.954842480823,0.532555596358691,0.289678070653594
7411,0.274702326905322,0.205980878204388,0.0444737392865121,0.471603194311631,0.0350525889309491,0.0819669428761614,4.66267716844328e-07,0.329295973840921,0.434278065786156,0.433087550455974,0.04,0.097030883982102,207.146509510487,0.525165114467903,0.289825388566578
7471,0.219463442347013,0.145950223241197,0.0840270781979791,0.467041078418877,0.0388421946473109,0.114696224461768,4.8406607328879e-07,0.332021257894105,0.428245544518234,0.427127115696816,0.04,0.0974987706693668,204.267696705334,0.517965049242912,0.289770327974806
7531,0.164224557788703,0.0859195682780057,0.123580417109446,0.462478962526123,0.0426318003636726,0.147425506047375,4.92473381678124e-07,0.334746541947289,0.422168245012424,0.421166680937657,0.04,0.097358667323279,201.368144284471,0.511413735501132,0.289316402360847
7591,0.108985673230394,0.0258889133148145,0.163133756020913,0.45791684663337,0.0464214060800345,0.180154787632982,4.96444694117781e-07,0.337471826000473,0.41609363875565,0.415206246178498,0.04,0.0962271356868546,198.469900404129,0.505556121578901,0.288456250862328
7651,0.0537467886720845,-0.0341417416483767,0.20268709493238,0.453354730740616,0.0502110117963964,0.212884069218589,4.98320600384452e-07,0.340197110053657,0.409960144626054,0.409245811419339,0.04,0.0938517306523245,195.542706071869,0.500558253483954,0.287039503805834
7711,-0.00149209588622489,-0.0941723966115679,0.242240433843847,0.448792614847862,0.0540006175127582,0.245613350804196,4.99206711556716e-07,0.342922394106841,0.403865199318564,0.40328537666018,0.04,0.0907205123022832,192.640468809737,0.496764090839782,0.284939073566164
7771,-0.0567309804445342,-0.154203051574759,0.281793772755314,0.444230498955108,0.05779022322912,0.278342632389803,4.99625278850595e-07,0.345647678160026,0.398650808671175,0.397324941901022,0.04,0.0895962902254602,190.154014038422,0.49003554605804,0.285123221900487
7831,-0.111969865002844,-0.21423370653795,0.321347111666781,0.439668383062355,0.0615798289454819,0.311071913975411,4.99822995102223e-07,0.34837296221321,0.393177675212416,0.391364507141863,0.04,0.0897336695381411,187.540437595402,0.479709437619234,0.287257474947422
7891,-0.167208749561153,-0.274264361501142,0.360900450578247,0.435106267169601,0.0653694346618438,0.343801195561017,4.99916389203313e-07,0.351098246266394,0.387464908848098,0.385404072382704,0.04,0.0903111508712099,184.813358617262,0.467459093085247,0.29049885413507
7951,-0.222447634119463,-0.334295016464333,0.400453789489714,0.430544151276847,0.0691590403782055,0.376530477146624,4.99960505243582e-07,0.353823530319578,0.38158051176177,0.379443637623545,0.04,0.0912519042726556,182.00453431958,0.454411042236758,0.294298472405107
8011,-0.277686518677772,-0.394325671427524,0.440007128401181,0.425982035384093,0.0729486460945674,0.409259758732231,4.99981344086573e-07,0.356548814372762,0.375457155471771,0.373483202864386,0.04,0.0929797348042919,179.081219201274,0.441778193773959,0.297851947096901
8071,-0.332925403236081,-0.416829989728267,0.479560467312648,0.421419919491339,0.0767382518109292,0.441989040317838,0.0171327823294893,0.359274098425946,0.369653286282521,0.367522768105228,0.04,0.0964592199588349,176.29800802809,0.429131389332074,0.30186433105469
8131,-0.359624197439264,-0.406376663439903,0.49867791445319,0.419214896809842,0.0785698945738375,0.457808193084215,0.0340077837250717,0.360591319051652,0.366260257565801,0.364641891304967,0.04,0.0959626905253958,174.733275029586,0.420927481978857,0.305016274242107
8191,-0.359624197439264,-0.398089792665851,0.49867791445319,0.419214896809842,0.0785698945738375,0.457808193084215,0.0340077837250717,0.360591319051652,0.365082249875396,0.364641891304967,0.04,0.0952160802624693,174.176718053656,0.416367833815952,0.307374339336786
8251,-0.359624197439264,-0.392968923087587,0.498677914453191,0.419214896809842,0.0785698945738375,0.457808193084215,0.0340077837250717,0.360591319051652,0.364890527517897,0.364641891304967,0.04,0.094093349777312,174.088923159505,0.414702768369612,0.308452916300836
8311,-0.359624197439264,-0.389830938645382,0.498677914453191,0.419214896809842,0.0785698945738374,0.457808193084215,0.0340077837250717,0.360591319051652,0.364857606940217,0.364641891304967,0.04,0.093576886207179,174.073282140283,0.413343015024959,0.309439813942296
8371,-0.359624197439264,-0.387736222228103,0.49867791445319,0.419214896809842,0.0785698945738374,0.457808193084215,0.0340077837250717,0.360591319051652,0.364817795866355,0.364641891304967,0.04,0.0933943956264984,174.054238716018,0.412202800602125,0.31026182460422
8431,-0.359624197439264,-0.38625251709417,0.49867791445319,0.419214896809842,0.0785698945738374,0.457808193084215,0.0340077837250717,0.360591319051652,0.364778022174435,0.364641891304967,0.04,0.0933295297257527,174.035302250442,0.411307015230315,0.310903714829466
8491,-0.359624197439264,-0.385170647441783,0.498677914453191,0.419214896809842,0.0785698945738375,0.457808193084215,0.0340077837250717,0.360591319051652,0.364745027150761,0.364641891304967,0.04,0.0933033918808574,174.019621095268,0.410624403684355,0.311392493223401
8551,-0.359624197439264,-0.384371337809962,0.498677914453191,0.419214896809842,0.0785698945738375,0.457808193084215,0.0340077837250717,0.360591319051652,0.364719416664024,0.364641891304967,0.04,0.0932907860142814,174.007456884674,0.410110192860812,0.311761134210396
8611,-0.359624197439264,-0.383777200073867,0.49867791445319,0.419214896809842,0.0785698945738374,0.457808193084215,0.0340077837250717,0.360591319051652,0.364699984230037,0.364641891304967,0.04,0.0932835256106332,173.998229056243,0.409724529287673,0.312038038624169
8671,-0.359624197439264,-0.383334310061751,0.498677914453191,0.419214896809842,0.0785698945738375,0.457808193084215,0.0340077837250717,0.360591319051652,0.36468535185579,0.364641891304967,0.04,0.0932787180566607,173.991281096115,0.40943585488658,0.312245573460009
8731,-0.359624197439264,-0.38300375814435,0.498677914453191,0.419214896809842,0.0785698945738375,0.457808193084215,0.0340077837250717,0.360591319051652,0.364674360679598,0.364641891304967,0.04,0.0932752092222678,173.986062209359,0.409220079476155,0.312400844937989
8791,-0.359624197439264,-0.382756985185156,0.49867791445319,0.419214896809842,0.0785698945738375,0.457808193084215,0.0340077837250717,0.360591319051652,0.364666109885103,0.364641891304967,0.04,0.0932724707504903,173.982144509498,0.409059035320476,0.312516798128787
8851,-0.359624197439264,-0.382572842985048,0.498677914453191,0.419214896809842,0.0785698945738375,0.457808193084215,0.0340077837250717,0.360591319051652,0.364659916414165,0.364641891304967,0.04,0.0932702266933421,173.979203687978,0.408939074652935,0.312603189677705
8911,-0.359624197439264,-0.382435593147535,0.498677914453191,0.419214896809842,0.0785698945738375,0.457808193084215,0.0340077837250717,0.360591319051652,0.364655266713017,0.364641891304967,0.04,0.0932683170923708,173.976995897554,0.408849955601026,0.312667361555875
8971,-0.359624197439264,-0.382333487599618,0.49867791445319,0.419214896809842,0.0785698945738374,0.457808193084215,0.0340077837250717,0.360591319051652,0.364651775557075,0.364641891304967,0.04,0.0932666417252831,173.975338201366,0.408783992532074,0.312714835196017
9031,-0.348581796094548,-0.381835159539185,0.466685688390173,0.403913632354084,0.0842481820613278,0.439464240379768,0.0422153071293521,0.343958763701442,0.366234564292051,0.364641891304967,0.04,0.0882449253741617,174.733397082209,0.404942749620495,0.317056724884952
9091,-0.327209406395096,-0.377685055307925,0.40476525084885,0.374298281794552,0.0952384159080835,0.403959815790516,0.0581008362989271,0.311766721088131,0.365852080982639,0.364641891304967,0.04,0.0836860560499804,174.545490918923,0.396597233691392,0.323380352199676
9151,-0.305837016695645,-0.372210589311118,0.342844813307527,0.34468293123502,0.106228649754839,0.368455391201264,0.073986365468502,0.279574678474821,0.365727301261724,0.364641891304967,0.04,0.0773385188098968,174.488304761978,0.389972783140161,0.32876585153507
9211,-0.284464626996193,-0.357389922137286,0.280924375766203,0.315067580675488,0.117218883601595,0.332950966612013,0.0898718946380769,0.24738263586151,0.366315113585313,0.364641891304967,0.04,0.0694332153211508,174.794988516868,0.38263107807818,0.335662953683304
9271,-0.263092237296742,-0.321565878302508,0.21900393822488,0.285452230115956,0.12820911744835,0.297446542022761,0.105757423807652,0.2151905932482,0.365289294624901,0.364641891304967,0.04,0.0649909800268893,174.276218878464,0.376613287072704,0.340014287879898
9331,-0.24171984759729,-0.285741834467729,0.157083500683556,0.255836879556424,0.139199351295106,0.261942117433509,0.121642952977227,0.18299855063489,0.365011349421916,0.364641891304967,0.04,0.058801572042617,174.145022001558,0.373918063747728,0.342207319632379
