time,bias_percent_1,bias_percent_2,bias_percent_3,bias_percent_4,bias_percent_5,bias_percent_6,bias_percent_8,bias_percent_9,normalized_power,power_SP,SP,CV,total_power_MW,fuel_fraction,thermal_efficiency
31,0,0,0,0,0,0,0,0,0.999614897267648,1,0.04,0.0399867920205405,476.922650759462,0.999644887325031,0.350555573414093
91,0,0,0,0,0,0,0,0,0.999956568301574,1,0.04,0.0398975524500851,477.080014847073,1.0002456826684,0.350460611867036
151,0,0,0,0,0,0,0,0,0.999995430613657,1,0.04,0.0399371783523451,477.097909740759,1.00031430297338,0.350449715307526
211,0,0,0,0,0,0,0,0,1.00000085918727,1,0.04,0.0399697348593177,477.100429525029,1.00031612247411,0.350450928756201
271,0,0,0,0,0,0,0,0,1.00000260097028,1,0.04,0.0399895182879539,477.101250975133,1.00030351442788,0.350455949315321
331,0,0,0,0,0,0,0,0,1.00000355907615,1,0.04,0.0400008437656921,477.101703288015,1.00028382404311,0.350463180223934
391,0,0,0,0,0,0,0,0,1.00000396170511,1,0.04,0.0400068611361631,477.10189135898,1.00026062547653,0.350471446502892
451,0,0,0,0,0,0,0,0,1.00000392243093,1,0.04,0.0400095209619555,477.101869673602,1.00023682485601,0.350479770035689
511,0,0,0,0,0,0,0,0,1.00000358537045,1,0.04,0.0400100902320227,477.101707079182,1.00021450863204,0.350487470298562
571,0,0,0,0,0,0,0,0,1.00000308444217,1,0.04,0.0400094289563885,477.101467260658,1.00019492227742,0.350494157554172
631,0,0,0,0,0,0,0,0,1.00000252261116,1,0.04,0.0400081248797168,477.10119903479,1.0001786251717,0.350499671523778
691,0,0,0,0,0,0,0,0,1.00000197056226,1,0.04,0.040006571429944,477.100935936583,1.00016568770159,0.350504012065507
751,0,0,0,0,0,0,0,0,1.00000147098279,1,0.04,0.0400050180992808,477.100698108675,1.00015587074836,0.350507277687861
811,0,0,0,0,0,0,0,0,1.00000104515651,1,0.04,0.0400036101024072,477.100495599034,1.00014876642053,0.350509618659086
871,0,0,0,0,0,0,0,0,1.00000070015082,1,0.04,0.0400024193697719,477.100331620844,1.00014389829013,0.350511204270289
931,0,0,0,0,0,0,0,0,1.00000043295525,1,0.04,0.0400014681702353,477.100204740974,1.00014078991671,0.350512200421531
991,0,0,0,0,0,0,0,0,1.00000023540123,1,0.04,0.0400007480975099,477.100110986724,1.00013900467833,0.35051275720364
1051,0,0,0,0,0,0,0,0,1.00000009644761,1,0.04,0.0400002329360713,477.100045117216,1.00013816760707,0.350513002174645
1111,0,0,0,0,0,0,0,0,1.0000000046209,1,0.04,0.0399998885812503,477.100001635245,1.00013797233507,0.350513038665497
1171,0,0,0,0,0,0,0,0,0.999999948936864,1,0.04,0.0399996791815208,477.099975313599,1.00013818007151,0.350512946523398
1231,0,0,0,0,0,0,0,0,0.999999919732309,1,0.04,0.0399995711094512,477.099961556394,1.00013861288405,0.35051278473097
1291,0,0,0,0,0,0,0,0,0.999999908941157,1,0.04,0.0399995350427627,477.099956525868,1.00013914458775,0.350512594692159
1351,0,0,0,0,0,0,0,0,0.999999910147101,1,0.04,0.0399995468468607,477.099957174469,1.00013969083892,0.350512403727497
1411,0,0,0,0,0,0,0,0,0.999999918479207,1,0.04,0.0399995876341443,477.099961191139,1.00014019961749,0.350512228370232
1471,0,0,0,0,0,0,0,0,0.999999930401148,1,0.04,0.0399996433644828,477.099966895375,1.0001406427657,0.350512077253953
1531,0,0,0,0,0,0,0,0,0.999999943466475,1,0.04,0.0399997041084318,477.099973131363,1.00014100888368,0.350511953524678
1591,0,0,0,0,0,0,0,0,0.999999956129429,1,0.04,0.0399997633309451,477.099979165477,1.0001412975867,0.350511856778209
1651,0,0,0,0,0,0,0,0,0.999999967478741,1,0.04,0.0399998171071081,477.0999845677,1.00014151518218,0.350511784488063
1711,0,0,0,0,0,0,0,0,0.999999977082065,1,0.04,0.0399998634402073,477.099989134536,1.00014167145329,0.35051173307608
1771,0,0,0,0,0,0,0,0,0.999999984825756,1,0.04,0.039999901683421,477.099992814717,1.00014177745336,0.350511698630803
1831,0,0,0,0,0,0,0,0,0.999999990798987,1,0.04,0.0399999320709511,477.099995651015,1.00014184406328,0.350511677370304
1891,0,0,0,0,0,0,0,0,0.99999999520527,1,0.04,0.0399999553600577,477.09999774179,1.00014188114227,0.350511665911563
1951,0,0,0,0,0,0,0,0,0.999999998298375,1,0.04,0.0399999725678402,477.09999920818,1.00014189710335,0.350511661395124
2011,0,0,0,0,0,0,0,0,1.00000000034247,1,0.04,0.0399999847888791,477.100000176098,1.00014189877861,0.350511661519112
2071,0,0,0,0,0,0,0,0,1.00000000158444,1,0.04,0.0399999930784633,477.100000763186,1.00014189147429,0.350511664510315
2131,0,0,0,0,0,0,0,0,1.00000000224046,1,0.04,0.0399999983836552,477.100001072307,1.00014187913148,0.350511669063104
2191,0,0,0,0,0,0,0,0,1.0000000024898,1,0.04,0.0400000015098596,477.100001188652,1.00014186453908,0.35051167426266
2251,0,0,0,0,0,0,0,0,1.00000000247583,1,0.04,0.0400000031129907,477.100001180254,1.00014184955713,0.350511679507093
2311,0,0,0,0,0,0,0,0,1.00000000230159,1,0.04,0.040000003706219,477.100001096353,1.00014183533726,0.350511684428976
2371,0,0,0,0,0,0,0,0,1.0000000020495,1,0.04,0.040000003674438,477.100000975773,1.0001418224984,0.350511688839923
2431,0,0,0,0,0,0,0,0,1.0000000017711,1,0.04,0.0400000032954373,477.100000842764,1.00014181129753,0.350511692667683
2491,0,0,0,0,0,0,0,0,1.00000000150056,1,0.04,0.0400000027601973,477.100000713669,1.00014180174901,0.350511695919233
2551,0,0,0,0,0,0,0,0,1.00000000125786,1,0.04,0.0400000021929037,477.100000598319,1.0001417937208,0.350511698648072
2611,0,0,0,0,0,0,0,0,1.00000000105189,1,0.04,0.0400000016669239,477.100000500431,1.00014178700607,0.350511700929415
2671,0,0,0,0,0,0,0,0,1.00000000088581,1,0.04,0.0400000012205642,477.100000421472,1.00014178136922,0.350511702846907
2731,0,0,0,0,0,0,0,0,1.00000000075737,1,0.04,0.0400000008670082,477.100000360457,1.0001417765793,0.350511704480766
2791,0,0,0,0,0,0,0,0,1.00000000066194,1,0.04,0.0400000006060056,477.100000315194,1.00014177242729,0.350511705902635
2851,0,0,0,0,0,0,0,0,1.00000000059471,1,0.04,0.0400000004270781,477.100000283269,1.00014176873471,0.350511707173288
2911,0,0,0,0,0,0,0,0,1.00000000054881,1,0.04,0.0400000003166738,477.100000261543,1.00014176535846,0.350511708340575
2971,0,0,0,0,0,0,0,0,1.00000000052001,1,0.04,0.0400000002593959,477.100000247932,1.00014176218643,0.350511709442252
3031,0,0,0,0,0,0,0,0,1.00000000050371,1,0.04,0.0400000002410626,477.100000240189,1.00014175913647,0.35051171050546
3091,0,0,0,0,0,0,0,0,1.00000000049483,1,0.04,0.0400000002493038,477.100000236203,1.00014175615214,0.350511711548425
3151,0,0,0,0,0,0,0,0,1.00000000049221,1,0.04,0.0400000002740839,477.100000234967,1.00014175319387,0.350511712584278
3211,0,0,0,0,0,0,0,0,1.0000000004924,1,0.04,0.0400000003076796,477.100000234992,1.00014175023971,0.350511713619617
3271,0,0,0,0,0,0,0,0,1.00000000049429,1,0.04,0.0400000003442227,477.10000023585,1.0001417472775,0.350511714658391
3331,0,0,0,0,0,0,0,0,1.00000000049607,1,0.04,0.0400000003797954,477.100000236794,1.00014174430362,0.350511715701317
3391,0,0,0,0,0,0,0,0,1.00000000049821,1,0.04,0.0400000004120935,477.100000237718,1.00014174131762,0.350511716748475
3451,0,0,0,0,0,0,0,0,1.00000000049924,1,0.04,0.0400000004398248,477.100000238194,1.00014173832409,0.350511717797943
3511,0,0,0,0,0,0,0,0,1.00000000049941,1,0.04,0.0400000004624048,477.100000238246,1.0001417353276,0.350511718848135
3571,0,0,0,0,0,0,0,0,1.00000000049829,1,0.04,0.040000000479854,477.10000023787,1.00014173233403,0.350511719896992
3631,0,0,0,0,0,0,0,0,1.00000000049711,1,0.04,0.0400000004927974,477.100000237166,1.00014172934742,0.35051172094317
3691,0,0,0,0,0,0,0,0,1.0000000004947,1,0.04,0.040000000501182,477.100000235918,1.0001417263736,0.350511721984464
3751,0,0,0,0,0,0,0,0,1.00000000049189,1,0.04,0.0400000005071514,477.100000234604,1.00014172341581,0.350511723020091
3811,0,0,0,0,0,0,0,0,1.00000000048858,1,0.04,0.0400000005100559,477.100000233021,1.00014172047729,0.350511724048767
3871,0,0,0,0,0,0,0,0,1.00000000048486,1,0.04,0.0400000005102241,477.10000023129,1.00014171756044,0.350511725069743
3931,0,0,0,0,0,0,0,0,0.996910164505565,0.994167564058623,0.04,0.0414046945100395,475.556436613385,0.991945187129144,0.352264651834422
3991,0,0,0,0,0,0,0,0,0.986584829228456,0.982878978365635,0.04,0.044206161967216,470.610761906352,0.969959551724198,0.356502768269649
4051,0,0,0,0,0,0,0,0,0.975203663218788,0.971590392672647,0.04,0.0456899686585714,465.178275240021,0.947373784863913,0.360788542566946
4111,0,0,0,0,0,0,0,0,0.963679947923114,0.960301806979659,0.04,0.0461317060429784,459.679928161807,0.926035416128343,0.3647393505846
4171,0,0,0,0,0,0,0,0,0.952133629125039,0.949013221286671,0.04,0.0459529037669861,454.171131234433,0.906216955362654,0.368249374742661
4231,0,0,0,0,0,0,0,0,0.940589087305329,0.937724635593683,0.04,0.0454418746995033,448.663304853453,0.887945659537285,0.371269128558517
4291,0,0,0,0,0,0,0,0,0.929059557439429,0.926436049900695,0.04,0.0447837449574585,443.162723341524,0.871156465317053,0.373784884312188
4351,0,0,0,0,0,0,0,0,0.917554416721522,0.915147464207707,0.04,0.0440972027218872,437.673843476137,0.855720331334576,0.375814401383678
4411,0,0,0,0,0,0,0,0,0.906079350795354,0.903858878514719,0.04,0.0434562742689609,432.199343625091,0.841466611148509,0.377399995927764
4471,0,0,0,0,0,0,0,0,0.894636544223433,0.892570292821731,0.04,0.0429032765164698,426.740237483772,0.828204729997975,0.378599960532728
4531,0,0,0,0,0,0,0,0,0.883225452205985,0.881281707128743,0.04,0.0424576566109599,421.2962431997,0.815742098703899,0.379480432448264
4591,0,0,0,0,0,0,0,0,0.871843571110833,0.869993121435754,0.04,0.0421226579037956,415.866172892904,0.803897497945733,0.380108511909784
4651,0,0,0,0,0,0,0,0,0.860487149907335,0.858704535742766,0.04,0.0418906775350508,410.448206236055,0.792509999136689,0.380546987111905
4711,0,0,0,0,0,0,0,0,0.84915180643933,0.847415950049778,0.04,0.0417475752293103,405.040261920477,0.781443974854585,0.380850933567256
4771,0,0,0,0,0,0,0,0,0.837833006541596,0.83612736435679,0.04,0.0416760479285944,399.640177810772,0.770590917795034,0.381065765227662
4831,0,0,0,0,0,0,0,0,0.826526449266364,0.824838778663802,0.04,0.0416581051337089,394.245900146369,0.759868744152544,0.381226674795185
4891,0,0,0,0,0,0,0,0,0.815228304169029,0.813550192970814,0.04,0.0416768438603042,388.855609892529,0.7492194085888,0.381359022520399
4951,0,0,0,0,0,0,0,0,0.803935366055534,0.802261607277826,0.04,0.0417175181175918,383.467780346351,0.738605412063059,0.381479381923472
5011,0,0,0,0,0,0,0,0,0.79264510943994,0.790973021584838,0.04,0.0417681163221692,378.08120893148,0.728005815075583,0.381596972904393
5071,0,0,0,0,0,0,0,0,0.781355600755359,0.77968443589185,0.04,0.0418194865040579,372.694990194574,0.717412478871549,0.38171506867292
5131,0,0,0,0,0,0,0,0,0.770065613785639,0.768395850198862,0.04,0.0418652595066976,367.308523675095,0.706826064144819,0.381832707670246
5191,0,0,0,0,0,0,0,0,0.758774284938503,0.757107264505874,0.04,0.041901537668098,361.921417066966,0.696253107650889,0.381945865613643
5251,0,0,0,0,0,0,0,0,0.747481259126243,0.745818678812886,0.04,0.041926450905175,356.533498933542,0.685703177469722,0.382048813787431
5311,0,0,0,0,0,0,0,0,0.736186431918721,0.734530093119898,0.04,0.0419397302505646,351.144728300469,0.675187015084139,0.382134939027565
5371,0,0,0,0,0,0,2.8421709430404e-17,2.8421709430404e-17,0.724898647053492,0.72324150742691,0.04,0.0419462780582676,345.759552504332,0.664697231770157,0.38221259450979
5431,0,0,0,0,0,0,0,0,0.71363797183405,0.711952921733922,0.04,0.0419847695415988,340.387144396866,0.654083125112626,0.382379746515056
5491,0,0,0,0,0,0,0,0,0.70237588319939,0.700664336040934,0.04,0.0420478102892443,335.013957986256,0.643300741256399,0.382651593535363
5551,0,0,0,0,0,0,0,0,0.691107025275283,0.689375750347946,0.04,0.042110376259472,329.637527364484,0.632385469093855,0.383009408056567
5611,0,0,0,0,0,0,0,0,0.679830869385268,0.678087164654958,0.04,0.0421572188118692,324.257613719631,0.621380662877103,0.383430913757327
5671,0,0,0,0,0,0,0,0,0.668547613653432,0.66679857896197,0.04,0.0421814014959689,318.87431656269,0.610329542580285,0.383892674476478
5731,0,0,0,0,0,0,0,0,0.657257907622376,0.655509993268982,0.04,0.0421816170836855,313.487948611878,0.599272337846986,0.384371602987063
5791,0,0,0,0,0,0,0,0,0.648903022117532,0.650053843517371,0.04,0.039698861237013,309.5727886938,0.597087516483826,0.380960075694609
5851,0,0,0,0,0,0,0,0,0.648039056887027,0.650053843517371,0.04,0.035194082131727,309.178162518375,0.608406542296221,0.373395958181197
5911,0,0,0,0,0,0,0,0,0.648043561367936,0.650053843517371,0.04,0.0334187957308386,309.182526347486,0.620608837112262,0.366059483323305
5971,0,0,0,0,0,0,0,0,0.648274891279452,0.650053843517371,0.04,0.0335486091073278,309.294406341118,0.631850572545927,0.359676744492777
6031,0,0,0,0,0,0,-2.8421709430404e-17,-2.8421709430404e-17,0.64861986433116,0.650053843517371,0.04,0.0347246848130003,309.459488543685,0.641192772086718,0.354625418748476
6091,0,0,0,0,0,0,0,0,0.648997332524585,0.650053843517371,0.04,0.0362991348919113,309.639611175537,0.648307805875723,0.350937630146444
6151,0,0,0,0,0,0,0,0,0.649355676831272,0.650053843517371,0.04,0.0378714891429888,309.810257005188,0.653211262460424,0.348495202791688
6211,0,0,0,0,0,0,0,0,0.649659738888858,0.650053843517371,0.04,0.0392175281196112,309.95480491194,0.656166434727401,0.347087552160925
6271,0,0,0,0,0,0,0,0,0.649893537957869,0.650053843517371,0.04,0.0402355069871713,310.065771805243,0.657571121891021,0.346470107660402
6331,0,0,0,0,0,0,0,0,0.650056226801479,0.650053843517371,0.04,0.0409071134941997,310.142850428328,0.657856278262079,0.346406016650036
6391,0,0,0,0,0,0,0,0,0.650156056338231,0.650053843517371,0.04,0.0412661613816955,310.190026926572,0.657419134921279,0.34668908297612
6451,0,0,0,0,0,0,0,0,0.650205466814542,0.650053843517371,0.04,0.0413739757241686,310.213253889061,0.656588846072483,0.347153481183249
6511,0,0,0,0,0,0,0,0,0.650217837545867,0.650053843517371,0.04,0.0413012877282919,310.218913808135,0.655614983633237,0.347675492599215
6571,0,0,0,0,0,0,0,0,0.650205620170789,0.650053843517371,0.04,0.0411160994691212,310.212934968446,0.654669824627497,0.348170727763099
6631,0,0,0,0,0,0,0,0,0.650179359210899,0.650053843517371,0.04,0.0408764445510477,310.200330670398,0.653858153195758,0.348588767826006
6691,0,0,0,0,0,0,0,0,0.650147292129199,0.650053843517371,0.04,0.0406269659006334,310.18501210527,0.653230505541178,0.348906473772354
6751,0,0,0,0,0,0,0,0,0.650115316456867,0.650053843517371,0.04,0.040398292560973,310.169775152992,0.652797286009997,0.349120870128657
6811,0,0,0,0,0,0,0,0,0.65008719252795,0.650053843517371,0.04,0.0402082729369574,310.156397862081,0.652542100338438,0.349242335606255
6871,0,0,0,0,0,0,0,0,0.650064885617387,0.650053843517371,0.04,0.0400642885766678,310.145805441017,0.652433278977054,0.349288657545582
6931,0,0,0,0,0,0,0,0,0.650048979744863,0.650053843517371,0.04,0.0399659963177121,310.138267058388,0.652433029457666,0.34928030133974
6991,0,0,0,0,0,0,0,0,0.650039096901687,0.650053843517371,0.04,0.0399080403795337,310.13359649614,0.652504058843415,0.349237020413497
7051,0,0,0,0,0,0,0,0,0.650034282319256,0.650053843517371,0.04,0.039882407169051,310.131335107288,0.65261379696759,0.349175749522722
7111,0,0,0,0,0,0,0,0,0.650033319971031,0.650053843517371,0.04,0.0398802723723117,310.130901443904,0.652736574395865,0.349109582637836
7171,0,0,0,0,0,0,0,0,0.650034969093917,0.650053843517371,0.04,0.0398932956450809,310.131704280429,0.652854212656605,0.349047579913946
7231,0,0,0,0,0,0,0,0,0.65003812059396,0.650053843517371,0.04,0.0399144025517764,310.133215878084,0.652955516489337,0.348995127377993
7291,0,0,0,0,0,0,0,0,0.650041881444372,0.650053843517371,0.04,0.0399381437156594,310.135012080945,0.653035118755351,0.348954607356446
7351,0,0,0,0,0,0,0,0,0.650045603609724,0.650053843517371,0.04,0.0399607385603632,310.136785655357,0.653092045639128,0.348926186065071
7411,0,0,0,0,0,0,0,0,0.650048873189108,0.650053843517371,0.04,0.0399799120304058,310.138340862128,0.653128274102729,0.348908581052044
7471,0,0,0,0,0,0,0,0,0.650051475600688,0.650053843517371,0.04,0.0399946153441226,310.139576755435,0.653147456009571,0.348899724510228
7531,0,0,0,0,0,0,0,0,0.650053349745136,0.650053843517371,0.04,0.0400047055848924,310.140465185563,0.65315390029153,0.348897281576804
7591,0,0,0,0,0,0,0,0,0.653451565149988,0.656854978654245,0.04,0.0374166291163839,311.844696423296,0.663493578420826,0.345347498607349
7651,0,0,0,0,0,0,0,0,0.665763433110871,0.670018466015936,0.04,0.0329888157471521,317.740787119121,0.689243572698558,0.33873097984439
7711,0,0,0,0,0,0,0,0,0.679113781981774,0.683181953377628,0.04,0.0315790607266644,324.111870878533,0.714786159473441,0.333175823189277
7771,0,0,0,0,0,0,0,0,0.692565693690346,0.696345440739319,0.04,0.0319143307531979,330.530347843374,0.738749855927923,0.328752154548995
7831,0,0,0,0,0,0,0,0,0.706080673051163,0.709508928101011,0.04,0.0330255715069539,336.978714151712,0.760721867105392,0.325485199250546
7891,0,0,0,0,0,0,0,0,0.719616349587809,0.722672415462702,0.04,0.0343795164003365,343.436530488113,0.780475986206788,0.323326736860564
7951,0,0,0,0,0,0,0,0,0.733121976859858,0.735835902824393,0.04,0.0356763627416092,349.8796649553,0.798093945672073,0.322121239815927
8011,0,0,0,0,0,0,0,0,0.746565705675166,0.748999390186085,0.04,0.0367604300548603,356.293107398214,0.813893521056911,0.32165811002926
8071,0,0,0,0,0,0,0,0,0.759937225493515,0.762162877547776,0.04,0.0375731963632844,362.672089463025,0.828296074619953,0.32172381319947
8131,0,0,0,0,0,0,0,0,0.773240631620343,0.775326364909468,0.04,0.0381183462158212,369.018639749178,0.84172385643851,0.322131610350124
8191,0,0,0,0,0,0,0,0,0.786486956614712,0.788489852271159,0.04,0.0384335493278087,375.3380614338,0.85454396268562,0.32273262665797
8251,0,0,0,0,0,0,0,0,0.799689268181552,0.801653339632851,0.04,0.038570117559419,381.636585131324,0.867047402200752,0.323416249167947
8311,0,0,0,0,0,0,0,0,0.812859988881025,0.814816826994542,0.04,0.0385800173068038,387.920130488743,0.879448478206383,0.324105642359702
8371,0,0,0,0,0,0,0,0,0.826009661583093,0.827980314356234,0.04,0.0385087867060282,394.193711286772,0.891894030885933,0.324751458679606
8431,0,0,0,0,0,0,0,0,0.839146638554466,0.841143801717925,0.04,0.0383926363038262,400.461284839808,0.90447623503245,0.325325459874845
8491,0,0,0,0,0,0,0,0,0.852277076425221,0.854307289079617,0.04,0.0382580505744826,406.725785332767,0.91724591939191,0.325814639640569
8551,0,0,0,0,0,0,0,0,0.865405267101662,0.867470776441308,0.04,0.0381228018862571,412.989245341988,0.930224460975945,0.326216304211964
8611,0,0,0,0,0,0,0,0,0.878533956244714,0.880634263802999,0.04,0.0379976207406488,419.252948666605,0.943413856514467,0.326534107444809
8671,0,0,0,0,0,0,0,0,0.891664678965382,0.893797751164691,0.04,0.037887932636526,425.517641036306,0.956804566342077,0.326775137947265
8731,0,0,0,0,0,0,0,0,0.904798131936825,0.906961238526382,0.04,0.037795476661794,431.783629988448,0.970381264292232,0.326947820504789
8791,0,0,0,0,0,0,0,0,0.917934460475794,0.920124725888074,0.04,0.0377197041899605,438.050990129754,0.984126842711248,0.327060626974192
8851,0,0,0,0,0,0,0,0,0.931073415781847,0.933288213249765,0.04,0.0376585785594746,444.319591123217,0.998024966256523,0.327121232199104
8911,0,0,0,0,0,0,0,0,0.940670692325759,0.939650565474583,0.04,0.0392399579196693,448.818602041378,1.00234401343413,0.32900971659941
8971,0,0,0,0,0,0,0,0,0.94184870455621,0.939650565474583,0.04,0.0424295535672112,449.35706739397,0.990159624220877,0.33345792221335
9031,0,0,0,0,0,0,0,0,0.941714379510169,0.939650565474583,0.04,0.0440331245061397,449.289721855748,0.977305014424606,0.337793301197814
9091,0,0,0,0,0,0,0,0,0.941403874141535,0.939650565474583,0.04,0.0444043538862442,449.141205857165,0.966126645483441,0.341588716886149
9151,0,0,0,0,0,0,0,0,0.941081670386075,0.939650565474583,0.04,0.0440840697884159,448.987554687173,0.956884136408136,0.344770123685923
9211,0,0,0,0,0,0,0,0,0.94077717080435,0.939650565474583,0.04,0.0434338643342587,448.842474085028,0.949512675522327,0.34733444733304
9271,0,0,0,0,0,0,0,0,0.940502528021293,0.939650565474583,0.04,0.0426723640305597,448.711717186063,0.943855088332712,0.349314622017662
9331,0,0,0,0,0,0,0,0,0.94026536914205,0.939650565474583,0.04,0.0419274023816391,448.598885547969,0.9397000770731,0.350770938023103
9391,0,0,0,0,0,0,0,0,0.940069216358398,0.939650565474583,0.04,0.0412687553125775,448.505631667623,0.936806813457372,0.351781127222003
9451,0,0,0,0,0,0,0,0,0.93991389649095,0.939650565474583,0.04,0.0407282334319878,448.431843923354,0.934928291427758,0.352429958982469
9511,0,0,0,0,0,0,0,0,0.939796438151622,0.939650565474583,0.04,0.0403130677103343,448.376087978898,0.933830119597682,0.352800540893379
9571,0,0,0,0,0,0,0,0,0.939712101850755,0.939650565474583,0.04,0.0400154105366623,448.336091964171,0.9333032102621,0.35296823109794
9631,0,0,0,0,0,0,0,0,0.939655282800284,0.939650565474583,0.04,0.0398191985983666,448.309179162586,0.933170733634376,0.352997148821473
9691,0,0,0,0,0,0,0,0,0.939620233315727,0.939650565474583,0.04,0.0397049545264653,448.292607687636,0.93329035650419,0.352938857373745
9751,0,0,0,0,0,0,0,0,0.939601554856194,0.939650565474583,0.04,0.0396529817353143,448.283805958817,0.933553059847103,0.352832612194146
9811,0,0,0,0,0,0,0,0,0.939594513555149,0.939650565474583,0.04,0.0396453097662074,448.280522229041,0.933879697690509,0.352706620283131
9871,0,0,0,0,0,0,0,0,0.939595190779063,0.939650565474583,0.04,0.0396667038305461,448.280893242403,0.934216347793756,0.352579812281023
9931,0,0,0,0,0,0,0,0,0.939600510645822,0.939650565474583,0.04,0.0397050218767076,448.283457983699,0.934529262816149,0.352463772029464
9991,0,0,0,0,0,0,0,0,0.939608185749737,0.939650565474583,0.04,0.0397511414579905,448.287131173325,0.93479999477612,0.352364580503431
10051,0,0,0,0,0,0,0,0,0.939616613524656,0.939650565474583,0.04,0.0397986353254465,448.291153252925,0.935021054529702,0.352284434391894
10111,0,0,0,0,0,0,0,0,0.939624753053165,0.939650565474583,0.04,0.0398433230515296,448.295031383997,0.935192284945751,0.35222297937838
10171,0,0,0,0,0,0,0,0,0.939631997196936,0.939650565474583,0.04,0.0398827923326042,448.298478884062,0.935318000715006,0.352178345527506
10231,0,0,0,0,0,0,0,0,0.939638056320064,0.939650565474583,0.04,0.0399159446647744,448.30135980006,0.9354048506135,0.352147909693222
10291,0,0,0,0,0,0,0,0,0.936112217973126,0.93294887858549,0.04,0.0416811912835979,446.539335594356,0.925957983424705,0.354342396187792
10351,0,0,0,0,0,0,0,0,0.924211912710221,0.919977871703375,0.04,0.0451588394350394,440.839111231606,0.900758603201071,0.359605541561023
10411,0,0,0,0,0,0,0,0,0.91110447607307,0.90700686482126,0.04,0.0469610177185043,434.582752927646,0.87507789042334,0.364905535741346
10471,0,0,0,0,0,0,0,0,0.897845577670721,0.894035857939146,0.04,0.0474399632371148,428.256556417212,0.850958427621554,0.369785904813393
10531,0,0,0,0,0,0,0,0,0.88456524819705,0.881064851057031,0.04,0.0471292882705107,421.920474379164,0.828670472268851,0.374113528288805
10591,0,0,0,0,0,0,0,0,0.871287222930334,0.868093844174916,0.04,0.0463958056594931,415.585606204454,0.808237172574437,0.377812526447265
10651,0,0,0,0,0,0,0,0,0.858025837440826,0.855122837292801,0.04,0.0454789332176594,409.258776903772,0.789586869960396,0.380848948123374
10711,0,0,0,0,0,0,0,0,0.844792641453479,0.842151830410687,0.04,0.0445361987255721,402.945477170631,0.772572408355271,0.383232002084085
10771,0,0,0,0,0,0,0,0,0.831595436051791,0.829180823528572,0.04,0.0436685494701752,396.649404014744,0.756991760957458,0.385008510581331
10831,0,0,0,0,0,0,0,0,0.818438051741559,0.816209816646457,0.04,0.0429350278983257,390.372337036732,0.742611936411929,0.386252928640333
10891,0,0,0,0,0,0,0,0,0.805320751190352,0.803238809764343,0.04,0.0423627538010094,384.114381372141,0.729191441422952,0.387055890467663
10951,0,0,0,0,0,0,0,0,0.792240968157995,0.790267802882228,0.04,0.0419551629545163,377.874300543078,0.716498714532621,0.387513303848635
11011,0,0,0,0,0,0,0,0,0.779194174493688,0.777296796000113,0.04,0.0416991574581314,371.649919367692,0.704325664827242,0.387717322852948
11071,0,0,0,0,0,0,0,0,0.766174688038268,0.764325789117998,0.04,0.0415713688828686,365.438510598741,0.692496433401013,0.387749679493557
11131,0,0,0,0,0,0,0,0,0.753176316267157,0.751354782235883,0.04,0.0415434182712019,359.237123754627,0.680871637888773,0.387677541839419
11191,0,0,0,0,0,0,0,0,0.740198298857762,0.738383775353769,0.04,0.0415878703802775,353.045620949193,0.6693393835816,0.387560159436094
11251,0,0,0,0,0,0,0,0,0.727262582942009,0.725412768471654,0.04,0.0417144105707438,346.874178847935,0.65767549104256,0.387538622217485
11311,0,0,0,0,0,0,0,0,0.714335276321506,0.712441761589539,0.04,0.0419000136147349,340.706559278142,0.645755280984726,0.387674472336823
11371,0,0,0,0,0,0,0,0,0.701404534221257,0.699470754707424,0.04,0.0420980921280738,334.537256919164,0.633583639818587,0.387967381168792
11431,0,0,0,0,0,0,0,0,0.688466316946662,0.68649974782531,0.04,0.0422757187029056,328.364360669165,0.62119847659484,0.388400972566103
11491,0,0,0,0,0,0,0,0,0.675518423230124,0.673528740943195,0.04,0.0424134111662111,322.18684020951,0.608654088334303,0.388948347216499
11551,0,0,0,0,0,0,0,0,0.662560055028329,0.66055773406108,0.04,0.042502226870285,316.004317962213,0.596012297807646,0.389576249626662
11611,0,0,0,0,0,0,0,0,0.638785284862924,0.626184861409813,0.04,0.0521067807443477,304.400608474393,0.550902026643334,0.405999802633694
11671,0,0,0,0,0,0,0,0,0.601290485093551,0.599894441181132,0.04,0.0584935582258923,286.787964377237,0.500584594968419,0.420957369754266
11731,0,0,0,0,0,0,0,0,0.597686798517083,0.599894441181132,0.04,0.0405117619206602,285.148740110602,0.510724775742548,0.410241136778285
11791,0,0,0,0,0,0,0,0,0.597003285514213,0.599894441181132,0.04,0.0301758277925442,284.826288105144,0.52687746367793,0.397214527419551
11851,0,0,0,0,0,0,0,0,0.596680342379728,0.599894441181132,0.04,0.0262783658970634,284.675156678642,0.545686627827374,0.383319517840846
11911,0,0,0,0,0,0,0,0,0.596729149310855,0.599894441181132,0.04,0.0264015937100811,284.701247968617,0.564955422236565,0.370279668232725
11971,0,0,0,0,0,0,0,0,0.597093650362342,0.599894441181132,0.04,0.0286561767766731,284.877318489294,0.58264426896869,0.359260169142627
12031,0,0,0,0,0,0,0,0,0.597678318338116,0.599894441181132,0.04,0.031791946805865,285.157534020686,0.597220188037445,0.350836723754786
12091,0,0,0,0,0,0,0,0,0.59835825424293,0.599894441181132,0.04,0.0350497655427798,285.482188821793,0.607847829917235,0.345095124480023
