time,bias_percent_1,bias_percent_2,bias_percent_3,bias_percent_4,bias_percent_5,bias_percent_6,bias_percent_8,bias_percent_9,normalized_power,power_SP,SP,CV,total_power_MW,fuel_fraction,thermal_efficiency
17,0,0,0,0,0,0,0,0,0.999260134630504,1,0.04,0.0401502160514906,476.737727108826,0.999234418510042,0.350563594314782
77,0.00736134007390444,-0.00369263820589049,-0.00666004740221922,-0.00943734550725583,0.00173169678990212,0.000958481474881637,0.00187554403466623,-0.00825257169786494,0.995197393887499,0.986802570046903,0.04,0.0423492666738347,474.597213030101,0.983017681336991,0.354746835789824
137,0.0333425403347437,-0.016725478932563,-0.0301660970571105,-0.0427456237681586,0.00784356781308622,0.00434135726858165,0.00849511121584106,-0.0373792953373881,0.956173661639369,0.940223405506561,0.04,0.0547879606749823,455.829228591937,0.891807207343072,0.375565653402126
197,0.059323740595583,-0.0297583196592352,-0.0536721467120018,-0.0760539020290614,0.0139554388362702,0.00772423306228166,0.0151146783970158,-0.0665060189769113,0.909504613606259,0.89364424096622,0.04,0.0630034389843645,433.551330340849,0.794263547946757,0.401079595281283
257,0.0853049408564224,-0.0427911603859077,-0.0771781963668931,-0.109362180289964,0.0200673098594541,0.0111071088559816,0.0217342455781907,-0.0956327426164345,0.861845215463552,0.847065076425878,0.04,0.066528961580627,410.807302068329,0.701048643447036,0.430570902710398
317,0.111286141117262,-0.05582400111258,-0.100684246021784,-0.142670458550867,0.0261791808826382,0.0144899846496817,0.0283538127593656,-0.124759466255958,0.814124805356883,0.800485911885536,0.04,0.0661296578784935,388.039077605229,0.614494811835728,0.463993524255217
377,0.137267341378101,-0.0688568418392525,-0.124190295676676,-0.17597873681177,0.0322910519058221,0.0178728604433816,0.0349733799405404,-0.153886189895481,0.76631066504667,0.753906747345194,0.04,0.0624034847922238,365.226289603574,0.53516905631822,0.50144778017757
437,0.16324854163894,-0.0818896825659247,-0.147696345331567,-0.209287015072673,0.0384029229290061,0.0212557362370816,0.0415929471217152,-0.175562178708366,0.718124271755806,0.707327582804852,0.04,0.0557935602751555,342.390166220119,0.464248424456502,0.541907947815041
497,0.189229741899779,-0.0949225232925971,-0.171202394986458,-0.242595293333576,0.0445147939521901,0.0246386120307816,0.0482125143028901,-0.1284792058246,0.669029651318284,0.66074841826451,0.04,0.0485842398684868,319.073255590847,0.410672337881707,0.570886310846922
557,0.215210942160619,-0.10795536401927,-0.19470844464135,-0.275903571594479,0.050626664975374,0.0280214878244815,0.0548320814840649,-0.0966808649948925,0.621626169639975,0.614169253724168,0.04,0.0413900972487697,296.523064717079,0.363637816503087,0.599161797597826
