time,bias_percent_1,bias_percent_2,bias_percent_3,bias_percent_4,bias_percent_5,bias_percent_6,bias_percent_8,bias_percent_9,normalized_power,power_SP,SP,CV,total_power_MW,fuel_fraction,thermal_efficiency
47,0,0,0,0,0,0,0,0,0.999783844525773,1,0.04,0.039922135298552,477.000601631074,0.999930918840599,0.350512576893781
107,0.0219419655829138,-0.02176036228331,0.0210472294291776,-0.013505767154042,0.00406436967391915,-0.0176208946253139,-0.00234949909737492,-0.0139686307096592,0.994538004925168,0.990658776234342,0.04,0.0419579008375096,474.413114271119,0.984038016362586,0.354241538358131
167,0.0499529854759953,-0.049539548176897,0.0479160329557876,-0.0307471720315425,0.00925292670445424,-0.040115653721459,-0.00534885964721525,-0.0318009252326283,0.98321719283413,0.978733809724992,0.04,0.0443043346692211,468.99795620062,0.956940323788308,0.360114634725391
227,0.0779640053690769,-0.0773187340704841,0.0747848364823974,-0.0479885769090428,0.0144414837349894,-0.0626104128176042,-0.00834822019705547,-0.0496332197555975,0.971108960770624,0.966808843215641,0.04,0.0451176110733249,463.219038404057,0.930042116639971,0.3659640802937
287,0.105975025262158,-0.105097919964071,0.101653640009007,-0.0652299817865433,0.0196300407655247,-0.0851051719137496,-0.0113475807468959,-0.0674655142785667,0.958872109709922,0.954883876706291,0.04,0.0448381923374317,457.380409286837,0.904850841224879,0.371411409282347
347,0.13398604515524,-0.132877105857658,0.128522443535617,-0.0824713866640435,0.0248185977960599,-0.107599931009895,-0.0143469412967361,-0.0852978088015359,0.946464639037538,0.942958910196941,0.04,0.0439329548954434,451.534296333082,0.881868483508655,0.3762197557496
407,0.161997065048321,-0.160656291751245,0.155391247062227,-0.0997127915415441,0.0300071548265948,-0.13009469010604,-0.0173463018465764,-0.103130103324505,0.934352482179814,0.93103394368759,0.04,0.0426955167904585,445.682302654033,0.860617551998193,0.380513322131117
467,0.190008084941403,-0.188435477644832,0.182260050588837,-0.116954196419044,0.0351957118571302,-0.152589449202185,-0.0203456623964167,-0.120962397847474,0.922007679025057,0.91910897717824,0.04,0.0413392494723798,439.871666947571,0.841715107626158,0.383986134998371
