time,bias_percent_1,bias_percent_2,bias_percent_3,bias_percent_4,bias_percent_5,bias_percent_6,bias_percent_8,bias_percent_9,normalized_power,power_SP,SP,CV,total_power_MW,fuel_fraction,thermal_efficiency
17,0,0,0,0,0,0,0,0,0.999260134630504,1,0.04,0.0401502160514906,476.737727108826,0.999234418510042,0.350563594314782
77,-0.00748395147487656,-0.00295791962982389,0.00273463992715961,0.00847886861564734,-0.00827198303634862,-0.00868048080377321,-0.00174631212581795,-0.00575488109777655,0.998292779189392,0.994386266087852,0.04,0.0405730750365047,476.206920748376,0.992294003285777,0.35262249357551
137,-0.033897897856794,-0.0133976359703784,0.0123863102583114,0.0384042872591087,-0.0374672172822849,-0.0393174718759138,-0.00790976668752825,-0.0260662261487525,0.98243360347663,0.97457308757439,0.04,0.0444714824580794,468.567956133032,0.947981751751666,0.363184482187985
197,-0.0603118442387114,-0.0238373523109327,0.0220379805894631,0.06832970590257,-0.066662451528221,-0.0699544629480544,-0.0140732212492386,-0.0463775711997286,0.962623689472603,0.954759909060928,0.04,0.0461145546790733,459.10666412192,0.899213939745278,0.375150251798788
257,-0.0867257906206288,-0.0342770686514873,0.0316896509206148,0.0982551245460315,-0.0958576857741572,-0.100591454020195,-0.020236675810949,-0.0666889162507046,0.942236967499335,0.934946730547466,0.04,0.0452783732922557,449.378533890956,0.853207464852069,0.38700123664048
317,-0.113139737002546,-0.0447167849920419,0.0413413212517664,0.128180543189493,-0.125052920020094,-0.131228445092336,-0.0264001303726594,-0.0870002613016807,0.92165762624041,0.915133552034004,0.04,0.0428208920183385,439.697208544795,0.811499143560209,0.398125796863836
