time,bias_percent_1,bias_percent_2,bias_percent_3,bias_percent_4,bias_percent_5,bias_percent_6,bias_percent_8,bias_percent_9,normalized_power,power_SP,SP,CV,total_power_MW,fuel_fraction,thermal_efficiency
52,0,0,0,0,0,0,0,0,0.999819862652829,1,0.04,0.0399113451402045,477.017060096514,0.999995461781536,0.350502047010879
112,0.0248193723935995,-0.0194556141910994,-0.0199107185860312,-0.0123810506825621,0.0171628868171483,0.00886162133986579,-0.000882525605267858,-0.023991373866648,0.985865072915708,0.977605818041071,0.04,0.0452422047472147,470.172909218018,0.962405851758173,0.358966584869829
172,0.0534571097708294,-0.0419043997962139,-0.0428846246468364,-0.0266668783932108,0.0369662177600117,0.019086569039711,-0.00190082438057692,-0.0516737283281648,0.960795738218684,0.95176637731923,0.04,0.0505065754103525,458.187689638481,0.907037793142913,0.371169865811029
232,0.0820948471480596,-0.0643531854013284,-0.0658585307076415,-0.0409527061038593,0.056769548702875,0.0293115167395561,-0.00291912315588604,-0.0793560827896817,0.93440588764615,0.925926936597388,0.04,0.052574008150338,445.593772819994,0.853636874073894,0.383548794791607
292,0.11073258452529,-0.0868019710064428,-0.0888324367684467,-0.0552385338145079,0.0765728796457383,0.0395364644394012,-0.00393742193119516,-0.107038437251199,0.907869638004536,0.900087495875547,0.04,0.0523255865959981,432.934474298027,0.804289394102547,0.395516407368653
352,0.13937032190252,-0.109250756611557,-0.111806342829252,-0.0695243615251568,0.0963762105886017,0.0497614121392463,-0.00495572070650417,-0.134720791712715,0.881503691489003,0.874248055153706,0.04,0.0508007812841547,420.354604681236,0.758476244285451,0.407219440004122
412,0.16800805927975,-0.131699542216672,-0.134780248890057,-0.0838101892358053,0.116179541531465,0.0599863598390914,-0.00597401948181329,-0.162403146174232,0.855175544763689,0.848408614431865,0.04,0.0485596379245494,407.809259945765,0.715886806608057,0.418569327636856
472,0.19664579665698,-0.154148327821787,-0.157754154950862,-0.098096016946454,0.135982872474328,0.0702113075389366,-0.00699231825712229,-0.190085500635749,0.828925421472473,0.822569173710023,0.04,0.0460308714849501,395.248207427093,0.676607738875946,0.42922758457608
532,0.22528353403421,-0.176597113426901,-0.180728061011668,-0.112381844657103,0.155786203417192,0.0804362552387818,-0.00801061703243141,-0.217767855097266,0.802683696184633,0.796729732988182,0.04,0.0432835566529518,382.748051660001,0.640880394451315,0.438824310272758
592,0.25392127141144,-0.199045899032016,-0.203701967072473,-0.126667672367751,0.175589534360055,0.0906612029386268,-0.00902891580774048,-0.245450209558783,0.776070519682265,0.770890292266341,0.04,0.0406566147388738,370.209241086597,0.608628603480067,0.446940358210295
