time,bias_percent_1,bias_percent_2,bias_percent_3,bias_percent_4,bias_percent_5,bias_percent_6,bias_percent_8,bias_percent_9,normalized_power,power_SP,SP,CV,total_power_MW,fuel_fraction,thermal_efficiency
8,0,0,0,0,0,0,0,0,0.997974064353128,1,0.04,0.0400293167391104,476.231480032293,0.999979931561336,0.349930253913
68,0.00170455088859421,0.00381547218444848,0.00143075959921305,-0.0038914997865545,-0.00440413737793574,0.00235612903275705,-0.00213275156744618,0.000880975000783337,0.999778866007723,0.998898456008556,0.04,0.040080103894272,476.962812938749,0.998733651242915,0.350904964938898
128,0.0144886825530514,0.0324315135678116,0.0121614565933106,-0.0330777481857132,-0.0374351677124544,0.020027096778435,-0.0181283883232929,0.00748828750665808,0.993386755594452,0.990636876072723,0.04,0.0426533643938191,473.882608786596,0.983756221575246,0.353946771203756
188,0.0272728142175084,0.0610475549511747,0.0228921535874082,-0.0622639965848717,-0.070466198046973,0.0376980645241129,-0.0341240250791395,0.0140956000125329,0.985209351531086,0.982375296136891,0.04,0.0444247317338128,469.976851122144,0.966253045765338,0.357388248025995
248,0.0400569458819654,0.0896635963345378,0.0336228505815058,-0.0914502449840303,-0.103497228381491,0.0553690322697908,-0.0501196618349861,0.0207029125184077,0.976795407311153,0.974113716201058,0.04,0.0452152600188733,465.961974802538,0.949402346941112,0.360624187901512
308,0.0528410775464224,0.118279637717901,0.0443535475756033,-0.120636493383189,-0.13652825871601,0.0730400000154686,-0.0661152985908328,0.0273102250242825,0.968347419001601,0.965852136265225,0.04,0.0453684414720399,461.931343424907,0.933629631999336,0.363544417909344
368,0.0656252092108795,0.146895679101264,0.0550842445697009,-0.149822741782348,-0.169559289050529,0.0907109677611466,-0.0821109353466794,0.0339175375301573,0.95990053454013,0.957590556329393,0.04,0.0451468977829183,457.901317248399,0.919005702753257,0.366107278265825
428,0.0784093408753364,0.175511720484627,0.0658149415637984,-0.179008990181506,-0.202590319385047,0.108381935506824,-0.0981065721025261,0.0405248500360321,0.951525994052993,0.94932897639356,0.04,0.044750580375211,453.907137130809,0.905314005030577,0.368402398434767
488,0.0911934725397934,0.20412776186799,0.0765456385578958,-0.208195238580665,-0.235621349719566,0.126052903252502,-0.114102208858373,0.0471321625419069,0.943266453540254,0.941067396457728,0.04,0.0444066206107372,449.966779262699,0.891746972387053,0.370760521249684
548,0.10397760420425,0.232743803251353,0.0872763355519934,-0.237381486979824,-0.268652380054084,0.14372387099818,-0.130097845614219,0.0537394750477817,0.935015797882119,0.932805816521895,0.04,0.0441112239515252,446.030297047042,0.878124403068531,0.373218350850464
608,0.116761735868708,0.261359844634716,0.098007032546091,-0.266567735378982,-0.301683410388603,0.161394838743858,-0.146093482370066,0.0603467875536565,0.926741100474967,0.924544236586063,0.04,0.0438159308982358,442.083049901168,0.864508082122898,0.375741774674569
668,0.129545867533165,0.28997588601808,0.108737729540189,-0.295753983778141,-0.334714440723121,0.179065806489536,-0.162089119125913,0.0669541000595314,0.918466273195692,0.91628265665023,0.04,0.0434880250873658,438.134204863994,0.850949697782518,0.378318820944948
728,0.142329999197622,0.318591927401443,0.119468426534286,-0.324940232177299,-0.36774547105764,0.196736774235214,-0.178084755881759,0.0735614125654062,0.910171426897199,0.908021076714397,0.04,0.0430902525987651,434.180468590032,0.837616892203396,0.380872425936245
788,0.155114130862079,0.347207968784806,0.130199123528384,-0.354126480576458,-0.400776501392158,0.214407741980892,-0.194080392637606,0.080168725071281,0.901857769191812,0.899759496778565,0.04,0.0426791391625429,430.209931533727,0.824557345692106,0.383366573564373
848,0.167898262526536,0.375824010168169,0.140929820522481,-0.383312728975617,-0.433807531726677,0.23207870972657,-0.210076029393452,0.0867760375771557,0.893515797793196,0.891497916842732,0.04,0.042214195896246,426.22806852994,0.811961320306277,0.385710428625975
908,0.178977843302398,0.400624579367084,0.150229757917366,-0.408607477588221,-0.46243442468326,0.24739354843949,-0.223938914581853,0.0925023750822472,0.885165500198979,0.884337880898344,0.04,0.0415894956565412,422.302602585828,0.801423694723487,0.387182977821047
