time,bias_percent_1,bias_percent_2,bias_percent_3,bias_percent_4,bias_percent_5,bias_percent_6,bias_percent_8,bias_percent_9,normalized_power,power_SP,SP,CV,total_power_MW,fuel_fraction,thermal_efficiency
23,0,0,0,0,0,0,0,0,0.99951704944427,1,0.04,0.0400234542933021,476.887208672833,0.999382215275805,0.350621653410659
83,0.0118472698205107,-0.0115810467154039,0.00350925784161211,0.00436265813978548,0.0120038957849642,-0.00699085205523306,0.0105937583177555,0.0134752226931572,0.998161150878481,0.998419330646243,0.04,0.040947102743994,476.183288117249,1.00027512350221,0.349791585233956
143,0.0427531910914082,-0.0417924729295007,0.0126638435153828,0.015743505460965,0.0433184065283492,-0.0252278574167108,0.0382296495814654,0.0486279775448716,0.993667808604571,0.994295845375574,0.04,0.0433245142563034,474.045353163438,1.00341450427841,0.347131636403923
203,0.0736591123623058,-0.0720038991435977,0.0218184291891536,0.0271243527821446,0.0746329172717344,-0.0434648627781884,0.0658655408451753,0.0837807323965861,0.989557504610678,0.990172360104905,0.04,0.0455363592731251,472.085829930897,1.00701750123623,0.344459861662723
263,0.104565033633203,-0.102215325357695,0.0309730148629242,0.038505200103324,0.105947428015119,-0.0617018681396662,0.0935014321088852,0.1189334872483,0.985564783928762,0.986048874834235,0.04,0.0476320960319329,470.181432914958,1.01001706398688,0.342051453570958
323,0.135470954904101,-0.132426751571792,0.040127600536695,0.0498860474245035,0.137261938758505,-0.0799388735011438,0.121137323372595,0.154086242100015,0.981611766431012,0.981925389563566,0.04,0.049563541476267,468.295576275152,1.01205256580934,0.339994319670404
383,0.166376876174998,-0.162638177785888,0.0492821862104656,0.061266894745683,0.16857644950189,-0.0981758788626215,0.148773214636305,0.189238996951729,0.97766099680247,0.977801904292897,0.04,0.0512909308165328,466.410600482778,1.01304181340765,0.338295107849711
443,0.197282797445896,-0.192849603999986,0.0584367718842363,0.0726477420668626,0.199890960245275,-0.116412884224099,0.176409105900015,0.224391751803444,0.973756756414199,0.973678419022227,0.04,0.0527810123709557,464.546555825335,1.01309033384239,0.336926948906756
503,0.228188718716794,-0.223061030214082,0.0675913575580072,0.0840285893880421,0.23120547098866,-0.134649889585577,0.204044997163725,0.259544506655158,0.969708479342719,0.969554933751558,0.04,0.0540815808607419,462.616000610462,1.01221141678689,0.33581809571341
563,0.259094639987691,-0.253272456428179,0.0767459432317777,0.0954094367092216,0.262519981732045,-0.152886894947054,0.231680888427435,0.294697261506873,0.96568693960941,0.965431448480889,0.04,0.0551507988706486,460.697176718343,1.01067177390826,0.334934658678318
623,0.290000561258589,-0.283483882642276,0.0859005289055485,0.106790284030401,0.29383449247543,-0.171123900308532,0.259316779691145,0.329850016358587,0.961643224295608,0.961307963210219,0.04,0.056027412764838,458.767734004523,1.00860581537029,0.334215104878063
683,0.320906482529486,-0.313695308856373,0.0950551145793193,0.11817113135158,0.325149003218815,-0.18936090567001,0.286952670954855,0.365002771210302,0.95757703098331,0.95718447793955,0.04,0.0567356568634014,456.827585357783,1.00615120701622,0.333613598335272
743,0.351812403800384,-0.34390673507047,0.10420970025309,0.12955197867276,0.3564635139622,-0.207597911031488,0.314588562218565,0.400155526062016,0.953491449508135,0.953060992668881,0.04,0.0572991711639066,454.87821445974,1.0034311998416,0.333090474651191
803,0.382718325071281,-0.374118161284567,0.113364285926861,0.14093282599394,0.387778024705585,-0.225834916392965,0.342224453482274,0.43530828091373,0.949390070525068,0.948937507398211,0.04,0.0577407683313426,452.921335557628,1.00054795859893,0.332613249640225
863,0.413624246342179,-0.404329587498664,0.122518871600631,0.152313673315119,0.41909253544897,-0.244071921754443,0.369860344745985,0.470461035765445,0.945276348628074,0.944814022127542,0.04,0.0580816005775197,450.958593531201,0.997582488435932,0.332156324902253
923,0.432682897792565,-0.422959966997357,0.12816419943279,0.159331862496513,0.438403150407391,-0.255318075060687,0.386902477691939,0.492138567924002,0.942377097213108,0.942271206210629,0.04,0.0574803811754162,449.60558844886,0.995771646349479,0.331761985139496
983,0.432682897792565,-0.422959966997357,0.12816419943279,0.159331862496513,0.438403150407391,-0.255318075060687,0.386902477691939,0.492138567924002,0.941949003791171,0.942271206210629,0.04,0.0558530159045704,449.400830232912,0.996838459019164,0.331256006253718
1043,0.432682897792565,-0.422959966997357,0.12816419943279,0.159331862496513,0.438403150407391,-0.255318075060687,0.386902477691939,0.492138567924002,0.941734070992509,0.942271206210629,0.04,0.0547561919550143,449.300698251825,0.999767554443721,0.330211908577532
1103,0.432682897792566,-0.422959966997357,0.12816419943279,0.159331862496513,0.438403150407391,-0.255318075060687,0.386902477691939,0.492138567924002,0.941737126390161,0.942271206210629,0.04,0.0541188003468914,449.303295031182,1.00304996884966,0.329133214285685
1163,0.432682897792565,-0.422959966997357,0.12816419943279,0.159331862496513,0.438403150407391,-0.255318075060687,0.386902477691939,0.492138567924002,0.941827202564668,0.942271206210629,0.04,0.0538147559907962,449.3465922182,1.00591862068584,0.328226227509793
1223,0.432682897792566,-0.422959966997357,0.12816419943279,0.159331862496513,0.438403150407391,-0.255318075060687,0.386902477691939,0.492138567924002,0.941931753615087,0.942271206210629,0.04,0.0537093522420523,449.396434959873,1.00816710277946,0.327530521840503
1283,0.432682897792566,-0.422959966997357,0.12816419943279,0.159331862496513,0.438403150407391,-0.255318075060687,0.386902477691939,0.492138567924002,0.942022881481551,0.942271206210629,0.04,0.0537042636848881,449.439761437058,1.00983432839849,0.327021297675761
1343,0.432682897792565,-0.422959966997357,0.12816419943279,0.159331862496513,0.438403150407391,-0.255318075060687,0.386902477691939,0.492138567924002,0.942093939418591,0.942271206210629,0.04,0.0537406657816647,449.473503999395,1.01103355496186,0.326657927522007
1403,0.432682897792565,-0.422959966997357,0.12816419943279,0.159331862496513,0.438403150407391,-0.255318075060687,0.386902477691939,0.492138567924002,0.942146407956785,0.942271206210629,0.04,0.0537879998204745,449.498403049218,1.01188148744316,0.326402276382961
1463,0.432682897792566,-0.422959966997357,0.12816419943279,0.159331862496513,0.438403150407391,-0.255318075060687,0.386902477691939,0.492138567924002,0.942184034191418,0.942271206210629,0.04,0.0538325482193665,449.516252516744,1.01247522277372,0.326223821436419
1523,0.432682897792566,-0.422959966997357,0.12816419943279,0.159331862496513,0.438403150407391,-0.255318075060687,0.386902477691939,0.492138567924002,0.942210582564261,0.942271206210629,0.04,0.0538694711985138,449.528844234618,1.01288869530199,0.326099787568908
1583,0.432682897792566,-0.422959966997357,0.12816419943279,0.159331862496513,0.438403150407391,-0.255318075060687,0.386902477691939,0.492138567924002,0.942229144038326,0.942271206210629,0.04,0.05389810058794,449.53764673672,1.01317577649084,0.326013771643834
1643,0.432682897792566,-0.422959966997357,0.12816419943279,0.159331862496513,0.438403150407391,-0.255318075060687,0.386902477691939,0.492138567924002,0.942242054594019,0.942271206210629,0.04,0.0539194370499699,449.543769051871,1.01337480355401,0.325954181612547
1703,0.432682897792566,-0.422959966997357,0.12816419943279,0.159331862496513,0.438403150407391,-0.255318075060687,0.386902477691939,0.492138567924002,0.942251008646106,0.942271206210629,0.04,0.0539349436010164,449.548014965343,1.01351270598457,0.325912909233435
1763,0.432682897792566,-0.422959966997357,0.12816419943279,0.159331862496513,0.438403150407391,-0.255318075060687,0.386902477691939,0.492138567924002,0.942257208532402,0.942271206210629,0.04,0.0539460277197789,449.550954838424,1.01360826352117,0.325884315062457
1823,0.410374756273699,-0.399919032643192,0.122803036701507,0.151528299039738,0.426506127165806,-0.237124989657595,0.369037836113678,0.489141516496697,0.941646164324239,0.939244421655548,0.04,0.054226166543998,449.230432509282,1.00816083548193,0.327411570775558
1883,0.352179604485352,-0.339812247371457,0.108817394793814,0.131171176978585,0.395470414361673,-0.18966476686692,0.322434423300822,0.481323121468944,0.935420031773418,0.93134846194664,0.04,0.0557062967681697,446.22737099203,0.984773383225843,0.332946596901636
1943,0.293984452697005,-0.279705462099721,0.0948317528861207,0.110814054917433,0.36443470155754,-0.142204544076245,0.275831010487967,0.473504726441191,0.927297515718307,0.923452502237732,0.04,0.0560217568478132,442.347665359913,0.960577372129647,0.338365490784925
2003,0.235789300908658,-0.219598676827986,0.0808461109784274,0.0904569328562799,0.333398988753406,-0.0947443212855696,0.229227597675111,0.465686331413439,0.919016958189869,0.915556542528824,0.04,0.0552468031186476,438.397517099016,0.938666312429069,0.343171750670637
2063,0.177594149120311,-0.159491891556251,0.0668604690707341,0.0700998107951272,0.302363275949273,-0.0472840984948944,0.182624184862256,0.457867936385686,0.910839642356234,0.907660582819917,0.04,0.0539020427291758,434.497003016243,0.918676443581491,0.347519261776564
2123,0.119398997331964,-0.0993851062845156,0.0528748271630407,0.0497426887339744,0.27132756314514,0.000176124295780824,0.136020772049401,0.450049541357933,0.902790204329934,0.899764623111009,0.04,0.0522964807897978,430.651887706556,0.899977840980693,0.351600282241768
2183,0.0612038455436168,-0.0392783210127802,0.0388891852553473,0.0293855666728217,0.240291850341006,0.047636347086456,0.0894173592365453,0.44223114633018,0.894741193805771,0.891868663402101,0.04,0.050564211006929,426.817590526771,0.882156464739147,0.355509626407434
2243,0.00300869375526986,0.020828464258955,0.024903543347654,0.00902844461166899,0.209256137536873,0.0950965698771314,0.0428139464236899,0.434412751302428,0.886765438540869,0.883972703693193,0.04,0.0487224812292654,423.017277117596,0.864965613677326,0.359346930157867
2303,-0.0551864580330773,0.0809352495306903,0.0109179014399606,-0.0113286774494837,0.17822042473274,0.142556792667806,4.35091673046568e-07,0.426594356274675,0.878772388221036,0.876076743984285,0.04,0.0469774199726736,419.181052440179,0.848181506079853,0.363134508113369
2363,-0.113381609821424,0.141042034802426,-0.00306774046773273,-0.0316857995106363,0.147184711928607,0.190017015458482,4.6933960652647e-07,0.418775961246922,0.869942405306948,0.868180784275377,0.04,0.0457970244683623,414.987142441277,0.83645378258409,0.364541828810535
2423,-0.171576761609771,0.201148820074161,-0.0170533823754262,-0.0520429215717892,0.116148999124473,0.237477238249157,4.83814122258212e-07,0.410957566219169,0.861818417472199,0.86028482456647,0.04,0.0447142765831831,411.16568889724,0.826470991744859,0.365547592277998
2483,-0.229771913398119,0.261255605345896,-0.0310390242831194,-0.0724000436329418,0.0851132863203398,0.284937461039832,4.92354364482747e-07,0.403139171191417,0.854033732897075,0.852388864857562,0.04,0.0439246510615616,407.39008611437,0.816410991454955,0.366653883608807
2543,-0.287967065186466,0.321362390617631,-0.0450246661908128,-0.0927571656940945,0.0540775735162066,0.332397683830507,4.92238315474651e-07,0.395320776163664,0.846106493080143,0.844492905148654,0.04,0.043281037497513,403.605623138893,0.806666949317521,0.367635652054569
