time,bias_percent_1,bias_percent_2,bias_percent_3,bias_percent_4,bias_percent_5,bias_percent_6,bias_percent_8,bias_percent_9,normalized_power,power_SP,SP,CV,total_power_MW,fuel_fraction,thermal_efficiency
37,0,0,0,0,0,0,0,0,0.999693664342244,1,0.04,0.0399546828466726,476.959504514886,0.999758262216666,0.350542905388754
97,-0.00164133691884308,-0.00101640343672136,0.00411688973649996,0.0120100685050757,0.0156785360448747,0.0156236657990024,-0.0154072248081897,-0.0116412934049744,0.997818274590299,0.996345038666882,0.04,0.0412524525004712,476.019691993687,0.994986025138277,0.351530178170348
157,-0.00430296435480466,-0.00266462522599909,0.0107929271470407,0.0314858552700633,0.041103189090618,0.0409593400676551,-0.0403919136863352,-0.030519066494122,0.992143763747246,0.990418074342906,0.04,0.0432886361280221,473.303726097956,0.98433593747128,0.353306199858425
217,-0.00696459179076624,-0.00431284701527693,0.0174689645575813,0.0509616420350508,0.0665278421363608,0.0662950143363078,-0.0653766025644806,-0.0493968395832696,0.986027666918342,0.98449111001893,0.04,0.0444614317836446,470.384935052259,0.974385672968634,0.354713069828976
277,-0.00962621922672793,-0.00596106880455466,0.0241450019681218,0.0704374288000384,0.0919524951821038,0.0916306886049605,-0.090361291442626,-0.0682746126724172,0.979886767525733,0.978564145694955,0.04,0.0450310867134315,467.455218843356,0.965722166143418,0.355666113463381
337,-0.0122878466626896,-0.00760929059383238,0.0308210393786625,0.089913215565026,0.117377148227847,0.116966362873613,-0.115345980320771,-0.0871523857615649,0.973769397869426,0.972637181370979,0.04,0.0452618038770676,464.535200537586,0.958269693931491,0.356193140326355
397,-0.0149494740986512,-0.00925751238311022,0.0374970767892031,0.109389002330014,0.14280180127359,0.142302037142266,-0.140330669198917,-0.106030158850712,0.96767345336417,0.966710217047003,0.04,0.0453131327777808,461.628648948198,0.951862577097786,0.356347057631018
457,-0.0176111015346129,-0.0109057341723881,0.0441731141997437,0.128864789095001,0.168226454319333,0.167637711410918,-0.165315358077062,-0.12490793193986,0.961606213518699,0.960783252723027,0.04,0.0452848446563305,458.734192012093,0.946354879731251,0.356173629733425
517,-0.0202727289705746,-0.0125539559616659,0.0508491516102844,0.148340575859989,0.193651107365076,0.192973385679571,-0.190300046955208,-0.143785705029008,0.955566163399766,0.954856288399052,0.04,0.0452310848294713,455.852692765205,0.941580642169654,0.355730972402669
577,-0.0229343564065362,-0.0142021777509437,0.057525189020825,0.167816362624976,0.219075760410819,0.218309059948224,-0.215284735833353,-0.162663478118155,0.949482803686843,0.948929324075076,0.04,0.0451643938714835,452.988123652593,0.937485181257688,0.355039832993283
637,-0.0255959838424977,-0.0158503995402214,0.0642012264313656,0.187292149389964,0.244500413456562,0.243644734216876,-0.240269424711499,-0.181541251207303,0.943559629699856,0.9430023597511,0.04,0.0451505777084906,450.125762295086,0.93364406902288,0.354247833963978
697,-0.0282576112784593,-0.0174986213294992,0.0708772638419061,0.206767936154951,0.269925066502305,0.268980408485529,-0.265254113589644,-0.200419024296451,0.937585156990662,0.937075395427125,0.04,0.0451447817731274,447.274418864563,0.930187053299657,0.353312046904014
757,-0.030919238714421,-0.0191468431187769,0.0775533012524469,0.226243722919939,0.295349719548048,0.294316082754182,-0.290238802467789,-0.219296797385598,0.931624275540022,0.931148431103149,0.04,0.0451560766836971,444.430592756485,0.926973109479101,0.352282838272558
817,-0.0335808661503827,-0.0207950649080548,0.0842293386629874,0.245719509684927,0.320774372593791,0.319651757022834,-0.297215898791969,-0.238174570474746,0.925069783682266,0.925221466779173,0.04,0.0454901719612933,441.350141433696,0.9252906576085,0.350477198849435
877,-0.0362424935863444,-0.0224432866973326,0.0909053760735282,0.265195296449914,0.346199025639534,0.344987431291487,-0.283154141687101,-0.257052343563894,0.918877011342641,0.919294502455198,0.04,0.0460316305470646,438.348386310623,0.927044828630585,0.347434829130363
937,-0.037262784103463,-0.0230751050498891,0.0934645237475686,0.272661014709826,0.355945142640402,0.354699439761137,-0.26833783621962,-0.264288823248067,0.91537550490338,0.91702249946434,0.04,0.0450117042991809,436.721684526166,0.933779954409975,0.343648843042002
997,-0.037262784103463,-0.0230751050498891,0.0934645237475687,0.272661014709826,0.355945142640402,0.354699439761137,-0.254952921703575,-0.254952921703575,0.915188663821074,0.91702249946434,0.04,0.0435419404732273,436.638497229107,0.944712869203418,0.339607183789319
1057,-0.037262784103463,-0.0230751050498891,0.0934645237475686,0.272661014709826,0.355945142640402,0.354699439761137,-0.243968816894749,-0.243968816894749,0.915589109424179,0.91702249946434,0.04,0.0429702772764248,436.83120807051,0.954232182099247,0.336367691457927
1117,-0.037262784103463,-0.0230751050498891,0.0934645237475686,0.272661014709826,0.355945142640402,0.354699439761137,-0.234711312239859,-0.234711312239859,0.916015831013308,0.91702249946434,0.04,0.0429668111899508,437.03417883862,0.961107014341616,0.33411681463836
1177,-0.037262784103463,-0.0230751050498891,0.0934645237475686,0.272661014709826,0.355945142640402,0.354699439761137,-0.226196623675547,-0.226196623675547,0.916344705572378,0.91702249946434,0.04,0.0431960759945713,437.190260230523,0.965795816286904,0.332613471218654
1237,-0.037262784103463,-0.0230751050498891,0.0934645237475686,0.272661014709826,0.355945142640402,0.354699439761137,-0.217701215713468,-0.217701215713468,0.916577254099722,0.91702249946434,0.04,0.0434745367934881,437.3005236685,0.96890078962628,0.331631185832851
1297,-0.037262784103463,-0.0230751050498891,0.0934645237475686,0.272661014709826,0.355945142640402,0.354699439761137,-0.20884156485226,-0.20884156485226,0.916734825117791,0.91702249946434,0.04,0.0437241979897298,437.375195591994,0.970918037504808,0.330998676000655
1357,-0.0372627841034629,-0.0230751050498891,0.0934645237475687,0.272661014709826,0.355945142640402,0.354699439761137,-0.199483963361053,-0.199483963361053,0.916838789326647,0.91702249946434,0.04,0.0439213788698543,437.424445891624,0.97221133520008,0.330595582664558
1417,-0.0372627841034629,-0.0230751050498891,0.0934645237475686,0.272661014709826,0.355945142640402,0.354699439761137,-0.189637274374622,-0.189637274374622,0.916906169420149,0.91702249946434,0.04,0.0440665044036781,437.456357739459,0.973032640234724,0.330340635644526
1477,-0.037262784103463,-0.0230751050498891,0.0934645237475687,0.272661014709826,0.355945142640402,0.354699439761137,-0.179374258998649,-0.179374258998649,0.916949297026634,0.91702249946434,0.04,0.044168628793452,437.476779674082,0.973550567572373,0.330180308165306
1537,-0.037262784103463,-0.0230751050498891,0.0934645237475688,0.272661014709826,0.355945142640402,0.354699439761137,-0.168784915589414,-0.168784915589414,0.916976649665344,0.91702249946434,0.04,0.0442383061602548,437.489730161999,0.973875481311124,0.330079921186862
1597,-0.037262784103463,-0.0230751050498891,0.0934645237475686,0.272661014709826,0.355945142640402,0.354699439761137,-0.157953304641262,-0.157953304641262,0.916993876235337,0.91702249946434,0.04,0.0442847896126155,437.49788544178,0.974078540543504,0.330017263533529
1657,-0.0372627841034629,-0.0230751050498891,0.0934645237475686,0.272661014709826,0.355945142640402,0.354699439761137,-0.146948640297248,-0.146948640297248,0.917004663670708,0.91702249946434,0.04,0.0443152758886399,437.502991925852,0.974205140701019,0.329978228512577
1717,-0.037262784103463,-0.0230751050498891,0.0934645237475686,0.272661014709826,0.355945142640402,0.354699439761137,-0.135823876749308,-0.135823876749308,0.917011386675328,0.91702249946434,0.04,0.0443350043741509,437.506174166725,0.974284008902761,0.329953916754813
1777,-0.037262784103463,-0.0230751050498891,0.0934645237475685,0.272661014709826,0.355945142640402,0.354699439761137,-0.124617608309514,-0.124617608309514,0.917015559309357,0.91702249946434,0.04,0.0443476317790589,437.508149095635,0.974333208575061,0.329938744845409
1837,-0.0179167806020703,-0.0151586269547316,0.100504222617351,0.277009905776166,0.328391690717627,0.343985245829599,-0.113131878273316,-0.113131878273316,0.91472130019739,0.912479805260596,0.04,0.0457810286307361,436.366911125402,0.966700705957099,0.331676309124893
1897,0.0134551169677557,-0.00232109490853031,0.111919950514296,0.284062161559421,0.283710417329344,0.326610877291969,-0.0989539104724915,-0.0989539104724915,0.907748428648947,0.90511327411939,0.04,0.0482448895310292,433.026254100303,0.950481900831039,0.334753443399091
1957,0.0448270145375817,0.010516437137671,0.123335678411241,0.291114417342675,0.239029143941061,0.309236508754339,-0.0804714999270631,-0.0804714999270631,0.899990872402744,0.897746742978183,0.04,0.0496919348445736,429.323540368354,0.935753311104424,0.337114944778878
2017,0.0761989121074079,0.0233539691838723,0.134751406308186,0.298166673125929,0.194347870552777,0.291862140216709,-0.058204865093745,-0.058204865093745,0.892215748183897,0.890380211836976,0.04,0.0504335022415717,425.614708195254,0.923578110991992,0.33860835700284
2077,0.107570809677234,0.0361915012300736,0.146167134205131,0.305218928909184,0.149666597164494,0.274487771679079,-0.0332660118553983,-0.0332660118553983,0.884547062867279,0.88301368069577,0.04,0.0508421199535041,421.959531559322,0.913462096105197,0.339418059874527
2137,0.13894270724706,0.049029033276275,0.157582862102076,0.312271184692438,0.10498532377621,0.257113403141449,-0.015713412971605,-0.015713412971605,0.876973272250697,0.875647149554563,0.04,0.0511602538706683,418.344047851704,0.904748806998707,0.339750614916719
2197,0.170314604816886,0.0618665653224763,0.168998589999022,0.319323440475692,0.0603040503879266,0.239739034603818,-0.0074221916832282,-0.0074221916832282,0.869547627910191,0.868280618413357,0.04,0.051477448496308,414.803232045948,0.89680126703717,0.33986042389309
2257,0.201686502386712,0.0747040973686775,0.180414317895966,0.326375696258946,0.0156227769996431,0.222364666066188,0.0435658314641726,-0.00350571464709438,0.861279104732742,0.86091408727215,0.04,0.0527275625611029,410.855244597614,0.892938724875131,0.338081847992188
2317,0.233058399956538,0.0875416294148788,0.191830045792911,0.333427952042201,-0.0290584963886404,0.204990297528559,0.0952093512573729,-0.00165571066806421,0.853836101729312,0.853547556130943,0.04,0.054090596705895,407.307109677067,0.890860757113178,0.335943961156367
2377,0.264430297526364,0.10037916146108,0.203245773689856,0.340480207825455,-0.0737397697769239,0.187615928990928,0.146852871050573,-0.000781834812069474,0.846565809626618,0.846181024989737,0.04,0.0557792875595651,403.838851838898,0.888405190446976,0.334004015096152
2437,0.29580219509619,0.113216693507282,0.214661501586801,0.347532463608709,-0.118421043165207,0.170241560453298,0.198496390843774,-0.000369047044936478,0.839301714691469,0.83881449384853,0.04,0.0576206351499437,400.372972969782,0.885312019844054,0.332294435310812
2497,0.327174092666016,0.126054225553483,0.226077229483746,0.354584719391963,-0.163102316553491,0.152867191915669,0.250139910636974,-0.0001740608354819,0.832004906739385,0.831447962707324,0.04,0.0594697506445699,396.891358761658,0.881725676666679,0.33074465284373
2557,0.358545990235842,0.138891757599684,0.237492957380691,0.361636975175218,-0.207783589941774,0.135492823378038,0.301783430430174,-8.19563088831165e-05,0.824670181177598,0.824081431566117,0.04,0.0612483851305981,393.391682251986,0.877872237766807,0.32926724845004
2617,0.389917887805668,0.151729289645886,0.248908685277637,0.368689230958472,-0.252464863330058,0.118118454840409,0.353426950223374,-3.84494175818789e-05,0.817304693187399,0.816714900424911,0.04,0.0629275822142666,389.877406894142,0.873954608102487,0.327788617481606
2677,0.421289785375494,0.164566821692087,0.260324413174581,0.375741486741726,-0.297146136718341,0.100744086302778,0.405070470016575,-1.78983148229207e-05,0.809919548184926,0.809348369283704,0.04,0.0645068495309649,386.353839413859,0.870114012951037,0.326259935357399
2737,0.433315679443927,0.169487875643131,0.264700442201744,0.378444851458641,-0.31427395818385,0.0940839116966869,0.424867152603968,-8.19070731575697e-06,0.803038481707278,0.801981838142497,0.04,0.0655081639326921,383.07552070148,0.864986826032527,0.325409017600105
2797,0.433315679443927,0.169487875643131,0.264700442201744,0.37844485145864,-0.31427395818385,0.0940839116966869,0.424867152603968,-3.6051799784432e-06,0.795920124165769,0.794615307001291,0.04,0.0662938277363755,379.675330064391,0.857050981868718,0.325507049602775
2857,0.433315679443927,0.169487875643131,0.264700442201744,0.37844485145864,-0.31427395818385,0.094083911696687,0.424867152603968,-1.43914051447302e-06,0.788546684145063,0.787248775860084,0.04,0.066938447945125,376.156744541537,0.848837222930963,0.325611034139871
2917,0.433315679443927,0.169487875643131,0.264700442201744,0.378444851458641,-0.31427395818385,0.094083911696687,0.424867152603968,-4.15980774196574e-07,0.781140829711626,0.779882244718878,0.04,0.0674494689822555,372.623430006997,0.840838351348717,0.325620938348444
2977,0.433315679443927,0.169487875643131,0.264700442201744,0.37844485145864,-0.31427395818385,0.094083911696687,0.424867152603968,6.732337216637e-08,0.773745330333097,0.772515713577671,0.04,0.0678961707494096,369.095142468139,0.833039631166424,0.325557228639527
3037,0.433315679443927,0.169487875643131,0.264700442201744,0.37844485145864,-0.31427395818385,0.094083911696687,0.424867152603968,2.95619002552006e-07,0.766361140154231,0.765149182436465,0.04,0.0683210180700875,365.572214812459,0.825367793171871,0.325447049068866
3097,0.433315679443927,0.169487875643131,0.264700442201744,0.378444851458641,-0.31427395818385,0.094083911696687,0.424867152603968,4.03457710838269e-07,0.758983534025835,0.757782651295258,0.04,0.0687424398136738,362.052398372542,0.817773725526399,0.325306658113802
3157,0.433315679443927,0.169487875643131,0.264700442201744,0.37844485145864,-0.31427395818385,0.0940839116966869,0.424867152603968,4.54396868040734e-07,0.751609213030208,0.750416120154051,0.04,0.0691668321457111,358.534123584028,0.810231958297117,0.325144044090353
3217,0.433315679443927,0.169487875643131,0.264700442201744,0.37844485145864,-0.31427395818385,0.094083911696687,0.424867152603968,4.78458707965684e-07,0.74423647053394,0.743049589012845,0.04,0.0695958955785876,355.016599558376,0.80273016041973,0.324962880310175
3277,0.433315679443927,0.169487875643131,0.264700442201744,0.37844485145864,-0.31427395818385,0.094083911696687,0.424867152603968,4.89824662417437e-07,0.736864557939842,0.735683057871638,0.04,0.0700298304374549,351.499463246945,0.795262108109708,0.324764875329638
3337,0.433315679443927,0.169487875643131,0.264700442201744,0.37844485145864,-0.31427395818385,0.0940839116966869,0.424867152603968,4.9519353366761e-07,0.729493118589305,0.728316526730432,0.04,0.0704685010941327,347.982553327134,0.787824370802054,0.324550838449103
3397,0.433315679443927,0.169487875643131,0.264700442201744,0.37844485145864,-0.31427395818385,0.094083911696687,0.424867152603968,4.97729596839717e-07,0.72212198817542,0.720949995589225,0.04,0.0709117584236418,344.465787432716,0.780414795030193,0.324321153612668
3457,0.433315679443927,0.169487875643131,0.264700442201744,0.37844485145864,-0.31427395818385,0.0940839116966869,0.424867152603968,4.9892754257416e-07,0.714751073041243,0.713583464448019,0.04,0.0713595230058416,340.949124973901,0.773031938066937,0.32407596221074
3517,0.433315679443927,0.169487875643131,0.264700442201744,0.37844485145864,-0.31427395818385,0.0940839116966869,0.424867152603968,4.99493409386333e-07,0.707380304558938,0.706216933306812,0.04,0.0718117528595705,337.432533812937,0.76567477654986,0.323815243309816
3577,0.433315679443927,0.169487875643131,0.264700442201744,0.37844485145864,-0.31427395818385,0.094083911696687,0.424867152603968,4.99760704673517e-07,0.700009647274751,0.698850402165605,0.04,0.0722684636334764,333.915996304422,0.758342558805491,0.323538875082605
3637,0.406568475622261,0.164211100011849,0.253534696179867,0.367613004223503,-0.304485885460271,0.0941121614089175,0.407739786469928,4.99886965427839e-07,0.695474417778653,0.696026565228143,0.04,0.0700928721530997,331.804568040784,0.757168846438943,0.321991420749058
3697,0.363194631587126,0.155654166555716,0.235428081009257,0.350047846544901,-0.28861333509771,0.0941579717530749,0.379965679225538,4.99946606502135e-07,0.695703252121312,0.696026565228143,0.04,0.0661486961142733,331.92615142049,0.760337212916556,0.320767160884834
3757,0.319820787551992,0.147097233099582,0.217321465838646,0.332482688866299,-0.27274078473515,0.0942037820972322,0.352191571981148,0.0210361664060123,0.695961250145565,0.696026565228143,0.04,0.0636634262304713,332.046587943399,0.761171741803969,0.320531740093685
3817,0.276446943516857,0.138540299643449,0.199214850668035,0.314917531187697,-0.256868234372589,0.0942495924413897,0.324417464736759,0.0458799988041662,0.696461563048584,0.696026565228143,0.04,0.0616872196668686,332.285614912477,0.759602134897786,0.321425286815321
3877,0.233073099481723,0.129983366187316,0.181108235497424,0.297352373509095,-0.240995684010029,0.0942954027855471,0.296643357492369,0.07072383120232,0.6968558268072,0.696026565228143,0.04,0.0599192235490213,332.472345658201,0.755347142477206,0.323417572553297
3937,0.189699255446588,0.121426432731183,0.163001620326814,0.279787215830493,-0.225123133647468,0.0943412131297047,0.268869250247979,0.0955676636004738,0.697090366388759,0.696026565228143,0.04,0.0580341899566612,332.58317056765,0.749377373506513,0.32610268113856
3997,0.146325411411454,0.11286949927505,0.144895005156203,0.262222058151891,-0.209250583284908,0.0943870234738621,0.24109514300359,0.120411495998628,0.697214936961596,0.696026565228143,0.04,0.0558665222251805,332.641904916301,0.742458762185743,0.329199599620621
4057,0.102951567376319,0.104312565818917,0.126788389985592,0.244656900473289,-0.193378032922347,0.0944328338180195,0.2133210357592,0.145255328396781,0.69726600711037,0.696026565228143,0.04,0.0533705459431564,332.665781563065,0.735095975767127,0.332520758213543
4117,0.0595777233411845,0.0957556323627841,0.108681774814982,0.227091742794688,-0.177505482559787,0.0944786441621769,0.18554692851481,0.170099160794935,0.697263574728614,0.696026565228143,0.04,0.0505583703163671,332.664253897358,0.727645952693726,0.335923738496125
4177,0.0162038793060499,0.0871986989066511,0.090575159644371,0.209526585116086,-0.161632932197226,0.0945244545063345,0.15777282127042,0.194942993193089,0.697221572044641,0.696026565228143,0.04,0.0474641319712459,332.643975554215,0.720374196391182,0.339294008481787
4237,-0.0271699647290845,0.0786417654505181,0.0724685444737603,0.191961427437484,-0.145760381834666,0.0945702648504919,0.129998714026031,0.219786825591243,0.697153950510082,0.696026565228143,0.04,0.0441302818109457,332.611933915085,0.713469259136086,0.342544688729016
