time,bias_percent_1,bias_percent_2,bias_percent_3,bias_percent_4,bias_percent_5,bias_percent_6,bias_percent_8,bias_percent_9,normalized_power,power_SP,SP,CV,total_power_MW,fuel_fraction,thermal_efficiency
27,0,0,0,0,0,0,0,0,0.999586606986644,1,0.04,0.0400160422788015,476.903131349477,0.999489637355747,0.350595675238032
87,-0.00959885024275547,-0.00109771647109244,0.0142005312482505,0.0100845531640093,0.0117853945302199,0.00594162294251691,-0.000947044957035587,-0.0158913693911261,0.990082479644001,0.980219094789057,0.04,0.0450068037103989,472.112202614053,0.973357400608618,0.35639168814326
147,-0.0309296285599896,-0.00353708640685306,0.0457572673554743,0.0324946713062523,0.0379751601529312,0.0191452294814435,-0.00305158930600373,-0.0512055235936288,0.950429151067617,0.936261527653629,0.04,0.0581358124085237,453.103027437166,0.889569333105972,0.374258642114542
207,-0.0522604068772239,-0.0059764563426138,0.0773140034626979,0.0549047894484952,0.0641649257756422,0.03234883602037,-0.00515613365497183,-0.0865196777961315,0.905919718660469,0.8923039605182,0.04,0.0668689654710038,431.856162597788,0.803954459472887,0.394695658274615
267,-0.0735911851944581,-0.00841582627837443,0.108870739569921,0.0773149075907382,0.0903546913983533,0.0455524425592965,-0.00726067800393997,-0.121833831998634,0.860835953955975,0.848346393382771,0.04,0.0712307688024962,410.347024446431,0.724531790502243,0.416148677640303
327,-0.0949219635116924,-0.0108551962141353,0.140427475677145,0.0997250257329811,0.116544457021064,0.058756049098223,-0.00936522235290812,-0.157147986201137,0.815900447521685,0.804388826247343,0.04,0.0725823740819705,388.909012329369,0.651301683180296,0.438753388015892
387,-0.116252741828927,-0.013294566149896,0.171984211784369,0.122135143875224,0.142734222643776,0.0719596556371495,-0.0114697667018762,-0.187962528474186,0.770995412956256,0.760431259111914,0.04,0.071962954962116,367.484125294877,0.583777839417726,0.462536121556763
447,-0.137583520146161,-0.0157339360856566,0.203540947891592,0.144545262017467,0.168923988266487,0.0851632621760762,-0.0135743110508443,-0.107642302135589,0.722968408597127,0.716473691976486,0.04,0.0716020113548896,344.836126101928,0.536512317092221,0.472267149020004
507,-0.158914298463395,-0.0181733060214175,0.235097683998816,0.16695538015971,0.195113753889198,0.0983668687150026,-0.0156788553998124,-0.0508461302142926,0.678008471568335,0.672516124841057,0.04,0.0715297722279308,323.11871401115,0.497774910433367,0.476962005840573
567,-0.180245076780629,-0.0206126759571781,0.26665442010604,0.189365498301953,0.221303519511909,0.111570475253929,-0.0177833997487805,-0.0240176334778762,0.633334083138198,0.628558557705629,0.04,0.0739037097368677,301.811098226052,0.465866112225145,0.476023903735339
627,-0.201575855097864,-0.0230520458929388,0.298211156213263,0.211775616444196,0.24749328513462,0.124774081792856,-0.0113448090859688,-0.0113448090859688,0.588923369478804,0.5846009905702,0.04,0.0792313942784837,280.624367351803,0.436788509198526,0.472072661967459
687,-0.222906633415098,-0.0254914158286996,0.329767892320487,0.234185734586439,0.273683050757331,0.137977688331782,-0.00535861911617593,-0.00535861911617593,0.54497347323267,0.540643423434771,0.04,0.0867411911424681,259.657969839595,0.408744450917976,0.466771642477637
747,-0.244237411732332,-0.0279307857644603,0.36132462842771,0.256595852728682,0.299872816380042,0.151181294870709,-0.0025309566120446,-0.0025309566120446,0.501202601672139,0.496685856299343,0.04,0.0964581103618018,238.777051663469,0.379999045324846,0.461705189644185
807,-0.265568190049566,-0.030370155700221,0.392881364534934,0.279005970870925,0.326062582002753,0.164384901409635,-0.00119527138364929,-0.00119527138364929,0.457371137677221,0.452728289163914,0.04,0.10840599909536,218.145651768794,0.350317108420392,0.457551401102636
867,-0.286898968366801,-0.0328095256359817,0.424438100642158,0.301416089013168,0.352252347625464,0.177588507948562,-0.000564341834936308,-0.000564341834936308,0.414254068058773,0.408770722028486,0.04,0.123794574969566,197.590921387042,0.316947656004757,0.458072392775017
927,-0.298630896441279,-0.0341511791006502,0.441794305501131,0.313741653991401,0.366656718717956,0.184850491544971,-0.000266312020748506,-0.000266312020748506,0.379580394640679,0.384594060104,0.04,0.124545348583551,181.052321517656,0.311761711621029,0.426713120831724
987,-0.298630896441279,-0.0341511791006501,0.441794305501131,0.313741653991401,0.366656718717956,0.184850491544971,-0.000125532476504967,-0.000125532476504967,0.377757697461764,0.384594060104,0.04,0.0903993383571239,180.230416630456,0.352488274780069,0.375697311965579
1047,-0.298630896441279,-0.0341511791006501,0.441794305501131,0.313741653991401,0.366656718717956,0.184850491544971,-5.90332440023323e-05,-5.90332440023323e-05,0.378644380819769,0.384594060104,0.04,0.0742185271289351,180.661921105387,0.390538048956451,0.339905309129498
1107,-0.298630896441279,-0.0341511791006502,0.441794305501131,0.313741653991401,0.366656718717956,0.184850491544971,-2.76292593872959e-05,-2.76292593872959e-05,0.380105575794426,0.384594060104,0.04,0.0691376523415105,181.360030452703,0.420504439944848,0.31690250388457
1167,-0.298630896441279,-0.0341511791006501,0.441794305501131,0.313741653991401,0.366656718717956,0.184850491544971,-1.27872582460347e-05,-1.27872582460347e-05,0.381402230847501,0.384594060104,0.04,0.0686111477616629,181.975796905252,0.442133182808228,0.302423263453295
1227,-0.298630896441279,-0.0341511791006501,0.441794305501131,0.313741653991401,0.366656718717956,0.184850491544972,-5.77642659431528e-06,-5.77642659431528e-06,0.382330831313415,0.384594060104,0.04,0.0695021079359232,182.416106001229,0.457443815695361,0.293008417143422
1287,-0.298630896441279,-0.0341511791006502,0.441794305501131,0.313741653991401,0.366656718717956,0.184850491544971,-2.46475992747295e-06,-2.46475992747295e-06,0.382970343692595,0.384594060104,0.04,0.0705965237801665,182.719357766649,0.468380118940087,0.28664263258035
1347,-0.298630896441279,-0.0341511791006502,0.441794305501131,0.313741653991401,0.366656718717956,0.184850491544971,-9.00446782172285e-07,-9.00446782172285e-07,0.383419123298976,0.384594060104,0.04,0.0715363449835498,182.932255984641,0.47627341055835,0.28222054760864
1407,-0.298630896441279,-0.0341511791006501,0.441794305501131,0.313741653991401,0.366656718717956,0.184850491544972,-1.61521080180143e-07,-1.61521080180143e-07,0.383741110232224,0.384594060104,0.04,0.0722662455608234,183.085047277868,0.481999079867093,0.279100968569465
1467,-0.298630896441279,-0.0341511791006501,0.441794305501131,0.313741653991401,0.366656718717956,0.184850491544971,1.87521050358008e-07,1.87521050358008e-07,0.38397469644192,0.384594060104,0.04,0.0728136510625392,183.195900974036,0.486156982955639,0.276881475205622
1527,-0.298630896441279,-0.0341511791006502,0.441794305501131,0.313741653991401,0.366656718717956,0.184850491544972,3.52396096065793e-07,3.52396096065793e-07,0.384144613457256,0.384594060104,0.04,0.0732185504129333,183.276539363775,0.489174999103173,0.275294350658911
1587,-0.298630896441279,-0.0341511791006501,0.441794305501131,0.313741653991401,0.366656718717956,0.184850491544971,4.30277183530027e-07,4.30277183530027e-07,0.384269185477942,0.384594060104,0.04,0.0735161987450691,183.335744398276,0.49136265572846,0.274157212755067
1647,-0.298630896441279,-0.0341511791006502,0.441794305501131,0.313741653991401,0.366656718717956,0.184850491544971,4.67065429796e-07,4.67065429796e-07,0.384379710726952,0.384594060104,0.04,0.0737622092718156,183.3883343144,0.492865868096847,0.273399451354801
1707,-0.298630896441279,-0.0341511791006501,0.441794305501131,0.313741653991401,0.366656718717956,0.184850491544971,4.84442884418054e-07,4.84442884418054e-07,0.384459621766573,0.384594060104,0.04,0.0739805820923292,183.426184683523,0.493818824950501,0.272928172528031
1767,-0.298630896441279,-0.0341511791006501,0.441794305501131,0.313741653991401,0.366656718717956,0.184850491544972,4.92651373807798e-07,4.92651373807798e-07,0.384509328765869,0.384594060104,0.04,0.0741509884234473,183.449704313673,0.494416787260378,0.272633038714087
1827,-0.297230308763065,-0.0248390238600057,0.438104998894074,0.314316689836939,0.359065701207127,0.191978537323673,4.96528771247584e-07,4.96528771247584e-07,0.38679263154925,0.391571090448013,0.04,0.0703723584527044,184.615518164033,0.507171522486071,0.267465653257278
1887,-0.294117891700367,-0.00414534554746263,0.429906539767282,0.315594547271467,0.342196773405287,0.207818639054122,2.27075268691381e-07,2.27075268691381e-07,0.40056915960132,0.407075602323596,0.04,0.060167237593551,191.240884169041,0.546220927313422,0.257256930798599
1947,-0.291005474637668,0.0165483327650805,0.42170808064049,0.316872404705996,0.325327845603446,0.223658740784571,0.00691718334005006,3.71079978943675e-07,0.417215551885287,0.42258011419918,0.04,0.0561631524010478,199.188125467904,0.581003418615473,0.251906534339476
2007,-0.28789305757497,0.0372420110776237,0.413509621513697,0.318150262140524,0.308458917801605,0.23949884251502,0.0217664911872352,4.39102766094404e-07,0.433741385406445,0.438084626074764,0.04,0.0558986253263283,207.068276031806,0.609630432187801,0.249575302157412
2067,-0.284780640512272,0.0579356893901669,0.405311162386905,0.319428119575052,0.291589989999764,0.255338944245469,0.0366157990344203,4.71234320028409e-07,0.450049693675687,0.453589137950348,0.04,0.0568787195207732,214.847284690673,0.633180891211881,0.249319786190728
2127,-0.281668223449573,0.0786293677027099,0.397112703260113,0.320705977009581,0.274721062197924,0.271179045975918,0.0514651068816055,4.86412119382782e-07,0.466057267742207,0.469093649825932,0.04,0.058161354579158,222.482004636747,0.653047141916768,0.250325465361047
2187,-0.278555806386875,0.0993230460152531,0.38891424413332,0.321983834444109,0.257852134396083,0.287019147706367,0.0663144147287907,4.93581570126272e-07,0.481810059294215,0.484598161701516,0.04,0.0592384917943633,229.996160367419,0.670965423633011,0.251869234096201
2247,-0.275443389324177,0.120016724327796,0.380715785006528,0.323261691878637,0.240983206594242,0.302859249436815,0.0811637225759758,4.96968162791204e-07,0.497426579972423,0.500102673577099,0.04,0.0600165076822406,237.446075521036,0.687981292680633,0.25359637603663
2307,-0.272330972261478,0.140710402640339,0.372517325879736,0.324539549313166,0.224114278792401,0.318699351167264,0.0960130304231609,4.98567868304012e-07,0.512978880761477,0.515607185452683,0.04,0.0605589138693607,244.865739453984,0.704603089339785,0.255351349887561
2367,-0.26921855519878,0.161404080952883,0.364318866752944,0.325817406747694,0.207245350990561,0.334539452897713,0.110862338270346,0.0242273301191629,0.5278485760785,0.531111697328267,0.04,0.0615847720465515,251.950317007453,0.722490280885302,0.256234483731416
2427,-0.266106138136081,0.182097759265426,0.356120407626151,0.327095264182222,0.19037642318872,0.350379554628162,0.125711646117531,0.0791083342413005,0.542870143237742,0.546616209203851,0.04,0.0627008680635864,259.126321697464,0.745318970658257,0.255460660692174
2487,-0.262993721073383,0.202791437577969,0.347921948499359,0.328373121616751,0.173507495386879,0.366219656358611,0.140560953964716,0.133989338363438,0.558457722891353,0.562120721079435,0.04,0.0641300470712833,266.564545437647,0.768326070888391,0.254924450408517
2547,-0.259881304010685,0.223485115890512,0.339723489372566,0.329650979051279,0.156638567585039,0.38205975808906,0.155410261811901,0.188870342485576,0.574081926095242,0.577625232955019,0.04,0.0658481989855748,274.018502402675,0.790583455809072,0.254675309671256
2607,-0.256768886947986,0.244178794203055,0.331525030245775,0.330928836485808,0.139769639783198,0.397899859819508,0.170259569659087,0.243751346607713,0.58964566643413,0.593129744830602,0.04,0.0676162868589533,281.443456638389,0.812352392314812,0.254566568601924
2667,-0.253656469885288,0.264872472515598,0.323326571118982,0.332206693920336,0.122900711981357,0.413739961549957,0.185108877506272,0.298632350729851,0.605154658930732,0.608634256706186,0.04,0.0692988667435321,288.842450935247,0.833992591738744,0.254479911404498
2727,-0.251944640500804,0.276253995587497,0.318817418599246,0.332909515509326,0.113622801690345,0.422452017501704,0.193275996822224,0.328816902997026,0.621505486548029,0.62413876858177,0.04,0.0699801144357246,296.656068822855,0.853806653585295,0.255298567955211
2787,-0.251944640500804,0.276253995587497,0.318817418599246,0.332909515509327,0.113622801690345,0.422452017501704,0.193275996822224,0.328816902997026,0.637703077002005,0.639643280457354,0.04,0.0701456554692267,304.372418550479,0.866931954199507,0.25797341964205
2847,-0.251944640500804,0.276253995587497,0.318817418599246,0.332909515509326,0.113622801690345,0.422452017501704,0.193275996822224,0.328816902997026,0.653154523596866,0.655147792332938,0.04,0.0698873252911323,311.742168749548,0.879428150361162,0.260465295239007
2907,-0.251944640500804,0.276253995587497,0.318817418599246,0.332909515509327,0.113622801690345,0.422452017501704,0.193275996822224,0.328816902997026,0.668516195233448,0.670652304208521,0.04,0.0691850898221092,319.071360335486,0.892737233503921,0.262614590894515
2967,-0.251944640500804,0.276253995587497,0.318817418599246,0.332909515509326,0.113622801690345,0.422452017501704,0.193275996822224,0.328816902997026,0.683918844154858,0.686156816084105,0.04,0.0682872127878388,326.420342556715,0.906755578620601,0.264509732512118
3027,-0.251944640500804,0.276253995587497,0.318817418599246,0.332909515509327,0.113622801690345,0.422452017501704,0.193275996822224,0.328816902997026,0.699361317376062,0.701661327959689,0.04,0.0673422260213265,333.788188162626,0.921218910653749,0.266233557815088
3087,-0.251944640500804,0.276253995587497,0.318817418599246,0.332909515509326,0.113622801690345,0.422452017501704,0.193275996822224,0.328816902997026,0.714826160986833,0.717165839835273,0.04,0.0664080770506047,341.166587028917,0.935958562600621,0.267833283394272
3147,-0.251944640500804,0.276253995587497,0.318817418599246,0.332909515509326,0.113622801690345,0.422452017501704,0.193275996822224,0.328816902997026,0.73030199611704,0.732670351710857,0.04,0.0655005507672971,348.550167932692,0.950888852260244,0.269333401901004
3207,-0.251944640500804,0.276253995587497,0.318817418599246,0.332909515509326,0.113622801690345,0.422452017501704,0.193275996822224,0.328816902997026,0.74578324858585,0.748174863586441,0.04,0.0646209343482812,355.936303246326,0.965967983537278,0.27074735938534
3267,-0.251944640500804,0.276253995587497,0.318817418599246,0.332909515509326,0.113622801690345,0.422452017501704,0.193275996822224,0.328816902997026,0.761267346613052,0.763679375462024,0.04,0.063766953500895,363.323782923808,0.981174575941762,0.272083507389505
3327,-0.251944640500804,0.276253995587497,0.318817418599246,0.332909515509326,0.113622801690345,0.422452017501704,0.193275996822224,0.328816902997026,0.776753061717571,0.779183887337608,0.04,0.0629360890975352,370.712026848168,0.996496828189045,0.273347704697371
3387,-0.251944640500804,0.276253995587497,0.318817418599246,0.332909515509326,0.113622801690345,0.422452017501704,0.193275996822224,0.328816902997026,0.792239719807315,0.794688399213192,0.04,0.062126355344543,378.100720517059,1.01192787886481,0.274544419348003
3447,-0.251944640500804,0.276253995587497,0.318817418599246,0.332909515509326,0.113622801690345,0.422452017501704,0.193275996822224,0.328816902997026,0.807726949753265,0.810192911088776,0.04,0.0613361909114218,385.489677542663,1.02746364461893,0.275677273953009
3507,-0.251944640500804,0.276253995587497,0.318817418599246,0.332909515509326,0.113622801690345,0.422452017501704,0.193275996822224,0.328816902997026,0.823214482302174,0.82569742296436,0.04,0.0605644273669655,392.878782432459,1.04310181358413,0.276749312704984
3567,-0.251944640500804,0.276253995587497,0.318817418599246,0.332909515509326,0.113622801690345,0.422452017501704,0.193275996822224,0.328816902997026,0.838702173504824,0.841201934839944,0.04,0.0598101230851037,400.267961040211,1.05884115659803,0.277763190144767
3627,-0.250013530795384,0.259464033016717,0.301810229465314,0.310438105540236,0.115256675548576,0.411706721916973,0.195346142596228,0.331735653935587,0.851978327085883,0.849729416371515,0.04,0.0595766828130959,406.532813094576,1.06249223874029,0.2811412135742
3687,-0.245722175894451,0.222153005081652,0.264016475834355,0.260501638942259,0.118887506344645,0.387828287284237,0.199946466538461,0.33822176713239,0.854918375499469,0.849729416371515,0.04,0.0613551821170955,407.885971000974,1.03434147979602,0.289754042127643
3747,-0.241430820993519,0.184841977146586,0.226222722203395,0.210565172344282,0.122518337140713,0.363949852651502,0.204546790480694,0.344707880329192,0.854763654277127,0.849729416371515,0.04,0.0613646849457611,407.803634155475,1.00330193873968,0.298657975274593
3807,-0.237139466092586,0.147530949211521,0.188428968572435,0.160628705746305,0.126149167936782,0.340071418018766,0.209147114422926,0.351193993525994,0.854238606504967,0.849729416371515,0.04,0.0595398927424869,407.553481550972,0.975197643111864,0.307076541580327
3867,-0.232848111191653,0.110219921276456,0.150635214941476,0.110692239148328,0.129779998732851,0.31619298338603,0.213747438365159,0.357680106722797,0.853850921957305,0.849729416371515,0.04,0.0566580832763619,407.369843770693,0.949758406728757,0.315159502604798
