time,bias_percent_1,bias_percent_2,bias_percent_3,bias_percent_4,bias_percent_5,bias_percent_6,bias_percent_8,bias_percent_9,normalized_power,power_SP,SP,CV,total_power_MW,fuel_fraction,thermal_efficiency
38,0,0,0,0,0,0,0,0,0.999705521934366,1,0.04,0.0399509061776847,476.964492568891,0.999777038190319,0.350539988053898
98,0.0135356980605727,0.0062318136747034,0.00987751990560309,0.00342281633345635,0.0154630799259224,-0.00886121849976951,0.0170862519893728,0.022286360253024,0.989456488793255,0.984763090684029,0.04,0.0452789528264537,471.900465892721,0.982878589777859,0.352781016716812
158,0.0349078528930557,0.0160715194768666,0.0254736039670814,0.00882726317575589,0.0398784692826423,-0.0228526161309848,0.0440645446041722,0.0574753501262199,0.96636612794738,0.960704812816706,0.04,0.0534248236426497,460.862172525049,0.948381874887336,0.357061063138695
218,0.0562800077255388,0.0259112252790297,0.04106968802856,0.0142317100180555,0.064293858639362,-0.0368440137621999,0.0710428372189715,0.0926643399994157,0.942147678294036,0.936646534949384,0.04,0.0593248036201418,449.305348847977,0.913739012302971,0.361305104615008
278,0.0776521625580219,0.0357509310811929,0.0566657720900383,0.019636156860355,0.0887092479960817,-0.0508354113934149,0.0980211298337708,0.127853329872612,0.917845116173519,0.912588257082061,0.04,0.0634723022955995,437.710776664046,0.88050645680322,0.365266102468136
338,0.0990243173905051,0.0455906368833561,0.0722618561515168,0.0250406037026545,0.113124637352802,-0.0648268090246302,0.12499942244857,0.163042319745807,0.893655280442632,0.888529979214739,0.04,0.0664739580825602,426.171692814145,0.848424170819597,0.369084870701995
398,0.120396472222988,0.0554303426855192,0.0878579402129952,0.030445050544954,0.137540026709521,-0.0788182066558453,0.151977715063369,0.198231309619003,0.869639843741656,0.864471701347416,0.04,0.0688724962097614,414.714263692575,0.816319265140657,0.373287633904943
458,0.141768627055471,0.0652700484876824,0.103454024274474,0.0358494973872535,0.161955416066241,-0.0928096042870604,0.178956007678169,0.233420299492199,0.845615247302918,0.840413423480093,0.04,0.0707947334983428,403.251836203005,0.783955775014328,0.377954452748967
518,0.163140781887954,0.0751097542898457,0.119050108335952,0.041253944229553,0.186370805422961,-0.106801001918276,0.205934300292968,0.268609289365395,0.821563035748402,0.816355145612771,0.04,0.0721849314992747,391.785399871105,0.75157989550391,0.383025571835295
578,0.184512936720437,0.0849494600920088,0.13464619239743,0.0466583910718526,0.21078619477968,-0.120792399549491,0.232912592907767,0.303798279238591,0.795988460287455,0.792296867745448,0.04,0.0741886502399054,379.560106665447,0.724356754265872,0.385019496943209
638,0.20588509155292,0.094789165894172,0.150242276458909,0.0520628379141521,0.2352015841364,-0.134783797180706,0.259890885522566,0.338987269111787,0.770481264098251,0.768238589878125,0.04,0.0765431148609795,367.397434422329,0.70716975383711,0.381739515724051
698,0.227257246385403,0.104628871696335,0.165838360520387,0.0574672847564517,0.25961697349312,-0.148775194811921,0.286869178137366,0.374176258984982,0.7458005122229,0.744180312010803,0.04,0.0796866458995799,355.627647036279,0.695310889006941,0.375812448645489
758,0.248629401217886,0.114468577498498,0.181434444581866,0.0628717315987512,0.28403236284984,-0.162766592443136,0.313847470752165,0.409365248858178,0.721610864463713,0.72012203414348,0.04,0.0837277025233234,344.089273047193,0.685063166029204,0.369058483372022
818,0.27000155605037,0.124308283300662,0.197030528643344,0.0682761784410507,0.308447752206559,-0.176757990074351,0.340825763366964,0.444554238731374,0.697616791765749,0.696063756276158,0.04,0.0883943049042821,332.642477011245,0.674721883846846,0.362249325921088
878,0.291373710882853,0.134147989102825,0.212626612704823,0.0736806252833503,0.332863141563279,-0.190749387705566,0.367804055981764,0.47974322860457,0.673666300129371,0.672005478408835,0.04,0.0933713848852444,321.215730633176,0.663776802621098,0.355573519912709
938,0.299210167654763,0.137755881230285,0.218345176860698,0.0756622557921935,0.341815450994076,-0.195879566837012,0.37769609660719,0.492645858224742,0.658273355330025,0.663184109857483,0.04,0.0911780187070208,314.030568683697,0.675643928564889,0.34151416642978
998,0.299210167654763,0.137755881230285,0.218345176860698,0.0756622557921935,0.341815450994076,-0.195879566837012,0.37769609660719,0.492645858224742,0.657798340904194,0.663184109857483,0.04,0.0839876605788715,313.847427963618,0.709650005698119,0.324959351650069
1058,0.299210167654763,0.137755881230285,0.218345176860698,0.0756622557921935,0.341815450994076,-0.195879566837012,0.37769609660719,0.492645858224742,0.659545726996509,0.663184109857483,0.04,0.0808596111025627,314.6826357739,0.735134546424557,0.314528948645211
1118,0.299210167654763,0.137755881230285,0.218345176860698,0.0756622557921935,0.341815450994076,-0.195879566837012,0.37769609660719,0.492645858224742,0.660938100610096,0.663184109857483,0.04,0.0802980970505607,315.342232376555,0.751163820865342,0.30846234203169
1178,0.299210167654763,0.137755881230285,0.218345176860698,0.0756622557921934,0.341815450994077,-0.195879566837012,0.37769609660719,0.492645858224742,0.661787630097489,0.663184109857483,0.04,0.0806103506384116,315.743951510805,0.761057607098439,0.304840162760038
1238,0.299210167654763,0.137755881230285,0.218345176860698,0.0756622557921935,0.341815450994076,-0.195879566837012,0.37769609660719,0.492645858224742,0.66228455467846,0.663184109857483,0.04,0.0810573335661602,315.978962572624,0.767343441243226,0.302568045431716
1298,0.299210167654763,0.137755881230285,0.218345176860698,0.0756622557921934,0.341815450994076,-0.195879566837012,0.37769609660719,0.492645858224742,0.662585026665173,0.663184109857483,0.04,0.0814236856590442,316.121186072662,0.771482885265737,0.301080052420598
1358,0.299210167654763,0.137755881230285,0.218345176860698,0.0756622557921935,0.341815450994077,-0.195879566837012,0.37769609660719,0.492645858224742,0.662776839507885,0.663184109857483,0.04,0.0816838806980047,316.212056126147,0.774279320331828,0.300078886942561
1418,0.299210167654763,0.137755881230285,0.218345176860698,0.0756622557921934,0.341815450994076,-0.195879566837012,0.37769609660719,0.492645858224742,0.662904692276084,0.663184109857483,0.04,0.0818607225511803,316.272658713181,0.776193048961625,0.299396401753208
1478,0.299210167654763,0.137755881230285,0.218345176860698,0.0756622557921935,0.341815450994077,-0.195879566837012,0.37769609660719,0.492645858224742,0.662991898800694,0.663184109857483,0.04,0.0819800114241371,316.314004513895,0.777508716877402,0.29892884897862
1538,0.299210167654763,0.137755881230285,0.218345176860698,0.0756622557921934,0.341815450994076,-0.195879566837012,0.37769609660719,0.492645858224742,0.663051865568987,0.663184109857483,0.04,0.0820608135142108,316.342437179742,0.778413950395757,0.29860805721113
1598,0.299210167654763,0.137755881230285,0.218345176860698,0.0756622557921935,0.341815450994077,-0.195879566837012,0.37769609660719,0.492645858224742,0.663093136629877,0.663184109857483,0.04,0.0821158320790178,316.362005177139,0.779036693072331,0.298387813547461
1658,0.299210167654763,0.137755881230285,0.218345176860698,0.0756622557921935,0.341815450994076,-0.195879566837012,0.37769609660719,0.492645858224742,0.663121501139226,0.663184109857483,0.04,0.0821533993028284,316.375453394438,0.779465176264566,0.298236462665262
1718,0.299210167654763,0.137755881230285,0.218345176860698,0.0756622557921934,0.341815450994076,-0.195879566837012,0.37769609660719,0.492645858224742,0.663140967511052,0.663184109857483,0.04,0.0821790578490439,316.384682619062,0.779760276876969,0.298132291733632
1778,0.299210167654763,0.137755881230285,0.218345176860698,0.0756622557921935,0.341815450994077,-0.195879566837012,0.37769609660719,0.492645858224742,0.663154315835801,0.663184109857483,0.04,0.0821965551868566,316.391011166207,0.779963892114835,0.298060424027228
1838,0.277581082949509,0.142584779789484,0.198666298070701,0.0816089065230404,0.336144027760667,-0.202087384284708,0.353918519270782,0.484346914178422,0.663656676929284,0.661916478801852,0.04,0.0811157403121865,316.629213903689,0.774787469551255,0.300277693034595
1898,0.243429896572791,0.150209356461905,0.167594384191757,0.0909983550454307,0.327189148971072,-0.211889201307387,0.316374976108033,0.471243318315811,0.662491781281407,0.659914956082435,0.04,0.0799730523061477,316.060417475666,0.760132929128389,0.305516900217038
1958,0.209278710196074,0.157833933134325,0.136522470312814,0.100387803567821,0.318234270181477,-0.221691018330065,0.278831432945284,0.4581397224532,0.66047910862529,0.657913433363017,0.04,0.0781391991810389,315.09779969036,0.744471983369205,0.310993769346065
2018,0.175127523819356,0.165458509806746,0.105450556433871,0.109777252090211,0.309279391391883,-0.231492835352743,0.241287889782535,0.445036126590589,0.65837325171722,0.6559119106436,0.04,0.075513743067042,314.093300229155,0.729404567190266,0.316406116786279
2078,0.140976337442639,0.173083086479166,0.0743786425549276,0.119166700612601,0.300324512602288,-0.241294652375422,0.203744346619786,0.431932530727979,0.656312371394659,0.653910387924183,0.04,0.0723131237455763,313.110406549247,0.714793417147216,0.321863429266694
2138,0.106825151065921,0.180707663151586,0.0433067286759843,0.128556149134992,0.291369633812693,-0.2510964693981,0.166200803457037,0.418828934865368,0.654284957557949,0.651908865204765,0.04,0.0686692501014715,312.144504639809,0.700412361505966,0.327458725733288
2198,0.0726739646892036,0.188332239824007,0.0122348147970412,0.137945597657382,0.282414755023099,-0.260898286420778,0.128657260294288,0.405725339002757,0.652262137421409,0.649907342485348,0.04,0.064653099264698,311.178511340112,0.686179020859263,0.333216761531512
2258,0.038522778312486,0.195956816496427,-0.0188370990819021,0.147335046179772,0.273459876233504,-0.270700103443457,0.0911137171315388,0.392621743140146,0.650226226845334,0.64790581976593,0.04,0.060277842030036,310.20686934091,0.672111321343872,0.339128958510547
2318,0.00437159193576849,0.203581393168848,-0.0499090129608454,0.156724494702162,0.26450499744391,-0.280501920466135,0.0535701739687897,0.379518147277536,0.648189930383351,0.645904297046513,0.04,0.0555534192989045,309.235513767548,0.658241217945483,0.345190604786642
