time,bias_percent_1,bias_percent_2,bias_percent_3,bias_percent_4,bias_percent_5,bias_percent_6,bias_percent_8,bias_percent_9,normalized_power,power_SP,SP,CV,total_power_MW,fuel_fraction,thermal_efficiency
18,0,0,0,0,0,0,0,0,0.99926310486872,1,0.04,0.0401111691519695,476.759280870864,0.999338019377391,0.35054309923162
78,0,0,0,0,0,0,0,0,0.99993055612345,1,0.04,0.0398939907278319,477.068041192451,1.00019832481762,0.350468409433696
138,0,0,0,0,0,0,0,0,0.999992315090541,1,0.04,0.03992830557027,477.096472576769,1.00030944395129,0.350450361957417
198,0,0,0,0,0,0,0,0,1.00000025335496,1,0.04,0.0399639039294637,477.100145749571,1.00031743688152,0.350450259821987
258,0,0,0,0,0,0,0,0,1.00000230938174,1,0.04,0.039986088595979,477.10111314361,1.00030698685762,0.350454631510983
318,0,0,0,0,0,0,0,0,1.00000340161144,1,0.04,0.039998925982777,477.101629152896,1.00028850095106,0.350461487155682
378,0,0,0,0,0,0,0,0,1.00000391663224,1,0.04,0.0400058962660153,477.101870632952,1.0002657915141,0.350469621210403
438,0,0,0,0,0,0,0,0,1.00000396124559,1,0.04,0.0400091581624516,477.101888732883,1.00024191394161,0.350478000846423
498,0,0,0,0,0,0,0,0,1.00000367650409,1,0.04,0.0400100960874543,477.101750857614,1.00021914315836,0.350485878471314
558,0,0,0,0,0,0,0,0,1.00000320129876,1,0.04,0.0400096434747013,477.10152301279,1.00019889713068,0.350492805625524
618,0,0,0,0,0,0,0,0,1.00000264543424,1,0.04,0.040008439604428,477.101257648114,1.00018186770879,0.350498578282052
678,0,0,0,0,0,0,0,0,1.00000208682539,1,0.04,0.0400069148037348,477.100991292902,1.00016821433811,0.35050316728584
738,0.0749999693045086,0.0147800876777834,0.0744051183879642,0.075,-0.00799223108273065,0.0749997339638539,0.0167126543483305,0.0704439860898083,0.992014629247674,1,0.04,0.0487177985688987,473.052610264978,1.01403944060115,0.342775104960719
798,0.249999897681694,0.0492669589259445,0.248017061293213,0.25,-0.0266407702757691,0.249999113212846,0.0557088478277683,0.234813286966028,0.986857109797004,1,0.04,0.0613981275548328,470.993018311613,1.10998003389721,0.311784110865043
858,0.249999913984374,-0.0405072691934703,0.248611942905249,0.249942094478134,0.0563514608069618,0.249992632363861,0.0831426520201871,0.239349286690471,0.995825249175728,1,0.04,0.0607426062763625,475.115044399984,1.14283755689003,0.305470274132075
918,0.249999952023959,-0.249980468138771,0.25,0.249806981593779,0.25,0.249977510382896,0.147154861802498,0.249933286047505,0.998829318795132,1,0.04,0.0605402742622219,476.582456159373,1.15927776177005,0.302068349425836
978,0.0999999857974749,-0.214996409420782,0.249997564495206,0.249856933145084,0.249748583046302,0.0999900449224645,0.178008403261748,0.249952842649064,1.00503703400133,1,0.04,0.0575623356839944,479.625285645718,1.14819150096098,0.306932176674519
1038,-0.249999935397656,-0.133366939078807,0.249991881650685,0.249973486764794,0.249161943487672,-0.249980707818543,0.25,0.249998474719368,1.01036938890027,1,0.04,0.050082927019699,481.964632061473,1.08274627702353,0.327071834476145
1098,-0.100068233436625,-0.168353373986219,0.249994311338069,0.249960982334695,0.249366695187767,-0.0999865029956535,0.25,0.249998932303558,0.999790000486223,1,0.04,0.0546641661238526,476.834717728684,1.05525023232734,0.332022173428877
1158,0.249772404472447,-0.249988388770179,0.24999998060863,0.24993180533113,0.249844449154655,0.249999974924421,0.25,0.25,0.993500609410933,1,0.04,0.0606875699717661,474.094304159726,1.10015389711847,0.316640142590548
1218,0.249825363306493,-0.166090017844652,0.249993929175914,0.249950169199573,0.249889663325286,0.249999982447094,0.100000865751121,0.249999999779208,1.00303166347104,1,0.04,0.0573788684007216,478.645464150453,1.10439038313851,0.318453486334367
1278,0.249948933919266,0.0296728476482446,0.249979809166245,0.249993018225939,0.249995163056759,0.25,-0.068072115624312,0.249999999264026,1.00050709789437,1,0.04,0.0600486709968144,477.307195916359,1.08366317849217,0.323637130072714
1338,0.249963195396636,-0.0542290066462289,0.249901769338763,0.0999951127581572,0.0999966141397314,0.25,0.0467757581427152,0.249921593836571,1.00195082013016,1,0.04,0.0509033075699462,478.143817460855,1.0848819274702,0.323840190516198
1398,0.249996472177163,-0.25,0.249719676407972,-0.25,-0.25,0.25,0.249999553497686,0.249738647839178,1.00912394120109,1,0.04,0.0368966828738242,481.378060119091,1.03058215890128,0.343208747931266
1458,0.249997530524014,-0.100014416479839,0.24980377348558,-0.10003086417066,-0.199264437404484,0.25,0.249999664669445,0.249817053487424,0.997998926430911,1,0.04,0.0456939026546099,475.929609825248,1.01027003441946,0.346146488174366
1518,0.25,0.249951945067203,0.25,0.249897119431133,-0.0808814580149475,0.25,0.249999924070216,0.25,0.988807228152174,0.994697589880381,0.04,0.0592575620956832,471.75950269777,1.06254275592814,0.326233772686122
1578,0.25,0.249966256658574,0.249999991432934,0.10219252827562,-0.130997683654459,0.21340500838005,0.249999694972416,0.25,0.983529755262422,0.97702288948165,0.04,0.0569354471203248,469.237807204066,1.04995403833747,0.328380518775591
1638,0.25,0.249999650371774,0.249999971443113,-0.24245151775391,-0.247935543479986,0.128016694600166,0.249999160410885,0.25,0.97178663554509,0.959348189082919,0.04,0.0525134172060565,463.425334698022,0.971580130110008,0.35047401522898
1698,0.249578453529305,0.249999640915117,0.0999999800101791,-0.0952462478815306,-0.098638755159118,0.164368217403827,0.249999412287619,0.133789075521758,0.948931980610259,0.941673488684188,0.04,0.0579896390172523,452.568797108902,0.919587062011339,0.361614995520562
1758,0.248594845097684,0.249999618849582,-0.25,0.248232715154022,0.249720417589574,0.249188437279035,0.25,-0.000304604481896069,0.925087132337714,0.923998788285457,0.04,0.0638224250175423,441.243939950894,0.902240105134331,0.359344748372283
1818,0.0990166250505533,0.100003991237017,-0.25,0.0998197278163777,0.249804292312702,0.249431906095325,0.100168427370452,-0.000150037304299656,0.918667758089532,0.906324087886726,0.04,0.0473581757892945,438.445258598971,0.872495777067751,0.369238281129321
1878,-0.249999221726086,-0.249985806525636,-0.25,-0.246477242638125,0.25,0.25,-0.00828948540171687,0.249767289104237,0.906151660061041,0.888649387487995,0.04,0.0247296938684671,431.96514106075,0.757288243230148,0.419123645650381
1938,-0.181671331866085,-0.099998981250001,-0.100000004593212,-0.193747626763652,0.25,0.249999688393906,0.057900910442725,0.234569105317686,0.863777065406381,0.870974687089264,0.04,0.0366750903490858,411.947043856085,0.724928790487155,0.417542530500695
1998,-0.0222395888594173,0.249970277726481,0.249999984689293,-0.0707118563898824,0.25,0.249998961313021,0.249969344510729,0.199106676482402,0.84102010609851,0.853299986690532,0.04,0.0607129397284205,401.300446674959,0.826425277031431,0.356796616552195
2058,0.0592802113312276,0.249622485857212,0.249999223230946,0.025501659078948,0.249999266451184,0.249994644170902,0.249978535433399,0.06450259750523,0.838766844201088,0.835625286291801,0.04,0.0622398441165849,400.120222949911,0.833606805974429,0.35268251299614
2118,0.249493078442732,0.248810971495585,0.249997446494804,0.249999861839552,0.249997554837281,0.249984570839292,0.249999980919631,-0.00881843547515996,0.81684318952561,0.81795058589307,0.04,0.0758533553207367,389.584438136848,0.827667179778893,0.345860163910721
2178,0.249645154909913,0.249167680046909,0.249998212546363,0.249999873475781,0.16269561171278,0.249989199587505,0.249999968659102,-0.00416525038470274,0.801871307664805,0.800275885494339,0.04,0.0741487147759054,382.480452940914,0.82579898191165,0.340321649979543
2238,0.25,0.25,0.25,0.24999990062698,-0.0410089222443883,0.25,0.249999940051201,-0.00196725181272491,0.786735988167724,0.782601185095608,0.04,0.0720884485715214,375.190973609681,0.800249937681563,0.344493798948737
2298,0.249999267997317,0.25,0.249999948091373,0.249999930438886,-0.103706240540997,0.24999998232451,0.249985786507378,-0.000928995730399926,0.768657606868675,0.764926484696877,0.04,0.0723828611494993,366.609377407725,0.779471938735022,0.345587289264428
2358,0.249997559991056,0.25,0.249999826971244,0.25,-0.249999983233084,0.249999941081699,0.249952761571792,0.13990712437728,0.748588436866849,0.747251784298146,0.04,0.0729179460919561,357.041229951892,0.76529295148827,0.342803567409405
2418,0.249886773746262,0.24999999949642,0.100006773511164,0.25,-0.0999999883267221,0.249999958603909,0.249901564766049,0.172902607453056,0.730453923445143,0.729577083899415,0.04,0.0765612910329224,348.310260165297,0.751237809167256,0.34067754302618
2478,0.24962827250841,0.249999998321399,-0.24997701789569,0.25,0.249999999788122,0.249999999489064,0.249782105552649,0.2498920679632,0.713685237799234,0.711902383500684,0.04,0.0775016822694049,340.398590670503,0.748842960346076,0.334004007871511
2538,0.249739790755887,0.249993323743573,-0.0999839125269833,0.170298868520352,0.249841721497827,0.249999999642345,0.249843843322553,0.249912177982311,0.697499649150142,0.694227683101953,0.04,0.0842114724455486,332.621218209157,0.727209432357258,0.336081899224307
2598,0.25,0.249977749728646,0.25,-0.0156704382654938,0.249472405487138,0.25,0.249987898118994,0.249959101360235,0.679242102955682,0.676552982703222,0.04,0.0895976698289763,323.91916575362,0.708995654883862,0.335697222458023
2658,0.249999320937282,0.249984424810052,0.1,0.0640190144530313,0.249627733942968,0.249999949509148,0.249961365814077,0.249962565579157,0.661010074035145,0.658878282304491,0.04,0.0904902027866344,315.228451767861,0.694469605414983,0.333523809281406
2718,0.249997736457607,0.25,-0.25,0.249961070796256,0.249990167006572,0.249999831697159,0.249899457102606,0.24997064875664,0.648356857523649,0.650003202617184,0.04,0.0848043558876507,309.318758283257,0.68466417214264,0.33195814736266
2778,0.249998415520325,0.249958083705252,-0.2499533225085,0.249970571114094,0.249993116904601,0.100000176503381,0.249905922985178,0.249979454129648,0.657582447817913,0.661660571256532,0.04,0.0691758865453341,313.891742638019,0.717117138969341,0.321621049832038
2838,0.25,0.249860279017507,-0.249844408361666,0.249992738522384,0.25,-0.249999018948766,0.249921010044515,0.25,0.672432013739867,0.67331793989588,0.04,0.0559990911799102,320.869169497642,0.720994272174794,0.327002333591531
2898,0.10000952368634,0.249902195312255,-0.249883731882146,0.249992304218059,0.249999999391981,-0.249980438786451,0.192973588478349,0.25,0.684182185482551,0.684975308535227,0.04,0.0467677068780586,326.614091701583,0.735276822850962,0.32639140827549
2958,-0.249968254378867,0.25,-0.249975486763264,0.249991290841299,0.249999997973272,-0.249937085074381,0.0600962714906282,0.25,0.700367148244778,0.696632677174575,0.04,0.0286619739455513,334.102963564632,0.713788874731147,0.343926174894094
3018,-0.249964698687402,0.249975221398505,-0.249942285361159,0.24999390358891,0.249693518861131,-0.0999566192629612,0.117062323192373,0.249997175024973,0.701765873672105,0.708290045813923,0.04,0.034058456640334,334.788243042937,0.727960685072144,0.337922375472752
3078,-0.249956402073986,0.249917404661683,-0.249864815422915,0.25,0.248978400932803,0.249997800963685,0.249983110496446,0.249990583416577,0.710627031409373,0.719947414453271,0.04,0.0411632539456931,339.204623931939,0.794484222311305,0.313712022840115
3138,-0.0999707372938908,0.0999543180660385,-0.0999053707960406,0.249993965677199,0.249284880652962,0.249998105746749,0.115045352967765,0.0999938981567034,0.734155979844773,0.731604783092619,0.04,0.038037922268871,350.427689412106,0.81380226017393,0.316398342476141
3198,0.249995813859664,-0.249959550657133,0.25,0.249979885590663,0.25,0.249998816907231,-0.0399175985503251,-0.0399175985503251,0.738982065685632,0.743262151731967,0.04,0.0473127082993179,352.651180014352,0.813022590417839,0.31871125812536
3258,0.100001519867599,-0.123804002233407,0.249997453108882,0.249985919913464,0.100005830016849,0.100003563044861,-0.0324151795307678,-0.0324151795307678,0.756688248302527,0.754919520371315,0.04,0.0361370258682409,361.286367190727,0.83010287328548,0.319796961714972
3318,-0.249985166113889,0.170558944088622,0.249991510362942,0.25,-0.249980566610503,-0.249985362634004,-0.0424227995691532,-0.0424227995691532,0.776010425596211,0.766576889010663,0.04,0.0178398256259201,370.175963254507,0.768615782918435,0.353878023799363
3378,-0.249979137059058,0.194391180957793,0.249918885774037,0.100011928017365,-0.249986396627352,-0.249988328369162,-0.077772717499942,-0.077772717499942,0.781294911997841,0.778234257650011,0.04,0.0112975700365123,372.779601741214,0.749740107208444,0.36533903081689
3438,-0.249965069264454,0.249999733652525,0.249749428399925,-0.249960239942116,-0.25,-0.249995248417863,-0.13926999243935,-0.13926999243935,0.786547084272002,0.789891626289358,0.04,2.23140887870091e-07,375.24996858151,0.738616565869323,0.373298544796038
3498,-0.249951649048382,0.249999813556768,0.0998245998799476,-0.249963640924928,-0.25,-0.100003104774907,-0.0999935201045256,-0.223134780182534,0.798086602660246,0.805163629221566,0.04,1.02140264191907e-06,381.303390469935,0.790551614639931,0.354401142446619
3558,-0.249920335210882,0.25,-0.25,-0.249971576551489,-0.25,0.249978563725321,0.249999999990576,-0.173567980872868,0.817277829787261,0.821757933952448,0.04,0.0143784335737297,389.870228722327,0.798295799845083,0.358848309664522
3618,-0.249944234647617,0.249992660745677,-0.249730152160042,-0.249979858023275,-0.25,0.249984454339429,0.249964604831635,-0.196496119014964,0.819708295489505,0.821757933952448,0.04,0.0192648150513962,391.094610002085,0.815047504366333,0.352576680786755
3678,-0.25,0.249975535818924,-0.24910050720014,-0.249999181457444,-0.25,0.249998199105679,0.249882016127439,-0.249995108013188,0.820362912274515,0.821757933952448,0.04,0.0235206976890433,391.395689966377,0.822578540367135,0.349617642384275
3738,-0.100000633216909,0.249982875073247,-0.0993859752612115,-0.100010352633888,-0.100000546659035,0.249998410907478,0.249917411289207,-0.249943588176033,0.801778340076442,0.821757933952448,0.04,0.0413852923993064,382.485933242911,0.861364931223188,0.326274368365834
3798,0.24999788927697,0.25,0.249947932596289,0.249963581287743,0.249998177803218,0.249998905111675,0.25,-0.249823375222669,0.8032594239458,0.821757933952448,0.04,0.070068076652454,383.463187544159,1.00619604379441,0.28002431845987
3858,0.0999985235070326,0.249387333975582,0.099963797530598,0.0999783152557293,0.100008958808479,0.249999111102119,0.236465964678253,-0.249673501352803,0.827435811982065,0.821757933952448,0.04,0.0589840188098811,395.102043610039,1.02992937065478,0.281874967488867
3918,-0.249999996622822,0.247957779918606,-0.249999184289348,-0.249987305485636,-0.249965885512579,0.249999591746489,0.204886548927509,-0.249323795656449,0.844103860810032,0.821757933952448,0.04,0.038575211643372,402.527443350386,0.887418236540554,0.333289645867588
3978,-0.188842182792873,0.248389322443676,-0.249969048011095,-0.100066844170964,-0.0999761198588054,0.249983789689799,0.218420584249256,-0.0996763553327547,0.817115224662196,0.821757933952448,0.04,0.0542715118613673,389.531819993396,0.843628673423531,0.339270644721991
4038,-0.0461406171896593,0.249396255002172,-0.249898730028506,0.249747565563271,0.25,0.249946918224189,0.25,0.249501005422532,0.808499342814245,0.821757933952448,0.04,0.0669322053688449,385.944501170744,0.945432768752926,0.299950011542682
4098,-0.103236092946399,0.132235642573823,-0.0999373358753292,0.0998239423278094,0.249982638993409,0.0999630090169183,0.100100745356262,0.249650595454525,0.829914560094243,0.821757933952448,0.04,0.0553747985721415,396.218702361443,0.948344017710459,0.306989653482494
4158,-0.236458869712126,-0.14113911975899,0.249972583815417,-0.249997845221601,0.24994212997803,-0.249999445800046,-0.249664182145793,0.249999638862507,0.839402752521468,0.821757933952448,0.04,0.0389937329204302,400.297574515027,0.826845479275225,0.355724091310622
4218,-0.0905212087984884,-0.0799526381491235,0.0999856036960871,-0.0999984916551205,0.10000102522216,-0.249887605655939,-0.249753279827771,0.249499508032067,0.827291722674625,0.821757933952448,0.04,0.0383719636375739,394.571338137136,0.777520161776569,0.372879537707592
4278,0.25,0.0628158189405641,-0.249984016582349,0.25,-0.249861552541535,-0.249626645319689,-0.249961174419052,0.248332536094376,0.822852303569258,0.821757933952448,0.04,0.0397229005700221,392.597453327526,0.764256498537851,0.377453115288456
4338,0.100002545276345,0.118970978927182,-0.249042844051309,0.100000454900328,-0.249901426459631,-0.249738651723769,-0.234468229861966,0.0988479185652634,0.831312605886039,0.821757933952448,0.04,0.0236471202494613,396.866962895579,0.744927973297895,0.39145815139208
4398,-0.249991515745518,0.249999685562622,-0.246846774812216,-0.249998483665573,-0.249994465601857,-0.249999999999954,-0.198318025895433,-0.249949522335999,0.832573657090078,0.821757933952448,0.04,3.43646329881549e-05,397.015597221344,0.635197624800893,0.459254456913714
4458,-0.0999942084350174,0.249899073677494,-0.247792739201034,-0.249998893766129,-0.249985941272262,-0.100000000802304,-0.0638935889788974,-0.249964438808942,0.830421957853021,0.821757933952448,0.04,0.00756282810770177,395.973502996282,0.623890342594848,0.466350598855276
4518,0.249999508622817,0.249664312612194,-0.249999989441609,-0.249999850667427,-0.249966051169874,0.249999997325546,0.249763430493019,-0.249999243912476,0.804630595710146,0.821757933952448,0.04,0.0318989034779816,384.041810987683,0.776356734939447,0.363472752975731
4578,0.249953725675868,0.249761438355823,-0.100010009264165,-0.249999457432979,-0.0999766930409841,0.249969181674665,0.128351935047701,-0.220556234262192,0.808169206976286,0.821757933952448,0.04,0.0402172451572147,385.629181927119,0.840343705755438,0.337184510456572
4638,0.249846898799655,0.249988065090958,0.249966611149872,-0.249998539885935,0.249998475926425,0.249897278489275,-0.154941554324708,-0.15185587841153,0.813561167504704,0.821757933952448,0.04,0.0567008676875936,388.240951425069,0.907374500383878,0.314390524749823
4698,0.246607250351274,0.249574521139042,0.100024689659804,-0.0999991510004437,0.249997019762462,0.249928064493482,-0.0334593809574422,-0.181299075665798,0.818000419129638,0.821757933952448,0.04,0.0623437902305867,390.239491738985,0.929343283997818,0.308538759301867
4758,0.239048070638384,0.248609585251237,-0.249839793817023,0.249999423065702,0.249993622046548,0.249999898503297,0.249999023566179,-0.249999869259089,0.819703309813494,0.821757933952448,0.04,0.0652212780267586,391.136112258919,0.951724970190824,0.301975095344568
4818,0.242322585164157,0.247511961394678,-0.249887855253343,0.249850328673635,0.249994480216692,0.24996463600123,0.249972808299702,-0.249032271762662,0.823387663986325,0.821757933952448,0.04,0.0668738383666766,392.851163480304,0.94695886846119,0.304825717224642
4878,0.249963119057627,0.244950839062707,-0.249999998604757,0.249502441758811,0.249996482613695,0.249882356829741,0.249911639344591,-0.246774544270998,0.824400408731533,0.821757933952448,0.04,0.0674425462441575,393.326825453313,0.932744436511373,0.309845773096644
4938,0.249972839431714,0.246465587343895,-0.09999999902333,0.0996517731496153,0.249997537829587,0.0999176502455338,0.158593094757937,-0.170540354564147,0.827817923098712,0.821757933952448,0.04,0.0632988183590254,395.036188271015,0.909930549918313,0.318994585910437
4998,0.249995520304585,0.25,0.25,-0.249999786938506,0.25,-0.24999999845095,-0.0544835092775904,0.00733942141850662,0.831362925592779,0.821757933952448,0.04,0.0552655888186667,396.563221178977,0.847363271269131,0.343872522270821
5058,0.114113333627163,0.136432357397076,0.24999995497242,-0.0999998508569545,0.24998652356811,-0.249999998915665,0.0368615435056868,0.0801315806025916,0.818686145433825,0.821757933952448,0.04,0.0547500696577186,390.422267047825,0.828918009728081,0.34608093836221
5118,-0.202945101953487,-0.128558808676413,0.249999849908066,0.25,0.249955078560367,-0.25,0.25,0.249979952032123,0.820165340140127,0.821757933952448,0.04,0.0434422703822314,391.361097199486,0.864072570244529,0.332799074919764
5178,-0.0670616017661928,-0.164990701832984,0.249999655656766,0.249999999640552,0.249968554992257,-0.25,0.249999916312725,0.249985726437783,0.822446260166509,0.821757933952448,0.04,0.0459049226002026,392.314382153918,0.856967675209831,0.336375584311735
5238,0.249999898670828,-0.249998452531649,0.249999202403731,0.24999999880184,0.25,-0.25,0.249999721042415,0.24999920005099,0.819984933284466,0.821757933952448,0.04,0.0521433007773974,391.249434087195,0.869342561590956,0.330687254278553
5298,0.249999929069579,-0.249998916772154,0.249991007607448,0.100000004320953,0.1,-0.249998346275113,0.249999804729691,0.249893915785013,0.826540148855043,0.821757933952448,0.04,0.04350432939667,394.472382034112,0.861826535335683,0.336319010933036
5358,0.25,-0.25,0.249971886416121,-0.249999982801117,-0.25,-0.249994487583712,0.25,0.249648252497733,0.83033986146561,0.817390348179555,0.04,0.029269542284783,396.005856248418,0.785007436600654,0.370665797163243
5418,0.100020275483514,-0.249994209237468,0.249711485004276,-0.249971749024275,-0.25,-0.249996096906872,0.103256538888646,0.249753562684196,0.816928191099401,0.802831728936577,0.04,0.0240620050189494,389.812756048394,0.720509796220349,0.397530846042056
5478,-0.249932415054952,-0.249980697458227,0.249103881709973,-0.249905870211646,-0.25,-0.249999851994247,-0.066190539919749,0.249999286452609,0.80575452570535,0.788273109693599,0.04,0.01138827735052,383.735086284914,0.603635542709511,0.467101630020662
5538,-0.249952602244775,-0.0999867428196351,0.118022918374199,-0.0999341493169608,-0.100006392484099,-0.1000003949757,-0.121988937503355,0.249998481622841,0.754369146271965,0.773714490450621,0.04,0.022448584649451,359.444748128026,0.591372099142263,0.446607475350997
5598,-0.249999705687696,0.249999151337079,-0.187832662742605,0.249999866103971,0.249978691719671,0.249998338067576,-0.163807095175965,0.249996603686715,0.746753755251635,0.759155871207644,0.04,0.0432713036333225,356.356410225552,0.694559428215923,0.376990009031208
5658,-0.0999998609553795,0.170909885091102,-0.0564828639198233,0.0999999062727795,0.249985084203769,0.249991640674358,-0.179036465332095,0.249996012803719,0.743244212083933,0.744597251964666,0.04,0.0469602342264283,354.337041640512,0.714372474365896,0.364457187062483
5718,0.249999776753358,-0.0136317361495118,0.25,-0.25,0.25,0.249976013423515,-0.171760944226751,0.249994634076729,0.72902435141416,0.730038632721688,0.04,0.0592490578143028,347.774557347056,0.728248148469736,0.350891698492971
5778,0.249999167255249,0.065457681141345,0.249999984203547,-0.100000014022115,0.249993780619943,0.249983209396421,-0.0999981809053487,0.24999624385371,0.716537443747494,0.71548001347871,0.04,0.0723194514411572,341.578201624088,0.717422014649421,0.34984053199345
5838,0.249997745092993,0.249999654820011,0.249999947345158,0.249999953259616,0.249979268733145,0.249999999999866,0.249993070568184,0.25,0.6953333584578,0.700921394235733,0.04,0.0912695385669521,331.731800535208,0.758699228899031,0.321271454544736
5898,0.249998421565095,0.249999332433764,0.249999881824622,0.249999967281731,0.249980946331842,0.249999999999906,0.249993803736056,0.25,0.687360666739364,0.686362774992755,0.04,0.0906276649527367,327.841384326528,0.759882637938521,0.317009246201014
5958,0.25,0.249998580199189,0.249999728943374,0.25,0.249984860728803,0.25,0.249995514461091,0.25,0.673621901445148,0.671804155749777,0.04,0.0925381013557637,321.269812174003,0.748906282586461,0.315207920437211
6018,0.25,0.249998990845341,0.0999998102603616,0.1,0.249988161439891,0.25,0.249994966277774,0.25,0.661240983864302,0.6572455365068,0.04,0.0879236228946492,315.437420395428,0.733977215907285,0.315780501405285
6078,0.25,0.249999949019698,-0.25,-0.25,0.249995863099094,0.25,0.249993687183367,0.25,0.652685752267244,0.642686917263822,0.04,0.0736392788799697,311.239430255195,0.677769603847416,0.337417186593574
6138,0.221373543485338,0.100003694843939,-0.249999987566621,-0.1,0.249997099643456,0.100000059135402,0.109277234540808,0.100000115082683,0.645939725618448,0.628128298020844,0.04,0.0633131747555827,308.364273935388,0.614364361798106,0.36880153295014
6198,0.15457847828446,-0.249987564899497,-0.249999958555404,0.25,0.249999984913635,-0.249999802881991,-0.000875353588188781,-0.000875353588188781,0.626394700558746,0.613569678777866,0.04,0.0468271383142103,298.519171609403,0.493761294179977,0.4442320223705
6258,0.0776905096488938,-0.249920692069893,-0.249995819598636,0.25,0.249999989439544,-0.100000409474315,-0.00110823912666441,-0.00110823912666441,0.598107299052067,0.599011059534889,0.04,0.0371237032614849,285.125030943906,0.473026304290106,0.442899030701223
6318,-0.101714750500761,-0.249764655467484,-0.249986162032843,0.25,0.25,0.249998175143597,0.25,-0.00446292432326521,0.585022763547985,0.584452440291911,0.04,0.0354454434470531,279.113275755046,0.50029611529808,0.409928430135012
6378,0.00375865778900334,-0.249770231167825,-0.0999903134229903,0.249999741713145,0.249999959245536,0.2499987052424,0.25,-0.010942221592685,0.568985209279831,0.569893821048933,0.04,0.0453626003746178,271.407672552503,0.496444116625839,0.401704252101636
6438,0.249863277131786,-0.249783241135285,0.25,0.249999139043817,0.249999864151786,0.249999942139607,0.25,-0.00631794526109021,0.547180326654488,0.555335201805955,0.04,0.0713282068662289,261.110414230866,0.555451546732243,0.345408236621203
6498,0.249904000839399,-0.24984529918724,0.249986320835139,0.249999397330672,0.249999823725262,0.249997873096561,0.1,-0.00298410804607677,0.544525500981406,0.540776582562978,0.04,0.0678910863560224,259.815809564263,0.559775515751112,0.341040810292575
6558,0.24999902282383,-0.249990101308469,0.249954402783796,0.25,0.249999729396705,0.249993045329453,-0.00140932246039026,0.249999105542718,0.524861737247678,0.52621796332,0.04,0.0786336363600076,250.345552311371,0.558295408046133,0.329481094892301
6618,0.249999272765769,-0.0999930709159282,0.249960329134401,0.249999025170409,0.249964804507792,0.100138961167977,-0.000665449815969085,0.249991601145003,0.51678886559467,0.516026929849916,0.04,0.0813629810057752,246.560353976675,0.554031491409667,0.326996775574649
6678,0.249999855963628,0.25,0.249974157285813,0.249996750568029,0.249883313100327,-0.249520568542133,-0.000314070926374276,0.249974090883669,0.516206376202652,0.516026929849916,0.04,0.0814010360839899,246.213127099554,0.544627366951072,0.332174599419839
6738,0.100001253344424,0.249991613235448,0.0999819573909574,0.142254773951446,0.249901389909297,-0.249661376871992,0.0748673493715119,0.099982878680663,0.5163050069972,0.516026929849916,0.04,0.0634247501724005,246.397700016521,0.556447589191884,0.325362173593461
6798,-0.249995486100386,0.249972044118159,-0.249999842363706,-0.109143171487247,0.249943569130225,-0.249989929641662,0.249990864073919,-0.00851603902528983,0.530695757154681,0.516026929849916,0.04,0.01641516572095,252.946298895381,0.507819936541549,0.365993404069099
6858,-0.0999975086528352,0.249979544903281,-0.249998141484515,-0.151400220041073,0.249927221160617,-0.0999929507491632,0.249993440736448,-0.041039093712937,0.518525327118443,0.516026929849916,0.04,0.0280516022218285,247.12278836484,0.490705535427098,0.370038161720295
6918,0.249997772058116,0.249997046735234,-0.249994172766402,-0.25,0.249889075898199,0.25,0.249999452949014,0.249998151137893,0.503807105594482,0.516026929849916,0.04,0.0619549842496318,240.662104546821,0.575992735955857,0.307004951542407
6978,0.129243199536533,0.24997018995736,-0.0999968227847723,-0.249998573696377,0.24992182314863,0.25,0.134981871255877,0.100004291812069,0.522620300072948,0.516026929849916,0.04,0.055768928168847,249.573525772118,0.577199022723394,0.317707599802551
7038,-0.152517469680493,0.249907524142319,0.249996993839029,-0.249995245654591,0.249998233399635,0.25,-0.0144295455180836,-0.0144295455180836,0.520038337275379,0.516026929849916,0.04,0.0608994308409135,248.018968785882,0.524108213288264,0.347711142634325
7098,-0.18176222853374,0.178596009602865,0.249997580789619,-0.24967621373429,0.100030186553237,0.249999999942222,-0.00687018858398973,-0.00687018858398973,0.516207907614429,0.516026929849916,0.04,0.0452069702021231,246.418899406543,0.525472174224589,0.344571192889965
7158,-0.249999999191317,0.0122024756774741,0.249998950340996,-0.248931805920254,-0.249895256088358,0.249999999807407,0.249999989384729,-0.0112434895110536,0.522053796412371,0.516026929849916,0.04,0.0234968153000443,248.9460837731,0.501289669623879,0.3648977790359
7218,-0.249999972102269,-0.0664582670257681,0.249990937976814,-0.0992733469838187,-0.249925680719633,0.249999961053447,0.24999559052814,-0.0347226191467036,0.514498974774738,0.516026929849916,0.04,0.0270908271472795,245.397186587379,0.498167880616855,0.361949959752775
7278,-0.249999908894488,-0.25,0.249972242460391,0.249929723867864,-0.249996671525942,0.249999870627542,0.249985326529434,-0.0613692458268248,0.515854220379878,0.516026929849916,0.04,0.0316973203998672,246.1421593879,0.508370481015896,0.355762655124476
7338,-0.100005874150668,-0.100061721350637,0.243480100149179,0.206906981445767,-0.249997670068159,0.225787701353072,0.249972202190321,0.020457117990324,0.515381206791425,0.516026929849916,0.04,0.0430152531868332,245.80161989499,0.508430795348017,0.355228309701341
7398,0.249980206918245,0.249794262164544,0.228331768089685,0.106520582460876,-0.25,0.169292639712644,0.249941578732389,0.24999965386014,0.504881080319297,0.516026929849916,0.04,0.0712788968038532,241.083042807371,0.600803607427907,0.294841633652571
7458,0.248445694058486,0.249855270103053,0.234832121507075,0.10756809091749,-0.249989511495731,0.0841317925202136,0.249959105112672,0.249984451474835,0.518242959116591,0.516026929849916,0.04,0.0697398963394442,247.326200077359,0.608074583262749,0.298860108979211
7518,0.244865164052382,0.249997621959571,0.249999612814319,0.110012277316256,-0.249965038319102,-0.11457685092879,0.25,0.249948979242459,0.521012031474054,0.516026929849916,0.04,0.0701982521823247,248.535593844024,0.576580091511579,0.316725935977581
7578,0.107593154743544,0.2499983353717,0.174005820936357,0.00208960408754513,-0.249975526716109,-0.0094164263458299,0.176605027555394,0.100996438850138,0.522753013070824,0.516026929849916,0.04,0.0583491977919757,249.601061551647,0.554193417641952,0.330932744590846
7638,-0.212708200310409,0.25,-0.00331302677888874,-0.249729966779446,-0.249999999642459,0.235957897681078,0.00535009185131195,-0.00848521100516487,0.528935130319371,0.516026929849916,0.04,0.0249477313014955,252.158509468879,0.473638762730525,0.391183985404181
7698,-0.22328282384125,0.249987640608741,0.0726240796570259,-0.249810878060838,-0.249987603697895,0.128824350789221,0.0787423830367815,-0.0289296833964464,0.515448294089655,0.516026929849916,0.04,0.020306596824298,245.799035748502,0.458646452974128,0.393782862797379
7758,-0.247956945413211,0.249958802029135,0.249810661340827,-0.249999671050751,-0.249958679827244,-0.121153925291777,0.249991062469544,-0.0680745596242234,0.515026279910769,0.516026929849916,0.04,0.0149191620646158,245.766710788789,0.471336941148171,0.383130083619526
7818,-0.248385845646435,0.0999746901108196,0.0998704315314019,-0.249877617106703,-0.249786706423888,-0.159807747704244,0.100273945490702,-0.122279021744913,0.521710099760652,0.516026929849916,0.04,3.99237316689909e-07,248.831136015517,0.466979287738514,0.391527057199824
7878,-0.249386612857291,-0.249988237698583,-0.249990104690589,-0.24959282457059,-0.24938543514939,-0.25,-0.199695800377752,-0.199695800377752,0.462001300582228,0.516026929849916,0.04,8.8181366355659e-11,220.767180746751,0.729854632871315,0.222255654467317
7938,-0.218068273999039,-0.0999917667008436,-0.249993072055666,-0.143109394748649,-0.249569804604573,-0.25,-0.0993462080743353,-0.249722103999655,0.520785839119147,0.516026929849916,0.04,7.43563144285498e-08,249.370457764997,0.855638371646084,0.214145733513167
7998,-0.144992149996453,0.249999998960549,-0.249999995907511,0.105351941502546,-0.25,-0.25,0.249999959380935,-0.249073679998852,0.530553344924294,0.516026929849916,0.04,0.0385411036790018,252.96824531738,0.654468287678052,0.284008983203744
8058,-0.0264945049975174,0.249547546279849,-0.249999997135258,0.14874635903568,-0.249965930115252,-0.249900060543112,0.12553556700559,-0.249021002654421,0.526061327652794,0.516026929849916,0.04,0.0503601748279539,250.903501956365,0.59593712429583,0.309357720031939
8118,0.25,0.248491823358215,-0.25,0.249999999946328,-0.249886433717506,-0.249666868477039,-0.164881348536881,-0.24889808885075,0.523396793410922,0.516026929849916,0.04,0.0639395104306098,249.666383330113,0.543338140140889,0.337632741059419
8178,0.100001647080853,0.248944276350751,-0.249999898523087,0.186171130371767,-0.249917867813105,-0.249766807933927,-0.0404169439872449,-0.0992286621955253,0.511634509603275,0.516026929849916,0.04,0.0628347764283945,243.974241279827,0.529167487314361,0.338770433302629
8238,-0.249994509730489,0.25,-0.249999661743623,0.0372371013644575,-0.24999121403617,-0.25,0.249999999961906,0.25,0.525149460942073,0.516026929849916,0.04,0.0470975354247532,250.453199992628,0.531062900379498,0.346525579296526
8298,-0.249687727090645,0.25,-0.249999763181359,0.101065929913863,-0.249993849825319,-0.2190638636896,0.100021608411049,0.238681258906897,0.518614635406086,0.516026929849916,0.04,0.0413486765951632,247.361445921829,0.519264251136875,0.350024353894973
8358,-0.248971900931007,0.25,-0.24999999986941,0.249999863195811,-0.25,-0.146879545631999,-0.249927971874285,0.212270863022991,0.516494921093189,0.516026929849916,0.04,0.0310135821088183,246.445036128109,0.509768232964145,0.3552237405481
8418,-0.249280329862597,0.1,-0.249996987970876,0.249925246133221,-0.1,-0.0278402363414632,-0.249358741370475,0.0735896512691085,0.511670435543662,0.516026929849916,0.04,0.027630004015377,244.073963081712,0.511993660677667,0.350276938718715
8478,-0.249999997369641,-0.25,-0.249989960207631,0.249751139653846,0.25,0.24991815200312,-0.248030536861586,-0.249999842823285,0.522849970642483,0.516026929849916,0.04,0.0262262901890276,249.307540082868,0.486107065310674,0.376841007708355
8538,-0.249999998158749,-0.100000000625329,-0.249992966603842,0.193633258471906,0.249999999228303,0.249942587851438,-0.0986213793389684,-0.249999286185288,0.513142473022186,0.516026929849916,0.04,0.0348055492651465,244.441249876332,0.489277384248002,0.367091247688793
8598,-0.25,0.249999997915569,-0.249999981528334,0.0626915357140475,0.249999997427677,0.249999604830847,0.249999988213807,-0.249997987363293,0.503484167927799,0.516026929849916,0.04,0.0482791338391954,240.472696036485,0.580062339025246,0.304611138092427
8658,-0.169918166351046,0.249999985985265,-0.100014538325629,-0.0311159172160569,0.249977769094871,0.249951747737111,0.249998741944696,-0.0999985911543053,0.509204672361834,0.516026929849916,0.04,0.0610756388538958,242.649293009409,0.611006938972577,0.291801529649089
8718,0.0169394454965146,0.249999958147889,0.249951495814015,-0.249999974052967,0.249925902984989,0.249840081185062,0.249995833983438,0.25,0.507355387960706,0.516026929849916,0.04,0.083934481728855,242.258321435962,0.687526984034196,0.258906904328903
8778,-0.03883701986649,0.249996386498326,0.0999677821671089,-0.24999963214483,0.249945793855111,0.249745094360684,0.249995608776442,0.100000001345483,0.525136881616219,0.516026929849916,0.04,0.0771668659838021,250.771083164176,0.672946474368256,0.273811453044911
8838,-0.1689821057135,0.249988052649346,-0.249994216342339,-0.249998834359177,0.249992205885395,0.249523458437135,0.24999508329345,-0.176316045950747,0.531543598792034,0.516026929849916,0.04,0.0628824147889697,253.344743876231,0.562268186648551,0.331072465534412
8898,-0.043288333384648,0.0999916386500282,-0.10399732445987,-0.1000024889479,0.214530946886932,0.249654995401491,0.099996558305415,-0.107608807272415,0.523133525923388,0.519523075103676,0.04,0.0602583795144352,249.516325098604,0.52647828482084,0.34823560961462
8958,0.249997135382674,-0.249999994015047,0.236662089932556,0.249988983678414,0.131788009223854,0.249961914984986,-0.0525910297087355,-0.0525910297087355,0.522528258372761,0.531176892616213,0.04,0.0651911014220791,249.413242276059,0.553825322031756,0.330903511340054
9018,0.249993896206172,-0.100065272312203,0.0906634629530417,0.248949209360175,0.0172516064789317,0.249966239145782,-0.0248561866841784,-0.0248561866841784,0.538046927610665,0.542830710128749,0.04,0.0460445121156414,256.883831648702,0.597173365867169,0.316075633437746
9078,0.249986338127665,0.2497824116611,-0.249999999999157,0.246523069284285,-0.249999999925886,0.249976328854306,-0.0130849961131928,-0.0130849961131928,0.554924947706128,0.554484527641286,0.04,0.0380088720508536,264.809816588801,0.596280780875016,0.326315681809008
9138,0.249985441915974,0.249847618359379,-0.100002005289983,0.0975669440302774,-0.249999960064673,0.24997690584562,0.0676297612606243,-0.00991728136809244,0.562457174288281,0.566138345153822,0.04,0.0419243289805428,268.362664343774,0.606369623876394,0.325191611416523
9198,0.249983350755362,0.249999767322028,0.249993315698092,-0.249997348229074,-0.249999867055174,0.249978252158684,0.25,-0.00549179248343193,0.573237264705161,0.577792162666358,0.04,0.0444873227470136,273.6254566236,0.639800910054956,0.314243513653087
9258,0.249959406775294,0.249999589714726,0.0999953209886642,-0.249998143760352,-0.0999999069386217,0.24998426701518,0.249985192168641,-0.00259386295802242,0.58610406345344,0.589445980178895,0.04,0.0455036242479683,279.707988234646,0.657923627395485,0.312380605830057
9318,0.249903537488468,0.249999175297689,-0.25,-0.25,0.25,0.249998301680335,0.249950640562136,-0.00122536623613385,0.599491497361985,0.601099797691431,0.04,0.0439081802705431,286.115124988191,0.67476480695436,0.311560985934058
9378,0.249925664208098,0.24998885444096,-0.249980565565094,-0.249999995855424,0.10000115182633,0.249998811176235,0.249920585339048,-0.000615129872354865,0.614763985269161,0.612753615203968,0.04,0.0405560163268401,293.481049587595,0.676932829720179,0.318558474500311
9438,0.249977293220567,0.249964772441925,-0.249935218550312,-0.249999986184746,-0.249996160578899,0.25,0.249850456485178,-0.00524069678093416,0.628881165576167,0.624407432716504,0.04,0.032688920415944,300.053873196522,0.644182664171369,0.342251121761636
9498,0.249983314453514,0.249973795373351,-0.249954652985218,-0.100049165180377,-0.249997150662338,0.25,0.249714901686034,-0.0171742021529842,0.633782875816044,0.63606125022904,0.04,0.0377611490231204,302.370805896256,0.642044896488416,0.346042256649997
9558,0.249997363997057,0.249994848880011,-0.25,0.249836083829817,-0.249999460857028,0.25,0.2493986071547,0.0896914056015631,0.639411355051364,0.647715067741577,0.04,0.0468457358145703,305.233121630563,0.691756997214796,0.324214753554206
9618,0.249805217444054,0.249995913516135,-0.249998416250296,0.104867702423802,-0.100000907968839,0.249998915825356,0.249579005390971,0.116744389525852,0.654542712532094,0.659368885254113,0.04,0.045491467242707,312.358841849648,0.720792466105843,0.318418462890522
9678,0.249356875487048,0.24999839766709,-0.24999472083432,-0.233391854190235,0.249995715436934,0.249996386084521,0.249999934608936,0.179868018682525,0.667264831918041,0.671022702766649,0.04,0.0459061689424843,318.478701287637,0.751363109388844,0.311447752852448
9738,0.249549811687819,0.249998878366963,-0.0999963045840242,-0.223191920718104,0.169025571527463,0.249977099833897,0.2499796294107,0.111120012283628,0.682454587260516,0.682676520279186,0.04,0.0488727306562061,325.717108001676,0.761083447494525,0.314458232943836
9798,0.249999996156285,0.25,0.25,-0.199392075949798,-0.0199047642613017,0.249932098582441,0.249932250614816,-0.00154842646155969,0.692896309462586,0.694330337791722,0.04,0.0544469728050377,330.643165639539,0.761190831312501,0.319168981770994
9858,0.249999997309399,0.25,0.249843066190867,-0.0645744531648585,-0.0889333270155852,0.249874149136078,0.0999525754303712,0.0404955981470061,0.705802100477064,0.705984155304259,0.04,0.0514355548592582,336.784944178934,0.773023830652861,0.320121219094068
9918,0.25,0.25,0.249476887302889,0.25,-0.249999973442246,0.249738933761233,-0.000345108964467088,0.25,0.710309141814397,0.717637972816795,0.04,0.0559997373143661,339.021042981338,0.808601240838219,0.308068240718931
9978,0.249794632965349,0.25,0.0996344387767504,0.25,-0.249121156860726,0.249659361657603,-0.000162753340580293,0.177634818178986,0.729340917666591,0.729291790329331,0.04,0.0479224785153581,348.195776343879,0.831577733285337,0.307663037267444
10038,0.24931544321783,0.25,-0.249997941117572,0.25,-0.247070584837177,0.249473693415799,-0.00129789043852855,0.00878272726328573,0.746966689507632,0.740945607841868,0.04,0.0380757765719959,356.38752708721,0.790470474996936,0.331277178979923
10098,0.248643920301583,0.24999923283982,-0.249998558741434,0.247609718742269,-0.143291831742596,0.249491023623239,-0.00382729788581867,0.0811478567191849,0.746935920765631,0.749103280100643,0.04,0.0438912293867974,356.281669122365,0.785670253985024,0.333202187374882
10158,0.247077033497008,0.2499974427994,-0.249999999863777,0.242032395807562,0.0988585921447611,0.249531460773932,-0.00196326018072915,0.249999825449616,0.745125403791836,0.749103280100643,0.04,0.051437423491693,355.57781415493,0.81942271924625,0.31884626292374
10218,0.0979539330847584,0.249969031113916,-0.249906296412379,0.244422677065293,-0.00328642573777381,0.249672022541753,-0.000958533316130753,0.0999999281191429,0.758428488813148,0.749103280100643,0.04,0.0428716169009211,362.097555613541,0.805961882468404,0.330115386306426
10278,-0.249999967877157,0.249902737181119,-0.249687655025784,0.25,-0.241624800797022,0.25,0.25,-0.00407899956011109,0.756034439940544,0.749103280100643,0.04,0.0339139123802192,360.576080203886,0.743577636174387,0.356307751082417
10338,-0.0999999775140099,0.249927146959626,-0.0997813585180489,0.100008407413374,-0.0941385808695662,0.25,0.249999864182968,-0.0135708087952677,0.746032325403701,0.749103280100643,0.04,0.0416823664129645,355.659499152448,0.732625447164636,0.356703268954198
10398,0.25,0.249984103109477,0.25,-0.249971975288753,0.249995932294497,0.25,0.249999547276561,-0.0102692962967902,0.740662580598946,0.749103280100643,0.04,0.0578026400572197,353.468011484274,0.794175296683152,0.32703062097967
10458,0.249999895347178,0.249988872176634,0.25,-0.0999803827021271,0.249997111531314,0.249999969606015,0.249984263108877,-0.00485058525791662,0.745644360317922,0.749103280100643,0.04,0.0611183930460043,355.716819506469,0.816198813912832,0.3202308127138
10518,0.249999651157261,0.25,0.25,0.25,0.249999863083886,0.249999898686717,0.249948600050947,-0.00229097954832645,0.74378769409189,0.749103280100643,0.04,0.069550278091861,354.891182781298,0.848866178573749,0.307192533342435
10578,0.249992393284497,0.25,0.249985081320253,0.249975329688054,0.100003901493815,0.249994688967284,0.24995801678685,-0.00108191315937007,0.748734767360933,0.749103280100643,0.04,0.0654963919681682,357.302121347728,0.865434496432165,0.303358430448192
10638,0.249975458248048,0.25,0.249950271067509,0.249917765626847,-0.249986675549684,0.249982532955273,0.249979989170622,0.25,0.74786681993399,0.749103280100643,0.04,0.0640747014323393,356.846403562801,0.870806651081919,0.301102431747801
10698,0.249982820773634,0.25,0.249965189747256,0.249938771681366,-0.201269665376412,0.249977757612205,0.249981381776514,0.25,0.74937686897772,0.749103280100643,0.04,0.0674907773677746,357.510867544364,0.868430199160356,0.302488596483242
10758,0.25,0.25,0.25,0.24998778580858,-0.0875966416387748,0.249966615145049,0.24998463119026,0.25,0.748401288679833,0.749103280100643,0.04,0.0709313177287972,357.073021077836,0.872729693667648,0.300629754124453
10818,0.249981838581133,0.249993832709554,0.229764631821519,0.249991450066006,0.0136823508528577,0.249963909744868,0.249987677841933,0.249999831057333,0.747766454696465,0.749103280100643,0.04,0.0733067516789745,356.723301389974,0.875835911055165,0.299270153749024
10878,0.24993946193711,0.24997944236518,0.182548772738396,0.25,0.25,0.249957597144448,0.249994786695838,0.249999436857776,0.746289352294017,0.749103280100643,0.04,0.0763993496249835,356.079654143075,0.894193115073944,0.292597434616745
10938,0.249956828552835,0.249985458706653,0.202784138503661,0.100000728161251,0.100000317746975,0.249970318001113,0.106275961982493,0.0999996058004429,0.760689787725503,0.749103280100643,0.04,0.0629874836251198,363.285123249092,0.881311989031329,0.302881405363167
10998,0.249997350656191,0.249999496836757,0.249999991955945,-0.249997572795829,-0.249998940843417,0.25,-9.25266697874974e-06,-9.25266697874974e-06,0.762560143460819,0.749103280100643,0.04,0.0509358708800402,363.673885965386,0.768941765995528,0.347514830047796
11058,0.249980574439371,0.24999964778573,0.100000115654774,-0.24999830095708,-0.0999992588166806,0.249999991291779,-4.10681182359015e-06,-4.10681182359015e-06,0.750775691878577,0.749103280100643,0.04,0.0496797521595839,358.127811339939,0.738622931835281,0.356262357884585
11118,0.249941429933458,0.25,-0.249999595714623,-0.25,0.249999999245703,0.249999970972595,0.249999865686144,0.249999096134166,0.740582003481182,0.749103280100643,0.04,0.0512794655476096,353.474745862441,0.794405868946562,0.326941930881765
11178,0.249959000953421,0.100003034183886,-0.249997819701221,-0.249995166680188,0.249999938444218,0.249999979680817,0.249999891210252,0.154630729423267,0.754904185658836,0.749103280100643,0.04,0.0440102569975041,360.323576462949,0.792676803957441,0.334003644880484
11238,0.25,-0.249989886053715,-0.24999367566995,-0.249983888933959,0.249999796574086,0.25,0.249999950766504,-0.00341589203495867,0.757343090585102,0.749103280100643,0.04,0.0343428011433771,361.197168614931,0.724521660863357,0.366309042495395
11298,0.249998671489325,-0.249992920215809,-0.249991546485586,-0.249988722252967,0.249997470823056,0.100000153959825,0.0999999860553933,-0.0140470576604545,0.758684220870685,0.749103280100643,0.04,0.0225899483095518,362.090969454282,0.692908028362836,0.383969542767987
11358,0.249995571631084,-0.249999999927362,-0.249986578388737,-0.249999999997321,0.249992044070652,-0.249999486800585,-0.0503622722189875,-0.0503622722189875,0.756205945445363,0.749103280100643,0.04,0.00470789043502777,360.701889500943,0.627994295611242,0.422033955951211
11418,0.249995365634299,-0.100128589080962,-0.249988401353811,-0.249999999998125,0.249981376983926,-0.249999640760409,-0.117624783835456,-0.0999918442900065,0.748418484802956,0.749103280100643,0.04,0.00478571532381745,356.972866120195,0.609544475012663,0.430313016631491
11478,0.249994884975133,0.249571369560639,-0.249992654938984,-0.25,0.249956487114899,-0.25,-0.186309879598024,0.25,0.738686005415004,0.749103280100643,0.04,0.0238950967282135,352.624150406441,0.694993544737502,0.372808631021424
