time,bias_percent_1,bias_percent_2,bias_percent_3,bias_percent_4,bias_percent_5,bias_percent_6,bias_percent_8,bias_percent_9,normalized_power,power_SP,SP,CV,total_power_MW,fuel_fraction,thermal_efficiency
6,0,0,0,0,0,0,0,0,0.996799603590943,1,0.04,0.0407324554238744,475.578882305307,1.0005474109817,0.349252533855318
66,-0.00203612931877183,0.000684502484026439,-0.000445600173075832,-0.00113577873203315,0.00351181095142647,0.00112125746801939,0.00332387885942472,-0.0028415247455851,0.999382186481343,0.996378321141257,0.04,0.040537623990625,476.720299408097,0.995978498326903,0.351696752948535
126,-0.0223974225064909,0.00752952732429173,-0.00490160190383358,-0.0124935660523645,0.0386299204656913,0.0123338321482133,0.0365626674536726,-0.0312567722014358,0.971271674783619,0.960161532553831,0.04,0.0508921182586263,463.119472021425,0.935570319275892,0.363723433609756
186,-0.0427587156942099,0.014374552164557,-0.00935760363459121,-0.0238513533726956,0.0737480299799562,0.0235464068284074,0.0698014560479203,-0.0596720196572865,0.935239445627244,0.923944743966404,0.04,0.0587602874021567,445.907708876141,0.865360094741902,0.378619338653473
246,-0.0631200088819288,0.0212195770048222,-0.0138136053653488,-0.0352091406930268,0.108866139494221,0.0347589815086013,0.103040244642168,-0.0880872671131372,0.898183619241789,0.887727955378978,0.04,0.0627661785701405,428.22836426959,0.799020566902178,0.393796768507125
306,-0.0834813020696478,0.0280646018450874,-0.0182696070961067,-0.0465669280133581,0.143984249008486,0.0459715561887953,0.136279033236416,-0.116502514568988,0.86109060007296,0.851511166791552,0.04,0.0639873839057769,410.531526545743,0.737953091150978,0.408763805949469
366,-0.103842595257367,0.0349096266853526,-0.0227256088268646,-0.0579247153336893,0.179102358522751,0.0571841308689892,0.169517821830664,-0.144917762024839,0.824075596837826,0.815294378204125,0.04,0.0633815147686156,392.872637531358,0.681891639710602,0.423341742377676
426,-0.124203888445086,0.0417546515256179,-0.0271816105576222,-0.0692825026540205,0.214220468037016,0.068396705549183,0.202756610424911,-0.173333009480689,0.787134716826711,0.779077589616699,0.04,0.0616587326187644,375.248258341446,0.630259677207877,0.437475603358008
486,-0.144565181632805,0.0485996763658829,-0.03163761228838,-0.0806402899743517,0.249338577551281,0.0796092802293771,0.235995399019159,-0.153211643953116,0.748669786155523,0.742860801029272,0.04,0.0603360177516393,356.88596687079,0.587243187055746,0.446545956007939
546,-0.164926474820524,0.0554447012061481,-0.0360936140191377,-0.091998077294683,0.284456687065545,0.090821854909571,0.269234187613407,-0.0991339316899658,0.7114503176188,0.706644012441846,0.04,0.0588783268178927,339.14135941214,0.555280533006401,0.448769140035381
606,-0.185287768008243,0.0622897260464134,-0.0405496157498954,-0.103355864615014,0.31957479657981,0.102034429589765,0.302472976207655,-0.0504303663152245,0.674875211234217,0.670427223854419,0.04,0.0587005679641718,321.692284437993,0.526050528812374,0.449332528465934
666,-0.205649061195962,0.0691347508866787,-0.0450056174806531,-0.114713651935345,0.354692906094075,0.113247004269959,0.335711764801903,-0.0238212414499139,0.638236517284568,0.634210435266993,0.04,0.0602398217222008,304.212312045895,0.499257746463952,0.447720160709556
726,-0.226010354383681,0.0759797757269439,-0.0494616192114108,-0.126071439255677,0.38981101560834,0.124459578950153,0.368950553396151,-0.0112520405008787,0.601821461738388,0.597993646679567,0.04,0.0631868460316407,286.840014937389,0.474155067307094,0.444502304091347
786,-0.2463716475714,0.0828248005672091,-0.0539176209421686,-0.137429226576008,0.424929125122605,0.135672153630347,0.402189341990398,-0.00531479854734333,0.565519024781712,0.56177685809214,0.04,0.067278348228426,269.520763724944,0.449756024033439,0.440321524537858
846,-0.266732940759119,0.0896698254074743,-0.0583736226729264,-0.148787013896339,0.46004723463687,0.146884728310541,0.435428130584646,-0.00251025733921452,0.529286493491022,0.525560069504714,0.04,0.0723009682931792,252.23535234223,0.425595950882455,0.435474916348342
906,-0.285058104628066,0.095830347763713,-0.0623840242306083,-0.159009022484637,0.491653533199708,0.156976045522715,0.465343040319469,-0.00118549216210912,0.493301035203347,0.49296495977603,0.04,0.0774948136386271,235.082448514493,0.405342006330619,0.426140949258367
966,-0.285058104628066,0.095830347763713,-0.0623840242306083,-0.159009022484637,0.491653533199708,0.156976045522715,0.465343040319469,-0.000559720371206498,0.488144964645745,0.49296495977603,0.04,0.0587222198889621,232.886991073479,0.432320422604479,0.395816736918388
