time,bias_percent_1,bias_percent_2,bias_percent_3,bias_percent_4,bias_percent_5,bias_percent_6,bias_percent_8,bias_percent_9,normalized_power,power_SP,SP,CV,total_power_MW,fuel_fraction,thermal_efficiency
31,0,0,0,0,0,0,0,0,0.999611393524587,1,0.04,0.0399885483229303,476.919119724913,0.999627123061136,0.350559207613186
91,0.0110422799967829,0.00508384799778435,0.00805797676509724,0.00279229753518803,0.0126146178343052,-0.00722888877612775,0.0139387845176463,0.0181809781011511,0.99188357156145,0.98756988976855,0.04,0.0442208074728608,473.065601458353,0.986538314041034,0.352340113252533
151,0.032414434829266,0.0149235537999475,0.0236540608265756,0.00819674437748768,0.0370300071910249,-0.021220286407343,0.0409170771324456,0.053369967974347,0.969163528503062,0.963511611901227,0.04,0.0525914501052261,462.197619244834,0.952491462563591,0.356550696157405
211,0.0537865896617491,0.0247632596021107,0.0392501448880541,0.0136011912197872,0.0614453965477447,-0.0352116840385581,0.0678953697472449,0.0885589578475428,0.944983610361814,0.939453334033905,0.04,0.0587394701817658,450.658411476484,0.917712711223757,0.360823994995217
271,0.0751587444942322,0.034602965404274,0.0548462289495326,0.0190056380620867,0.0858607859044645,-0.0492030816697733,0.0948736623620441,0.123747947720739,0.920678939579325,0.915395056166582,0.04,0.0630583840512561,439.062763470378,0.884310356754673,0.364818263195979
331,0.0965308993267153,0.0444426712064371,0.0704423130110109,0.0244100849043863,0.110276175261184,-0.0631944793009884,0.121851954976843,0.158936937593934,0.896462567712848,0.89133677829926,0.04,0.0661615372210953,427.510875477372,0.852151779789853,0.368625087067147
391,0.117903054159198,0.0542823770086003,0.0860383970724894,0.0298145317466858,0.134691564617904,-0.0771858769322037,0.148830247591643,0.19412592746713,0.872440671401228,0.867278500431937,0.04,0.0686170487150928,416.050553505561,0.82008089966259,0.372772686399218
451,0.139275208991681,0.0641220828107635,0.101634481133968,0.0352189785889854,0.159106953974624,-0.0911772745634187,0.175808540206442,0.229314917340326,0.848420163911556,0.843220222564614,0.04,0.0705958769057849,404.590102985673,0.787738556687436,0.377387775508292
511,0.160647363824165,0.0739617886129265,0.117230565195446,0.0406234254312848,0.183522343331343,-0.105168672194634,0.202786832821241,0.264503907213522,0.824358484868182,0.819161944697292,0.04,0.0720678688209762,393.109923248159,0.755327277974563,0.382413762915269
571,0.182019518656648,0.0838014944150898,0.132826649256925,0.0460278722735843,0.207937732688063,-0.119160069825849,0.229765125436041,0.299692897086718,0.799014224433035,0.795103666829969,0.04,0.0739397898243023,381.003310449973,0.726949515526846,0.385105014805718
631,0.203391673489131,0.0936412002172531,0.148422733318403,0.051432319115884,0.232353122044783,-0.133151467457064,0.25674341805084,0.334881886959914,0.773410460172324,0.771045388962646,0.04,0.0762360699054108,368.794128648195,0.708805832543348,0.382306244733198
691,0.224763828321614,0.103480906019416,0.164018817379881,0.0568367659581834,0.256768511401503,-0.147142865088279,0.283721710665639,0.37007087683311,0.748647447761054,0.746987111095324,0.04,0.0792707336488071,356.9854561736,0.696560896355524,0.376570338715743
751,0.246135983154097,0.113320611821579,0.17961490144136,0.0622412128004829,0.281183900758222,-0.161134262719494,0.310700003280438,0.405259866706305,0.72441864867479,0.722928833228001,0.04,0.0832174452352019,345.428687433513,0.686244943571314,0.369857066843241
811,0.26750813798658,0.123160317623743,0.195210985502838,0.0676456596427824,0.305599290114942,-0.17512566035071,0.337678295895238,0.440448856579501,0.70041203940209,0.698870555360679,0.04,0.0878285352860156,333.976050707947,0.675956247069994,0.36303743914228
871,0.288880292819063,0.133000023425906,0.210807069564317,0.0730501064850821,0.330014679471662,-0.189117057981925,0.364656588510037,0.475637846452697,0.676460628908881,0.674812277493356,0.04,0.0927827478798083,322.548917641285,0.665087210505374,0.356345819874929
931,0.299210167654763,0.137755881230285,0.218345176860698,0.0756622557921935,0.341815450994076,-0.195879566837012,0.37769609660719,0.492645858224742,0.658834105008504,0.663184109857483,0.04,0.092150244819707,314.286373109293,0.671860004323408,0.343717337555293
991,0.299210167654763,0.137755881230285,0.218345176860698,0.0756622557921935,0.341815450994076,-0.195879566837012,0.37769609660719,0.492645858224742,0.657638218854835,0.663184109857483,0.04,0.0846200045342011,313.769335325981,0.705974585100642,0.326569865343192
1051,0.299210167654763,0.137755881230285,0.218345176860698,0.0756622557921934,0.341815450994076,-0.195879566837012,0.37769609660719,0.492645858224742,0.659345781252828,0.663184109857483,0.04,0.0810495785084106,314.587683908725,0.732708013131536,0.31547536474463
1111,0.299210167654763,0.137755881230285,0.218345176860698,0.0756622557921935,0.341815450994076,-0.195879566837012,0.37769609660719,0.492645858224742,0.66080656676853,0.663184109857483,0.04,0.0802959393278325,315.280005966487,0.749670978585038,0.309015602322355
1171,0.299210167654763,0.137755881230285,0.218345176860698,0.0756622557921934,0.341815450994076,-0.195879566837012,0.37769609660719,0.492645858224742,0.661710446300567,0.663184109857483,0.04,0.0805593008732003,315.707458311931,0.760126660474839,0.305178232222138
1231,0.299210167654763,0.137755881230285,0.218345176860698,0.0756622557921935,0.341815450994077,-0.195879566837012,0.37769609660719,0.492645858224742,0.662239005549383,0.663184109857483,0.04,0.0810077632153117,315.957413254693,0.766741235671437,0.302785034219936
1291,0.299210167654763,0.137755881230285,0.218345176860698,0.0756622557921934,0.341815450994077,-0.195879566837012,0.37769609660719,0.492645858224742,0.662556760368468,0.663184109857483,0.04,0.0813866560956507,316.10780036107,0.771080571296265,0.301224386517477
1351,0.299210167654763,0.137755881230285,0.218345176860698,0.0756622557921934,0.341815450994076,-0.195879566837012,0.37769609660719,0.492645858224742,0.662758358996163,0.663184109857483,0.04,0.0816583601664219,316.203298290274,0.774005369145881,0.300176782805569
1411,0.299210167654763,0.137755881230285,0.218345176860698,0.0756622557921934,0.341815450994076,-0.195879566837012,0.37769609660719,0.492645858224742,0.662892199861507,0.663184109857483,0.04,0.0818434976512948,316.266736398209,0.776004983969151,0.299463352882489
1471,0.299210167654763,0.137755881230285,0.218345176860698,0.0756622557921934,0.341815450994076,-0.195879566837012,0.37769609660719,0.492645858224742,0.662983329911973,0.663184109857483,0.04,0.0819683780518263,316.309941667823,0.777379331809428,0.29897476176298
1531,0.299210167654763,0.137755881230285,0.218345176860698,0.0756622557921934,0.341815450994076,-0.195879566837012,0.37769609660719,0.492645858224742,0.663045966675003,0.663184109857483,0.04,0.0820529123811778,316.339640281658,0.778324933433982,0.298639568587328
1591,0.299210167654763,0.137755881230285,0.218345176860698,0.0756622557921934,0.341815450994076,-0.195879566837012,0.37769609660719,0.492645858224742,0.663089079054131,0.663184109857483,0.04,0.0821104423643504,316.360081389818,0.778975456501905,0.29840945568573
1651,0.299210167654763,0.137755881230285,0.218345176860698,0.0756622557921935,0.341815450994076,-0.195879566837012,0.37769609660719,0.492645858224742,0.663118714512967,0.663184109857483,0.04,0.0821497172630865,316.374132225651,0.779423029126578,0.298251344251301
1711,0.299210167654763,0.137755881230285,0.218345176860698,0.0756622557921935,0.341815450994076,-0.195879566837012,0.37769609660719,0.492645858224742,0.663139056039101,0.663184109857483,0.04,0.0821765442192055,316.383776386588,0.779731228911318,0.298142544316625
1771,0.299210167654763,0.137755881230285,0.218345176860698,0.0756622557921934,0.341815450994076,-0.195879566837012,0.37769609660719,0.492645858224742,0.663153005427067,0.663184109857483,0.04,0.0821948431140743,316.39038989992,0.779943825835325,0.298067507194425
1831,0.281565388026792,0.141695245844368,0.202291354689911,0.080513470862095,0.337188763619452,-0.200943838965396,0.358298599306436,0.485875667029059,0.663652887571847,0.662149989785784,0.04,0.081261177970724,316.630343234731,0.776162148678448,0.299746933227667
1891,0.247414201650075,0.149319822516789,0.171219440810968,0.0899029193844852,0.328233884829858,-0.210745655988074,0.320755056143687,0.472772071166449,0.662697318607936,0.660148467066367,0.04,0.0801302223108116,316.159204511731,0.761965782990026,0.304877263181014
1951,0.213263015273357,0.156944399189209,0.140147526932024,0.0992923679068755,0.319279006040263,-0.220547473010752,0.283211512980938,0.459668475303838,0.660724898326414,0.658146944346949,0.04,0.0783979145946224,315.215124366884,0.746272315381699,0.310359034907746
2011,0.17911182889664,0.16456897586163,0.109075613053081,0.108681816429266,0.310324127250669,-0.230349290033431,0.245667969818189,0.446564879441227,0.658616917483828,0.656145421627532,0.04,0.0758534640069954,314.20950265162,0.731133046730598,0.315774879002039
2071,0.144960642519922,0.17219355253405,0.0780036991741378,0.118071264951656,0.301369248461074,-0.240151107056109,0.20812442665544,0.433461283578617,0.656550679983965,0.654143898908115,0.04,0.0727107371513164,313.224074625658,0.716483578542207,0.32122073397412
2131,0.110809456143205,0.179818129206471,0.0469317852951945,0.127460713474046,0.292414369671479,-0.249952924078788,0.170580883492691,0.420357687716006,0.654517515563611,0.652142376188697,0.04,0.0691205573555536,312.254192963736,0.702076647343952,0.326797275695412
2191,0.0766582697664872,0.187442705878891,0.0158598714162512,0.136850161996436,0.283459490881885,-0.259754741101466,0.133037340329942,0.407254091853395,0.652493995635554,0.65014085346928,0.04,0.0651416114877883,311.288803538922,0.687834264827825,0.332532708625828
2251,0.0425070833897698,0.195067282551312,-0.015212042462692,0.146239610518827,0.27450461209229,-0.269556558124144,0.0954937971671928,0.394150495990784,0.650463845595892,0.648139330749862,0.04,0.0608110448918594,310.320144114639,0.673737783497723,0.338433808412874
2311,0.0083558970130523,0.202691859223732,-0.0462839563416353,0.155629059041217,0.265549733302696,-0.279358375146822,0.0579502540044438,0.381046900128174,0.648427356820254,0.646137808030445,0.04,0.0561276109577124,309.348502548678,0.659843880918819,0.344478007724362
