time,bias_percent_1,bias_percent_2,bias_percent_3,bias_percent_4,bias_percent_5,bias_percent_6,bias_percent_8,bias_percent_9,normalized_power,power_SP,SP,CV,total_power_MW,fuel_fraction,thermal_efficiency
7,0,0,0,0,0,0,0,0,0.997284989842244,1,0.04,0.0402900052586032,475.842435345539,1.00041572888691,0.349492076896689
67,0,0,0,0,0,0,0,0,0.999896825118205,1,0.04,0.0398960362650691,477.052510741335,1.00013662641714,0.350478619983716
127,0,0,0,0,0,0,0,0,0.999988345572534,1,0.04,0.0399205028913553,477.094643507774,1.00030271629352,0.350451375405617
187,0,0,0,0,0,0,0,0,0.999999598618722,1,0.04,0.0399584580144163,477.09984027872,1.00031799202906,0.350449840951083
247,0,0,0,0,0,0,0,0,1.00000203417356,1,0.04,0.0399828504578907,477.100983003097,1.00030963986595,0.350453606445263
307,0,0,0,0,0,0,0,0,1.0000032474009,1,0.04,0.0399970931094207,477.101556420897,1.00029230620608,0.350460100523979
367,0,0,0,0,0,0,0,0,1.0000038611489,1,0.04,0.04000494669557,477.101844865825,1.00027012347498,0.350468084471767
427,0,0,0,0,0,0,0,0,1.00000398207976,1,0.04,0.040008767682335,477.101899179819,1.00024626402681,0.350476484286886
487,0,0,0,0,0,0,0,0,1.00000374676733,1,0.04,0.0400100512116044,477.101784674326,1.00022315982579,0.350484495842342
547,0,0,0,0,0,0,0,0,1.00000329708021,1,0.04,0.0400097983776552,477.101568907559,1.00020238041727,0.350491618721191
607,0,0,0,0,0,0,0,0,1.00000274947261,1,0.04,0.0400086946624862,477.101307310107,1.00018473609321,0.350497609586761
667,0,0,0,0,0,0,0,0,1.00000218697714,1,0.04,0.0400072041905276,477.101039045776,1.00017046966478,0.350502412003095
727,-0.0174406138419494,-0.0291666664030821,-0.0131542222256288,0.0266052522077262,0.029112188773876,-0.0291660314918676,0.0291666666666667,0.0217363557442777,0.998128462911767,1,0.04,0.0406649146556994,476.130695761625,1.00236762106913,0.349022823753576
787,-0.149490975788138,-0.249999997740704,-0.112750476219675,0.228045018923367,0.249533046633223,-0.249994555644579,0.25,0.186311620665237,0.999258647308418,1,0.04,0.0386495434302484,476.772695261988,1.02152380501592,0.342939539282922
847,-0.103523632477589,-0.249999884596175,-0.0925949668907073,0.230606433382307,0.191254194212145,-0.249995190819378,0.191675788740432,0.188643870094825,1.00312502953747,1,0.04,0.0382523909154607,478.703968226164,1.02041474698761,0.344702932004258
907,0.244514824016569,-0.249999027930453,0.0600110323143343,0.25,-0.249999974118875,-0.25,-0.249921810796295,0.206302330061707,1.00650935509991,1,0.04,0.038208832952781,479.964868493545,0.983688414767367,0.358514371519454
967,0.245153674155241,-0.19995003723984,0.082176411877662,0.249888485968422,-0.249813648166906,-0.191666666666667,-0.249389670396597,0.211393068015885,1.00021924879747,1,0.04,0.0411653421658274,476.878178826693,0.972152628520908,0.360435593670587
1027,0.249990682348041,0.178992320846228,0.25,0.249044165443621,-0.248402894530576,0.25,-0.245360607370312,0.249937226811807,0.985586132658499,1,0.04,0.0603853358812234,470.447928866784,1.04589910533838,0.330503791239786
1087,0.191658570201017,0.185619332592686,0.25,0.190822346141865,-0.190255903980896,0.25,-0.187568536510442,0.249944550350429,0.99409540714774,1,0.04,0.0574628007009087,474.160634296717,1.08527628210518,0.321025742808955
1147,-0.24999885034073,0.235795278673007,0.25,-0.25,0.249999881609538,0.25,0.25,0.25,0.996549470512796,1,0.04,0.0526812903696621,475.677152091479,1.1231937104729,0.31118045044376
1207,-0.249998984467645,0.179119162827823,0.191666666666667,-0.191666666666667,0.249995444478311,0.191666666666667,0.191667182626183,0.245782886513038,1.00373195315689,1,0.04,0.0514314648148589,479.381286130009,1.11876670774459,0.314844577802321
1267,-0.25,-0.25,-0.25,0.25,0.249961849056162,-0.25,-0.249995577489857,0.213853312968897,1.0266920579733,1,0.04,0.0295327713416838,489.359939826014,0.980769571247733,0.366619961218526
1327,-0.191667406235764,-0.191666666666667,-0.191666666666667,0.25,0.24996629757817,-0.191666669477723,-0.191662760309785,0.218070426455859,1.0038189674936,1,0.04,0.0351259921742896,478.749427022882,0.926047528896589,0.379865337556661
1387,0.249993660836312,0.25,0.25,0.25,0.249999979244804,0.249999975905231,0.249999998339328,0.25,0.968307419210507,1,0.04,0.0732342291802474,462.437300228213,1.09285160130963,0.310918340030819
1447,0.22331213961975,0.239510302136542,0.249999999512344,0.249999999901096,0.249999981666244,0.192033444227181,0.244116916779762,0.249996771886864,0.993183972645554,1,0.04,0.0637363855402407,474.13063344766,1.16957026004881,0.297869732692997
1507,0.0212949075514994,0.160088304027503,0.249999995820095,0.249999999152255,0.25,-0.246856009906621,0.199573584971617,0.249972330458836,1.00995555175587,1,0.04,0.0537156827828365,481.721626756154,1.13053419663754,0.313088500818906
1567,0.0479049586530318,0.170578001484221,0.225255762966086,0.249980099291252,0.19166666677717,-0.188889475417515,0.147123335031687,0.19164222866195,1.00670777675505,1,0.04,0.0542244483518927,480.65727107974,1.09730630489254,0.321856525096025
1627,0.249381059850349,0.249999996513655,0.037906571357163,0.24982942891509,-0.249999999052833,0.25,-0.123660497795816,-0.123660497795816,1.01009611866652,1,0.04,0.0503716639292565,481.768163313321,1.00574805984363,0.351968315730666
1687,0.249453269534475,0.191666663587062,0.0626508046988272,0.249849328874996,-0.249999999163336,0.230475763524934,-0.0931755022415776,-0.0931755022415776,1.00089292248463,1,0.04,0.0454261825822888,477.586748944873,0.99033061015276,0.354345353133394
1747,0.25,-0.25,0.25,0.25,-0.25,0.0826494016422906,-0.075042769487966,0.249993893231925,0.995921681571593,1,0.04,0.0351487160488475,475.309402491238,1.00545392875645,0.347351282211726
1807,0.25,-0.191667114455294,0.25,0.19166668464379,-0.191666666666667,0.043840798790343,-0.0729846250554373,0.230417560027952,1.00136171426504,1,0.04,0.0340158904426195,477.819411385344,1.00606208735954,0.348974490589877
1867,0.25,0.249996161811766,0.25,-0.249999845910371,0.25,-0.249995765660118,-0.0785712438980368,0.0821967514835839,1.00366227426016,1,0.04,0.0381048106769879,478.755531855601,0.986127231821451,0.356726628661967
1927,0.24999986933373,0.249996568954537,0.191666666688035,-0.202016359264684,0.249999999409516,-0.24510732780203,-0.0842611114360976,0.101773790386639,0.999263769392825,1,0.04,0.0380694191132299,476.629855258439,0.982267820587543,0.356538146095366
1987,0.249998880003402,0.24999965160694,-0.24999999981684,0.161287182481232,0.249999994938705,-0.208094869733648,-0.0900753665372837,0.249999942081196,0.996863425795819,1,0.04,0.0365213363543475,475.674545914521,1.00411634699696,0.348081186857316
2047,0.249999010643263,0.210640439051694,-0.19166703138423,0.11331293440958,0.191666700822877,-0.161268076990931,-0.0973396610779404,0.249999948358854,0.999778257530082,1,0.04,0.036284053352541,477.045232125357,1.00907229265631,0.34736971674281
2107,0.249999999773641,-0.0873650274380296,0.24999687246267,-0.249920658132931,-0.249999668911246,0.193277639489639,-0.108567550638269,0.249999995889699,1.0044358275176,1,0.04,0.0304498624886095,479.152759624484,0.990069315857,0.355601078065355
2167,0.19168153084806,-0.0480057742512159,0.191675704421952,-0.249544713742038,-0.191688994864446,0.141800567139483,-0.125950563410755,0.191676127129798,1.00308417552694,1,0.04,0.0288186388885839,478.926137198581,0.976543881146,0.360355746692443
2227,-0.249872591017055,0.249999999877516,-0.249898853600622,-0.246698277639561,0.249806108632751,-0.247954409225983,-0.157969919943321,-0.157969919943321,1.01694578720601,1,0.04,0.00971597250089458,485.136406504294,0.875023710209332,0.407379079151014
2287,-0.191554199385382,0.191666669159988,-0.19157732068055,-0.247083478575361,0.191495406403415,-0.248179931146145,-0.214051110370103,-0.214051110370103,1.00551934177,1,0.04,0.00503921668488701,479.766010525259,0.834475385672787,0.422445435632431
2347,0.249999337254425,-0.249999977701295,0.25,-0.249999999946426,-0.249999910475838,-0.249887454255941,-0.249999141965576,-0.25,0.998858434445349,1,0.04,0.00273729016779231,476.485666522709,0.826073944725153,0.423824045782297
2407,0.249999414574742,-0.191892648514809,0.191666666666667,-0.191679370065411,-0.243407235925173,-0.249885945140876,-0.191665908736259,-0.25,0.99489956447377,1,0.04,0.00732503566441091,474.591082815751,0.841071914245535,0.41461128560112
2467,0.25,0.248062843897151,-0.25,0.24989111331941,-0.193491271470144,-0.249874518983956,0.25,-0.25,0.978505864490869,1,0.04,0.0290002214246958,467.261299175351,0.964050180986511,0.356135156514636
2527,0.249999965206208,0.248288845442483,-0.237567925637088,0.249903811145894,-0.14175062313196,-0.191555825102494,0.249999779775074,-0.191669279898165,0.987985791050447,1,0.04,0.0365709602453342,471.094130190693,1.02610723103646,0.337341383054136
2587,0.249999701767498,0.25,-0.14343936260361,0.249999951832132,0.25,0.25,0.249998112357777,0.249977600872868,0.97470421757574,1,0.04,0.058932100250881,465.465454345941,1.18027048698485,0.28977477879377
2647,0.249999732924984,0.249999862921731,-0.0976754252801699,0.249999764458307,0.234111192869861,0.229015309975685,0.249996508822348,0.198239163719939,0.997181659782238,1,0.04,0.0614366756366479,475.971520654217,1.23212518931472,0.283844712052007
2707,0.24999996883167,0.249998825043408,0.248822957311593,0.249998345770777,0.113810224598809,0.070131228363018,0.249984367768382,-0.193494717580808,1.00857179577928,1,0.04,0.0664938587481476,481.062252776017,1.19046593869576,0.296919679432978
2767,0.249999972467975,0.248178998179468,0.248960244962203,0.249998440395419,0.129693527102185,0.0327826341736052,0.249985811007743,-0.14175366719638,1.00134678977536,1,0.04,0.0685992922773926,477.612738420853,1.16965536166321,0.300035512772741
2827,0.25,0.234400309066775,0.249999708602538,0.249999156839133,0.249952817484889,-0.249999578974806,0.249996738391474,0.25,0.9963581252813,1,0.04,0.0675472759299685,475.466912949187,1.19056543976288,0.293441615654429
2887,0.25,0.236220273008985,0.230626336685102,0.249999255207901,0.249958042259733,-0.249306082764039,0.249967682263361,0.25,1.00212225487662,1,0.04,0.0655633502624419,478.154198291047,1.18564132370455,0.296325702077957
2947,0.25,0.25,0.0839422350245159,0.25,0.249997601269262,-0.244055325739657,0.249747685864794,0.25,1.00459606068568,1,0.04,0.0627372626427267,479.277047446021,1.16125707226047,0.303258467171994
3007,0.25,0.249999285845409,0.103315640938322,0.249999999409172,0.196347866921215,-0.186415537736697,0.249717476790024,0.25,1.00331451450613,1,0.04,0.0621800491353073,478.613667614617,1.13786098154852,0.309065527486489
3067,0.25,0.249993878674931,0.25,0.249999994935762,-0.209857264571149,0.25,0.249488750938194,0.25,1.00002713055801,1,0.04,0.0621774589000812,477.15712173936,1.1346813053635,0.308988408079534
3127,0.249999246841079,0.211942724164537,0.249999979730721,0.249995941659743,-0.214540542855622,0.242509392660093,0.249537497769256,0.191666666666667,1.0033795056907,1,0.04,0.0576537462722647,478.995148477816,1.12456559494156,0.312968766650633
3187,0.249993544352105,-0.0761588742713104,0.249999826263324,0.249965252569878,-0.249999649866629,0.185794794229366,0.249906580918726,-0.0204180753254081,1.00871073437395,1,0.04,0.0478148685734587,481.133424030777,1.06033163658289,0.333409895160863
3247,0.249993406503252,-0.042041309579506,0.249999846532603,0.24996924504774,-0.191844742111266,0.134952620996218,0.245200738340646,-0.00964476504418622,1.00228848619721,1,0.04,0.0469425334282818,478.129675298095,1.0390208256844,0.338124097304002
3307,0.249992362790504,0.216277394515585,0.25,0.249999473808697,0.248470988036482,-0.249995262054761,0.209570787392324,-0.00455557898278117,0.998163048184159,0.998053149586934,0.04,0.0516398291577355,476.153213160192,1.03992020340791,0.336435162651239
3367,0.244992934500558,0.161878936915113,0.20414760874482,0.248856082858268,0.248649372762228,-0.249402563153001,0.155954195529886,-0.00215162931800874,0.987133931346907,0.981365860332086,0.04,0.0500006951147128,471.153933045314,1.01718789205176,0.340342602245035
3427,0.207140120305256,-0.249995099202743,-0.143020496472971,0.240198979947878,0.249999999971444,-0.244914985753966,-0.0025038051109514,0.249999991193461,0.973922973705327,0.964678571077238,0.04,0.0338792655330148,464.593289668027,0.943531059228451,0.361802370672313
3487,0.153807106269643,-0.24999565715672,-0.155500918368882,0.183009522737979,0.191666864228256,-0.245496708744384,-0.00911438163107464,0.191666659024338,0.957537110212008,0.94799128182239,0.04,0.0303345479708031,457.244955433213,0.891852427097212,0.376712993928839
3547,-0.25,-0.249999881665397,-0.249995541295062,-0.249996367565542,-0.249998306398742,-0.249901182814691,0.249998699096328,-0.0414615411170592,0.959332635012045,0.931303992567542,0.04,2.108277071653e-05,457.230867106229,0.71439323897491,0.470276071871623
3607,-0.249990583288951,-0.249999895283611,-0.249996054532064,-0.249996791349325,-0.249859779926359,-0.249290808646973,0.249978579002953,-0.110920022705088,0.911533981365129,0.916563553725759,0.04,5.14926774834358e-07,434.585761399134,0.675701151673114,0.472580187529419
3667,-0.249919285333867,-0.249999998392949,-0.249999940469366,-0.249999999997966,-0.248810936635453,-0.244669404234246,0.249826241153114,0.237718763718564,0.93090358166472,0.916563553725759,0.04,0.000348921411945161,443.992204522537,0.662618395585298,0.492341599995531
3727,-0.24992861775014,-0.239256389581137,-0.191666630475124,-0.191669196601288,-0.190619308354141,-0.18695891934365,0.249846254077602,0.194016803643293,0.914035480791655,0.916563553725759,0.04,0.00187953906982054,436.080017515614,0.661243338497106,0.484573380366209
3787,-0.249999277473349,-0.157911922863128,0.24999985948128,0.249978314830704,0.249974448632942,0.249991894828003,0.249997780505868,-0.136869465498049,0.870189866850841,0.916563553725759,0.04,0.0261074611049547,416.013842469672,0.93532753185099,0.326812560576139
3847,-0.191698980247687,-0.110323010297209,0.249997205675455,0.249980801053407,0.249977428386462,0.249956623732039,0.191664706121316,-0.112549765764941,0.905830967215113,0.916563553725759,0.04,0.030956057252021,432.288622963992,1.04021342958403,0.305355696109502
3907,0.249717555889464,0.249993041987603,0.249977112574206,0.249999625311017,0.249999989377401,0.249689571148313,-0.249999999933156,0.0715851036428729,0.906049411517093,0.916563553725759,0.04,0.0559507966144189,432.393917604399,1.1204774251235,0.283550972730911
3967,0.249574816085649,0.249992480839396,0.249971142487704,0.249999502010798,0.19166665754746,0.192628623095107,-0.223009571520615,0.0924001727806691,0.916084719973924,0.916563553725759,0.04,0.0616474171465958,437.190776851852,1.13836036533514,0.282192782115854
4027,0.24849407185676,0.249988232145827,0.249925940404186,0.249998568451999,-0.249999997736379,-0.239404269307734,-0.0186534706828072,0.24999998196684,0.924416467657598,0.916563553725759,0.04,0.0578549494640545,441.006013107332,1.10360110858159,0.293620963418715
4087,0.190337208028717,0.191671687491431,0.244467707397244,0.249998693596874,-0.249999623540745,-0.182307104830353,0.0126893095572613,0.24999752644195,0.921251745962914,0.916563553725759,0.04,0.0624878694733865,439.387780933459,1.0646306476703,0.303252009565952
4147,-0.24999333238361,-0.249867864891853,0.20314108605897,0.249999641122355,-0.249996790345232,0.249999997641244,0.249998931374923,0.249978934610643,0.925846708338925,0.916563553725759,0.04,0.0505845358888611,441.869684563785,1.03573770342117,0.313472247171369
4207,-0.19175391005722,-0.19182232227971,0.150364250889622,0.192278726274389,-0.191667818970091,0.249952598230119,0.249908436890892,0.220060807735817,0.924104259330117,0.916563553725759,0.04,0.0515027443489927,440.959201515179,0.994060836291617,0.325941846706926
4267,0.249201716128298,0.247665357497941,-0.249231786821157,-0.244751057574497,0.249965821441694,0.249593716974459,0.249223264368943,-0.00646215288786476,0.917751348358402,0.916563553725759,0.04,0.0603988043820376,437.803750257343,0.979280271673512,0.328493778236509
4327,0.219958206177,0.247937732456515,-0.249014383785401,-0.187030100857473,0.23653358506013,0.249612566393863,0.249313883525899,0.0234582796556273,0.918030561540223,0.916563553725759,0.04,0.0584879900642725,437.819086677669,0.965994519584288,0.33302336472789
4387,-0.00145694059711445,0.25,-0.247368332228968,0.25,0.134832366742572,0.249755283426489,0.25,0.249998697484924,0.912868792936449,0.916563553725759,0.04,0.058136191990355,435.688538737974,0.985780932737737,0.324750926019994
4447,0.0271585724072879,0.249738955893485,-0.199891422191757,0.249992564583402,0.0899352572892716,0.213274922727275,0.249996608942217,0.249998782849303,0.918041014244493,0.916563553725759,0.04,0.0552057253835622,438.087974848845,0.986398950197509,0.326334813718996
4507,0.243818885154906,0.247762479087013,0.159576610947127,0.249936267857733,-0.25,-0.0629335225667742,0.249970933790434,0.249999429179601,0.919811325813475,0.916563553725759,0.04,0.0572347506611889,438.77226955806,0.968703363052733,0.332815114471383
4567,0.236043563075071,0.222530677383647,0.170126006336628,0.191610369940998,-0.209346016594229,-0.026571982885432,0.249974324848217,0.249999495775315,0.917605877576514,0.916563553725759,0.04,0.0556650480724645,437.711625215982,0.957312904750609,0.335960983680161
4627,0.177173267327751,0.0314898930581629,0.25,-0.25,0.0984627149066105,0.248736817559015,0.25,0.25,0.915520249809782,0.916563553725759,0.04,0.0502614181494747,436.860163822048,0.964207227569541,0.332909921235478
4687,0.185669719472847,-0.000789540942535609,0.236596473223603,-0.191666667237951,0.0610238983271263,0.190575193874158,0.25,0.191666666666667,0.919406683978617,0.916563553725759,0.04,0.0459883262240408,439.091152590363,0.960534114013932,0.335889609125382
4747,0.25,-0.245190969804967,0.135112627630887,0.24999999510328,-0.222441427203253,-0.249791385454045,0.25,-0.00788671342771787,0.929069851286517,0.916563553725759,0.04,0.0322583782704043,443.043857510301,0.875225275090576,0.371947415332833
4807,0.191666666666667,-0.245732963795023,0.148514962613525,0.191669468074961,-0.225652271252438,-0.194857174515839,0.19211416669605,-0.0173992736381502,0.919155372481201,0.916563553725759,0.04,0.0275130760959461,438.698074498236,0.85060567814745,0.378958913902269
4867,-0.25,-0.249836632576871,0.249989784624922,-0.249975950853739,-0.249962947624835,0.221073279730577,-0.0485411384048093,-0.0485411384048093,0.929194605248778,0.916563553725759,0.04,0.00624182966567563,443.550274548426,0.778996918576753,0.418371207860139
4927,-0.197232054742929,-0.191523404432207,0.249990976418681,-0.219439667667587,-0.191643223383703,0.17382608909566,-0.059789325226213,-0.108928038589199,0.920587378424711,0.916563553725759,0.04,0.00589485356929314,439.033023888195,0.745592708557507,0.432663453998542
4987,0.202296673632033,0.249991037234538,0.25,0.0117636193132814,0.249920403013439,-0.183902639997288,0.249999984612157,-0.166233807455181,0.891036243026444,0.916563553725759,0.04,0.0429086750142012,425.36798371351,0.887812635291086,0.352044977954145
5047,0.155530538016063,0.191658749557175,0.25,0.0395578637267319,0.249918374989987,-0.133280665330938,0.249980116005717,-0.191666936741387,0.908600890253723,0.916563553725759,0.04,0.0404431287341703,433.446659820354,0.953311938788117,0.334083713906227
5107,-0.198555917361996,-0.25,0.25,0.25,0.249903019955275,0.25,0.249829682271246,0.249997585945393,0.910939461027473,0.916563553725759,0.04,0.0415541967257716,434.991273978615,1.01389614046876,0.315240314001478
5167,-0.14622439487442,-0.191793185309736,0.230100492266633,0.249999179276432,0.249914334293826,0.191668911994597,0.249849552672934,0.19166479547458,0.919041583962692,0.916563553725759,0.04,0.0453569715889128,438.766594203734,1.02212049384923,0.315417754063116
5227,0.249999989674372,0.248915554487974,0.0794327908568524,0.249992965226555,0.25,-0.249980754332026,0.25,-0.195186595208852,0.923612969979269,0.916563553725759,0.04,0.0564808129436523,440.500200305384,0.979379067636001,0.330483642713056
5287,0.191699810004119,0.249042073131044,0.0409989652568862,0.191660452650677,0.191666666666667,-0.191656714109251,0.191741381900083,-0.168441513664188,0.918395653840628,0.916563553725759,0.04,0.0519874517831878,438.511151957788,0.967048269016503,0.33318632395825
5347,-0.249715836070657,0.25,-0.25,-0.249999999709539,-0.25,0.249939590434615,-0.152298779334876,0.249999999370558,0.932864816026522,0.914621524616553,0.04,0.021477556126646,445.120876269235,0.88681323898301,0.368808117714625
5407,-0.191415991004392,0.25,-0.192272125857726,-0.192211821798577,-0.191695049598784,0.249943081716497,-0.164889346722976,0.249742422771692,0.908014794790916,0.897975560823359,0.04,0.0320504835002173,432.706586428972,0.816402246811628,0.389443079628113
5467,0.249997121640183,0.25,0.24481034979092,0.245327239527271,0.249756717724711,0.249969515707889,0.24999993573069,0.247792199951706,0.858088568650019,0.881329597030164,0.04,0.0802163815108629,409.668438335423,0.933660505719824,0.32240234670106
5527,0.249241796310978,0.200085871534484,0.227036378094164,0.187539061582423,0.191452294032789,0.207914535644972,0.200451492033301,0.2480444195431,0.866601308568505,0.864683633236969,0.04,0.0695029456990196,413.913934465784,0.962777565738987,0.315892097508056
5587,0.243522904532711,-0.177835386847283,0.0924620209615853,-0.25,-0.249995485348911,-0.110501741974247,-0.0562905328548577,0.249954082163654,0.880988527127683,0.848037669443774,0.04,0.0311955622264274,419.830648720337,0.793119026861279,0.38894701929387
5647,0.244123936788065,-0.16949327473862,0.052508118516067,-0.25,-0.249996012058205,-0.0684432132040455,-0.0394688680854023,0.193610194559842,0.842873367003037,0.83139170565058,0.04,0.0341644488627852,402.15910662228,0.702869752437968,0.420414541895874
5707,0.248674609578605,-0.106331568773031,-0.25,-0.25,-0.25,0.249999933198909,0.25,-0.0400251335554269,0.815922523724549,0.814745741857385,0.04,0.0339662316149576,389.29835364547,0.653918488674954,0.437435098618747
5767,0.19049955614989,-0.0647595525608918,-0.249960002583329,-0.195416891067591,-0.249999995279993,0.191666607659036,0.191666666666667,-0.0519901093656973,0.802428352541183,0.79809977806419,0.04,0.0236856522257104,382.944993722812,0.629475212580249,0.447005060159275
5827,-0.24996870552466,0.249999998759588,-0.249657164999962,0.217855219420647,-0.249999959542795,-0.25,-0.0883278540794112,-0.0883278540794112,0.789013187125792,0.785731815112031,0.04,0.0046505951334903,376.335155192509,0.571027882750904,0.484252811650664
5887,-0.249972356546783,0.249999998904303,-0.191368572768663,0.181988949018707,-0.249999964262803,-0.249994588079468,-0.156929253561577,-0.156929253561577,0.770044049110057,0.805754429956282,0.04,6.75474510574059e-10,367.421169606098,0.698157310893302,0.386692333065934
5947,-0.25,0.25,0.249959339839745,-0.0895699554531258,-0.25,-0.249953612109726,-0.244244615379476,-0.225913518290375,0.802860183703018,0.825777044800534,0.04,3.08020822157596e-07,383.271173061476,0.882308461038001,0.319183467342804
6007,-0.249999914382402,0.191666666666667,0.191631984808892,-0.10828679327207,-0.249999881933251,-0.244809961569991,-0.214735669202927,-0.228723607823165,0.854176324217384,0.845799659644786,0.04,1.3909947729804e-05,407.763426664814,0.895661016849817,0.33451783263625
6067,-0.249999266134873,-0.25,-0.249989417567561,-0.249999993901223,-0.249998987999294,-0.205865178911999,0.050319267578045,-0.25,0.872045820138503,0.865822274489037,0.04,7.65552880040765e-06,416.164372399913,0.847086157246151,0.360987355008629
6127,-0.19166956960234,-0.191667070946175,-0.191657523528264,-0.19166690706997,-0.249999106066043,-0.152683223386952,0.073615353027273,-0.191669475914255,0.89956758790579,0.885844889333289,0.04,0.000596209734915549,429.845245427545,0.814051728508709,0.387984879636773
6187,0.249969561286835,0.249996534747067,0.249998245626417,0.2499978932238,-0.25,0.249980154159838,0.25,0.24997592073496,0.84567782602239,0.90586750417754,0.04,0.0506698234438398,404.53239671739,1.16305609619343,0.255568498725199
6247,0.1916411445911,0.249996937625727,0.229680580825175,0.249998126308883,-0.191666668050466,0.191651877549219,0.191666756643763,0.193850913370267,0.914218222102838,0.925890119021792,0.04,0.0474919690707399,436.948744437675,1.30382545446784,0.24624403362598
6307,-0.249988296105179,0.249999987992728,0.0758468330443379,0.249999891095937,0.249999988138863,-0.249976502502616,-0.249999228767745,-0.231095570962409,0.96950111191505,0.945912733866044,0.04,0.038679629580435,462.358112343713,1.20302421959969,0.282396160381195
6367,-0.191656647475553,0.249999989393576,0.0961535286520175,0.249999851901313,0.191666656189329,-0.24997903565757,-0.191665985411508,-0.199622541315071,0.968972003191541,0.965935348710295,0.04,0.0488395398799212,462.111639591626,1.15429863373668,0.294159854645086
6427,0.249997263577325,0.25,0.249904223967307,0.249999555142017,-0.25,-0.249998215259363,0.25,0.0386732545861983,0.969878528507173,0.981976366753786,0.04,0.0595866239454099,462.990020574066,1.22743679551416,0.277157840142719
6487,0.249997580376478,0.249971130295526,0.191582928775814,0.249994872604898,-0.25,-0.191665090619022,0.191668461415631,0.0633279075398032,0.977227733552435,0.96787100902009,0.04,0.0645138686113677,466.23607324085,1.19723609755547,0.286141431818074
6547,0.249999978998633,0.24975254539022,-0.249992591959777,0.249959419109568,-0.25,0.249999995943558,-0.249984616437445,0.249998851331383,0.96891339511293,0.953765651286394,0.04,0.0670172403508148,462.09201177822,1.11164524650342,0.305433678008571
6607,0.249999981448793,0.249493542512497,-0.249993339783104,0.191632660741459,-0.225192259553676,0.249995438963281,-0.191653077853076,0.191665732892648,0.951781275422578,0.939660293552698,0.04,0.0701961408454448,454.034413240022,1.03492613333485,0.322354764666763
6667,0.25,0.247532520724031,-0.249999001874015,-0.249984224045646,-0.0373622247457947,0.249960936112612,0.25,-0.249999306714922,0.939026393181388,0.925554935819002,0.04,0.0658438768428557,447.825901242587,0.952928180361361,0.345305673958427
6727,0.191735709425968,0.247820393297639,-0.243572677257764,-0.249986037890448,-0.0621699651921186,0.249965493566141,0.249988463597489,-0.248667479906669,0.920802830771879,0.911449578085306,0.04,0.0628232365958916,439.25797937541,0.889650280756937,0.36278975607151
6787,-0.249408204920274,0.249999999926386,-0.194916219449009,-0.249999771286798,-0.25,0.25,0.249901116549903,-0.238583648358464,0.913180908913875,0.897344220351611,0.04,0.0427575047939645,435.610559865482,0.80168845613341,0.399252317211757
6847,-0.191144945092385,0.249999999934974,-0.143009327179958,-0.249999797970005,-0.191666666666667,0.192918086430414,0.249912652952414,-0.181582222716643,0.889313485200276,0.883238862617915,0.04,0.0411799160966267,423.881256861435,0.750089101157881,0.415227429178958
6907,0.249991165033058,0.25,0.25,-0.25,0.25,-0.239273544882164,0.25,0.25,0.853966197110615,0.869133504884219,0.04,0.0661914680633165,407.551807880042,0.834926992312844,0.358665000160218
6967,0.23657311135273,0.25,0.191666666666667,-0.203836405447774,0.191666666666667,-0.240524837699958,0.249999999860555,0.249995603922373,0.856425730944834,0.855028147150523,0.04,0.0607634481142436,408.629064303856,0.847092564192049,0.354448432400585
7027,0.134979276344533,0.25,-0.25,0.145687953304791,-0.25,-0.249998911891834,0.249999998804761,0.249962319334629,0.854429648747069,0.840922789416827,0.04,0.0460049225541998,407.452074295658,0.783814124964062,0.381960210336193
7087,0.148395147378841,0.25,-0.191666667903526,0.0995274006275131,-0.191667863872854,-0.191665705504453,0.249999998637187,0.24984806879339,0.832612793733856,0.826817431683131,0.04,0.0528889633525461,396.875911590896,0.738679813976427,0.394778220701406
7147,0.249972456638599,0.25,0.24999998939835,-0.24997392678616,0.249989738232684,0.249999999999998,0.249999997368418,0.248983028981146,0.803481159779211,0.812712073949435,0.04,0.0768396973617594,383.389478785059,0.78031896299029,0.36101288751145
7207,0.249975031403731,0.25,0.249773366477794,-0.249976968661108,0.249988837771638,0.249999999999998,0.249999997675436,0.249101675600012,0.798228286195389,0.798606716215739,0.04,0.0725949178660647,380.746372440314,0.7918977030093,0.353281883655275
7267,0.249994526054016,0.25,0.248057507222149,-0.25,0.249982019995148,0.25,0.25,0.25,0.785538833091412,0.784501358482043,0.04,0.0733643190766377,374.672787451114,0.786668359187095,0.349957370756562
7327,0.191667370638871,0.249999991042548,0.189951947233826,-0.249987075039644,0.201830120964793,0.249999976867079,0.249999439689438,0.19166667539983,0.772844345141858,0.770396000748347,0.04,0.0703199972084584,368.92234843419,0.777253018122432,0.34876044547095
7387,-0.249952520361514,0.249999923221843,-0.249990149820614,-0.249889214625523,-0.162748543122187,0.249999801717818,0.249995197338044,-0.00453485294969254,0.779694296058892,0.756290643014651,0.04,0.0296805321685026,371.984210756046,0.657167850318869,0.415913362435653
7447,-0.249956332743798,0.249999913028538,-0.191763711152823,-0.249900558670322,-0.114603795429812,0.195517528334142,0.249995755218606,-0.0132968798101916,0.748307230497029,0.742185285280955,0.04,0.0310041485386992,356.906324221209,0.601154224462347,0.436237520729651
7507,-0.249985197923945,0.249999835850662,0.249093610189026,-0.249986449295232,0.249920722812452,-0.216991112999404,0.249999979171432,-0.0249866684029591,0.724031937448835,0.728079927547259,0.04,0.039675014611331,345.303123574956,0.618643126504098,0.410123817507053
7567,-0.191653814810671,0.191673163182182,0.249199354931111,-0.213405424104613,0.191712340237707,-0.22084214977577,0.19186887088414,-0.0345309912290585,0.715238946560541,0.713974569813563,0.04,0.0289398804816877,341.492513527969,0.620552575777618,0.40434984487707
7627,0.249998085904119,-0.249943072736312,0.24999999369261,0.0635651951957896,-0.249008270685359,-0.24999999965397,-0.0598353064397271,-0.0598353064397271,0.707669038207133,0.699869212079867,0.04,0.018075962029645,337.420175339883,0.556654148486911,0.4453898062831
7687,0.191665777199297,-0.249949629688692,0.191666785829967,0.0680634128704226,-0.248975435110338,-0.191751387608224,-0.102517377525673,-0.102517377525673,0.687668590827761,0.685763854346171,0.04,0.0154828297676727,328.019368372843,0.537159890133178,0.448694336641182
7747,-0.249993131565787,-0.24999927518529,-0.249998930844331,0.102121346692645,-0.248726822899461,0.249273817880998,-0.0563232497620893,-0.166190743931017,0.680747917657855,0.671658496612475,0.04,1.0087497001734e-05,324.888158740442,0.495970501185133,0.481318674861806
7807,-0.249988999857907,-0.249999341533257,-0.249995051627627,0.0610452688625903,-0.248875355985,0.191025219315554,-0.0205877190249901,-0.249999764355613,0.660101882809512,0.65755313887878,0.04,4.76241449305245e-05,314.904871046258,0.455415189111424,0.508073499893621
7867,-0.249957716926815,-0.24999984388215,-0.249965680415444,-0.249959320422108,-0.249999963632646,-0.24999988410852,0.249981299413046,-0.249997995801328,0.636270058217618,0.643447781145084,0.04,3.07077894338214e-07,303.434179650588,0.484866271847356,0.459829892891446
7927,-0.24996264995202,-0.204229880115993,-0.191641423609335,-0.249896516535236,-0.191666634542171,-0.249999891293927,0.191650148084479,-0.249993178117243,0.629733677498747,0.629342423411388,0.04,9.20664110839011e-07,300.401136656772,0.501641509787546,0.440010238015671
7987,-0.25,0.142314131256342,0.249956520779778,-0.249421001391776,0.25,-0.249999945697724,-0.249999997688958,-0.24995670136631,0.592257025443913,0.615237065677692,0.04,0.0201229106338907,281.936883285248,0.574163218269439,0.360803883346049
8047,-0.191666666666667,0.0965461692939839,0.192302513172397,-0.191155217896068,0.208137645447579,-0.249992004146718,-0.249999922163258,-0.249961657440037,0.59652366015021,0.601131707943996,0.04,0.0235814987138019,284.712013916705,0.623347551516375,0.335606382600185
8107,0.25,-0.249982685563873,-0.244220687283485,0.25,-0.108820181877898,-0.249931875260531,-0.249999350325815,-0.249999181998257,0.591342977984813,0.5870263502103,0.04,0.0308320339552712,282.030838521988,0.602945941980093,0.343694750068413
8167,0.249999987385823,-0.191651400166966,-0.186561700862139,0.2499993781899,-0.0669578274155699,-0.192021876224368,-0.191666092787803,-0.191668275396628,0.574693446517726,0.572920992476604,0.04,0.0522128961424791,273.907280270626,0.590205776566753,0.34100032754753
8227,0.249999891878485,0.249999760695333,0.249999196328047,0.249994670199143,0.249999999227771,0.246439545049442,0.25,0.249980017444276,0.535646499756336,0.561819965026619,0.04,0.124309450016935,255.888612228901,0.737452638348827,0.254959677745713
8287,0.249879049163494,0.191666466188961,0.249998667629843,0.249995265968877,0.249999969057465,0.246853504073006,0.240268885014975,0.191653388299686,0.567369634621787,0.573466009724736,0.04,0.104774710524124,271.036656913375,0.80720009152876,0.246718380562462
8347,0.248964097178563,-0.249999906502136,0.24999466462916,0.249999776796866,0.249999740625145,0.249987765251415,0.166590442985503,-0.249962518080778,0.597484001542861,0.585112054422853,0.04,0.0798894789412234,285.028403706467,0.757931781396575,0.276320240790197
8407,0.190751619174397,-0.24999991741022,0.191667872672189,0.191666469503898,0.191666470672193,0.249970964771314,0.176321557970528,-0.249930899425133,0.599150135763833,0.59675809912097,0.04,0.0743414759898893,286.002354679044,0.73026754958732,0.287767856842325
8467,-0.25,-0.25,-0.249949266430595,-0.25,-0.249999716114447,0.249843761136265,0.25,-0.217402754925731,0.644176699310615,0.608404143819087,0.04,0.0122986816689856,308.102322190276,0.599759187880646,0.377461566687178
8527,-0.206015040839935,-0.249988258710746,-0.19162631561391,-0.191666708939397,-0.193788513065969,0.24985910845013,0.198025443322461,-0.210752784138579,0.628441261890063,0.620050188517205,0.04,0.0111546824356966,300.327747958009,0.530932681681325,0.415633626474751
8587,0.127013935657702,-0.249899360377825,0.249961740569562,0.249999637662312,0.231810595729653,0.24997530954082,-0.195496200093194,-0.228555050808911,0.609694376656805,0.631696233215321,0.04,0.0463548612968606,290.904765861755,0.650014504162485,0.328838353610068
8647,0.141353421856434,-0.247114297666084,0.191632894747664,0.235128802473643,0.233308279910181,0.249978156004177,-0.172323149972173,-0.191720051719293,0.635136652116907,0.643342277913438,0.04,0.0370025309943097,302.987461938666,0.716952393694833,0.310519597355346
8707,0.249923817361124,-0.226027394277187,-0.249999795046709,0.122535336045149,0.244647888705613,0.249999707798167,0.00312994380126858,0.249524680412509,0.645345823094328,0.654988322611555,0.04,0.0368045818895892,308.213900053435,0.787285907256106,0.28765665089028
8767,0.249842794379749,-0.170493121243403,-0.191666627203771,0.137406104078697,0.245218818159756,0.191811992944518,-0.0264018829755461,0.249574246342498,0.665451016836619,0.666634367309673,0.04,0.0428867949338749,317.671517621419,0.809370335619894,0.288393635061948
8827,0.249229334663626,0.249980660298105,0.249998786464186,0.249999062046984,0.24954156974112,-0.248752133804536,-0.240534288348128,0.249949531240985,0.679192643278751,0.678280412007789,0.04,0.0652754616833462,324.044833523468,0.814702326325068,0.29225424058102
8887,0.249318183279737,0.249982540240268,0.249570624409656,0.249999168134843,0.249579746863675,-0.190564443953436,-0.20220445489502,0.195318514433846,0.688896293259728,0.689926456705906,0.04,0.0648069798640561,328.831492994156,0.821444626721207,0.294137087274468
8947,0.249990894230295,0.249996774088067,0.246328825996783,0.249999971371491,0.249868802220163,0.249999493490607,-0.149425333628822,-0.149425333628822,0.698685803498605,0.701572501404023,0.04,0.0669691913848272,333.426776145748,0.823432096085155,0.297527668126565
9007,0.249991622973132,0.193883311574998,0.18842427105803,0.249996752784356,0.191551664997607,0.249938828399904,-0.0894649786109842,-0.0894649786109842,0.708830629361817,0.713218546102141,0.04,0.0595039269789118,338.445779776505,0.850198338950575,0.292498421835432
9067,0.249997140597464,-0.23097576173824,-0.249995930621098,0.24997238348176,-0.249992373973172,0.24947950699887,0.248080822554983,0.249998232111895,0.727494944599575,0.724864590800258,0.04,0.0318112674821438,347.401527285892,0.846217339021295,0.301650798931337
9127,0.230896086415324,-0.174861922868779,-0.24999640538197,0.249975466022076,-0.191664277679364,0.249540231182335,0.248304716579922,0.249998438365507,0.738742226486319,0.736510635498375,0.04,0.0377554611797367,352.363386782913,0.829697431682207,0.31205109160265
9187,0.0862738190362671,0.25,-0.25,0.249998805255903,0.249962737116612,0.25,0.249999914197318,0.25,0.738919771736974,0.748156680196492,0.04,0.0558245861609654,352.765843645684,0.874766327461934,0.296311936762951
9247,0.105375009014882,0.249999926087064,-0.191666776698532,0.249998916274841,0.249967084453008,0.191666666666667,0.249999924207631,0.249999944019526,0.757549315141204,0.759802724894608,0.04,0.053635824848123,361.570201218149,0.898671999449266,0.29562836189874
9307,0.249998304567254,0.249999366460548,0.249999056869728,0.249999756846801,0.25,-0.25,0.25,0.249999520167368,0.769893862839047,0.771448769592725,0.04,0.0614879639581333,367.35061263463,0.909499416322251,0.29677889948819
9367,0.249998502367741,0.249998791947836,0.249999113950374,0.249998941015574,0.249999940281724,-0.191724772941239,0.191666666666667,0.249999576147842,0.780542908996718,0.783094814290842,0.04,0.0601344866093721,372.542063913108,0.926028138629159,0.295600938819363
9427,0.25,0.249994442065871,0.249999546132414,0.249992764007713,0.249999488129065,0.249501946217955,-0.00113026961173001,0.25,0.786666294720235,0.79474085898896,0.04,0.0643467941024736,375.479830005015,0.954522584574502,0.289038091089545
9487,0.249999977658793,0.24999509049152,0.249999204207457,0.249993337099134,0.249999547847341,0.249552072243117,-0.000533635209208504,0.249999959982685,0.801583958205693,0.806386903687077,0.04,0.0614891567255994,382.543274410958,0.988733520950633,0.284286337822752
9547,0.249999808503945,0.25,0.249996615347066,0.249997676219889,0.25,0.249931597862196,-0.000251806410398598,0.249999656994439,0.814517223779475,0.818032948385193,0.04,0.0609572458940582,388.70552589681,1.01253023747741,0.282076813803546
9607,0.249999830845152,0.249999996155951,0.249997010223241,0.249997768107599,0.249999553454717,0.249939541670651,-0.000118680543857992,0.249999687583389,0.826768340677499,0.829678993083311,0.04,0.060834092979652,394.547086019937,1.03160372716739,0.281022189998948
9667,0.25,0.249999967051005,0.25,0.249998463828834,0.249996172469004,0.249999687648953,-5.57966355544215e-05,0.249999919185435,0.838727259217156,0.841325037781427,0.04,0.0606648099974657,400.251223428797,1.04832137907552,0.280538778466521
9727,0.25,0.191667820161172,0.249998434096269,0.205266759775077,0.249996619009497,0.249999724088384,-2.60925214985303e-05,0.249999928613789,0.850946679848143,0.852971082479544,0.04,0.0584571047323484,406.205671194269,1.06332345466914,0.280695380360028
9787,0.25,-0.249989863433277,0.24998657796802,-0.133416142346232,0.249999999958947,0.24999999998694,-6.31370273432677e-05,0.249999999999897,0.873282275150065,0.864617127177661,0.04,0.0417551749477417,416.635193438903,1.03076618874003,0.296995907010366
9847,0.25,-0.19182859707811,0.191656274370894,-0.0944644446083011,0.249991794687274,0.191715192791838,-2.95598606127312e-05,0.191668437031199,0.881786450946772,0.876263171875779,0.04,0.0422946405747208,421.115926395572,1.00207875539221,0.308783786049379
9907,0.25,0.248535276753862,-0.249987452864493,0.200455552550319,0.249929669058892,-0.249584061685354,0.0664548404677089,-0.000237075204277932,0.894295799524971,0.887909216573896,0.04,0.0418028541893513,426.657015930508,0.937147943885429,0.334522559619313
9967,0.249784306525228,0.248705145751763,-0.249959535590692,0.1482234674054,0.232730059300283,-0.191302244246827,0.0678412287092868,-0.00055007948371958,0.89936504502483,0.899555261272013,0.04,0.037380172289737,429.118623165395,0.928904327577664,0.339438463461962
10027,0.248151198787672,0.249991296735866,-0.249748161946203,-0.247248034406128,0.10250444255653,0.249974373502023,0.0783381682526625,-0.0071032597256705,0.91065848330102,0.911201305970129,0.04,0.0302905347012348,434.577383192586,0.936929584883164,0.340811973516992
10087,0.19003355892911,0.191658978893531,-0.249777543052479,-0.247569090432673,0.0613789242582677,0.191644029987445,0.0983653819565185,-0.0236694251410552,0.922475098725378,0.922847350668247,0.04,0.024815343741011,440.534304166011,0.941066765628548,0.343964777392649
10147,-0.25,-0.249999999055582,-0.25,-0.249999943205087,-0.25,-0.249999999480076,0.25,-0.0668871033098346,0.932635216837894,0.934493395366363,0.04,2.93415461833672e-07,444.878140338253,0.869210958245608,0.376071610595697
10207,-0.249999990180361,-0.249999997075992,-0.249999999729083,-0.249999778547075,-0.249999988337308,-0.249814452888834,0.249999995929479,-0.100984252531057,0.933491414584926,0.94613944006448,0.04,7.99860956337986e-07,445.701968369783,0.932870735174257,0.35105709862411
10267,-0.249999915831669,-0.249999982087671,-0.249999997677858,-0.249998531850694,-0.249999900034066,-0.24840960012658,0.249999965109818,0.249655042787822,0.984222304704209,0.957785484762598,0.04,0.00229294336950774,468.667801346532,0.849935067615827,0.405166981070473
10327,-0.213157777850448,-0.191667085049343,-0.191666767479372,-0.191665369801446,-0.191666680792503,-0.235288467194834,0.249999956368532,0.249695008554702,0.968481136879879,0.969431529460715,0.04,0.00821956661365733,461.150856198508,0.847360676843834,0.399879729451081
10387,0.0657898382930858,0.249996278240854,0.24999911830916,0.25,0.249999122036478,-0.135942746425904,0.249999890184512,0.249997606503937,0.929697402859082,0.981077574158832,0.04,0.0399761278297916,444.449828000344,1.17359570612653,0.278265206570767
10447,0.0289476904922258,0.249996324994017,0.249999063409709,0.249999928160027,0.191666225005322,-0.0909160926762148,0.191666569662986,0.249997885745144,0.982861704396914,0.991364913642168,0.04,0.0421538103837638,469.383443182397,1.28621117853847,0.26814528384272
10507,-0.25,0.249996678982254,0.249998647742433,0.2499993842288,-0.249997138230575,0.25,-0.25,0.25,1.00862586430199,0.991364913642168,0.04,0.0448106623419923,481.023212779103,1.21085221089492,0.291896959909196
10567,-0.19167349595349,0.238992759721457,0.191696107015201,0.204691231329244,-0.249997380662793,0.191866379303083,-0.191666666666667,0.25,0.999654146503162,0.991364913642168,0.04,0.0529076584587748,477.018401333186,1.15318994331453,0.303940772199646
10627,0.249941463255797,0.155677371032567,-0.249737415633844,-0.138356212053111,-0.249999216221016,-0.248288177402149,0.25,0.25,1.00038544546181,0.991364913642168,0.04,0.0471728849614401,477.176903329427,1.10073038600604,0.318532048998961
10687,0.191617256503025,0.108375644694825,-0.191434717143229,-0.151373347630101,-0.205335341287268,-0.190154556705231,0.249997792591672,0.25,0.996433674097717,0.991364913642168,0.04,0.0500581086285026,475.170659431349,1.05791855688334,0.330028964973987
10747,-0.249980308910822,-0.249765997576652,0.25,-0.249931659855878,0.132833997496822,0.25,0.249981079357189,0.25,0.994312732956629,0.991364913642168,0.04,0.0503837642475865,474.656545670633,1.05327239248955,0.331126127142608
10807,-0.191649303986378,-0.191459964526042,0.249999810862958,-0.249939632872692,0.146502263295849,0.249961189312576,0.249983286765517,0.191673356739333,0.996715699555658,0.991364913642168,0.04,0.0496730610591616,475.504091116962,1.03288298865938,0.338265580544831
10867,0.249999733298699,0.25,0.249998378825353,-0.25,0.249990561488484,0.24966733696494,0.25,-0.249942656520001,0.989915573098515,0.991364913642168,0.04,0.0647280239447979,472.23440540602,1.03979663977253,0.333705905094137
10927,0.249999764345454,0.249999871357101,0.20025808375754,-0.238138871211512,0.249991662644585,0.192749277503757,0.25,-0.249949335328653,0.991069828941169,0.991364913642168,0.04,0.0580104913263302,473.052951968159,1.04756615176205,0.331805037970004
10987,0.24999999941374,0.249998897346578,-0.176347007470193,-0.148333181812956,0.249999999969344,-0.238201744130917,0.25,-0.244069113900107,1.0020626012915,0.991364913642168,0.04,0.0424698664365134,477.892616553314,0.99511189360845,0.35286865332282
11047,0.220314964316875,0.249999025989477,-0.126606523265337,-0.160193744094657,0.191668639223414,-0.181246426011047,0.191666666666667,-0.220755797989156,0.994967907858425,0.991364913642168,0.04,0.040914405439371,474.849166449193,0.969101320071235,0.360032056459854
11107,-0.00444315855939124,0.25,0.25,-0.249995144227541,-0.249983092138625,0.249986696896534,-0.211833753985583,-0.211833753985583,0.999249247407939,0.991364913642168,0.04,0.0332922495259694,476.681809383259,0.915671805685459,0.382510545989873
11167,-0.0330858077412719,0.24051674249493,0.191666666666667,-0.249991006641469,-0.249984499169895,0.191654916469228,-0.191666666666667,-0.217822723525125,0.992426469498252,0.991364913642168,0.04,0.0262415562001505,473.72652602472,0.903844080995341,0.385113605106523
11227,-0.249951580118368,0.168714935670829,-0.25,-0.249959679204064,-0.249995152406653,-0.249999992480376,0.25,-0.249636104408957,1.01213231444121,0.991364913642168,0.04,0.00346367591716593,482.753105288656,0.831912722803409,0.426385066843468
11287,-0.249957229104559,0.119874215561468,-0.191668227433741,-0.191631202348183,-0.24935523570146,-0.191666660024332,0.249999862433034,-0.249993792588046,0.992046822225352,0.991364913642168,0.04,0.00857152659764084,472.416751327208,0.807585533793394,0.429824764786123
11347,-0.25,-0.249919808123701,0.249986621996507,0.249998693846348,-0.244510152076423,0.25,0.249998820854575,-0.249946793611825,0.969762426596229,0.991364913642168,0.04,0.0244507267621248,463.284328597743,0.93668712167569,0.363419090119777
11407,-0.249997012745446,-0.249928630973014,0.191654849430268,0.191665623899291,-0.245147944853384,0.191682339123775,0.191779803112973,-0.214930364236843,0.986662148691907,0.991364913642168,0.04,0.0218625472172205,471.65740552258,0.987511610596877,0.35094505186903
11467,-0.249974394960966,-0.249995432546384,-0.249999999999821,-0.249999048556995,-0.249976947307515,-0.249865664653355,-0.249021331216301,0.0501940296023064,1.02544747199319,0.991364913642168,0.04,0.0024088481610468,488.719875968051,0.819345602229776,0.438275860572811
11527,-0.191644048882187,-0.191662632082639,-0.191668946261586,-0.197622243652202,-0.191646303454971,-0.191548010822423,-0.190802176205292,0.0383563574487047,0.995159809456855,0.989325749894781,0.04,0.0119351683001473,473.191260012206,0.776639798786179,0.447684180838151
11587,0.25,0.25,0.249980460613617,0.198944993484085,0.25,0.249999939611776,0.249999997449493,-0.0512717317142792,0.923364948284722,0.971847203488608,0.04,0.0625255321111307,441.258801238701,1.11321981316102,0.291250801888481
11647,0.25,0.249916239612427,0.249980683485368,0.204901407814122,0.234695021613181,0.19778192547365,0.24999998332872,-0.0534993400867017,0.951345326298597,0.954368657082435,0.04,0.0650484822271351,454.029576975297,1.19035011845186,0.280261925813572
11707,0.25,0.249282053820808,0.249982370942907,0.249999973455837,0.118814470970125,-0.197583038715014,0.249999876414296,-0.0703655177636138,0.950510895657293,0.936890110676262,0.04,0.0715128473209025,453.278243118101,1.12763879184289,0.295358546794044
11767,0.24999867192936,0.24936581420838,0.249984427666234,0.249999976540773,0.134119449356944,-0.145365844095804,0.249999729636673,-0.0913228130191232,0.929537813515496,0.91941156427009,0.04,0.0804055364069957,443.256414351473,1.05984910744129,0.307302198190083
11827,0.249988616537373,0.25,0.25,0.249999999898148,0.25,0.249992915163929,0.249998618320384,-0.249999477096551,0.906679301250665,0.903972181611303,0.04,0.0867014290101383,432.549060692065,1.0268592921869,0.30951315489601
11887,0.191656619492031,0.191666695797634,0.19167035778206,0.24999999991003,0.191692954085296,0.191660408394804,0.191666470626986,-0.249999425471033,0.907836986064891,0.903972181611303,0.04,0.0732127204544606,433.251020334839,1.01959405981954,0.312224496456907
11947,-0.249999929565556,-0.249999750305991,-0.249968361868053,0.25,-0.24977467926889,-0.25,-0.249991219051599,-0.249999034592111,0.951516303762331,0.903972181611303,0.04,0.00837992618280199,453.586078676534,0.806959990859332,0.413011733758458
12007,-0.249999935215755,-0.249999779436958,-0.191729127627848,0.191674680447382,-0.249794464265766,-0.25,-0.249992232520314,-0.24998601479352,0.913375465043725,0.903972181611303,0.04,0.00357801307003424,435.737389732684,0.711159588828985,0.450207197236088
12067,-0.249999977995833,-0.25,0.249225074476565,-0.249931310451013,-0.249944264956404,-0.25,-0.2499999059263,-0.249887436318474,0.890888076768003,0.903972181611303,0.04,4.11068852004944e-06,424.965019801378,0.736514834192462,0.423961442602116
