time,bias_percent_1,bias_percent_2,bias_percent_3,bias_percent_4,bias_percent_5,bias_percent_6,bias_percent_8,bias_percent_9,normalized_power,power_SP,SP,CV,total_power_MW,fuel_fraction,thermal_efficiency
15,0,0,0,0,0,0,0,0,0.999470485079707,1,0.04,0.0402002798448959,476.783786971899,0.998904838424164,0.350713140531217
75,-0.00641294564050008,-0.00162953571797891,-0.00860603008485191,-0.00588119820408247,-0.00264299629545781,0.00492579444665387,0.00671187824610951,0.00331543092448561,0.995169385630067,0.987073036244013,0.04,0.04231613097301,474.567982694403,0.984557787123609,0.354170104391221
135,-0.0320647282025001,-0.00814767858989433,-0.0430301504242591,-0.0294059910204119,-0.0132149814772885,0.0246289722332692,0.0335593912305477,0.0165771546224281,0.952138534965702,0.935365181220066,0.04,0.0558698207860396,453.865216516264,0.88920587989457,0.375041434260665
195,-0.0577165107645001,-0.0146658214618096,-0.0774542707636663,-0.0529307838367413,-0.023786966659119,0.0443321500198847,0.0604069042149858,0.0298388783203706,0.900065086898541,0.883657326196119,0.04,0.0652598277541916,428.999494585965,0.786219017935944,0.400929407330133
255,-0.0833682933265002,-0.0211839643337252,-0.111878391103074,-0.0764555766530708,-0.0343589518409497,0.0640353278065001,0.0872544171994239,0.043100602018313,0.847072340846718,0.831949471172172,0.04,0.0690904764477145,403.717274406465,0.690335829233564,0.429706174819687
315,-0.1090200758885,-0.0277021072056408,-0.146302511442481,-0.0999803694694004,-0.0449309370227804,0.0837385055931154,0.114101930183862,0.0563623257162555,0.793321405496613,0.780241616148225,0.04,0.0687006444790831,378.454948810475,0.60270596631821,0.461384897018205
375,-0.1346718584505,-0.0342202500775562,-0.180726631781888,-0.12350516228573,-0.0555029222046112,0.103441683379731,0.1409494431683,0.069624049414198,0.741378785406087,0.728533761124277,0.04,0.0644570410335082,353.499092492424,0.522057888497761,0.497535778555547
435,-0.1603236410125,-0.0407383929494715,-0.215150752121295,-0.147029955102059,-0.0660749073864418,0.123144861166346,0.167796956152738,0.0828857731121404,0.688620667105087,0.67682590610033,0.04,0.0577841818351055,328.322281921124,0.448732671524946,0.537610005557199
495,-0.185975423574501,-0.047256535821387,-0.249574872460703,-0.170554747918389,-0.0766468925682725,0.142848038952962,0.194644469137176,0.0961474968100829,0.635326372532148,0.625118051076383,0.04,0.0491497977308925,303.005817111201,0.382944526803964,0.581392969374937
