time,bias_percent_1,bias_percent_2,bias_percent_3,bias_percent_4,bias_percent_5,bias_percent_6,bias_percent_8,bias_percent_9,normalized_power,power_SP,SP,CV,total_power_MW,fuel_fraction,thermal_efficiency
35,0,0,0,0,0,0,0,0,0.999674882566231,1,0.04,0.0399626004819886,476.951579913249,0.999730268766088,0.350546896567542
95,0,0,0,0,0,0,0,0,0.999962421330203,1,0.04,0.0398994683894711,477.082708946807,1.00025629813301,0.350458871569368
155,0,0,0,0,0,0,0,0,0.999996148210494,1,0.04,0.0399397975732315,477.098241157628,1.00031530256821,0.350449608550462
215,0,0,0,0,0,0,0,0,1.00000101954888,1,0.04,0.0399714037209594,477.100504857606,1.00031559406671,0.35045116921371
275,0,0,0,0,0,0,0,0,1.00000268408455,1,0.04,0.0399904932082137,477.10129024575,1.00030237837088,0.35045637617927
335,0,0,0,0,0,0,0,0,1.00000360218855,1,0.04,0.0400013834770456,477.101723571489,1.00028235075863,0.350463711309746
395,0,0,0,0,0,0,0,0,1.00000397130481,1,0.04,0.0400071260813679,477.101895705038,1.00025902969727,0.350472008825677
455,0,0,0,0,0,0,0,0,1.00000390760446,1,0.04,0.0400096126606614,477.101862461901,1.00023527289476,0.350480308541033
515,0,0,0,0,0,0,0,0,1.00000355574403,1,0.04,0.0400100766737913,477.101692861065,1.0002131085316,0.35048795046677
575,0,0,0,0,0,0,0,0,1.00000304785067,1,0.04,0.0400093566171095,477.101449758054,1.00019373058119,0.350494562297841
635,0,0,0,0,0,0,0,0,1.00000248479951,1,0.04,0.0400080257618215,477.101180974389,1.00017765957237,0.350499996637925
695,0,0,0,0,0,0,0,0,1.00000193552774,1,0.04,0.0400064658010211,477.100919223951,1.00016493979219,0.350504261889513
755,0.145731462809403,-0.145833333333333,0.12108829242569,0.145828298966113,0.14583276374761,0.126983851306152,-0.145819266668618,-0.14582925626309,0.994697028645834,0.992629571004627,0.04,0.0479918293758823,474.467007675892,0.991509426047718,0.351612129057738
815,0.24982536481612,-0.25,0.207579929872612,0.249991369656195,0.249999023567332,0.217686602239117,-0.249975885717631,-0.249993010736726,0.981413827418031,0.979994549869702,0.04,0.0539529091419161,468.138680289125,0.982362357809009,0.350152708437609
875,0.249921602247996,0.0416653602733048,0.232322451990958,0.249990373175482,0.249995633275755,0.236535072645804,-0.249924716539224,0.0416695788596975,0.957216804392196,0.967359528734777,0.04,0.0662232710777723,456.488748534551,1.00472566844206,0.333839142539887
935,0.249990343270765,0.249997760468523,0.249995682075492,0.249989661403544,0.249993211638915,0.249998265793437,-0.249888167126077,0.25,0.950729970586819,0.954724507599852,0.04,0.0694558026033593,453.588351392006,1.05926936136827,0.314637265070798
995,0.249992201028849,-0.0416675998047823,0.249978481543547,0.249991670593909,0.249997171516214,-0.0416667339441343,0.0417127173684394,0.25,0.945320352733963,0.942089486464927,0.04,0.0631980560676493,450.959588687889,1.05148767843655,0.315128813354408
1055,0.249993527998908,-0.25,0.2499661954493,0.249993105729884,0.25,-0.249998876613828,0.249999063435951,0.25,0.937043421277734,0.929454465330002,0.04,0.0604312950872103,446.969086071107,1.01122166973137,0.324777396069223
1115,-0.041643400976114,-0.24999944649537,-0.0416807518961249,0.249997127387452,0.249999979366611,-0.226361636352132,0.24999960976498,0.249998154222909,0.930959318364343,0.916819444195077,0.04,0.048459729508461,444.159751487609,0.949075341411403,0.34386912844166
1175,-0.24995549310113,-0.24999905113492,-0.25,0.25,0.249999964628477,-0.209477893308064,0.25,0.249996835810702,0.916420845486126,0.904184423060152,0.04,0.040075565625405,437.038472877405,0.850996719587393,0.377351829826871
1235,0.0416825086723159,-0.249983361989492,-0.249997604602745,-0.0416666666666666,-0.0416521639400136,-0.233109045953393,0.249947114691223,0.249993106568609,0.903371995399304,0.891549401925227,0.04,0.0295642820164414,430.988153163702,0.787291500085201,0.402239249998992
1295,0.24999536708192,-0.249972155457044,-0.249995893604705,-0.25,-0.249975112917506,-0.249988440700057,0.249909339470667,0.249990442824257,0.887410038451048,0.878914380790302,0.04,0.0246774321938392,423.300233276148,0.715307491796575,0.434820899810807
1355,0.249998069617467,0.041678268559565,0.0399771417038158,0.0412364314004836,0.0416770362843724,0.041671483041643,-0.0417033971482234,0.249982691889615,0.850160636891326,0.866279359655377,0.04,0.0551700392482917,405.494028999027,0.748186386725813,0.398225749063566
1415,0.25,0.25,0.247100738352759,0.249262453829401,0.25,0.25,-0.123813445582655,0.249977155507727,0.84306701746348,0.853644338520452,0.04,0.0709966758530639,402.235928992195,0.840406903552883,0.351678586802034
1475,-0.0416666666666666,-0.0416666666666666,0.0752579247098827,-0.0419739775710831,-0.0415116808970067,-0.0416666591073484,0.0415981691553535,0.249778934259624,0.857200322100649,0.841009317385527,0.04,0.0292450566895609,408.987286130889,0.816576110986606,0.368016943014276
1535,-0.25,-0.25,-0.0474869421778865,-0.25,-0.249734310109155,-0.249999987041169,0.249881296422649,0.249637347653837,0.84241829971532,0.828374296250602,0.04,0.0139770693972287,401.295421119013,0.639391938817476,0.461160099340469
1595,-0.0869034966688818,0.0416666666666666,0.126043107116285,0.0416666666666666,0.0417773702308011,-0.249995029096705,0.240226344796312,0.249848894855765,0.784578101845554,0.815739275115677,0.04,0.0394080467795047,374.083412550929,0.697193569441071,0.394248232399211
1655,0.0295940057104885,0.25,0.249993142326408,0.25,0.249999999045055,-0.249991487707802,0.2333299507775,0.25,0.792701462813951,0.803104253980752,0.04,0.0563419204137784,378.257956445073,0.812964370806902,0.341878063806455
1715,-0.131067433221228,0.249999996692846,0.241866914541552,0.249990941859126,0.249999999602106,0.0416633220143315,0.242979041424923,0.25,0.786924806151786,0.790469232845827,0.04,0.0629759210499397,375.351791297675,0.836244427461259,0.32980704801507
1775,-0.245825603886741,0.249999994330593,0.236062466123798,0.249984471758502,0.25,0.249988186101569,0.249871249030226,0.25,0.779556468786799,0.777834211710902,0.04,0.0665389278787549,371.856469690203,0.839125232065376,0.325614126309463
1835,-0.248260269867048,0.249999997637747,-0.00748084515187759,0.249993529899376,0.25,0.249995077542321,0.249946353762594,0.249914423958637,0.771230192151771,0.765199190575977,0.04,0.0632961248705197,367.889668595092,0.813695353955672,0.332208264024775
1895,-0.249999316995839,0.25,-0.181440353205931,0.25,0.25,0.25,0.25,0.249853298214806,0.757692183107726,0.752564169441052,0.04,0.061743529547296,361.364969265859,0.773840611228571,0.343122508453399
1955,0.0416669512517336,-0.041666580394281,-0.188877883792138,0.248301027711283,-0.0416665731393811,0.0835712467412636,0.249971944949016,0.249938010459136,0.750510890517885,0.739929148306127,0.04,0.0495372723065042,358.022248415105,0.730207260811931,0.360262074001039
2015,0.25,-0.249999852104482,-0.194190405639429,0.247087476076485,-0.249999839667511,-0.0353064341578339,0.249951905626885,0.249998519205087,0.734771967094215,0.727294127171202,0.04,0.0434128758763137,350.412045297829,0.667026934719472,0.386002690308925
2075,0.25,-0.249250052658864,0.064919914224013,-0.0428802183014644,-0.249999933194796,0.130951803344544,0.249979960677869,-0.00147389725461934,0.725168122197106,0.714659106036277,0.04,0.0411906938133392,345.793186494007,0.617826315573332,0.41124885836997
2135,0.25,-0.248714481626279,0.249998714126472,-0.25,-0.25,0.249707687274814,0.25,-0.00069595282632676,0.704283146155206,0.702024084901352,0.04,0.0419291274737351,335.909459613108,0.601518436974569,0.410324989663459
2195,0.162466324753538,0.0422022754215095,0.24999396656184,-0.249995652380066,-0.249999999637446,0.249878202183867,0.25,-0.000346582251743659,0.689044382399161,0.689389063766427,0.04,0.0466054482573979,328.619720527929,0.594618871559732,0.406078138765712
2255,0.0999422710060661,0.249999959027073,0.249990575444245,-0.249992546937256,-0.249999999378479,0.249999998547475,0.25,-0.000163449268906328,0.676752531958322,0.676754042631502,0.04,0.0502506669964443,322.791579582967,0.597846556159999,0.396722782669581
2315,-0.104190720414139,0.249999982927947,0.248719971352283,0.0408818924068961,-0.249999999741033,0.249999999394782,0.249850453331294,-7.69437835426173e-05,0.661929025730806,0.664119021496577,0.04,0.0545888001238406,315.685108907839,0.602010333376249,0.385305161479245
2375,-0.25,0.25,0.247812397000881,0.248649349081291,-0.25,0.25,0.249743634282218,-3.60816795000924e-05,0.651082503659123,0.651484000361652,0.04,0.0526830491524073,310.535900642469,0.60991774270222,0.374106474659811
2435,0.0416381034538405,0.249999988296691,0.198942097903455,0.249437228778844,0.0416320549412121,0.25,0.249893180950924,0.00525441497782356,0.632803117489735,0.638848979226727,0.04,0.0716084591854284,301.751957571493,0.623542413049986,0.35558118519949
2495,0.249951034492298,0.249999979937185,0.164034741405294,0.249999999991383,0.249940665613507,0.25,0.25,0.18757899710484,0.62008829283512,0.626213958091802,0.04,0.0845702682585948,295.837620552122,0.684718232550069,0.317465243201065
2555,0.249881060577863,0.249999991640494,0.123702692218891,-0.0416666311335092,0.249975277338961,-0.0416666666666666,0.249998694258196,0.223991248793683,0.621069873514095,0.613578936956877,0.04,0.0714497123839967,296.319518619138,0.672577479266971,0.323722297925796
2615,0.249831079210408,0.25,0.0948940856571745,-0.24999993907986,0.25,-0.25,0.249997761585478,0.25,0.609991880542992,0.600943915821953,0.04,0.0687177922249315,290.874876926898,0.606906422825632,0.352159294539771
2675,0.249925301551836,0.249970427247731,0.063428195985887,-0.249888634363865,-0.0416666666666666,0.0416565141564262,0.24997694726053,0.0433232360832731,0.597696157742281,0.588308894687027,0.04,0.0646734427974974,285.088712097032,0.558946611013591,0.374769613661246
2735,0.249992603224285,0.249949303853254,0.0409525605063959,-0.249809130995297,-0.25,0.249982595696731,0.249962079885567,9.36256913968066e-08,0.579673352694215,0.575673873552102,0.04,0.0635158154522866,276.438299929635,0.522646598846658,0.388637551365056
2795,-0.00492112808163176,-0.0365863100461025,-0.128769766455668,-0.249920471248041,-0.249913868272084,0.247280721418788,0.24998419995232,-0.000314810831631933,0.572809006488931,0.563038852417177,0.04,0.0297769207409715,273.295509926645,0.490813380826382,0.409138905140648
2855,-0.187002364728715,-0.2412546056885,-0.25,-0.25,-0.249852345609286,0.245350811220258,0.25,-0.0291288093969264,0.553593114572939,0.550403831282252,0.04,0.0102421800142913,263.518933782225,0.377024375311532,0.513566955242259
2915,-0.2237507616315,-0.246356085703542,-0.25,-0.249798124241603,-0.249853328636171,0.247891485682176,0.25,-0.0917294367924988,0.539645237473391,0.537768810147327,0.04,2.28472437041382e-06,257.207505850618,0.348682941933963,0.542010391213972
2975,-0.249999616562061,-0.25,-0.25,-0.249653927271319,-0.249854030798232,0.249706253154974,0.25,-0.00338385057044422,0.526348086481109,0.525133789012402,0.04,0.00383608641232235,250.715525416183,0.326875954877361,0.563576570091866
3035,-0.243458936569491,-0.249999997309599,-0.242609204038377,-0.249293744705459,0.0416818941908923,0.249877605481239,0.249999247455977,-0.14724318485129,0.509066604870771,0.528595809172362,0.04,0.00252390855531998,242.714679732936,0.364118865879101,0.489787321377419
3095,-0.238787022289084,-0.249999995387883,-0.23733006406579,-0.249036471444131,0.249921840611695,0.25,0.249998709924532,-0.249999852194751,0.529236646249848,0.543555715971525,0.04,7.25364320489668e-05,252.667126844688,0.457366973415013,0.405918287136579
3155,0.0463386858057439,0.0416611426004817,0.0469403296953112,0.0420429626707563,0.249943271794758,0.249999444495633,0.249999462468555,0.0416667282521869,0.49316647229178,0.558515622770687,0.04,0.0418439335214013,235.575515777423,0.636841717372945,0.271802421830155
3215,0.249999905873478,0.249990526877885,0.249990610953241,0.24995684418139,0.249958579782661,0.249999047706799,0.25,0.25,0.543193324808627,0.57347552956985,0.04,0.05621401899541,259.668887715134,0.946093068486965,0.201669737630958
3275,0.249981224578937,-0.0416693782681319,0.249996087897184,0.0481644260605667,-0.0222474045610892,0.249999111617439,0.249999997444253,0.25,0.59608890599288,0.588435436369012,0.04,0.0567787872615109,284.73845344014,0.974156742300293,0.21476917922626
3335,0.249967880797122,-0.249997881943859,0.25,-0.0959730154543072,-0.21668025052091,0.249999157267895,0.24999999561872,0.25,0.615969877996116,0.603395343168175,0.04,0.0674129015220261,293.930185257548,0.883640867243782,0.244412307617715
3395,0.249986616998801,0.0416675491900588,0.24998870570913,-0.0313407628319615,0.0554806346685953,-0.0416670178050435,0.249999998174467,0.249786518434561,0.622708238645943,0.618355249967337,0.04,0.0844449943316965,297.18948018489,0.841197166650542,0.259591404057025
3455,0.25,0.25,0.249980638358509,0.0148251318982856,0.249881266946814,-0.25,0.25,0.249634031602104,0.635424402938133,0.6333151567665,0.04,0.0867254990989105,303.265853055017,0.824001364816062,0.270427129254707
3515,0.249999682415299,0.249999423462511,-0.041674734017288,0.152009690785619,0.249950527894506,-0.25,0.249999999347218,0.249842734024215,0.650309144443674,0.648275063565662,0.04,0.0765143655752097,310.404919959991,0.814738076954583,0.279940193796772
3575,0.249999455569084,0.24999901165002,-0.25,0.249998661419428,0.25,-0.25,0.249999998880945,0.249991807182865,0.666542069800875,0.663234970364825,0.04,0.0671219689046125,318.113739948248,0.794605798549122,0.2941611900716
3635,0.249842055954411,0.249430050109151,-0.249992983357714,0.176759873204771,0.25,-0.25,-0.0416666671329398,0.24826875718119,0.687212650831475,0.678194877163987,0.04,0.0534996080032473,328.051986570313,0.762922680932137,0.315948881388502
3695,0.249729627658216,0.249023649008531,-0.249987971470367,0.124446453051444,0.25,-0.25,-0.0245829478306893,0.247038007179994,0.693847806173605,0.69315478396315,0.04,0.0495777954337622,331.113052182066,0.742604632997363,0.327622200130985
3755,0.249887324755743,0.249593187084939,0.0416716150836861,0.197686022070026,0.25,0.0416666666666666,0.13833838300749,0.248765735990314,0.692972646148071,0.708114690762313,0.04,0.0661557525986538,330.584369337255,0.786159249514365,0.308977221383763
3815,0.24999996553969,0.249999999996659,0.249999891193724,0.249999999940442,0.25,0.25,0.249998988142878,0.249999827997686,0.709250010595286,0.723074597561475,0.04,0.0671847846926985,338.594104318367,0.895405770408787,0.277852417143025
3875,0.249989446456039,0.249999749503246,0.249998583849054,0.249999999975184,0.249999623582275,-0.0416657428258097,0.249999243827297,0.24998851949015,0.736398811139867,0.738034504360638,0.04,0.0593498096036545,351.54206697858,0.933828188064163,0.276608167192927
3935,0.24998193282486,0.24999957057938,0.249997650031433,0.25,0.249999354712472,-0.249998416272817,0.249999426459024,0.249980441984768,0.752748246764712,0.7529944111598,0.04,0.0592424580813689,359.225220098417,0.928382329236978,0.284311633318897
3995,-0.0416470222384924,0.249999821074742,0.148746572334585,0.25,0.249999731130196,0.0416672378127203,0.0898856832108735,-0.000577677497632789,0.775983405975011,0.767954317958963,0.04,0.0493319571347479,370.23594431186,0.912230497170768,0.298214440074351
4055,-0.249953418712315,0.25,0.076424373979694,0.25,0.25,0.249999847873818,-0.000276910546476728,-0.000276910546476728,0.783878150994888,0.782914224758125,0.04,0.0443206045813253,374.063660071365,0.893721021082788,0.307537600962861
4115,0.0416560252318656,-0.0414698101162409,-0.113989637061003,-0.0416655999935828,0.25,0.249959052459851,0.0689544258283502,-0.00198978638796905,0.801611311126944,0.797874131557288,0.04,0.0298091828550577,382.624389962447,0.885812944081748,0.317384200979667
4175,0.249948485191995,-0.249662531627842,-0.249999644947215,-0.24999817141757,0.25,0.249929912878446,0.135694213028665,-0.0203459954937894,0.815983222253541,0.812834038356451,0.04,0.023376856670147,389.380231946212,0.853666592190264,0.335150822780517
4235,0.249976939467397,0.0418071634585657,0.0416668146053271,-0.249998589220638,0.249997426798184,-0.0416958488628873,0.202125646702641,0.0416665994667441,0.816865436429134,0.827793945155613,0.04,0.0350750260536898,389.603546269098,0.875412489346604,0.327012865515833
4295,0.249997263949827,0.249999802805999,0.25,-0.249998887651401,0.249995588796887,-0.249999964392411,0.24957667075548,0.249990443278645,0.833920242792618,0.842753851954776,0.04,0.0414733799898001,398.073780232085,0.958254682021658,0.305237086409231
4355,0.249998859979095,0.249976870679863,0.249999985358508,-0.249999536521417,-0.0134677171617753,-0.179568628492479,0.249823612814783,0.249996017393472,0.858164624396625,0.857713758753938,0.04,0.0389332379103989,409.606319339536,0.975281326248594,0.308596798122447
4415,0.25,0.249960490589766,0.2499999749003,-0.25,-0.201655792846534,-0.129260531421099,0.25,0.249999998904063,0.873477949973454,0.872673665553101,0.04,0.0397478953931084,416.832311504238,0.964614544064839,0.317513537975431
4475,0.249999999998586,0.24996983952894,0.249999989541791,-0.24945919075837,-0.229856580352722,0.091974778574542,0.249883397940661,0.249996275818955,0.883362758521913,0.887633572352263,0.04,0.0448122927239753,421.530127457659,0.977363311929791,0.316903666249883
4535,0.249999999997575,0.249976517342636,0.25,-0.249072898442921,-0.25,0.25,0.249800110755419,0.24999361647245,0.898719747631444,0.902593479151426,0.04,0.0454961919117906,428.918993185876,1.00804162564,0.312645000383665
4595,-0.0416665020393759,0.249777194573035,0.249549412783122,-0.24961370768455,-0.25,-0.041665713919276,0.249916441867444,-0.0414764807365168,0.928613398455688,0.908826773651077,0.04,0.028357863878664,443.252142946453,0.963108412727327,0.338166314029372
4655,-0.249999717780056,0.249634821166176,0.249227564771067,-0.25,-0.25,-0.249998366718759,0.24999953551889,-0.0799754723848088,0.919549935942025,0.908826773651077,0.04,0.0242642999838298,438.61096231338,0.861887629028837,0.37392414648351
4715,-0.249999882408356,0.249847842152574,-0.0419885146787223,-0.25,-0.0712308861042072,-0.0647824343200657,0.249999803600479,-0.109115107790886,0.910721053471954,0.908826773651077,0.04,0.0227352221273634,434.475546995894,0.836042313261453,0.381849087136699
4775,-0.25,0.25,-0.25,-0.25,0.0564613381070733,0.0675146602504294,0.249999995087328,-0.147319262904854,0.910328146934844,0.908826773651077,0.04,0.0202787266077611,434.30805667674,0.826107952141657,0.386292040300054
4835,-0.249826946599103,-0.0416567747978437,0.0416642141426877,0.0416658584921641,-0.122307775788719,0.173964441771012,0.249999997953053,-0.170204683575245,0.903697417254823,0.908826773651077,0.04,0.024887701485147,431.030425299685,0.837514037765768,0.378155575636988
4895,-0.249703337027033,-0.249983042510589,0.249995795673179,0.249998614557996,-0.25,0.25,0.25,-0.113222499254428,0.90447737281407,0.908826773651077,0.04,0.028900749050946,431.552007055133,0.875110324749981,0.362347283068947
4955,-0.24987639042793,0.041582376290248,0.238053652186096,-0.0416404957457877,0.0415396832327355,-0.0415676269684572,-0.0411409287830292,-0.0278133090568787,0.909455236772438,0.908826773651077,0.04,0.0255227678975065,433.935687838148,0.882741469748706,0.361198980406166
5015,-0.25,0.249843389719418,0.229523549695323,-0.249954145962776,0.249782314113261,-0.249830217660212,-0.249098735056622,0.0331932553699423,0.909175075037386,0.908826773651077,0.04,0.0268045142842796,433.74927037189,0.874063854334116,0.364628215965249
5075,-0.249810089297901,0.24993339454961,0.204990450712527,0.0396441560983409,0.249909297547192,0.0417336378207916,-0.0326164753838071,-0.131935122778519,0.890715979559739,0.894240098271022,0.04,0.0485716354698406,424.706853740123,0.880833635807437,0.354282789411447
5135,-0.249674438796402,0.249997683714033,0.187466808581958,0.246500086141995,0.25,0.249993534592937,0.122013710096775,-0.249883964313134,0.873267484278889,0.873897227994195,0.04,0.0598165002488864,416.559264033663,0.901598675556917,0.339483138530015
5195,0.0417886120732057,-0.0414407194302862,0.223944460275052,0.24850524058561,0.249999998490151,-0.0416603562148189,-0.0949942874596772,0.0417150148695274,0.862055821151792,0.856884971250312,0.04,0.0578326526709954,411.178266508731,0.879911751168013,0.343356845092553
5255,0.249976505551497,-0.249611007390515,0.249999925770118,0.24993749375962,0.249999997411687,-0.249984563934645,-0.25,0.25,0.846297175555525,0.839872714506429,0.04,0.0583830318511596,403.632225963089,0.840960368577823,0.35266712688095
5315,0.249990210646457,-0.249837835653776,-0.0415762366647742,-0.0416883366801505,0.249999998921536,-0.249876693525301,0.0395407048175092,0.25,0.827841876342541,0.822860457762546,0.04,0.0484686313455471,394.853004914487,0.80774235007471,0.359184237778722
5375,0.25,-0.24999985584182,-0.249844924118269,-0.249992501279987,0.25,-0.249799643232912,0.246355493972873,0.25,0.814241181947625,0.805848201018663,0.04,0.042034861895243,388.321153990123,0.754920436448822,0.377958871458823
5435,0.25,-0.249236656983976,-0.249860281453678,-0.249847957782716,-0.0409087462804722,-0.249916518013713,0.248047646959162,0.25,0.80302856388161,0.78883594427478,0.04,0.0357703159400505,383.053805692236,0.69150927905639,0.407020652019637
5495,0.25,-0.248691514942658,-0.249871250978969,-0.249744712427522,-0.248700707909381,-0.25,0.249256327663654,0.25,0.780748698662231,0.771823687530898,0.04,0.032450598373308,372.247071864287,0.61289369900647,0.44627320310275
5555,0.0208464255690717,-0.249454736586484,0.041720312092096,0.0417730364885324,0.0422080383710913,0.0416666666666666,-0.0419748169779763,0.0587317763785072,0.750470855210647,0.754811430787015,0.04,0.0406702871545274,357.965106179137,0.611714546787434,0.429978323870428
5615,-0.142834699024448,-0.249999894903504,0.25,0.25,0.25,0.25,-0.188036112911244,-0.0778883833511304,0.73645073597756,0.737799174043132,0.04,0.0512398750918964,351.239588736971,0.622734873736237,0.414433591006578
5675,0.0863188736747825,0.0416666108321655,0.249952528325149,-0.0416612100142463,0.25,0.25,-0.171336786022004,-0.171336786022004,0.719011740759682,0.720786917299249,0.04,0.0544581561088949,342.94984359862,0.625973981047063,0.402558502170536
5735,0.249999997031376,0.249999829214786,0.249918619985969,-0.249990645738708,0.25,0.25,-0.139718394283111,-0.139718394283111,0.703134494787222,0.703774660555366,0.04,0.0620038278783651,335.340832512138,0.631476968665488,0.39019670611789
5795,0.249999998763073,-0.0416652970268505,0.184925265689209,0.0416705642755384,0.249932375862304,-0.0415898654306441,0.0414349177719177,0.0416639063759674,0.681652780054582,0.686762403811483,0.04,0.0612729621397423,324.916677579362,0.635481354287706,0.375685010637564
5855,0.25,-0.249997530056591,0.138501441191524,0.25,0.249884072906807,-0.249868340738247,0.24960271618043,0.249995268073087,0.670088934769723,0.669750147067601,0.04,0.0541094610608523,319.646882569103,0.665923989266022,0.352695963480515
5915,0.249976976406989,-0.249998809381141,0.203542267163135,0.249998215349799,0.249951697044503,-0.24992447332766,0.249834464839207,0.249998028363786,0.656412651264338,0.652737890323718,0.04,0.0635255496730628,313.033077046424,0.64392385261471,0.357199131078885
5975,0.249960530983411,-0.249999723184392,0.25,0.249996940599656,0.25,-0.249964568034383,0.249999999595476,0.25,0.638885888259962,0.635725633579835,0.04,0.0697815655968723,304.676301671034,0.623879621782766,0.358833144860113
6035,0.249475023384584,-0.249994878932272,0.25,-0.0416648146772645,-0.0416281442062603,-0.249985234503451,0.249999999831448,-0.00533502342234721,0.636835557384172,0.618713376835952,0.04,0.0433416671470747,303.827999987948,0.565547273173783,0.394742201016931
6095,0.249128232242566,-0.249991418752187,0.25,-0.249994639875065,-0.249933961496446,-0.24999999626707,0.25,-0.0101391005579411,0.610873618105827,0.601701120092069,0.04,0.0301790468722667,291.228248718276,0.481543185244481,0.444378392657661
6155,-0.0420252993199337,0.040963120725369,-0.0416666666666667,-0.0951116247873411,-0.249972483956853,0.0416666682220541,0.249992521676688,-0.0261058540810596,0.586080459245235,0.584688863348186,0.04,0.0344987772717459,279.468834492217,0.460091605232203,0.446317330431701
6215,-0.249992107578862,0.248787791780766,-0.25,0.0155191002753189,-0.25,0.25,0.249987180017179,-0.041157675609699,0.570010688094109,0.567676606604304,0.04,0.0313858693753482,271.738560530455,0.448748380511121,0.444941641319525
6275,-0.249864623907059,0.249493153564094,-0.249966651696942,0.137204602790223,-0.25,0.247497974088597,-0.0412215286848716,-0.0634510560527691,0.557147848128849,0.550664349860421,0.04,0.01928722706963,265.711804574403,0.425491845466821,0.458853748498895
6335,-0.249773564141485,0.249996983409328,-0.249942831480473,0.224122818872298,-0.25,0.245710812723309,-0.0981217965056521,-0.0981217965056521,0.534416417390703,0.533652093116538,0.04,0.020955735377758,254.828756840423,0.413460254190294,0.452865612447169
6395,-0.249905651725619,0.249998739026585,0.0416904868831364,-0.0517533645456028,0.041616679934278,0.248209530183311,0.0419884378390265,-0.139982785544891,0.518459607224235,0.541463783907872,0.04,0.0312820293530445,247.312227738765,0.472089793143302,0.384924589195547
6455,-0.25,0.249999993038911,0.25,-0.248807781272675,0.249914308458762,0.249994328369026,0.25,-0.17200083873713,0.549062619675993,0.567006865795789,0.04,0.0272680277219672,262.249442896401,0.614531769332682,0.313563072369274
6515,0.040884488216135,0.249999997099546,-0.0414777502948102,0.0421623100557612,0.0777921839160181,0.249997636820428,0.25,-0.20427241296826,0.57754838222336,0.592549947683707,0.04,0.0297696720671807,275.761490982979,0.699953667479875,0.2894802915909
6575,0.248659122656231,0.25,-0.249676143362532,0.249998089576072,-0.0451521907573708,0.25,0.25,-0.230344896137066,0.605603721162135,0.612536709429921,0.04,0.0392551797352027,289.126919643628,0.764300536102989,0.277957912449996
6635,0.249395335793253,0.25,-0.249858579884428,0.249945403917435,-0.164646746148905,-0.037387120695411,0.249611977022336,0.0416666532575569,0.624696900492607,0.628554671074918,0.04,0.0430497600919213,298.18225874412,0.78990098826824,0.277372767234836
6695,0.249921202319697,0.25,-0.249988891685783,0.249907771304122,-0.25,-0.242663635477848,0.249334817752576,0.249999977012955,0.644760234478124,0.644572632719915,0.04,0.0461851248844313,307.763896290493,0.797990716028096,0.283383466856572
6755,0.249967167633207,-0.0416666666666666,-0.249995371535743,-0.0417048450918453,0.0413919596216423,-0.246942580349314,0.249467260912352,0.249999990422064,0.665139127500702,0.660590594364912,0.04,0.0407208427785184,317.526647789209,0.784596795675229,0.29736395519467
6815,0.25,-0.25,-0.25,-0.249999571088965,0.249529073637101,-0.249998969543218,0.249561863169334,0.25,0.679641144300613,0.676608556009909,0.04,0.0366818903785701,324.321102312552,0.748406502175192,0.318414129926848
6875,0.225468739288327,0.0416384158338558,0.0416342679771592,-0.249985526837984,0.0512845251559987,-0.249999570643008,-0.041849223679444,-0.0416549320672022,0.699888775647614,0.692626517654906,0.04,0.0307772876799194,334.19463278424,0.726820267414225,0.337852485236783
6935,0.207946410208561,0.249951570000896,0.249944459389416,-0.249975495230141,-0.0903187237590743,-0.25,-0.25,-0.249979883543775,0.71178162486396,0.708644479299903,0.04,0.0330559173029789,339.582527865786,0.66866682665352,0.373155833529968
6995,0.232444538308196,0.249763076928736,0.249295574921525,0.0408206975133207,0.108200531767052,0.0405743654618835,-0.249998360977602,-0.232497646787321,0.706756046046593,0.7246624409449,0.04,0.0509383640190245,337.156793311337,0.723734003447887,0.342300562796816
7055,0.249943201236508,0.24962843902005,0.24883208601589,0.248532263758651,0.25,0.248127483648943,-0.249997190247317,-0.220010334818426,0.716929155962443,0.723093243100907,0.04,0.0575966181252696,342.105544133028,0.817799810640178,0.307374462994773
7115,0.249976333848545,-0.0418214837416457,-0.0421532974933793,0.249322397388274,0.25,0.0387581362621247,0.0406685284925462,-0.224531603220954,0.716224877896839,0.708961788479062,0.04,0.0493094708002178,341.671814586998,0.797002293357865,0.314995434610555
7175,0.25,-0.25,-0.25,0.249886778552291,0.25,-0.110791397585603,0.24828689902102,-0.201616227249809,0.705164144034721,0.694830333857218,0.04,0.0454971725663514,336.293918892745,0.731231788054635,0.337923681295143
7235,0.2499999313151,-0.249999509913016,-0.249995165185217,0.249952824396788,-0.040641882855317,-0.191890604597274,0.248872069803248,-0.183423548190209,0.694094318962526,0.680698879235374,0.04,0.0402937890227998,331.084450479025,0.664730915442962,0.365971767232827
7295,0.249999882254456,-0.249999159850884,-0.249991711746086,0.25,-0.248243227751972,-0.249818609605611,0.24929004893341,-0.177502226056708,0.676006496916172,0.666567424613529,0.04,0.034996373245917,322.348205622174,0.588219664365991,0.402661766321257
7355,0.249697776548348,0.0416654140504947,0.0416701201057973,0.24996597760305,0.0423879715172009,-0.249924420669005,0.249704154309399,-0.17646297281828,0.648065459410023,0.652435969991685,0.04,0.068775790816459,309.006202097666,0.575655532952791,0.394420236617808
7415,0.24948198675827,0.24999725255148,0.25,0.249941675890943,0.249981685280896,-0.25,0.249999943863676,-0.131288243882355,0.638384935387888,0.64654786389925,0.04,0.0772600949048599,304.590196954242,0.62202677193761,0.359800299854627
7475,0.249716760059299,0.249998853397004,0.249999503205735,-0.0416909365996911,0.238222288639285,0.0416666666666666,0.0203815724458493,-0.067023798803793,0.6452576413902,0.64654786389925,0.04,0.0600169288154002,307.915486523703,0.649359203818349,0.348418501021941
7535,0.249884455274319,0.249999996858093,0.249999148352688,-0.249999945521573,0.229822719609563,0.25,-0.031660662997761,-0.031660662997761,0.644339417823493,0.64654786389925,0.04,0.0561766221544421,307.415322126493,0.658347552066318,0.343103351956437
7595,0.2499518563643,0.249999932308315,-0.0416139914320318,-0.180692762300853,-0.0500682379145276,0.249163763804286,0.0512376185660567,-0.0149871239175851,0.649575247814156,0.64654786389925,0.04,0.0418590606895714,309.914123759488,0.656828795292461,0.346692032622484
7655,0.25,0.249999886201331,-0.24990909127826,-0.13118763142891,-0.249990350431735,0.248566452235919,0.19042988182428,-0.0110716191653502,0.650291902379314,0.64654786389925,0.04,0.0364110453586488,310.222793500172,0.628204049025023,0.362850436011357
7715,0.24999951793553,-0.0416667125335008,-0.249961775593816,-0.121322509782904,0.0416706873201105,-0.0422185564231966,0.225173225227784,0.0416695468794162,0.649661123999998,0.64654786389925,0.04,0.0282928398263717,309.753238330832,0.611139770154714,0.37241741834848
7775,0.249999173603765,-0.249999997344095,-0.249999407247785,-0.114275994321471,0.25,-0.249922134036851,0.24998989908743,0.25,0.647525140692435,0.64654786389925,0.04,0.0249400460077081,308.935594613992,0.61449181108987,0.369408195147061
7835,0.249999655668235,-0.248584284152545,-0.249954021850168,-0.193395032051193,-0.0416666666666666,-0.249905318673514,0.249673699521753,-0.0416594322862595,0.664354622218854,0.64654786389925,0.04,0.00469305212860112,317.189265450216,0.562932922893265,0.414015412200542
7895,0.25,-0.247573060444294,-0.249921603709013,-0.249908630429565,-0.25,-0.249893307699702,0.249447842689126,-0.133627499474101,0.647508971154038,0.64654786389925,0.04,2.59557799234441e-06,308.797123077623,0.509215264326402,0.445580840301297
7955,-0.0416657015317966,-0.143490584876533,0.0416992805578928,0.0416607356188901,0.0416666666666667,-0.24994980243049,-0.0418047376069937,0.0759990007967738,0.628476584163908,0.660898129486535,0.04,0.0144187050321798,299.769888691306,0.581893585517921,0.378528961398872
8015,-0.24999834548308,-0.0691459594709899,0.249999912177111,0.249924568510644,0.25,-0.249990155809623,-0.249842294961365,0.249997833404443,0.670279847688693,0.685498584779025,0.04,0.017489934679988,320.131650164668,0.721842063750302,0.325867541075285
8075,0.0414699589628506,0.0146874246948017,0.249994965749338,0.24996332837444,-0.0416666666666666,-0.24999589825401,-0.249934289518234,0.249999097166852,0.693940425618949,0.710099040071514,0.04,0.0239535773426742,331.172275592531,0.80922175586217,0.300705310799225
8135,0.249661604995658,0.074568413384653,0.249991432586643,0.249991013991438,-0.25,-0.25,-0.249999999915997,0.249999999854287,0.72370406182978,0.734699495364003,0.04,0.0320439843409673,345.533069913662,0.893661848842701,0.284099897500119
8195,0.249858723601519,0.176903505576939,0.24993277249424,0.249996255829766,-0.249994870044642,-0.25,-0.249952643117777,0.249999999939286,0.752237718257307,0.759299950656492,0.04,0.0418911208322632,359.102070763094,0.941676624871288,0.280201719236108
8255,0.249999522605705,0.25,0.249890872428237,0.25,-0.249991205790816,-0.25,-0.249918816833334,0.25,0.779201237055345,0.783900405948981,0.04,0.0480747774366669,371.970878510036,0.976834401714751,0.27979675329105
8315,0.24999980108571,0.24999421512206,0.249954530178432,-0.0416579932231033,0.0416703309204935,0.0416637613640279,0.0416842607827137,0.25,0.79266450784144,0.80850086124147,0.04,0.0608569855730801,378.264569334824,1.03449610210857,0.268671427043623
8375,0.25,0.249990083066389,0.25,-0.249985131239606,0.25,0.249995019481191,0.249972173365605,0.25,0.823116154182206,0.83310131653396,0.04,0.0622280837719988,393.004069610782,1.12791538621567,0.256020772010807
8435,0.249989391885562,0.139289194097644,0.25,0.0416682969179377,0.249999953375392,0.249997924783829,0.249983289221529,0.153441853792589,0.854280626010841,0.857701771826449,0.04,0.0642370193548378,407.788961341156,1.15792072648277,0.258768443759105
8495,0.249981814660963,0.0602171305485408,0.25,0.249992174173326,0.2499999200721,0.25,0.249991229118617,0.0844717493587243,0.866553656695515,0.855750176071777,0.04,0.0713113059294113,413.365251061619,1.13358087053532,0.267939124096435
8555,0.155614405086201,-0.1207366691948,0.25,-0.0416699274277808,0.249944484290707,-0.0416666666666666,0.249994987841514,0.180950372108522,0.858636276767217,0.834832829569133,0.04,0.0677867730224569,409.585353822399,1.021432766603,0.294638374095976
8615,0.0882091125327986,-0.249989383297187,0.25,-0.25,0.249904887303998,-0.25,0.249997672643584,0.249863674072663,0.835565083635345,0.813915483066489,0.04,0.0659363024885062,398.397873302739,0.869829370715601,0.336540720153665
8675,0.182587130221999,0.041656833958837,0.249999978493972,0.0414084256289101,-0.0391447149922049,0.0416640537703314,0.249998815356776,0.249894885962055,0.801282531087846,0.792998136563846,0.04,0.0828717743757095,382.012126311173,0.786401456301612,0.356933669038164
8735,0.25,0.249975560570283,0.249999963132524,0.249557301078132,-0.245608716632349,0.24999552074914,0.249999631580484,0.249917180168763,0.775017623289735,0.772080790061202,0.04,0.0873433760064262,369.604826671341,0.76858921946286,0.353344244579061
8795,0.249998461811407,0.249989816904284,0.249999930638509,0.249800229170454,-0.248170298596812,0.249998133645475,0.249999846491868,0.249965491736985,0.754523160906099,0.751163443558558,0.04,0.0840698804525953,359.816441229234,0.747641683246902,0.35362435924239
8855,0.249997363105269,0.25,0.249999907428498,0.249973749236399,-0.25,0.25,0.25,0.25,0.733470243711921,0.730246097055915,0.04,0.0831853072235924,349.771101572178,0.726897885603784,0.353561685408085
8915,0.24995586055144,0.249965509651772,0.249939315585705,0.249989062181833,-0.249991580254494,0.25,0.249960348434816,0.249999579693431,0.7124576015915,0.709328750553271,0.04,0.0834735490361299,339.746850520167,0.70694038014925,0.353124074287781
8975,0.249926215870133,0.249940873688752,0.249896035697995,0.25,-0.249985566150561,0.25,0.249932025888256,0.249999279474453,0.691524391899292,0.688411404050627,0.04,0.0844156291178284,329.759997303036,0.687206692771826,0.352586164602339
9035,0.249969256612555,0.249957070796693,0.249931392993514,0.249875854046576,-0.249993762218512,0.25,0.249968733056077,0.249818173149791,0.670623053227574,0.667494057547983,0.04,0.0857431561576921,319.788088152099,0.667430720036571,0.352055202660084
9095,0.25,0.249968640159508,0.249956648204599,0.24978717836556,-0.249999616552763,0.25,0.249994952461663,0.249688811489318,0.649713556052665,0.64657671104534,0.04,0.0873063602512791,309.812014541212,0.647567422919958,0.35153448847833
9155,-0.0416558881476178,0.249986933399795,0.197013981835152,-0.0417553423476836,-0.249999840230318,0.249977156605498,0.249997895942104,0.249870338120549,0.633877446269584,0.628478259325,0.04,0.0722624404284302,302.37000583061,0.624316108998263,0.355867922965025
9215,-0.249981522538774,0.25,0.159197791571262,-0.25,-0.25,0.249960839895139,0.249999998428133,0.25,0.619841162135678,0.612393303877736,0.04,0.0574552613216654,295.533697761408,0.56609923937341,0.383591621560505
9275,-0.248714866135988,0.249988893360908,-0.0794522193428842,-0.249999189216842,-0.25,0.249983683289641,0.249999642087055,0.25,0.60339754441339,0.596308348430471,0.04,0.0451423017199537,287.790112270328,0.5310813044455,0.398170913572649
9335,-0.247810111562571,0.249980960047271,-0.249916512852989,-0.249998610086015,-0.25,0.25,0.249999387557714,0.25,0.585760290925017,0.580223392983207,0.04,0.0364385277592335,279.340729427809,0.482162142509709,0.425692335503857
9395,-0.249087080898558,-0.0416745956548739,-0.249965213688745,-0.249999420869173,-0.24999941976633,-0.0416665388601211,0.249999744815714,-0.0174241902700506,0.597711867050641,0.580217942565593,0.04,7.4477536559729e-07,284.96841790213,0.414826548984204,0.504759921346544
9455,-0.249999201852834,-0.249999992584977,-0.25,-0.25,-0.249999005313709,-0.249999780903065,0.25,-0.0759261534870346,0.546765107996476,0.591697852883443,0.04,5.21924649263952e-10,260.991809054028,0.636170270201841,0.301445069170676
9515,-0.249785756412527,-0.249999996910407,-0.249999741082039,-0.249928369982199,-0.249999585547379,0.0416610403907636,0.095795785625681,0.0413291933661076,0.59223952102668,0.603177763201293,0.04,3.61617578494129e-07,283.298837584392,0.81492275498924,0.255436540732519
9575,-0.249633295383736,-0.25,-0.249999556140639,-0.249877205683769,-0.25,0.249990198457784,-0.0143500817845469,0.249407274132603,0.618737720148028,0.614657673519144,0.04,0.00945958782072528,294.406194421542,0.653597079699521,0.330972199947405
9635,-0.0986320310501758,-0.25,-0.249950210455998,0.0417156209642017,0.0416656036329422,-0.0416547572142033,0.139854132589772,0.249746170638979,0.607447097236255,0.626137583836994,0.04,0.0241650056741005,289.659070240399,0.687554733207507,0.309552654427828
9695,0.00922601490236707,-0.25,-0.249914963538397,0.249996211427038,0.249998177656472,-0.249972582694194,0.25,0.249988239572105,0.627132377763285,0.637617494154844,0.04,0.0309318122999946,299.421727850284,0.799144714993404,0.275304022389802
9755,-0.141988946263338,-0.142627729294483,0.0417020985094111,-0.0406196560951965,-0.0416674259764699,-0.0892261899571032,0.249983887243285,0.249961986298322,0.64964362812923,0.649097404472694,0.04,0.0368887610373747,310.101085629774,0.819526883724526,0.278031983641646
9815,-0.249999632810269,-0.0659332502191134,0.249999999972131,-0.248202418611078,-0.25,0.0255926619979617,0.249972378131346,0.249943233959906,0.661807710516976,0.660577314790545,0.04,0.0434496039930934,315.816722512782,0.805582369243507,0.288057936752112
9875,-0.249999846408374,0.118361145742036,0.191355267307186,-0.249251005042818,0.0416655304359869,-0.135166914726013,0.249988485236406,0.249887373504638,0.665875832984339,0.672057225108395,0.04,0.0519445604229154,317.736681934602,0.820270517625012,0.284619682563413
9935,-0.249999998978448,0.25,0.149466172546511,-0.249999995351203,0.249998052175978,-0.249995183814567,0.249999990311449,0.249847473179447,0.682327364705776,0.683537135426245,0.04,0.0558792791245805,325.682497699534,0.848215803562293,0.282125756457625
9995,-0.238632959222717,-0.0416666666666666,0.208110905227713,-0.249989574213598,0.248805489183866,-0.249997724089596,0.249999857774002,0.249934714592319,0.70120132043392,0.695017045744096,0.04,0.0521359768778932,334.697276184305,0.830658564708816,0.296063116878944
10055,-0.230513645111481,-0.25,0.25,-0.249982130543881,0.247953658475214,-0.249999538571759,0.249999763104397,0.249997029887227,0.71066954243806,0.706496956061946,0.04,0.0501790036120535,339.110279343097,0.790390172822538,0.315249276837675
10115,-0.241442120136651,-0.249999910762187,0.249999871514784,-0.249992554393284,-0.0425193089686609,-0.0109163684453171,0.249999901293499,0.204260113167989,0.722846936415017,0.717976866379796,0.04,0.0453524637559331,344.974600505014,0.768736192346847,0.329734559829126
10175,-0.249248173726059,-0.249999847020892,0.249999779739629,-0.25,-0.25,0.159857324502142,0.25,0.171590886939962,0.731241717446784,0.729456776697647,0.04,0.0409775331485966,348.937111353224,0.747108349536011,0.343177058748723
10235,-0.249678328214707,0.0416667232122156,0.249570341644129,0.0411864224160149,0.0416611611096791,-0.0792243687162974,0.248618822279802,0.216959675409385,0.723662417177388,0.740936687015497,0.04,0.0517657845451198,345.303848696743,0.794569490132223,0.319318595376565
10295,-0.249985581420885,0.249999987664436,0.249263600147343,0.24917672414174,0.249990561902307,-0.249997006729468,0.247632266765374,0.249365952887544,0.743957183645247,0.752416597333347,0.04,0.0564148558752984,355.128338062428,0.877686215132235,0.297303983200277
10355,-0.167240558754402,0.249999994851181,-0.041973499938607,-0.0419997927452328,-0.0408467553297626,-0.160931490760468,0.249013444485572,0.249733657599449,0.772823173157678,0.763896507651198,0.04,0.0393814517969883,369.017354344114,0.872088880384561,0.310914314996104
10415,-0.108136971135485,0.24999999998457,-0.25,-0.24998301909307,-0.248587696209812,-0.0973132650683258,0.25,0.24999630382224,0.781349078623215,0.775376417969048,0.04,0.0349109695067174,372.809361680113,0.794920405252442,0.344602037130429
10475,0.100776262026881,0.249999999993571,0.0416666666666666,-0.135348961063345,-0.2494114369811,-0.186380527111802,-0.0416082493294551,0.197944647920486,0.784050788750083,0.786856328286898,0.04,0.0373244948075664,374.208133131589,0.793416095542017,0.346550789133389
10535,0.25,0.25,0.25,-0.0534674910421134,-0.249999823246306,-0.25,-0.249899855993352,0.160764893704947,0.796295727502988,0.798336238604749,0.04,0.0407712503509348,379.985315621728,0.799433015444765,0.349252408733309
10595,-0.0416652185459442,0.249982776791298,0.249999989917694,-0.0769415144952259,-0.249896666330519,-0.249693186477476,0.0417070853981297,-0.078847960956272,0.809762316179629,0.809816148922599,0.04,0.0300910414532084,386.475498698836,0.810418942231465,0.350402389535624
10655,-0.249997517507333,0.249970474499368,0.249999982716047,-0.093708674104592,-0.249822982819243,-0.249474033961387,0.249997757820616,-0.25,0.821243327136865,0.821296059240449,0.04,0.0236489322899574,391.854388556902,0.799844916184734,0.359976046138905
10715,0.0401667735357699,0.249987695674432,0.249985999170482,0.0703655618198039,0.0417050029882178,0.0418657824426764,0.24999906575859,0.0361151909987306,0.803977840203364,0.832775969558299,0.04,0.0554237009037585,383.472160909543,0.886596023309562,0.317806472623152
10775,0.2474269814237,0.249999996513763,0.24997601092365,0.187561444622944,0.249939278564976,0.249965651302722,0.25,0.240483184569252,0.826141135138074,0.84425587987615,0.04,0.0632665417391089,394.42958332984,1.05447980221855,0.27484376648105
10835,-0.0427387575352753,0.249999229874357,0.249989961248076,0.22398008373083,0.249962917700627,0.249985688042801,0.25,-0.0455954456623797,0.861092766943458,0.855735790194,0.04,0.0557253396987963,411.076428887408,1.07598069651632,0.28071962259929
10895,-0.249999999648829,0.249998682274782,0.249999925765523,0.249993397379319,0.249979802797521,0.25,0.25,-0.216583834427898,0.871446107663499,0.86721570051185,0.04,0.0560751435696612,415.778576515975,1.02675008424123,0.297544575537954
10955,0.0388620312870061,-0.0416672157188409,0.249999924058825,0.24999724890805,0.249991584267937,-0.0416666666215841,-0.0416666666666667,-0.178971914298839,0.891120268566475,0.878695610829701,0.04,0.0444364229432771,425.352212704167,0.988268680418007,0.316248402544481
11015,0.245192053384032,-0.25,0.249999922839755,0.25,0.249999999603949,-0.249999999922716,-0.157036414033631,-0.157036414033631,0.894277413855583,0.890175521147551,0.04,0.0398537000889212,426.663347190778,0.929972623370193,0.337108612777696
11075,0.247996688910013,-0.249987694069384,-0.0416666988167686,0.249810090334318,0.249999999834979,-0.0413151894547815,-0.148944017958791,0.0408303923079258,0.893889032162465,0.901655431465401,0.04,0.0348983811880643,426.460000071497,0.945602787889929,0.331378429203181
11135,0.25,-0.249978904118945,-0.25,0.249674440573116,0.25,0.107745389450886,-0.15376929388639,0.248566150253378,0.909317751487634,0.913135341783252,0.04,0.0308237770912609,433.977317951927,0.990251612931762,0.322015034825062
11195,0.25,-0.249991067055358,0.0416666646851685,0.249864350026808,0.189022131167681,-0.100939421062131,0.0417494145369048,0.24939004930949,0.917110977901351,0.924615252101102,0.04,0.0377701609818689,437.55804966203,1.01393505941581,0.317088297349245
11255,0.25,-0.249999754867082,0.249999996603146,0.249999999636587,0.145466510573167,-0.25,0.249993029308213,0.249978548635284,0.93126950741475,0.936095162418952,0.04,0.04177238257728,444.455433076621,1.06231172138353,0.307419153432056
11315,0.249999999902112,-0.249999897861284,0.249999998584644,0.249985632017381,0.0232919122515635,-0.249986580642359,-0.0416695711215777,-0.0416755552089225,0.965140287520568,0.947575072736803,0.04,0.0320031965094369,460.743992308896,1.02261641807542,0.331056101384143
11375,0.249999999832191,-0.25,0.25,0.249975369432233,-0.0639756579781532,-0.249976995386901,-0.190400353476629,-0.190400353476629,0.964746044868716,0.959054983054653,0.04,0.0308305924140375,460.255470591823,0.940186297717482,0.359699403835033
11435,0.249975419038479,-0.249822831740226,-0.0416666666554994,-0.0416768928543698,-0.172471448282603,-0.249990414744542,0.0416666666666666,-0.213696439139747,0.974438598947467,0.970534893372503,0.04,0.0119723190735029,465.084784542078,0.925716903020756,0.369154880197452
11495,0.249957861328685,-0.249696282983244,-0.249999999980856,-0.249999937344801,-0.24996844135721,-0.25,0.25,-0.25,0.986487106908707,0.982014803690354,0.04,0.00539739131859648,470.721351662918,0.870273911848792,0.397431796168535
11555,0.249982409352163,0.0417932154236481,0.041666556732717,0.0416666640578134,0.0416798161011621,0.0416666666666666,0.25,0.0413368218435558,0.944225052254927,0.986798099656125,0.04,0.0421969995559468,450.327342349127,0.997022318585643,0.331877731385429
11615,0.249999943654647,0.25,0.249999811528127,0.249999950773966,0.25,0.25,0.25,0.24943455173181,0.966166825959968,0.986798099656125,0.04,0.0566028730988285,461.210472857967,1.20682346651845,0.280808396975529
11675,-0.0416666901199657,0.249974299306295,-0.0416667334824692,-0.0416666871775141,0.190984995687147,0.249999996908999,-0.00075322219079618,-0.0419006210463604,1.01196694384983,0.986798099656125,0.04,0.0386117501562092,483.180627525299,1.17416207895884,0.302368217433153
11735,-0.249999999958975,0.249955941667935,-0.249999979918609,-0.25,0.148831421177966,0.249999994701141,-0.179862666612793,-0.249997173030768,1.00509487368541,0.986798099656125,0.04,0.0352029434727145,479.314208198717,0.991305353399726,0.355277355589508
11795,-0.249999998195948,-0.0416850243050271,0.0416666749185126,-0.25,0.207846425490819,-0.0416666659914466,0.0708905555760713,-0.249998822096153,0.988766191220165,0.986798099656125,0.04,0.0323174118100585,471.694843144303,0.953555501768785,0.363471052295433
11855,-0.249999996936644,-0.25,0.249999999802171,-0.25,0.25,-0.249999995057581,0.249999999996689,-0.25,0.984372590404981,0.978699229861004,0.04,0.0300099732071641,469.550064343744,0.931558894162303,0.370361866396962
11915,0.0416665958323563,-0.25,-0.0416665937785589,-0.25,-0.0416666598062795,-0.249999984658974,-0.0416666666680463,-0.249999991080023,0.984015201908616,0.964815453069368,0.04,0.0174874426103702,469.474885162279,0.854479580280667,0.403706137442744
11975,0.249999876381642,-0.25,-0.249999874907652,-0.25,-0.249999988239336,-0.249999977231398,-0.25,-0.249999984708611,0.961370654815126,0.950931676277733,0.04,0.0109242383641142,458.572094757719,0.750240240411328,0.449119534365949
12035,-0.0416667181333275,0.041650797352052,-0.249999690954429,-0.249989517997259,-0.249999995099723,-0.249999990513083,-0.249999911338546,0.041634162285897,0.934650450272657,0.937047899486097,0.04,0.01861700039321,445.863766433656,0.732853115550066,0.447033344044049
12095,-0.249999999929734,0.24997279546066,-0.249999559559271,-0.249982030852444,-0.25,-0.25,-0.249999848008936,0.249944267281974,0.924179960115022,0.923164122694462,0.04,0.0223241867123559,440.599859446779,0.739994237038691,0.437492581377161
12155,0.0416666666959439,0.249988664775275,-0.249999816483029,-0.0345478476420691,-0.249640651572318,-0.235335407208026,0.0413651692968194,0.249976778034156,0.88319618292682,0.909280345902826,0.04,0.0391474189768189,421.183903594011,0.813660289627981,0.380349912531921
12215,0.25,0.25,-0.25,0.119333711793913,-0.249383974123974,-0.224860698070901,0.24948303880093,0.25,0.8850080296901,0.895396569111191,0.04,0.0484674569753621,422.262358314909,0.932847400043782,0.332603212593939
12275,-0.0416331824925305,0.247117862593379,0.0116987129370268,0.192376781031449,-0.249743322551656,0.0223496360727726,0.249751274678634,0.249304818805312,0.874419291547462,0.881512792319555,0.04,0.0606794980608525,417.118855537024,0.971966957154655,0.315328334931549
12335,-0.249942598558624,0.24505919301722,0.198626365034903,0.244550401915404,-0.25,0.198928446175397,0.249942871734137,0.248808260809106,0.870059379850167,0.86762901552792,0.04,0.0697296756926377,415.04369826815,0.977729440622425,0.311910365777072
12395,-0.24997608273276,0.247926557537189,-0.0629861318134839,0.247653214220401,-0.249811028914369,-0.0629387399448009,0.249652045025065,-0.0421632135626363,0.874947259533628,0.853745238736284,0.04,0.0593150922354239,417.483006706956,0.904530257921351,0.339133256057901
12455,-0.25,0.249974675051453,-0.249852200990903,0.249869508723972,-0.24967604956749,-0.249986730030656,0.249444311661443,-0.249999980971024,0.853469401047515,0.839861461944649,0.04,0.0548179550425139,406.956679199624,0.778204628621399,0.384245727731385
12515,-0.249963239617531,0.247286443688658,-0.24992774423836,0.249420738488255,-0.24985113957542,-0.248363212684813,0.249768463192268,-0.164520438270644,0.829544106632098,0.825977685153013,0.04,0.050416595845095,395.624090321784,0.738823360858859,0.393456555939287
12575,-0.249936982201481,0.245366278429518,-0.249981703700829,0.249100188319886,-0.249976203866799,-0.247203557437782,0.25,-0.103463622056087,0.815789832004751,0.812093908361378,0.04,0.0441910586529011,389.110068691488,0.720823270606555,0.39664167774078
12635,-0.249963394934889,0.119735609421704,0.0416051452387042,-0.0420415882000476,-0.249898733813904,0.0428318510675906,0.25,-0.188508790924584,0.800144477173895,0.798210131569742,0.04,0.0440689302257775,381.630237910424,0.702602860396831,0.399105341998881
12695,-0.249982261173038,0.0299994172732647,0.249881465909799,-0.25,-0.249843398061836,0.25,0.25,-0.249255340116368,0.786371512177252,0.784326354778107,0.04,0.043981098686247,375.065732873852,0.690175226407325,0.39930311429565
