time,bias_percent_1,bias_percent_2,bias_percent_3,bias_percent_4,bias_percent_5,bias_percent_6,bias_percent_8,bias_percent_9,normalized_power,power_SP,SP,CV,total_power_MW,fuel_fraction,thermal_efficiency
18,0,0,0,0,0,0,0,0,0.999240677235015,1,0.04,0.0401138286854261,476.750553901414,0.99932786244248,0.350540245393411
78,-0.000609483682031964,-0.00706984957638394,-0.00469135070935033,-0.00649718218672842,0.00266828574028136,-0.00688159361011878,-0.00147648476235526,0.00712442041578561,0.997128828578189,0.992612707527402,0.04,0.0410373341568495,475.615305747117,0.990657641269819,0.352766149497448
138,-0.00264109595547245,-0.0306360148309976,-0.0203291864071849,-0.0281544561424901,0.0115625715412192,-0.0298202389771816,-0.00639810063687287,0.0308724884684042,0.97655259363102,0.967988399285408,0.04,0.046303754948044,465.724109018304,0.941985962000871,0.363277889700463
198,-0.0046727082289126,-0.0542021800856111,-0.0359670221050194,-0.0498117300982516,0.0204568573421572,-0.0527588843442443,-0.0113197165113904,0.0546205565210228,0.951951348605317,0.943364091043414,0.04,0.0491079619262989,453.976769240214,0.888671811869817,0.375359058657546
258,-0.00670432050235286,-0.0777683453402245,-0.051604857802854,-0.0714690040540132,0.029351143143095,-0.075697529711307,-0.0162413323859079,0.0783686245736415,0.926783882477873,0.91873978280142,0.04,0.0492347320861432,441.967434074441,0.838030177036971,0.387512118557428
318,-0.00873593277579312,-0.101334510594838,-0.0672426935006885,-0.0931262780097748,0.0382454289440327,-0.0986361750783696,-0.0211629482604255,0.10211669262626,0.901116445174922,0.894115474559426,0.04,0.0475392980067489,429.913208891024,0.79167554075241,0.399014095461717
378,-0.0107675450492334,-0.124900675849452,-0.0828805291985229,-0.114783551965536,0.0471397147449707,-0.121574820445432,-0.0260845641349431,0.125864760678879,0.876495376846907,0.869491166317432,0.04,0.0447750783473692,417.968164487772,0.748413685679536,0.410351627057078
438,-0.0127991573226735,-0.148466841104065,-0.0985183648963574,-0.136440825921298,0.0560340005459085,-0.144513465812495,-0.0310061800094606,0.149612828731497,0.851387099226067,0.844866858075438,0.04,0.04154983464379,406.05873304173,0.709231642401522,0.420683451159899
