time,bias_percent_1,bias_percent_2,bias_percent_3,bias_percent_4,bias_percent_5,bias_percent_6,bias_percent_8,bias_percent_9,normalized_power,power_SP,SP,CV,total_power_MW,fuel_fraction,thermal_efficiency
21,0,0,0,0,0,0,0,0,0.999405733607438,1,0.04,0.0400364793011294,476.847559890121,0.999406645960142,0.350583932146893
81,0,0,0,0,0,0,0,0,0.999937674611226,1,0.04,0.0398943590443039,477.071318037013,1.00021131065402,0.350466266506244
141,0,0,0,0,0,0,0,0,0.999993160165789,1,0.04,0.0399303958165543,477.096862183781,1.00031081791442,0.350450166785898
201,0,0,0,0,0,0,0,0,1.00000040665143,1,0.04,0.0399653063831407,477.100217417145,1.00031719204614,0.350450398240282
261,0,0,0,0,0,0,0,0,1.0000023797289,1,0.04,0.0399869168517882,477.101146373671,1.00030621660378,0.350454925776532
321,0,0,0,0,0,0,0,0,1.00000344030697,1,0.04,0.0399993915772282,477.101647388086,1.00028743786349,0.350461873014795
381,0,0,0,0,0,0,0,0,1.00000392894116,1,0.04,0.0400061335335018,477.101876335928,1.00026460296133,0.350470041841149
441,0,0,0,0,0,0,0,0,1.00000395359649,1,0.04,0.0400092510201377,477.101884957746,1.00024073396624,0.350478411529088
501,0,0,0,0,0,0,0,0,1.00000365621561,1,0.04,0.0400101001594716,477.101741104026,1.00021806251444,0.350486249974042
561,0,0,0,0,0,0,0,0,1.0000031743789,1,0.04,0.0400095969171676,477.101510152607,1.00019796636936,0.350493122338624
621,0,0,0,0,0,0,0,0,1.00000261706472,1,0.04,0.0400083681970312,477.101244066204,1.00018110526993,0.350498835489554
681,0,0,0,0,0,0,0,0,1.00000205985869,1,0.04,0.0400068356156374,477.100978488069,1.00016761796908,0.350503366872942
741,0.0552174525440672,-0.0873513631653502,-0.0874997287988249,0.0874982948247721,-0.0875000000000001,0.0875,0.0461437549681764,0.016689260965378,0.996320255768572,0.994108954810499,0.04,0.0412103354198111,475.237868969469,0.994831744612387,0.351007245364966
801,0.157764150125906,-0.249575323329572,-0.2499992251395,0.249995128070777,-0.25,0.25,0.131839299909076,0.047683602758223,0.981878015596765,0.97727739712621,0.04,0.0444147863958371,468.334136990213,0.971617057933448,0.354172926712759
861,0.190045003617266,-0.249722665518034,-0.0750357488161255,0.249990920390181,-0.0889053379107404,0.249999825871572,-0.0018043954267219,0.0129383810948217,0.963818229886245,0.960445839441921,0.04,0.0529195693083141,459.618954688772,0.942804536607604,0.358204422410892
921,0.249995160101219,-0.249996301010893,0.249896421498712,0.249983106126217,0.21027046311217,0.249999502490205,-0.249999829621774,-0.0515884591372091,0.94490613380931,0.943614281757632,0.04,0.063833277373404,450.702900515295,0.935381067607065,0.354043360130528
981,0.249980903269358,-0.0750967556843119,0.249932663006653,0.249987701279959,0.224172441301647,0.249999676618633,-0.249999889254153,0.0539444467403594,0.924409155548429,0.926782724073342,0.04,0.0693393281929143,440.795966099511,0.929249407856535,0.348545913072229
1041,0.2499544262959,0.249716685636482,0.249999968664258,0.249996235136909,0.249990400796388,0.25,-0.25,0.249934129084415,0.907091081860098,0.909951166389053,0.04,0.0761365631255874,432.730020319453,0.960006636535793,0.331205443547724
1101,0.249968358393269,0.0748226715206908,0.2499992043476,0.249997552838991,0.249959277075118,0.249998103848844,-0.139907506237597,0.249887456230652,0.894482918125799,0.893119608704764,0.04,0.0729663286968463,426.617880423811,0.952164708626392,0.329216542346573
1161,0.249994232288381,-0.249980497551493,0.249997784902378,0.25,0.249901475878473,0.249994582425269,0.064549982178293,0.249800778073664,0.881161270620093,0.876288051020475,0.04,0.0662295013744757,420.306562187933,0.9339659611003,0.330666195417576
1221,0.249968484406476,-0.249939459600087,0.0750288999012915,0.0750000000000001,0.249731874476221,0.249644163833245,0.12945743198002,0.249861726565999,0.868284395316992,0.859456493336186,0.04,0.0606444076228793,414.194544377731,0.891217312766208,0.341487991321824
1281,0.249920666911508,-0.249863246261761,-0.249913315100727,-0.25,0.249416900443468,0.248993386448055,0.249999838754657,0.249974916623192,0.854609706169778,0.842624935651897,0.04,0.0491724944315855,407.536510400209,0.813222849990298,0.368223605155211
1341,0.0749484334924801,-0.220559224222455,-0.0749436548154729,-0.0750000000000001,0.0746262533452807,0.249335017719483,0.249999895190527,0.249963248138901,0.831549308444354,0.825793377967608,0.04,0.0508950736387302,396.657893633501,0.766890393513096,0.380047149942026
1401,-0.25,-0.1661374690066,0.25,0.25,-0.249984948408497,0.24996947579499,0.25,0.249941578096645,0.814312491518849,0.808961820283319,0.04,0.0518839727131062,388.325039953268,0.73345549626856,0.389023918920223
1461,-0.0749999999999999,-0.194738724221692,0.249999795501267,0.249997510245918,-0.249990213702653,0.249980159266744,0.0750000010093759,0.2499601911212,0.798025817879467,0.79213026259903,0.04,0.0482424450053625,380.555149866846,0.703157415107225,0.397667151776715
1521,0.25,-0.247855341049719,0.249999415717904,0.24999288641691,-0.249999992106087,0.25,-0.00142386039874799,0.249994758166802,0.777119967749027,0.781189750104242,0.04,0.0524683002713043,370.747249574506,0.707964909131843,0.384787435092867
1581,0.0750575357497477,-0.248605917588313,0.0750224753817556,0.0749953761709912,-0.0750005719098825,0.249998873031458,-0.00162881085245832,0.0750184338927701,0.788503310667298,0.781189750104242,0.04,0.0278036641464653,376.460529523565,0.71375589120584,0.387547035548099
1641,-0.249835612143578,-0.249999845445703,-0.249934699528234,-0.25,0.249998351311639,0.249996780089881,0.0381831178011966,-0.0285501168486954,0.79148033111108,0.781189750104242,0.04,0.00797424003090825,377.554302667342,0.624384445878767,0.444305842816457
1701,-0.249893137097085,-0.249968577014317,-0.0778211644224057,-0.0750009400376827,0.249998928352566,0.224658779794737,-0.0626807063716266,-0.0749594379862089,0.774391091851912,0.781189750104242,0.04,0.0100729721302948,369.316137187255,0.62260817427027,0.435851096070503
1761,-0.249999969153599,-0.249910507070315,0.24181825791699,0.24999731417805,0.25,0.177602493532326,-0.143671510326839,0.25,0.765159153544517,0.781189750104242,0.04,0.0276018272303458,365.225258589452,0.750963350311931,0.357352429562766
1821,-0.249999979949839,-0.0749447254492857,0.069871450250448,0.249960340379616,0.0750069383810838,0.0279416628287069,-0.187489831317966,0.25,0.782383680324994,0.781189750104242,0.04,0.0208910186400551,373.286859101962,0.781255345876706,0.351078614525389
1881,-0.25,0.249991726132625,-0.249458335415988,0.249891674753953,-0.249980176054046,-0.249999879906587,-0.238136743616605,0.25,0.787824533812356,0.781189750104242,0.04,0.0152944543693132,375.82459672641,0.719985772314307,0.383544678952697
1941,-0.0750017569549637,0.249981818482045,-0.0746479180203923,0.249924545313125,-0.249972626712814,-0.0749999219392814,-0.0749019739031178,0.25,0.761226698013401,0.781189750104242,0.04,0.0378024304468121,363.064486754072,0.754480583469722,0.35358218800007
2001,0.249994980128675,0.249963418559539,0.25,0.249985590637301,-0.249958606507668,0.25,0.249993457467895,0.25,0.762442828441356,0.781189750104242,0.04,0.0652120402507666,364.010206028696,0.906989098732428,0.294894158318291
2061,0.0749967370836388,0.2499762220637,0.25,0.0749906339142456,-0.249972696408505,0.0750071615873711,0.249993832841224,0.249999925893535,0.785839533707618,0.781189750104242,0.04,0.055853325833387,375.16045086468,0.930844189447645,0.296138405223634
2121,-0.25,0.25,0.25,-0.25,-0.249998863367202,-0.249979538321797,0.249994529963122,0.249999788267242,0.795289005585624,0.781189750104242,0.04,0.0425919377600131,379.313227908154,0.833521229996597,0.334376693284442
2181,-0.249996677358144,0.25,0.249995311468017,-0.25,-0.249998371860275,-0.249986699909168,0.249996444476029,0.242552272286217,0.786805572903907,0.781189750104242,0.04,0.0453373343074534,375.363153954577,0.790664145987726,0.348830355393929
2241,-0.249990506737555,0.25,0.249986604194335,-0.25,-0.249997459061696,-0.25,0.25,0.228721171178599,0.784766913401891,0.781189750104242,0.04,0.042885166989216,374.398806706568,0.765268029200757,0.359480686241298
2301,-0.249993829379411,0.126842565651368,0.249987458591502,-0.25,-0.220173681795214,-0.249996421021781,0.25,0.236168761266089,0.785549171102267,0.781189750104242,0.04,0.0372081194034262,374.807616853792,0.746106365938882,0.369115547802396
2361,-0.25,-0.101878383853235,0.249989045329098,-0.25,-0.164786666871746,-0.249989774347945,0.25,0.25,0.785092976087279,0.781189750104242,0.04,0.0312486840815709,374.55229206804,0.71102395391416,0.387064109536984
2421,-0.25,0.0212790504953971,0.0750658582088409,-0.249992170045244,-0.0196113334666346,-0.249925550253853,0.075073394715502,0.249503113484916,0.783127417641663,0.781189750104242,0.04,0.0251257728646035,373.607738319942,0.697129265700344,0.393783236654181
2481,-0.25,0.25,-0.249791489300208,-0.249977628700696,0.25,-0.249806276936252,-0.249790300812852,0.248580324242619,0.782401730741531,0.781189750104242,0.04,0.0187944292708569,373.28348133726,0.684204377820788,0.400873732196417
2541,-0.127147582796102,0.0751654363302936,-0.125058876505405,-0.249944367729596,0.24999947944099,-0.249826883004895,-0.0748636955283535,0.118573946996588,0.775277785989292,0.781189750104242,0.04,0.0213942661691913,369.821694944573,0.694899256749561,0.39104362826792
2601,0.101006906296853,-0.24952732477059,0.10658740439923,-0.249882597354695,0.249998512688543,-0.249865151418089,0.25,-0.122866467888898,0.775368333293862,0.781189750104242,0.04,0.0273458811284687,369.967211530256,0.740300450547421,0.367206109983194
2661,-0.0218313906663436,-0.0939912622077248,0.149112772744182,-0.249923688280552,0.0749990332475529,-0.249815962119502,0.0750053489622888,-0.0443073578111828,0.782409135318461,0.781189750104242,0.04,0.0249331110267883,373.369923670162,0.755513271216364,0.363121454888807
2721,-0.249959656455137,0.194861425409025,0.228088456813379,-0.25,-0.25,-0.249724610564982,-0.249984717250603,0.101588132333146,0.784355709643119,0.781189750104242,0.04,0.0218523248425429,374.125186088061,0.723056588059351,0.380188813855279
2781,-0.24997078709917,0.039159926515866,0.235598621922661,-0.075071003112928,-0.249959006447493,-0.249774602311622,-0.245915412906208,0.153532286016545,0.778002283920719,0.781189750104242,0.04,0.0262609734007282,371.206294880084,0.73010013916281,0.37358340608525
2841,-0.249991458295231,-0.25,0.249546071411328,0.249797133963063,-0.249882875564265,-0.249867444126809,-0.238358133409474,0.25,0.777992024963433,0.781189750104242,0.04,0.0302398649679584,371.170368653749,0.753802566048366,0.361801499947101
2901,-0.249987556346834,-0.189466995761082,0.249645386589909,0.249844249308449,-0.249120001000916,-0.249913838682426,-0.0674733308170449,0.248559209224348,0.772542986273673,0.781189750104242,0.04,0.0379851248016046,368.538541649154,0.779281344089199,0.347490799144038
2961,-0.249980309871241,-0.0770485593173783,0.249829829064417,0.249931749235596,-0.247703233954697,-0.25,0.249884159711751,0.24588345492671,0.773785098001418,0.781189750104242,0.04,0.047020888544556,369.250019362325,0.842542293376892,0.322020479626975
3021,-0.117438937342479,0.0373874117428154,0.249889388891871,0.249954634182831,-0.0735071020705531,-0.249999708590782,0.0749247038126383,0.247306180813588,0.772558423986674,0.781189750104242,0.04,0.0547043232776849,368.583616641838,0.871664234822454,0.310700159760204
3081,0.128709325925221,0.249911357997461,0.25,0.249997134799125,0.25,-0.249999167402236,-0.25,0.249948386032076,0.77919678831614,0.781189750104242,0.04,0.0723340362435186,371.793279180908,0.897119146715498,0.304513173600529
3141,0.100598111918679,0.249940156531542,0.25,0.217950420110387,0.0750860709425689,-0.249937191773073,-0.249956730289777,0.249943807644413,0.785153208227098,0.781189750104242,0.04,0.0671159522139607,374.681827549151,0.889981725302497,0.309340096829087
3201,0.0483915716208157,0.249993639523407,0.25,0.158435092831303,-0.249754083021232,-0.249822094176057,-0.249876372256506,0.249935304924466,0.789125711621838,0.781189750104242,0.04,0.0585100445833948,376.447479082994,0.840615945741023,0.329049659358746
3261,0.118934154266461,0.249990794164138,0.249989224618388,0.0154830791637485,-0.249840153963801,-0.249883218209706,-0.249919641966729,0.249957806258046,0.786841219873548,0.781189750104242,0.04,0.0550784592972054,375.413212635156,0.806324054948438,0.34210121258582
3321,0.24994180775123,0.249985509925497,0.249969213195394,-0.249999231933138,-0.25,-0.249996734272197,-0.25,0.249999594448981,0.786446274819807,0.781189750104242,0.04,0.0487026595954947,375.1874461976,0.770715869923066,0.35769154372272
3381,0.249961935092645,0.249745689577337,0.0752658631385999,-0.24999950075654,-0.0750000000000001,-0.249997877276928,-0.0750574488166891,0.249783273885917,0.777308713338768,0.781189750104242,0.04,0.0513082731812851,370.711806841303,0.762022805815084,0.357456439609665
3441,0.249999314440988,0.249300308930753,-0.249183215538303,-0.25,0.25,-0.25,0.249835860523745,0.249381535697371,0.777984009797219,0.781189750104242,0.04,0.0499488717446865,371.276054718942,0.80241051664016,0.33998128007546
3501,0.249607777502416,0.24954520080499,-0.249260461402821,-0.249999961079686,0.249998725163195,-0.133901155549572,0.249868865052623,0.249597948111805,0.781241651409509,0.781189750104242,0.04,0.0542778601870616,372.701431747582,0.799529522038612,0.342516291376507
3561,0.24888063747364,0.25,-0.249403918008356,-0.249999888799103,0.24999635760913,0.0817109841440815,0.249930159177682,0.24999985688147,0.780898649180546,0.781189750104242,0.04,0.0589987681145332,372.597525292818,0.805874638608842,0.339724723548092
3621,0.0743255507537888,0.249999918160517,-0.0746244760118897,-0.0751407769816282,0.0749976324459344,0.140611030827542,0.0749837912210115,0.205284928860365,0.788379155795774,0.781189750104242,0.04,0.055048112590979,376.2493486296,0.788233584706862,0.350732085710795
3681,-0.249848181725935,0.249999766172905,0.249965916267262,0.249597573536539,-0.25,0.249996831811112,-0.0864254683158666,0.122242919678314,0.784132554072194,0.781189750104242,0.04,0.0526931672336376,374.025570150524,0.746122277815551,0.368337522392794
3741,-0.16551442636896,0.249999848012388,0.249975273486568,0.222664110078718,-0.075192864382156,0.249978218836366,0.0464592037335855,0.157452787295834,0.772178554210584,0.781189750104242,0.04,0.0561519009848578,368.233199349982,0.763355923368737,0.354446373817607
3801,-0.00889459499172119,0.25,0.249992651179565,0.172644820799909,0.249448958908126,0.249943651883267,0.25,0.222842541442657,0.769092806724742,0.781189750104242,0.04,0.0625611561232568,367.068134094696,0.853860423868713,0.315874433346345
3861,0.0817184987797616,0.249997707079549,0.249995203133113,0.0248414647203191,0.249641823290282,0.249963373724123,0.25,0.057348064728781,0.782394228313979,0.776393765481164,0.04,0.05837463552005,373.368582387239,0.866332953373911,0.316670503669078
3921,0.249999958641087,0.249993448798712,0.249999942475415,-0.249650482284633,0.25,0.25,0.25,-0.00543948228383497,0.770153946773202,0.762690952272371,0.04,0.0655503401642376,367.299526155548,0.81149760821527,0.332573621949186
3981,0.249996265911627,0.249973635587981,0.249506020934955,-0.249772813485012,0.0750001419377213,0.249999064076545,0.249971275090423,-0.0025691537065308,0.756449419510541,0.748988139063578,0.04,0.064869499594504,360.84462215544,0.773021114919192,0.342991657322512
4041,0.249989407985489,0.249936839625193,0.248588738074102,-0.25,-0.249999594463653,0.249997325932985,0.249917928829779,-0.00121331270409197,0.743596026051647,0.735285325854785,0.04,0.0595008168642037,354.607085698031,0.715600503366079,0.364109028792296
4101,0.249993115190568,0.249958877443116,0.249082679748166,-0.076121870457061,-0.249998801332237,0.249316835942,0.249784027354576,-0.000572861802361411,0.723837616183772,0.721582512645991,0.04,0.0650819730107454,345.168919204928,0.686879330480507,0.369237592946253
4161,0.25,0.249999804819258,0.25,0.246794655836968,-0.249997328373894,0.248053068815885,0.249535353186342,0.232005096016605,0.702028904383093,0.707879699437198,0.04,0.0754290243300751,334.92529331102,0.721998356396239,0.340852445094358
4221,0.249998156363584,0.249996627900544,0.25,0.24631443613435,-0.0750347504063097,0.248734490869956,0.249697979571123,0.238303312410793,0.692357593455436,0.694176886228405,0.04,0.0799676189230635,330.175052368601,0.730234824047775,0.332228122247796
4281,0.249994732467383,0.249990727908645,0.25,0.245422599543774,0.249895751533489,0.249999988970374,0.25,0.25,0.677764875957461,0.680474073019612,0.04,0.0882533796567152,323.298115308381,0.751041211295093,0.31629627754844
4341,0.0749965761037988,0.0749939736562377,0.0750041888104716,0.0720246897034532,0.0751334305895156,0.211341691987196,0.249998485073076,0.24994783090175,0.674767671469398,0.666771259810819,0.04,0.0660252085419363,321.962343448084,0.739236565581743,0.320019406472894
4401,-0.25,-0.249999998526805,-0.249988031970081,-0.25,-0.249425165449291,0.13954771187558,0.249995671637361,0.249850945433572,0.678177501242023,0.657864431225103,0.04,0.0211498106385379,323.250800393192,0.561568562044103,0.422952404444331
4461,-0.075,-0.249999976212576,-0.0749922207805527,-0.0750020426442491,-0.249626357542039,0.177470856612422,0.249997184971931,0.17021393514441,0.643595566379799,0.657864431225103,0.04,0.0312272024088159,306.972410199288,0.52868153259954,0.426638339185899
4521,0.25,-0.249999934771866,0.25,0.249994163873574,-0.25,0.247899553980843,0.249999995450418,0.0223166303216805,0.64348857684398,0.657864431225103,0.04,0.0461690145764318,307.205269365599,0.646071424873923,0.349383832112056
4581,0.0750111258720956,-0.249999957601713,0.0750882292155087,0.0749964320575413,-0.25,0.073920420444642,0.0751133545997553,-0.0729897089964045,0.674222613190772,0.657864431225103,0.04,0.00952485934684342,321.941494620291,0.649005906677851,0.364487788660073
4641,-0.249968211794013,-0.25,-0.249747916527118,-0.249999355600805,-0.25,-0.249183684694016,-0.118741514380068,-0.118741514380068,0.623121155978829,0.657864431225103,0.04,1.68929614595309e-10,297.385676251567,0.741499181962996,0.294689082551937
4701,-0.249979337666108,-0.25,-0.249836121890631,-0.249999570068756,-0.249999949094202,-0.247593997021228,-0.0747896411756823,-0.195249420806725,0.64850319403732,0.657864431225103,0.04,1.47622183909881e-09,309.535208868359,0.86964504942456,0.261530716343248
4761,-0.25,-0.25,-0.24999993185144,-0.249999968366379,-0.249999854554862,-0.244641719914623,0.249999536134464,-0.249971333043033,0.694663855207343,0.657864431225103,0.04,2.07582650769026e-06,331.498035131994,0.71239544304803,0.341912124947754
4821,-0.249915691410813,-0.249992572819865,-0.249999025597721,-0.0749999794381467,-0.249998720100156,-0.0716419812714477,0.249936946667102,-0.0820227732999505,0.647245058202454,0.657864431225103,0.04,0.0249594750039068,308.477089748339,0.607513840157351,0.373096706174653
4881,-0.249759118316609,-0.249978779485328,-0.249997342555099,0.25,-0.249996613255701,0.249643247637306,0.249820709084858,0.229881694794345,0.648187424673508,0.657864431225103,0.04,0.036444217394545,309.313793917159,0.708616404887396,0.320732346708113
4941,-0.11430543983271,-0.249954421647022,-0.167009798959192,0.249999963094605,-0.249994127535667,0.249768109008166,0.249882511633451,0.0619259110376675,0.653518427983783,0.657864431225103,0.04,0.0399561572827648,311.596706177428,0.727837454687078,0.314566980600492
5001,0.137251391637389,-0.249909185661594,-0.0128900751382203,0.249999894556016,-0.249989511198461,0.249999994411192,0.249997287795124,-0.249991973081877,0.655170693018269,0.657864431225103,0.04,0.0482316509499627,312.654550297201,0.758368393769568,0.30292785186583
5061,0.0017134234370011,-0.249940968272182,-0.0958759948827517,0.143447066905691,-0.249956822974443,0.0752564672397726,0.249980603956522,-0.249928269984359,0.66808322586687,0.657864431225103,0.04,0.0387805062390659,319.059282050163,0.739905407476481,0.316847189053768
5121,-0.249999946078005,-0.249999993120415,-0.249992702979739,-0.0544367558734825,-0.249896116272695,-0.249267226078578,0.249949619684832,-0.249809964231827,0.674291043745906,0.657864431225103,0.04,0.0250758530438407,321.227573496468,0.590764426724613,0.399533460907585
5181,-0.249999578284403,-0.249997739096162,-0.0750352280657528,-0.122882460760138,-0.075036167766649,-0.13808084876524,0.249936953321457,-0.249874188684151,0.645483542643268,0.657864431225103,0.04,0.033546769692722,307.575100513648,0.573361309271164,0.394164463940509
5241,-0.249998895239143,-0.249993553051122,0.249885796774507,-0.249995912692499,0.249703736601721,0.0684081376738148,0.24991343007519,-0.249993462667037,0.644244324278892,0.649646814105873,0.04,0.043399595997556,307.293440234014,0.662199936777953,0.340972089388123
5301,-0.0750626934052922,-0.222258479664031,0.249898902838417,-0.0749975366783791,0.249580029415069,0.00116182696756982,0.249901390914828,-0.0751955153860177,0.618484463199217,0.626167908050931,0.04,0.0652502020625157,294.595018828716,0.666106698854391,0.324964765060614
5361,0.249818824286145,-0.170750486230863,0.249923242671392,0.249999447347844,0.249350287497,-0.123724178629742,0.249879032474156,0.249429243850161,0.600217468568585,0.602689001995988,0.04,0.0929438969052203,286.376026510167,0.719640277720738,0.292398993070718
5421,0.249879238087651,-0.0235631763568012,0.227881182257501,0.249997941540449,0.249575675821289,0.00703482619625152,0.249776722858448,0.0747290656379411,0.592184447776773,0.579210095941045,0.04,0.106554797809734,282.424896627384,0.667110706083498,0.311071156839249
5481,0.249991435147592,0.249784684837885,0.186945927203133,0.249995145040999,0.249994254137824,0.249872978015954,0.249586719286418,-0.242048007942247,0.56871120684551,0.555731189886103,0.04,0.116267922077151,271.082117603713,0.576291247528704,0.345631663899451
5541,0.249993333392038,0.249860045144625,0.0340184308170484,0.0749968442766497,0.074996265250508,0.24991743571037,0.249731367536172,-0.115141572721612,0.545890983851893,0.544834076097699,0.04,0.100599330085449,260.492788551319,0.544264944407837,0.351673803401614
5601,0.249996858703153,0.25,-0.249989776757109,-0.25,-0.249999999825935,0.25,0.25,-0.0545049750817715,0.560038598292666,0.557303147947155,0.04,0.0487588842132035,267.161652216734,0.529584914709786,0.370674910377493
5661,0.249994053110999,0.159236457557767,-0.229418831075389,-0.249972847892967,-0.249999984209528,0.171606745928469,0.25,-0.0266342318006321,0.569368112002286,0.56977221979661,0.04,0.0292865470201951,271.805884841259,0.535698451962639,0.372814796248878
5721,0.24998884272557,-0.0093244069778101,-0.191215646237911,-0.249922422551335,-0.249999955207628,0.0260192740813391,0.25,-0.0366588479251295,0.583558404667566,0.582241291646065,0.04,0.0114741583225281,278.339441805492,0.517479127847347,0.395217885904234
5781,0.0749927477716206,0.0813904069218113,-0.0369214660249948,-0.249866402517928,-0.249952035416206,0.104410104506202,0.249999973727423,-0.0817269618735017,0.584138536840894,0.594710363495521,0.04,0.0151798624405783,278.715266290466,0.540054182849115,0.379208531367661
5841,-0.25,0.249860775592537,0.249624868656134,-0.249762365313031,-0.249863041517849,0.249993075295232,0.249999924935494,-0.134756028681909,0.602684017828948,0.607179435344976,0.04,0.0186207326007657,287.486169106456,0.604677663884438,0.349339508954965
5901,-0.0749999999999999,0.245878657202832,0.186763295666732,-0.0748487595974091,-0.249910976986602,0.249995498941901,0.249999951208071,-0.142032591300955,0.607173741348728,0.619648507194432,0.04,0.0321499872537817,289.37321914293,0.653159073326334,0.325532270811765
5961,0.25,0.238483294479095,0.0700203744006993,0.24999079387446,-0.25,0.25,0.25,0.0584713519842222,0.616996231391783,0.632117579043887,0.04,0.0534030555545695,294.628433642385,0.769456096301915,0.281349072839787
6021,0.25,0.24251396595084,-0.0419852333088696,0.249977444584734,-0.0750008850282226,0.0976839391557085,0.249996049534124,-0.0494821163689071,0.645033881857383,0.644586650893342,0.04,0.0516447437901403,307.981908280136,0.8007925830883,0.282591984839323
6081,0.25,0.249999498684081,-0.249995647626641,0.249952653046671,0.249997471347935,-0.185188745269404,0.24998871295464,-0.187634824514799,0.661277103386789,0.657055722742798,0.04,0.0529361969828769,315.535985817151,0.766744967879503,0.302379704374239
6141,0.0749999999999999,0.231004647172189,-0.0753713844467909,0.0755388836935565,0.195356265455939,-0.207867700441088,0.249992663420516,-0.0236451372440217,0.667408571739188,0.669524794592253,0.04,0.0505486813905324,318.482813577283,0.765984614342871,0.305506624053913
6201,-0.25,0.195728494364391,0.248930818601502,-0.248372402247941,0.0938797402279448,-0.249985760045644,0.25,0.25,0.683279096636391,0.681993866441709,0.04,0.0368547068997393,326.082169695737,0.772800982426574,0.310037383317162
6261,-0.0763233110526682,0.214723397708883,0.152684896711613,-0.0752498663192144,-0.0264764620386067,-0.249990744029669,0.25,0.0766251055453294,0.700151180023286,0.694462938291164,0.04,0.0375131952376983,334.186727720217,0.755540222344304,0.32500218778156
6321,0.246219111278091,0.249999646777225,-0.0260575296553241,0.246263414691278,-0.249995123390774,-0.25,0.25,-0.129996845871729,0.707394986187536,0.70693201014062,0.04,0.0464202868055426,337.550322817165,0.730651898360278,0.339455372794659
6381,0.072542422330759,0.0749997704051959,-0.104373532256086,0.0725712195493306,-0.249996830204003,-0.0763799844123813,0.248483612022535,-0.122778937572592,0.721537710242005,0.719401081990075,0.04,0.0264571288214622,344.533300641744,0.735460899865865,0.344212226264837
6441,-0.25,-0.25,-0.249817537086073,-0.25,-0.25,0.246057187393196,0.245667462921529,-0.148916595622035,0.745913825163853,0.73187015383953,0.04,0.00506746425948203,355.211349820009,0.625453047785067,0.41729847458585
6501,-0.24999618347036,-0.249961197731732,-0.249881399105948,-0.24999974068971,-0.249048501597433,0.072690188963317,0.246957442887793,-0.0737054949477293,0.744340837671928,0.744339225688986,0.04,9.93828883763399e-05,355.261076004437,0.607365877906214,0.429785652839879
6561,-0.249989095629601,-0.249889136376378,-0.25,-0.249999259113456,-0.247281433135524,-0.24927709383503,0.249353119967999,0.249950030493136,0.755757946557074,0.756808297538441,0.04,0.000812797734586163,360.540075269975,0.59547646149118,0.444880758331226
6621,-0.0757307248044185,-0.248289811060037,-0.25,-0.0752526997584066,-0.247528726608721,-0.0745314301198842,0.249540418665329,0.0749675198205384,0.741835403480543,0.769277369387896,0.04,0.00667490450686479,352.125302821689,0.643564315477007,0.402031381741814
6681,0.24789196387092,-0.245319635472545,-0.25,0.249276624758114,-0.247987985916086,0.249996231065386,0.249888259103228,-0.25,0.757517494671252,0.781746441237352,0.04,0.0117846991160443,361.571517313604,0.861857122350468,0.308257472412156
6741,0.248628034487349,-0.0719598356817201,-0.0750017431910585,0.249529667216156,-0.0736921908454557,0.249992985887463,0.249927368417098,-0.0750049934424332,0.759550013201597,0.794215513086807,0.04,0.0341903555870346,362.19581997043,1.0021651832469,0.265557639470756
6801,0.249995022775003,0.249994078215526,0.249995019454118,0.249999603209662,0.25,0.249986959128463,0.25,0.24998573302162,0.783900150792756,0.806684584936263,0.04,0.0611607319062953,374.413383882733,1.20809140429823,0.227722659286329
6861,0.0749968846578136,0.0749963524422176,0.249992389838151,0.0750000050905153,0.0750034339186725,0.249991523433501,0.249911323171133,0.249939340254732,0.826958132386229,0.819153656785718,0.04,0.0589019847600645,394.957063650031,1.22920845360801,0.236090778006317
6921,-0.249999657559825,-0.249999423993926,0.24998750626564,-0.249999248559328,-0.249990188803793,0.25,0.249746637631808,0.249853182259083,0.853944875132645,0.831622728635174,0.04,0.0514806986002341,407.283057235171,1.08189119616703,0.276609717777718
6981,-0.249999777413886,-0.249986111796056,0.173486996153289,-0.0750010417245163,-0.249985347842612,0.0749999999999999,0.249832594558504,0.074904818370085,0.859839372715485,0.844091800484629,0.04,0.0512019779704016,410.414105982177,0.998133876581392,0.302126040876145
7041,-0.25,-0.249961389142869,0.0314146202303518,0.249995628111563,-0.249976357486133,-0.25,0.24999222885094,-0.249999285995198,0.868836959838475,0.856560872334084,0.04,0.0426781720412013,414.474886343873,0.897702636557886,0.339250422108889
7101,-0.249998573395265,-0.0749749029428648,-0.0670804968502713,0.249981494873077,-0.249984124553949,-0.24999767620664,0.249994948753111,-0.0856915154014146,0.865564077123904,0.86902994418354,0.04,0.0408992903268831,412.907375975678,0.879153593405937,0.345098094823115
7161,-0.24999592398647,0.25,-0.25,0.249955247430174,-0.249998549108463,-0.249993360590399,0.25,0.219451487129897,0.875934414033219,0.881499016032995,0.04,0.0414114905339383,418.09394597313,0.928980962115809,0.330690517151697
7221,-0.249996571325778,0.24999934722967,-0.249955103029999,0.146180276510417,-0.249999056920501,-0.249995684383759,0.25,0.0551434666344331,0.899688695443379,0.893968087882451,0.04,0.033371781164079,429.502499841658,0.929200442096592,0.339633847059783
7281,-0.249997773527348,0.249998134941915,-0.249871722942854,-0.0465446694834187,-0.25,-0.25,0.25,-0.25,0.912051717030376,0.906437159731906,0.04,0.0258132679908457,435.109109592903,0.872222222662642,0.366543653788763
7341,-0.0749985527927761,0.249998541842779,-0.12624171987872,0.0572459223100692,-0.234446143099096,-0.25,0.075,-0.206094849633583,0.908512227283877,0.918906231581361,0.04,0.029458964167043,433.445289061579,0.886588392104098,0.3592253052915
7401,0.25,0.249999297515812,0.103356857240387,0.249999878497975,-0.20556040885456,-0.25,-0.25,-0.124556713238808,0.920267775403335,0.931375303430817,0.04,0.0391744441993613,439.242361686792,0.969416356586308,0.332926642568792
7461,0.249780446991347,0.0749995433852777,-0.0202415534291387,0.249999579801927,-0.185143231684082,-0.249999679890049,-0.249764220139411,-0.168457915133516,0.943852579651714,0.943844375280272,0.04,0.0303692036149019,450.57350745444,1.00082149106212,0.33079863320452
7521,0.249372705689564,-0.25,-0.249781458958258,0.249999025080693,-0.147225616938908,-0.249999085400139,-0.24932634325546,-0.24998871865226,0.961561071614014,0.956313447129728,0.04,0.0205172698612421,458.732385153035,0.956868000961184,0.352258957928823
7581,0.0745929292300731,-0.249889107600273,-0.249857806300985,0.24998319853737,-0.00819671369483297,-0.0926052452146788,-0.249562115214994,-0.249990572334281,0.963368007658764,0.968782518979183,0.04,0.0244132526613492,459.649912261116,0.967762488907836,0.348990072687396
7641,-0.249998084194695,-0.249683164572209,-0.249999594223193,0.249953806385484,0.249999820901306,0.199697600844034,-0.249999977425556,-0.249994014886607,0.977111939170526,0.981251590828638,0.04,0.0272825491622944,466.299732913299,1.00031493661283,0.342517755365755
7701,-0.199560550529697,-0.249794056971936,-0.249989718358229,0.249958605563367,0.249995774997841,0.0424318697640438,-0.249979820768235,-0.0916062294300818,0.983930104120207,0.989356487530784,0.04,0.0289841619545034,469.413523678656,1.02906243870512,0.335172629949489
7761,-0.105890845151843,-0.25,-0.249971377466152,0.249967518322293,0.249988261177121,-0.24963305938451,-0.249942386976067,0.202542514989179,0.986446177443323,0.989356487530784,0.04,0.0331776493086922,470.673903434265,1.05690066795425,0.327220590008154
7821,0.0180319630802069,-0.249980363900768,-0.0749950348367317,0.249978678577867,0.246981271863615,-0.0747650040857367,-0.0861646580543578,0.0441526347429663,0.979126731649836,0.989356487530784,0.04,0.0462680879339219,466.964368472688,1.08013101347643,0.31765959906945
7881,0.248174321225443,-0.249943896859339,0.249961030046478,0.24999940476679,0.241396863138533,0.249989955754841,0.217993981371675,-0.25,0.97892280525701,0.989356487530784,0.04,0.0625053451263036,467.192007601893,1.16530548497032,0.294584770061999
7941,0.248800667455623,-0.248354461444395,0.216560848281573,0.217611401032729,0.244407920270761,0.0749934712406468,0.229196087891588,-0.0750000032952574,0.987101846262574,0.989356487530784,0.04,0.0628556620054404,470.965040445843,1.18650004354887,0.291659138469798
8001,0.2499638818831,-0.245402652816642,0.154531939289608,0.157462251240901,0.249999883516327,-0.25,0.25,0.249999990584979,0.991582841926642,0.989356487530784,0.04,0.0625379743881716,473.12861563141,1.1857197371892,0.293191815624822
8061,0.234496160816519,-0.247010589545432,0.187945760538245,0.0590861724279609,0.0749999242856129,-0.249996321527116,0.25,0.249996213610506,0.998056465695662,0.989356487530784,0.04,0.0611041035573546,476.266838858769,1.1526484373003,0.3036044650169
8121,0.20577039312144,-0.249996757756043,0.25,-0.123612259653213,-0.25,-0.249989490077473,0.25,0.249989199229344,1.00027759893421,0.989356487530784,0.04,0.0564008660596727,477.156341795178,1.07768527071071,0.325329487807485
8181,0.0464935734666988,-0.249997864457175,0.0750004238299657,0.00715203122541152,-0.25,-0.249989479877343,0.24999918382719,0.249992979499073,0.998360228781983,0.989356487530784,0.04,0.0500517128550645,476.402104469339,1.03032185532289,0.339746847268606
8241,-0.249306234463535,-0.249999919759277,-0.249998789057241,0.25,-0.25,-0.249989460934246,0.249997668077687,0.25,1.00104190823009,0.989356487530784,0.04,0.0392610869782237,477.522358192238,0.948663351296438,0.369859061747682
8301,-0.249548937135737,-0.249999596199744,-0.249990192916693,0.075,-0.2499994904318,-0.24994485208638,0.249998484250496,0.24961295136504,0.996741610363486,0.983835210380073,0.04,0.0334891390387389,475.542478092141,0.895162169650212,0.390339294320009
8361,-0.249999670669828,-0.249998995303468,-0.249974228655678,-0.25,-0.249998544090858,-0.249862007083202,0.25,0.248894146757258,0.980382854150935,0.968060132806613,0.04,0.0287663347338374,467.602470445423,0.799824969506503,0.429572543354722
8421,-0.24990626944403,-0.249999131239177,-0.249906621951317,-0.249999734743048,-0.249998890684726,-0.0749117443056986,0.249822449357525,0.249281036393942,0.9522791918433,0.952285055233153,0.04,0.0293458457777409,454.170100737424,0.766948126231127,0.435118176309302
8481,-0.249732810024691,-0.249999383691208,-0.24978106664322,-0.249999242122995,-0.249999534359052,0.249995886566807,0.249492712450071,0.249999545719214,0.934224694328517,0.936509977659692,0.04,0.0305327655657401,445.604258677971,0.79187810945135,0.413471587463468
8541,-0.0748263521915999,-0.223788870710585,-0.0748589911933174,-0.249999431113039,-0.074999710407854,0.249997326268424,0.0746702853028052,0.249999699072737,0.903068391849014,0.920734900086232,0.04,0.0366164714161157,430.778293703768,0.819919473593003,0.386044426466523
8601,0.249999926641285,-0.175112203746571,0.249996291785074,-0.249999782094549,0.249999962644371,0.25,-0.249999936542117,0.249999983872137,0.892774206593552,0.904959822512771,0.04,0.049695183759595,426.036263674899,0.939993815307476,0.333024547900204
8661,0.249998405316854,-0.0263229324352709,0.249997589660298,-0.10173819696261,0.249999975718841,0.249998441112732,-0.2499996808593,0.0750516536085171,0.89250404352168,0.889184744939311,0.04,0.0610036447358962,425.756333645657,0.942951948260904,0.331761687556947
8721,0.249995580000052,0.25,0.25,0.173604746853846,0.25,0.249995546036377,-0.249999206019782,-0.249852388309635,0.878673160710066,0.87340966736585,0.04,0.0761785343886674,419.05077310492,0.904704022601916,0.340341415803444
8781,0.249997127000034,0.25,0.25,0.0253430854549998,0.25,0.249961163102111,-0.0750016407321336,-0.0749045730074311,0.852269183709923,0.85763458979239,0.04,0.0792362538774681,406.324915979147,0.898635361005135,0.33223442194447
8841,0.25,0.25,0.25,-0.25,0.25,0.249897309081331,0.249993837659214,0.249998512553805,0.838658901209547,0.84185951221893,0.04,0.0770642137942757,400.167805427334,0.949535410042779,0.309660390240623
8901,0.249999997584738,0.25,0.249998169706824,-0.0750000000000001,0.249994913280314,0.249932652501842,0.249914272926373,0.249999033159973,0.831343112128976,0.826084434645469,0.04,0.0829887385157646,396.490798099073,0.922050446760882,0.315960728275242
8961,0.24999999309925,0.25,0.249994770590924,0.25,0.249985466515184,0.249998290282791,0.249766509851096,0.25,0.814424474143481,0.810309357072009,0.04,0.0896014653168776,388.450096309031,0.897508737293818,0.318017650414068
9021,0.249999861989754,0.249999988325178,0.0749966008841008,0.249996019359838,0.24999055323487,0.249998888683814,0.249846113496806,0.191931693715408,0.801352692030603,0.794534279498548,0.04,0.0847832911575612,382.267434387445,0.866615688478526,0.32411223913017
9081,0.249999618500689,0.249999966643366,-0.25,0.249988626742394,0.25,0.25,0.24999394883884,0.0840905534725934,0.787595051245524,0.778759201925088,0.04,0.0780554709807138,375.573297814898,0.806249820334021,0.342278604776814
9141,0.249999701806116,0.0749999783181877,-0.128474966654677,0.249992607382556,0.25,0.123875674396233,0.249996066745246,0.142158780842347,0.76814372567268,0.762984124351628,0.04,0.0749134327205924,366.357657086225,0.771455835820372,0.34893849257075
9201,0.249999856516196,-0.25,0.0972143809866383,0.25,0.25,-0.110355216010764,0.25,0.249999774529033,0.751750719867696,0.747209046778167,0.04,0.0655466786786667,358.519808930329,0.740863369819898,0.355573764672636
9261,0.249998868076886,-0.0750237459277257,-0.0243106523586852,0.25,0.249999790089664,-0.159230890406996,0.24999231265557,0.24999660117449,0.735870591080914,0.731433969204707,0.04,0.0659063169561187,350.97369511012,0.716252249368366,0.360050356655985
9321,0.249997032403881,0.249932154492212,-0.25,0.25,0.249999400256182,-0.25,0.249978036158771,0.249990707801768,0.719916352531313,0.715658891631246,0.04,0.0702237343420905,343.330750676243,0.68677955020288,0.367324608497626
9381,0.249993655248905,0.0749564319324893,-0.249999970006383,0.249999866341253,0.249991734187103,-0.249998695993338,0.249985721323691,0.249993960071149,0.70411760086674,0.699883814057786,0.04,0.0636979786419784,335.84034211042,0.664046880263317,0.371611203846682
9441,0.249987383389665,-0.249998481392711,-0.249999914303952,0.249999618117866,0.249977497201671,-0.24999627426668,0.249999993772828,0.25,0.689759863543454,0.684108736484326,0.04,0.0482904501914393,328.925392895582,0.628015511156428,0.384841331011867
9501,0.0749922922600451,-0.0749999733887206,-0.249999944297569,0.249999607281479,0.249972432249145,-0.249997578273342,0.0750868014655126,0.25,0.679082416868379,0.673854936061576,0.04,0.041797017900237,324.051486536416,0.602023165942032,0.39550819905437
9561,-0.249998591266391,0.249997255761548,-0.25,0.249999587156759,0.249963025908741,-0.25,-0.00141155441112395,0.25,0.673285381578098,0.673854936061576,0.04,0.0335430392633769,321.145493156892,0.591986677733856,0.398606681943967
9621,-0.249992569622761,0.249996220111849,-0.249999795602049,0.249973491091359,0.249975966840681,-0.249955422215698,-0.0131424430715748,0.249999999798573,0.670932466801129,0.673854936061576,0.04,0.0259533078050639,320.10283010533,0.608603149156174,0.386464845624221
9681,-0.249981386570304,0.249994296762409,-0.249999416005856,0.249925026969902,0.25,-0.249872634901993,0.249881927415191,0.249999999424493,0.667590307381876,0.673854936061576,0.04,0.0303742065188277,318.559953349414,0.652813645288348,0.358555700712404
9741,-0.0749882316659047,0.0749962928955662,-0.0749996230285853,0.249951267530436,0.24999973980435,-0.0749172126862957,0.0749232528198741,0.249989150065172,0.671595044734982,0.673854936061576,0.04,0.0386725633408131,320.30555853075,0.669619084721901,0.351472482398177
9801,0.249999056013694,-0.25,0.249999992500631,0.25,0.249999256583858,0.25,-0.0596796738450426,0.249969001255004,0.665253523665462,0.673854936061576,0.04,0.0577146999342362,317.471054621767,0.718842595510044,0.324507700787066
9861,0.249999386408901,-0.0750004898732091,0.0750026980342044,0.105986367173307,0.249958616089919,0.249973800615931,-0.0377460977720181,0.249969362494184,0.673489748777613,0.673854936061576,0.04,0.0534391547637897,321.402128373183,0.739163328256195,0.319494224905708
9921,0.25,0.24999860036226,-0.249992277403445,-0.161467522361978,0.249883140886889,0.249925144616946,-0.0178423784201034,0.249970033366946,0.677722956630191,0.673854936061576,0.04,0.0525124773144015,323.321838579654,0.716268972744124,0.331675641047015
9981,0.25,0.0750356513915895,-0.249994980312239,-0.192453606308149,0.249923946992444,0.151857635511351,-0.0086140661106272,0.0749805216885149,0.685987188698569,0.673854936061576,0.04,0.0396145212547135,327.490933551233,0.683190705418108,0.352218374308386
10041,0.25,-0.249895539553941,-0.25,-0.24999919077961,0.249999729759903,-0.0302677385418973,-0.0176634268127948,-0.0176634268127948,0.685650822574735,0.678161896064841,0.04,0.0183667143232265,327.038140602177,0.599735382162032,0.400676074114584
10101,0.249980426900448,-0.249932100710062,-0.0750048582010387,-0.0751137702526349,0.249995773848326,-0.106606820422136,-0.0545399484339668,-0.0545399484339668,0.682231332845472,0.690467496074168,0.04,0.0182703514924774,325.42727430025,0.606948333447001,0.393964329643164
10161,0.249944076858422,-0.25,0.249986119425604,0.249673439297461,0.249988427155397,-0.248379401056864,-0.0966008732575109,-0.0966008732575109,0.692062655068165,0.702773096083495,0.04,0.0273324907097734,330.329941693962,0.676620446373075,0.358721576591907
10221,0.0749644282342714,-0.075000011817703,0.0749910115752543,0.249787735523432,0.244502139999573,-0.073946749445724,-0.0750008066979646,-0.0749977261645436,0.706131310257876,0.715078696092822,0.04,0.0277256424551782,336.533732430298,0.726647367306663,0.340298139015807
10281,-0.249997776353437,0.249999966235134,-0.249999903003966,0.249999999943094,0.2343133209959,0.249999603546394,0.249997695148673,0.249999680263508,0.714146595130363,0.727384296102149,0.04,0.0365890705522731,340.93868354946,0.843763864565832,0.296899888186787
10341,-0.139929133817987,0.0750883792219129,-0.249998566471422,0.249999999963011,0.0648036586473348,0.0749997423051559,0.24951062177627,0.24999979036093,0.742717737995395,0.739689896111477,0.04,0.0313503056507052,354.655419887456,0.87035752533284,0.29940812996729
10401,0.0644840594621338,-0.249747425231213,-0.249996084339556,0.25,-0.25,-0.25,0.248606056941807,0.249999994827571,0.760116662475688,0.751995496120804,0.04,0.0246925406269847,362.690434347917,0.794556562097865,0.335402240280432
10461,-0.045585361349613,-0.249779874073276,-0.0762728440669853,0.200216879052291,-0.249999926851531,-0.249954547670511,0.074094157463429,0.249999996637921,0.768329718945014,0.764301096130131,0.04,0.0226198980832259,366.727678612529,0.779106464789653,0.345860971987506
10521,-0.25,-0.249840136208537,0.246356030724931,0.107762511577974,-0.249999791004373,-0.249870136201461,-0.249999370139274,0.25,0.780020904689278,0.776606696139458,0.04,0.0171363813713856,372.11078382726,0.74502521483734,0.366991462381722
10581,-0.249989499421144,-0.103759114213695,0.0769295549174037,-0.0174339744199528,-0.24998887570926,-0.169195023184855,-0.249957708199575,0.249995869027373,0.790446142135741,0.788912296148785,0.04,0.0146898729350046,377.167328621324,0.740647507041869,0.374177075840396
10641,-0.249969998346127,0.167534212348153,-0.237719614439432,-0.249941734130389,-0.249968604446907,-0.0193698132968714,-0.249880336025848,0.249988197221066,0.800246411472377,0.801217896158113,0.04,0.0126434438564174,381.95485453205,0.732001181259271,0.38340248952992
10701,-0.0749804989249823,0.196183945542464,-0.24193400604549,-0.249952511424895,-0.161721242267369,0.0749096213570336,-0.0781551038710235,0.249992327854178,0.787351767964323,0.81352349616744,0.04,0.0250723602063454,375.628998606351,0.790521972318384,0.349140189454586
10761,0.25,0.249390592903328,-0.249760733313883,-0.249972526400406,0.00216671606606076,0.25,0.240763184416507,0.249999999029959,0.802067424167773,0.825829096176767,0.04,0.04055705090042,383.020049735529,0.982758761630909,0.286371147810086
10821,0.0750005189006582,0.249603885387163,-0.249769601050893,-0.249596895762189,-0.0860914985343176,0.249999958573358,0.0689980836180807,0.24494608846263,0.840887423206446,0.838134696186094,0.04,0.0368307879012652,401.580776998395,1.03203102541628,0.285913616227757
10881,-0.249998517426691,0.25,-0.249786069705339,-0.248899296005501,-0.249999611363592,0.249999881638165,-0.249994246436139,0.235560254551877,0.86042168043197,0.850440296195421,0.04,0.0323766260291352,410.459982504741,0.94958394016005,0.317608515252048
10941,-0.0749990595190395,0.0750000296373562,-0.160145045558867,-0.249284529066411,-0.0749997473863346,0.0750054695230931,-0.177328137672998,0.0657299033686261,0.864927634874741,0.862745896204748,0.04,0.0348154855622335,412.752164346025,0.929139485519939,0.326409747042815
11001,0.249999933738028,-0.24999991532184,0.00633114214172531,-0.249999961893814,0.25,-0.249984152976326,-0.0423767928271641,-0.249669320257412,0.874741016599447,0.875051496214076,0.04,0.035407283301856,417.426117924661,0.927677218541926,0.330626305095092
11061,0.249999956929718,-0.249412122091396,0.0916152423921213,-0.249999975230979,0.249999903498783,-0.0749938428992937,-0.115044915337657,-0.249785058167318,0.881749350369559,0.883050136220138,0.04,0.0406133031990063,420.646542812024,0.931402204395226,0.331844587640481
11121,0.25,-0.248320506091999,0.25,-0.25,0.249999724282239,0.249988161529481,-0.25,-0.25,0.881377389430253,0.883050136220138,0.04,0.0500309786234082,420.551544633289,0.947392206949939,0.326170065409374
11181,0.249998206591793,-0.0739246742091872,0.25,-0.0750000000000001,0.249913396539407,0.0749923049941628,-0.25,-0.238550750908568,0.882573777955568,0.883050136220138,0.04,0.0558974413286501,421.051292685161,0.946998343031695,0.326693476306748
11241,0.24999487597655,0.249953299287464,0.25,0.25,0.249753073588435,-0.25,-0.25,-0.217287859738765,0.881873717768263,0.883050136220138,0.04,0.0645944802851543,420.744872009275,0.953363422194562,0.32427616073202
11301,0.249996669384758,0.0749696445368517,0.0750011334113148,0.25,0.249754750874853,-0.249986329752992,-0.24999992238076,-0.228543629974603,0.886302837912244,0.883050136220138,0.04,0.0528541801558925,422.973657819983,0.951192556406461,0.326737930697552
11361,0.25,-0.25,-0.249996761681958,0.25,0.249757865835343,-0.249960942151407,-0.249999778230742,-0.24944720326973,0.892279866570801,0.883050136220138,0.04,0.0348562518573058,425.624557574374,0.892164315025425,0.350539131124623
11421,0.0750016218034422,-0.25,-0.249997565461617,0.075005332252425,0.0748434235492037,-0.249974472086352,-0.0750003914517467,-0.249614149331677,0.889463621438768,0.883050136220138,0.04,0.0247963423902977,424.50080305142,0.860195283329914,0.362606959774032
11481,-0.24999536627588,-0.25,-0.24999905819527,-0.249984764993072,-0.249997683553627,-0.249999599108393,0.249998469709244,-0.249924192018149,0.897133513678064,0.883050136220138,0.04,0.0139344898732469,428.022886206837,0.734496703726558,0.428185361992254
11541,-0.0749992965048407,-0.0750357463494755,-0.145903642828756,-0.136362013478852,-0.0749985159662093,-0.249997258361702,0.249999005038952,-0.249949373259947,0.852466327215739,0.883050136220138,0.04,0.0266644168425276,406.75832381434,0.74946411895114,0.398786345617597
11601,0.249993404498518,0.249897867572927,0.0474164142804841,0.074651667904698,0.249999938124709,-0.249992911260705,0.249999999222696,-0.249996138423285,0.858662612563998,0.883050136220138,0.04,0.0464590456094925,409.996187687703,0.960521212466588,0.313637175687059
11661,0.249995712692148,0.249933523167836,0.118317167280218,-0.0389764154977181,0.24999995821154,-0.24999517329908,0.249999999012221,-0.249926639677507,0.879476256001049,0.883050136220138,0.04,0.050391959649261,419.677103953408,1.00994666620186,0.305331430685669
11721,0.249999999337462,0.249999740701238,0.249989994279724,-0.249999998959348,0.249999995515654,-0.249999374227492,0.249999998621338,-0.249797570578206,0.885001797195808,0.883050136220138,0.04,0.0568855603273458,422.248965186955,1.00531295838127,0.308618523799329
11781,0.198463990812247,0.165189139319626,0.249993494408396,-0.24999997947418,0.075001658082394,-0.249999466883216,0.249989536651453,-0.0754443651114183,0.884176847610587,0.883050136220138,0.04,0.0576519006490958,421.836077350084,0.992960820966318,0.312152115928443
11841,0.102754260693991,0.00768373675377597,0.24999999464736,-0.249999943287439,-0.249995254293661,-0.249999638958131,0.249970107278808,0.248354445041187,0.888343873078757,0.883050136220138,0.04,0.0513129279314891,423.821646471572,0.970600619409634,0.320846455943335
11901,0.152721543247357,-0.0825055498022677,0.075099459725669,-0.249995378838445,-0.249996524018174,-0.249999765319521,0.249980503634509,0.0739304194993532,0.89773439560036,0.883050136220138,0.04,0.0437124437281084,428.522264878887,0.922593021689306,0.341285551468892
11961,0.24551792513218,-0.249999939120635,-0.249715819414613,-0.249986902004599,-0.249998882077984,-0.249999999990673,0.249999811152241,-0.249999913649766,0.898102851438857,0.883050136220138,0.04,0.0307789000678104,428.360369604486,0.798764254434492,0.394044562907582
12021,0.072281970036036,-0.249996620455488,-0.249783373491586,-0.249991486301146,-0.249950104848479,-0.249999999075363,0.197271490979771,-0.249999451428216,0.896160358927518,0.883050136220138,0.04,0.0203292541385157,427.577698938096,0.742918321419695,0.422891205135311
12081,-0.249441946571088,-0.249990457220215,-0.249908831063108,-0.249999999994735,-0.24985951856511,-0.249999997375501,0.0993474678023248,-0.249998593016767,0.892786773916138,0.883050136220138,0.04,0.00764584183358548,425.536270218718,0.648263261122212,0.482325084844156
