time,bias_percent_1,bias_percent_2,bias_percent_3,bias_percent_4,bias_percent_5,bias_percent_6,bias_percent_8,bias_percent_9,normalized_power,power_SP,SP,CV,total_power_MW,fuel_fraction,thermal_efficiency
25,0,0,0,0,0,0,0,0,0.999575022449935,1,0.04,0.0400215243777477,476.901594048367,0.999417138316525,0.350619977681389
85,0.00104435117908884,0.00709159706431535,-0.0144522294133502,0.00515822613416378,0.00994979413251735,0.00282184264322109,-0.0129545843733412,-0.0129328442494598,0.993476713090131,0.985163347709182,0.04,0.0431209393152692,473.793634498034,0.978931664007063,0.355624375990035
145,0.00355079400890213,0.0241114300186722,-0.0491375800053903,0.0175379688561573,0.0338293000505591,0.00959426498695188,-0.0440455868693602,-0.0439716704481632,0.962121285838942,0.949555382211218,0.04,0.052645905844489,458.74831777982,0.905281642808143,0.372344932072728
205,0.00605723683871543,0.0411312629730292,-0.0838229305974305,0.0299177115781505,0.0577088059686008,0.0163666873306827,-0.0751365893653793,-0.0750104966468667,0.926042497841722,0.913947416713254,0.04,0.0581360047403455,441.525151304612,0.829368896258947,0.391167154003145
265,0.00856367966852861,0.058151095927386,-0.118508281189471,0.0422974543001438,0.0815883118866426,0.0231391096744136,-0.106227591861398,-0.10604932284557,0.889685756323178,0.878339451215291,0.04,0.0598614704142697,424.180039464981,0.758013526115783,0.41117618160148
325,0.0110701224983419,0.075170928881743,-0.153193631781511,0.0546771970221371,0.105467817804684,0.0299115320181444,-0.137318594357417,-0.137088149044273,0.853295954784599,0.842731485717327,0.04,0.0591057067843588,406.817802984428,0.691201032307504,0.432464286125271
385,0.0135765653281552,0.0921907618360998,-0.187878982373551,0.0670569397441304,0.129347323722726,0.0366839543618751,-0.168409596853436,-0.168126975242977,0.816829269229855,0.807123520219363,0.04,0.0565223262190529,389.419027898617,0.629393074527519,0.45462141013157
445,0.0160830081579685,0.109210594790457,-0.222564332965591,0.0794366824661239,0.153226829640768,0.043456376705606,-0.199500599349455,-0.19916580144168,0.77989370210667,0.771515554721399,0.04,0.0525116448115963,372.000193187871,0.573585652610156,0.476540221266822
505,0.0185894509877818,0.126230427744813,-0.257249683557632,0.091816425188117,0.17710633555881,0.0502287990493368,-0.19558936687299,-0.19558936687299,0.741008534157289,0.735907589223436,0.04,0.0497860325353046,353.414088979988,0.528814803910432,0.491060419611646
565,0.021095893817595,0.14325026069917,-0.291935034149672,0.10419616791011,0.200985841476851,0.0570012213930675,-0.166018669775966,-0.166018669775966,0.703865215819299,0.700299623725472,0.04,0.0469586361070891,335.804391257423,0.501805562849522,0.491706077106051
625,0.0236023366474084,0.160270093653527,-0.326620384741712,0.116575910632104,0.224865347394893,0.0637736437367984,-0.142714096564814,-0.142714096564814,0.668614779028251,0.664691658227508,0.04,0.0465735625682957,318.941449864832,0.476361951668347,0.491958619908872
685,0.0261087794772216,0.177289926607884,-0.361305735333752,0.128955653354097,0.248744853312935,0.0705460660805291,-0.122193588136171,-0.122193588136171,0.633147684870717,0.629083692729544,0.04,0.0482474222425871,301.985655874185,0.450898539748911,0.492109968173591
745,0.0286152223070349,0.194309759562241,-0.395991085925792,0.14133539607609,0.272624359230976,0.0773184884242599,-0.10028577726099,-0.10028577726099,0.597758519234489,0.593475727231581,0.04,0.0511467611726565,285.045751545551,0.424917103296259,0.492907057590069
805,0.0311216651368481,0.211329592516598,-0.405877033420552,0.153715138798083,0.296503865149018,0.0840909107679906,-0.073345976549752,-0.073345976549752,0.561973317041562,0.557867761733617,0.04,0.0565103547144494,267.975988676002,0.399001275989542,0.493487633093031
865,0.0336281079666614,0.228349425470955,-0.3819660635406,0.166094881520077,0.32038337106706,0.0908633331117215,-0.0387449248345735,-0.0387449248345735,0.525991618492758,0.522259796235653,0.04,0.0651158587416257,250.813860916365,0.375565701277195,0.490704777849586
925,0.0350901996173858,0.238277661360996,-0.362440314908627,0.173316398107906,0.334313082852584,0.094813912812231,-0.0183015099453177,-0.0183015099453177,0.495991211180779,0.501488483028508,0.04,0.0630366549458858,236.576706579403,0.376894058204276,0.46121918827948
