time,bias_percent_1,bias_percent_2,bias_percent_3,bias_percent_4,bias_percent_5,bias_percent_6,bias_percent_8,bias_percent_9,normalized_power,power_SP,SP,CV,total_power_MW,fuel_fraction,thermal_efficiency
0,0,0,0,0,0,0,0,0,1,1,0.04,0.0399999999999017,483.535990330301,1,0.355290406680714
60,0,0,0,0,0,0,0,0,0.999864535653511,1,0.04,0.0399000138339898,477.037655707658,1.00007847576001,0.350488084687998
120,0.014526201773642,0.000650243479435403,-0.00780814464646141,-0.030757512992686,0.0114148736234177,-0.00258559082186207,-0.0211474579672478,0.0120947187305915,0.967320999210448,0.952199751956262,0.04,0.0524593508003553,461.155099197581,0.920581824346959,0.368077521078584
180,0.0290524035472839,0.00130048695887069,-0.0156162892929229,-0.0615150259853722,0.0228297472468355,-0.00517118164372403,-0.0422949159344955,0.0241894374611828,0.920139218533773,0.904399503912524,0.04,0.0633783168219055,438.613517517305,0.823177407968836,0.39151034811051
240,0.0435786053209257,0.00195073043830598,-0.0234244339393844,-0.0922725389780583,0.0342446208702532,-0.0077567724655861,-0.0634423739017432,0.0362841561917743,0.871550924723406,0.856599255868786,0.04,0.06936196645692,415.429568699368,0.729327425292563,0.418532835890846
300,0.0581048070945677,0.00260097391774138,-0.0312325785858457,-0.123030051970744,0.045659494493671,-0.0103423632874482,-0.084589831868991,0.0483788749223657,0.822747521623632,0.808799007825048,0.04,0.0714862939928566,392.144211371989,0.641111032614494,0.449435355972383
360,0.0726310088682095,0.00325121739717667,-0.0390407232323072,-0.15378756496343,0.0570743681170887,-0.0129279541093103,-0.105737289836239,0.0604735936529572,0.773829978270274,0.76099875978131,0.04,0.0703454462751874,368.804990427658,0.559402382824001,0.484425675282655
420,0.0871572106418514,0.00390146087661196,-0.0468488678787687,-0.184545077956117,0.0684892417405065,-0.0155135449311723,-0.126884747803486,0.0725683123835486,0.724834048183387,0.713198511737572,0.04,0.0662001763403613,345.428360468892,0.484706210910832,0.523641529665452
480,0.101683412415493,0.00455170435604737,-0.05465701252523,-0.215302590948803,0.0799041153639243,-0.0180991357530343,-0.0825725675261366,0.08466303111414,0.673903439071902,0.665398263693834,0.04,0.0613038151457365,321.470001483649,0.424596803639322,0.556311974360348
540,0.116209614189135,0.00520194783548271,-0.0624651571716915,-0.246060103941489,0.091318988987342,-0.0206847265748963,-0.0390042144278778,0.0967577498447315,0.624673622621374,0.617598015650096,0.04,0.0561401823167918,297.916444542184,0.378071705523283,0.578995217024224
600,0.130735815962777,0.00585219131491806,-0.0702733018181529,-0.276817616934175,0.10273386261076,-0.0232703173967584,-0.0184240033096501,0.108852468575323,0.576057176123244,0.569797767606358,0.04,0.0527712562292059,274.665387828613,0.337999802689669,0.597093253888437
