time,bias_percent_1,bias_percent_2,bias_percent_3,bias_percent_4,bias_percent_5,bias_percent_6,bias_percent_8,bias_percent_9,normalized_power,power_SP,SP,CV,total_power_MW,fuel_fraction,thermal_efficiency
3,0,0,0,0,0,0,0,0,1.00359760546208,1,0.04,0.0418599618805883,478.147104453644,0.993589331857457,0.35359758203579
63,-0.00138671233100365,-0.000364066175660469,-0.00177006516463462,-0.000203800652971495,0.000893251101586998,0.000576412448207293,0.000381666917251437,-5.5049163454953e-05,0.999874003082268,0.999635404957987,0.04,0.0399434982010741,477.032670456431,0.999688554916644,0.350621125691993
123,-0.0291209589510771,-0.00764538968886836,-0.0371713684573269,-0.0042798137124006,0.0187582731333265,0.0121046614123524,0.00801500526228017,-0.00115603243255407,0.995077857010961,0.992343504117732,0.04,0.0407291044218599,474.699324647299,0.985720021246788,0.353850417540227
183,-0.0568552055711506,-0.0149267132020763,-0.0725726717500195,-0.00835582677182981,0.0366232951650661,0.0236329103764976,0.0156483436073088,-0.0022570157016533,0.988039485409358,0.985051603277477,0.04,0.0410624670566236,471.335644203732,0.967607323092325,0.35791987389717
243,-0.0845894521912239,-0.0222080367152842,-0.107973975042712,-0.0124318398312589,0.0544883171968056,0.0351611593406427,0.0232816819523376,-0.00335799897075236,0.980671956812414,0.977759702437222,0.04,0.0405723762873115,467.819640101409,0.949555905897944,0.362003348302537
303,-0.112323698811297,-0.0294893602284922,-0.143375278335404,-0.0165078528906881,0.0723533392285451,0.0466894083047878,0.0309150202973663,-0.00445898223985154,0.97324458341281,0.970467801596967,0.04,0.0395998581270446,464.27535313733,0.932257307242126,0.365927045466313
363,-0.140057945431371,-0.0367706837417002,-0.178776581628097,-0.0205838659501173,0.0902183612602847,0.0582176572689331,0.038548358642395,-0.00555996550895065,0.965779744223428,0.963175900756712,0.04,0.0384182140922083,460.714033652138,0.915905546735031,0.369602949669577
423,-0.167792192051444,-0.0440520072549079,-0.214177884920789,-0.0246598790095464,0.108083383292024,0.0697459062330782,0.0461816969874237,-0.00666094877804983,0.958276968364976,0.955883999916456,0.04,0.0371719210150638,457.134106778501,0.90072824246059,0.372910422081887
483,-0.195526438671518,-0.051333330768116,-0.249579188213481,-0.0287358920689757,0.125948405323764,0.0812741551972234,0.0538150353324525,-0.00776193204714895,0.95074034162496,0.948592099076201,0.04,0.0359308384422618,453.538251365075,0.886963915790817,0.37571855701024
543,-0.223260685291591,-0.0586146542813238,-0.284980491506174,-0.0328119051284049,0.143813427355503,0.0928024041613685,0.0614483736774812,-0.00886291531624806,0.943210499809147,0.941300198235946,0.04,0.0347535597101227,449.946001436661,0.874664827676064,0.377983994332571
603,-0.250994931911664,-0.0658959777945317,-0.320381794798866,-0.036887918187834,0.161678449387243,0.104330653125514,0.0690817120225099,-0.00996389858534718,0.935717552076048,0.934008297395691,0.04,0.033697422757596,446.371351803822,0.863648296970151,0.379764241289223
663,-0.278729178531738,-0.0731773013077399,-0.355783098091559,-0.0409639312472632,0.179543471418982,0.115858902089659,0.0767150503675386,-0.0110648818544464,0.928226975380252,0.926716396555436,0.04,0.0327713812101812,442.797408221356,0.853800438520773,0.38106878296315
723,-0.306463425151811,-0.0804586248209476,-0.391184401384251,-0.0450399443066922,0.197408493450722,0.127387151053804,0.0843483887125673,-0.0121658651235455,0.920706586202086,0.919424495715181,0.04,0.031934834258464,439.209217614882,0.845261366694383,0.381799277848342
783,-0.334197671771885,-0.0877399483341557,-0.426585704676943,-0.0491159573661214,0.215273515482462,0.138915400017949,0.0919817270575962,-0.0132668483926446,0.913170103863602,0.912132594874925,0.04,0.0311635229263239,435.613521704956,0.838167750652955,0.381878388700779
843,-0.361931918391958,-0.0950212718473635,-0.461987007969636,-0.0531919704255505,0.233138537514201,0.150443648982094,0.0996150654026247,-0.0143678316617438,0.90563741831702,0.90484069403467,0.04,0.0304592403428537,432.01977331737,0.832535155657783,0.381290266961184
903,-0.388279452681028,-0.101938529184911,-0.495618246097694,-0.0570641828320083,0.250110308444354,0.161395485498032,0.106866736830402,-0.0154137657673879,0.898126329897937,0.897913388236428,0.04,0.0297587764442897,428.444518874982,0.828697564343221,0.37988592687366
963,-0.388279452681028,-0.101938529184911,-0.495618246097694,-0.0570641828320083,0.250110308444354,0.161395485498032,0.106866736830402,-0.015413765767388,0.89549974480344,0.897913388236428,0.04,0.0286676638897344,427.234462334283,0.83964704825188,0.373873073291046
1023,-0.388279452681028,-0.101938529184911,-0.495618246097694,-0.0570641828320083,0.250110308444354,0.161395485498032,0.106866736830402,-0.015413765767388,0.894834842037577,0.897913388236428,0.04,0.028151889972851,426.922617183898,0.857070441554752,0.36600525583338
1083,-0.388279452681028,-0.101938529184911,-0.495618246097693,-0.0570641828320083,0.250110308444354,0.161395485498032,0.106866736830402,-0.015413765767388,0.894644444676762,0.897913388236428,0.04,0.0284704196050881,426.834855581479,0.8764873377429,0.35782353908208
1143,-0.388279452681028,-0.101938529184911,-0.495618246097693,-0.0570641828320082,0.250110308444354,0.161395485498032,0.106866736830402,-0.0154137657673879,0.894796483839408,0.897913388236428,0.04,0.0294269949859817,426.909741699213,0.895648678549321,0.350229764359889
1203,-0.388279452681028,-0.101938529184911,-0.495618246097694,-0.0570641828320083,0.250110308444354,0.161395485498032,0.106866736830402,-0.015413765767388,0.895194662474664,0.897913388236428,0.04,0.0308089872095998,427.101254201268,0.912874610267418,0.343775082366585
1263,-0.388279452681028,-0.101938529184911,-0.495618246097694,-0.0570641828320083,0.250110308444354,0.161395485498032,0.106866736830402,-0.0154137657673879,0.895736342237878,0.897913388236428,0.04,0.0324192013332519,427.360428928939,0.927094086011135,0.338707779843899
1323,-0.388279452681028,-0.101938529184911,-0.495618246097693,-0.0570641828320083,0.250110308444354,0.161395485498032,0.106866736830402,-0.015413765767388,0.896327333136498,0.897913388236428,0.04,0.0340882141043376,427.642451906554,0.937825906481523,0.335052807761462
1383,-0.388279452681028,-0.101938529184911,-0.495618246097693,-0.0570641828320083,0.250110308444354,0.161395485498032,0.106866736830402,-0.015413765767388,0.896893547171854,0.897913388236428,0.04,0.0356819073877738,427.912163796281,0.945078649522118,0.332691232639674
1443,-0.388279452681028,-0.101938529184911,-0.495618246097694,-0.0570641828320083,0.250110308444354,0.161395485498032,0.106866736830402,-0.015413765767388,0.897385510545374,0.897913388236428,0.04,0.0371044652820945,428.146155081159,0.949208833683512,0.331424762132874
1503,-0.388279452681028,-0.101938529184911,-0.495618246097693,-0.0570641828320083,0.250110308444354,0.161395485498032,0.106866736830402,-0.0154137657673879,0.897777226245755,0.897913388236428,0.04,0.0382973806237221,428.332194683203,0.950775455503512,0.331022437990733
1563,-0.388279452681028,-0.101938529184911,-0.495618246097694,-0.0570641828320083,0.250110308444354,0.161395485498032,0.106866736830402,-0.015413765767388,0.898061681061902,0.897913388236428,0.04,0.039235320542855,428.467067196991,0.950415839340893,0.331251960722512
1623,-0.388279452681028,-0.101938529184911,-0.495618246097693,-0.0570641828320083,0.250110308444353,0.161395485498032,0.106866736830402,-0.0154137657673879,0.898245250821652,0.897913388236428,0.04,0.0399199985020092,428.553896699541,0.948753641945061,0.331899553850836
1683,-0.388279452681028,-0.101938529184911,-0.495618246097694,-0.0570641828320083,0.250110308444354,0.161395485498032,0.106866736830402,-0.015413765767388,0.898342327107454,0.897913388236428,0.04,0.0403730774376506,428.599594746002,0.946340047270585,0.332781529419449
1743,-0.388279452681028,-0.101938529184911,-0.495618246097693,-0.0570641828320083,0.250110308444354,0.161395485498032,0.106866736830402,-0.015413765767388,0.898371010263716,0.897913388236428,0.04,0.04062901376573,428.612810830397,0.943623609576284,0.333749808653284
1803,-0.385329550531829,-0.100302562664403,-0.493510304073229,-0.0582071887650726,0.249245757100791,0.161267620999248,0.108123506560184,-0.0158924486241514,0.898355258507095,0.897531581879115,0.04,0.0407055490053238,428.615908003478,0.940496447887889,0.334861950378462
1863,-0.326331507547849,-0.0675832322542409,-0.451351463583945,-0.0810673074263578,0.231954730229541,0.15871033102357,0.133258901155822,-0.0254661057594211,0.890013351796775,0.889895454732859,0.04,0.0446218945875003,424.563595865883,0.937618478528624,0.332714150015903
1923,-0.267333464563869,-0.0348639018440787,-0.40919262309466,-0.103927426087643,0.214663703358292,0.156153041047893,0.15839429575146,-0.0350397628946909,0.882503379976871,0.882259327586603,0.04,0.048244227056924,420.984117217076,0.936245681112791,0.330392789085968
1983,-0.208335421579889,-0.00214457143391667,-0.367033782605375,-0.126787544748928,0.197372676487042,0.153595751072215,0.183529690347098,-0.0446134200299607,0.875316711402728,0.874623200440347,0.04,0.0519318370312167,417.557641132493,0.932766668013617,0.328925916460598
2043,-0.149337378595909,0.0305747589762456,-0.324874942116091,-0.149647663410213,0.180081649615792,0.151038461096537,0.208665084942736,-0.0541870771652303,0.868392415250227,0.866987073294091,0.04,0.0557621128788503,414.255357067718,0.92550101962048,0.328886394710007
2103,-0.0903393356119285,0.0632940893864076,-0.282716101626806,-0.172507782071499,0.162790622744542,0.148481171120859,0.233800479538374,-0.0637607343005001,0.861396220687891,0.859350946147835,0.04,0.0596764322850726,410.915081843074,0.91400322162279,0.330338377425406
2163,-0.0313412926279485,0.0960134197965697,-0.240557261137521,-0.195367900732784,0.145499595873292,0.145923881145181,0.258935874134012,-0.0733343914357697,0.854065786747485,0.851714819001579,0.04,0.0631354115099866,407.415560078095,0.900004387603467,0.332619465422656
2223,0.0276567503560316,0.128732750206732,-0.198398420648237,-0.218228019394069,0.128208569002042,0.143366591169504,0.28407126872965,-0.0829080485710396,0.846578484808207,0.844078691855323,0.04,0.065838130576438,403.842905793434,0.884901630756336,0.33532979155487
2283,0.0866547933400117,0.161452080616894,-0.156239580158952,-0.241088138055354,0.110917542130792,0.140809301193826,0.309206663325288,-0.0924817057063093,0.839130606039591,0.836442564709067,0.04,0.0678437742358897,400.2911857396,0.86890335327758,0.338500434305212
2343,0.145652836323992,0.194171411027056,-0.114080739669667,-0.263948256716639,0.0936265152595417,0.138252011218148,0.334342057920926,-0.102055362841579,0.83173472924959,0.828806437562811,0.04,0.0694079296124451,396.813829200497,0.851200951438378,0.342538486965428
2403,0.204650879307972,0.226890741437218,-0.0719218991803827,-0.286808375377925,0.076335488388292,0.13569472124247,0.359477452516564,-0.111629019976849,0.824377525816079,0.821170310416555,0.04,0.0704444153038465,393.250938014866,0.831807151628422,0.347377586541615
2463,0.263648922291952,0.25961007184738,-0.0297630586910981,-0.30966849403921,0.059044461517042,0.133137431266792,0.384612847112202,-0.121202677112118,0.81686442819289,0.813534183270299,0.04,0.0705453180411359,389.666081125946,0.811675719695529,0.352748134240946
2523,0.322646965275932,0.292329402257542,0.0123957817981866,-0.332528612700495,0.041753434645792,0.130580141291114,0.40974824170784,-0.130776334247388,0.809249805233469,0.805898056124043,0.04,0.0696002898251252,386.031606335045,0.791131204373725,0.358532909679418
2583,0.381645008259912,0.325048732667705,0.0545546222874713,-0.35538873136178,0.0244624077745422,0.128022851315437,0.434883636303478,-0.140349991382658,0.80136860521432,0.798261928977787,0.04,0.0678221123079747,382.26911701348,0.771455945598946,0.364093360369981
2643,0.440643051243892,0.357768063077867,0.0967134627767558,-0.378248850023065,0.00717138090329217,0.125465561339759,0.460019030899116,-0.100490724070618,0.791759389702986,0.790625801831531,0.04,0.0665783437045414,377.670044388358,0.758605320004051,0.365806427048157
2703,0.496691192078673,0.388851426967521,0.136764361241576,-0.399965962751286,-0.00925509462439527,0.123036135862865,0.483897655764972,-0.0475070555686106,0.782639408170382,0.782989674685275,0.04,0.0657138875789997,373.326965681818,0.757830734901066,0.36196937009906
2763,0.496691192078673,0.388851426967521,0.136764361241576,-0.399965962751286,-0.00925509462439527,0.123036135862865,0.483897655764972,-0.0224403804297333,0.775216694031625,0.775353547539019,0.04,0.0637093528604179,369.797404612936,0.759008411073817,0.357990866418273
2823,0.496691192078673,0.38885142696752,0.136764361241576,-0.399965962751286,-0.00925509462439527,0.123036135862865,0.483897655764972,-0.0105997885834579,0.767915001706811,0.767717420392763,0.04,0.0630199935355096,366.313463283278,0.758309057757538,0.354945204937505
2883,0.496691192078673,0.388851426967521,0.136764361241576,-0.399965962751286,-0.00925509462439516,0.123036135862865,0.483897655764972,-0.00500669867083317,0.760524598582772,0.760081293246507,0.04,0.0630235937036462,362.787375898368,0.755779422293432,0.352705132439261
2943,0.496691192078673,0.388851426967521,0.136764361241576,-0.399965962751286,-0.00925509462439516,0.123036135862865,0.483897655764972,-0.00236472195318593,0.753094245573513,0.752445166100251,0.04,0.063332593116616,359.241977051362,0.751900914108689,0.351059832506538
3003,0.496691192078673,0.38885142696752,0.136764361241576,-0.399965962751286,-0.00925509462439527,0.123036135862865,0.483897655764972,-0.001116746439682,0.745612704510624,0.744809038953995,0.04,0.063773314408409,355.672130680421,0.746988556362341,0.349856997184534
3063,0.496691192078673,0.38885142696752,0.136764361241576,-0.399965962751286,-0.00925509462439527,0.123036135862865,0.483897655764972,-0.000527247345354597,0.738085155501413,0.737172911807739,0.04,0.0642583232348166,352.080415419772,0.741335640185734,0.348964834285098
3123,0.496691192078673,0.388851426967521,0.136764361241576,-0.399965962751286,-0.00925509462439516,0.123036135862865,0.483897655764972,-0.000248789011483904,0.730522914913636,0.729536784661484,0.04,0.0647488011826159,348.472239500416,0.735173960369095,0.348283376870999
3183,0.496691192078673,0.388851426967521,0.136764361241576,-0.399965962751286,-0.00925509462439516,0.123036135862865,0.483897655764972,-0.000117255232297194,0.722936206155857,0.721900657515228,0.04,0.0652310868854559,344.852461302954,0.728670079592471,0.347741937276653
3243,0.496691192078673,0.388851426967521,0.136764361241576,-0.399965962751286,-0.00925509462439527,0.123036135862865,0.483897655764972,-5.51233692402604e-05,0.715332650229263,0.714264530368972,0.04,0.0657027627118231,341.224694216714,0.721939413866434,0.34729167831191
3303,0.496691192078673,0.388851426967521,0.136764361241576,-0.399965962751286,-0.00925509462439516,0.123036135862865,0.483897655764972,-2.57744945195371e-05,0.70771755951194,0.706628403222716,0.04,0.0661656404520913,337.591460004056,0.715061060832959,0.346898961117776
3363,0.496691192078673,0.388851426967521,0.136764361241576,-0.399965962751286,-0.00925509462439516,0.123036135862865,0.483897655764972,-1.19111335161133e-05,0.700094572596564,0.69899227607646,0.04,0.0666226186707329,333.954480340789,0.708089170375512,0.346540500542796
3423,0.496691192078673,0.38885142696752,0.136764361241576,-0.399965962751286,-0.00925509462439527,0.123036135862865,0.483897655764972,-5.36257653939884e-06,0.692466143601066,0.691356148930204,0.04,0.0670764698294532,330.314921445481,0.701060932843126,0.346200031118771
3483,0.496691192078673,0.388851426967521,0.136764361241576,-0.399965962751286,-0.00925509462439516,0.123036135862865,0.483897655764972,-2.26927193118058e-06,0.684833959251565,0.683720021783948,0.04,0.0675294615435531,326.673582381076,0.694002040238996,0.345866058109426
3543,0.496691192078673,0.388851426967521,0.136764361241576,-0.399965962751286,-0.00925509462439527,0.123036135862865,0.483897655764972,-8.08105229379431e-07,0.677199176421537,0.676083894637692,0.04,0.0679833580389857,323.031009715936,0.686930224584057,0.345530402177865
3603,0.495744618830785,0.38919641970816,0.137375129595617,-0.397469494030731,-0.00992564133899521,0.123362990129865,0.483198113996547,-1.17902226163941e-07,0.669563327480622,0.668829573848748,0.04,0.0684215594205003,319.389279846521,0.680296100385268,0.344966585421727
3663,0.476813153873026,0.396096274520937,0.149590496676439,-0.34754011961963,-0.0233365756309953,0.129900075469868,0.469207278628043,2.08125040307745e-07,0.666940261811547,0.668829573848748,0.04,0.0669560397178271,318.192976592752,0.689003993104655,0.339330992019118
3723,0.457881688915267,0.402996129333715,0.161805863757261,-0.297610745208528,-0.0367475099229955,0.136437160809871,0.455216443259539,3.62128685594421e-07,0.667013071916632,0.668829573848748,0.04,0.0659844429692922,318.234855380981,0.700484356407229,0.333813564649569
3783,0.438950223957508,0.409895984146493,0.174021230838083,-0.247681370797427,-0.0501584442149957,0.142974246149874,0.441225607891035,4.34874511482712e-07,0.667371126292779,0.668829573848748,0.04,0.06607385345805,318.405154978027,0.709931207377776,0.329547862576653
3843,0.420018758999749,0.416795838959271,0.186236597918905,-0.197751996386325,-0.0635693785069959,0.149511331489877,0.427234772522531,4.69237043449527e-07,0.667596799847773,0.668829573848748,0.04,0.0666443584371718,318.511671465348,0.717717095751173,0.326081932644745
3903,0.40108729404199,0.423695693772048,0.198451964999727,-0.147822621975224,-0.076980312798996,0.156048416829881,0.413243937154027,4.85468677206543e-07,0.667705739251695,0.668829573848748,0.04,0.0673358934448132,318.562970364341,0.724640880935773,0.323018307423409
3963,0.382155829084231,0.430595548584826,0.210667332080549,-0.0978932475641221,-0.0903912470909961,0.162585502169884,0.399253101785523,4.93135921712167e-07,0.667754629495848,0.668829573848748,0.04,0.0680191594426592,318.5859871448,0.731171390097151,0.320156376722166
4023,0.363224364126472,0.437495403397604,0.222882699161371,-0.0479638731530207,-0.103802181382996,0.169122587509887,0.385262266417019,4.96757654384864e-07,0.667776959643785,0.668829573848748,0.04,0.068666260187519,318.596506015489,0.737524426847484,0.317409028777103
4083,0.344292899168713,0.444395258210382,0.235098066242192,0.00196550125808085,-0.117213115674996,0.17565967284989,0.371271431048515,4.98468431645567e-07,0.667787383049699,0.668829573848748,0.04,0.0692795273117243,318.601414822228,0.743794905270528,0.314737997312454
4143,0.325361434210954,0.45129511302316,0.247313433323014,0.0518948756691824,-0.130624049966997,0.182196758189893,0.357280595680011,4.99276541768604e-07,0.667791699270021,0.668829573848748,0.04,0.0698660061233351,318.603436956582,0.75002872503074,0.312124051917174
4203,0.306429969253194,0.458194967835937,0.259528800403836,0.101824250080284,-0.144034984258997,0.188733843529896,0.343289760311508,4.99658264150562e-07,0.667792366389926,0.668829573848748,0.04,0.0704312117397974,318.603732687546,0.756251897167207,0.309555880631368
4263,0.287498504295435,0.465094822648715,0.271744167484658,0.151753624491385,-0.157445918550997,0.195270928869899,0.329298924943004,4.99838576180735e-07,0.667790677019562,0.668829573848748,0.04,0.0709787434642815,318.602911689121,0.762480871408724,0.307026218670485
4323,0.268567039337676,0.471994677461493,0.28395953456548,0.201682998902487,-0.170856852842997,0.201808014209902,0.3153080895745,4.99923749148738e-07,0.667787456137248,0.668829573848748,0.04,0.0715109104186845,318.601364912375,0.768726369753059,0.304530313300838
4383,0.249635574379917,0.478894532274271,0.296174901646302,0.251612373313588,-0.184267787134997,0.208345099549905,0.301317254205996,4.99963981819136e-07,0.667783271356211,0.668829573848748,0.04,0.0720292548331802,318.599363097811,0.774995235893364,0.302065097302608
4443,0.230704109422158,0.485794387087049,0.308390268727124,0.30154174772469,-0.197678721426997,0.214882184889908,0.287326418837492,4.99982986296791e-07,0.667778512915498,0.668829573848748,0.04,0.0725348659844867,318.597089412208,0.781291635467254,0.299628627856321
4503,0.212719217712287,0.492349249159187,0.319994867453904,0.348974653415236,-0.210419109004397,0.221092415962911,0.274035125237413,4.99991963333796e-07,0.667773313580456,0.668829573848748,0.04,0.0730204443632164,318.594246795799,0.787618046024597,0.297219258988926
4563,0.212719217712287,0.492349249159187,0.319994867453904,0.348974653415236,-0.210419109004397,0.221092415962911,0.274035125237413,4.99996203765701e-07,0.668028367205156,0.668829573848748,0.04,0.0727638112539736,318.718848756541,0.793044495756347,0.295300967006088
4623,0.212719217712287,0.492349249159187,0.319994867453904,0.348974653415236,-0.210419109004397,0.221092415962911,0.274035125237413,4.99998206794399e-07,0.668318626283089,0.668829573848748,0.04,0.0727741179369009,318.856778165955,0.796668853218078,0.294084741335446
4683,0.212719217712287,0.492349249159187,0.319994867453904,0.348974653415236,-0.210419109004397,0.221092415962911,0.274035125237413,4.99999152953671e-07,0.668516930610607,0.668829573848748,0.04,0.072889970692545,318.950638186275,0.798903597042354,0.293348434706146
4743,0.212719217712287,0.492349249159187,0.319994867453904,0.348974653415236,-0.210419109004397,0.221092415962911,0.274035125237413,4.99999599885544e-07,0.668635356326058,0.668829573848748,0.04,0.0730126946576349,319.006636876878,0.800280047768204,0.292895301830823
4803,0.212719217712287,0.492349249159187,0.319994867453904,0.348974653415236,-0.210419109004397,0.221092415962911,0.274035125237413,4.9999981100021e-07,0.668705081083121,0.668829573848748,0.04,0.0731084314486643,319.039618022413,0.801152065601836,0.292606747137789
4863,0.212719217712287,0.492349249159187,0.319994867453904,0.348974653415236,-0.210419109004397,0.221092415962911,0.274035125237413,4.99999910723244e-07,0.668747659137774,0.668829573848748,0.04,0.0731748983461813,319.059773739804,0.801720906294044,0.292417608129745
4923,0.212719217712287,0.492349249159187,0.319994867453904,0.348974653415236,-0.210419109004397,0.221092415962911,0.274035125237413,4.99999957828847e-07,0.668774847775836,0.668829573848748,0.04,0.0732189899467908,319.07265284444,0.802099185233654,0.292291498823268
4983,0.212719217712287,0.492349249159188,0.319994867453904,0.348974653415236,-0.210419109004397,0.221092415962911,0.274035125237413,4.99999980079852e-07,0.668792753884355,0.668829573848748,0.04,0.0732478712482612,319.081137958051,0.802353174288882,0.292206742895223
5043,0.212719217712287,0.492349249159187,0.319994867453904,0.348974653415236,-0.210419109004397,0.221092415962911,0.274035125237413,4.99999990590433e-07,0.668804717895904,0.668829573848748,0.04,0.0732668041367193,319.086808050011,0.802524450733539,0.292149570945829
5103,0.212719217712287,0.492349249159187,0.319994867453904,0.348974653415236,-0.210419109004397,0.221092415962911,0.274035125237413,4.99999995555256e-07,0.668812742687433,0.668829573848748,0.04,0.0732792608104761,319.090611273988,0.802640290960658,0.292110888416255
5163,0.212719217712287,0.492349249159187,0.319994867453904,0.348974653415236,-0.210419109004397,0.221092415962911,0.274035125237413,4.99999997900462e-07,0.668818121623257,0.668829573848748,0.04,0.0732874703538339,319.093160475442,0.802718956005922,0.292084595496065
5223,0.212719217712287,0.492349249159187,0.319994867453904,0.348974653415236,-0.210419109004397,0.221092415962911,0.274035125237413,4.99999999008253e-07,0.668821720981582,0.668829573848748,0.04,0.0732928706133935,319.094866245055,0.802772729641523,0.292066591530157
5283,0.212719217712287,0.492349249159187,0.319994867453904,0.348974653415236,-0.210419109004397,0.221092415962911,0.274035125237413,4.99999999531534e-07,0.668824126543492,0.668829573848748,0.04,0.0732964022070817,319.096006251321,0.802809861168735,0.29205412627483
5343,0.212719217712287,0.492349249159187,0.319994867453904,0.348974653415236,-0.210419109004397,0.221092415962911,0.274035125237413,4.99999999778713e-07,0.668825733522861,0.668829573848748,0.04,0.073298687555073,319.096767803672,0.80283587424194,0.292045360279723
5403,0.21317229982411,0.489758766686122,0.319359285861743,0.348682281019726,-0.208402432057577,0.221362335994526,0.272113119701272,4.99999999895472e-07,0.668827286798246,0.668829573848748,0.04,0.0732874511348143,319.098974193004,0.802853978894551,0.292040793846684
5463,0.222233942060571,0.437949117224806,0.306647654018514,0.342834833109525,-0.168068893121156,0.22676073662683,0.233673008978452,4.99999999950625e-07,0.669413272302683,0.668829573848748,0.04,0.0724295728409727,319.379878968288,0.8003058928231,0.29322852348701
5523,0.231295584297033,0.386139467763491,0.293936022175286,0.336987385199324,-0.127735354184736,0.232159137259133,0.195232898255631,4.99999999976677e-07,0.669639205493491,0.668829573848748,0.04,0.0717202311297085,319.485906197957,0.795800768635153,0.294986422173788
5583,0.240357226533494,0.334329818302175,0.281224390332057,0.331139937289122,-0.0874018152483156,0.237557537891436,0.156792787532811,4.99999999988983e-07,0.669724614896578,0.668829573848748,0.04,0.0709163905093699,319.526033079446,0.790566917883472,0.296976638462732
5643,0.249418868769955,0.28252016884086,0.268512758488829,0.325292489378921,-0.0470682763118953,0.242955938523739,0.11835267680999,4.99999999994796e-07,0.669762226257706,0.668829573848748,0.04,0.069986860114862,319.543768553256,0.785035186508085,0.299085877142876
5703,0.258480511006417,0.230710519379544,0.255801126645601,0.319445041468719,-0.00673473737547499,0.248354339156042,0.0799125660871698,4.99999999997542e-07,0.669782946844288,0.668829573848748,0.04,0.0689430638010539,319.553571159263,0.779352199806829,0.301276034272918
5763,0.267542153242878,0.178900869918229,0.243089494802372,0.313597593558518,0.0335988015609453,0.253752739788345,0.0414724553643493,4.99999999998839e-07,0.669795819647447,0.668829573848748,0.04,0.0677922803241804,319.559666493608,0.773578171032767,0.303530564272046
5823,0.27660379547934,0.127091220456913,0.230377862959144,0.307750145648317,0.0739323404973656,0.259151140420648,0.00303234464152885,0.0495874437867334,0.668613822930206,0.668829573848748,0.04,0.0674691978418936,318.991178336307,0.772506404701618,0.303410957056939
5883,0.285665437715801,0.0752815709955978,0.217666231115915,0.301902697738115,0.114265879433786,0.264549541052951,4.99999999999741e-07,0.105864812110427,0.667741106597215,0.668829573848748,0.04,0.0676572093711742,318.577525874237,0.777722596306729,0.300985167453784
5943,0.294727079952262,0.0234719215342825,0.204954599272687,0.296055249827914,0.154599418370206,0.269947941685254,4.99999999999878e-07,0.16214218043412,0.667797448902301,0.668829573848748,0.04,0.0680938423613114,318.607691450589,0.784230412250439,0.298515751432162
6003,0.303788722188723,-0.028337727927033,0.192242967429458,0.290207801917713,0.194932957306626,0.275346342317558,4.99999999999942e-07,0.218419548757813,0.667982209045206,0.668829573848748,0.04,0.068929203867456,318.695527956936,0.789671404182457,0.296540649291438
6063,0.312850364425185,-0.0801473773883486,0.17953133558623,0.284360354007511,0.235266496243047,0.280744742949861,4.99999999999973e-07,0.274696917081507,0.668093414937967,0.668829573848748,0.04,0.0698848301027309,318.747936276769,0.794275125528535,0.294870343720677
6123,0.321912006661646,-0.131957026849664,0.166819703743002,0.27851290609731,0.275600035179467,0.286143143582164,4.99999999999987e-07,0.3309742854052,0.668136199136178,0.668829573848748,0.04,0.0707777576116119,318.767928221165,0.798496494816211,0.293329864796148
6183,0.330973648898107,-0.183766676310979,0.154108071899773,0.272665458187108,0.315933574115887,0.291541544214467,4.99999999999994e-07,0.387251653728894,0.668139288063801,0.668829573848748,0.04,0.0715437763167864,318.769181944154,0.802630706487453,0.291820121229382
6243,0.340035291134569,-0.235576325772295,0.141396440056545,0.266818010276907,0.356267113052308,0.29693994484677,4.99999999999997e-07,0.443529022052587,0.668123247998521,0.668829573848748,0.04,0.0721777883784039,318.761436819495,0.806829932546801,0.290294261149069
6303,0.348643851259207,-0.284795492760545,0.129320389805478,0.261262934762216,0.394583975041907,0.302068425447458,4.99999999999999e-07,0.496992521960096,0.668109722246018,0.668202070747776,0.04,0.072675806099902,318.758395901074,0.810421735784666,0.289004914857637
6363,0.348643851259207,-0.284795492760545,0.129320389805478,0.261262934762216,0.394583975041907,0.302068425447458,4.99999999999999e-07,0.496992521960096,0.660907738726025,0.655652008728335,0.04,0.0791621491682872,315.228345385607,0.783671028551216,0.29556033287244
6423,0.348643851259207,-0.284795492760545,0.129320389805478,0.261262934762216,0.394583975041907,0.302068425447458,5e-07,0.496992521960096,0.648203863414798,0.643101946708893,0.04,0.0849130188966912,309.151419855998,0.751146149775488,0.302413710086594
6483,0.348643851259207,-0.284795492760545,0.129320389805478,0.261262934762216,0.394583975041907,0.302068425447458,5e-07,0.496992521960096,0.63470574461554,0.630551884689452,0.04,0.0881757237474451,302.711046985158,0.723633740875369,0.307371883190494
6543,0.348643851259207,-0.284795492760545,0.129320389805478,0.261262934762216,0.394583975041907,0.302068425447458,5e-07,0.496992521960096,0.621365496065844,0.61800182267001,0.04,0.0899261624862017,296.348476721645,0.701336203904932,0.310478203768395
6603,0.348643851259207,-0.284795492760545,0.129320389805478,0.261262934762216,0.394583975041907,0.302068425447458,5e-07,0.496992521960096,0.608279509295824,0.605451760650569,0.04,0.0910384184953619,290.106978267806,0.682758757371683,0.312209110874291
6663,0.348643851259207,-0.284795492760545,0.129320389805478,0.261262934762216,0.394583975041907,0.302068425447458,5e-07,0.496992521960096,0.595387568091546,0.592901698631127,0.04,0.0919861477771451,283.957492772598,0.666594386376355,0.313001455560541
6723,0.348643851259207,-0.284795492760545,0.129320389805478,0.261262934762216,0.394583975041907,0.302068425447458,5e-07,0.496992521960096,0.582624380726392,0.580351636611686,0.04,0.0929754686055519,277.868984585331,0.6519443435265,0.313172939512607
6783,0.348643851259207,-0.284795492760545,0.129320389805478,0.261262934762216,0.394583975041907,0.302068425447458,5e-07,0.496992521960096,0.56994264517599,0.567801574592245,0.04,0.0940762065199422,271.819029332898,0.638232170360122,0.312936227199608
6843,0.348643851259207,-0.284795492760545,0.129320389805478,0.261262934762216,0.394583975041907,0.302068425447458,5e-07,0.496992521960096,0.557311201507673,0.555251512572803,0.04,0.0952990039049049,265.792877387912,0.625099064025316,0.31242743719516
6903,0.348643851259207,-0.284795492760545,0.129320389805478,0.261262934762216,0.394583975041907,0.302068425447458,5e-07,0.496992521960096,0.544710295916255,0.542701450553362,0.04,0.096633363431977,259.781168475774,0.612325912384056,0.311730792686624
6963,0.348643851259207,-0.284795492760545,0.129320389805478,0.261262934762216,0.394583975041907,0.302068425447458,5e-07,0.496992521960096,0.532127649613937,0.53015138853392,0.04,0.0980643992563306,253.778100738965,0.599780972356456,0.310896716387994
7023,0.348643851259207,-0.284795492760545,0.129320389805478,0.261262934762216,0.394583975041907,0.302068425447458,5e-07,0.496992521960096,0.519555801511565,0.517601326514479,0.04,0.0995791515389571,247.780136324105,0.587386018905611,0.309954223630358
7083,0.348643851259207,-0.284795492760545,0.129320389805478,0.261262934762216,0.394583975041907,0.302068425447458,5e-07,0.496992521960096,0.506990272849618,0.505051264495037,0.04,0.101168364965083,241.785160044825,0.575095125248427,0.308919008132661
7143,0.348643851259207,-0.284795492760545,0.129320389805478,0.261262934762216,0.394583975041907,0.302068425447458,5e-07,0.496992521960096,0.49442840591135,0.492501202475596,0.04,0.102826318259062,235.791915807382,0.562881560610154,0.307798547105113
7203,0.346552064668699,-0.282244953085041,0.12899652830404,0.261267415115238,0.394485088209739,0.301764054927299,5e-07,0.495458190330839,0.481868611836536,0.479951140456154,0.04,0.104512045023222,229.799977404798,0.550729906808087,0.30659565574814
7263,0.304716332858552,-0.231234159574963,0.122519298275294,0.261357022175686,0.392507351566387,0.295676644524112,5e-07,0.464771557745712,0.469968017478498,0.467401078436713,0.04,0.105952359610697,224.1231370498,0.53552179718951,0.307513521358987
7323,0.262880601048404,-0.180223366064885,0.116042068246548,0.261446629236133,0.390529614923034,0.289589234120926,5e-07,0.434084925160585,0.457387198977416,0.454851016417271,0.04,0.10744761209111,218.118597990399,0.519478251935333,0.308517641955012
7383,0.221044869238256,-0.129212572554807,0.109564838217802,0.261536236296581,0.388551878279682,0.28350182371774,5e-07,0.403398292575458,0.444690484643707,0.44230095439783,0.04,0.10850062113923,212.060873603936,0.504206276518979,0.309034506371867
7443,0.179209137428108,-0.0782017790447285,0.103087608189056,0.261625843357028,0.38657414163633,0.277414413314554,5e-07,0.372711659990331,0.4320078447554,0.429750892378388,0.04,0.109259625901283,206.010219089507,0.489780202949809,0.309059582381
7503,0.13737340561796,-0.0271909855346504,0.0966103781603103,0.261715450417476,0.384596404992978,0.271327002911367,5e-07,0.342025027405204,0.419355347967202,0.417200830358947,0.04,0.109878535169352,199.973937094384,0.476029753770941,0.308669682098585
7563,0.0955376738078119,0.0238198079754276,0.0901331481315644,0.261805057477924,0.382618668349625,0.265239592508181,5e-07,0.311338394820077,0.406727020649171,0.404650768339505,0.04,0.110443870015662,193.949120761439,0.462794263551968,0.307931788401645
7623,0.0537019419976639,0.0748306014855055,0.0836559181028184,0.261894664538371,0.380640931706273,0.259152182104995,0.0020502331279085,0.28065176223495,0.394114795347606,0.392100706320064,0.04,0.11104902004063,187.931891442731,0.449961132380336,0.306888178832286
7683,0.011866210187516,0.125841394995584,0.0771786880740725,0.261984271598819,0.378663195062921,0.253064771701809,0.0452582854304337,0.249965129649823,0.380821142382892,0.379550644300622,0.04,0.112753297576227,181.587948519725,0.440657803254843,0.302789097442087
7743,-0.029969521622632,0.176852188505662,0.0707014580453264,0.262073878659266,0.376685458419568,0.246977361298622,0.0884663377329589,0.219278497064696,0.368200095277554,0.367000582281181,0.04,0.114301070929034,175.568743037991,0.432827926307341,0.298048267857078
7803,-0.0718052534327799,0.22786298201574,0.0642242280165805,0.262163485719714,0.374707721776216,0.240889950895436,0.131674390035484,0.188591864479569,0.355704444018344,0.354450520261739,0.04,0.116427989147455,169.607255920358,0.424799261397018,0.293369763720187
7863,-0.113640985242928,0.278873775525818,0.0577469979878344,0.262253092780162,0.372729985132863,0.23480254049225,0.174882442338009,0.157905231894442,0.34320014024332,0.341900458242298,0.04,0.118984863976109,163.641238650493,0.416453807979901,0.288722478277571
7923,-0.155476717053076,0.329884569035896,0.0512697679590885,0.262342699840609,0.370752248489511,0.228715130089064,0.218090494640534,0.127218599309315,0.330665729959267,0.329350396222856,0.04,0.121798604987756,157.660828920475,0.407951071620629,0.283968654437123
7983,-0.197312448863224,0.380895362545974,0.0447925379303425,0.262432306901057,0.368774511846159,0.222627719685878,0.26129854694306,0.0965319667241876,0.318102220011314,0.316800334203415,0.04,0.124777627175729,151.666556965369,0.399470827999207,0.278971240966636
8043,-0.239148180673372,0.431906156056052,0.0383153079015965,0.262521913961504,0.366796775202806,0.216540309282691,0.304506599245585,0.0658453341390605,0.305703653617657,0.304250272183974,0.04,0.128102478675974,145.754137018754,0.390660822909035,0.274142081624129
8103,-0.278892125893012,0.480366409890626,0.0321619393742878,0.26260704066893,0.364917925391622,0.210757269399664,0.345554248932984,0.0366930331831898,0.293504406449744,0.292327713265504,0.04,0.132546788988954,139.933947733628,0.380632182442421,0.270129651039336
8163,-0.278892125893012,0.480366409890626,0.0321619393742878,0.26260704066893,0.364917925391622,0.210757269399664,0.345554248932984,0.0366930331831898,0.288989559262551,0.292327713265504,0.04,0.121227659629643,137.871453809041,0.396338796133663,0.255600939319019
8223,-0.278892125893012,0.480366409890626,0.0321619393742878,0.26260704066893,0.364917925391622,0.210757269399664,0.345554248932984,0.0366930331831898,0.289470586017757,0.292327713265504,0.04,0.112267447582062,138.114880853164,0.415305727687763,0.244358375159529
8283,-0.278892125893012,0.480366409890626,0.0321619393742878,0.26260704066893,0.364917925391622,0.210757269399664,0.345554248932984,0.0366930331831898,0.290544708744306,0.292327713265504,0.04,0.109115500572626,138.626607192222,0.428152271550566,0.237904697849779
8343,-0.278892125893012,0.480366409890626,0.0321619393742878,0.262607040668929,0.364917925391622,0.210757269399664,0.345554248932984,0.0366930331831898,0.291335818049116,0.292327713265504,0.04,0.10891759123461,139.001125216434,0.435539336764521,0.234501490106631
8403,-0.278892125893012,0.480366409890626,0.0321619393742878,0.26260704066893,0.364917925391622,0.210757269399664,0.345554248932984,0.0366930331831898,0.291790845921072,0.292327713265504,0.04,0.109616196044791,139.215981816437,0.439552041330378,0.232719872101625
8463,-0.278892125893012,0.480366409890626,0.0321619393742878,0.26260704066893,0.364917925391622,0.210757269399664,0.345554248932984,0.0366930331831898,0.292027461845493,0.292327713265504,0.04,0.110344396254187,139.327613787655,0.441759546378807,0.231742630394352
8523,-0.278892125893012,0.480366409890626,0.0321619393742878,0.26260704066893,0.364917925391622,0.210757269399664,0.345554248932984,0.0366930331831898,0.292149417737548,0.292327713265504,0.04,0.110872222507265,139.385180525957,0.443040551312784,0.231168044563851
8583,-0.278892125893012,0.480366409890626,0.0321619393742878,0.26260704066893,0.364917925391622,0.210757269399664,0.345554248932984,0.0366930331831898,0.292216101468262,0.292327713265504,0.04,0.111207169393545,139.416699267189,0.44382838508134,0.230809881819607
8643,-0.278892125893012,0.480366409890626,0.0321619393742878,0.26260704066893,0.364917925391622,0.210757269399664,0.345554248932984,0.0366930331831898,0.29225572891908,0.292327713265504,0.04,0.111409342674055,139.435453964911,0.444332028178024,0.230579276541493
8703,-0.278892125893012,0.480366409890626,0.0321619393742878,0.26260704066893,0.364917925391622,0.210757269399664,0.345554248932984,0.0366930331831898,0.292280781144117,0.292327713265504,0.04,0.111530517211839,139.447319093294,0.444659499782667,0.230429071812049
8763,-0.278892125893012,0.480366409890626,0.0321619393742878,0.26260704066893,0.364917925391622,0.210757269399664,0.345554248932984,0.0366930331831898,0.292297045204526,0.292327713265504,0.04,0.111604068399829,139.45502352051,0.444873382420418,0.230331013004901
8823,-0.278892125893012,0.480366409890626,0.0321619393742878,0.26260704066893,0.364917925391622,0.210757269399664,0.345554248932984,0.0366930331831898,0.292307632292059,0.292327713265504,0.04,0.111649400157994,139.460038378254,0.445013291891186,0.2302668785263
8883,-0.278892125893012,0.480366409890626,0.0321619393742878,0.26260704066893,0.364917925391622,0.210757269399664,0.345554248932984,0.0366930331831898,0.292314478260942,0.292327713265504,0.04,0.111677566667535,139.463280724716,0.445105234908396,0.230224665958781
8943,-0.278892125893012,0.480366409890626,0.0321619393742878,0.26260704066893,0.364917925391622,0.210757269399664,0.345554248932984,0.0366930331831898,0.29231887304237,0.292327713265504,0.04,0.111695024112337,139.465361941695,0.445166308515687,0.230196515976811
9003,-0.276953191133191,0.477913048021639,0.0317164074302113,0.260581075788903,0.362800660320857,0.211405812075636,0.34335599354104,0.0368750971027126,0.292321834310802,0.292327713265504,0.04,0.111549681436385,139.466915056498,0.445207470230618,0.230177796406284
9063,-0.238174495936758,0.428845810641895,0.0228057685486809,0.220061778188381,0.32045535890557,0.224376665595078,0.299390885702165,0.0405163754931687,0.293507092159479,0.292327713265504,0.04,0.10567162078871,140.036873322072,0.439789226030862,0.233965863030543
9123,-0.199395800740324,0.379778573262151,0.0138951296671505,0.179542480587858,0.278110057490283,0.23734751911452,0.255425777863289,0.0441576538836247,0.294027660365201,0.292327713265504,0.04,0.101565608596931,140.283957243764,0.430576526716856,0.23939348905479
9183,-0.160617105543891,0.330711335882408,0.0049844907856201,0.139023182987335,0.235764756074995,0.250318372633962,0.211460670024414,0.0477989322740808,0.294334756403844,0.292327713265504,0.04,0.0972900382941932,140.428679829733,0.419049672324068,0.246232278565754
9243,-0.121838410347458,0.281644098502664,-0.00392614809591032,0.0985038853868119,0.193419454659708,0.263289226153404,0.167495562185539,0.0514402106645368,0.294456797927368,0.292327713265504,0.04,0.0923451721479792,140.485830686299,0.406457469376314,0.253963960502658
9303,-0.0830597151510253,0.23257686112292,-0.0128367869774407,0.0579845877862891,0.15107415324442,0.276260079672846,0.123530454346663,0.0550814890549928,0.294489823282611,0.292327713265504,0.04,0.0865128489145624,140.501218879496,0.393529285918196,0.262335890263959
9363,-0.0442810199545922,0.183509623743177,-0.0217474258589711,0.0174652901857662,0.108728851829133,0.289230933192288,0.0795653465077882,0.0587227674454489,0.294511402148593,0.292327713265504,0.04,0.0797633518193796,140.511721867237,0.380483596684132,0.271350917107303
9423,-0.0055023247581592,0.134442386363433,-0.0306580647405015,-0.0230540074147567,0.0663835504138457,0.30220178671173,0.0356002386689129,0.0623640458359049,0.294612405034198,0.292327713265504,0.04,0.0721642368280522,140.561039109054,0.367054300152239,0.281377469119635
9483,0.0332763704382739,0.085375148983689,-0.0395687036220319,-0.0635733050152796,0.0240382489985583,0.315172640231172,5e-07,0.0660053242263609,0.294784059688969,0.292327713265504,0.04,0.0644690032901945,140.633736372611,0.352544427904474,0.293109798358917
9543,0.072055065634707,0.0363079116039453,-0.0484793425035624,-0.104092602615802,-0.0183070524167291,0.328143493750614,3.62333190980805e-07,0.069646602616817,0.294107822824363,0.292327713265504,0.04,0.0573618198654534,140.318444939466,0.341181137387317,0.302193018464537
