time,bias_percent_1,bias_percent_2,bias_percent_3,bias_percent_4,bias_percent_5,bias_percent_6,bias_percent_8,bias_percent_9,normalized_power,power_SP,SP,CV,total_power_MW,fuel_fraction,thermal_efficiency
37,0,0,0,0,0,0,0,0,0.999693664342244,1,0.04,0.0399546828466726,476.959504514886,0.999758262216666,0.350542905388754
97,-0.0200110500906343,-0.0102975084015117,-0.0190481286509374,-0.016087595799928,0.0091433079600497,-0.0177549895738855,-0.011175705842258,0.0154100287695197,0.987804304179532,0.977041745774623,0.04,0.0439875211334351,471.048011058746,0.963969443100974,0.359051365940937
157,-0.0524614015889603,-0.0269961706742334,-0.049936985922728,-0.0421755889890004,0.0239702938412113,-0.0465468645585651,-0.0292984720729466,0.0403992646119843,0.953386699606645,0.939812144328064,0.04,0.0510361741627416,454.564938762039,0.88266652321783,0.378402464052976
217,-0.0849117530872861,-0.043694832946955,-0.0808258431945184,-0.0682635821780727,0.038797279722373,-0.0753387395432443,-0.0474212383036353,0.0653885004544487,0.9154774074935,0.902582542881506,0.04,0.0534390972154444,436.469813513066,0.801567447346073,0.400100245334418
277,-0.117362104585612,-0.0603934952196767,-0.111714700466309,-0.0943515753671452,0.0536242656035347,-0.104130614527924,-0.065544004534324,0.0903777362969132,0.877255233806924,0.865352941434948,0.04,0.0513750402387579,418.268733932399,0.727110617538264,0.422677949250142
337,-0.149812456083938,-0.0770921574923985,-0.1426035577381,-0.120439568556218,0.0684512514846963,-0.132922489512603,-0.0836667707650125,0.115366972139378,0.838739702687048,0.82812333998839,0.04,0.0464843396787906,400.115719658133,0.66013285251081,0.445357677859843
