time,bias_percent_1,bias_percent_2,bias_percent_3,bias_percent_4,bias_percent_5,bias_percent_6,bias_percent_8,bias_percent_9,normalized_power,power_SP,SP,CV,total_power_MW,fuel_fraction,thermal_efficiency
17,0,0,0,0,0,0,0,0,0.999260134630504,1,0.04,0.0401502160514906,476.737727108826,0.999234418510042,0.350563594314782
77,-0.00135012886507582,0.00527963723150276,0.00338060663276735,-0.00292540371130474,0.00138120090987138,0.00857487836726091,0.00275880056142381,-0.000302163666028491,0.998897180959128,0.998272606003423,0.04,0.0406617193397015,476.536872159558,0.998629178549233,0.350628274777291
137,-0.00611528956534312,0.0239136509897473,0.0153121594542988,-0.0132503579864981,0.00625602765059375,0.0388391549575932,0.0124957437193905,-0.00136862366377596,0.993206578055194,0.992175921309621,0.04,0.0434123052558377,473.81028359549,0.992374992447487,0.350819194506245
197,-0.0108804502656105,0.042547664747992,0.0272437122758301,-0.0235753122616914,0.0111308543913161,0.0691034315479257,0.0222326868773571,-0.00243508366152344,0.987033111431569,0.986079236615819,0.04,0.0455166954633617,470.864264489338,0.986152487065552,0.35083776325499
257,-0.0156456109658778,0.0611816785062368,0.0391752650973616,-0.0339002665368847,0.0160056811320385,0.0993677081382582,0.0319696300353236,-0.00350154365927096,0.980854500451613,0.979982551922017,0.04,0.0470765435498809,467.916672726866,0.980462564249249,0.350664805643224
317,-0.0204107716661453,0.0798156922644813,0.0511068179188929,-0.0442252208120781,0.0208805078727609,0.12963198472859,0.0417065731932902,-0.00456800365701849,0.974706203485168,0.973885867228216,0.04,0.0482717104694013,464.98347938317,0.975155566238354,0.350363047404775
377,-0.0251759323664127,0.0984497060227261,0.0630383707404245,-0.0545501750872713,0.0257553346134832,0.159896261318923,0.0514435163512569,-0.00563446365476597,0.968572864971039,0.967789182534414,0.04,0.0492145235357941,462.057413255621,0.970083185366929,0.349978722705703
437,-0.02994109306668,0.117083719780971,0.074969923561956,-0.0648751293624646,0.0306301613542056,0.190160537909255,0.0611804595092235,-0.0067009236525135,0.962453988716038,0.961692497840612,0.04,0.0499706936860954,459.138182977344,0.965169271645223,0.349538164041011
497,-0.0347062537669475,0.135717733539215,0.0869014763834874,-0.0752000836376579,0.035504988094928,0.220424814499587,0.0709174026671901,-0.00776738365026102,0.956343900985887,0.95559581314681,0.04,0.0505837366721486,456.223116592447,0.960352013140613,0.349061147585857
557,-0.0394714144672148,0.15435174729746,0.0988330292050189,-0.0855250379128513,0.0403798148356503,0.25068909108992,0.0806543458251567,-0.00883384364800855,0.950239825594904,0.949499128453008,0.04,0.051082821315577,453.310902317736,0.955590335243836,0.348561239856586
617,-0.0442365751674823,0.172985761055705,0.11076458202655,-0.0958499921880447,0.0452546415763727,0.280953367680252,0.0903912889831233,-0.00990030364575597,0.944139881089301,0.943402443759206,0.04,0.0514889918759313,450.400645391908,0.950855866020784,0.348047878064704
677,-0.0490017358677496,0.19161977481395,0.122696134848082,-0.106174946463238,0.0501294683170951,0.311217644270585,0.10012823214109,-0.0109667636435035,0.938042624006171,0.937305759065405,0.04,0.0518180955078999,447.491660614938,0.946129696902964,0.347527317660987
737,-0.0537668965680169,0.210253788572194,0.134627687669613,-0.116499900738431,0.0550042950578174,0.341481920860917,0.109865175299056,-0.012033223641251,0.931946917075749,0.931209074371603,0.04,0.0520824227341052,444.583408150361,0.941400332369499,0.347003279887594
797,-0.0585320572682843,0.228887802330439,0.146559240491145,-0.126824855013625,0.0598791217985399,0.371746197451249,0.119602118457023,-0.0130996836389986,0.925851883561877,0.925112389677801,0.04,0.052291720185263,441.675468220178,0.936662060171472,0.346477490396156
857,-0.0632972179685516,0.247521816088684,0.158490793312676,-0.137149809288818,0.0647539485392623,0.402010474041582,0.12933906161499,-0.0141661436367461,0.919756851306012,0.919015704983999,0.04,0.0524538436630758,438.767526168273,0.931913600516299,0.345950134387907
917,-0.0667122498037434,0.260876192615426,0.167041739501441,-0.144549359852706,0.0682475743701133,0.423699872264653,0.136317204211532,-0.0149304399684651,0.914650438251915,0.914646414286775,0.04,0.0517380084775784,436.368587232104,0.928794770430103,0.345213995546043
977,-0.0667122498037434,0.260876192615426,0.167041739501441,-0.144549359852706,0.0682475743701134,0.423699872264654,0.136317204211532,-0.0149304399684651,0.914283336343026,0.914646414286775,0.04,0.048848686336886,436.205001183304,0.930824464068373,0.344332113187267
1037,-0.0667122498037434,0.260876192615426,0.16704173950144,-0.144549359852706,0.0682475743701133,0.423699872264653,0.136317204211532,-0.0149304399684651,0.91439289717544,0.914646414286775,0.04,0.0467150514826253,436.257756323793,0.932596364828369,0.343719458914707
1097,-0.0667122498037434,0.260876192615426,0.167041739501441,-0.144549359852706,0.0682475743701133,0.423699872264653,0.136317204211532,-0.0149304399684651,0.914493089361575,0.914646414286775,0.04,0.0451952619889395,436.305304040323,0.933699248687129,0.343350875834313
1157,-0.0667122498037434,0.260876192615426,0.16704173950144,-0.144549359852706,0.0682475743701133,0.423699872264653,0.136317204211532,-0.0149304399684651,0.914556498375023,0.914646414286775,0.04,0.0440729957947451,436.335335215254,0.934352937863889,0.343134278260619
1217,-0.0667122498037434,0.260876192615426,0.16704173950144,-0.144549359852706,0.0682475743701133,0.423699872264653,0.136317204211532,-0.0149304399684651,0.914597173013805,0.914646414286775,0.04,0.0432170336296063,436.35456286211,0.934722264013311,0.34301381418062
1277,-0.0667122498037434,0.260876192615426,0.167041739501441,-0.144549359852706,0.0682475743701133,0.423699872264654,0.136317204211532,-0.0102016144751302,0.914453110050982,0.914646414286775,0.04,0.0426500040061491,436.283969391554,0.935346119622983,0.342729575608042
