time,bias_percent_1,bias_percent_2,bias_percent_3,bias_percent_4,bias_percent_5,bias_percent_6,bias_percent_8,bias_percent_9,normalized_power,power_SP,SP,CV,total_power_MW,fuel_fraction,thermal_efficiency
2,0,0,0,0,0,0,0,0,1.00591532894638,1,0.04,0.0415824002451904,479.848782055956,0.991787018211258,0.35550085839512
62,-0.000709203132387756,0.000815454553828431,4.14155242958714e-06,-0.000850607279200858,-0.000632409162944441,0.000180478941663864,0.00100223563957803,-0.00033812654043453,0.999873699321638,0.999927194028711,0.04,0.039911793693078,477.040959478805,1.00001583930088,0.350512465164569
122,-0.0219852971040195,0.0252790911686824,0.000128388125314927,-0.0263688256552249,-0.0196046840512781,0.00559484719157933,0.0310693048269205,-0.01048192275347,0.998573444637249,0.99774301489004,0.04,0.040206570478026,476.404284220589,0.995966320325946,0.351467912620964
182,-0.0432613910756513,0.0497427277835363,0.000252634698200382,-0.051887044031249,-0.0385769589396119,0.0110092154414948,0.0611363740142629,-0.0206257189665054,0.996518458332399,0.995558835751368,0.04,0.0404128254032089,475.421909401213,0.990247356623332,0.35276880705075
242,-0.0645374850472831,0.0742063643983904,0.000376881271086063,-0.0774052624072731,-0.0575492338279455,0.0164235836914103,0.0912034432016052,-0.0307695151795409,0.994344318826131,0.993374656612697,0.04,0.0403741635548568,474.384213377176,0.984315350257637,0.354120155658122
302,-0.0858135790189146,0.0986700010132444,0.000501127843971517,-0.102923480783297,-0.0765215087162791,0.0218379519413259,0.121270512388948,-0.0409133113925764,0.992136241795023,0.991190477474025,0.04,0.0401771934861315,473.330562380168,0.97847142486766,0.3554439089953
362,-0.107089672990547,0.123133637628098,0.000625374416857085,-0.128441699159321,-0.0954937836046129,0.0272523201912412,0.15133758157629,-0.0510571076056118,0.98991473888634,0.989006298335354,0.04,0.039897078279025,472.270524638576,0.972843375834034,0.356699574604561
422,-0.128365766962178,0.147597274242952,0.000749620989742539,-0.153959917535345,-0.114466058492947,0.0326666884411567,0.181404650763632,-0.0612009038186473,0.987680586077792,0.986822119196683,0.04,0.0395864655304214,471.204654198611,0.967484377371045,0.357865874543034
482,-0.14964186093381,0.172060910857806,0.000873867562628106,-0.179478135911369,-0.13343833338128,0.0380810566910723,0.211471719950975,-0.0713447000316828,0.985449358028917,0.984637940058011,0.04,0.0392764742063261,470.140164949061,0.962412072358951,0.358939265309234
542,-0.170917954905442,0.19652454747266,0.000998114135513447,-0.204996354287393,-0.152410608269614,0.0434954249409876,0.241538789138317,-0.0814884962447183,0.983224022463395,0.98245376091934,0.04,0.0389889367799966,469.078519616875,0.957600843989134,0.359928057023167
602,-0.192194048877074,0.220988184087514,0.00112236070839901,-0.230514572663418,-0.171382883157948,0.0489097931909032,0.271605858325659,-0.0916322924577537,0.9810073747544,0.980269581780668,0.04,0.0387355796855034,468.021026472435,0.953002763527,0.360849311535494
662,-0.213470142848705,0.245451820702368,0.00124660728128458,-0.256032791039442,-0.190355158046281,0.0543241614408187,0.301672927513002,-0.101776088670789,0.978797444126168,0.978085402641997,0.04,0.0385191939697926,466.96669552335,0.948570285243325,0.361718788666499
722,-0.234746236820337,0.269915457317222,0.00137085385417004,-0.281551009415466,-0.209327432934615,0.0597385296907341,0.331739996700344,-0.111919884883825,0.976585983311514,0.975901223503326,0.04,0.0383325718180796,465.911554976178,0.944293227212735,0.362536120389208
782,-0.256022330791969,0.294379093932076,0.0014951004270556,-0.30706922779149,-0.228299707822949,0.0651528979406496,0.361807065887687,-0.12206368109686,0.974364030399706,0.973717044364654,0.04,0.0381613856035666,464.851356453895,0.940218049082189,0.363278917609505
842,-0.277298424763601,0.31884273054693,0.00161934699994106,-0.332587446167514,-0.247271982711282,0.0705672661905651,0.391874135075029,-0.132207477309896,0.972128703263429,0.971532865225983,0.04,0.0379927408970797,463.78478062825,0.936422578099188,0.363914443494999
902,-0.297865315602845,0.342490912607955,0.00173945202039704,-0.357255057264337,-0.265611848436672,0.0758011554988167,0.420938968622793,-0.142013146982497,0.969882809090495,0.969421492058601,0.04,0.0378009295932846,462.714195967503,0.93305878339925,0.364383325078651
962,-0.297865315602845,0.342490912607956,0.00173945202039704,-0.357255057264337,-0.265611848436672,0.0758011554988168,0.420938968622794,-0.142013146982497,0.96888730889577,0.969421492058601,0.04,0.0372179403770457,462.253181723052,0.935015902522152,0.363258335065136
1022,-0.297865315602845,0.342490912607956,0.00173945202039704,-0.357255057264337,-0.265611848436672,0.0758011554988168,0.420938968622794,-0.142013146982496,0.96865118488461,0.969421492058601,0.04,0.0368111251966303,462.142329492418,0.939262427703526,0.361529279239805
1082,-0.297865315602845,0.342490912607956,0.00173945202039704,-0.357255057264337,-0.265611848436672,0.0758011554988168,0.420938968622793,-0.142013146982497,0.968564058240998,0.969421492058601,0.04,0.0367227250608669,462.101642870848,0.944283595883006,0.3595752107224
1142,-0.297865315602845,0.342490912607956,0.00173945202039715,-0.357255057264337,-0.265611848436672,0.0758011554988168,0.420938968622794,-0.142013146982496,0.968572370746819,0.969421492058601,0.04,0.0368856436268278,462.106255152332,0.949436097498459,0.357627398892314
1202,-0.297865315602845,0.342490912607956,0.00173945202039704,-0.357255057264337,-0.265611848436672,0.0758011554988167,0.420938968622793,-0.142013146982497,0.968648988961281,0.969421492058601,0.04,0.0372233906491446,462.143247882851,0.954255812811172,0.355849593742726
1262,-0.297865315602845,0.342490912607955,0.00173945202039704,-0.357255057264337,-0.265611848436672,0.0758011554988167,0.420938968622794,-0.142013146982496,0.968768608053015,0.969421492058601,0.04,0.0376652960455582,462.200564468759,0.958433895808016,0.354342286541471
1322,-0.297865315602845,0.342490912607956,0.00173945202039704,-0.357255057264337,-0.265611848436672,0.0758011554988168,0.420938968622793,-0.142013146982496,0.968908877897379,0.969421492058601,0.04,0.0381510467034485,462.267571564257,0.961802517598048,0.353152426925302
1382,-0.297865315602845,0.342490912607956,0.00173945202039704,-0.357255057264337,-0.265611848436672,0.0758011554988167,0.420938968622793,-0.142013146982496,0.969051766510564,0.969421492058601,0.04,0.0386328258572136,462.335705969424,0.964311369532223,0.35228554545624
1442,-0.297865315602845,0.342490912607955,0.00173945202039704,-0.357255057264337,-0.265611848436672,0.0758011554988168,0.420938968622794,-0.142013146982496,0.969184145177764,0.969421492058601,0.04,0.0390758228864242,462.398740299454,0.96599906832713,0.351718013016357
1502,-0.297865315602845,0.342490912607955,0.00173945202039704,-0.357255057264337,-0.265611848436672,0.0758011554988168,0.420938968622793,-0.142013146982497,0.969297662638992,0.969421492058601,0.04,0.0394575730812041,462.45272719208,0.966963937438774,0.351408080465317
1562,-0.297865315602845,0.342490912607956,0.00173945202039704,-0.357255057264337,-0.265611848436672,0.0758011554988167,0.420938968622794,-0.142013146982496,0.969388148152241,0.969421492058601,0.04,0.0397664523146455,462.495707553867,0.967337505977528,0.351305020173526
1622,-0.297865315602845,0.342490912607956,0.00173945202039704,-0.357255057264337,-0.265611848436672,0.0758011554988167,0.420938968622794,-0.142013146982497,0.969454737653022,0.969421492058601,0.04,0.0399997120242616,462.527291631808,0.967262795305043,0.351356147376705
1682,-0.297865315602845,0.342490912607955,0.00173945202039704,-0.357255057264337,-0.265611848436672,0.0758011554988167,0.420938968622794,-0.142013146982496,0.969498931407826,0.969421492058601,0.04,0.0401612791555033,462.548208672723,0.966878193971085,0.351511804390629
1742,-0.297865315602845,0.342490912607955,0.00173945202039704,-0.357255057264337,-0.265611848436672,0.0758011554988167,0.420938968622794,-0.142013146982496,0.969523714464006,0.969421492058601,0.04,0.0402596108928029,462.559892667369,0.966306852661959,0.351728524707895
1802,-0.29809877202637,0.341756410239049,0.000705026227189705,-0.356900479672879,-0.265450558135002,0.0745888650196346,0.420590202919112,-0.142299908421491,0.969532221040397,0.968948195883068,0.04,0.0403045378418924,462.562441482897,0.96513069221528,0.352159100576352
1862,-0.305102464732135,0.319721339171844,-0.0303277475690288,-0.346263151929136,-0.2606118490849,0.0382201506441701,0.410127231808674,-0.150902751591333,0.960421626823781,0.954749310617106,0.04,0.0417803414781877,458.116837138908,0.935557841381338,0.359799277388842
1922,-0.312106157437899,0.297686268104639,-0.0613605213652473,-0.335625824185393,-0.255773140034799,0.00185143626870581,0.399664260698235,-0.159505594761176,0.947083850415049,0.940550425351144,0.04,0.0425057991133439,451.743914363779,0.896842391970708,0.370110033420849
1982,-0.319109850143663,0.275651197037434,-0.0923932951614659,-0.324988496441651,-0.250934430984698,-0.0345172781067587,0.389201289587797,-0.168108437931018,0.933035835873897,0.926351540085182,0.04,0.0416241865166201,445.038050537591,0.856113621321812,0.381962224370599
2042,-0.326113542849427,0.253616125970229,-0.123426068957684,-0.314351168697908,-0.246095721934597,-0.0708859924822231,0.378738318477359,-0.17671128110086,0.918614074262069,0.912152654819219,0.04,0.0394443807279474,438.14593307697,0.815993429083645,0.394536147569002
2102,-0.333117235555192,0.231581054903024,-0.154458842753903,-0.303713840954165,-0.241257012884496,-0.107254706857688,0.36827534736692,-0.185314124270703,0.903954265490486,0.897953769553257,0.04,0.0362849715959431,431.158972561607,0.77818097372138,0.407109743278662
2162,-0.340120928260956,0.209545983835819,-0.185491616550122,-0.293076513210422,-0.236418303834395,-0.143623421233152,0.357812376256482,-0.193916967440545,0.889077697121051,0.883754884287295,0.04,0.0325486242518494,424.060048063884,0.744063089405297,0.418766829000987
2222,-0.34712462096672,0.187510912768614,-0.21652439034634,-0.282439185466679,-0.231579594784293,-0.179992135608616,0.347349405146044,-0.202519810610387,0.874074890721093,0.869555999021332,0.04,0.028598465428133,416.901548006618,0.714548956218209,0.428702676408057
2282,-0.354128313672485,0.165475841701408,-0.247557164142559,-0.271801857722936,-0.226740885734192,-0.216360849984081,0.336886434035605,-0.211122653780229,0.859024880059051,0.85535711375537,0.04,0.0248140258396844,409.721090325055,0.690081461402583,0.436257228019313
2342,-0.361132006378249,0.143440770634203,-0.278589937938777,-0.261164529979193,-0.221902176684091,-0.252729564359545,0.326423462925167,-0.219725496950072,0.843992548282739,0.841158228489408,0.04,0.0214939138465235,402.549542247046,0.67068080034618,0.441019852318062
2402,-0.368135699084013,0.121405699566998,-0.309622711734996,-0.250527202235451,-0.21706346763399,-0.28909827873501,0.315960491814728,-0.228328340119914,0.829026736647918,0.826959343223446,0.04,0.0188177803437649,395.409941122022,0.656032241585957,0.44287083012862
2462,-0.375139391789778,0.0993706284997934,-0.340655485531214,-0.239889874491708,-0.212224758583889,-0.325466993110474,0.30549752070429,-0.236931183289756,0.81412754676107,0.812760457957483,0.04,0.0168331006116942,388.302005069618,0.64571305085143,0.441860057911552
2522,-0.382143084495542,0.0773355574325883,-0.371688259327433,-0.229252546747965,-0.207386049533788,-0.361835707485938,0.295034549593852,-0.245534026459598,0.799292325405111,0.798561572691521,0.04,0.0154713573896438,381.22473712812,0.639352062655376,0.438122623204237
2582,-0.389146777201306,0.0553004863653834,-0.402721033123651,-0.218615219004222,-0.202547340483686,-0.398204421861403,0.284571578483413,-0.254136869629441,0.784552464562623,0.784362687425559,0.04,0.0146394160717178,374.193269339383,0.636451834029756,0.432001351508053
2642,-0.39615046990707,0.0332654152981784,-0.43375380691987,-0.207977891260479,-0.197708631433585,-0.434573136236867,0.274108607372975,-0.262739712799283,0.769964357037251,0.770163802159596,0.04,0.014203202318346,367.339080758766,0.636566696761364,0.424011755397279
2702,-0.402920706189309,0.0119648465998802,-0.463752154922881,-0.197695141108194,-0.193031212685154,-0.46972956013315,0.263994401966218,-0.271055794530131,0.755493724788212,0.755964916893634,0.04,0.0142429913155309,360.333546182753,0.638131286078654,0.41490563621633
2762,-0.402920706189309,0.0119648465998802,-0.463752154922881,-0.197695141108194,-0.193031212685154,-0.46972956013315,0.263994401966218,-0.271055794530131,0.738693213488205,0.741766031627672,0.04,0.0164238265581111,352.308741953972,0.652188156621191,0.396922015442756
2822,-0.402920706189309,0.0119648465998802,-0.463752154922881,-0.197695141108194,-0.193031212685154,-0.46972956013315,0.263994401966218,-0.27105579453013,0.724125678484315,0.727567146361709,0.04,0.0188969919093318,345.367692188332,0.671802307289097,0.37774166804603
2882,-0.402920706189309,0.0119648465998802,-0.463752154922881,-0.197695141108194,-0.193031212685154,-0.46972956013315,0.263994401966218,-0.27105579453013,0.710285865950001,0.713368261095747,0.04,0.0221116649662534,338.769846339967,0.690646386058138,0.360415682455335
2942,-0.402920706189309,0.0119648465998802,-0.463752154922881,-0.197695141108194,-0.193031212685154,-0.46972956013315,0.263994401966218,-0.27105579453013,0.697006766563878,0.699169375829785,0.04,0.0259066580680569,332.438052292863,0.70502963220443,0.34646393594279
3002,-0.402920706189309,0.0119648465998802,-0.463752154922881,-0.197695141108195,-0.193031212685154,-0.46972956013315,0.263994401966218,-0.27105579453013,0.68407279097891,0.684970490563823,0.04,0.0300373560218508,326.269004273551,0.712409684773201,0.336512095517148
3062,-0.402920706189309,0.0119648465998802,-0.463752154922881,-0.197695141108195,-0.193031212685154,-0.46972956013315,0.263994401966218,-0.271055794530131,0.671215614751172,0.67077160529786,0.04,0.034201091373701,320.13775652573,0.711783708770637,0.330478742720731
3122,-0.402920706189309,0.0119648465998802,-0.463752154922881,-0.197695141108195,-0.193031212685154,-0.46972956013315,0.263994401966218,-0.27105579453013,0.658261205353116,0.656572720031898,0.04,0.0380868393086089,313.952198515669,0.703284758261375,0.328009936056106
3182,-0.402920706189309,0.0119648465998802,-0.463752154922881,-0.197695141108194,-0.193031212685154,-0.46972956013315,0.263994401966218,-0.27105579453013,0.645003758066501,0.642373834765936,0.04,0.0413718864567493,307.625465097992,0.688596277781777,0.328255709578737
3242,-0.402920706189309,0.0119648465998802,-0.463752154922881,-0.197695141108195,-0.193031212685154,-0.46972956013315,0.263994401966218,-0.271055794530131,0.631396615176257,0.628174949499973,0.04,0.0438569272051847,301.129832920441,0.669609668781783,0.330435533727681
3302,-0.402920706189309,0.0119648465998802,-0.463752154922881,-0.197695141108194,-0.193031212685154,-0.46972956013315,0.263994401966218,-0.271055794530131,0.617480953474653,0.613976064234011,0.04,0.045436297678449,294.488385053499,0.648306803507533,0.333766133319349
3362,-0.402920706189309,0.0119648465998802,-0.463752154922881,-0.197695141108195,-0.193031212685154,-0.46972956013315,0.263994401966218,-0.271055794530131,0.603308563398871,0.599777178968049,0.04,0.0461352421305801,287.724961965539,0.626350946012931,0.33753163249673
3422,-0.402920706189309,0.0119648465998802,-0.463752154922881,-0.197695141108194,-0.193031212685154,-0.46972956013315,0.263994401966218,-0.27105579453013,0.588945721106172,0.585578293702086,0.04,0.0460654308318835,280.871203106228,0.605021681477659,0.341107251923385
3482,-0.402920706189309,0.0119648465998802,-0.463752154922881,-0.197695141108195,-0.193031212685154,-0.46972956013315,0.263994401966218,-0.27105579453013,0.574456681499245,0.571379408436124,0.04,0.0453980190591915,273.957721039698,0.585205281940084,0.343977458823461
3542,-0.402920706189309,0.0119648465998802,-0.463752154922881,-0.197695141108195,-0.193031212685154,-0.46972956013315,0.263994401966218,-0.27105579453013,0.559939713391597,0.557180523170162,0.04,0.0443588937787045,267.031918149283,0.567311258386213,0.34585690391398
3602,-0.401389759170328,0.011042083386986,-0.463632603645398,-0.198110529859724,-0.193015683628329,-0.469040319578322,0.262522649965904,-0.270643554561987,0.545440837281989,0.543454934079732,0.04,0.0431491641449309,260.115214038924,0.551761075835614,0.34639321061483
3662,-0.355461348600902,-0.0166408129998407,-0.460046065320905,-0.210572192405593,-0.192549811923575,-0.448363102933481,0.218370089956474,-0.258276355517672,0.54193457631378,0.543454934079732,0.04,0.0373998347526219,258.54496362011,0.556227578140715,0.341537378683486
3722,-0.309532938031476,-0.0443237093866675,-0.456459526996412,-0.223033854951463,-0.192083940218821,-0.427685886288641,0.174217529947045,-0.245909156473357,0.54082474848225,0.543454934079732,0.04,0.033507021944014,258.020577615173,0.569994403923332,0.332612393538362
3782,-0.26360452746205,-0.0720066057734944,-0.452872988671919,-0.235495517497333,-0.191618068514067,-0.407008669643801,0.130064969937616,-0.233541957429042,0.540180631430028,0.543454934079732,0.04,0.0315422454235726,257.717024319357,0.588556084552125,0.32174361022369
3842,-0.217676116892624,-0.0996895021603211,-0.449286450347425,-0.247957180043203,-0.191152196809313,-0.38633145299896,0.0859124099281867,-0.221174758384727,0.540034530695567,0.543454934079732,0.04,0.0311862824853597,257.651341597805,0.609032799419089,0.310846801006266
3902,-0.171747706323198,-0.127372398547148,-0.445699912022932,-0.260418842589073,-0.190686325104558,-0.36565423635412,0.0417598499187575,-0.208807559340412,0.540365453349625,0.543454934079732,0.04,0.0321078247435164,257.812650151195,0.628464797521869,0.301424079327587
3962,-0.125819295753772,-0.155055294933975,-0.442113373698439,-0.272880505134943,-0.190220453399804,-0.34497701970928,-0.00239271009067147,-0.196440360296097,0.541059387054443,0.543454934079732,0.04,0.0339418065666434,258.145987200223,0.644403605496021,0.294348680341328
4022,-0.0798908851843457,-0.182738191320801,-0.438526835373946,-0.285342167680813,-0.18975458169505,-0.32429980306444,-0.0465452701001009,-0.184073161251782,0.541953122840904,0.543454934079732,0.04,0.0363072508034883,258.573285940833,0.655303423059666,0.289931828297745
4082,-0.0339624746149196,-0.210421087707628,-0.434940297049452,-0.297803830226683,-0.189288709990296,-0.303622586419599,-0.0906978301095298,-0.171705962207467,0.542881155635869,0.543454934079732,0.04,0.0388398419235062,259.015723203668,0.660628363385223,0.288086951989482
4142,0.0119659359545064,-0.238103984094455,-0.431353758724959,-0.310265492772553,-0.188822838285542,-0.282945369774759,-0.134850390118959,-0.159338763163152,0.543710556899508,0.543454934079732,0.04,0.0412237316904972,259.410256577735,0.660718475487639,0.288486416136894
4202,0.0578943465239325,-0.265786880481282,-0.427767220400466,-0.322727155318423,-0.188356966580788,-0.262268153129919,-0.179002950128389,-0.146971564118837,0.544361277752313,0.543454934079732,0.04,0.0432169135308361,259.719098095931,0.656511921839489,0.290680531314613
4262,0.103822757093359,-0.293469776868108,-0.424180682075973,-0.335188817864293,-0.187891094876034,-0.241590936485078,-0.223155510137817,-0.134604365074522,0.544802521012666,0.543454934079732,0.04,0.0446689628390209,259.927950841564,0.649226138291438,0.294178996922693
4322,0.149751167662785,-0.321152673254935,-0.420594143751479,-0.347650480410163,-0.18742522317128,-0.220913719840238,-0.267308070147247,-0.122237166030207,0.545044664155478,0.543454934079732,0.04,0.0455233269242333,260.042007734634,0.64009137395759,0.298508163248049
4382,0.195679578232211,-0.348835569641762,-0.417007605426986,-0.360112142956032,-0.186959351466525,-0.200236503195398,-0.311460630156676,-0.109869966985892,0.545119349769151,0.543454934079732,0.04,0.0458057650370218,260.076461844035,0.630183711398937,0.303241440440899
4442,0.241607988801637,-0.376518466028589,-0.413421067102493,-0.372573805501902,-0.186493479761771,-0.179559286550557,-0.355613190166105,-0.0975027679415775,0.545064434953091,0.543454934079732,0.04,0.0456012694841284,260.049381181234,0.620358588160735,0.308012046299776
4502,0.286005452352082,-0.403278599202521,-0.409954080055483,-0.384620079296243,-0.186043137113842,-0.159571310460545,-0.39829399817522,-0.0855478088654061,0.544915257112621,0.543454934079732,0.04,0.0450513546129041,259.977468694897,0.611251765126673,0.312514563626992
4562,0.286005452352082,-0.403278599202521,-0.409954080055483,-0.384620079296243,-0.186043137113842,-0.159571310460545,-0.39829399817522,-0.0855478088654061,0.544825993241905,0.543454934079732,0.04,0.0442283934698537,259.934643082878,0.60301737458873,0.316729864647587
4622,0.286005452352082,-0.403278599202521,-0.409954080055483,-0.384620079296243,-0.186043137113842,-0.159571310460545,-0.39829399817522,-0.0855478088654063,0.544544238239506,0.543454934079732,0.04,0.0431685007059387,259.799456770949,0.595841631270547,0.320377546353226
4682,0.286005452352082,-0.403278599202521,-0.409954080055483,-0.384620079296243,-0.186043137113842,-0.159571310460545,-0.39829399817522,-0.0855478088654061,0.544199092143208,0.543454934079732,0.04,0.0419622099550985,259.634551087585,0.590654493038202,0.322985964606348
4742,0.286005452352082,-0.403278599202521,-0.409954080055483,-0.384620079296243,-0.186043137113842,-0.159571310460545,-0.39829399817522,-0.0855478088654063,0.543842728989288,0.543454934079732,0.04,0.0407560200282418,259.464580577068,0.587600243852059,0.324452249651361
4802,0.286005452352082,-0.403278599202521,-0.409954080055483,-0.384620079296243,-0.186043137113842,-0.159571310460545,-0.39829399817522,-0.0855478088654061,0.543507850114835,0.543454934079732,0.04,0.0396733022380008,259.30503814836,0.586614003625833,0.324797894297592
4862,0.286005452352082,-0.403278599202521,-0.409954080055483,-0.384620079296243,-0.186043137113842,-0.159571310460545,-0.39829399817522,-0.0855478088654063,0.543222153136345,0.543454934079732,0.04,0.0388017240103264,259.169275372445,0.587454889672438,0.324163167806197
4922,0.286005452352082,-0.403278599202521,-0.409954080055483,-0.384620079296243,-0.186043137113842,-0.159571310460545,-0.39829399817522,-0.0855478088654063,0.54300534679424,0.543454934079732,0.04,0.0381931756212904,259.066443988959,0.589746162130211,0.322775614696738
4982,0.286005452352082,-0.403278599202521,-0.409954080055483,-0.384620079296243,-0.186043137113842,-0.159571310460545,-0.39829399817522,-0.0855478088654063,0.542868989905444,0.543454934079732,0.04,0.0378636670177349,259.00204719694,0.593023858057931,0.320911815308383
5042,0.286005452352082,-0.403278599202521,-0.409954080055483,-0.384620079296243,-0.186043137113842,-0.159571310460545,-0.39829399817522,-0.0855478088654063,0.542814978769421,0.543454934079732,0.04,0.0377989515562491,258.976916048823,0.59679301379082,0.318854096246057
5102,0.286005452352082,-0.403278599202521,-0.409954080055483,-0.384620079296243,-0.186043137113842,-0.159571310460545,-0.39829399817522,-0.0855478088654063,0.542836162821801,0.543454934079732,0.04,0.0379609532313348,258.987570195095,0.600583599943429,0.316854681816119
5162,0.286005452352082,-0.403278599202521,-0.409954080055483,-0.384620079296243,-0.186043137113842,-0.159571310460545,-0.39829399817522,-0.0855478088654063,0.542918085440547,0.543454934079732,0.04,0.0382954994159561,259.027065692906,0.60399851741352,0.315111279749257
5222,0.286005452352082,-0.403278599202521,-0.409954080055483,-0.384620079296243,-0.186043137113842,-0.159571310460545,-0.39829399817522,-0.0855478088654063,0.543041700981408,0.543454934079732,0.04,0.0387403145467253,259.086290691416,0.606747028785424,0.313755574953097
5282,0.286005452352082,-0.403278599202521,-0.409954080055483,-0.384620079296243,-0.186043137113842,-0.159571310460545,-0.39829399817522,-0.0855478088654061,0.543186446059884,0.543454934079732,0.04,0.0392324808260157,259.155435674713,0.608660200232799,0.312852834529983
5342,0.286005452352082,-0.403278599202521,-0.409954080055483,-0.384620079296243,-0.186043137113842,-0.159571310460545,-0.39829399817522,-0.0855478088654063,0.543333053231201,0.543454934079732,0.04,0.03971483370314,259.225326735284,0.609688617057058,0.312409347689478
5402,0.286412015948934,-0.401455560800979,-0.409253342475846,-0.382681708819582,-0.185581428345082,-0.159290332061077,-0.39849712074847,-0.084647231382919,0.543466406636584,0.543454934079732,0.04,0.0400645810369297,259.289876942522,0.609885037678265,0.312386501209457
5462,0.298608923854487,-0.346764408754703,-0.388231215086734,-0.324530594519756,-0.171730165282265,-0.150860980077033,-0.404590797945978,-0.0576299069082993,0.539194922411392,0.543454934079732,0.04,0.0444920088613508,257.238939750553,0.629635065870108,0.300194326639196
5522,0.31080583176004,-0.292073256708428,-0.367209087697623,-0.26637948021993,-0.157878902219448,-0.14243162809299,-0.410684475143485,-0.0306125824336793,0.539063143950063,0.543454934079732,0.04,0.0492469000041095,257.192351586719,0.656619360700254,0.287805468580238
5582,0.323002739665593,-0.237382104662152,-0.346186960308512,-0.208228365920104,-0.144027639156631,-0.134002276108946,-0.416778152340993,-0.00359525795905961,0.540286883115601,0.543454934079732,0.04,0.0559181150879526,257.784113067272,0.678645543724078,0.279105132839834
5642,0.335199647571146,-0.182690952615877,-0.325164832919401,-0.150077251620278,-0.130176376093814,-0.125572924124902,-0.4228718295385,0.0234220665155599,0.54207795024496,0.543454934079732,0.04,0.064024826353677,258.639794960032,0.690646686530898,0.275165569375163
5702,0.347396555476699,-0.127999800569601,-0.304142705530289,-0.0919261373204517,-0.116325113030998,-0.117143572140859,-0.428965506736008,0.0504393909901796,0.543852039796654,0.543454934079732,0.04,0.0725981470826366,259.486053765484,0.691877683700113,0.275574720038554
5762,0.359593463382252,-0.073308648523326,-0.283120578141178,-0.0337750230206257,-0.102473849968181,-0.108714220156815,-0.435059183933515,0.0774567154647993,0.545945617945674,0.543454934079732,0.04,0.0810898835929139,260.493386412043,0.68163335748924,0.280802223436542
5822,0.371790371287805,-0.0186174964770506,-0.262098450752067,0.0243760912792004,-0.0886225869053641,-0.100284868172771,-0.441152861131023,0.104474039939419,0.548784062944341,0.543454934079732,0.04,0.0901482157025815,261.832429841761,0.654113682750774,0.294120217557786
5882,0.383987279193358,0.0360736555692248,-0.241076323362955,0.0825272055790266,-0.0747713238425473,-0.0918555161887274,-0.44724653832853,0.131491364414039,0.548707859349389,0.543454934079732,0.04,0.0962409491230112,261.784134521197,0.621718459370737,0.309388549688218
5942,0.396184187098911,0.0907648076155002,-0.220054195973844,0.140678319878853,-0.0609200607797304,-0.0834261642046838,-0.453340215526038,0.158508688888659,0.548083341124415,0.543454934079732,0.04,0.0975824540573538,261.484808710948,0.592588862732735,0.324225862592959
6002,0.408381095004464,0.145455959661776,-0.199032068584733,0.198829434178679,-0.0470687977169136,-0.0749968122206401,-0.459433892723545,0.185526013363278,0.547230591313193,0.543454934079732,0.04,0.0950053415843867,261.076064751535,0.568062966822573,0.337695486825898
6062,0.420578002910017,0.200147111708051,-0.178009941195621,0.256980548478505,-0.0332175346540968,-0.0665674602365964,-0.423262947846148,0.212543337837898,0.54507483479606,0.543454934079732,0.04,0.0914153512179312,260.013052732887,0.551294927647119,0.346549941498734
6122,0.43277491081557,0.254838263754327,-0.15698781380651,0.315131662778331,-0.0193662715912799,-0.0581381082525527,-0.28746502785944,0.239560662312518,0.542207995247971,0.543454934079732,0.04,0.0881565921440473,258.67766542011,0.554894992407506,0.342533303821195
6182,0.444971818721123,0.309529415800602,-0.135965686417399,0.373282777078157,-0.00551500852846323,-0.049708756268509,-0.158465731226858,0.266577986787138,0.541538158468331,0.543454934079732,0.04,0.085389625836941,258.364827138191,0.565446302388905,0.335735061510167
6242,0.457168726626676,0.364220567846878,-0.114943559028287,0.431433891377983,0.00833625453435366,-0.0412794042844653,-0.0748532927953864,0.293595311261757,0.540280744438632,0.543454934079732,0.04,0.0849684957113196,257.756844865243,0.581465267943486,0.325717508966447
6302,0.468959070935377,0.41708868149161,-0.0946221692188132,0.487646635201148,0.02172580882841,-0.0331310306998897,-0.0353577603007088,0.31971205825389,0.539273368007905,0.543256252921093,0.04,0.0858351242239812,257.282369499718,0.604683677434426,0.312634180148091
6362,0.468959070935377,0.41708868149161,-0.0946221692188132,0.487646635201148,0.0217258088284099,-0.0331310306998897,-0.0167014802875069,0.31971205825389,0.537130723481529,0.537295818161934,0.04,0.0858067769762554,256.230945612395,0.610808753107819,0.308234327449669
6422,0.468959070935377,0.41708868149161,-0.0946221692188132,0.487646635201149,0.0217258088284099,-0.0331310306998898,-0.00788892285819389,0.31971205825389,0.531929129201342,0.531335383402775,0.04,0.0874269905702975,253.737386162813,0.607794738646304,0.306748326251019
6482,0.468959070935377,0.41708868149161,-0.0946221692188132,0.487646635201149,0.0217258088284099,-0.0331310306998897,-0.00372618179773548,0.31971205825389,0.525998292375031,0.525374948643617,0.04,0.0885596835758281,250.906172188303,0.603721419454663,0.305372156982817
6542,0.468959070935377,0.41708868149161,-0.0946221692188132,0.487646635201149,0.0217258088284099,-0.0331310306998897,-0.00175985148183759,0.31971205825389,0.520030004883241,0.519414513884458,0.04,0.089275341656797,248.059073271519,0.599739302758735,0.303911604028956
6602,0.468959070935377,0.41708868149161,-0.0946221692188132,0.487646635201149,0.02172580882841,-0.0331310306998897,-0.000831027215764957,0.31971205825389,0.514108864522689,0.513454079125299,0.04,0.0898433449049649,245.234364595559,0.595610088260115,0.302533839298718
6662,0.468959070935377,0.41708868149161,-0.0946221692188132,0.487646635201148,0.0217258088284099,-0.0331310306998897,-0.000392283780831907,0.31971205825389,0.508203097935598,0.50749364436614,0.04,0.0903880334811522,242.416719952279,0.591167060288108,0.301305472506526
6722,0.468959070935377,0.417088681491611,-0.0946221692188131,0.487646635201149,0.02172580882841,-0.0331310306998897,-0.000185037040236634,0.31971205825389,0.502288652008583,0.501533209606981,0.04,0.0909385279554014,239.594826635224,0.586423636266796,0.300206883599872
6782,0.468959070935377,0.417088681491611,-0.0946221692188131,0.487646635201149,0.02172580882841,-0.0331310306998897,-8.71410762860445e-05,0.31971205825389,0.496359708773432,0.495572774847823,0.04,0.0914933933843117,236.766018890813,0.581461590973313,0.299194093546885
6842,0.468959070935377,0.41708868149161,-0.0946221692188131,0.487646635201149,0.02172580882841,-0.0331310306998897,-4.08985166671416e-05,0.31971205825389,0.490418733069409,0.489612340088664,0.04,0.0920483768374001,233.931498801479,0.576360095823963,0.298228727020569
6902,0.468959070935377,0.41708868149161,-0.0946221692188132,0.487646635201148,0.0217258088284099,-0.0331310306998898,-1.90551818263961e-05,0.31971205825389,0.484469610622113,0.483651905329505,0.04,0.0926022656033812,231.093121892962,0.571175823240848,0.29728423528629
6962,0.468959070935377,0.41708868149161,-0.0946221692188132,0.487646635201149,0.02172580882841,-0.0331310306998897,-8.73717000146879e-06,0.31971205825389,0.478515351210575,0.477691470570346,0.04,0.0931559913836612,228.252312578062,0.565945168366304,0.296343568372168
7022,0.468959070935377,0.41708868149161,-0.0946221692188132,0.487646635201149,0.0217258088284099,-0.0331310306998898,-3.86330944878955e-06,0.31971205825389,0.472557859671759,0.471731035811187,0.04,0.0937111157240671,225.409972414334,0.560690965190785,0.295395750991899
7082,0.468959070935377,0.41708868149161,-0.0946221692188131,0.487646635201149,0.02172580882841,-0.0331310306998897,-1.56107166403443e-06,0.31971205825389,0.46659829829582,0.465770601052029,0.04,0.094269047579526,222.56665365951,0.555427729301847,0.294433495313486
7142,0.468959070935377,0.41708868149161,-0.0946221692188132,0.487646635201149,0.0217258088284099,-0.0331310306998898,-4.73576697720605e-07,0.31971205825389,0.460637386167936,0.45981016629287,0.04,0.0948308499596573,219.722693520611,0.550164870278628,0.293451770871461
7202,0.467117774783433,0.415087659659504,-0.093303724588431,0.48749456467139,0.0218521290189552,-0.0320400546470362,4.0117113400513e-08,0.319802901055663,0.45467555840425,0.453849731533711,0.04,0.0954177782070269,216.878236582575,0.54490856946219,0.292446893059741
7262,0.411878890225124,0.355057004696313,-0.053750385676964,0.482932448778636,0.0256417347353171,0.000689226938570698,2.82767736859115e-07,0.322528185108847,0.448474438917326,0.447889296774552,0.04,0.0954420465427237,213.922417023241,0.541270990963587,0.290399738622299
7322,0.356640005666814,0.295026349733122,-0.0141970467654971,0.478370332885883,0.029431340451679,0.0334185085241779,3.97387231566179e-07,0.325253469162031,0.442912466809925,0.441928862015393,0.04,0.0958692355654661,211.268794230116,0.535878216148138,0.289683611994987
7382,0.301401121108505,0.234995694769931,0.0253562921459697,0.473808216993129,0.0332209461680409,0.0661477901097847,4.51529390278348e-07,0.327978753215215,0.437148453726839,0.435968427256235,0.04,0.0966724144848009,208.516659303267,0.528766583707432,0.28975532986346
7442,0.246162236550196,0.174965039806739,0.0649096310574367,0.469246101100375,0.0370105518844027,0.0988770716953918,4.77104213806453e-07,0.330704037268399,0.43117207205474,0.430007992497076,0.04,0.09732986315199,205.664175754182,0.521378809763103,0.289841086715099
7502,0.190923351991886,0.114934384843548,0.104462969968904,0.464683985207621,0.0408001576007645,0.131606353280999,4.89184847716359e-07,0.333429321321583,0.425106622620117,0.424047557737917,0.04,0.097523858322743,202.770025909803,0.514490796251655,0.289588174274186
7562,0.135684467433577,0.0549037298803568,0.144016308880371,0.460121869314867,0.0445897633171263,0.164335634866606,4.9489130803679e-07,0.336154605374767,0.419029939617189,0.418087122978758,0.04,0.096923087242541,199.870904423335,0.50830260839478,0.288922866923149
7622,0.0804455828752674,-0.00512692508283436,0.183569647791837,0.455559753422114,0.0483793690334882,0.197064916452213,4.9758683623767e-07,0.338879889427952,0.412939637065579,0.412126688219599,0.04,0.0951543287005177,196.96473337332,0.502830791627883,0.287820209023501
7682,0.025206698316958,-0.0651575800460255,0.223122986703304,0.45099763752936,0.0521689747498499,0.22979419803782,4.98860107560651e-07,0.341605173481136,0.406750843490157,0.406166253460441,0.04,0.0921892756692382,194.011564399018,0.498513106597331,0.285960279493182
7742,-0.0300321862413514,-0.125188235009217,0.262676325614771,0.446435521636606,0.0559585804662119,0.262523479623427,4.994615554926e-07,0.34433045753432,0.401178990191949,0.400205818701282,0.04,0.0898836899044952,191.361505375619,0.493867523686808,0.284707420642339
7802,-0.0852710707996608,-0.185218889972408,0.302229664526238,0.441873405743852,0.0597481861825736,0.295252761209034,4.99745658030932e-07,0.347055741587504,0.39585992259386,0.394245383942123,0.04,0.0895847252605339,188.82114794915,0.485027228163478,0.286048181037155
7862,-0.14050995535797,-0.245249544935599,0.341783003437705,0.437311289851098,0.0635377918989356,0.327982042794641,4.99879857930873e-07,0.349781025640688,0.390249722572435,0.388284949182964,0.04,0.0899948826342882,186.142654038157,0.473541231312152,0.288830318419734
7922,-0.19574883991628,-0.30528019989879,0.381336342349172,0.432749173958345,0.0673273976152975,0.360711324380248,4.99943249174224e-07,0.352506309693872,0.384445711426205,0.382324514423805,0.04,0.0907352186790708,183.372241676893,0.460754630448305,0.292427736042641
7982,-0.250987724474589,-0.365310854861982,0.420889681260639,0.428187058065591,0.0711170033316592,0.393440605965855,4.9997319293525e-07,0.355231593747056,0.37845813045025,0.376364079664646,0.04,0.0920097628109052,180.513637921967,0.447719889289737,0.29624996471614
8042,-0.306226609032898,-0.422388819625736,0.460443020172106,0.423624942172837,0.074906609048021,0.426169887551462,0.000257780933906805,0.357956877800241,0.372222237457888,0.370403644905488,0.04,0.0943534662998169,177.536296254536,0.435864295738317,0.299288849582334
8102,-0.359624197439264,-0.411021884393786,0.498677914453191,0.419214896809842,0.0785698945738375,0.457808193084215,0.0340077837250717,0.360591319051652,0.365729014654075,0.364641891304967,0.04,0.100737469332516,174.432085583801,0.424798299257573,0.301715957603734
8162,-0.359624197439264,-0.401690677957433,0.49867791445319,0.419214896809842,0.0785698945738374,0.457808193084215,0.0340077837250717,0.360591319051652,0.365507242613222,0.364641891304967,0.04,0.0957333349357327,174.37323907515,0.417764005726742,0.30669273781092
8222,-0.359624197439264,-0.395111338576063,0.498677914453191,0.419214896809842,0.0785698945738375,0.457808193084215,0.0340077837250717,0.360591319051652,0.364930004518472,0.364641891304967,0.04,0.0945645353879225,174.106998625756,0.415432424699056,0.307943126500892
8282,-0.359624197439264,-0.39117534087627,0.498677914453191,0.419214896809842,0.0785698945738375,0.457808193084215,0.0340077837250717,0.360591319051652,0.364873212197586,0.364641891304967,0.04,0.093763804834125,174.080771558547,0.413977061554169,0.3089791695816
8342,-0.359624197439264,-0.388653444292926,0.49867791445319,0.419214896809842,0.0785698945738375,0.457808193084215,0.0340077837250717,0.360591319051652,0.364837819592442,0.364641891304967,0.04,0.0934590241813668,174.063800666341,0.41272306558382,0.309887742105827
8402,-0.359624197439264,-0.386909581603548,0.49867791445319,0.419214896809842,0.0785698945738375,0.457808193084215,0.0340077837250717,0.360591319051652,0.364796603427605,0.364641891304967,0.04,0.0933531535381038,174.044142326057,0.411710717871334,0.310614635205124
8462,-0.359624197439264,-0.385652221060991,0.498677914453191,0.419214896809842,0.0785698945738374,0.457808193084215,0.0340077837250717,0.360591319051652,0.364760013113909,0.364641891304967,0.04,0.0933134189940372,174.026741339816,0.410930557647255,0.311173229255851
8522,-0.359624197439264,-0.3847279647707,0.49867791445319,0.419214896809842,0.0785698945738375,0.457808193084215,0.0340077837250717,0.360591319051652,0.36473093573763,0.364641891304967,0.04,0.0932959028762733,174.012927633479,0.410340407584527,0.311596021952743
8582,-0.359624197439264,-0.384042575763338,0.498677914453191,0.419214896809842,0.0785698945738374,0.457808193084215,0.0340077837250717,0.360591319051652,0.364708695651342,0.364641891304967,0.04,0.0932866131255304,174.002365701441,0.409897066763307,0.311914108120644
8642,-0.359624197439264,-0.383532229961641,0.49867791445319,0.419214896809842,0.0785698945738375,0.457808193084215,0.0340077837250717,0.360591319051652,0.364691904242584,0.364641891304967,0.04,0.0932808303101305,173.994392374552,0.409564948098657,0.312152736675532
8702,-0.359624197439264,-0.383151502877199,0.49867791445319,0.419214896809842,0.0785698945738374,0.457808193084215,0.0340077837250717,0.360591319051652,0.364679280994734,0.364641891304967,0.04,0.0932767848888493,173.988398483869,0.409316536236609,0.312331420583871
8762,-0.359624197439264,-0.382867279460514,0.498677914453191,0.419214896809842,0.0785698945738375,0.457808193084215,0.0340077837250717,0.360591319051652,0.364669803228828,0.364641891304967,0.04,0.0932737194446941,173.983898196716,0.40913099228026,0.312464982957989
8822,-0.359624197439264,-0.382655126027376,0.498677914453191,0.419214896809842,0.0785698945738375,0.457808193084215,0.0340077837250717,0.360591319051652,0.36466268889701,0.364641891304967,0.04,0.0932712615058817,173.980520143634,0.408992640978701,0.312564612687978
8882,-0.359624197439264,-0.382496896843284,0.498677914453191,0.419214896809842,0.0785698945738375,0.457808193084215,0.0340077837250717,0.360591319051652,0.364657348213742,0.364641891304967,0.04,0.0932692056898855,173.977984245112,0.408889715458589,0.312638734286146
8942,-0.359624197439264,-0.382379064426552,0.49867791445319,0.419214896809842,0.0785698945738375,0.457808193084215,0.0340077837250717,0.360591319051652,0.364653338460997,0.364641891304967,0.04,0.0932674270374324,173.976080315912,0.40881338610191,0.312693684915615
9002,-0.358911784449283,-0.382291519709305,0.49661389986848,0.418227718457857,0.0789362357020626,0.456624712264573,0.0345373013640576,0.359518250964542,0.364650272804339,0.364641891304967,0.04,0.0931500187547239,173.974623884753,0.408757081202569,0.312734139349943
9062,-0.337539394749831,-0.380014577752885,0.434693462327156,0.388612367898326,0.0899264695488182,0.421120287675321,0.0504228305336325,0.327326208351231,0.366092646134723,0.364641891304967,0.04,0.086143144426129,174.657657080633,0.400187782182827,0.320684877888726
9122,-0.316167005050379,-0.374920010740168,0.372773024785833,0.358997017338794,0.100916703395574,0.38561586308607,0.0663083597032074,0.295134165737921,0.365752877483744,0.364641891304967,0.04,0.0805333425983007,174.499994926941,0.393124754050719,0.326151743054633
9182,-0.294794615350928,-0.369239212122944,0.31085258724451,0.329381666779262,0.111906937242329,0.350111438496818,0.0821938888727824,0.26294212312461,0.365722672864133,0.364641891304967,0.04,0.0737735045641162,174.4863144225,0.386623270852752,0.331610333203891
9242,-0.273422225651476,-0.338880832822651,0.248932149703186,0.29976631621973,0.122897171089085,0.314607013907566,0.0980794180423573,0.2307500805113,0.365688675773501,0.364641891304967,0.04,0.0676431292184404,174.459571765697,0.378578131905258,0.338605458210921
9302,-0.252049835952025,-0.303056788987872,0.187011712161863,0.270150965660198,0.133887404935841,0.279102589318314,0.113964947211932,0.19855803789799,0.365126587545135,0.364641891304967,0.04,0.0618399279213097,174.199833370248,0.375039998792405,0.341290989817296
9362,-0.230677446252573,-0.267232745153094,0.125091274620539,0.240535615100666,0.144877638782596,0.243598164729062,0.129850476381507,0.166365995284679,0.364896836425139,0.364641891304967,0.04,0.055484979260649,174.092232359034,0.3730637137566,0.342887032706391
