time,bias_percent_1,bias_percent_2,bias_percent_3,bias_percent_4,bias_percent_5,bias_percent_6,bias_percent_8,bias_percent_9,normalized_power,power_SP,SP,CV,total_power_MW,fuel_fraction,thermal_efficiency
30,0,0,0,0,0,0,0,0,0.999606161949866,1,0.04,0.0399956599750085,476.912498100406,0.999593026091111,0.35056629809806
90,-0.00907086925979547,0.0141633555430368,-0.0121115752738571,-0.00956239804187078,0.0156388170930128,-0.0046429540311691,-0.0118718534464177,-0.00780836499825273,0.987933442558539,0.975637646073904,0.04,0.0453940269300545,471.055789181438,0.964562982655679,0.35883635041839
150,-0.0272126077793864,0.0424900666291103,-0.0363347258215713,-0.0286871941256126,0.0469164512790381,-0.0139288620935073,-0.035615560339253,-0.0234250949947582,0.943766414358383,0.926912938221712,0.04,0.0584152551749135,449.885199962367,0.864450419855889,0.382398599433479
210,-0.0453543462989776,0.0708167777151838,-0.0605578763692855,-0.0478119902093545,0.0781940854650635,-0.0232147701558455,-0.0593592672320884,-0.0390418249912636,0.894436894517112,0.878188230369519,0.04,0.0663692686225127,426.340413775632,0.762938195510506,0.410602718886393
270,-0.0634960848185687,0.0991434888012574,-0.0847810269169997,-0.0669367862930961,0.109471719651089,-0.0325006782181837,-0.0831029741249237,-0.0546585549877691,0.844601799835918,0.829463522517327,0.04,0.0695071305105917,402.56248861808,0.667292733531451,0.443273312197313
330,-0.0816378233381597,0.127470199887331,-0.109004177464714,-0.0860615823768379,0.140749353837114,-0.0417865862805221,-0.106846681017759,-0.0702752849842746,0.794614810272515,0.780738814665134,0.04,0.0686788673258065,378.712875301033,0.578962021691755,0.480634200252023
390,-0.0997795618577507,0.155796910973404,-0.133227328012428,-0.10518637846058,0.17202698802314,-0.0510724943428602,-0.130590387910594,-0.08589201498078,0.744454508645115,0.732014106812942,0.04,0.063879889779064,355.122773529977,0.499861495980236,0.522015640682402
450,-0.117921300377342,0.184123622059478,-0.157450478560142,-0.124311174544321,0.203304622209165,-0.0603584024051984,-0.136414900901722,-0.101508744977285,0.694262724790063,0.683289398960749,0.04,0.0572551673933983,330.982467416867,0.42840404367594,0.567683281219968
510,-0.136063038896933,0.212450333145552,-0.181673629107857,-0.143435970628063,0.23458225639519,-0.0696443104675366,-0.0853364965260222,-0.0853364965260222,0.641336991784768,0.634564691108557,0.04,0.0501170560693006,305.90429778,0.379219062427762,0.592720700098177
570,-0.154204777416524,0.240777044231625,-0.205896779655571,-0.162560766711805,0.265859890581216,-0.0789302185298748,-0.0497445192569535,-0.0497445192569535,0.591559073078329,0.585839983256365,0.04,0.0428685484327492,282.207799177214,0.343064077524469,0.604433383660037
