time,bias_percent_1,bias_percent_2,bias_percent_3,bias_percent_4,bias_percent_5,bias_percent_6,bias_percent_8,bias_percent_9,normalized_power,power_SP,SP,CV,total_power_MW,fuel_fraction,thermal_efficiency
11,0,0,0,0,0,0,0,0,0.999741726495592,1,0.04,0.0400133349714048,477.001328552153,0.998567482169724,0.350991699069592
71,0,0,0,0,0,0,0,0,0.999910638703864,1,0.04,0.0398945769287851,477.058873247531,1.0001619500565,0.350474420283453
131,0,0,0,0,0,0,0,0,0.999989967740807,1,0.04,0.0399233574226871,477.095390711889,1.00030550546476,0.350450947094861
191,0,0,0,0,0,0,0,0,0.999999855619078,1,0.04,0.039960494396544,477.099959985174,1.00031785627954,0.350449976438788
251,0,0,0,0,0,0,0,0,1.00000213759667,1,0.04,0.0399840654967386,477.101031890083,1.00030870714869,0.350453969128388
311,0,0,0,0,0,0,0,0,1.00000330575718,1,0.04,0.039997783063018,477.101583940169,1.00029094005186,0.350460599381873
371,0,0,0,0,0,0,0,0,1.00000388319126,1,0.04,0.0400053068397572,477.101855156805,1.00026855359892,0.350468642075039
431,0,0,0,0,0,0,0,0,1.00000397584842,1,0.04,0.040008919012581,477.101896015225,1.0002446783119,0.350477037582027
491,0,0,0,0,0,0,0,0,1.00000372200214,1,0.04,0.0400100731487312,477.101772748821,1.00022168956749,0.350485002270243
551,0,0,0,0,0,0,0,0,1.00000326231384,1,0.04,0.0400097452707312,477.101552336153,1.00020110153985,0.35049205469307
611,0,0,0,0,0,0,0,0,1.00000271173638,1,0.04,0.040008603348095,477.101289200052,1.0001836796806,0.350497966484477
671,0,0,0,0,0,0,0,0,1.00000215018392,1,0.04,0.0400070991292433,477.101021560612,1.00016963716664,0.350502690900719
731,0.0458333333333334,-0.0458333333333333,-0.0452672084896625,0.0458328211162345,0.0209169176708915,0.0458333333333334,-0.00186160638005623,0.0458333010209687,0.997322264813873,1,0.04,0.0421058874249557,475.658028963479,1.00379515472989,0.348180474778604
791,0.25,-0.25,-0.24691204630725,0.249997206088551,0.114092278204863,0.25,-0.0101542166184885,0.249999823750738,0.992161125485528,1,0.04,0.0468104757312131,473.468489043252,1.05506062018703,0.329737501877849
851,0.25,-0.249944972994076,-0.247478103184046,0.249997709306035,0.0473420272006376,0.25,0.00637831105202684,0.158383323116735,1.00296101908305,1,0.04,0.0445032749466463,478.713882348153,1.06521870480228,0.33021128733033
911,0.25,-0.249699852694958,-0.249999629271589,0.249999950911191,-0.25,0.25,0.080023207038868,-0.249726543343823,1.01125252201913,1,0.04,0.0393273488656781,482.300958106409,0.992340101485602,0.35711842614331
971,0.249999058751201,-0.249754851983278,-0.158333722266031,0.249992919128259,-0.15833333421621,0.249960802757481,0.111185619081742,-0.158110010397455,0.993306962291313,1,0.04,0.045257178286323,473.759235064251,0.982152649951774,0.354432364770172
1031,0.24999486591564,-0.249999848813067,0.249996227122365,0.249961595731561,0.249999995184308,0.249786196858989,0.25,0.25,0.978634418849487,1,0.04,0.0601908491656813,467.177552936257,1.12044370102032,0.306370259473971
1091,0.249995097198828,-0.249999876530671,0.249979826044171,0.185808233684856,0.249997665641601,0.249093395402149,0.1584122134232,0.24999057857082,0.999933141189271,1,0.04,0.0563104224694671,477.281441339025,1.1603968105926,0.302219649363516
1151,0.2499961274603,-0.25,0.249906766695853,-0.0999658336141043,0.249987288587723,0.246007279821677,-0.249569744964361,0.249948610386293,1.01141731892222,1,0.04,0.05187265976629,482.433750090585,1.0950100872261,0.323723508737775
1211,0.249996267864339,-0.158333411573108,0.249923859468279,-0.127472097451519,0.249988921361835,0.15507261185437,-0.249636601764781,0.249957724756894,1.00515709340053,1,0.04,0.0530890172605808,479.57096087128,1.06106709480547,0.33209681257676
1271,0.249996893300511,0.249999573237592,0.25,-0.25,0.24999619462833,-0.25,-0.249666608542902,0.249998325135027,1.00607374324149,1,0.04,0.0518980642573574,479.937198872973,1.02124525531207,0.345309905722699
1331,0.249958610051717,0.249999594426562,0.211389307462945,-0.158333333333333,0.158332781297969,-0.158333333333333,-0.218218623947006,0.1782341983529,1.00245522392599,1,0.04,0.0488094311900819,478.318992326589,1.00703093577079,0.349003264743639
1391,0.249788075579815,0.249999688813792,0.0393962225251522,0.25,-0.249986059900913,0.25,-0.191989660359204,-0.141442366403845,1.00323064749055,1,0.04,0.0465745577954571,478.578620742088,0.981823251360267,0.358158000839316
1451,0.15816996145093,0.219546973183762,0.0780069144221078,0.158362031627281,-0.249987156183545,0.249991301051667,-0.171927078535697,-0.161288539417212,1.00189612776644,1,0.04,0.038668576122405,478.231115044655,0.978377984183997,0.359158239338108
1511,-0.249947092395919,0.0838939671954449,0.249999996508547,-0.249843463851197,-0.249992039624361,0.249952551190911,-0.173012895628622,-0.173012895628622,1.01195541013853,1,0.04,0.0170907863654851,482.567541807079,0.917384651455271,0.386510515360274
1571,-0.249956792123334,0.114303410867878,0.249999997148646,-0.249872162145144,-0.158483277299243,0.249961250139245,-0.15833722504901,-0.203968833289703,0.999539232604105,1,0.04,0.020419337701382,476.696328664267,0.893921579508804,0.391829438713108
1631,-0.25,0.249763659954171,0.25,-0.25,0.249146663967194,0.25,0.249977995842171,-0.23788719612412,0.984270931664285,1,0.04,0.0351511349035205,469.84543890931,0.992685966826366,0.347774559363526
1691,-0.249999999904556,0.15814706451637,0.158333333333333,-0.248548591255487,0.249284418971916,0.158333722136671,0.249982029937773,-0.158334539780428,0.997977727242132,1,0.04,0.0313186210152153,476.197292718956,1.02784335504676,0.340419685198487
1751,-0.249999999479399,-0.249963224252018,-0.25,-0.242083225029931,0.249898054902045,-0.249997879254523,0.25,0.249993419379486,1.01427526173518,1,0.04,0.0204899597099706,483.746007025748,0.948971323920647,0.374557916395112
1811,-0.158350876238597,-0.158303299805815,-0.25,-0.243534633774444,0.158361057682636,-0.24954381614433,0.25,0.249977945727222,1.00213651477747,1,0.04,0.0238809104320275,477.715394591741,0.923243366748329,0.380196152051641
1871,0.249904309106793,0.25,-0.25,-0.25,-0.249394657203822,-0.247521171380743,0.25,0.249909017639867,0.989440983894714,1,0.04,0.0320757132377619,472.452584816891,0.987863335012284,0.351411556006345
1931,0.249921349895418,0.158333333333333,-0.25,-0.162492903739857,-0.249505634817171,-0.156308956627606,0.158333338128425,0.249925696142288,0.997042763748469,1,0.04,0.0335450700970853,475.722653977325,1.00772938244503,0.346868280831597
1991,0.249997258862928,-0.25,-0.25,0.227311434146232,-0.249999989640274,0.25,-0.249999973844955,0.249999991289438,1.00078191807786,1,0.04,0.0339997075134897,477.430548643447,1.01126229799545,0.346897415548589
2051,0.249997530010541,-0.249999810384208,-0.15833559884417,0.231470796744708,-0.158333534272529,0.249999677666488,-0.186288739667708,0.158333349920918,0.997650074194859,1,0.04,0.040272388112876,475.778872551984,1.01374697978939,0.344850020206238
2111,0.249998737849905,-0.249998965732042,0.249987642668164,0.249998866501555,0.249998857820155,0.249998241817209,0.0975158489400283,-0.249999870720671,0.990763662589323,1,0.04,0.0547349381487983,472.799901010411,1.06801616488557,0.325277652656811
2171,0.249998969244089,-0.249998632863381,0.249989908179001,0.249998986070064,0.249998170496757,0.249998562564669,0.0338046102180139,-0.24999982643942,0.999165796682248,1,0.04,0.0523304913991098,476.809195419383,1.0914098477125,0.321004729080434
2231,0.25,-0.249997150084804,0.25,0.249999518693423,0.249995108783439,0.249999991348812,-0.249999998634595,-0.249999629186573,1.00452815804035,1,0.04,0.0504770820589913,479.19860274572,1.06442341539509,0.330792610711718
2291,0.25,-0.249997657235627,0.249998981019041,0.158332940266295,0.249995996807098,0.158335637223791,-0.249999998884919,-0.158333031115258,1.00055783697327,1,0.04,0.0480386334837373,477.385363870169,1.05667443738882,0.33195756851851
2351,0.25,-0.249999916362019,0.24999444192204,-0.25,0.249999952548855,-0.249987394787663,-0.25,0.249999996656965,1.00332414897355,1,0.04,0.0368883778128208,478.68254362679,1.0439829244888,0.336906097432754
2411,0.249999981765064,-0.158334123479194,0.249995460902999,-0.249999728093582,0.249999377822682,-0.192558818085953,-0.249999821884599,0.249999997235945,1.00134763990056,1,0.04,0.0422871181231922,477.588309584719,1.02503742221359,0.342348668339852
2471,0.249999900536713,0.249995317544296,0.25,-0.249998516874086,0.249996817678822,0.0632593872216603,-0.249999028461449,0.24999999981504,0.99412515579038,1,0.04,0.0557123972071251,474.372644416876,1.05611907172918,0.330036085694817
2531,0.249999202834172,0.249996175994508,0.249981944331867,-0.158368635857847,0.249997401104372,0.0974951662310224,-0.249999108095435,0.171508254568509,0.999905746226619,1,0.04,0.0544639635474615,477.091227198221,1.06776490831217,0.328307242350334
2591,0.249996094886494,0.25,0.249901514537455,0.249800834123583,0.25,0.25,-0.249999462828641,-0.178136792438764,0.999652577203559,1,0.04,0.0594534751181821,476.902779606956,1.06349510531891,0.329495156205051
2651,0.24999681082397,0.182780468544493,0.249919570205588,0.249813152444122,0.249961801312398,0.221856296483127,-0.231204509840396,-0.191280879154289,0.999072928164009,1,0.04,0.0539798492021805,476.743366194606,1.0737552284281,0.326237622415024
2711,0.25,-0.116651989757309,0.25,0.249868024962886,0.249791643522172,0.0964888899079667,-0.196922709512932,-0.196922709512932,1.00328960963292,1,0.04,0.0436684472845972,478.610825234369,1.05480751423224,0.333398758742391
2771,0.249985341475846,-0.141085848408153,0.158337479225025,0.249892220386357,0.249826821436106,0.0329674227221951,-0.157884324209816,-0.158198489313692,1.00331136471411,1,0.04,0.0401105638316183,478.807721423106,1.04586938972458,0.336386353699915
2831,0.249920044413703,-0.249927582398275,-0.249977386045321,0.25,0.249983523052724,-0.249991840196242,0.25,0.249986306785952,0.997240672876431,1,0.04,0.0334770245069805,475.842012819109,1.0722503765686,0.32607781543116
2891,0.249934630146894,-0.249940858958592,-0.249981531937012,0.158582928864329,0.249836128146067,-0.249993336160265,0.25,0.249988817208528,1.00414496982474,1,0.04,0.0344702555008024,479.176547479482,1.05992046563957,0.332182655421367
2951,0.24999960295838,-0.25,-0.25,-0.248638569830933,0.249179550834592,-0.25,0.25,0.25,1.00767372275672,0.996952278875106,0.04,0.0311274234925506,480.552136935112,1.003752834668,0.35177778041356
3011,0.249999675749343,-0.25,-0.249929114714696,-0.248595074873254,0.157664083983277,-0.249999736300629,0.24999545571597,0.25,0.990894489130266,0.980328345466594,0.04,0.0342518092052465,472.749675302097,0.946017351232203,0.367186591282209
3071,0.25,-0.25,-0.24961335298925,-0.248401324607226,-0.249995722899854,-0.249998561639795,0.249975212996198,0.25,0.977845314008264,0.963704412058082,0.04,0.0303483198593064,466.136794792168,0.853796141754998,0.40115653732218
3131,0.25,-0.249999984546653,-0.175233131853321,-0.157027748438269,-0.158329841156597,-0.158333134673181,0.158313090613562,0.249999998312362,0.944708986343103,0.94708047864957,0.04,0.0370224867715126,450.245440740879,0.812709980855005,0.407069352819263
3191,0.25,-0.249999915709015,0.156096944115817,0.249999999950724,0.249999995699728,0.249994676359922,-0.23967953485318,0.249999990794704,0.920610233895282,0.930456545241058,0.04,0.0597389529764461,439.308615935642,0.87379905320143,0.369413555286846
3251,0.249989655586145,-0.158333264495863,0.17328905644026,0.249999994527297,0.249999996463992,0.249995652360603,-0.217079942101609,0.249940287920432,0.912233524641532,0.913832611832546,0.04,0.0603339721884505,435.008335247503,0.889960945243082,0.359154495034161
3311,0.249943575924428,0.249999999999085,0.249872102249145,0.249999970368396,0.249999999868441,0.25,-0.172415319585986,0.249674338753219,0.894129353908729,0.897208678424034,0.04,0.0739893425466358,426.513652239735,0.909561347392393,0.344552667831763
3371,0.249953867044783,0.249998925647817,0.249892132209853,0.249999975800857,0.249999999858475,0.249994914288164,-0.105641698310162,0.207067584352614,0.882578372551657,0.880584745015522,0.04,0.0722908873032102,421.03229712855,0.909346544723789,0.340204980232061
3431,0.24999970930818,0.249994139901261,0.249981356580281,0.25,0.249999999814084,0.249972259753623,-0.0500624846831776,0.0172738602044635,0.869539673472259,0.863960811607009,0.04,0.0711853860556045,414.663310305917,0.873611551313367,0.348764215899345
3491,0.249999724750418,0.249994642720805,0.249984774540563,0.249988379951306,0.249999999848169,0.249975568844162,-0.0236474672931026,0.00482761160603972,0.849397132633916,0.847336878198498,0.04,0.0708714408383284,405.125202268391,0.857420834919766,0.347176167546335
3551,0.249999793538566,0.249996882553317,0.25,0.249936617916213,0.25,0.249990309338378,0.25,-0.0111699557945738,0.826002389145835,0.830712944789985,0.04,0.0739875496413257,394.036527624248,0.871365325447041,0.332269811932903
3611,0.249973613123964,0.249997094331687,0.158333494257007,0.249948237964907,0.25,0.249992080062522,0.249998267707814,-0.00527602514907933,0.815487131148125,0.814089011381473,0.04,0.0719155715154846,389.013526448757,0.872904349226964,0.327455825812897
3671,0.249856991277101,0.249998037708065,-0.249999122234509,0.25,0.25,0.249999967833707,0.249990551133534,-0.0024923272993158,0.805032177642098,0.797465077972961,0.04,0.0654398032378792,383.893096702162,0.83487669125608,0.337864562609195
3731,0.230364009487957,0.15833295646896,-0.158338286179072,0.249999085688461,0.25,0.249999973730861,0.24999228342494,0.0447303493162302,0.784043869653659,0.780841144564449,0.04,0.070725766684184,373.845407841805,0.802353489099985,0.342358394511959
3791,0.143531636063588,-0.24999331450524,0.249969074431509,0.249995012846154,0.25,0.25,0.249999999995747,0.25,0.763842613489408,0.764217211155937,0.04,0.0679972045492377,364.366445529155,0.806407848502242,0.332000170180018
3851,0.163049892679564,-0.158327873512613,0.158308077452399,0.249992140011362,0.25,0.158333382112993,0.249999999996527,0.249999950414647,0.752863144331891,0.747593277747425,0.04,0.067874733765849,359.176914630019,0.78817748155907,0.33484133823802
3911,0.249994853968912,0.25,-0.25,0.249979342838201,0.25,-0.249999733929129,0.25,0.249999729534439,0.741022037510382,0.730969344338913,0.04,0.0700360956017392,353.310030988771,0.726890613898327,0.357142540125376
3971,0.249995797407945,0.158333333333333,-0.249999998621717,0.249982833460429,0.25,-0.249999782708789,0.249958872682512,0.249999778880834,0.719430237982046,0.714345410930401,0.04,0.0699588297366573,343.145979033144,0.689003565740026,0.365941885151621
4031,0.25,-0.25,-0.249999992482092,0.249998382595807,0.25,-0.25,0.249775669177337,0.249999998696593,0.70527321736364,0.697721477521889,0.04,0.050446317471875,336.309367808595,0.646855194073701,0.382020414226446
4091,0.158333490654593,-0.169486415857985,-0.249999993860375,0.249998645685543,0.170446600243874,-0.249999998641992,0.158152141480668,0.249999998935551,0.687982623450379,0.681097544113377,0.04,0.0447071436264466,328.299948514149,0.613332001575459,0.393305360509411
4151,-0.249999141884037,0.189165004410991,-0.25,0.24999981763073,-0.183927635033415,-0.249999992592684,-0.00615041378041685,0.25,0.675308165787947,0.664473610704865,0.04,0.0250589707069761,322.047977384079,0.536336490393599,0.441202440852682
4211,-0.249998572402876,0.200318086935643,-0.25,0.249999850988673,-0.196040792537956,-0.249999993950692,-0.0294346094328241,0.25,0.651398938190824,0.647849677296353,0.04,0.0194501480964709,310.72121416723,0.506400725959087,0.450849156985559
4271,-0.249996035623161,0.25,-0.25,0.249999999583147,-0.249999403240003,-0.25,0.25,0.25,0.628547741356693,0.631225743887841,0.04,0.0293253986438239,299.919749821026,0.509883454640192,0.432204039676393
4331,-0.249993733519956,0.249999926469877,-0.158333425254559,0.249999432443137,-0.158332845979336,-0.158333333333333,0.25,0.249999967433151,0.611964153129453,0.614601810479328,0.04,0.0410517243099502,291.448800685663,0.508820215958957,0.420874478102605
4391,-0.249983478696589,0.249999598926601,0.249999498611495,0.249996906092183,0.25,0.25,0.25,0.249999822362641,0.583766242450121,0.597977877070816,0.04,0.0785893959237305,278.684606265036,0.615111124727985,0.332900214399033
4451,-0.249986507602214,0.158333005790057,0.158332937947406,0.158352421913635,0.249997146605172,0.158333333333333,0.158333333333333,0.245690213285512,0.585337634536824,0.581353943662304,0.04,0.0644702493779922,279.66372609963,0.623421266705104,0.32961669669801
4511,-0.25,-0.25,-0.249999923192625,-0.249882098518077,0.249984436028213,-0.25,-0.0372017149497688,0.226492863760121,0.616329514379571,0.569844954665067,0.04,0.00433832472327208,293.997587513346,0.42360614616756,0.509960091349077
4571,-0.24999913422161,-0.249993325370773,-0.15833327060731,-0.158237047123096,0.24998728942304,-0.25,-0.076943175904069,0.230784849625143,0.584130358055306,0.581120718045329,0.04,0.000185021761872974,278.748125086258,0.399623417414217,0.512525764133344
4631,-0.249995277572417,-0.249963592931491,0.25,0.25,0.25,-0.25,-0.138426444910447,0.249903695751147,0.565810079198601,0.592396481425591,0.04,0.0129727343143477,271.047612528557,0.546859295644942,0.364187188323759
4691,-0.235114529779146,-0.249962594836468,0.249999220449114,0.249995462480492,0.249997123253369,-0.25,-0.20312289128796,0.249920621693407,0.596471727842039,0.603672244805852,0.04,0.0144752888010912,284.741439322299,0.592642827797936,0.35303057443901
4751,-0.168827562336392,-0.249958148776823,0.249995747904259,0.249975249893591,0.249984308654739,-0.25,-0.249989481641358,0.249996019072563,0.604507249385104,0.614948008186114,0.04,0.0218863867493142,288.468850207224,0.65051383613828,0.325834496385727
4811,-0.183708545856547,-0.158299154834405,0.249974723377771,0.249893314289637,0.24998718540137,-0.158333452644473,-0.249991410007109,0.24999674890926,0.617054874578322,0.626223771566375,0.04,0.0332234036278707,294.377447721518,0.698526094276069,0.30965391665172
4871,-0.24999656335542,0.25,0.24988106866887,0.249528328417478,0.25,0.249999349211967,-0.25,0.25,0.623778861345932,0.637499534946637,0.04,0.0583785755488248,297.896521812578,0.786120396875349,0.278439627474718
4931,-0.15833052674026,0.158333333333333,0.158525946070032,0.24961480154094,0.230243531524947,0.20881117040123,-0.177553369813059,0.249999916165699,0.646314189763701,0.648775298326898,0.04,0.0564301735751193,308.550934903792,0.821335609392001,0.276032927025085
4991,0.25,-0.25,-0.248419600052065,0.25,0.142237444681527,0.0253365556988568,0.145163437383314,0.249999542721997,0.662330455391135,0.66005106170716,0.04,0.048307440096665,316.040002146301,0.81759641114971,0.284025776543579
5051,0.167901950764693,-0.158333333333333,-0.157042673375853,0.159513438304672,0.0703272464899139,0.0662833486864507,0.164380759102894,0.223949475052613,0.673647556989936,0.671326825087421,0.04,0.0528538126954411,321.500409188935,0.805355984969293,0.293324484309911
5111,-0.197807541283494,0.25,0.25,-0.243563063792696,-0.25,0.24868269926755,0.249985192217388,0.107908264525357,0.686738869695456,0.682602588467683,0.04,0.054933379101873,327.723586774035,0.784185539420601,0.307074353442758
5171,-0.207273663175343,0.249999076237516,0.249999967750839,-0.153801188331257,-0.158333333333333,0.248904759030386,0.249987887364936,0.0422917493623752,0.694676420557437,0.693878351847945,0.04,0.0559303551758121,331.400659884859,0.774289960422615,0.314488245017804
5231,-0.249440933420851,0.249994961295544,0.249999824095486,0.246047165996972,0.25,0.249893934337565,0.249999893022195,-0.16961281167807,0.698768369946086,0.705154115228206,0.04,0.0652778092417979,333.521976347292,0.799483026803297,0.306527811060422
5291,-0.157876770698863,0.249995885058028,0.249997526395308,0.245860859484495,0.158333333333333,0.249904891809694,0.249513557587054,-0.118088715975194,0.714142855166386,0.716429878608468,0.04,0.0574420172947736,340.816101000043,0.827022167294301,0.302801226246409
5351,0.249999954153629,0.25,0.249987291185425,0.24503094865619,-0.25,0.249953702367361,0.24734715428506,-0.0684412338047701,0.725662949877632,0.727705641988729,0.04,0.0587192631026278,346.305016963578,0.840062798852585,0.302901697105585
5411,0.248269386566406,0.25,0.235729402523737,0.245941941402556,-0.25,0.249962190266678,0.247818012214574,-0.0161469480130714,0.736852849879936,0.738981405368991,0.04,0.0571927287149537,351.612325285623,0.853039462796373,0.302865387739963
5471,0.240560494586958,0.25,0.172216989394402,0.25,-0.25,0.25,0.24991547026423,0.248547924599847,0.743875594292257,0.750257168749253,0.04,0.0576666379468953,355.067731917669,0.89391912595341,0.291855346051868
5531,0.242291070579349,0.158333334045273,0.0948108010363114,0.24999555577851,-0.25,0.239914606139238,0.158264300715788,0.15715062498215,0.766522809450036,0.761532932129514,0.04,0.0481726769527056,366.271804192944,0.90271270048342,0.298132012198351
5591,0.25,-0.249999996116693,-0.249998583467911,0.249975758791874,-0.25,0.194988760759479,-0.011134308617893,-0.011134308617893,0.788543133285286,0.772808695509775,0.04,0.0248828827293508,376.003966582809,0.790945593326433,0.349301533256692
5651,0.25,-0.249999016543384,-0.249998446661155,0.249978140359019,-0.25,0.205074146563189,-0.0333976173731775,-0.0333976173731775,0.786522948430742,0.784084458890037,0.04,0.0223222066040543,375.286481961054,0.761172372245921,0.362271843268454
5711,0.25,-0.249994652989552,-0.249997837249243,0.249988749158119,-0.25,0.249999956052442,-0.0669867805285597,0.25,0.786499219164452,0.795360222270299,0.04,0.0228532781374353,375.495569826717,0.799846400818869,0.344947418279829
5771,0.249980296454328,-0.249995633274801,-0.249998102013592,0.249987943843146,-0.24999881496712,0.249990859718891,-0.107237675565639,0.25,0.803765467258312,0.80663598565056,0.04,0.0210303988037057,383.578392375619,0.823675778697635,0.342178340530593
5831,0.249892526114516,-0.25,-0.249999281418419,0.249984356530993,-0.249993536184291,0.249950339687619,-0.151805046761357,0.25,0.815624108763921,0.817911749030822,0.04,0.0224536595730519,389.224832760746,0.838494909010637,0.341078847543165
5891,0.249911468992601,-0.249999960997161,-0.249999306685558,0.158320557833644,-0.158328054550504,0.158292777411556,-0.195243825369375,0.246289325871929,0.828343283525273,0.829187512411083,0.04,0.0212889782278391,395.419431577203,0.85086661103015,0.341468936505392
5951,0.249995850904071,-0.249999787257241,-0.249999419239176,-0.25,0.25,-0.25,0.0486650841798791,0.229759959301429,0.842020563940939,0.840463275791345,0.04,0.0211647628222706,401.630014435758,0.843606207960143,0.349817128198972
6011,0.158330761777484,-0.24999982626008,-0.249999525711994,-0.25,0.158371322449273,-0.158333541335831,0.0855764775416979,0.233466436450286,0.84877897346727,0.851739039171607,0.04,0.0223215748505125,405.372577467636,0.85589361338082,0.348008023456187
6071,-0.249995544331858,-0.25,-0.25,-0.25,-0.24979278664033,0.249998865440924,0.249999957062527,0.249977107386103,0.872203041240499,0.860947579265487,0.04,0.0211282140841487,415.863675540636,0.816309338908848,0.374326780442446
6131,-0.158330064323167,-0.249994966826212,-0.201878921051046,-0.24999698439693,-0.158164109089603,0.249999073443421,0.249926382250485,0.249981304365317,0.858375599415095,0.860947579265487,0.04,0.0279139524383474,408.536216538173,0.813870373803266,0.368833193679697
6191,0.249997982988272,-0.249972546324795,0.0124786124488414,-0.249983551255982,0.25,0.25,0.249598639905935,0.25,0.837725918844927,0.860947579265487,0.04,0.0438506717797558,400.241713731804,0.968121087941677,0.303771723699286
6251,0.249998350005167,-0.249977579498583,0.0441926603352535,-0.249986523663673,0.192790203941987,0.249999915388804,0.249663399635373,0.249994364690534,0.858430118636853,0.860947579265487,0.04,0.0475297577394892,409.62849465571,1.00795003484631,0.298611020410551
6311,0.249999984898609,-0.25,0.185464328192907,-0.249999764388843,-0.0620534330437055,0.249999538484387,0.249951874793781,0.249969261948366,0.864168484795965,0.860947579265487,0.04,0.0539361398137317,412.306448277969,0.99641908088751,0.304041430953359
6371,0.234697947752677,-0.158333333333819,0.197287001899311,-0.249999807584222,-0.00495283574789289,0.158335397891276,0.249960697748254,0.249973203485964,0.864539508641669,0.860947579265487,0.04,0.0605884000973376,412.396891850736,0.973883592216849,0.311145132053548
6431,0.166534327738981,0.249999999997348,0.249951639318746,-0.25,0.249404370387999,-0.249986682932581,0.25,0.249990761244354,0.863684110712172,0.860947579265487,0.04,0.0692148787353515,412.075451308312,0.95907069991506,0.315704517186864
6491,0.18183632465685,0.158333400965445,0.158337977044861,-0.249998744029136,0.249513569150199,-0.249989052324732,0.193157181422022,0.249992455016223,0.866414064582433,0.860947579265487,0.04,0.0623987737565789,413.544575237746,0.938161221972294,0.323891482019369
6551,0.249999765472815,-0.249999631085758,-0.249759245811534,-0.249993149249832,0.25,-0.249999606889767,-0.06005173769806,0.25,0.878300696232854,0.860947579265487,0.04,0.0363307273769519,418.697789955506,0.842962117264066,0.364961696687218
6611,0.158365226364242,-0.15835213322339,-0.249803383578784,-0.249994371546232,0.249984060879905,-0.249973067680608,-0.00320891912008236,0.25,0.863735341016319,0.860947579265487,0.04,0.0362225093172481,411.936397359583,0.800872758725757,0.377938661953545
6671,-0.249824993301216,0.249895811799886,-0.249999997269263,-0.249999816321101,0.249913059344934,-0.249854847567078,0.25,0.25,0.862191160723148,0.860947579265487,0.04,0.0355383195374098,411.549475430824,0.807057854062606,0.374689963731693
6731,-0.24985707786266,0.249914911218903,-0.158333344926906,-0.2499978536977,0.249915894486751,-0.249881163618818,0.158333470743137,0.158333333333333,0.865376221283561,0.860947579265487,0.04,0.0308242096561882,412.84290477887,0.797896424070397,0.380183253281048
6791,-0.25,0.249999990449071,0.249999924598135,-0.249989111102554,0.249928523754844,-0.24999838966748,-0.242963365740315,-0.242963365740315,0.869561907068865,0.860947579265487,0.04,0.0271351524293429,414.675576269163,0.740264127907023,0.411601006907303
6851,-0.25,0.249999992200075,0.249999022651131,-0.158324447637982,0.158277763424621,-0.158332328531348,-0.218148029842935,-0.178823751754257,0.853482326981591,0.860947579265487,0.04,0.0287331747819742,406.787060785443,0.746613468080086,0.400337236293652
6911,-0.25,0.25,0.249995004887201,0.249999962340566,-0.24998471441001,0.249998307438694,-0.0762653196789979,0.138234081340415,0.84440768167174,0.860947579265487,0.04,0.0412073285602667,403.126125968539,0.857311975907161,0.345506904658758
6971,-0.15833344911258,0.163867455739201,0.24999585543169,0.249999969244796,-0.249987145141945,0.2499986177416,-0.0164500110711817,0.158724499761219,0.855432866552256,0.860947579265487,0.04,0.043424999651329,407.985343790986,0.90022027172899,0.333004766520594
7031,0.249999368476835,-0.219813877786178,0.249999644220781,0.25,-0.249997972947838,0.25,0.25,0.249999999999348,0.851931070816295,0.860947579265487,0.04,0.0521960774230497,406.616003490014,0.961459199237236,0.310747958847714
7091,0.249999411486942,-0.133681333525379,0.249999662917167,0.219470749301967,-0.249998342904536,0.249988472101821,0.158335504930521,0.249999999993095,0.862898729273991,0.860947579265487,0.04,0.0553764138573633,411.771424618232,0.971305522417418,0.311497828349339
7151,0.249999603077416,0.25,0.249999746201071,0.083476814374364,-0.249999990893465,0.249937120555387,-0.24755343040195,0.249999999965242,0.86922104113881,0.865399397752334,0.04,0.0599504862742037,414.717021812836,0.934350347601147,0.326134532273642
7211,0.249999089543211,0.25,0.249999736105061,0.0223405152607752,-0.249999992401251,0.249948645538002,-0.207607386197092,0.249997488627029,0.881343360645111,0.882838168329409,0.04,0.052467600071927,420.57068128361,0.958285983549067,0.322476843610725
7271,0.249996801981753,0.25,0.249999691131926,-0.249993908063393,-0.249999999117753,0.249999984096923,-0.172339213681743,0.24998630175681,0.879186011688268,0.869790583449572,0.04,0.0512834930905543,419.328301697954,0.911974905508152,0.337851587022353
7331,0.249997235272536,0.249992103122995,0.24997665192027,-0.221858167547771,-0.158333396246206,0.249764008570854,-0.0725065777820278,0.158322146434728,0.863572872540553,0.856742998569735,0.04,0.0579762551210203,411.821933940326,0.863664111912045,0.350363839062417
7391,0.249999165386024,0.249956926125428,0.249874022704714,-0.096526232523639,0.249999652908867,0.248712844863821,0.249885339090654,-0.092365427829437,0.840411706728651,0.843695413689898,0.04,0.07066104902514,400.94379890833,0.860481175287888,0.34237086770991
7451,0.249970037318442,0.249964823002433,0.249896491543513,-0.0797338659091221,0.249989805347631,0.248945651150471,0.249906360257368,-0.0443341905708827,0.831816104040869,0.830647828810061,0.04,0.0682169606261002,396.754979794918,0.857841326670853,0.339836559329992
7511,0.249840285017392,0.25,0.249996580007253,-0.0049315055353652,0.249945938938486,0.249982697336456,0.25,-0.0209416255910686,0.818586297171343,0.817600243930225,0.04,0.0699110910876438,390.453028586626,0.851053632559392,0.337106046530559
7571,0.249869566097537,0.25,0.158330540339257,0.0418059371461185,0.249943720325797,0.249985869491439,0.25,-0.00989181361510729,0.806088025084125,0.804552659050388,0.04,0.0696246858040791,384.497410314526,0.842156303702195,0.335471315393674
7631,0.25,0.25,-0.25,0.25,0.249933837414728,0.25,0.25,0.25,0.789881030794522,0.791505074170551,0.04,0.0684449344106787,376.820888367572,0.846508931778602,0.327083096471914
7691,0.249928725723603,0.24999696999337,-0.249844006653076,0.25,0.201796876863815,0.25,0.25,0.158730857604911,0.784970630958822,0.778457489290714,0.04,0.0671891508285444,374.622887169177,0.829315588385891,0.331916738317734
7751,0.249611231219654,0.249983472691109,-0.249149127198599,0.25,-0.0126314019538879,0.25,0.25,-0.00104255537474692,0.773739707383171,0.765409904410878,0.04,0.0663121197592428,368.96452834068,0.763176637351273,0.355233753679205
7811,0.249682505496051,0.249986502697739,-0.249305079243689,0.25,0.0355165923311283,0.249999985111543,0.249917225607098,-0.000492202134044556,0.755473132320784,0.752362319531041,0.04,0.0682820347977143,360.263444102194,0.734945536919454,0.360180101313578
7871,0.25,0.25,-0.249999774717274,0.25,0.249994021418928,0.249999918790237,0.249548503311446,-0.000232234904367022,0.739068306216954,0.739314734651204,0.04,0.0715408480712047,352.541237378011,0.733052762784995,0.353369747267516
7931,0.249966227228537,0.25,-0.228243521179206,0.249999756674939,0.249967651078955,0.158333269797206,0.249631271156004,0.0457306510214004,0.727554091849599,0.726267149771367,0.04,0.0699097875694162,347.031392142037,0.726696867456411,0.350889320655278
7991,0.24981578488293,0.25,-0.131329300873266,0.249998672772392,0.249850183200891,-0.249999984808112,0.249999964281762,0.249999585877294,0.715783051316724,0.71321956489153,0.04,0.0679145343714108,341.39738425824,0.713167907043591,0.351741064927344
8051,0.249849557327733,0.158338331867925,-0.153070307944917,0.249998912852002,0.158214529627724,-0.158337563017557,0.15833436642692,0.24999966179979,0.704903314246197,0.700171980011694,0.04,0.0634529635454321,336.417590286381,0.693807717573878,0.35628229861132
8111,0.249999998218218,-0.249972735265863,-0.249916612173183,0.249999982297535,-0.249980654470929,0.249976861322187,-0.000195939601566838,0.25,0.700185677643386,0.69359791247447,0.04,0.0391614937788939,333.981288563014,0.633606164346091,0.387308847933068
8171,0.249994730849513,-0.212830896841192,-0.249931899941433,0.249999985542987,-0.24998097177033,0.249981033838359,-0.00667100982209441,0.249996831906565,0.708958791383513,0.715860422190705,0.04,0.0260926967911443,338.350038615768,0.663564238976504,0.374660521960696
8231,0.249971267116192,-0.04738088931311,-0.25,0.25,-0.249982385194936,0.249999620501303,-0.0291522455671701,0.249982719490355,0.727215977264099,0.73812293190694,0.04,0.0228470276147123,347.177124473157,0.726508383487964,0.351127745378709
8291,0.249939468578739,-0.0845277195549035,-0.25,0.158335189281398,-0.158319418636364,0.158333023409397,-0.0650096109849777,0.249985867052927,0.753043788882777,0.760385441623176,0.04,0.0153854387922873,359.661821180404,0.780316664850665,0.338671096055008
8351,0.249797820548271,-0.249999963359256,-0.25,-0.249989876646921,0.249997432397274,-0.25,-0.121059309380371,0.249999888013476,0.789000884691452,0.782647951339411,0.04,0.00487160839632467,376.084771402075,0.748126435976133,0.369373235038461
8411,0.158168220114422,-0.158333303410059,-0.25,-0.249991461230664,0.158331236457774,-0.158336893661475,-0.158348311381068,0.24998183985331,0.799121448556426,0.804910461055646,0.04,0.00675351417056779,381.284477125344,0.771697156288419,0.363042025030058
8471,-0.25,0.25,-0.25,-0.249998519830975,-0.25,0.249980580028319,0.249889273690709,0.249901443503483,0.817168483967327,0.827172970771881,0.04,0.0165229519225762,390.326526032587,0.854416636687219,0.335670400321536
8531,-0.15833375459389,0.158333333333333,-0.158333333333333,-0.249998791195297,-0.249999373380588,0.249984140356461,0.169634000969191,0.249910824632287,0.842028818369898,0.849435480488117,0.04,0.018598069773395,401.637870832757,0.915045989304149,0.322512395155155
8591,0.249997702215148,-0.25,0.25,-0.25,-0.249996582075936,0.25,-0.187866759335755,0.249952613296961,0.855997165806739,0.867616530089709,0.04,0.0230581816872419,408.694812323013,0.998321604061155,0.30080380940284
8651,0.158331492830849,-0.25,0.25,-0.158333333333333,-0.158491492084866,0.249997910510071,-0.199257853457533,0.249961179480964,0.865142951437595,0.867616530089709,0.04,0.0357507396965804,412.795867565748,1.01494587746864,0.298845784021856
8711,-0.249999803517394,-0.25,0.25,0.25,0.249122090602629,0.249988602782203,-0.25,0.249999337936975,0.869545252180975,0.867616530089709,0.04,0.049647669299337,414.828961631104,1.01760493904675,0.299532905685232
8771,-0.158333172872538,-0.25,0.249999964509126,0.205108452311745,0.249282385607668,0.249984776110527,-0.249884788305951,0.249999134005487,0.871289061844888,0.867616530089709,0.04,0.0549820567673837,415.526637559449,1.00076362563077,0.305085828064501
8831,0.25,-0.25,0.249999806413416,0.00513701260951984,0.249996426993749,0.249967730027605,-0.249371572577913,0.249998225583403,0.867217800486904,0.867616530089709,0.04,0.0626640287253961,413.837638623617,1.00301736628745,0.303163010510693
8891,0.249979317242659,-0.218485408521988,0.249997640660533,0.0500285602977745,0.249989823888534,0.249954505245066,-0.249472363201558,0.249998550893112,0.869928036669196,0.867616530089709,0.04,0.0646187327548244,414.992182422815,0.989475361992221,0.308169466958516
8951,0.249887184959958,-0.0781022283017529,0.24998799321587,0.25,0.249960410056213,0.249895594850118,-0.24992133961598,0.25,0.867167043619177,0.867616530089709,0.04,0.0708309774074046,413.756144505319,0.989576376742628,0.307220232435356
9011,0.249907867717299,-0.0179527659957862,0.249984858009481,0.25,0.249967668212574,0.249914735794263,-0.158269094019717,0.249841710857492,0.866102084199774,0.867616530089709,0.04,0.0710348326553524,413.065973834515,0.987665924390888,0.307301038204785
9071,0.25,0.249985747912611,0.249970892090109,0.25,0.25,0.25,0.25,0.249136604677228,0.859740567383156,0.867616530089709,0.04,0.0775649759291212,410.299191236087,1.03657488270794,0.290840348230793
9131,0.249994564857772,0.158334823199992,0.249976228540256,0.24999980749926,0.158507906005207,0.158335135230412,0.249981022700652,0.249294847854452,0.871615518031634,0.867616530089709,0.04,0.0685331938513375,416.086390121243,1.04117079700406,0.293640671424334
9191,0.249970353769667,-0.249928386883491,0.25,0.249998949995964,-0.249047785426142,-0.249990171470481,0.249896487458101,0.249999749280266,0.885708153773878,0.867616530089709,0.04,0.0460812822612413,422.371714164732,0.941385274739022,0.329672029553953
9251,0.249975788911895,-0.15827501055719,0.236207214315277,0.249999142496704,-0.249215346333297,-0.158450861006664,0.249915464757449,0.249991681857161,0.86983535793178,0.859136144440633,0.04,0.053742951424867,414.593848616383,0.878057894208098,0.346940003563668
9311,0.25,0.24999912035088,0.174766623537873,0.25,-0.249961754010623,0.249315158332156,0.25,0.249955745154238,0.82444611894435,0.81864666027454,0.04,0.0800952919218408,393.188532522499,0.822740654197193,0.35114991011937
9371,0.249999999040483,0.249993785609369,0.0969148747575756,0.249999760388757,-0.158305844046325,0.157774045971261,0.25,0.249963858542628,0.806711874740427,0.803847273982485,0.04,0.0756248885383856,384.818413719583,0.804458964983114,0.351484862150171
9431,0.249999994766269,0.249970021760823,-0.249879278900111,0.249998693029583,0.249979573067364,-0.25,0.25,0.25,0.795783605268901,0.78904788769043,0.04,0.0664400645381115,379.479143430133,0.767327442273006,0.363380700299093
9491,0.15833332905912,0.249975517771339,-0.249901411101757,0.249998932640826,0.249983318005014,-0.249997221361275,0.249996472591421,0.249998527485511,0.777582765409017,0.774248501398375,0.04,0.0644436508346701,370.933360550175,0.741843401987227,0.367399306347709
9551,-0.25,0.25,-0.25,0.25,0.25,-0.249984843788772,0.24998075958957,0.249991968102785,0.766945891682168,0.75944911510632,0.04,0.0462507441984689,365.794962827536,0.704245457881814,0.381652702852127
9611,-0.249959448639226,0.249999378758944,-0.249866486304028,0.25,0.158333333333333,-0.249204985144819,0.249918473340178,0.249989193367199,0.748716359961973,0.744649728814264,0.04,0.0428772127324019,357.196697410933,0.678529772207646,0.38680600073291
9671,-0.249778810759416,0.24999661141242,-0.249271743476519,0.25,-0.25,-0.245731069367208,0.249641016411067,0.249976833181406,0.738903067516367,0.729850342522209,0.04,0.0299310440956104,352.228585970027,0.627599182636852,0.412379346690912
9731,-0.158153178845641,0.249983065859148,-0.157748352823884,0.1583484851024,-0.184123491434643,-0.15484703998322,0.249706686232347,0.158314413764815,0.721708106244712,0.717764177050364,0.04,0.0312391501722877,344.228737277654,0.601924548494778,0.420203576350458
9791,0.249997363315719,0.249922726576393,0.249946750992396,-0.249917353986908,0.109326410356491,0.25,0.249999215436228,-0.0240911395104088,0.703388629104928,0.717764177050364,0.04,0.0619129125865018,335.736611417475,0.665075487321959,0.370921867539008
9851,0.249997443674851,0.24993688640567,0.249952920778317,-0.243042689136992,0.135107933332185,0.24999985480323,0.24999935927292,-0.0114269157218635,0.711904775284747,0.717764177050364,0.04,0.0554522966845435,339.640441444983,0.710097938751742,0.351443747284281
9911,0.249997801638257,0.249999962008811,0.249980404370144,-0.212419182078272,0.249952899314821,0.249999208017617,0.25,-0.0053974033607247,0.712695001373435,0.717764177050364,0.04,0.0591069668127772,340.066827589242,0.743469108983802,0.33609033060479
9971,0.249980731695127,0.249999968973862,0.249982793006555,-0.127644729613152,0.15829486777377,0.249999353214387,0.249995267990261,-0.00254927690502162,0.715734573178139,0.717764177050364,0.04,0.059511411688147,341.519008314563,0.761848451781206,0.329382838394607
10031,0.249904692857545,0.25,0.249993433296022,0.249986922276927,-0.25,0.25,0.249974189037786,-0.00120392361245172,0.717281044955333,0.717764177050364,0.04,0.0610773782879204,342.195218458799,0.764766852675008,0.328775583371903
10091,0.249922165833661,0.249998678613064,0.249994578794897,0.249988844276929,-0.19743298935542,0.249999978600387,0.249936981508774,-0.000568426730558426,0.715817946096601,0.717764177050364,0.04,0.062967723438566,341.461378181212,0.772668732455394,0.324715430720188
10151,0.25,0.249992792434896,0.249999681471703,0.249997405913299,0.0367291489704381,0.249999883274837,0.249771238879538,0.249991523688883,0.706922171852435,0.717764177050364,0.04,0.0716283642487147,337.410580637571,0.823964254463289,0.300888093222466
10211,0.25,0.249991027166426,0.249998438795815,0.249997847813643,0.0758284282071379,0.249998278462176,0.249812781941889,0.249964749745688,0.714886920707669,0.717764177050364,0.04,0.071848376052978,341.068178892197,0.850718514094725,0.29458456927974
10271,0.25,0.249983163697787,0.249992903239586,0.249999816278811,0.249997944806982,0.249991129751233,0.249997837401454,0.249845483998728,0.714906337724159,0.717764177050364,0.04,0.0773429257890809,341.110090261553,0.86889075512328,0.288458981780014
10331,0.249930874187176,0.249986237572708,0.186112927717496,0.15835405793361,0.158331654925702,0.249992753547564,0.158332993892472,0.158267389510923,0.72413947079232,0.717764177050364,0.04,0.0680085014906256,345.962961613055,0.868181941999852,0.292801659713813
10391,0.249622950111867,0.249999930288267,-0.0984433268809052,-0.249886138331377,-0.25,0.249999986822128,-0.000148976069606563,-0.000148976069606563,0.73826136664902,0.717764177050364,0.04,0.0426072874190562,351.921099056472,0.732608460534729,0.352962081376048
10451,0.249556432554318,0.249996332944364,-0.126228716952739,-0.249906728600602,-0.245590151149234,0.249999985692973,-7.01071607189536e-05,-7.01071607189536e-05,0.723732028468415,0.717764177050364,0.04,0.0422242866995345,345.265681588406,0.678621638465828,0.37383536698728
10511,0.249260127070691,0.249980308412435,-0.25,-0.249998448890785,-0.225946278995823,0.249999980663103,-0.00276610556421075,-0.00276610556421075,0.722060324172882,0.717764177050364,0.04,0.0319669518875085,344.458364430076,0.650724214729818,0.388950597888969
10571,0.158447054297691,0.15832142229222,-0.249865914935675,-0.249998733260808,-0.138821746859322,0.249999984208201,-0.0165101447340588,-0.0165101447340588,0.718443815534872,0.717764177050364,0.04,0.0247752302720505,342.762193038988,0.636934363364066,0.395414789431514
10631,-0.246083906236585,-0.249977252243282,-0.249268626921863,-0.25,0.249278441748729,0.25,0.249939222139843,0.249959492060261,0.724334015240872,0.717764177050364,0.04,0.0166307130207407,346.546954376784,0.638833018259048,0.398592761891386
10691,-0.155135284424101,-0.249980110086228,-0.249234190661351,-0.249999982701677,0.249080502205313,0.24959596605112,0.21298008126155,0.158300251849214,0.724427614361135,0.717764177050364,0.04,0.0146235623861504,346.167690536143,0.629715859950717,0.403921132574105
10751,0.249999485467872,-0.249992840477533,-0.249080792773615,-0.249999905645511,0.248198771511914,0.247796178460654,0.0483439082582452,-0.143048816852902,0.709621641761044,0.717764177050364,0.04,0.0177917446729827,338.543344120016,0.654037190297408,0.380335191899189
10811,0.249996163294595,-0.249994153056652,-0.249249310204186,-0.249992154474676,0.248528837666105,0.248200212409534,0.0852760175122364,-0.199966430987731,0.714113154320532,0.717764177050364,0.04,0.0189651694507061,340.621473945577,0.675207266654067,0.370671838938575
10871,0.249981364522721,-0.25,-0.249999978758548,-0.249957626531868,0.249999132352956,0.25,0.249791776916379,0.0166911906798753,0.708949485083136,0.717764177050364,0.04,0.0304026309032009,338.424870245669,0.734773963263892,0.338425585297361
10931,0.158318114360222,-0.158335790485788,-0.249999978282445,-0.158298728334359,0.249999291421581,0.25,0.212201186875153,0.0594202566333113,0.711714036756435,0.717764177050364,0.04,0.0382660643679534,339.294970697801,0.764000433592625,0.326316093716055
10991,-0.25,0.24998659735025,-0.249999976161624,0.25,0.25,0.25,0.0447521948733298,0.249758823153162,0.712034815985283,0.717764177050364,0.04,0.0498639550611903,339.935617162381,0.815836457428522,0.306159851217031
11051,-0.25,0.249951680034093,-0.158334624049015,0.249956120054212,0.249999976687981,0.25,-0.0092857075201141,0.249597773216527,0.717119577136466,0.712120082919162,0.04,0.0576061981510118,341.971979072991,0.814867269256626,0.308360203896892
11111,-0.25,0.249796139262122,0.249992853543516,0.249760654841154,0.249999872843535,0.25,-0.25,0.248880368953331,0.693970951096631,0.681334114930789,0.04,0.0835142024093313,330.860906376965,0.745322917870603,0.326178743866664
11171,-0.158333333333333,0.249833513730733,0.249992460346457,0.249804534786943,0.186891146992665,0.249868300192887,-0.172943052114719,0.218184544916685,0.664872864805257,0.656192241073618,0.04,0.0897213489269658,317.160019889623,0.678898486016399,0.343264010733724
11231,0.25,0.25,0.249990708832287,0.25,-0.0942295408884854,0.249281637415748,-0.0845812524191061,0.0814486014807142,0.657476726747792,0.656192241073618,0.04,0.0822252024683447,313.572758535922,0.656617029137736,0.350897974245806
11291,0.249959590288159,0.25,0.158328460037855,0.249999674329229,-0.0311207917255965,0.249380077159678,-0.0399531412360873,0.112341940607302,0.651232191753327,0.656192241073618,0.04,0.0743979323330739,310.603890251397,0.674533248012995,0.338343787095823
11351,0.249779583389958,0.25,-0.249985193682795,0.249998223613978,0.25,0.249818581473546,0.25,0.249957723989373,0.64610775454779,0.656192241073618,0.04,0.0681997505733588,308.4346079089,0.737074520161408,0.307472571502145
11411,0.2498198595521,0.158333333333333,-0.249812699480274,0.158332127935112,0.249998194864864,0.158185174870063,0.166581018680619,0.2105221564795,0.660452529808212,0.656192241073618,0.04,0.0562738610400956,315.606633832563,0.748261982380109,0.309918227319476
11471,0.249999271547095,-0.25,-0.2490443162145,-0.249998661907109,0.249990153808348,-0.25,-0.0143805673773807,0.0348546284809735,0.681364372453143,0.656192241073618,0.04,0.0141730593965776,324.627627343811,0.606194245629083,0.393485147755088
