time,bias_percent_1,bias_percent_2,bias_percent_3,bias_percent_4,bias_percent_5,bias_percent_6,bias_percent_8,bias_percent_9,normalized_power,power_SP,SP,CV,total_power_MW,fuel_fraction,thermal_efficiency
43,0,0,0,0,0,0,0,0,0.999755628426559,1,0.04,0.0399340317022644,476.987364266985,0.999877875603907,0.350521443807202
103,0,0,0,0,0,0,0,0,0.999971884882008,1,0.04,0.0399040308679913,477.087064959226,1.00027340732325,0.350456076957205
163,0,0,0,0,0,0,0,0,0.999997335157132,1,0.04,0.0399448540659432,477.09879009888,1.00031676202819,0.350449500466114
223,0,0,0,0,0,0,0,0,1.00000131262421,1,0.04,0.0399745737439209,477.100642600962,1.00031438054982,0.350451695537104
283,0,0,0,0,0,0,0,0,1.00000284149482,1,0.04,0.0399923367661424,477.101364663405,1.00030001785911,0.350457257851424
343,0,0,0,0,0,0,0,0,1.00000368109155,1,0.04,0.0400023962291441,477.101760631932,1.00027936184454,0.350464785746621
403,0,0,0,0,0,0,0,0,1.00000398474671,1,0.04,0.0400076136798808,477.101901666953,1.00025583402368,0.350473132912909
463,0,0,0,0,0,0,0,0,1.00000387419074,1,0.04,0.0400097698004779,477.101846219404,1.00023219159111,0.350481376294777
523,0,0,0,0,0,0,0,0,1.00000349451501,1,0.04,0.0400100342682236,477.101663484207,1.0002103464318,0.350488896765022
583,0,0,0,0,0,0,0,0,1.00000297411867,1,0.04,0.0400092043779527,477.10141458323,1.00019139179154,0.350495356033382
643,0,0,0,0,0,0,0,0,1.00000240970266,1,0.04,0.0400078244422242,477.101145153601,1.00017577309669,0.35050063141583
703,0,0,0,0,0,0,0,0,1.00000186551568,1,0.04,0.0400062548716253,477.100885910718,1.00016348603011,0.350504746882281
763,0,0,0,0,0,0,0,0,1.00000137944204,1,0.04,0.0400047216875066,477.100654574538,1.00015424773032,0.350507814496877
823,0,0,0,0,0,0,0,0,1.00000096980973,1,0.04,0.0400033532986891,477.100459731659,1.00014762933921,0.350509990807616
883,0,0,0,0,0,0,0,0,1.00000064069178,1,0.04,0.0400022098675644,477.100303355152,1.0001431505624,0.350511445553759
943,0,0,0,0,0,0,0,0,1.00000038819144,1,0.04,0.0400013063305462,477.100183474008,1.00014033998445,0.350512342481894
1003,0,0,0,0,0,0,0,0,1.00000020326992,1,0.04,0.0400006296929611,477.100095754254,1.00013877223598,0.350512827475451
1063,0,0,0,0,0,0,0,0,1.00000007468332,1,0.04,0.0400001515595227,477.100034807175,1.0001380857868,0.350513023275236
1123,0,0,0,0,0,0,0,0,0.999999990923147,1,0.04,0.0399998370305089,477.099995155195,1.0001379881592,0.350513028358975
1183,0,0,0,0,0,0,0,0,0.999999941260956,1,0.04,0.0399996504743573,477.099971693409,1.00013825334726,0.350512918183191
1243,0,0,0,0,0,0,0,0,0.999999916331528,1,0.04,0.0399995589830992,477.099959958447,1.00013871454943,0.350512747926927
1303,0,0,0,0,0,0,0,0,0.999999908396353,1,0.04,0.0399995342522934,477.099956283966,1.00013925474958,0.350512555906709
1363,0,0,0,0,0,0,0,0,0.999999911374055,1,0.04,0.0399995532020212,477.099957770813,1.00013979678812,0.350512367034298
1423,0,0,0,0,0,0,0,0,0.999999920673056,1,0.04,0.0399995979694925,477.099962242097,1.00014029405808,0.350512196044404
1483,0,0,0,0,0,0,0,0,0.999999932979118,1,0.04,0.0399996553639691,477.099968127812,1.0001407222953,0.350512050287228
1543,0,0,0,0,0,0,0,0,0.999999946068834,1,0.04,0.0399997162328444,477.099974372282,1.00014107268814,0.350511932075276
1603,0,0,0,0,0,0,0,0,0.999999958524096,1,0.04,0.039999774609488,477.099980305644,1.00014134651463,0.350511840468459
1663,0,0,0,0,0,0,0,0,0.999999969546205,1,0.04,0.0399998270057754,477.099985551178,1.00014155099604,0.350511772659194
1723,0,0,0,0,0,0,0,0,0.999999978779012,1,0.04,0.0399998717387935,477.099989941217,1.00014169631745,0.350511724954782
1783,0,0,0,0,0,0,0,0,0.999999986156413,1,0.04,0.0399999083706031,477.099993446677,1.00014179359283,0.350511693438813
1843,0,0,0,0,0,0,0,0,0.99999999179816,1,0.04,0.0399999372664142,477.099996125235,1.00014185354974,0.350511674394055
1903,0,0,0,0,0,0,0,0,0.999999995920287,1,0.04,0.0399999592534421,477.099998080898,1.00014188578256,0.350511664534451
1963,0,0,0,0,0,0,0,0,0.999999998782876,1,0.04,0.0399999753760984,477.099999437683,1.00014189839027,0.350511661112719
2023,0,0,0,0,0,0,0,0,1.00000000064761,1,0.04,0.0399999867291352,477.10000032045,1.0001418978916,0.350511661936027
2083,0,0,0,0,0,0,0,0,1.00000000175627,1,0.04,0.039999994350291,477.100000844278,1.00014188930438,0.350511665330361
2143,0,0,0,0,0,0,0,0,1.00000000231802,1,0.04,0.039999999159981,477.100001108597,1.00014187632128,0.35051167007463
2203,0,0,0,0,0,0,0,0,1.00000000250372,1,0.04,0.0400000019339872,477.100001195046,1.00014186152854,0.350511675322437
2263,0,0,0,0,0,0,0,0,1.00000000244986,1,0.04,0.0400000032984207,477.100001167693,1.00014184662665,0.350511680524886
2323,0,0,0,0,0,0,0,0,1.00000000225615,1,0.04,0.0400000037392833,477.1000010738,1.00014183264568,0.350511685355703
2383,0,0,0,0,0,0,0,0,1.00000000199285,1,0.04,0.0400000036181084,477.100000948978,1.00014182012583,0.350511689651733
2443,0,0,0,0,0,0,0,0,1.00000000171728,1,0.04,0.0400000031961827,477.100000816826,1.00014180925676,0.35051169336384
2503,0,0,0,0,0,0,0,0,1.00000000144949,1,0.04,0.0400000026464594,477.100000689533,1.00014180002749,0.350511696504831
2563,0,0,0,0,0,0,0,0,1.00000000121362,1,0.04,0.0400000020827252,477.100000577243,1.00014179228009,0.350511699137502
2623,0,0,0,0,0,0,0,0,1.0000000010159,1,0.04,0.0400000015705435,477.100000483205,1.00014178579965,0.350511701339562
2683,0,0,0,0,0,0,0,0,1.00000000085713,1,0.04,0.0400000011419153,477.100000407807,1.00014178035065,0.350511703193839
2743,0,0,0,0,0,0,0,0,1.0000000007358,1,0.04,0.0400000008076872,477.100000350215,1.00014177570404,0.350511704779986
2803,0,0,0,0,0,0,0,0,1.00000000064667,1,0.04,0.0400000005640762,477.10000030787,1.0001417716569,0.350511706167247
2863,0,0,0,0,0,0,0,0,1.00000000058365,1,0.04,0.040000000400079,477.10000027807,1.00014176803846,0.35051170741348
2923,0,0,0,0,0,0,0,0,1.00000000054205,1,0.04,0.0400000003014122,477.100000258293,1.00014176471056,0.350511708565253
2983,0,0,0,0,0,0,0,0,1.00000000051627,1,0.04,0.040000000252949,477.100000246142,1.00014176156854,0.350511709657484
3043,0,0,0,0,0,0,0,0,1.00000000050116,1,0.04,0.0400000002409437,477.100000239149,1.0001417585361,0.350511710715102
3103,0,0,0,0,0,0,0,0,1.00000000049435,1,0.04,0.0400000002533094,477.100000235835,1.00014175555886,0.350511711756077
3163,0,0,0,0,0,0,0,0,1.00000000049216,1,0.04,0.040000000280454,477.100000234817,1.00014175260303,0.350511712791233
3223,0,0,0,0,0,0,0,0,1.00000000049288,1,0.04,0.0400000003149249,477.100000235169,1.00014174964794,0.35051171382714
3283,0,0,0,0,0,0,0,0,1.00000000049459,1,0.04,0.0400000003514779,477.100000236094,1.00014174668382,0.350511714866633
3343,0,0,0,0,0,0,0,0,1.0000000004968,1,0.04,0.0400000003866054,477.100000237038,1.00014174370701,0.350511715910585
3403,0,0,0,0,0,0,0,0,1.00000000049848,1,0.04,0.0400000004180857,477.1000002379,1.0001417407194,0.350511716958261
3463,0,0,0,0,0,0,0,0,1.00000000049931,1,0.04,0.0400000004445513,477.100000238175,1.0001417377249,0.350511718007922
3523,0,0,0,0,0,0,0,0,1.00000000049927,1,0.04,0.0400000004659586,477.100000238026,1.00014173472852,0.35051171905793
3583,0,0,0,0,0,0,0,0,1.00000000049841,1,0.04,0.0400000004828416,477.100000237765,1.00014173173564,0.350511720106629
3643,0,0,0,0,0,0,0,0,1.00000000049682,1,0.04,0.0400000004948344,477.100000236996,1.00014172875139,0.350511721151929
3703,0,0,0,0,0,0,0,0,1.00000000049395,1,0.04,0.040000000502609,477.100000235634,1.0001417257809,0.350511722191973
3763,0,0,0,0,0,0,0,0,1.00000000049141,1,0.04,0.0400000005077552,477.100000234402,1.00014172282635,0.350511723226525
3823,0,0,0,0,0,0,0,0,1.00000000048775,1,0.04,0.0400000005099889,477.100000232679,1.00014171989222,0.350511724253561
3883,0,0,0,0,0,0,0,0,1.00000000048419,1,0.04,0.0400000005101046,477.10000023095,1.00014171697971,0.350511725273015
3943,0,0,0,0,0,0,0,0,0.995070284759223,0.991909846920025,0.04,0.0420413802490471,474.671085324734,0.987874560171805,0.353057671079696
4003,0,0,0,0,0,0,0,0,0.984337929340811,0.980621261227037,0.04,0.0446088983939347,469.537800197138,0.965380433566333,0.357377120262804
4063,0,0,0,0,0,0,0,0,0.972903279077031,0.969332675534049,0.04,0.045846437399577,464.080622344957,0.942990763641897,0.361610199996176
4123,0,0,0,0,0,0,0,0,0.961371369787925,0.958044089841061,0.04,0.0461345023329086,458.578477327333,0.921947538844949,0.36547875339432
4183,0,0,0,0,0,0,0,0,0.949824106057697,0.946755504148073,0.04,0.0458701498471208,453.069259585422,0.902439897521955,0.368893485093503
4243,0,0,0,0,0,0,0,0,0.938281626096305,0.935466918455085,0.04,0.0453174392320514,447.562437918912,0.884472602653305,0.371812445255613
4303,0,0,0,0,0,0,0,0,0.926756335155083,0.924178332762097,0.04,0.0446457998692538,442.063900283987,0.867966005363936,0.374228631444303
4363,0,0,0,0,0,0,0,0,0.915256891516828,0.912889747069109,0.04,0.0439636221154297,436.577742834393,0.852780918507059,0.376165354074271
4423,0,0,0,0,0,0,0,0,0.903788187750523,0.901601161376121,0.04,0.0433377318534436,431.106282205169,0.83874112353376,0.377668784758796
4483,0,0,0,0,0,0,0,0,0.892351839030895,0.890312575683133,0.04,0.0428052649309426,425.650256590452,0.825654301435148,0.378799439757737
4543,0,0,0,0,0,0,0,0,0.880946836589543,0.879023989990145,0.04,0.0423819256966352,420.209166379762,0.813329229042809,0.379624137343186
4603,0,0,0,0,0,0,0,0,0.869570367798392,0.867735404297157,0.04,0.0420684012498452,414.781671331769,0.801588170150337,0.380209473926084
4663,0,0,0,0,0,0,0,0,0.858218540459166,0.856446818604169,0.04,0.0418554711957035,409.365883502757,0.790274942856297,0.380616937057119
4723,0,0,0,0,0,0,0,0,0.846886869874987,0.845158232911181,0.04,0.0417281196113322,403.959687651904,0.779259319170456,0.380899760242004
4783,0,0,0,0,0,0,0,0,0.835570840055596,0.833869647218193,0.04,0.0416687354634699,398.560924145689,0.768438203939608,0.381101313153446
4843,0,0,0,0,0,0,0,0,0.824266260711958,0.822581061525205,0.04,0.0416594356517144,393.167577236111,0.757734517647135,0.381254783322494
4903,0,0,0,0,0,0,0,0,0.812969393861622,0.811292475832217,0.04,0.0416836622576158,387.777889847503,0.747094658667051,0.381383664981864
4963,0,0,0,0,0,0,0,0,0.801677175747757,0.800003890139229,0.04,0.0417271816922946,382.390398923145,0.736484752093111,0.381502945973721
5023,0,0,0,0,0,0,0,0,0.790387201478662,0.788715304446241,0.04,0.0417785716509503,377.00396001086,0.725886728082555,0.381620531746228
5083,0,0,0,0,0,0,0,0,0.779097691313467,0.777426718753253,0.04,0.0418292486885703,371.617736097056,0.715294482630275,0.381738738847926
5143,0,0,0,0,0,0,0,0,0.76780746556195,0.766138133060265,0.04,0.0418733623258635,366.23115995528,0.70471012618301,0.381855857384905
5203,0,0,0,0,0,0,0,0,0.75651582321574,0.754849547367276,0.04,0.0419074611576702,360.843904919883,0.694140940458135,0.381967480796207
5263,0,0,0,0,0,0,0,0,0.745222442859735,0.743560961674289,0.04,0.0419300253833417,355.455816730461,0.68359689264599,0.382067610130649
5323,0,0,0,0,0,0,0,0,0.733927265812915,0.7322723759813,0.04,0.0419410458328598,350.066876661043,0.673088762172651,0.382149553376642
5383,0,0,0,0,0,0,-2.8421709430404e-17,-2.8421709430404e-17,0.722645695262635,0.720983790288312,0.04,0.0419507064245263,344.684706948748,0.662588488089839,0.382237071535941
5443,0,0,0,0,0,0,0,0,0.711386007541529,0.709695204595324,0.04,0.0419963278040859,339.312727491872,0.651939245720787,0.382426255178412
5503,0,0,0,0,0,0,0,0,0.700122694407957,0.698406618902336,0.04,0.0420609987778316,333.938948013224,0.641126949683831,0.382716968734303
5563,0,0,0,0,0,0,0,0,0.688852381775032,0.687118033209348,0.04,0.0421213261586618,328.561821399133,0.630190266659135,0.383089353403648
5623,0,0,0,0,0,0,0,0,0.677574766463789,0.67582944751636,0.04,0.0421639805412898,323.181216788142,0.61917280092873,0.383520795634793
5683,0,0,0,0,0,0,0,0,0.666290160273359,0.664540861823372,0.04,0.0421833272563398,317.797276529179,0.608117379453342,0.383987805079588
5743,0,0,0,0,0,0,0,0,0.654999271497757,0.653252276130384,0.04,0.0421789437140709,312.410348913329,0.597063359656159,0.384467530183009
5803,0,0,0,0,0,0,0,0,0.648532531369022,0.650053843517371,0.04,0.0385978412566333,309.403584902505,0.599061749832601,0.379497069770346
5863,0,0,0,0,0,0,0,0,0.64801601684475,0.650053843517371,0.04,0.0346377676552978,309.16789202331,0.610861825417691,0.371882785703242
5923,0,0,0,0,0,0,0,0,0.64807278587344,0.650053843517371,0.04,0.0333213101876865,309.196940056454,0.622977077881407,0.364684912440522
5983,0,0,0,0,0,0,0,0,0.648338368924777,0.650053843517371,0.04,0.0337249150502987,309.324834687943,0.633887285295413,0.358556355705298
6043,0,0,0,0,0,0,2.8421709430404e-17,2.8421709430404e-17,0.648694589466962,0.650053843517371,0.04,0.0350236102871316,309.495180067227,0.64279782562618,0.353780724656057
6103,0,0,0,0,0,0,0,0,0.649071936791891,0.650053843517371,0.04,0.036623077893762,309.675163428888,0.649459881785442,0.350355324949741
6163,0,0,0,0,0,0,0,0,0.649421610115229,0.650053843517371,0.04,0.0381635535823169,309.841619937641,0.653946634948789,0.348138554317444
6223,0,0,0,0,0,0,0,0,0.649712325024209,0.650053843517371,0.04,0.0394489344335769,309.979778312215,0.65655756620035,0.346908730030931
6283,0,0,0,0,0,0,0,0,0.649931596270483,0.650053843517371,0.04,0.0403970265191365,310.083815986017,0.657704216095027,0.346420153987987
6343,0,0,0,0,0,0,0,0,0.650080858164755,0.650053843517371,0.04,0.0410022273713096,310.154503619557,0.657814993998123,0.346440773530362
6403,0,0,0,0,0,0,0,0,0.650169543313704,0.650053843517371,0.04,0.0413056020930803,310.196383101257,0.657275379376146,0.346772014486044
6463,0,0,0,0,0,0,0,0,0.650210483316731,0.650053843517371,0.04,0.0413716030799306,310.21559081539,0.656398980779707,0.347256512290202
6523,0,0,0,0,0,0,0,0,0.65021699213249,0.650053843517371,0.04,0.0412712171408422,310.218473739561,0.655419408702717,0.347778744437345
6583,0,0,0,0,0,0,0,0,0.650201193540041,0.650053843517371,0.04,0.0410708938728667,310.210802624593,0.654494502610394,0.348261599726112
6643,0,0,0,0,0,0,0,0,0.650173188300401,0.650053843517371,0.04,0.0408261556144467,310.197378805547,0.653717079748354,0.34866067609128
6703,0,0,0,0,0,0,0,0,0.650140740370586,0.650053843517371,0.04,0.0405788233159939,310.181887464892,0.653128525545811,0.34895743705145
6763,0,0,0,0,0,0,0,0,0.650109297197523,0.650053843517371,0.04,0.0403568264102731,310.166910146076,0.65273286515347,0.349152101172225
6823,0,0,0,0,0,0,0,0,0.650082229800476,0.650053843517371,0.04,0.040175711122078,310.154039825648,0.652509797659969,0.349256969617074
6883,0,0,0,0,0,0,0,0,0.650061193209645,0.650053843517371,0.04,0.0400410902211044,310.144054037355,0.65242577737477,0.349290701204965
6943,0,0,0,0,0,0,0,0,0.650046545656318,0.650053843517371,0.04,0.0399514099996504,310.137115287074,0.652442662692581,0.349273847144151
7003,0,0,0,0,0,0,0,0,0.650037765488318,0.650053843517371,0.04,0.0399006085484755,310.132969169893,0.652523838259615,0.3492257278784
7063,0,0,0,0,0,0,0,0,0.650033822272303,0.650053843517371,0.04,0.039880380477936,310.131121489227,0.652637998241007,0.349162560803816
7123,0,0,0,0,0,0,0,0,0.650033478978652,0.650053843517371,0.04,0.0398819123222419,310.130981234428,0.652760966042067,0.349096627314613
7183,0,0,0,0,0,0,0,0,0.650035511227858,0.650053843517371,0.04,0.0398970692119639,310.13196511991,0.652876027146202,0.349036210777957
7243,0,0,0,0,0,0,0,0,0.650038848301299,0.650053843517371,0.04,0.0399190845003666,310.133563878225,0.652973258086544,0.348986036609083
7303,0,0,0,0,0,0,0,0,0.65004264542906,0.650053843517371,0.04,0.0399428472932681,310.135376391693,0.653048288629998,0.348947979972385
7363,0,0,0,0,0,0,0,0,0.65004630322543,0.650053843517371,0.04,0.0399648961682738,310.137118640667,0.65310084715503,0.348921858387447
7423,0,0,0,0,0,0,0,0,0.65004945089088,0.650053843517371,0.04,0.0399832259076036,310.138615387285,0.653133340320583,0.348906183482632
7483,0,0,0,0,0,0,0,0,0.650051908486036,0.650053843517371,0.04,0.0399969946648488,310.139782107478,0.65314962362232,0.34889879762944
7543,0,0,0,0,0,0,0,0,0.650053639753296,0.650053843517371,0.04,0.0400062026383612,310.140602476775,0.653154040618872,0.348897361065545
7603,0,0,0,0,0,0,0,0,0.655653485414934,0.659487676126583,0.04,0.0362892922678557,312.904277716525,0.668399512397086,0.343977513113891
7663,0,0,0,0,0,0,0,0,0.668414863408689,0.672651163488275,0.04,0.032499865176434,319.006497344658,0.694454039564594,0.337528691981339
7723,0,0,0,0,0,0,0,0,0.681798458576927,0.685814650849966,0.04,0.0315461278711048,325.392839789761,0.719719313115567,0.332199910885103
7783,0,0,0,0,0,0,0,0,0.695264519505441,0.698978138211657,0.04,0.0320961088921629,331.818052601972,0.743314940743798,0.328006027288018
7843,0,0,0,0,0,0,0,0,0.708787924463544,0.712141625573349,0.04,0.0332891147224564,338.270366841273,0.764851910774367,0.324968506659739
7903,0,0,0,0,0,0,0,0,0.722321242494717,0.72530511293504,0.04,0.0346501659152256,344.726973636358,0.784162849025429,0.323015736033499
7963,0,0,0,0,0,0,0,0,0.735816274094363,0.738468600296732,0.04,0.0359132414263229,351.165012951134,0.801386550639023,0.321976271376511
8023,0,0,0,0,0,0,0,0,0.749245808036489,0.751632087658423,0.04,0.0369452620166823,357.5716687886,0.816871810202263,0.321635419501397
8083,0,0,0,0,0,0,0,0,0.762603060689769,0.764795575020115,0.04,0.0377027695315738,363.943855845881,0.831046859810287,0.321783340166658
8143,0,0,0,0,0,0,0,0,0.775894044473243,0.777959062381806,0.04,0.0381982339603959,370.284494877431,0.844326042783826,0.322240422434827
8203,0,0,0,0,0,0,0,0,0.789130518678917,0.791122549743498,0.04,0.0384734409144061,376.599237921342,0.857062064505851,0.322865648517386
8263,0,0,0,0,0,0,0,0,0.802325568834515,0.804286037105189,0.04,0.0385806453506741,382.894319437729,0.869530216008215,0.323555600328433
8323,0,0,0,0,0,0,0,0,0.815491305250057,0.81744952446688,0.04,0.0385709612251483,389.175500719911,0.881930385210831,0.324239457054257
8383,0,0,0,0,0,0,0,0,0.828637846992629,0.830613011828572,0.04,0.0384881711443324,395.447601527129,0.894397398896756,0.324872607774029
8443,0,0,0,0,0,0,0,0,0.841773085115444,0.843776499190263,0.04,0.0383665119552736,401.714355622221,0.907014137181941,0.325430289052943
8503,0,0,0,0,0,0,0,0,0.854902794685158,0.856939986551955,0.04,0.0382306192197129,407.978510405233,0.919824622975452,0.325901930554948
8563,0,0,0,0,0,0,0,0,0.868030902625034,0.870103473913646,0.04,0.0380967136893663,414.241931202135,0.932845651894823,0.326286377631554
8623,0,0,0,0,0,0,0,0,0.88115990592086,0.883266961275338,0.04,0.0379743408816002,420.505798061362,0.946076330425537,0.326588198765353
8683,0,0,0,0,0,0,0,0,0.894291135084927,0.896430448637029,0.04,0.0378680611125475,426.770726216123,0.95950557107072,0.32681486165251
8743,0,0,0,0,0,0,0,0,0.907425167622395,0.909593935998721,0.04,0.0377790427450529,433.03699234034,0.973117421815678,0.326974907913871
8803,0,0,0,0,0,0,0,0,0.920562007609141,0.922757423360412,0.04,0.0377063763563747,439.304603580371,0.986894802909704,0.327076670904852
8863,0,0,0,0,0,0,0,0,0.933701458677029,0.935920910722103,0.04,0.0376481079789954,445.573376889402,1.00082160759685,0.327127637258386
8923,0,0,0,0,0,0,0,0,0.941177868703093,0.939650565474583,0.04,0.0399696778329334,449.051620799807,1.00031117395557,0.329849495701163
8983,0,0,0,0,0,0,0,0,0.941859783298471,0.939650565474583,0.04,0.0428777002771512,449.361109401739,0.987501536093442,0.33435850867309
9043,0,0,0,0,0,0,0,0,0.941656743819307,0.939650565474583,0.04,0.0441863870776193,449.262058673378,0.974917369386298,0.338599732896717
9103,0,0,0,0,0,0,0,0,0.941338877640724,0.939650565474583,0.04,0.044381476428476,449.110193369594,0.964123416129951,0.342274825445354
9163,0,0,0,0,0,0,0,0,0.941018881752025,0.939650565474583,0.04,0.0439717604807146,448.957629744356,0.955264212189784,0.345331762393816
9223,0,0,0,0,0,0,0,0,0.940719550479693,0.939650565474583,0.04,0.0432853289232357,448.815033659699,0.948250185593663,0.347775621714356
9283,0,0,0,0,0,0,0,0,0.940451925750229,0.939650565474583,0.04,0.0425191307515097,448.687634798295,0.942911318212704,0.349645488290898
9343,0,0,0,0,0,0,0,0,0.940222815944152,0.939650565474583,0.04,0.041787296644313,448.57864949176,0.939028435455971,0.351005993100334
9403,0,0,0,0,0,0,0,0,0.94003494744852,0.939650565474583,0.04,0.0411506846764398,448.489346632557,0.936357710109573,0.351937072151287
9463,0,0,0,0,0,0,0,0,0.93988750924931,0.939650565474583,0.04,0.0406352566731917,448.419314120841,0.934653343366286,0.352523783438933
9523,0,0,0,0,0,0,0,0,0.939777093624162,0.939650565474583,0.04,0.0402445654017181,448.366910511842,0.933685185572765,0.352848083068173
9583,0,0,0,0,0,0,0,0,0.939698722056709,0.939650565474583,0.04,0.0399686496907352,448.329751625613,0.933250213178713,0.352983283396931
9643,0,0,0,0,0,0,0,0,0.939646712257429,0.939650565474583,0.04,0.0397904346470437,448.305123409363,0.933178441202944,0.35299103978847
9703,0,0,0,0,0,0,0,0,0.939615350625384,0.939650565474583,0.04,0.0396901867654523,448.290302900615,0.933334386192022,0.352920393156589
9763,0,0,0,0,0,0,0,0,0.939599352812062,0.939650565474583,0.04,0.0396484340507204,448.28277319086,0.933615330105303,0.352808266160252
9823,0,0,0,0,0,0,0,0,0.939594141782163,0.939650565474583,0.04,0.0396476969707442,448.280356491623,0.933947565282408,0.352680859598424
9883,0,0,0,0,0,0,0,0,0.939595967404016,0.939650565474583,0.04,0.0396733473777075,448.281270559187,0.934281610752583,0.35255548004717
9943,0,0,0,0,0,0,0,0,0.939601917579591,0.939650565474583,0.04,0.03971386357476,448.284132588796,0.934587156174704,0.352442468903167
10003,0,0,0,0,0,0,0,0,0.939609851720253,0.939650565474583,0.04,0.0397606934368887,448.287926924238,0.934848270692231,0.352347009711296
10063,0,0,0,0,0,0,0,0,0.93961828944996,0.939650565474583,0.04,0.0398078968842805,448.291952138565,0.935059197635794,0.35227069171017
10123,0,0,0,0,0,0,0,0,0.939626286817166,0.939650565474583,0.04,0.0398516855467706,448.29576151838,0.935220878684438,0.352212784046794
10183,0,0,0,0,0,0,0,0,0.939633308701769,0.939650565474583,0.04,0.0398899448777863,448.299102691755,0.935338245003008,0.352171213090368
10243,0,0,0,0,0,0,0,0,0.939639116989778,0.939650565474583,0.04,0.0399217885071531,448.301863781786,0.935418212524038,0.352143275343179
10303,0,0,0,0,0,0,0,0,0.933992882066489,0.930354677209067,0.04,0.0424747407468535,445.51931945514,0.921273784060227,0.355330514549576
10363,0,0,0,0,0,0,0,0,0.921622890431938,0.917383670326952,0.04,0.0456537963909116,439.602783315832,0.895537261486968,0.360687796844529
10423,0,0,0,0,0,0,0,0,0.908456980182321,0.904412663444838,0.04,0.047143374046958,433.319492554204,0.870113305645632,0.36592079624809
10483,0,0,0,0,0,0,0,0,0.895190122634545,0.891441656562723,0.04,0.0474269551188006,426.989624693749,0.846351940195579,0.370698650059908
10543,0,0,0,0,0,0,0,0,0.881908971154262,0.878470649680608,0.04,0.0470072840595581,420.653165979834,0.824436511848201,0.374905335395217
10603,0,0,0,0,0,0,0,0,0.868633195374414,0.865499642798493,0.04,0.0462210884177615,414.319394859365,0.804368200764871,0.378473125560306
10663,0,0,0,0,0,0,0,0,0.855376627633853,0.852528635916379,0.04,0.0452885258719715,407.994886932578,0.786058939795475,0.381376813231084
10723,0,0,0,0,0,0,0,0,0.842150139172744,0.839557629034264,0.04,0.0443542355892068,401.684802611754,0.769348734891795,0.383633773117503
10783,0,0,0,0,0,0,0,0,0.828960732173042,0.826586622152149,0.04,0.0435098507858716,395.392446948828,0.754027450860012,0.385297231288888
10843,0,0,0,0,0,0,0,0,0.815811434923439,0.813615615270034,0.04,0.042807271256792,389.119243155622,0.739858743280645,0.386445784653168
10903,0,0,0,0,0,0,0,0,0.802701910907989,0.80064460838792,0.04,0.0422682877835614,382.86499519988,0.72660174324596,0.387171964459534
10963,0,0,0,0,0,0,0,0,0.789629137871604,0.787673601505805,0.04,0.0418924686225688,376.628250625382,0.714028662382383,0.38757158035864
11023,0,0,0,0,0,0,0,0,0.77658829824249,0.77470259462369,0.04,0.0416642078354785,370.406696357019,0.701937298858033,0.387735160672266
11083,0,0,0,0,0,0,0,0,0.763573507978897,0.761731587741575,0.04,0.0415587395059643,364.197523232988,0.690158940388801,0.387741732098992
11143,0,0,0,0,0,0,2.8421709430404e-17,2.8421709430404e-17,0.750578627292216,0.748760580859461,0.04,0.0415472012698374,357.99779736583,0.678561557236848,0.38765534739329
11203,0,0,0,0,0,0,0,0,0.737608942036541,0.735789573977346,0.04,0.0416061583949762,351.810316648931,0.667024935114667,0.387544143037118
11263,0,0,0,0,0,0,0,0,0.72467707142721,0.722818567095231,0.04,0.041748439113593,345.640637291621,0.65531254807345,0.387552898656124
11323,0,0,0,0,0,0,0,0,0.711749567045602,0.709847560213116,0.04,0.0419398998631301,339.472908319502,0.64334017599535,0.387720821117937
11383,0,0,0,0,0,0,0,0,0.698817579334641,0.696876553331002,0.04,0.0421360528160872,333.303006774396,0.631122125374649,0.38804357961581
11443,0,0,0,0,0,0,0,0,0.685877556788362,0.683905546448887,0.04,0.0423068746309517,327.129245838205,0.618700415060467,0.388502342132082
11503,0,0,0,0,0,0,0,0,0.672927588853945,0.670934539566772,0.04,0.0424352176582234,320.95073318022,0.606131499397493,0.389068610917984
11563,0,0,0,0,0,0,0,0,0.659967135609216,0.657963532684657,0.04,0.0425139319470276,314.767221011043,0.593477775664145,0.38970835412011
11623,0,0,0,0,0,0,0,0,0.629239725741385,0.615306066832428,0.04,0.0567717344140918,299.817911473368,0.533098730554535,0.413242140543206
11683,5.6843418860808e-17,5.6843418860808e-17,5.6843418860808e-17,5.6843418860808e-17,5.6843418860808e-17,5.6843418860808e-17,0,0,0.599657277661245,0.599894441181132,0.04,0.0545871314379822,286.051507178896,0.501552126406573,0.419066399390136
11743,0,0,0,0,0,0,0,0,0.597511853810324,0.599894441181132,0.04,0.0378062764767516,285.066603731904,0.513648497338206,0.407788520489957
11803,0,0,0,0,0,0,0,0,0.596909320814741,0.599894441181132,0.04,0.0289639377350662,284.781992084019,0.530493852048786,0.394445353707567
11863,0,0,0,0,0,0,0,0,0.596661254328766,0.599894441181132,0.04,0.0260509970235093,284.666647121217,0.549574632353933,0.380596319667526
11923,0,0,0,0,0,0,0,0,0.59677940919257,0.599894441181132,0.04,0.0267308603737516,284.72571741591,0.568677097291215,0.367888010365317
11983,0,0,0,0,0,0,0,0,0.597196640455646,0.599894441181132,0.04,0.0292427557171299,284.926790600164,0.585846424451603,0.357358551281469
12043,0,0,0,0,0,0,0,0,0.597810837229882,0.599894441181132,0.04,0.0324518451530428,285.220883859078,0.599674445077719,0.349478494142418
12103,0,0,0,0,0,0,0,0,0.598494873955594,0.599894441181132,0.04,0.0356723395685304,285.547286685604,0.609479293383442,0.344249849214576
