time,bias_percent_1,bias_percent_2,bias_percent_3,bias_percent_4,bias_percent_5,bias_percent_6,bias_percent_8,bias_percent_9,normalized_power,power_SP,SP,CV,total_power_MW,fuel_fraction,thermal_efficiency
53,0,0,0,0,0,0,0,0,0.999826158240441,1,0.04,0.0399095806184678,477.019946416568,1.00000717992864,0.3505000605879
113,-0.0226590745964334,-0.00575769287019205,-0.0304079729664764,-0.0207802336544244,-0.0093385869106171,0.0174044737115104,0.0237153031362537,0.0117145225998492,0.969992296997979,0.95432472806218,0.04,0.0510187004066466,462.411137547748,0.92712656701217,0.366474647768043
173,-0.0483108571584335,-0.0122758357421075,-0.0648320933058836,-0.0443050264707539,-0.0199105720924479,0.0371076514981257,0.0505628161206918,0.0249762462977917,0.919455975842889,0.902616873038233,0.04,0.0625159787496873,438.251356623925,0.823342015164622,0.391108871723232
233,-0.0739626397204336,-0.0187939786140229,-0.0992562136452909,-0.0678298192870834,-0.0304825572742785,0.0568108292847412,0.07741032910513,0.0382379699957341,0.866485958761004,0.850909018014286,0.04,0.0682341981304243,412.979315227248,0.724620569750247,0.41876687194589
293,-0.0996144222824337,-0.0253121214859384,-0.133680333984698,-0.0913546121034129,-0.0410545424561092,0.0765140070713564,0.104257842089568,0.0514996936936766,0.813543051039038,0.799201162990338,0.04,0.0692797886136829,387.720335869528,0.633454123492586,0.449736451609503
353,-0.125266204844434,-0.0318302643578537,-0.168104454324105,-0.114879404919742,-0.0516265276379398,0.0962171848579719,0.131105355074006,0.0647614173916191,0.760768770165548,0.747493307966391,0.04,0.0662865374841326,362.73454393975,0.550587321894294,0.484080273930466
413,-0.150917987406434,-0.0383484072297692,-0.202528574663513,-0.138404197736072,-0.0621985128197706,0.115920362644587,0.157952868058444,0.0780231410895615,0.707961836826343,0.695785452942444,0.04,0.060445617267003,337.54914112968,0.474922718002003,0.52223832397282
473,-0.176569769968434,-0.0448665501016847,-0.23695269500292,-0.161928990552401,-0.0727704980016013,0.135623540431203,0.184800381042883,0.091284864787504,0.65495629761921,0.644077597918497,0.04,0.0525673400542595,312.364212046412,0.405961749220258,0.565367489549027
533,-0.202221552530434,-0.0513846929736001,-0.271376815342327,-0.185453783368731,-0.083342483183432,0.155326718217818,0.211647894027321,0.104546588485446,0.601712385602003,0.59236974289455,0.04,0.042926177856879,287.061141380785,0.346236744745614,0.609194435345259
