time,bias_percent_1,bias_percent_2,bias_percent_3,bias_percent_4,bias_percent_5,bias_percent_6,bias_percent_8,bias_percent_9,normalized_power,power_SP,SP,CV,total_power_MW,fuel_fraction,thermal_efficiency
44,0,0,0,0,0,0,0,0,0.999759363429113,1,0.04,0.0399306678536721,476.989130639387,0.999885678514378,0.350520006442629
104,-0.0133039415810334,0.0207729214631206,-0.0177636437349904,-0.0140248504614107,0.0229369317364186,-0.00680966591238143,-0.0174120517214126,-0.011452268664104,0.978870587006041,0.964268547575059,0.04,0.0486541854674477,466.689359476225,0.9428294168694,0.363705150338652
164,-0.0314456801006244,0.0490996325491941,-0.0419867942827046,-0.0331496465451523,0.054214565922444,-0.0160955739747196,-0.0411557586142479,-0.0270689986606095,0.932733159219636,0.915543839722867,0.04,0.0607190247711797,444.593429161309,0.840350655095687,0.388738158567601
224,-0.0495874186202155,0.0774263436352676,-0.0662099448304189,-0.0522744426288942,0.0854922001084693,-0.0253814820370578,-0.0648994655070832,-0.0426857286571149,0.882827913532759,0.866819131870674,0.04,0.0674928077171356,420.801348840923,0.740015987301908,0.417821416604817
284,-0.0677291571398066,0.105753054721341,-0.0904330953781331,-0.0713992387126359,0.116769834294495,-0.034667390099396,-0.0886431723999186,-0.0583024586536204,0.832947844975067,0.818094424018482,0.04,0.069647516287238,397.002137818654,0.645999851649194,0.451559624706651
344,-0.0858708956593977,0.134079765807415,-0.114656245925847,-0.0905240347963776,0.14804746848052,-0.0439532981617342,-0.112386879292754,-0.0739191886501259,0.782938352623933,0.769369716166289,0.04,0.0679661760523712,373.141895745096,0.559473821601357,0.490059620861045
404,-0.104012634178989,0.162406476893488,-0.138879396473561,-0.109648830880119,0.179325102666545,-0.0532392062240725,-0.136130586185589,-0.0895359186466313,0.732867675777418,0.720645008314097,0.04,0.0623595245907217,349.573682637029,0.482326406632578,0.532540162474291
464,-0.12215437269858,0.190733187979562,-0.163102547021276,-0.128773626963861,0.210602736852571,-0.0625251142864107,-0.123271599363342,-0.105152648643137,0.681637207566517,0.671920300461905,0.04,0.0555656009256353,325.074414039751,0.415265897163427,0.575189828652325
524,-0.140296111218171,0.219059899065635,-0.18732569756899,-0.147898423047603,0.241880371038596,-0.0718110223487489,-0.0755301038240581,-0.0755301038240581,0.629648110020607,0.623195592609712,0.04,0.0483052300807659,300.25004538447,0.370154295770434,0.596011945487325
584,-0.158437849737762,0.247386610151709,-0.211548848116704,-0.167023219131345,0.273158005224622,-0.0810969304110871,-0.0438561007638594,-0.0438561007638594,0.580407825180234,0.57447088475752,0.04,0.0417069333136446,276.767394800186,0.334636933831335,0.607709086172719
