time,bias_percent_1,bias_percent_2,bias_percent_3,bias_percent_4,bias_percent_5,bias_percent_6,bias_percent_8,bias_percent_9,normalized_power,power_SP,SP,CV,total_power_MW,fuel_fraction,thermal_efficiency
19,0,0,0,0,0,0,0,0,0.999285853847964,1,0.04,0.0400790052136836,476.784392657539,0.999388959911275,0.350543694268593
79,0,0,0,0,0,0,0,0,0.999933014446554,1,0.04,0.0398940771991464,477.069172750402,1.00020281088217,0.350467668801074
139,0,0,0,0,0,0,0,0,0.999992606532737,1,0.04,0.0399290047234605,477.096606861435,1.00030992100004,0.350450293465822
199,0,0,0,0,0,0,0,0,1.00000030549061,1,0.04,0.039964375288054,477.100170106907,1.00031735941038,0.350450304854653
259,0,0,0,0,0,0,0,0,1.00000233314527,1,0.04,0.0399863672096821,477.101124305104,1.00030673215591,0.350454728943684
319,0,0,0,0,0,0,0,0,1.00000341469901,1,0.04,0.0399990827754061,477.101635312737,1.00028814770235,0.350461615444885
379,0,0,0,0,0,0,0,0,1.0000039208404,1,0.04,0.0400059763629774,477.101872601194,1.00026539564272,0.350469761360316
439,0,0,0,0,0,0,0,0,1.00000395877779,1,0.04,0.0400091897438116,477.101887513179,1.00024152028485,0.35047813788515
499,0,0,0,0,0,0,0,0,1.00000366979169,1,0.04,0.0400100978201778,477.101747630758,1.00021878222035,0.350486002576823
559,0,0,0,0,0,0,0,0,1.0000031922297,1,0.04,0.0400096282037677,477.101518744468,1.00019858606986,0.35049291149282
619,0,0,0,0,0,0,0,0,1.00000263602623,1,0.04,0.0400084159228324,477.101253162001,1.00018161257338,0.350498664394727
679,0,0,0,0,0,0,0,0,1.0000020777466,1,0.04,0.0400068883335124,477.100987017462,1.00016801473436,0.350503234094872
739,0.0791666342658699,0.0156012036598825,0.0785387360761843,0.0791666666666666,-0.00843624392066022,0.0791663858507347,0.0176411351454599,0.0743575408725755,0.991516684688698,1,0.04,0.0491779347434619,472.813010972168,1.01533592223536,0.34216402314178
799,0.249999897681695,0.0492669589259447,0.248017061293213,0.25,-0.0266407702757692,0.249999113212847,0.0557088478277683,0.234813286966028,0.987199786861482,1,0.04,0.0613045837290191,471.153071520461,1.11095164585303,0.311617289931509
859,0.249999914890078,-0.0454947263112155,0.248644991883696,0.249938877504697,0.0609621403115577,0.249992272316695,0.0846667522530993,0.239601286675162,0.995839539719103,1,0.04,0.0607412738678588,475.123070866521,1.14324074142908,0.305367703224364
919,0.24999995202396,-0.249980468138771,0.25,0.24980698159378,0.25,0.249977510382896,0.147154861802498,0.249933286047505,0.998915229845678,1,0.04,0.0605622152531939,476.621486187885,1.15930891883999,0.302084968589483
979,0.0916666543404481,-0.213052850603116,0.249997429189384,0.249859708231268,0.249734615437763,0.0916574079524405,0.179722488898373,0.249953929126928,1.00529299024464,1,0.04,0.0573380816305986,479.746349140231,1.14743184131754,0.307212906621095
1039,-0.249999935397656,-0.133366939078807,0.249991881650685,0.249973486764794,0.249161943487672,-0.249980707818543,0.25,0.249998474719368,1.01019625248684,1,0.04,0.0501367555870618,481.880012050797,1.08188247454693,0.327275506089136
1099,-0.0917386944387898,-0.170297064814408,0.249994446320701,0.249960287644134,0.249378070282216,-0.0916534916166041,0.25,0.249998957724902,0.999443969248971,1,0.04,0.0549095721797806,476.669032204973,1.05561726351597,0.331791404032125
1159,0.249772404472447,-0.249988388770179,0.24999998060863,0.24993180533113,0.249844449154655,0.249999974924421,0.25,0.25,0.993700071598672,1,0.04,0.0605792342265291,474.1886488018,1.10060437398964,0.316573527438533
1219,0.24982830546394,-0.161428997237678,0.249993592985208,0.249951189414486,0.249892175223654,0.249999982865021,0.091667580515072,0.249999999766942,1.00323928767649,1,0.04,0.0573744627225161,478.740139989628,1.10387959258596,0.318663861199855
1279,0.249948933919266,0.0296728476482444,0.249979809166245,0.249993018225939,0.249995163056759,0.25,-0.0672637732217444,0.249999999264026,1.00043428194584,1,0.04,0.060006564827347,477.273864783453,1.08368528465127,0.323607928537263
1339,0.249963987700934,-0.0588902207736995,0.249897433792792,0.0916618957877249,0.0916633614221187,0.25,0.0516144199368811,0.249917237979491,1.00218783789741,1,0.04,0.0505004366661493,478.257314590318,1.08444982768994,0.32404612552702
1399,0.249996472177163,-0.25,0.249719676407972,-0.25,-0.25,0.25,0.249999553497686,0.249738647839178,1.00896679966273,1,0.04,0.0369618692914169,481.299677101801,1.02982690631952,0.343404523910476
1459,0.249997589321061,-0.0916818840620526,0.249808445545447,-0.0916992455134747,-0.196445795038067,0.25,0.249999670845653,0.249821409356772,0.997546866118734,1,0.04,0.046122652255305,475.724403047888,1.01092220208854,0.345774029776234
1519,0.25,0.249951945067202,0.25,0.249897119431133,-0.0808814580149475,0.25,0.249999924070216,0.25,0.988806335564389,0.994403011540402,0.04,0.0592292704597356,471.755776652979,1.06282337743177,0.326145059904384
1579,0.25,0.249967051746984,0.249999990956986,0.093986717655869,-0.13378191841221,0.211371953290052,0.249999682244761,0.25,0.983520870266329,0.976728311141671,0.04,0.0567540559058752,469.23083655321,1.04900292949851,0.328673371866592
1639,0.25,0.249999650371774,0.249999971443113,-0.24245151775391,-0.247935543479986,0.128016694600166,0.249999160410885,0.25,0.971337947386339,0.95905361074294,0.04,0.0526269379188043,463.211384328736,0.970475666365564,0.350710889123112
1699,0.249555034280933,0.249999640389747,0.091666647152794,-0.087068177333065,-0.0903444891412919,0.166387746448474,0.249999426280771,0.127332913050744,0.948582681007968,0.941378910344209,0.04,0.0581410085900267,452.400806060278,0.918901205164045,0.361750570934619
1759,0.248594845097684,0.249999618849582,-0.25,0.248232715154022,0.249720417589574,0.249188437279035,0.25,-0.000300814389325175,0.924845818383765,0.923704209945478,0.04,0.0637673063864755,441.128001381295,0.902063277426077,0.359320751481503
1819,0.0907067239368239,0.0916709008140965,-0.25,0.0915745618531754,0.249808952019542,0.249445432140674,0.0918444511132547,-0.000156543606969228,0.918979791655777,0.906029509546747,0.04,0.0464844811907992,438.59533079805,0.870640069224247,0.370151939689282
1879,-0.249999221726086,-0.249985806525636,-0.25,-0.246477242638125,0.25,0.25,-0.00859762324386922,0.249767289104237,0.905397487027352,0.888354809148016,0.04,0.0247803501141732,431.642577103218,0.755982881749555,0.419533834520876
1939,-0.177875337984974,-0.091666379845799,-0.0916666715150573,-0.190818203659515,0.25,0.249999671082457,0.0624739683967251,0.233724761773989,0.862886940505302,0.870680108749285,0.04,0.0372973186465199,411.423135630803,0.726246620571329,0.416254806719179
1999,-0.0222395888594173,0.249970277726481,0.249999984689293,-0.0707118563898824,0.25,0.249998961313021,0.249969344510729,0.199106676482402,0.841124390431689,0.853005408350554,0.04,0.0605700963503288,401.346552018351,0.827239673500477,0.356486311285849
2059,0.0638090891195968,0.249603164086697,0.249999180927705,0.0308468543827721,0.249999225698472,0.249994404329673,0.249979046040214,0.0570245931176093,0.83865064546198,0.835330707951823,0.04,0.0624601821004918,400.065781920751,0.833099541665631,0.352849241350861
2119,0.249493078442732,0.248810971495585,0.249997446494804,0.249999861839552,0.249997554837281,0.249984570839292,0.249999980919631,-0.0087088842105552,0.816567675826552,0.817656007553092,0.04,0.0758479201919246,389.453805762492,0.82774412585772,0.345712052858227
2179,0.249653603602534,0.24918749718865,0.249998255104783,0.249999874122238,0.157845503761419,0.249989456740183,0.249999967977961,-0.00411350227701356,0.801677746679761,0.799981307154361,0.04,0.0740566314069746,382.387967872513,0.82552369342267,0.340352819126063
2239,0.25,0.25,0.25,0.24999990062698,-0.0410089222443881,0.25,0.249999940051201,-0.00194280785345992,0.786399022447455,0.78230660675563,0.04,0.0721408087759823,375.029973165756,0.799864115837643,0.344512069612739
2299,0.249999227330501,0.25,0.249999945207561,0.249999932095103,-0.107189424890809,0.249999981342538,0.249985000199388,-0.000917449276409564,0.76841202558735,0.764631906356898,0.04,0.0723182312788495,366.492299332917,0.779035100542188,0.345670648312131
2359,0.249997559991056,0.25,0.249999826971244,0.25,-0.249999983233084,0.249999941081699,0.249952761571792,0.13990712437728,0.748357220607612,0.746957205958168,0.04,0.0729218187875386,356.931423490823,0.765081195233659,0.342792990362663
2419,0.249880618954885,0.249999999468443,0.0916738260967151,0.25,-0.0916666552763686,0.249999959577365,0.249898720499063,0.174735689846155,0.730057137215043,0.729282505559437,0.04,0.0766522346068804,348.122044489831,0.751237604185805,0.340493544732343
2479,0.24962827250841,0.249999998321399,-0.249977017895691,0.25,0.249999999788122,0.249999999489064,0.249782105552649,0.2498920679632,0.713474304486488,0.711607805160705,0.04,0.0775481908563855,340.29821120695,0.748566300971989,0.334028920785214
2539,0.24974598621408,0.249992952933694,-0.0916509622287218,0.165871027882594,0.249832928259477,0.24999999965086,0.249847273198658,0.249913295205595,0.69717295788966,0.693933104761974,0.04,0.0843975213237956,332.466816432951,0.726899619755942,0.336069066314456
2599,0.25,0.249977749728646,0.25,-0.0156704382654938,0.249472405487138,0.25,0.249987898118994,0.249959101360235,0.678933485126012,0.676258404363243,0.04,0.0896187131392251,323.771860709153,0.708726053431308,0.335672203367582
2659,0.249999283211576,0.249984795647908,0.0916666666666666,0.0684462062707271,0.249636363301625,0.2499999467041,0.249959891797138,0.249962758035763,0.660717777756991,0.658583703964512,0.04,0.0904598366759543,315.09082403481,0.694239415263093,0.333488732632512
2719,0.249997736457607,0.25,-0.25,0.249961070796256,0.249990167006572,0.249999831697159,0.249899457102606,0.24997064875664,0.648331080031978,0.650197492094506,0.04,0.084639655635682,309.31045238455,0.685058588094853,0.331758116938731
2779,0.249998453246032,0.249955755022211,-0.249950729314528,0.24997109890953,0.249993280787824,0.0916668623259494,0.249906282200877,0.249979943317037,0.657916039903623,0.661854860733854,0.04,0.0688100614336497,314.050162310584,0.717395363178681,0.321658574655448
2839,0.25,0.249860279017507,-0.249844408361666,0.249992738522384,0.25,-0.249999018948766,0.249921010044515,0.25,0.672540703201933,0.673512229373202,0.04,0.0559722259369301,320.922134093477,0.721178179279517,0.326972908180728
2899,0.0916767194466922,0.249904523995296,-0.249885916522172,0.249992280090041,0.249999999358203,-0.249979406555211,0.189809842835784,0.25,0.684582040875252,0.68516959801255,0.04,0.0463264259630013,326.798760460567,0.735160283714717,0.326627720627059
2959,-0.249968254378867,0.25,-0.249975486763264,0.249991290841299,0.249999997973272,-0.249937085074381,0.0600962714906282,0.25,0.700278691185562,0.696826966651898,0.04,0.0287094803430028,334.071886643222,0.713707888634531,0.343933206731001
3019,-0.249964501148988,0.249973844809533,-0.24994044083882,0.249994048741555,0.24967649224379,-0.0916243711623268,0.12022710384247,0.249997018081916,0.701715034673941,0.708484335291246,0.04,0.0343199359955775,334.7687928876,0.728867945235678,0.33748213796519
3079,-0.249956402073986,0.249917404661684,-0.249864815422915,0.25,0.248978400932803,0.249997800963685,0.249983110496446,0.249990583416577,0.710971754206538,0.720141703930594,0.04,0.0411062325100313,339.368496907723,0.795275541769718,0.313551277826597
3139,-0.0916382003616632,0.0916230354773917,-0.091574290538992,0.249993630437043,0.249301907304082,0.249998122679142,0.107548810882838,0.0916607489755994,0.734495261815356,0.731799072569941,0.04,0.0380241983388175,350.610266341241,0.81341186247932,0.31671512448122
3199,0.249995813859664,-0.249959550657133,0.25,0.249979885590662,0.25,0.249998816907231,-0.0398267129154246,-0.0398267129154246,0.739155690660977,0.743456441209289,0.04,0.0472529101343943,352.732469120558,0.813480977998315,0.318605092105649
3259,0.091668503534706,-0.116795360654311,0.249997311614932,0.249986255153619,0.0916728205733408,0.0916704933858401,-0.0323367517859542,-0.0323367517859542,0.757255014023742,0.755113809848637,0.04,0.0356589863485476,361.553378576412,0.829563238722332,0.320241493132405
3319,-0.249985166113889,0.170558944088622,0.249991510362942,0.25,-0.249980566610503,-0.249985362634004,-0.0428517943379343,-0.0428517943379343,0.775887577561322,0.766771178487985,0.04,0.0179098235519406,370.128233445336,0.767999281245958,0.354116429879741
3379,-0.249978802111567,0.195715194117191,0.249914851074653,0.0916792573516633,-0.249986720517177,-0.249988493132226,-0.0785444821458179,-0.0785444821458179,0.781549070625311,0.778428547127333,0.04,0.0109601261817831,372.905500046579,0.74937851627317,0.365638759551067
3439,-0.249965069264454,0.249999733652525,0.249749428399925,-0.249960239942116,-0.25,-0.249995248417863,-0.140529245867771,-0.140529245867771,0.786522675710564,0.790085915766681,0.04,1.99491127902959e-07,375.240139156986,0.739179432583685,0.373004516396059
3499,-0.249950903480822,0.249999817995892,0.0914954427399489,-0.249963829868417,-0.25,-0.0916702079058545,-0.0916603410546422,-0.224644206528318,0.799210627687979,0.805558731715158,0.04,1.21919103533662e-06,381.844982992352,0.790550149886602,0.354905181355849
3559,-0.249920335210882,0.25,-0.25,-0.249971576551489,-0.25,0.249978563725321,0.249999999990576,-0.173567980872868,0.817166691935291,0.821757933952448,0.04,0.0144126347779759,389.863613764271,0.798854948113572,0.358591054050469
3619,-0.249945562394103,0.249992253009326,-0.249715160613378,-0.249980318105041,-0.25,0.249984781595768,0.249962638433916,-0.197769904467303,0.819732990991585,0.821757933952448,0.04,0.0193280012221465,391.10766279061,0.815227772710547,0.352510481441197
3679,-0.25,0.249975535818924,-0.24910050720014,-0.249999181457444,-0.25,0.249998199105679,0.249882016127439,-0.249995108013188,0.82036405358704,0.821757933952448,0.04,0.023603584177335,391.394650787674,0.822716901222402,0.349557917150708
3739,-0.0916673350622928,0.249983282809598,-0.0910685012646045,-0.0916776399214682,-0.0916672436956476,0.249998422674244,0.249919377687083,-0.249940725962857,0.801497037433918,0.821757933952448,0.04,0.0421624303637891,382.288358068191,0.863649006268542,0.325243384091938
3799,0.24999788927697,0.25,0.249947932596289,0.249963581287743,0.249998177803218,0.249998905111675,0.25,-0.249823375222669,0.803737555112469,0.821757933952448,0.04,0.0699708711864473,383.689538659451,1.00756776362841,0.279808156667071
3859,0.0916652254087027,0.249353296974225,0.091631345582504,0.0916458004761731,0.0916762244198823,0.249999122546033,0.235714073827045,-0.249665175026699,0.828132558394547,0.821757933952448,0.04,0.0583288069368783,395.433811979184,1.02866483643933,0.282458457654132
3919,-0.249999996622822,0.247957779918606,-0.249999184289348,-0.249987305485636,-0.249965885512579,0.249999591746489,0.204886548927509,-0.249323795656449,0.843696171348535,0.821757933952448,0.04,0.0387910715797122,402.334634317023,0.885591333316293,0.333817221685169
3979,-0.185444526468987,0.248413297028402,-0.249967373773415,-0.091737929653482,-0.0916433551002624,0.24998291179776,0.219172475100465,-0.091362608648105,0.816457388374338,0.821757933952448,0.04,0.0548265987266629,389.221771987315,0.844750780640415,0.338550297684212
4039,-0.0461406171896594,0.249396255002172,-0.249898730028506,0.249747565563271,0.25,0.249946918224189,0.25,0.249501005422532,0.808938380152471,0.821757933952448,0.04,0.0667572376527247,386.152646010111,0.946319590528521,0.299830535552477
4099,-0.106408063821774,0.125726719661138,-0.0916061473112638,0.0914948521480616,0.249981674493043,0.0916305696165144,0.0917730089871654,0.249658906011858,0.830473071392669,0.821757933952448,0.04,0.0548785910250819,396.48249301812,0.946969843797853,0.30763981577974
4159,-0.236458869712126,-0.14113911975899,0.249972583815417,-0.249997845221601,0.24994212997803,-0.249999445800046,-0.249664182145793,0.249999638862507,0.839022373747699,0.821757933952448,0.04,0.0391075239923196,400.121006108175,0.825461376192092,0.356163385843081
4219,-0.082413560969953,-0.0765533891707976,0.0916529936894576,-0.0916651942347606,0.0916709638468345,-0.2498813923146,-0.249758229698992,0.249471722985932,0.827020201503114,0.821757933952448,0.04,0.0383874991734575,394.470917524649,0.777238304075863,0.372919824401701
4279,0.25,0.0628158189405641,-0.249984016582349,0.25,-0.249861552541535,-0.249626645319689,-0.249961174419052,0.248332536094376,0.822882945561782,0.821757933952448,0.04,0.0396316572185065,392.602946496017,0.764116419583646,0.377527592792018
4339,0.0916693533472526,0.122090710037549,-0.248990556688473,0.0916671468392352,-0.249903641677303,-0.249744874301773,-0.233607510719906,0.0905432175914238,0.831831823298217,0.821757933952448,0.04,0.0229919240555739,397.102314495158,0.743453288692359,0.392467236850365
4399,-0.249991515745518,0.249999685562622,-0.246846774812216,-0.249998483665573,-0.249994465601857,-0.249999999999954,-0.198318025895433,-0.249949522335999,0.83214336034656,0.821757933952448,0.04,3.4264603352101e-05,396.813272972578,0.634546349230647,0.45949153700134
4459,-0.0916610246955452,0.24989348412832,-0.247845292778191,-0.249998916549493,-0.249985467698396,-0.0916666675135454,-0.0564255647057565,-0.249965267501883,0.827972287816841,0.821757933952448,0.04,0.00950904487617698,394.805259849003,0.625513395152535,0.463768227309219
4519,0.249999508622817,0.249664312612194,-0.249999989441609,-0.249999850667427,-0.249966051169874,0.249999997325547,0.249763430493019,-0.249999243912476,0.804950347909627,0.821757933952448,0.04,0.0319358707875395,384.144433240905,0.777749716564197,0.362918710283364
4579,0.249951182178816,0.249766834230469,-0.0916772325876401,-0.249999435586621,-0.0916439509227125,0.249967469694061,0.121606851967405,-0.218920511503843,0.808277472075287,0.821757933952448,0.04,0.0405630880593129,385.681846769602,0.841594313354053,0.336729435287885
4639,0.249846898799655,0.249988065090958,0.249966611149872,-0.249998539885935,0.249998475926425,0.249897278489275,-0.154941554324708,-0.15185587841153,0.813751732184173,0.821757933952448,0.04,0.0567373925277498,388.332444984589,0.908003612349184,0.314246737201251
4699,0.24642726988192,0.249551546475046,0.0916945829103555,-0.0916658516179164,0.249996938864464,0.249929774827049,-0.0267103713259274,-0.18293480884659,0.817940665979846,0.821757933952448,0.04,0.0624629387546104,390.211839587447,0.929778788629891,0.308372388349282
4759,0.239048070638384,0.248609585251237,-0.249839793817023,0.249999423065703,0.249993622046548,0.249999898503297,0.249999023566179,-0.249999869259089,0.819819979582726,0.821757933952448,0.04,0.0652388065452362,391.190517832231,0.951813762835487,0.301988924432112
4819,0.242504502637811,0.247450982291536,-0.249890525333139,0.249842045651853,0.249994527892811,0.249962676973338,0.249971351896009,-0.248978516346194,0.823414721191163,0.821757933952448,0.04,0.0668987184862816,392.863796336131,0.946768838252964,0.304896704359999
4879,0.249963119057627,0.244950839062707,-0.249999998604757,0.249502441758811,0.249996482613695,0.249882356829741,0.249911639344591,-0.246774544270998,0.824411707091412,0.821757933952448,0.04,0.0674348368404673,393.332115531794,0.932468890673586,0.309941501473398
4939,0.249973379452497,0.246549740026183,-0.0916666657132507,0.0913267360046601,0.249997596452692,0.0915862776575224,0.1535198422809,-0.166305121802655,0.827994525824806,0.821757933952448,0.04,0.0631129191801501,395.120135251923,0.909147948277592,0.319337025084498
4999,0.249995520304584,0.25,0.25,-0.249999786938507,0.25,-0.24999999845095,-0.0544835092775904,0.00733942141850662,0.831195181678844,0.821757933952448,0.04,0.0552693473495891,396.483126792131,0.846570516019033,0.344125017897525
5059,0.106564323256195,0.130123043919136,0.249999952470887,-0.0916665210746461,0.24998577487745,-0.249999998941482,0.0419362686603132,0.0841755894461518,0.818323762414222,0.821757933952448,0.04,0.0546423652880197,390.252882842288,0.829587571599546,0.345651590117436
5119,-0.202945101953487,-0.128558808676413,0.249999849908066,0.25,0.249955078560367,-0.25,0.25,0.249979952032123,0.820291547263647,0.821757933952448,0.04,0.0433918660116145,391.432549462842,0.864105622502241,0.332847103322529
5179,-0.0595125184224541,-0.167014695897238,0.249999644865027,0.249999999620583,0.249969303682918,-0.25,0.249999911663431,0.249986047238098,0.822289629331206,0.821757933952448,0.04,0.0460702447536788,392.250131953136,0.857055473423728,0.336286042091542
5239,0.249999898670827,-0.249998452531649,0.249999202403731,0.24999999880184,0.25,-0.25,0.249999721042415,0.24999920005099,0.820057501754757,0.821757933952448,0.04,0.0521100392056691,391.282367999075,0.869447293187463,0.330675253123245
5299,0.249999930758399,-0.249998942563293,0.249990552340988,0.0916666712942373,0.0916666666666667,-0.249998254401509,0.249999809378984,0.249888066659125,0.826812789843034,0.821757933952448,0.04,0.0430656520304722,394.603641228922,0.861075672857432,0.336724289330275
5359,0.25,-0.25,0.249971886416121,-0.249999982801117,-0.25,-0.249994487583712,0.25,0.249648252497733,0.83002694665357,0.817147704525505,0.04,0.0294061392579087,395.855541446177,0.783770624247337,0.371109800025529
5419,0.0916880685659319,-0.249993887528439,0.249697018259174,-0.249970180481117,-0.25,-0.249996186313715,0.0951041243824598,0.24975941325011,0.817046229403467,0.802589085282527,0.04,0.0235619160866461,389.852178014711,0.718727335863248,0.398557033905832
5479,-0.249932415054952,-0.249980697458227,0.249103881709973,-0.249905870211646,-0.25,-0.249999851994247,-0.0669686216296003,0.249999286452609,0.804307453961253,0.78803046603955,0.04,0.0114865219344794,383.044201513217,0.603079697015681,0.46669039285574
5539,-0.249953723755321,-0.0916537453397133,0.110740642633323,-0.0916023870450338,-0.091673414288771,-0.091667091808003,-0.122941823705129,0.249998436910076,0.753394986644364,0.773471846796572,0.04,0.022402058576029,358.946940483754,0.594026017350978,0.443996417023173
5599,-0.249999705687696,0.249999151337079,-0.187832662742605,0.249999866103971,0.249978691719671,0.249998338067576,-0.16421799481344,0.249996603686715,0.746921840757812,0.758913227553594,0.04,0.0431940285457363,356.41536680458,0.695376778468595,0.37660918954374
5659,-0.0916665362480287,0.166516036966325,-0.0491856528741131,0.0916665751710467,0.249985439341775,0.249991268596957,-0.179131429116737,0.249995979976886,0.742689250975711,0.744354608310616,0.04,0.0472632585876488,354.099019862098,0.714807963625439,0.363990474627116
5719,0.249999776753358,-0.0136317361495118,0.25,-0.25,0.25,0.249976013423515,-0.171415283216013,0.249994634076729,0.72893430590454,0.729795989067639,0.04,0.0593246612326026,347.723571130876,0.728184846273357,0.350870754349238
5779,0.249999133394243,0.0698515376575036,0.249999983325967,-0.0916666814677884,0.249993435098829,0.249983609172693,-0.0916650558702646,0.249996333285765,0.715946765089265,0.715237369824661,0.04,0.0730723608930887,341.258826705326,0.71765217444402,0.349401338597454
5839,0.249997745092993,0.249999654820011,0.249999947345158,0.249999953259616,0.249979268733145,0.249999999999866,0.249993070568184,0.25,0.69530874142781,0.700678750581683,0.04,0.0911729914607942,331.719313365446,0.759027873670062,0.321120261875532
5899,0.249998459146878,0.249999314523417,0.249999878184593,0.249999968060737,0.24998103953177,0.249999999999908,0.249993844467604,0.25,0.687154442101295,0.686120131338705,0.04,0.0906576462474577,327.742384729971,0.759734297565178,0.316975395932879
5959,0.25,0.249998580199189,0.249999728943374,0.25,0.249984860728803,0.25,0.249995514461091,0.25,0.673380448907992,0.671561512095728,0.04,0.0925669658659538,321.154541250484,0.748711184717328,0.315176931373414
6019,0.25,0.249999013659017,0.0916664814446389,0.0916666666666667,0.249988344812729,0.25,0.249994935823145,0.25,0.661155775299576,0.65700289285275,0.04,0.0875544552164873,315.396779432427,0.733408103899508,0.315984824877885
6079,0.25,0.249999949019698,-0.25,-0.25,0.249995863099094,0.25,0.249993687183367,0.25,0.652356802044006,0.642444273609772,0.04,0.0737960942789273,311.086566620635,0.67684389473356,0.337712719596729
6139,0.219783184790079,0.0916705696119529,-0.249999986875878,-0.0916666666666667,0.249997168340365,0.0916667290873694,0.101459653838443,0.0916667881428326,0.6463304840398,0.627885654366795,0.04,0.062580779359409,308.537965948431,0.611937684780241,0.37047259663532
6199,0.15457847828446,-0.249987564899497,-0.249999958555404,0.25,0.249999984913635,-0.249999802881991,-0.000864473491779985,-0.000864473491779985,0.625695182581018,0.613327035123817,0.04,0.0467691251350596,298.194539832642,0.492923534142865,0.44450311584665
6259,0.0734189558358068,-0.249916976912693,-0.249995589656593,0.25,0.249999989690984,-0.091667109840555,-0.00114520859381035,-0.00114520859381035,0.597621108664652,0.598768415880839,0.04,0.0368991288303859,284.906531676684,0.473348094889051,0.442258764775579
6319,-0.101714750500761,-0.249764655467484,-0.249986162032843,0.25,0.25,0.249998175143597,0.25,-0.00454257336888934,0.585020489949793,0.584209796637861,0.04,0.0355366122213977,279.059790833449,0.499986580733912,0.410103610050804
6379,0.00961829158287912,-0.249770540928955,-0.0916572107224429,0.249999727363875,0.249999956981399,0.249998734692334,0.25,-0.0110050097157184,0.568291382662932,0.569651177394884,0.04,0.0463125864604954,270.795298674482,0.496995528364237,0.400353210223572
6439,0.249863277131786,-0.249783241135285,0.25,0.249999139043817,0.249999864151786,0.249999942139607,0.25,-0.00623945578006059,0.54728655256941,0.555092558151906,0.04,0.0712071812672934,261.150727393582,0.555906032495716,0.345179129553176
6499,0.2499062632676,-0.249848746856793,0.249985560881535,0.249999411679942,0.249999821479344,0.249997758149725,0.0916666666666667,-0.00294703241640425,0.544573065529791,0.540533938908928,0.04,0.0677991115845306,259.830345639939,0.559098283524131,0.341473014409575
6559,0.24999902282383,-0.249990101308469,0.249954402783795,0.25,0.249999729396705,0.249993045329453,-0.00139180925442189,0.249999105542718,0.524723438087134,0.52597531966595,0.04,0.0786619337939645,250.27549409089,0.558314553977157,0.329377595373988
6619,0.249999286651432,-0.0916599025607871,0.249960658376101,0.249998971013209,0.249962864236185,0.091813734270117,-0.000657177202488007,0.249991184234019,0.516789675071631,0.516026929849916,0.04,0.0814296813121888,246.561065267597,0.553954488358231,0.32704317358969
6679,0.249999855963628,0.25,0.249974157285813,0.249996750568029,0.249883313100327,-0.249520568542133,-0.000310163239002196,0.249974090883669,0.516061888701642,0.516026929849916,0.04,0.0813549879094642,246.147488674676,0.544753909816808,0.332008902888614
6739,0.0916679976433567,0.249991147304084,0.0916490573967988,0.136269108583858,0.249902394176462,-0.249669199556984,0.0790369568644264,0.0916500335582738,0.516448752916622,0.516026929849916,0.04,0.0623123583626488,246.543602478641,0.556276035557733,0.325655234249914
6799,-0.249995486100386,0.249972044118159,-0.249999842363706,-0.109143171487247,0.249943569130225,-0.249989929641662,0.249990864073919,-0.00892405895307712,0.530174594205367,0.516026929849916,0.04,0.017019029471763,252.606825142556,0.506874216760386,0.366184161848819
6859,-0.0916642876835268,0.249979961613566,-0.249998046991226,-0.153747833849619,0.249926312940084,-0.0916597852551356,0.249993583884366,-0.0416328332827168,0.517968535663047,0.516026929849916,0.04,0.0292080744915166,246.814606807852,0.491012487155641,0.369345657711245
6919,0.249997772058116,0.249997046735235,-0.249994172766402,-0.25,0.249889075898199,0.25,0.249999452949015,0.249998151137893,0.504426964046995,0.516026929849916,0.04,0.0617706456045757,240.938262119215,0.576594859928888,0.307036271248455
6979,0.122534612174223,0.249968697914144,-0.0916636366746819,-0.249998494457287,0.249923642440321,0.25,0.128592005606258,0.0916712996273007,0.523105273049922,0.516026929849916,0.04,0.0555281339697939,249.794361857965,0.576054712724116,0.318620396661186
7039,-0.152517469680493,0.249907524142319,0.249996993839029,-0.249995245654591,0.249998233399635,0.25,-0.0142502914868924,-0.0142502914868924,0.519846926820126,0.516026929849916,0.04,0.0609281885208554,247.924481126727,0.52389848300097,0.347717820148128
7099,-0.183386937358921,0.174634258795118,0.249997613397985,-0.249658489738717,0.0916986283951041,0.249999999939012,-0.00679885342773785,-0.00679885342773785,0.516493186767016,0.516026929849916,0.04,0.0443258352178823,246.558268930641,0.525168797295551,0.344965238129037
7159,-0.249999999191317,0.0122024756774741,0.249998950340996,-0.248931805920254,-0.249895256088358,0.249999999807406,0.249999989384729,-0.011516835391634,0.521790156724168,0.516026929849916,0.04,0.02370417758582,248.799836310342,0.500950622655837,0.364930234192189
7219,-0.249999970597322,-0.0708283082870594,0.249990492845471,-0.0909589881540168,-0.249927370976926,0.249999958900449,0.249995346147219,-0.0351892562555963,0.514351680124458,0.516026929849916,0.04,0.027197454725442,245.341577546636,0.498467970774653,0.361650085355835
7279,-0.249999908894488,-0.25,0.249972242460391,0.249929723867864,-0.249996671525942,0.249999870627542,0.249985326529434,-0.061781343300565,0.515913140616013,0.516026929849916,0.04,0.0317583830876579,246.156006976849,0.508328831726764,0.355811820407729
7339,-0.0916728722204561,-0.0917318169812276,0.243119425576334,0.204516829088984,-0.249997725542727,0.224442580837824,0.24997147306037,0.0259224164634148,0.514157259264765,0.516026929849916,0.04,0.0444830661897692,245.239587945783,0.509735814460745,0.353508699220727
7399,0.249980206918245,0.249794262164544,0.228331768089685,0.106520582460876,-0.25,0.169292639712644,0.249941578732389,0.24999965386014,0.50530924922945,0.516026929849916,0.04,0.0711341693383065,241.278668581622,0.601490023470817,0.294744137441498
7459,0.248360443344055,0.249858659432969,0.235193252252486,0.107626285831746,-0.249988928801049,0.0794006343428562,0.249960078800466,0.249983606897874,0.518394885930328,0.516026929849916,0.04,0.0696891221568945,247.396017452766,0.607701053522345,0.299128223105397
7519,0.244865164052382,0.249997621959571,0.249999612814319,0.110012277316256,-0.249965038319102,-0.11457685092879,0.25,0.249948979242459,0.52092977120944,0.516026929849916,0.04,0.0702894611085316,248.497365841948,0.576163841613779,0.316906003054073
7579,0.0999669320041646,0.249998375005707,0.169783943609803,-0.00390609998071659,-0.249976109404832,-0.00357418053566551,0.172527529086249,0.0927212977172315,0.523162987951471,0.516026929849916,0.04,0.0574375147016358,249.791603558288,0.553110834439215,0.33183359086018
7639,-0.212708200310409,0.25,-0.00331302677888874,-0.249729966779446,-0.249999999642459,0.235957897681078,0.00535009185131195,-0.00867596592586862,0.528523390209346,0.516026929849916,0.04,0.0251893698148312,251.943585607685,0.472759682793604,0.391577337902341
7699,-0.223870302926297,0.249986953975893,0.0768428077923544,-0.249815373132026,-0.249986915034308,0.122872487073007,0.0828197325470854,-0.0294309205749611,0.515193954618532,0.516026929849916,0.04,0.0201969649022825,245.683373695372,0.458958656021277,0.393329824486207
7759,-0.247956945413211,0.249958802029135,0.249810661340827,-0.249999671050751,-0.249958679827244,-0.121153925291777,0.249991062469544,-0.0688643709487064,0.515126201611378,0.516026929849916,0.04,0.014848233035135,245.81342490659,0.471337084441476,0.383202790586909
7819,-0.24840967343717,0.091642239448691,0.0915404187642117,-0.249870836332034,-0.249777152345924,-0.161955182282714,0.0919563278807669,-0.123386467768293,0.521218439097955,0.516026929849916,0.04,2.7508503906967e-07,248.48543647852,0.466910101777888,0.391041046339992
7879,-0.249386612857291,-0.249988237698583,-0.249990104690589,-0.24959282457059,-0.24938543514939,-0.25,-0.201133525605189,-0.201133525605189,0.462727270481557,0.516026929849916,0.04,8.83482113918944e-11,221.117035809892,0.734531225898755,0.221190574751236
7939,-0.216328366284692,-0.0916586294231915,-0.249993236909281,-0.13719364864743,-0.249580047352083,-0.25,-0.0910284421825431,-0.24970666533297,0.522679643188006,0.516026929849916,0.04,8.36920888251933e-08,250.262524167442,0.853268676650302,0.215508643761534
7999,-0.144992149996453,0.249999998960549,-0.249999995907511,0.105351941502546,-0.25,-0.25,0.249999959380935,-0.249073679998852,0.530220593832279,0.516026929849916,0.04,0.038889483905872,252.819553600814,0.653348397262629,0.284328573649408
8059,-0.0199113024975765,0.24952241001981,-0.249999997203466,0.151157160009743,-0.249964037343877,-0.249894508351062,0.118620878540293,-0.249018076135286,0.525892898671902,0.516026929849916,0.04,0.0507116701641808,250.827072421783,0.595102113496434,0.30969742389423
8119,0.25,0.248491823358215,-0.25,0.249999999946328,-0.249886433717506,-0.249666868477039,-0.164881348536881,-0.24889808885075,0.523299902180074,0.516026929849916,0.04,0.0638930892254077,249.622825872346,0.542698045015636,0.337971994387994
8179,0.0916684052520117,0.248969412628114,-0.24999989288548,0.182625082062069,-0.24991961415175,-0.249772360125976,-0.0335022548455984,-0.0909136940480128,0.511066409370091,0.516026929849916,0.04,0.0624386033787823,243.800707912096,0.530179486318846,0.33788329333746
8239,-0.249994509730489,0.25,-0.249999661743622,0.0372371013644577,-0.249991214036169,-0.25,0.249999999961906,0.25,0.524949067266041,0.516026929849916,0.04,0.047511398584251,250.265399213476,0.530351040946314,0.346730511652098
8299,-0.249670683610653,0.25,-0.249999768816788,0.104611975944386,-0.249993996258049,-0.217345189450133,0.0916894755471125,0.238052439957281,0.518468761102136,0.516026929849916,0.04,0.041139175244537,247.289573920976,0.519151354885208,0.349998747973264
8359,-0.248971900931007,0.25,-0.24999999986941,0.24999986319581,-0.25,-0.146879545631999,-0.249927971874285,0.212270863022991,0.516547969247766,0.516026929849916,0.04,0.0309097140442963,246.485660212983,0.509668385685241,0.355351897813974
8419,-0.249297464803241,0.0916666666666667,-0.24999682064318,0.249921100740855,-0.0916666666666666,-0.0212269413808779,-0.249327117453597,0.0658851395050039,0.511578208094136,0.516026929849916,0.04,0.02722200936046,244.089438477655,0.512521537557818,0.349938353619655
8479,-0.249999997369641,-0.25,-0.249989960207631,0.249751139653846,0.25,0.24991815200312,-0.248030536861586,-0.249999842823285,0.522547767937263,0.516026929849916,0.04,0.026448491283992,249.136487641265,0.485726963936638,0.376877144550915
8539,-0.249999998202588,-0.0916666673267366,-0.249993133625854,0.190515598406243,0.249999999185431,0.249943945398566,-0.0903208705877118,-0.249999255260955,0.512348039983929,0.516026929849916,0.04,0.0355651486786763,244.043951151238,0.490360262969032,0.36568525962552
8599,-0.25,0.249999997915569,-0.249999981528334,0.0626915357140475,0.249999997427677,0.249999604830847,0.249999988213807,-0.249997987363293,0.504029964444529,0.516026929849916,0.04,0.0481579559920748,240.714205319096,0.580770818700728,0.304545095358636
8659,-0.16546917559277,0.24999998532247,-0.0916820137032569,-0.0363274423788405,0.249976534187493,0.249949089009682,0.249998672707524,-0.0916652913649171,0.508592104400355,0.516026929849916,0.04,0.0618584031442005,242.369556942931,0.612301732682864,0.290848786962559
8719,0.0169394454965146,0.249999958147888,0.249951495814015,-0.249999974052967,0.24992590298499,0.249840081185062,0.249995833983438,0.25,0.50777262929357,0.516026929849916,0.04,0.083894213332153,242.447852105149,0.687976896890253,0.258940011473236
8779,-0.0419357123866569,0.24999618807335,0.0916353536311698,-0.249999613149934,0.249946898903451,0.249739817314885,0.249995596264942,0.0916666680868983,0.525615349327554,0.516026929849916,0.04,0.076646239318722,250.990988641071,0.671557011480291,0.274618580367302
8839,-0.168982105713501,0.249988052649346,-0.249994216342339,-0.249998834359177,0.249992205885395,0.249523458437135,0.24999508329345,-0.175109049609605,0.531009733549006,0.516026929849916,0.04,0.0630684528777493,253.103125601217,0.561250384997367,0.331356529320746
8899,-0.0363053460330451,0.0916585045389551,-0.0958863860219554,-0.0916693586472736,0.212560876942573,0.249662303010621,0.0916633069171909,-0.106546220530823,0.522985380630065,0.519717305395552,0.04,0.0604308397115621,249.447765805794,0.526469326838662,0.348145849017106
8959,0.249997135382674,-0.249999994015047,0.236662089932556,0.249988983678414,0.131788009223854,0.249961914984986,-0.0519377231275062,-0.0519377231275062,0.522769319379709,0.531371122908088,0.04,0.0648123094442342,249.525079442242,0.554653066255623,0.330557838936219
9019,0.249993716251922,-0.0917355655509337,0.0825524281208466,0.248891444120273,0.0108884729931027,0.249966479376937,-0.0245474193718944,-0.0245474193718944,0.53842764965144,0.543024940420625,0.04,0.0457457098527585,257.061659251936,0.597474963884671,0.316134774969345
9079,0.249986338127665,0.2497824116611,-0.249999999999157,0.246523069284285,-0.249999999925886,0.249976328854306,-0.0129890841347796,-0.0129890841347796,0.555040487505346,0.554678757933161,0.04,0.0380327775444776,264.871609967638,0.596325140875782,0.326367547638217
9139,0.249985392126436,0.249851240953728,-0.0916687833616951,0.0892916037383882,-0.249999957850161,0.249976937900692,0.071971909802038,-0.00987331377359761,0.562487244484959,0.566332575445698,0.04,0.0420484369248597,268.385180392263,0.606911612572739,0.32492846611977
9199,0.249983350755362,0.249999767322028,0.249993315698092,-0.249997348229074,-0.249999867055174,0.249978252158684,0.25,-0.00542356570154637,0.573518039454203,0.577986392958234,0.04,0.044460502354596,273.757017117414,0.640179566908504,0.314208643701613
9259,0.249958076554179,0.249999579847654,0.0916620990603626,-0.249998187956534,-0.0916665758210354,0.249984601173874,0.249984369511343,-0.00256163506116175,0.58626700531261,0.58964021047077,0.04,0.0454988479124157,279.787058186277,0.65829881901533,0.312290823015152
9319,0.249903537488468,0.249999175297689,-0.25,-0.25,0.25,0.249998301680335,0.249950640562136,-0.00121013818544902,0.599696342461101,0.601294027983307,0.04,0.0439408722728445,286.21510731357,0.674924733694658,0.311596008553073
9379,0.2499268934703,0.249988281060031,-0.249979485874265,-0.249999995625169,0.0916678824833486,0.249998839481562,0.249918915604432,-0.000615010743847465,0.615135295719125,0.612947845495843,0.04,0.0403251910171368,293.652568152262,0.676564424070165,0.318918213166758
9439,0.249977293220567,0.249964772441925,-0.249935218550312,-0.249999986184746,-0.249996160578899,0.25,0.249850456485178,-0.00540255533682627,0.628911911960851,0.624601663008379,0.04,0.0327251740233303,300.076925615962,0.643908486307188,0.342423158685077
9499,0.249983648966456,0.249974296647319,-0.249955732676046,-0.0917185640134672,-0.249997205666973,0.25,0.24970737086386,-0.0173684415263249,0.63376819512944,0.636255480520916,0.04,0.0380171068896879,302.372971315208,0.642491356422789,0.34580427227116
9559,0.249997363997057,0.249994848880011,-0.25,0.249836083829817,-0.249999460857028,0.25,0.2493986071547,0.0896914056015631,0.639767599309502,0.647909298033452,0.04,0.0467373965456474,305.396901672668,0.692435066032149,0.324071060153216
9619,0.249794542635554,0.249995972662586,-0.249998328264201,0.096813903456801,-0.0916676550306064,0.249998855593432,0.249589027515208,0.118247333077201,0.654703084991925,0.659563115545989,0.04,0.0455116555690211,312.435513243418,0.721318652724683,0.318264285161937
9679,0.249356875487048,0.24999839766709,-0.24999472083432,-0.233391854190235,0.249995715436934,0.249996386084521,0.249999934608936,0.179868018682525,0.667530289850423,0.671216933058525,0.04,0.0459217566042844,318.60559519161,0.751677380347793,0.311441579392485
9739,0.24956053036564,0.249998905072511,-0.0916630592367856,-0.22262525774743,0.164527230199159,0.249976028375529,0.249978501344131,0.1073006785948,0.682701966048367,0.682870750571061,0.04,0.0489939481647327,325.837887193238,0.76106220381501,0.314583618020398
9799,0.249999996156285,0.25,0.25,-0.199392075949798,-0.0199047642613018,0.24993209858244,0.249932250614816,-0.00152918526707191,0.693026966337328,0.694524568083598,0.04,0.0544267456813426,330.705866676866,0.761407519077141,0.319138657896349
9859,0.249999997373461,0.25,0.249834347645915,-0.0570845852323619,-0.0927682471686009,0.249870929722391,0.0916203712534576,0.045483798191125,0.705900113558864,0.706178385596134,0.04,0.0514732215090026,336.837127753497,0.773147964860249,0.320119415065667
9919,0.25,0.25,0.249476887302889,0.25,-0.249999973442246,0.249738933761233,-0.000340815713970163,0.25,0.710586969149735,0.717832203108671,0.04,0.055913738620739,339.154318217699,0.80926023840959,0.307938382810524
9979,0.249783223685646,0.25,0.0913098583030759,0.25,-0.249072333717308,0.249654940985179,-0.000160725362264602,0.17361453030004,0.729817179509283,0.729486020621207,0.04,0.0475977422081516,348.422603906215,0.831300500515389,0.307966130571224
10039,0.24931544321783,0.25,-0.249997941117572,0.25,-0.247070584837177,0.249473693415799,-0.00134556474403059,0.00878272726328573,0.746987061595493,0.741139838133743,0.04,0.0381469971869828,356.398230779555,0.790051936548968,0.331462631404787
10099,0.248606613472903,0.24999919021981,-0.24999859305387,0.247476925339061,-0.137526345459564,0.249491986412541,-0.00382748099967085,0.085168141688957,0.746765183656182,0.749103280100643,0.04,0.0441409834822237,356.199868932472,0.786057727027974,0.332961477773449
10159,0.247077033497008,0.2499974427994,-0.249999999863777,0.242032395807562,0.0988585921447612,0.249531460773932,-0.00193886580662603,0.249999825449616,0.745289906004884,0.749103280100643,0.04,0.0514196464459277,355.656435242193,0.819656004664083,0.318825994257821
10219,0.0896693163951891,0.249967452686945,-0.249901090665079,0.244555470468501,-0.00896114895347023,0.249679831528854,-0.000955650986686966,0.0916666004896722,0.758955262237562,0.749103280100643,0.04,0.0423596566124115,362.343127694214,0.80450258817274,0.330938473593047
10279,-0.249999967877157,0.249902737181119,-0.249687655025784,0.25,-0.241624800797022,0.25,0.25,-0.00419552997719467,0.755766254881338,0.749103280100643,0.04,0.0339279978932715,360.466514359738,0.743152705249603,0.356403155273279
10339,-0.0916666447160574,0.249928503058432,-0.0914532309342858,0.0916755411585615,-0.0859449019847077,0.25,0.249999856637578,-0.0137049646310086,0.745461117485743,0.749103280100643,0.04,0.0422072546006227,355.417809796413,0.733503750552289,0.35603404114129
10399,0.25,0.249984103109477,0.25,-0.249971975288753,0.249995932294497,0.25,0.249999547276561,-0.0101417220363012,0.740867766682611,0.749103280100643,0.04,0.0577089814347458,353.562590281512,0.794814180549657,0.326855183240272
10459,0.249999889533133,0.249989137124809,0.25,-0.0916475164473146,0.24999717704447,0.24999996791746,0.24998341398845,-0.00479032373018335,0.745581260755542,0.749103280100643,0.04,0.0613701076797071,355.685983280713,0.816607805453483,0.320042681525102
10519,0.249999651157261,0.25,0.25,0.25,0.249999863083886,0.249999898686717,0.249948600050948,-0.00226251415326295,0.743850728948433,0.749103280100643,0.04,0.0695163003022032,354.921592476879,0.849334702318081,0.307049382831964
10579,0.249991990069344,0.25,0.249984252504711,0.249973959115168,0.0916707925165889,0.249994399538426,0.249958539938845,-0.00106846712262728,0.748904048098361,0.749103280100643,0.04,0.0653165481717184,357.382515413944,0.865302066968708,0.303473124714432
10639,0.249975458248048,0.25,0.249950271067509,0.249917765626846,-0.249986675549684,0.249982532955273,0.249979989170622,0.25,0.747948865149446,0.749103280100643,0.04,0.0640985855001986,356.884933019014,0.870848251883129,0.301120557062539
10699,0.249983229802833,0.25,0.249966018562798,0.249939938684395,-0.19856316481123,0.249977492315368,0.249981459143508,0.25,0.749341579426461,0.749103280100643,0.04,0.0675889240510461,357.493862147044,0.868438129823907,0.302471446056099
10759,0.25,0.25,0.25,0.249987785808579,-0.0875966416387748,0.249966615145049,0.24998463119026,0.25,0.748423854700977,0.749103280100643,0.04,0.0709323130082372,357.083782031656,0.872777326788585,0.300622406261664
10819,0.249980829613418,0.249993490082307,0.228640444700492,0.249991653635863,0.0193089615468372,0.249963759444858,0.24998784710036,0.249999821671629,0.747690843408037,0.749103280100643,0.04,0.0734147491643649,356.687448486412,0.876045204884011,0.299168584524573
10879,0.24993946193711,0.24997944236518,0.182548772738396,0.25,0.25,0.249957597144448,0.249994786695838,0.249999436857776,0.746341760937067,0.749103280100643,0.04,0.076376030072471,356.104533364832,0.894422099211556,0.292542964218174
10939,0.249957793364819,0.249985792947846,0.20390832549062,0.0916674352813209,0.0916670020662515,0.249971024715372,0.0982915828317518,0.0916662818528133,0.761444400019058,0.749103280100643,0.04,0.0623344116698722,363.642150993994,0.879398725975288,0.303838681083243
10999,0.249997350656191,0.249999496836757,0.249999991955945,-0.249997572795829,-0.249998940843417,0.25,-9.13151664220647e-06,-9.13151664220647e-06,0.762259245368657,0.749103280100643,0.04,0.0510036008224939,363.531509736497,0.767896977751672,0.347851417961898
11059,0.249979642427326,0.249999656171784,0.0916667891935982,-0.249998341410483,-0.0916659431485286,0.249999990807989,-4.04958472826992e-06,-4.04958472826992e-06,0.750634691553005,0.749103280100643,0.04,0.0495992300143531,358.061877107071,0.73859669098306,0.356209422050248
11119,0.249941429933458,0.25,-0.249999595714623,-0.25,0.249999999245703,0.249999970972595,0.249999865686144,0.249999096134166,0.740881881916665,0.749103280100643,0.04,0.0511511061462722,353.621799836598,0.794958118173026,0.326850728883741
11179,0.249959977121197,0.0916698694163236,-0.24999772103381,-0.24999489816242,0.249999935066358,0.249999980164607,0.249999892628258,0.149332486828217,0.755237007887129,0.749103280100643,0.04,0.0436772477479345,360.478051719636,0.791763891173329,0.334532111559022
11239,0.25,-0.249989886053715,-0.24999367566995,-0.249983888933959,0.249999796574086,0.25,0.249999950766504,-0.00354013188012446,0.757068054108009,0.749103280100643,0.04,0.0343528602004196,361.085396985642,0.723972716292005,0.366473352974341
11299,0.249998597683177,-0.24999308878037,-0.249991428197566,-0.24998899077069,0.249997341614665,0.091666829179815,0.0916666546825539,-0.0143562269450419,0.758941457669843,0.749103280100643,0.04,0.0220584707779608,362.204787861079,0.691692697486674,0.384765099843243
11359,0.249995571631084,-0.249999999927362,-0.249986578388737,-0.249999999997321,0.249992044070652,-0.249999486800585,-0.0512630393026815,-0.0512630393026815,0.756029950746055,0.749103280100643,0.04,0.00460363341496073,360.63017121222,0.627460023776078,0.422309326503939
11419,0.249995354190033,-0.0918023995894949,-0.249988502629648,-0.249999999998169,0.249980784367997,-0.249999649313733,-0.118907399074629,-0.0916587051402444,0.747803978920251,0.749103280100643,0.04,0.00556547474942087,356.718644384905,0.610232274738559,0.429521899705139
11479,0.249994884975134,0.249571369560639,-0.249992654938984,-0.25,0.249956487114899,-0.25,-0.187299078077715,0.25,0.739099036693441,0.749103280100643,0.04,0.0239085669407518,352.789594497077,0.695622240927629,0.372646446588113
