time,bias_percent_1,bias_percent_2,bias_percent_3,bias_percent_4,bias_percent_5,bias_percent_6,bias_percent_8,bias_percent_9,normalized_power,power_SP,SP,CV,total_power_MW,fuel_fraction,thermal_efficiency
9,0,0,0,0,0,0,0,0,0.99882135613262,1,0.04,0.0399272970199048,476.632137852421,0.999342289280543,0.350448118399673
69,0,0,0,0,0,0,0,0,0.999903974657367,1,0.04,0.0398951910756398,477.055803985169,1.00014974809885,0.350476441236019
129,0,0,0,0,0,0,0,0,0.999989185027364,1,0.04,0.0399219314637309,477.095030142211,1.00030416500041,0.350451151861806
189,0,0,0,0,0,0,0,0,0.999999730088652,1,0.04,0.039959484328743,477.099901507278,1.00031793417479,0.350449906194607
249,0,0,0,0,0,0,0,0,1.00000208634517,1,0.04,0.0399834634786324,477.10100765982,1.00030917823986,0.350453786285344
309,0,0,0,0,0,0,0,0,1.00000327690258,1,0.04,0.0399974415210944,477.101570337833,1.000291625739,0.350460349153856
369,0,0,0,0,0,0,0,0,1.00000387244429,1,0.04,0.0400051289357984,477.101850151473,1.00026933938145,0.350468363080252
429,0,0,0,0,0,0,0,0,1.0000039791554,1,0.04,0.0400088447177311,477.101897690433,1.00024547067574,0.350476761175446
489,0,0,0,0,0,0,0,0,1.00000373451173,1,0.04,0.040010063001292,477.101778764541,1.00022242333751,0.350484749571264
549,0,0,0,0,0,0,0,0,1.0000032798121,1,0.04,0.0400097722823456,477.101560651649,1.00020173913487,0.350491837374948
609,0,0,0,0,0,0,0,0,1.00000273067698,1,0.04,0.0400086492339853,477.10129829465,1.00018420592982,0.350497788750421
669,0,0,0,0,0,0,0,0,1.00000216868298,1,0.04,0.0400071516881946,477.101030257856,1.00017005147758,0.350502552097746
729,-0.0233857765144413,-0.0374997719980932,-0.0374999960486665,0.037494987258343,0.0374999897831316,-0.0374999984326035,0.0374999871378163,0.0374999655985276,0.997076719572387,0.998255874731705,0.04,0.0405859114468767,475.673551934296,1.00149036941973,0.348993150733653
789,-0.155905176762943,-0.249998479987288,-0.249999973657777,0.249966581722287,0.249999931887543,-0.24999998955069,0.249999914252109,0.24999977065685,0.990685546848986,0.986628372943071,0.04,0.0399446941880741,472.633546299257,0.996176732379716,0.348612396231363
849,-0.130737589102757,-0.249998465162915,-0.175000338919538,0.174971594463943,0.175078062728163,-0.249999991118087,0.249571177505276,0.244875597662129,0.981312418286033,0.975000871154437,0.04,0.0419051326863849,468.142413588452,0.971886911208702,0.353929638750997
909,0.0118787409716288,-0.249998381158133,0.249997591263812,-0.25,-0.249479195841654,-0.25,0.247141669273221,0.215838617358709,0.971028135087813,0.963373369365804,0.04,0.0427165759895624,463.0132647863,0.920908419118979,0.369429579935768
969,0.0475969298258843,-0.174999584253113,0.249997782707142,-0.249999999958204,-0.174557316465406,-0.249991922729748,0.247565158914594,0.220962824754903,0.952922556116026,0.95174586757717,0.04,0.0476171909624832,454.265821617741,0.891931563140154,0.37422535221604
1029,0.25,0.249993598208671,0.249998867552683,-0.24999999972136,0.25,-0.249946151531656,0.249964933549041,0.25,0.931093347558626,0.940118365788536,0.04,0.0698219908190128,444.330020513396,0.951816811850905,0.34301014220685
1089,0.25,0.249947698662496,0.249998703615506,-0.249999999763156,0.175366005662452,-0.174986447243505,0.174970387273489,0.249999999632756,0.931683473477957,0.928490863999903,0.04,0.0659886329137554,444.604373368552,0.954442266662779,0.342277808893306
1149,0.25,0.249687601234173,0.249997774638166,-0.25,-0.247559962250317,0.249785210389351,-0.249998708287974,0.249999997551706,0.928627369974041,0.916863362211269,0.04,0.060872771338076,442.79487057707,0.887195007181944,0.36672301666245
1209,0.175050001593356,0.174755132991036,0.174998108442441,-0.249999653964773,-0.247925967912769,0.174817637558644,-0.174998902044778,0.235505533357044,0.909814486758579,0.905235860422635,0.04,0.0555062845963307,434.105932726707,0.850202410208883,0.375169967505623
1269,-0.249666656044295,-0.249862187053413,-0.25,-0.249997693098486,-0.25,-0.249998608482031,0.25,0.153370236253964,0.935507650821824,0.893608358634001,0.04,0.0146995334169576,446.154591802666,0.694576519780313,0.471976032823052
1329,-0.17471665763765,-0.225833137742499,-0.249828576259598,-0.249909441056193,-0.175000039597791,-0.175042541962818,0.227147148183578,0.0993008176442835,0.89429133084281,0.881980856845368,0.04,0.014513046670869,426.48181365681,0.621828894130934,0.503946338851744
1389,0.25,-0.0896685249806561,-0.248857175063987,-0.249409346149863,0.249999736014725,0.249708501646059,0.0976476545571837,-0.207092554477239,0.8507006417975,0.870353355056734,0.04,0.0315371327004852,405.976013158641,0.743428468448836,0.40125075526758
1449,0.245907115636924,-0.113718246233558,-0.174028598804389,-0.249497944227383,0.17612445004156,0.174752429713009,0.108785942383409,-0.148217574689707,0.854165004280069,0.8587258532681,0.04,0.0292679139899317,407.378943013483,0.779386468510923,0.384061162278159
1509,0.222714104246161,-0.25,0.25,-0.25,-0.242502170473042,-0.249998644574274,0.171902906732019,0.185407310772973,0.849423048595072,0.847098351479466,0.04,0.0299525267527492,405.021311982628,0.780737600397148,0.381177675126875
1569,0.226806988609237,-0.249947675146395,0.249995885993024,-0.175000000012849,-0.168628547673696,-0.174998847888133,0.183617470722216,0.195081405652485,0.830354807139244,0.835470849690833,0.04,0.0426309925448167,395.050399866794,0.785812690672933,0.369392559774633
1629,0.25,-0.249651167642631,0.249972573286825,0.249999999914341,0.249988648189266,0.25,0.25,0.249901276636389,0.807246292900544,0.823843347902199,0.04,0.0697672211248672,385.406212262407,0.901805100728263,0.314022451371511
1689,0.175,-0.249688997408684,0.237582389594618,0.249997660750956,0.249988737034556,0.249796255692347,0.249937483724754,0.249915608560136,0.81203667544067,0.812215846113565,0.04,0.0703372959554619,387.511408470051,0.922235606494202,0.30874311619961
1749,-0.25,-0.24990336608298,0.167371348672113,0.249984405491778,0.249989240491202,0.248641704615645,0.249583224831691,0.249996822794705,0.813259421290458,0.800588344324932,0.04,0.0630469975630829,387.886841827729,0.866187041657749,0.329039503653635
1809,-0.175000308433028,-0.174917894296982,0.105306527853261,0.17498685924952,0.174990858529111,0.248761627158353,0.174838440138406,0.249993415995957,0.800370588493823,0.788960842536298,0.04,0.0615033563320087,381.934274443233,0.815490453081377,0.344131500777075
1869,0.249997943779812,0.249999779157002,-0.24639412345357,-0.249999236123273,-0.249999972589408,0.249441188233701,-0.140015321961919,0.249974110803055,0.792373721250734,0.777333340747664,0.04,0.0558522135282917,377.651536787084,0.716482441113084,0.38729365410134
1929,0.24999825221284,0.2499998122798,-0.246935004919723,-0.225552225871851,-0.249898972918799,0.249525009998646,-0.0472929729577556,0.249975487078378,0.770707765762761,0.76570583895903,0.04,0.0555614614680596,367.40571121295,0.670418859866558,0.402674711450249
1989,0.25,0.249999999975655,-0.249999999894588,-0.0870191677804567,-0.249326641452011,0.25,0.249987511511627,0.249983285971874,0.7514434350968,0.754078337170397,0.04,0.0584618951085681,358.585834399537,0.682192373709589,0.386225501144741
2049,0.249997422161731,0.249997615410175,-0.235569205745615,-0.111466292613387,-0.174427645234209,0.249999344865197,0.1750149640475,0.249955600701278,0.745792216628526,0.742450835381763,0.04,0.0542860903351259,355.808854962619,0.669620911350955,0.390429316772162
2109,0.249982814411541,0.249984102872452,-0.153794705568099,-0.249999999999992,0.25,0.249995632434647,-0.0109688303722942,0.249798717501239,0.729260823779985,0.730823333593129,0.04,0.0614089008243729,347.89312162717,0.659339666426833,0.387695994776533
2169,0.24998539224981,0.24810115305897,-0.168211781386493,-0.174999999999993,0.175344206689108,0.17499628756945,-0.0051810209589739,0.2498289023869,0.720948531302747,0.719195831804495,0.04,0.0558911313377218,344.083835217196,0.656135240944177,0.385323576158811
2229,0.25,0.2374311041159,-0.24990854435739,0.25,-0.247705288739277,-0.25,0.249955599093037,0.249999950072316,0.709940719863504,0.707568330015862,0.04,0.048010528053478,338.643146892313,0.627081440060989,0.396801239868077
2289,0.17502591502006,0.164316438498515,-0.198863997481724,0.17500175486946,-0.208444630687254,-0.25,0.174970092384556,0.175000510726423,0.700544492965721,0.695940828227228,0.04,0.0383523951251532,334.594320230158,0.609930124063909,0.403081770379673
2349,-0.249827233199598,-0.25,0.0903884348137155,-0.24998830087027,0.0140324316075393,-0.25,-0.0282145995262989,-0.0282145995262989,0.68491171636026,0.684313326438594,0.04,1.3289796338536e-09,326.409641180669,0.521953725246316,0.459500145022474
2409,-0.21849006657232,-0.249984824176335,0.0393378683679957,-0.249979002125738,-0.0255697858704953,-0.25,-0.0954664875901288,-0.0954664875901288,0.658952533050792,0.67268582464996,0.04,3.82299838067997e-10,314.15898519509,0.585983446551371,0.393929780327564
2469,-0.0409127890177427,-0.249898827842236,-0.249948674824417,-0.249926309240059,-0.249982351579358,-0.25,-0.182109899013809,0.249999999719668,0.677343537220629,0.661058322861327,0.04,2.24078636100826e-06,323.069086387108,0.583956317853606,0.40650858174955
2529,0.00272412738810522,-0.246541758173305,-0.174963531662389,-0.174942754300264,-0.196167786533261,-0.175000044213506,-0.124981025376982,0.249999779220176,0.670255364909355,0.649430821072693,0.04,0.00275433663761064,319.941785453588,0.478990410883776,0.490793521282109
2589,0.249999987021243,-0.227518363382696,0.249952279589097,0.249964057025242,0.108781415394624,0.249999705243291,0.249999996015092,0.249998529723054,0.601225641497153,0.637803319284059,0.04,0.0671193280559931,287.366796650753,0.728507632200962,0.289839223210048
2649,0.249996007733718,-0.179401645786384,0.249959437650732,0.174969448471456,0.129962583382973,0.175009098278284,0.175088933209268,0.249998750263884,0.626611486821103,0.626175817495426,0.04,0.0660033182539602,299.218006736541,0.776512126244509,0.283135391955987
2709,0.249973458437743,0.0932597539260518,0.25,-0.25,0.249989201983614,-0.249937674523425,-0.249407089357068,0.249999999995253,0.636562570590346,0.614548315706792,0.04,0.0653999419700709,303.416157142151,0.672608993990008,0.331459682139821
2769,0.249977439672082,0.0418021443438267,0.25,-0.175470032152952,0.23715131141012,-0.174987394201595,-0.235542382272848,0.249999995975065,0.611906602315671,0.602920813918158,0.04,0.0787611479599281,291.612514158584,0.594577951386285,0.360372824104397
2829,0.25,-0.249790976622114,0.25,0.246866452313655,0.164403264826984,0.24973086095544,-0.150319050000623,0.249999973193999,0.587257496847696,0.591293312129524,0.04,0.0859927296808639,280.228170922528,0.606667042621709,0.339403304205662
2889,0.249785570850989,-0.249822330128797,0.249999383813195,0.17234024880356,0.102242775102936,0.24977048166531,-0.0716800640035639,0.249999977214899,0.581454826626557,0.579665810340891,0.04,0.0761253213917151,277.443615298914,0.602151921368737,0.338550402796376
2949,0.248570472339926,-0.25,0.249995892087964,-0.249974904420313,-0.25,0.249994999021245,0.25,0.25,0.57522428613316,0.572570282118557,0.04,0.056355734115349,274.493029166595,0.572349448697203,0.352390934482315
3009,0.248620284133092,-0.175000058557424,0.24999650827477,-0.174978668757266,-0.176032834175966,0.249995748344564,0.24762212504501,0.25,0.586108950581323,0.59115593743859,0.04,0.049804852175764,279.58348922019,0.596214297235886,0.344559168474411
3069,0.248902550961034,0.249999609617171,0.25,0.25,0.243114438826895,0.249999994510041,0.234147500300066,0.25,0.589513504471123,0.609741592758623,0.04,0.0811531081234388,281.508957211595,0.709681166355876,0.291463123203245
3129,0.249067168315031,0.249997741888539,0.249832624584766,0.17545395865182,0.169147273002861,0.249999960379302,0.161525375391619,0.240679154353477,0.618921051442947,0.628327248078656,0.04,0.0638348756070504,295.817179394545,0.792234080185645,0.274362370914005
3189,0.249999999987679,0.249987158092954,0.24888416389844,-0.246973608987868,-0.25,0.249999766971777,-0.00200509704726089,0.187861029023178,0.656124011565829,0.646912903398689,0.04,0.0399117004203726,312.983479188489,0.752228188608311,0.305721855184352
3249,0.183501127235463,0.249965920998125,0.249051528791381,-0.172427569667809,-0.175008154819876,0.175022566811169,-0.00102251029125021,0.126385648358224,0.665896349798019,0.665498558718722,0.04,0.0423216897551374,317.90991788286,0.743778217180376,0.314061932011565
3309,-0.193325818360428,0.249845577460761,0.24999992985138,0.249999986479196,0.249945634534157,-0.249848234098943,-0.00065152270174744,-0.00065152270174744,0.682285192791129,0.684084214038756,0.04,0.0380064943281985,325.698948388763,0.741442372615813,0.322770348204784
3369,-0.201826747447716,0.175045400464946,0.249999783845019,0.174999988507316,0.228990454416682,-0.174877748621514,-0.00474724585381079,-0.00474724585381079,0.697242334949747,0.702669869358789,0.04,0.0298328886847097,332.817879424932,0.768969960191077,0.318018182330479
3429,-0.249998678942352,-0.248822269178007,0.249998956475642,-0.25,0.110244433750987,0.24995500241725,-0.0283817393099599,0.249981108306545,0.724341951879538,0.718467676380817,0.04,0.0148321705579545,345.749069966033,0.769332956984401,0.330218468999
3489,-0.175001453678501,-0.174173144816988,0.174999296776191,-0.249959106609856,0.0562210381207017,0.174962782368533,-0.0698182965362055,0.174985629541655,0.727801208486413,0.718467676380817,0.04,0.0150376624752978,347.929777065666,0.739700476320016,0.34561324424388
3549,0.24998282281666,0.248838559895452,-0.249998774854031,-0.249727377399039,-0.24991153711758,-0.249993131240865,0.186528683659019,-0.123136129026675,0.725008283519899,0.718467676380817,0.04,0.0175953565263391,345.612418604309,0.680755548269883,0.373037786877349
3609,0.175594271206644,0.174012792760458,-0.249993584216078,-0.174918866768207,-0.249924806547372,-0.174995057933287,0.195725493067789,-0.179742112578541,0.7204590775155,0.718467676380817,0.04,0.0216615128568886,343.379088564473,0.656271886533623,0.384454297184458
3669,-0.245940854583443,-0.249999887671175,-0.249964170601011,0.248996026806509,-0.249999999982861,0.249994024142989,0.247840746384156,-0.156033012748238,0.721835575092048,0.718467676380817,0.04,0.0179122302680479,345.362688537077,0.654625108189733,0.387647898648235
3729,-0.171783298784177,-0.234900254651067,-0.198137986891757,0.249146622785533,-0.175045018949067,0.175059986963693,0.225184970145508,-0.170125549122808,0.721976168726113,0.718467676380817,0.04,0.0201251460386112,344.771763891433,0.641615857594398,0.394831031110507
3789,0.248442850745001,-0.149335667537117,0.0955437207940157,0.25,0.249699873575766,-0.249566223718986,0.0968022381265033,-0.249983255245371,0.704336441041766,0.718467676380817,0.04,0.041654331518157,336.104113498797,0.730249093554879,0.338187442508152
3849,0.248676423133251,-0.129290383035824,0.118707656377732,0.24999986530052,0.233603301045968,-0.174631385074232,0.119607995558379,-0.248768197321023,0.713983969567972,0.718467676380817,0.04,0.0466341303005307,340.464117299656,0.765182833347626,0.32693453967104
3909,0.25,-0.015700437528496,0.249969958018791,0.249999102003464,0.142389390043777,0.249999367246039,0.248840621005674,-0.241882869083054,0.707571882408859,0.718467676380817,0.04,0.0665186023380174,337.769704368553,0.829681443664704,0.299132770328511
3969,0.25,0.0241530600298732,0.249846254043938,0.249485740766523,0.157863328052159,0.175001015791092,0.24896312509543,-0.168100442646476,0.716381018840137,0.718467676380817,0.04,0.0687706679237215,341.709408024552,0.850175868521219,0.295326785687367
4029,0.25,0.249989546193966,0.2491452648531,0.246576693757188,0.245548976766319,-0.249989642453609,0.24965731493738,0.249999973827469,0.715842105056675,0.718467676380817,0.04,0.0759661507891811,341.631945388697,0.871910215809146,0.287899813902482
4089,0.249997538216509,0.249788173575691,0.174273478758299,0.247081162028568,0.246216538707414,-0.174991198550015,0.226837833491471,0.249786309547778,0.721629858554723,0.718467676380817,0.04,0.0762705627592764,344.2901948518,0.859316510737194,0.294392115513243
4149,0.249983588110057,0.248647062072136,-0.249999975778905,0.249939815566387,0.249999389706947,0.24999998357035,0.0975274386313227,0.248575545296191,0.72332752692448,0.718467676380817,0.04,0.0717145544758888,345.090243892101,0.834306589569387,0.303921681918476
4209,0.249929625286963,0.248849309637211,-0.249599907835762,0.249948839743403,0.249999478820979,0.249997988841356,0.120319641874534,0.173789972724512,0.723119975051979,0.718467676380817,0.04,0.0706047336572927,345.124822242718,0.809719609057492,0.313181583385613
4269,0.249623835956096,0.249995379172636,-0.247332856157952,0.249999976746496,0.249999983800489,0.249986685377054,0.24947546025273,-0.0177168388322302,0.719868389118026,0.718467676380817,0.04,0.0704398595197723,343.439641434569,0.780684116768781,0.323243465884804
4329,0.249679294606024,0.177239308464538,-0.178187984374782,0.205132730403404,0.174999986230416,0.249979747842491,0.243234599688202,0.0295393155349433,0.718278951878743,0.718467676380817,0.04,0.0650150013619587,342.725857620279,0.779161889743065,0.323201855879165
4389,0.249993560288954,-0.235045092214684,0.213632955729848,-0.0491149988741188,-0.25,0.249940435146635,0.207869723155876,0.249999366908877,0.72377131240889,0.718467676380817,0.04,0.046281982601163,345.266839386975,0.759393876426255,0.334073828955952
4449,0.249968493325579,-0.162300621103866,0.152857223446213,-0.00662416102754605,-0.222021082470206,0.219359029045474,0.139189264682495,0.249965830504269,0.722285652105046,0.718467676380817,0.04,0.0459450309539838,344.73511703809,0.740687903698721,0.341983340291344
4509,0.249826447199787,0.249918048524105,-0.191538592827716,0.234157253436367,-0.0634738831347086,0.0460643944722258,-0.000884811577807451,0.249775790878154,0.719304289214915,0.718467676380817,0.04,0.0551492162928035,343.159837544468,0.720513470267357,0.349952439507254
4569,0.249826252086923,0.200553277477632,-0.160667076605717,0.221109542504439,-0.091433723418432,0.0766546905754057,-0.000417689593995155,0.174816413608433,0.720532627768206,0.718467676380817,0.04,0.0488616220711268,344.006924500183,0.716305028477986,0.352877413006241
4629,0.249825146447354,-0.0791804251190453,0.0142715153189475,0.14717251389018,-0.249872818359532,0.249999701826758,-0.000357967300501717,-0.000357967300501717,0.722545925022813,0.718467676380817,0.04,0.0386866526107871,344.683156887676,0.676940857589832,0.374131272376855
4689,0.178682156408473,-0.0298033613511885,-0.0253541803106824,0.0875966368066532,-0.249585946662436,0.175038812416207,-0.00312480477666849,-0.00312480477666849,0.719615589261938,0.718467676380817,0.04,0.029259755530337,343.589392451767,0.670085119684997,0.376759706535694
4749,-0.224461453811855,0.25,-0.249899788878585,-0.25,-0.247960340378896,-0.249739560910249,0.168000025353981,0.249890600385136,0.736010589732621,0.718467676380817,0.04,0.00398287119325937,351.281536174059,0.593658699456058,0.434783609090131
4809,-0.159210503648744,0.249612857416916,-0.186362760517403,-0.175,-0.173267081697804,-0.17477865825658,0.105300021550884,0.174932965358767,0.723268405316676,0.718467676380817,0.04,0.00918891760241679,344.575218015572,0.56701747719495,0.446521392578687
4869,0.210544880608881,0.247419049446105,0.173680400195966,0.25,0.249994717495053,0.249999790114211,-0.146783022911471,-0.146783022911471,0.694416664744369,0.718467676380817,0.04,0.0564068948379427,331.601487102678,0.719167730880427,0.338798090137439
4929,0.210155654374447,0.247806192029189,0.110160757130041,0.226920137792381,0.174995751723086,0.249999506877891,-0.155995270587768,-0.143431336719411,0.712441560689461,0.718467676380817,0.04,0.0475936334724212,340.142137652997,0.780597659868355,0.32017533163743
4989,0.207950039045992,0.25,-0.2497838869102,0.0961342519492068,-0.249998387651397,0.249997901872077,-0.157359636293254,-0.0710015101081886,0.729801825070672,0.718467676380817,0.04,0.0292963053683905,347.996896147893,0.737611339596598,0.346658985730625
5049,0.214146285085347,0.247242862246425,-0.237793293075548,0.0442141810145172,-0.216814419083573,0.17500500853723,-0.170159756946636,-0.0255026898024774,0.721271523114932,0.718467676380817,0.04,0.0357219204588319,344.114361998582,0.711673687103329,0.355284749735674
5109,0.24925834597503,0.231619081642833,-0.169846594679185,-0.249999554282058,-0.0287719305325671,-0.249954720360239,-0.184736119237767,0.232323958596553,0.720250763992698,0.718467676380817,0.04,0.0273549622152864,343.677805637758,0.703051389426062,0.359185744724779
5169,0.249369594078775,0.234374526060218,-0.181868514291118,-0.176630659592903,-0.0619561409526822,-0.249961512306203,-0.207189230921994,0.18269376662123,0.72262064999684,0.718467676380817,0.04,0.0291631611246209,344.912907991463,0.6846353186747,0.370173073089969
5229,0.25,0.249988711092068,-0.249992725425408,0.239126410312312,-0.25,-0.25,-0.113083233986991,-0.098543987905599,0.72278106242586,0.718467676380817,0.04,0.0362986573155509,344.722000450016,0.64985278979538,0.389770252047807
5289,0.249384875031671,0.174993404347553,-0.249357642065493,0.167793986694288,-0.249941643035072,-0.249991409520975,-0.0586247705273818,-0.0462623934435714,0.715744445001735,0.718467676380817,0.04,0.0338240786828998,341.224325334613,0.649737375522085,0.385884034197955
5349,0.245899166877804,-0.249980000538033,-0.245758836359309,-0.236423080474516,-0.249610953567147,-0.249942730139833,0.249973189077068,0.249999975174584,0.731418048308304,0.718467676380817,0.04,0.022053168159496,349.128364036878,0.620938002733354,0.413134600588802
5409,0.246464304436743,-0.249982912752308,-0.171395055311186,-0.185589511652185,-0.17466931889797,-0.174951320618858,0.174977210715508,0.174999978898397,0.719300161264286,0.7150773470538,0.04,0.0261695253985878,342.795537329638,0.61064526281623,0.412478050804856
5469,0.249666750604063,-0.249999415299866,0.249999703961516,0.102467378341021,0.249999944227364,0.25,-0.25,-0.25,0.688845340776159,0.692475151540353,0.04,0.0539507507601804,328.53795852662,0.672981012468921,0.358704990852043
5529,0.178310102475082,-0.174999503004886,0.249999748367288,0.049597271589868,0.174999952593259,0.249968772456812,-0.25,-0.249999799554077,0.674220521846279,0.669872956026906,0.04,0.057543764778912,321.642057161114,0.657754970862069,0.359305089141457
5589,-0.226044236922476,0.25,0.25,-0.25,-0.25,0.249791816378746,-0.25,-0.249998663693849,0.66418147172283,0.64727076051346,0.04,0.0419666076733116,316.653049614138,0.573077861656029,0.405998771568413
5649,-0.154722904314486,0.175,0.249919137321662,-0.25,-0.249896913917827,0.232413324317581,-0.175049908762811,-0.249998234159869,0.631167152363475,0.624668565000013,0.04,0.0464665952961953,300.823915852314,0.51834496762514,0.426430392358829
5709,0.249431313797454,-0.25,0.249460915477744,-0.25,-0.249312759452179,0.133935202637648,0.249667274914594,-0.249995800133983,0.599547149618618,0.602066369486566,0.04,0.0502087051286819,286.02247631777,0.527891442311643,0.39811653629657
5769,0.203824795186126,-0.175127532267319,0.174541779335314,-0.25,-0.249407211982362,0.151318683199865,0.174717736208285,-0.244697318839087,0.585358129730963,0.585925893381189,0.04,0.0449350632841911,279.381015454228,0.510951551524367,0.401764764408492
5829,-0.0546121436113989,0.249149784884537,-0.249999992138457,-0.25,-0.249942442986734,0.249825073052427,-0.245670576942232,-0.245670576942232,0.611957886242652,0.606401827254871,0.04,0.00200606419254762,292.009097368169,0.48549091334699,0.441946757858872
5889,-0.0089486331106956,0.174297215721384,-0.249999965988488,-0.249999918089159,-0.249768709308326,0.249828295720232,-0.24999681869159,-0.249817397474013,0.613474501792134,0.626877761128553,0.04,4.78356529929742e-06,292.728555261889,0.534896973748848,0.402114399079696
5949,0.249811259726623,-0.249867342869818,-0.249999817805333,-0.249999453927724,-0.248784218464014,0.249846557504465,-0.249999664666079,-0.249996889706703,0.627535487888677,0.647353695002234,0.04,1.55669810215631e-06,299.643015849588,0.654938359027853,0.336169577607062
6009,0.174874241607047,-0.249887241439345,-0.249999845134533,-0.249999535838565,-0.248966585694412,0.174871270900095,-0.249999493449135,-0.175038691414152,0.663771612622085,0.667829628875916,0.04,1.56836335182477e-05,317.059529188819,0.717243505759662,0.324809604009987
6069,-0.249768861070555,-0.25,-0.25,-0.25,-0.25,-0.249988686524667,-0.249998523219789,0.249724432243637,0.711148272632181,0.688305562749598,0.04,0.00225713709918094,339.076490351323,0.616251317553011,0.404291392134216
6129,-0.174806369333966,-0.175,-0.17500213173532,-0.175,-0.175003353625128,-0.249990383545967,-0.17499874473682,0.249765767407092,0.709133491282479,0.70878149662328,0.04,0.0117684828817637,337.905368544116,0.619657222269228,0.40068054163706
6189,0.249981083840035,0.25,0.249985788431198,0.25,0.249977642499148,-0.25,0.25,0.25,0.66243471184448,0.729257430496961,0.04,0.04846798383631,317.364796324174,1.07264787504393,0.217398353482781
6249,0.175162111733311,0.175,0.174987920166518,0.191499228361824,0.174980996124276,-0.249999992406115,0.193107330916059,0.175,0.7431947427615,0.749733364370643,0.04,0.0439856206826779,355.863855189002,1.21572482586116,0.215081605781632
6309,-0.248812063538125,-0.25,-0.25,-0.140005144254506,-0.25,-0.249999949374098,-0.129284460559607,-0.25,0.823692414066502,0.770209298244325,0.04,0.0205247712448904,390.251468247795,0.938596467222037,0.30550639584691
6369,-0.173990254007406,-0.175,-0.175,-0.0815043726163304,-0.25,-0.175014801153085,-0.0723928902845943,-0.25,0.795927644058333,0.790268607681116,0.04,0.0363862366219232,378.266976142677,0.854382666255886,0.325312443083686
6429,0.25,0.25,0.25,0.25,-0.25,0.249901038765986,0.249992674607146,-0.25,0.776736829173036,0.807967045308858,0.04,0.075740117673385,371.175170218608,1.04867413930651,0.260071662788334
6489,0.25,0.175111268112893,0.249999999888994,0.175,-0.25,0.249915882951088,0.174993778396824,-0.175,0.819601197774733,0.825665482936601,0.04,0.0655108899769834,391.411334362801,1.12283233080469,0.256137499062212
6549,0.25,-0.24925821258071,0.249999999259958,-0.25,-0.25,0.25,-0.249999966795005,0.25,0.853031077419823,0.843363920564343,0.04,0.0515045762969994,406.985469230972,1.08728854418169,0.275035508889463
6609,0.25,-0.174369480693604,0.249999999370964,-0.175,-0.175000068822097,0.175010201871454,-0.249999971775755,0.175014237271784,0.866563272463445,0.861062358192085,0.04,0.0573101047839704,413.485780269324,1.05246267087486,0.288674587576501
6669,0.25,0.25,0.25,0.25,0.249999541186019,-0.24993198752364,-0.25,-0.249905084854775,0.880976571319517,0.878760795819827,0.04,0.0686697764342575,420.370929743821,1.03147198927994,0.299453858098712
6729,0.249999998318647,0.25,0.193476376858032,0.25,0.174999610059391,-0.249942164911698,-0.175,-0.237912167198609,0.891990313787752,0.89645923344757,0.04,0.0607463701234629,425.662768381809,1.04771622215141,0.298522227261982
6789,0.249999988790977,0.25,-0.126824154279787,0.25,-0.24999999965817,-0.249999836777359,0.25,-0.169952300480335,0.911976247571292,0.914157671075312,0.04,0.0465925296734971,435.265548801895,1.0747132708624,0.297588646927521
6849,0.24999999047233,0.243028221090058,-0.145300531137819,0.175002643176009,-0.175000212840084,-0.174999861261441,0.175,-0.181959455136806,0.932962896435044,0.931856108703054,0.04,0.0449573786748499,445.354776896481,1.07657179016216,0.303960951678349
6909,0.25,0.203521473933723,-0.25,-0.249982378826607,0.24999857912907,0.249999999995425,-0.25,-0.249999998190138,0.95341083400892,0.949554546330797,0.04,0.0414689660133849,454.920465766672,1.05190265203643,0.317771249282216
6969,0.249619332250716,0.135618988845282,-0.175,-0.174985022002616,0.244234914159206,0.174999999996112,-0.249999999703404,-0.249999989539555,0.966326670846288,0.967252983958539,0.04,0.039389940966557,461.150831741616,1.05243800838272,0.32195942899684
7029,0.247462215004772,-0.24916175998922,0.25,0.25,0.211574145996643,-0.25,-0.249999998022696,-0.249999940519587,0.981851215691442,0.98229665594212,0.04,0.0369558661768987,468.497078145462,1.06232143349031,0.324045219621239
7089,0.172842882754057,-0.249287495990837,0.249659099993327,0.175,0.21733802352729,-0.25,-0.174999998319292,-0.175000350219505,0.980626935847087,0.98229665594212,0.04,0.039975750199804,467.696180904729,1.05486503732654,0.325777886630449
7149,-0.25,-0.25,0.247727333288844,-0.25,0.24999999620096,-0.25,0.25,0.249997328147624,0.987245306607587,0.98229665594212,0.04,0.0367886202094639,470.880148443711,1.0680080128555,0.323959370872252
7209,-0.249997202437963,-0.25,0.173068516016134,-0.249999832111557,0.174999996770816,-0.249999809449692,0.175,0.174997728925481,0.994269467172627,0.98229665594212,0.04,0.0333659311010933,475.250616552534,1.041097445574,0.335417705974112
7269,-0.249981349586422,-0.25,-0.249998115195894,-0.249998880743711,-0.25,-0.249998729664616,-0.25,-0.25,1.01946786000319,0.98229665594212,0.04,0.00742406545645615,484.908721269703,0.817458336959036,0.435862036822752
7329,-0.249980712267013,-0.249991325225237,-0.175006029475349,-0.249999048632007,-0.211382271244626,-0.181156355665013,-0.175000007832298,-0.175000252078384,0.981984013307218,0.98229665594212,0.04,0.0144132237736066,466.528079270277,0.750837584816769,0.45654801649725
7389,-0.249977100790362,-0.249942168168249,0.24994912294107,-0.24999999999902,0.00745152503582324,0.208950430332739,0.249999947784682,0.249998319477439,0.950044707518588,0.98229665594212,0.04,0.0385868697874073,454.31325636307,0.959824193010593,0.347791043077518
7449,-0.248787241800059,-0.244402151119895,0.175444183159746,-0.17500000028932,0.0438337959574244,0.140191916888677,0.175083366718167,0.249998560011787,0.975648018327424,0.98229665594212,0.04,0.0349862757157314,465.774062204993,1.03114992950878,0.331900693572939
7509,-0.242044707521671,-0.213008721179225,-0.246750475601088,0.249999998065648,0.249999997846498,-0.249439659294337,-0.249443925992084,0.249999923039758,0.9857725247133,0.98229665594212,0.04,0.0291369563810817,470.081959199822,1.01482573769021,0.340358646011482
7569,-0.168283817022042,-0.143557677108407,-0.172278822190894,0.249981513666174,0.249974132698375,-0.249432145156147,-0.174546309368656,0.249991670682457,0.978113665589762,0.98229665594212,0.04,0.0390569274649438,465.510905680857,1.0194194591515,0.33553020078271
7629,0.249694562475854,0.249998239292894,0.249727213800208,0.249876768735825,0.249827563525675,-0.249389565039736,0.249873518164104,0.249944907324423,0.959529085068493,0.98229665594212,0.04,0.0702965571772355,458.150250782334,1.16977607941944,0.287779509885881
7689,0.24964234635321,0.249837425324282,0.174768289258315,0.249895137444566,0.1748743114618,-0.239479897770264,0.17500027961804,0.175688484699792,0.985194978409186,0.98229665594212,0.04,0.0648929442989926,470.522849412553,1.2071967732226,0.286389656616107
7749,0.249346454991556,0.248926146168813,-0.249998949812412,0.249999226794101,-0.249860783566825,-0.183325116576587,-0.249281405476323,-0.245097910173118,1.01172282928025,0.98229665594212,0.04,0.0489042675286421,482.258861473958,1.04503007022803,0.339083069245355
7809,0.249435457232322,0.249050943831398,-0.249937658205017,0.174999344137668,-0.249712770711072,-0.122742578161734,-0.176272078529304,-0.245833223511197,0.987441807065138,0.98229665594212,0.04,0.0524201559263756,470.857746126243,0.974162101287093,0.355151101443698
7869,0.249939803263331,0.249758130586045,-0.249590339096443,-0.249999990915452,-0.24887403119514,0.220558472855769,0.237447440837134,-0.249999999093643,0.978835224596389,0.98229665594212,0.04,0.0487990772092513,467.124764330419,0.995703713616178,0.344712824647351
7929,0.174948942798522,0.249794410998139,-0.249647568906362,-0.249999979720648,-0.174043329330441,0.149974701927404,0.23932404652657,-0.174999999229596,0.980910621152584,0.98229665594212,0.04,0.0461313307102606,467.907037198589,0.995025923087482,0.345525304020078
7989,-0.249999266502058,0.25,-0.249971871162569,-0.249999916283424,0.249997314569518,-0.25,0.249958145433374,0.25,0.985169641513788,0.98229665594212,0.04,0.0399259437526467,470.055165595391,1.00405597421968,0.343989812920288
8049,-0.249999364395865,0.186092658040536,-0.193954569558529,-0.249995412279574,0.234868299620515,-0.175,0.174964423618368,0.236795362243741,0.984117844320656,0.98229665594212,0.04,0.0399269214294744,469.58727584381,0.996480684538221,0.346259830374624
8109,-0.249999919127438,-0.176048946396426,0.1234768061977,-0.249969889591089,0.149137214909499,0.25,-0.25,0.161969081624937,0.989015940413841,0.98229665594212,0.04,0.0382412313957204,471.70910768463,0.95987061129765,0.361090649932918
8169,-0.175000500302296,-0.112141604436962,0.142453332204262,-0.174974406152426,0.0892666423769862,0.175000016961474,-0.25,0.100173743134318,0.98714540078179,0.98229665594212,0.04,0.0369764595892421,470.729979945362,0.942734611413119,0.36689102066265
8229,0.249996206373509,0.25,0.249986979574782,0.25,-0.249999935307256,-0.249999886923505,-0.25,-0.249999841645858,0.98451462051638,0.98229665594212,0.04,0.04795456888951,469.604579520828,0.932418021280847,0.370063575824075
8289,0.249996769148848,0.175000085524351,0.249988932638565,0.175000003152882,-0.249999944868457,-0.175086402197572,-0.249999994252671,-0.175033178177747,0.976607575955025,0.98229665594212,0.04,0.044408380034401,465.734198236098,0.945764035620573,0.361834530416247
8349,0.249999958209105,-0.24999942983766,0.25,-0.249999978980784,-0.249999999048597,0.249423344582715,-0.24999996168447,0.249777914808212,0.976945281839888,0.979989863531556,0.04,0.0343941773372179,466.090795899475,0.994103516587572,0.344503463905814
8409,0.249969140632617,-0.175004043423327,0.249879589542754,-0.249901175224063,-0.174999999191308,0.24950937657002,-0.2499999674318,0.249811126788428,0.967638687316833,0.96461124746113,0.04,0.0450192170608679,461.261466987625,0.976120837578073,0.347214831664026
8469,0.249794507699183,0.249969812924561,0.249197263618356,-0.249341287269306,0.25,0.249996891164752,-0.25,0.249999328009648,0.94472608270235,0.949232631390705,0.04,0.0672170288989517,450.767103185769,1.00228610826456,0.330457169861294
8529,0.249824594845898,0.249974065768314,0.174317674075603,-0.174542793614174,0.175,0.232063453911974,-0.249977030918146,0.175003919521214,0.941114413289427,0.933854015320279,0.04,0.0644311082467822,449.220466266284,0.986346988455992,0.33464511338438
8589,0.249995088677283,0.249998165216246,-0.25,0.249315337098242,-0.25,0.130440642812902,-0.249846872787643,-0.249970061913242,0.941061822165549,0.918475399249853,0.04,0.0530047071336089,448.513725369523,0.856266025977715,0.384876771801117
8649,0.182353048561802,0.249998440433809,-0.175000527642486,0.174418036533505,-0.175,0.0733745463909669,-0.174869841952632,-0.249966654352216,0.908759065103297,0.903096783179428,0.04,0.053763165981088,433.23377517671,0.79366115808761,0.401090021042092
8709,-0.200951845425926,0.25,0.24999648238343,-0.25,0.25,-0.25,0.249999999445765,-0.243392089092505,0.885861304807488,0.887718167109002,0.04,0.0442969099542378,422.74421905735,0.801793677862178,0.387409018262935
8769,-0.133309068612037,0.175000000083351,0.174998646981166,-0.197804958562368,0.175,-0.249998929529327,0.175040856033497,-0.220930873184788,0.87865625383885,0.872339551038576,0.04,0.0344611486649574,419.599307726338,0.785787771646878,0.39235950070666
8829,0.25,-0.249999999444325,-0.249989086964994,0.0979669429175473,-0.25,-0.249992863528845,-0.228932029577668,-0.228932029577668,0.878221553085812,0.85696093496815,0.04,0.00776005863338508,418.431391531648,0.66085262512798,0.465237073789206
8889,0.17500283095726,-0.201230852401264,-0.249990723920245,0.0457719014799152,-0.25,-0.175064654980898,-0.249767355793662,-0.25,0.84464987546423,0.841582318897725,0.04,0.00487755115129155,402.893335808632,0.616913965873328,0.479866196891293
8949,-0.249981126951597,0.0751276475094123,-0.25,-0.25,-0.25,0.249528526790798,-0.24999250657588,-0.25,0.831005737369804,0.826203702827299,0.04,0.0018519385875285,396.794165947252,0.595063030241647,0.489955892258663
9009,-0.249983957908858,0.0263585004638163,-0.25,-0.249997484222422,-0.249955788563359,0.17460534064412,-0.209890652940299,-0.25,0.810623925289961,0.810825086756873,0.04,0.00318129663048351,386.574371091798,0.581360880234627,0.48858702495038
9069,-0.25,-0.249999999461227,-0.25,-0.249983228149478,-0.249705257089061,-0.249959380853722,0.0173531843279909,-0.25,0.796015741204774,0.795446470686448,0.04,9.24311757741116e-06,379.588954800213,0.545740632834909,0.511071841195186
9129,-0.25,-0.174999999542399,-0.249920409059825,-0.249985742532387,-0.247419366279112,-0.238748889540212,0.050336909542499,-0.249999973705536,0.781720006470471,0.780067854616022,0.04,2.91483420552862e-05,373.027025373608,0.54456671044432,0.503319647900532
9189,-0.25,0.24999999999763,-0.249469393732165,-0.249999990702208,-0.234465985022738,-0.175222772096988,0.237244685758045,-0.249999824703572,0.740751422815506,0.764689238545596,0.04,0.0170437543272989,353.568807970773,0.644483780885564,0.403103555025674
9249,-0.22100189641484,0.175000000171803,-0.248599335191386,-0.175000211020387,-0.236784716205691,-0.111446455579275,0.164157982894338,-0.249981293469227,0.741345359813246,0.749310622475171,0.04,0.0202741831300235,353.470386253688,0.701803264277084,0.370077197675848
9309,-0.0566793094322696,-0.249999998841217,-0.24366900346031,0.249998540509934,-0.249924192909093,0.249952671354436,-0.25,-0.249876283141274,0.724879733516326,0.733932006404745,0.04,0.0267309039160713,345.938820217397,0.765335370888439,0.332125476899885
9369,-0.0107367149330031,-0.175085230902913,-0.169619509848996,0.249998759433444,-0.249919383198415,0.249959674662633,-0.249188907842958,-0.174894840670083,0.716556022930639,0.718553390334319,0.04,0.0425858759816046,340.989248506086,0.783097119968769,0.319948247220886
9429,0.249604653896174,0.249431787414146,0.249994287281784,0.25,-0.249892128171241,0.249999360075751,-0.244592718953052,0.25,0.686548351798755,0.703174774263894,0.04,0.0874388399768194,327.845510188987,0.912064888915139,0.264118109100084
9489,0.249663023324592,0.249517019302024,0.249557669801811,0.24944438440419,-0.216322094145886,0.249996376649111,-0.170403816972432,0.175,0.694707883376168,0.687796158193468,0.04,0.095955279629963,331.383841630209,0.900531806132073,0.270387710337871
9549,0.249993783418961,0.25,0.247083504081963,0.246295896027933,-0.0260919013355417,0.249979470564816,0.249999960917748,-0.25,0.682810235766166,0.672417542123042,0.04,0.107917254003596,325.664763129795,0.840223963381172,0.2847937034892
9609,0.174994715906117,0.213080081327526,0.172520978469668,0.171851756478618,-0.0596781054219741,0.249982547702873,0.249999933429437,-0.249989899999235,0.667911906588676,0.657038926052617,0.04,0.105770906255139,318.663634001537,0.775103496106067,0.302083834225898
9669,-0.25,0.00386720885017382,-0.25,-0.249998367634164,-0.249999928578424,0.24999998481853,0.249999777662337,-0.249932666661564,0.674368549929331,0.641660309982191,0.04,0.0530630575588516,321.644670542748,0.63164636616786,0.374159721873336
9729,-0.175,-0.0342128724773523,-0.175020980978867,-0.244165487056729,-0.178682558865479,0.17499998709575,0.218919196118374,-0.202800151006396,0.639119752431762,0.626281693911765,0.04,0.0528173363261657,304.77055504817,0.53590412157311,0.417869414989549
9789,0.25,-0.25,0.249860126807552,-0.211112497117928,0.22544920284121,-0.25,0.0427959007025851,0.0642841043728897,0.607901199939623,0.610903077841339,0.04,0.0713358105519733,289.953627046314,0.550248159948265,0.387190437634207
9849,0.249999723362493,-0.249999999995461,0.206273482954634,-0.216945622550238,0.228688491633129,-0.175000006751861,0.0738765155971973,0.0171414887169562,0.600335085942883,0.599885234334661,0.04,0.0600495532172415,286.36315801852,0.537454394986211,0.391498588696977
9909,0.249998155749952,-0.24999999996974,-0.040717498878566,-0.25,0.247044461454007,0.249999954987593,0.25,-0.146087031937078,0.607509987090264,0.613578435355887,0.04,0.0450501205238492,290.081931125495,0.565485473542153,0.376924095359367
9969,0.249900267338023,-0.174999999974279,-0.0720998381063034,-0.175000001257429,0.172487795259174,0.249999961739455,0.175000000363716,-0.117534642591434,0.622551828553552,0.627271636377112,0.04,0.0311787283376377,297.378480361214,0.601197316869954,0.363452098254968
10029,0.249345566337085,0.25,-0.249933093730149,0.249999991617139,-0.249999979844879,0.25,-0.115772275991953,-0.115772275991953,0.636426057775098,0.640964837398338,0.04,0.0339650276490897,303.660876330116,0.615432085604017,0.362546221165704
10089,0.174452125160794,0.175,-0.174943129670713,0.249886569769865,-0.175277128590966,0.175,-0.126217076293188,-0.126217076293188,0.649203295630747,0.654658038419563,0.04,0.0286074748766351,309.782112313388,0.647165502324983,0.351718857894598
10149,-0.249944041504857,-0.25,0.249999999999428,0.249243845968644,0.248152361847873,-0.25,0.249999532462496,-0.150678139561752,0.662888867736384,0.668351239440789,0.04,0.0170660505771118,317.116248500258,0.694358011924474,0.335575093891466
10209,-0.249952201527518,-0.175000114854856,0.249999999999514,0.174357323526705,0.173514368534751,-0.249999765839872,0.249999602385478,-0.174999980749007,0.680454520331359,0.682044440462014,0.04,0.0187308142156033,325.13693749077,0.709794128185905,0.336580215936899
10269,-0.249998441655934,0.249999234300958,0.25,-0.249999636977615,-0.249434260239607,-0.249998438932479,0.249999998615713,0.25,0.692361973910289,0.69573764148324,0.04,0.0260003031958441,330.283695251815,0.732096852908803,0.331492167408785
10329,-0.249998233371718,0.238955112940312,0.236394020131752,-0.249999621481766,-0.249518858753019,-0.174999108902223,0.174999998861592,0.245134358569902,0.705366363607768,0.709430842504465,0.04,0.0271931751050544,336.661974864874,0.759859993835845,0.325548098627285
10389,-0.249997053094492,0.176371758563313,0.159293467545013,-0.249999533671956,-0.249998250329021,0.249997094602561,-0.249999999745097,0.217562390466011,0.721669242375587,0.723124043525691,0.04,0.0246297881955924,344.371560483665,0.773131482623717,0.327286880242919
10449,-0.17514305664096,0.112468236481597,0.0978994474132609,-0.174999610647957,-0.175001094445443,0.174997607520208,-0.249982679488629,0.147429554547896,0.73731137225255,0.736817244546916,0.04,0.0242564252914287,352.279006121124,0.78636864477188,0.329166212479328
10509,0.249029589929052,-0.249651721981461,-0.25,0.249999953154705,0.249982788894829,-0.24999948594646,-0.249884531368643,-0.249989848988092,0.753239783449393,0.750510445568142,0.04,0.0235094482920713,359.267957352684,0.76948060012745,0.343064267785425
10569,0.249169535853296,-0.174704005781566,-0.175000000004303,0.249999959075899,0.249985365203848,-0.175002576530875,-0.174931798516366,-0.174991371639878,0.755985043143855,0.764203646589367,0.04,0.0356052208978357,359.9504780013,0.789059269112036,0.335187492844545
10629,0.249962562757346,0.249999719351169,0.249999999971315,0.249999992629334,0.249999964288289,0.249979910157438,0.249800354313207,0.25,0.742483310362751,0.777896847610592,0.04,0.0745102855501938,354.82432952363,0.999271234676886,0.260906369242383
10689,0.249968178343744,0.249999761448493,0.249994683130128,0.249999993665531,0.174999969645046,0.174983236416195,0.174831252883396,0.200043018558978,0.78823463110599,0.791590048631818,0.04,0.0649075811204206,376.690811289374,1.08176794200866,0.255861885342171
10749,0.25,0.25,0.249964554363399,0.249999999537317,-0.25,-0.249997914784181,-0.249993655218866,-0.0830465429401472,0.831739639972661,0.805283249653043,0.04,0.0488995657027428,396.561096456058,0.949932431508413,0.306741168647015
10809,0.175,0.175,0.249838152378417,0.175005885938946,-0.249999998929375,-0.249980163829381,-0.24999260160262,-0.0332722195517818,0.822855929336067,0.818976450674269,0.04,0.0496039868016679,392.632382678457,0.89142632092297,0.32363489243362
10869,-0.25,-0.25,0.249121874463517,-0.249960757785163,-0.249999992862497,-0.249879575085511,-0.249986631110556,0.248782279648955,0.858210667080414,0.832669651695494,0.04,0.0137536389137279,409.205470044521,0.819790124567229,0.366769678349287
10929,-0.249999524413147,-0.249999999317134,0.218269032786975,-0.174993996434812,-0.183198364377047,-0.218476881896971,-0.174989118457778,0.248962664079387,0.8442122962876,0.84636285271672,0.04,0.0208211764526636,401.648958786903,0.787675791420685,0.374674230259802
10989,-0.249996829420982,-0.249999995447563,0.0434362632865696,0.249817651217177,0.195344197040504,-0.0405282871619094,0.249996786574632,0.249984842518502,0.838411598764406,0.860056053737945,0.04,0.0357129741234793,400.692259024412,0.927337270405707,0.317488437787701
11049,-0.249933689204695,-0.233223750647663,0.074420238356039,0.174845003534601,0.203395327889607,-0.013355183723525,0.175035127171285,0.233073773355377,0.869367598649457,0.873749254759171,0.04,0.0335314284441389,415.091551124499,0.979879509611886,0.311261849616145
11109,-0.249575894645734,-0.138158363448227,0.249996097083032,-0.25,0.249018402701189,0.140625735760652,-0.249747609447678,0.137244381431004,0.891070811474946,0.887442455780396,0.04,0.0314005555194824,425.078549268925,0.962886226846774,0.324376132472053
11169,-0.174639510448874,-0.154934608930993,0.249971160399865,-0.175,0.249165560059418,0.156955091158829,-0.177732118070292,0.152670782485279,0.896822186537269,0.901135656801622,0.04,0.0388842109585726,427.436491745117,0.969927672193167,0.323807514393382
11229,0.25,-0.25,0.249829852528587,0.25,0.249999451756051,0.249488105081827,0.230355666401567,0.240087055126173,0.891093211169072,0.914828857822847,0.04,0.0588001902424259,425.60580616837,1.10902035601426,0.281982854543175
11289,0.25,-0.175003513322226,0.174994782891091,0.249999999995176,0.175067902066803,0.174565310199761,0.158305360947197,0.16658145051036,0.929381872774441,0.928522058844073,0.04,0.0518618713139127,444.048705284973,1.16029549495798,0.281200881899151
11349,0.25,0.249976577851829,-0.249070611721385,0.249999999967838,-0.249544212838935,-0.249997194131942,-0.249979703294228,-0.249950308979248,0.971285089572615,0.942215259865298,0.04,0.0359773848101517,462.995180987425,0.999993770801276,0.340199642072968
11409,0.175,0.249960661773932,-0.249179489588187,0.174999999972663,-0.174682149114958,-0.17501901266699,-0.231494874485569,-0.206847095597253,0.956107913276871,0.955908460886523,0.04,0.0387686109713019,455.957743251079,0.949031604927539,0.353019419184738
11469,-0.25,0.249870470665846,-0.249796464166734,-0.25,0.249536211987578,0.249857348967735,-0.126747511236499,0.0374044469007242,0.963151044413795,0.967547681754565,0.04,0.0317372550527825,459.702501946033,1.00086759259458,0.337485343176421
11529,-0.197482986213296,0.175153098247921,-0.248661835461781,-0.249998451556203,0.249605780189441,0.174878789629372,-0.0703110097158166,0.0692158204068,0.968266101455764,0.967547681754565,0.04,0.0325390498179049,461.957671874505,1.00084176653311,0.339149701739606
11589,0.100113425244695,-0.248245345453653,-0.242232272800384,-0.249989677041351,0.25,-0.249999713288017,0.249495832234715,0.249480270274563,0.969740841291017,0.967547681754565,0.04,0.032812362437431,462.538643862007,0.994774790471532,0.341647249061171
11649,0.122596411457991,-0.173840987916596,-0.243397431880327,-0.224286349255354,0.205734294727833,-0.249184252111938,0.174571457399508,0.174664856414664,0.973646807825071,0.967547681754565,0.04,0.0327967863690797,464.499667647549,0.979444708207081,0.348465799042603
11709,0.25,0.247783704793391,-0.25,-0.0786341584680393,-0.0451047018144494,-0.244563305447493,-0.25,-0.249289155458097,0.979774932216372,0.967547681754565,0.04,0.0343127543798924,467.191363983721,0.913478465451389,0.375795148337148
11769,0.249998562769094,0.174595436712662,-0.175084299776655,-0.0293390346978334,-0.00190328988249121,-0.196730815490602,-0.175002201485106,-0.174548044343981,0.961851285326242,0.967547681754565,0.04,0.0419484449623395,458.130552583784,0.898472311902258,0.374661643545643
11829,0.249990418460625,-0.240138082411467,0.249438001488965,0.25,0.242904711065271,0.0743199609317733,0.249985323432628,0.248984918636009,0.939949053927909,0.967547681754565,0.04,0.0583770886150984,448.907863146922,1.07064494720859,0.308082065422272
11889,0.249991708941137,-0.166625779077327,0.249522301265621,0.249760261110677,0.243969004405481,0.0259049855705797,0.174990406738915,0.174137180840608,0.967608754357097,0.967547681754565,0.04,0.0553052694296485,461.958444083886,1.12160658030115,0.302633525846162
11949,0.249999021664036,0.249943939816136,0.25,0.248401740737843,0.25,-0.248446541476184,-0.249980787858791,-0.25,0.985713563713726,0.967547681754565,0.04,0.0580275943149155,469.997042191985,1.02033108873542,0.338461037688879
12009,0.174999169622245,0.249920714811244,0.175,0.173642528536757,0.249999728716128,-0.173780468849075,-0.174983682950335,-0.175454722156039,0.964172473909277,0.967547681754565,0.04,0.0586513825395568,459.697891824221,0.99548493181626,0.339306748661718
12069,-0.249999991947904,0.24978910645019,-0.25,-0.249993007269397,0.249998191440852,0.249327276037874,0.249999911530917,0.246968518959743,0.966274596813015,0.967547681754565,0.04,0.041267742677108,461.02753427619,1.04852252037103,0.32307531568788
12129,-0.247343593692972,0.249820740482661,-0.175003456914307,-0.249993322518982,0.174998601156536,0.249421511941457,0.249978498777508,0.172442520640059,0.972552695385967,0.967547681754565,0.04,0.0419584347066363,464.126623911487,1.03754040628333,0.328689733329518
12189,-0.232290670248359,0.25,0.249976953904618,-0.249995108933295,-0.249999077121255,0.249955515395092,0.249857159841524,-0.249871469838147,0.978440072634401,0.967547681754565,0.04,0.0419476796609315,466.633417088699,0.970962723533696,0.353124585938486
12249,-0.159947203450992,0.175001365828489,0.249867783876063,-0.174996853791806,-0.249940380170353,0.231906235868599,0.249878585865296,-0.249733920649269,0.970389269757915,0.967547681754565,0.04,0.0412005283380935,462.859973773282,0.945029968915334,0.35988083673329
12309,0.249999108400753,-0.249990894476738,0.249249153714253,0.249993258676636,-0.24960776411524,0.129626985218471,0.25,-0.248954475245629,0.962975624650448,0.967547681754565,0.04,0.0438347559634605,459.514974371108,0.964921589697865,0.349914807477857
12369,0.249999241039072,-0.249991444911535,0.174365589516423,0.249482784361592,-0.17514413509166,0.147496753461399,0.233804534906326,-0.174111310966518,0.963395711859695,0.967547681754565,0.04,0.0429883274228481,459.452579119405,0.978882059250377,0.34487761073651
12429,0.249999992656217,-0.24999456404205,-0.249974607604613,0.246590096576343,0.246816429375296,0.248758773504654,0.142030232708839,0.249999953281778,0.959245179888116,0.967547681754565,0.04,0.0439077950268296,457.79737803346,1.03685546818657,0.324421594789695
12489,0.245483250679404,-0.175035573012038,-0.249978416463921,0.247101582089892,0.247293956684242,0.184306726905281,0.156900520959031,0.175058354000505,0.969570193113945,0.967547681754565,0.04,0.0445014632537455,462.71427281105,1.04748826037883,0.324577497726472
12549,0.219888379477459,0.249732042824695,-0.25,0.25,0.24999994476827,-0.180921537157834,0.241165487710122,-0.229626618622124,0.975505483263448,0.967547681754565,0.04,0.049417205975234,465.312534728234,0.995888710461187,0.343311711540086
12609,0.224405122555841,0.249531553959772,-0.175000928402146,0.19333317749138,0.249904875956119,-0.116283306584159,0.242490664517506,-0.174682391324898,0.966463550759187,0.967547681754565,0.04,0.0520351449380654,460.674095748477,0.98429312139731,0.34389354038938
12669,0.25,0.248395450391879,0.24999381065236,-0.127778816724136,0.249366152687269,0.25,0.249999999759347,0.249911406529823,0.951392073089916,0.967547681754565,0.04,0.0612507721353995,454.16147999759,1.08034974222664,0.308887689474692
