time,bias_percent_1,bias_percent_2,bias_percent_3,bias_percent_4,bias_percent_5,bias_percent_6,bias_percent_8,bias_percent_9,normalized_power,power_SP,SP,CV,total_power_MW,fuel_fraction,thermal_efficiency
41,0,0,0,0,0,0,0,0,0.999739132408968,1,0.04,0.0399406834728377,476.979475120797,0.999843022888134,0.350527864687927
101,0,0,0,0,0,0,0,0,0.999969767169485,1,0.04,0.0399028158113523,477.086090153491,1.00026958625356,0.350456699643044
161,0,0,0,0,0,0,0,0,0.999997065793845,1,0.04,0.0399436134691351,477.098665364962,1.0003164582318,0.35044951527529
221,0,0,0,0,0,0,0,0,1.00000124249723,1,0.04,0.0399738017240047,477.100609610901,1.00031470270076,0.350451558441613
281,0,0,0,0,0,0,0,0,1.00000280319819,1,0.04,0.0399918888138869,477.101346584791,1.00030061871929,0.350457034059168
341,0,0,0,0,0,0,0,0,1.00000366227201,1,0.04,0.0400021511662233,477.101751791188,1.00028011406612,0.350464515699127
401,0,0,0,0,0,0,0,0,1.00000398207686,1,0.04,0.0400074969346425,477.101900508194,1.0002566332471,0.35047285202723
461,0,0,0,0,0,0,0,0,1.00000388302166,1,0.04,0.0400097337082123,477.101850496176,1.00023295892573,0.350481110562653
521,0,0,0,0,0,0,0,0,1.00000351005208,1,0.04,0.0400100467022827,477.101670948459,1.00021103213017,0.350488661969457
581,0,0,0,0,0,0,0,0,1.00000299269285,1,0.04,0.0400092433346326,477.101423403876,1.00019197083163,0.350495159601424
641,0,0,0,0,0,0,0,0,1.00000242852782,1,0.04,0.0400078751311736,477.101154134713,1.00017623903056,0.350500474732431
701,0,0,0,0,0,0,0,0,1.00000188283665,1,0.04,0.0400063075793688,477.100894196993,1.00016384441619,0.35050462737439
761,-0.170812187331481,-0.17064120000224,0.170833333333333,0.170772026678138,-0.170503832049489,0.170833333333333,-0.170833082412676,-0.170833195220466,1.00947534004166,1,0.04,0.0343972110849853,481.697838414495,0.970521023275883,0.364690479825012
821,-0.249969054631435,-0.249718829271571,0.25,0.249910282943617,-0.249517802999252,0.25,-0.249999632799038,-0.249999797883609,1.00262133689792,1,0.04,0.0328150196138859,478.28937185968,0.928009297543782,0.378698059187728
881,-0.249959226219373,-0.248892200923602,-0.0912518066714026,0.248622554152274,-0.249649874868898,0.249828628288173,-0.249999883719695,-0.248810067535341,1.00558992347703,1,0.04,0.0210147394452706,479.785950366828,0.90959614138189,0.387573070172517
941,-0.249954671589393,-0.248509129250153,-0.249392887811809,0.248025801785555,-0.249711078906051,0.249749212129034,-0.25,-0.248258729081265,1.00149418210991,1,0.04,0.0170334438267649,477.771793150931,0.882626405851796,0.397739081221506
1001,-0.249981236549703,0.0921387757374515,-0.249806304673568,0.249374837232092,-0.249883186094591,0.249685911451161,-0.249998945645171,-0.204290095552296,0.988619625786066,1,0.04,0.0240459421555878,471.605478677444,0.918136773868872,0.377421064802339
1061,-0.249993547141066,0.25,-0.24999788809731,0.25,-0.249962943084402,0.249656576990683,-0.249998457041714,-0.183914387331554,0.994013061538852,1,0.04,0.0273012862655875,474.288200728962,0.974541498903929,0.357599299464166
1121,-0.249997956594671,0.24984581208894,0.0914227005406293,0.249748590854104,-0.249988265310061,0.249886535655996,-0.249999266326901,0.112131973486457,0.98274548734362,1,0.04,0.0427222588968952,468.807050597261,1.04383159271608,0.330003369121585
1181,-0.25,0.249774359154546,0.249641997714309,0.249632084176737,-0.25,0.24999310186675,-0.2499996413615,0.249324189475291,0.993518940928928,1,0.04,0.0484682818058148,474.093864637762,1.11801085931854,0.311582451102033
1241,-0.0269630225710065,0.249781397644285,0.247066276942733,0.248956426557671,-0.249998646547755,0.249977604066821,-0.211946209578073,0.249609412518391,0.995549997885535,1,0.04,0.0583008427566898,474.970473096574,1.14100415055904,0.305868014736499
1301,0.0763955767253565,0.249784659383432,0.245872650243711,0.248643316929323,-0.249998019338177,0.249970422159537,-0.194311692410144,0.249741589050559,0.999054477117088,1,0.04,0.0627437435243307,476.68113540866,1.15798010646631,0.302469468313302
1361,-0.146641400352385,0.00332925905352818,-0.092926814411705,0.249570190790201,-0.249999372790423,0.249990633683853,-0.232365369263212,-0.0917479302396935,1.02287489587016,1,0.04,0.0420005989740896,488.20870992679,1.0873256235648,0.329913872034141
1421,-0.249999999485973,-0.110881780123744,-0.249931444373971,0.24999971770134,-0.25,0.25,-0.25,-0.249999170886396,1.01192251411909,1,0.04,0.0358554334765444,482.658585376091,0.961998247017773,0.368655257015668
1481,-0.249993451871756,-0.205940310045799,-0.249978290718424,-0.0916666247485462,-0.249978387009689,0.249999257719797,-0.249999998478242,-0.249999737101436,1.01300314917812,1,0.04,0.0215725171767479,483.312862742761,0.90219948745133,0.39362298796657
1541,-0.249990417611509,-0.249991823912117,-0.25,-0.249999807835079,-0.249968371233692,0.249998913736288,-0.249999997773037,-0.249999999493771,1.0067105067118,1,0.04,0.0152029270135562,480.218578763669,0.835095965665055,0.422529707235344
1601,-0.249796275020548,-0.249901939959436,-0.249999840244728,-0.249999936383848,-0.249989984224002,0.0137575908009114,-0.20898432652073,-0.249990859859789,1.00835208562234,1,0.04,0.00794933399555553,481.104766397339,0.794039737553852,0.445196866280869
1661,-0.249706306502786,-0.249860286420388,-0.249999766211798,-0.249999995955228,-0.25,-0.0957200954374341,-0.189977064233075,-0.249986624419651,1.00141796289477,1,0.04,0.00474148127695925,477.735824064836,0.767427916650901,0.457409196232338
1721,-0.249906997059216,-0.249955757366456,-0.249380973610864,-0.249999998719156,0.0916599200416248,-0.201144696888521,-0.230992527481229,-0.249980552124618,0.989842305655642,1,0.04,0.00633593522643292,472.203717597149,0.802343371334247,0.43243795927617
1781,-0.25,-0.25,-0.249094216064089,-0.25,0.249990126890183,-0.25,-0.249999693376714,-0.249977738134237,0.991121530733634,1,0.04,0.00760797718858495,472.885653775748,0.8643869804593,0.401978289817898
1841,-0.249999996578965,-0.249999262815092,0.0919529428852766,-0.24999714474338,0.249996873515225,0.0916666666666667,-0.249999366942744,-0.249992950409175,0.970330573971756,1,0.04,0.0213539422594061,462.858775892155,0.98765583346787,0.344347984645024
1901,-0.249999994993607,-0.249998921192817,0.249999187276446,-0.249995821575678,0.25,0.25,-0.249999215668465,-0.25,0.985797674067985,1,0.04,0.0286755320271727,470.423290821833,1.12023972170183,0.308554954301515
1961,-0.249999998409207,-0.249998431679199,0.249997137031225,0.091667950431471,-0.0916666666666666,-0.0912928419650849,0.0915966699606997,-0.249926705636751,0.994456752082353,1,0.04,0.0366959010775262,474.507099906322,1.16843620170294,0.298395580823836
2021,-0.249999999992046,-0.249998204831424,0.249996186917586,0.249999942337223,-0.25,-0.2494529394611,0.249897202325435,-0.249892739956221,0.998722227676878,1,0.04,0.0440528178723266,476.517280104803,1.18264991449898,0.29605822142487
2081,-0.249999226016973,0.0914183964605595,-0.0837108776712213,0.249999979693904,-0.249947355100472,0.0918256690221674,0.169666651398683,-0.249966034319467,0.996355102129912,1,0.04,0.05263147775692,475.374118454815,1.19635102318893,0.291965532100123
2141,-0.249998867345597,0.249635845839771,-0.238355614919693,0.249999997005537,-0.249922958683618,0.249979170514413,0.132486639993602,-0.249999999999995,1.00234775176641,1,0.04,0.0581179115921444,478.252796896355,1.19596469734523,0.293828443498796
2201,-0.249999641326106,0.249884684515928,-0.246275165461371,0.249999999051754,-0.249975601914386,0.249993403996231,-0.128860050297212,-0.249999999999998,1.01020314516403,1,0.04,0.0577430982048746,482.01100311447,1.15331867412343,0.307087617116638
2261,-0.25,0.25,-0.249945201078247,0.25,-0.249999997557913,0.25,-0.249971931163687,-0.25,1.00638997045874,1,0.04,0.0582932341595991,480.112907584004,1.10042178545583,0.320581811404437
2321,-0.249999999957892,-0.0304249050163737,-0.249982647008111,-0.0916308586302211,-0.249999993069159,0.249930968680035,-0.249990055832246,-0.249997912652838,1.01404955244342,1,0.04,0.0436484107266144,483.917637855653,1.04440304670542,0.34045365250479
2381,-0.249999999938379,-0.160377909780059,-0.25,-0.249947597995446,-0.249999990989005,0.249898978556149,-0.249998455068896,-0.249996945345616,1.00878420250438,1,0.04,0.0384241892068108,481.228049069547,0.961782924766699,0.367644900782872
2441,-0.249999999980487,0.120046995208446,0.0916666662702056,-0.249977356819122,-0.249989687148988,-0.0916986517581119,-0.249999489853237,-0.249890767213075,0.995643680661116,1,0.04,0.0411212868500631,474.973071342711,0.956472469978453,0.364880949969326
2501,-0.25,0.249999999959217,0.249999999419813,-0.249991147493509,-0.249984912198737,-0.249999992635452,-0.249999969387443,-0.249841562712629,0.999337833680321,1,0.04,0.0403324112532772,476.807752938446,0.974366653407506,0.359563477830221
2561,-0.25,-0.091666653078543,0.249987821236227,0.0916694699603888,-0.249995222196267,0.0916544425421848,-0.24995070328051,-0.134360634743691,0.991115515106188,1,0.04,0.0461870441807139,472.838834614929,1.00669501003222,0.345119817929492
2621,-0.25,-0.249999980096042,0.249982177687736,0.25,-0.25,0.249982107624505,-0.24992787264559,-0.0808450827580865,0.996825445817047,1,0.04,0.0470568408525725,475.618626597033,1.04185475454403,0.335433437469061
2681,-0.25,-0.24999999369708,0.249994356267783,0.25,-0.25,0.249994334081093,-0.249976499553358,-0.196433390778123,1.00209034584684,1,0.04,0.0462500518006612,478.124398601093,1.04061212178615,0.337603314646981
2741,-0.25,-0.25,0.25,0.25,-0.25,0.25,-0.249999033974031,-0.249998704250823,1.00084565830108,1,0.04,0.0466347683837584,477.492683123749,1.02979867516516,0.340697595532338
2801,-0.25,-0.24999405478126,0.249999905250793,0.249980614736342,-0.190369538167693,0.249905180494511,-0.24995696966548,-0.249999589679427,0.999297435458673,1,0.04,0.0470650767949796,476.757123553422,1.03063360669316,0.339897184676996
2861,-0.25,-0.249991299679893,0.249999861342624,0.249971631321475,-0.162735909513697,0.249861239748064,-0.249937476449322,-0.25,0.999874427632915,1,0.04,0.0464966602486671,477.045683127863,1.03374663123174,0.339078723227357
2921,-0.25,-0.249994632672749,0.249999956091831,0.249991016585134,-0.222358099185159,0.249956059253554,-0.249911887759722,-0.249975134153376,0.996676300178899,0.992305630099442,0.04,0.0466929431766472,475.447208752876,1.01798626708915,0.343174539106767
2981,-0.25,-0.249996177230413,0.25,0.25,-0.249987894398763,0.25,-0.249900029586492,-0.249963610956161,0.985594771432586,0.98104557658643,0.04,0.0484633165665894,470.133259976923,0.988490003712103,0.349464746507851
3041,-0.25,0.0916678772103692,0.208036838468066,-0.0916666666666666,-0.249989428224823,0.249999999966222,-0.249960239792375,0.0916778238475122,0.964801908990814,0.969785523073417,0.04,0.0542328504998191,460.176299340839,0.992421649477843,0.340708284491753
3101,-0.25,0.25,0.188590495319121,-0.25,-0.249990139022266,0.249999999950568,-0.249988142082907,0.249999464366288,0.960703275975063,0.958525469560405,0.04,0.056195137241818,458.309883720922,1.00090192871127,0.336451425985291
3161,-0.249999988422064,-0.0916666356914611,-0.111112943577407,0.0916666666666667,-0.249996830678422,0.249999750151382,-0.249994912070139,-0.0916645236768405,0.966206082131827,0.947265416047393,0.04,0.0439350861721171,460.99688858904,0.930420963489898,0.364060183364321
3221,-0.249999983056679,-0.249999954670431,-0.249999903066042,0.25,-0.249999931689811,0.249999634390784,-0.249998049381295,-0.249996615696827,0.945069060431437,0.936005362534381,0.04,0.0398428217945735,450.715306639936,0.836346454552386,0.395977731587279
3281,-0.249999251485725,-0.249999975155797,-0.249999115098156,0.24999886113556,-0.249999176899185,0.119386211312979,-0.249999289540049,-0.24999504856706,0.930894531808351,0.924745309021369,0.04,0.031916714009747,444.045405860986,0.798923890324367,0.408391457636053
3341,-0.249998912465039,-0.249999984649016,-0.249998749942307,0.249998333369111,-0.249998827118163,0.0588580396427764,-0.249999864247765,-0.249994322336192,0.91728269011659,0.913485255508357,0.04,0.0275694649504446,437.524700461588,0.767947337602097,0.418625629253086
3401,-0.249999655613929,-0.155545844614482,-0.249999604148397,-0.0916671944331147,-0.249999628587418,0.189471712553546,-0.249999904813361,-0.249998202073127,0.907666806079171,0.902225201995345,0.04,0.0238255575363128,432.964029228248,0.740573492553105,0.429574338101812
3461,-0.25,-0.111774413866772,-0.25,-0.25,-0.25,0.25,-0.249999923612053,-0.25,0.89258003846394,0.890965148482332,0.04,0.0221421573407088,425.757366162886,0.719312130815112,0.434910068809804
3521,-0.249999999936313,-0.20622852808099,-0.249999999833234,-0.24999993286912,-0.25,-0.0805202370307368,-0.249997911310415,-0.24999991186855,0.892910625814209,0.87970509496932,0.04,0.0126048514081022,425.904824179232,0.673737114762601,0.464490422141595
3581,-0.2499999999068,-0.249999946863189,-0.249999999755952,-0.249999901759688,-0.25,-0.233688151752298,-0.249996978780388,-0.249999871027146,0.870352278581493,0.868445041456308,0.04,0.00955303378405514,415.115298686729,0.623684013112365,0.489056238860318
3641,-0.249999999970487,-0.249999983173343,-0.249999999922718,-0.249999968890568,0.0916622463360507,0.096832085278439,-0.249998410750132,-0.249999959158596,0.833683020103208,0.857184987943296,0.04,0.0198945230485026,397.712521399329,0.696806898900248,0.419383653483273
3701,-0.25,-0.25,-0.25,-0.25,0.249993531223489,0.25,-0.249999074345867,-0.25,0.83526095287275,0.845924934430284,0.04,0.0233710131080148,398.463837188731,0.798088146325549,0.366853552239528
3761,-0.104358845245813,-0.249942215907513,-0.25,-0.249980179299916,-0.0916687151125619,0.249877899631708,0.0916661874988972,-0.249997786610336,0.826364532087391,0.834664880917272,0.04,0.0323441054150536,394.183982699915,0.84616314883287,0.34229420128957
3821,-0.0368666027987507,-0.249915437913433,-0.25,-0.249970994097439,-0.25,0.249821316534207,0.249998869817203,-0.249996760893175,0.819048331102874,0.82340482740426,0.04,0.0392233020264279,390.711952551061,0.883016505668718,0.325119150779252
3881,-0.182507756774828,-0.249973222005921,-0.25,-0.249982575631676,-0.249996089654727,-0.0917232497452903,-0.0916670086441796,-0.249967543441365,0.830264543584784,0.812144773891247,0.04,0.0300472728623297,396.181997654146,0.833632025760203,0.349200633688985
3941,-0.249999998861303,-0.25,-0.25,-0.249987942684127,-0.249994277543504,-0.249999999972374,-0.249999976711649,-0.249954003646623,0.809325023686276,0.800884720378235,0.04,0.0302869074432862,386.000623327874,0.740953321115351,0.382782287364991
4001,-0.249999884715388,0.0346924584498654,-0.249998054685268,-0.249996181849974,-0.24999757365929,-0.249996237466991,-0.249900665994062,-0.249946988190182,0.784949632645196,0.789624666865223,0.04,0.035876789435768,374.383540893701,0.735144109422958,0.374195828850507
4061,-0.249999831818501,0.166623109926632,-0.249997153197953,-0.25,-0.249999101127582,-0.249994493866936,-0.249854643954204,-0.249943737125001,0.778531690876218,0.778364613352211,0.04,0.0373342575167591,371.357171669801,0.752809146856475,0.362461267217784
4121,-0.249999676614679,0.223597318143434,0.0912362826905679,-0.25,0.0916669513095991,-0.249998246878776,-0.249953962684319,-0.249982183277192,0.749165996435492,0.767104559839199,0.04,0.0549847822517714,357.273227771387,0.808692382504429,0.324617401969268
4181,-0.249999604690957,0.25,0.249368850541346,-0.25,0.25,-0.249999986079385,-0.249999988437299,-0.249999999786743,0.753261414339238,0.755844506326187,0.04,0.0615818098691247,359.400394661467,0.872044945792509,0.302826834355065
4241,0.0916667918478636,-0.091665799368802,0.24980013600476,-0.249999398250991,0.249998376590881,-0.249997205235559,-0.00346805413724405,-0.249999768024434,0.745032542456645,0.744584452813175,0.04,0.0737318065604577,355.359926929211,0.864763897372707,0.301943425692396
4301,0.25,-0.249998730783613,0.25,-0.249999119391695,0.249997624279338,-0.249995916551835,0.110778452001806,-0.249999660622388,0.739450517290064,0.733324399300162,0.04,0.0808615911170711,352.742858973765,0.84426429933383,0.306997247586576
4361,0.25,-0.249999598081478,0.249999790737147,0.0916660294860891,-0.0916674189782097,0.091667849112278,-0.135753490199428,0.0916667741362438,0.724208966410776,0.72206434578715,0.04,0.0939004643018282,345.385970723865,0.815208627912461,0.311308229677103
4421,0.25,-0.25,0.249999693761679,0.249998659453843,-0.25,0.249999838078574,-0.25,0.25,0.715694376692384,0.710804292274138,0.04,0.0947077437892663,341.398388547721,0.797823071343284,0.314419557459632
4481,0.25,-0.24999799980228,0.2499996509529,-0.0916342892657315,-0.249999976918105,0.24999951340996,-0.25,0.25,0.70983394556368,0.699544238761126,0.04,0.0848024016400096,338.612123687139,0.748887274914924,0.332231440107114
4541,0.25,-0.249997072881385,0.249999631114685,-0.249951997208949,-0.249999966221617,0.249999362953773,-0.25,0.25,0.697342600085697,0.688284185248114,0.04,0.079222997373182,332.587688643873,0.685440798382569,0.356525743774647
4601,0.249997399083763,-0.249999073079105,0.249998019175897,-0.249971160557604,-0.249997399039244,0.249999798268695,-0.25,0.249999989874994,0.684009691682698,0.677024131735102,0.04,0.0733281880897284,326.239834047514,0.639522163409061,0.374831485188936
4661,0.249996193781117,-0.25,0.249997272179873,-0.24998004113381,-0.249996209369364,0.25,-0.25,0.249999985182918,0.675964788194513,0.673458448122648,0.04,0.062205497494413,322.481117546148,0.614427270084318,0.385645691529085
4721,0.249998738346051,-0.131098192882809,-0.0693474942740233,-0.249989245936654,-0.249998596412081,0.249999038775459,-0.242271810038881,0.249999749922742,0.677493212110755,0.673458448122648,0.04,0.0421736002967304,323.22901373542,0.597372032247883,0.397575970171374
4781,0.249999917534679,-0.0759973554382565,-0.217336532386805,-0.249993511576996,-0.249999702602608,0.24999859332994,-0.210406654133393,0.249999640899734,0.674685139723998,0.673458448122648,0.04,0.0323218742226292,321.865204160985,0.580027532383329,0.407736974862176
4841,0.249999973885982,0.146767504111219,0.101998128929775,-0.249958140787759,-0.249999905824159,0.249991332602932,-0.202726061389148,0.249998846885729,0.665006875509892,0.673458448122648,0.04,0.0493601580939662,317.265467418495,0.604885312444127,0.385393549252342
4901,0.25,0.25,0.249982484174043,-0.249941749446405,-0.25,0.249987967875782,-0.184103516588842,0.249998478928019,0.668892400571807,0.673458448122648,0.04,0.0529060989966171,319.167929800729,0.646521817884036,0.362736065117029
4961,-0.0916666666666667,0.0533727035419573,0.137557729469989,0.0916100731112189,0.0916373943634288,0.249985858125824,-0.156731163897164,0.249999518327206,0.667832606971449,0.673458448122648,0.04,0.0510343137426327,318.628220930911,0.676041581872139,0.346310377417976
5021,-0.25,-0.0377472631093308,0.0854584528998181,0.249890186003776,0.249957162483067,0.249984880436819,-0.130735867437595,0.25,0.672075001361006,0.673458448122648,0.04,0.0471455768087647,320.634069683986,0.686743261370242,0.343059884490714
5081,-0.249987031709811,0.158880033348712,0.197895176751609,0.249965211986964,0.249986395573775,0.249669909550138,-0.10640020548815,0.249962701547411,0.667493942770186,0.673458448122648,0.04,0.057783201307846,318.434827462356,0.709165780128842,0.329934299058078
5141,-0.249981022014358,0.25,0.25,0.249999980125515,0.249999942615811,0.24952394743192,-0.0687182964438668,0.249945416898649,0.670147038855263,0.673458448122648,0.04,0.0607942918873133,319.758881676552,0.739749736220475,0.317608761040345
5201,-0.249987762869219,0.249999607383148,0.25,0.249986116699736,0.24999998182834,0.249849250020108,-0.032870377628541,0.249969498836956,0.659833006875842,0.650170931726441,0.04,0.0710378602277364,314.588559836963,0.709607532897185,0.325746219689722
5261,-0.249990886680008,0.249999425438754,0.25,0.24997969218535,0.25,0.25,-0.0155265294877838,0.249980658759587,0.62693193528594,0.616091639439308,0.04,0.087334764686211,298.823535566263,0.64112855436797,0.342471437232549
5321,-0.249997114115336,0.249999818055605,0.249986470162044,0.249984267610706,0.25,0.25,-0.00733391459668138,0.249988151058585,0.602950702851249,0.605299863548383,0.04,0.0855207619835419,287.605219774936,0.623498697930012,0.338934587025359
5381,-0.25,0.25,0.249980200237137,0.249986387929773,0.25,0.25,-0.00346401570206185,0.249991623099584,0.600627712021243,0.605299863548383,0.04,0.0728140663016333,286.565699499829,0.650953589160439,0.323466162801328
5441,-0.25,0.25,0.249944986076682,0.249890787502407,0.25,0.249997575761877,0.0919622313130217,0.249997347314868,0.599841423538756,0.605299863548383,0.04,0.0701602030994668,286.033561835223,0.676583890964902,0.310634735362652
5501,-0.25,0.25,0.249928667319399,0.249846484865335,0.25,0.249996452334455,0.249995956938486,0.25,0.601466362065396,0.605299863548383,0.04,0.0692614258347096,287.003667574931,0.71615319515591,0.294466699711974
5561,0.091666663077976,-0.0916623097889499,-0.0880723453119293,0.249951376989876,-0.0916666666666667,0.249991549257888,0.0500059720949915,0.249936286576972,0.618148409084913,0.605299863548383,0.04,0.0439096665408045,295.051505047347,0.683348576185145,0.317256272055961
5621,0.249999994748257,-0.24999362408139,-0.244706960921569,0.249999985535395,-0.25,0.249989277100455,-0.00270448999996755,0.24990676084435,0.612177360295556,0.605299863548383,0.04,0.0405894998648205,292.000209554317,0.61198006667984,0.350590838259905
5681,0.249996790541975,-0.249997980959107,-0.248296108448498,0.249999744196074,-0.25,-0.0916700622515227,0.157320434038007,-0.00885740896728843,0.616153623530945,0.605299863548383,0.04,0.0238969413652723,293.738309815033,0.558844944528619,0.38621037946973
5741,0.249995305665892,-0.25,-0.249959371936586,0.249999632355901,-0.25,-0.25,0.25,-0.0371092991738189,0.608708375171652,0.605299863548383,0.04,0.0157827891200384,290.398302631025,0.533784162025973,0.399745023868847
5801,0.249998513460866,-0.249988642777656,-0.249987134446586,0.249999883579369,-0.25,-0.249995284423983,0.249996512116038,-0.0847000110846569,0.60690341838745,0.605299863548383,0.04,0.0127315793993126,289.539820976729,0.520602342154653,0.408655040638263
5861,0.25,-0.249983379674619,-0.25,0.25,-0.25,-0.249993099157048,0.249994895779568,-0.145160474614328,0.605315902656781,0.605299863548383,0.04,0.0110276044794967,288.784892736173,0.517400286146396,0.410112004542328
5921,0.249994869665035,0.091651293537184,-0.25,-0.0916666666666667,-0.249998919664556,0.030274649207739,0.249998298822403,0.0916666666666667,0.590172121724498,0.605299863548383,0.04,0.0337307845181046,281.459470219677,0.564465265842625,0.366381316812955
5981,0.249992492192735,0.249969800635337,-0.25,-0.25,-0.249998419021301,0.160154825279225,0.249999875842253,0.25,0.59930244362688,0.605299863548383,0.04,0.042696791148603,285.991339865382,0.634890442559426,0.330985348281063
6041,0.249996920344795,0.249990436867857,-0.25,-0.249990371173183,-0.249982753734307,0.221549028005088,0.249998113791501,0.0948819424142065,0.60552182054456,0.605299863548383,0.04,0.0462043848629377,288.936963350827,0.64620848082615,0.32853763540083
6101,0.249998972415262,0.25,-0.25,-0.249985909033927,-0.249975494211065,0.25,0.249997297231397,0.0229979645085949,0.607437285328441,0.605299863548383,0.04,0.0528095755092053,289.810426527191,0.632928679002992,0.336444867623836
6161,-0.0916669920685003,0.249998875987704,0.0916663249583595,0.0916671495123862,0.0916744268331627,0.25,0.0120951452137342,0.0147069529573603,0.607149842999131,0.613961464512664,0.04,0.0675275706212879,289.718690686058,0.649164559940996,0.327926404965573
6221,-0.25,0.249998355103957,0.249999499939063,0.249994176643604,0.25,0.25,-0.0981521935261582,0.0108647768726418,0.620106724999316,0.62663697811893,0.04,0.0608030361630731,295.965902577116,0.693661575232557,0.313508065714725
6281,-0.249999928641449,0.249999479116253,0.249998614738255,0.249998155937141,0.25,0.25,0.139746615898769,0.174271461982383,0.625264558236743,0.639312491725196,0.04,0.0623963045261276,298.375356089874,0.756235860957683,0.289908106026168
6341,-0.249999895572853,0.25,0.249998204523247,0.25,0.25,0.25,0.249992405632272,0.249996511179581,0.646142806563806,0.651988005331462,0.04,0.0595878767930812,308.443028013527,0.818437351868709,0.276913540751759
6401,-0.249993896771205,0.25,0.249999431432362,0.24998580933996,0.249996964052325,-0.0916659364104274,0.249997595116886,0.249998895206867,0.668066859291552,0.664663518937727,0.04,0.0536672329660784,318.890214221414,0.818909682985466,0.286127672552747
6461,-0.249991116838734,0.25,0.25,0.249979233180429,0.249995557149744,-0.249998931332333,0.25,0.25,0.678832831779916,0.677339032543993,0.04,0.0541923548927419,323.935780244002,0.798748557667244,0.297991248579152
6521,-0.249997161185647,-0.0916666666666667,0.249999472268839,0.249993423840469,0.249997713368876,-0.249999661588572,0.249966163116913,-0.00806774061485637,0.700077855529947,0.690014546150259,0.04,0.0375856655083667,334.00427110464,0.764852757760241,0.320869811967107
6581,-0.24999996222446,-0.25,0.249999227710497,0.25,0.249998712592376,-0.25,0.249950482610116,-0.0111179802297404,0.70471777613223,0.702690059756525,0.04,0.0318188689333521,336.269534676319,0.73442617822339,0.336429484814873
6641,-0.24999873502181,-0.25,0.249984566755904,0.249999834304528,0.249999592320919,-0.25,-0.0277416559469217,-0.0277416559469217,0.721792787617348,0.715365573362791,0.04,0.0206895641135176,344.300580525423,0.711789548645258,0.355419150381703
6701,-0.249998166318144,-0.25,0.249977772654995,0.249999757518821,0.25,-0.25,-0.0626214555878771,-0.0626214555878771,0.727356025781942,0.728041086969057,0.04,0.0165799702605186,347.106008127365,0.709457196896921,0.359493141036186
6761,-0.249992264309844,-0.249990233720893,0.249992401124325,0.249999923214293,0.0887888866059977,0.0916646920271126,-0.111168170242225,-0.111168170242225,0.736435535662697,0.740716600575322,0.04,0.018533589145145,351.433552054735,0.727090473499914,0.355148057739495
6821,-0.249989529232827,-0.249985707884234,0.249999180171089,0.25,0.0140812974721918,0.249997110283579,-0.163325588091152,-0.163325588091152,0.749922975021167,0.753392114181588,0.04,0.0181341604444081,357.898777596736,0.752925963998994,0.349271072416926
6881,-0.249996684257062,-0.249994242878546,-0.0916669224916974,0.25,-0.166322203428624,0.249999084923133,-0.221754680523981,-0.179178619673273,0.772476279041694,0.766067627787854,0.04,0.0030146215736664,368.649241418567,0.742448232931148,0.364839492480656
6941,-0.25,-0.249998198119812,-0.249999994457379,0.25,-0.249923825797294,0.25,-0.25,-0.146365989125467,0.77930263830942,0.77874314139412,0.04,0.00243862743684103,371.843750691556,0.712224869902082,0.383617162557052
7001,-0.249999981639558,-0.24999446777692,-0.249992308629769,-0.0737021125830536,-0.249975878169143,0.25,-0.249999130304522,0.124484103443602,0.792756268566912,0.791418655000386,0.04,0.00583195336437138,378.304825998847,0.714636972054856,0.388965495076998
7061,-0.24999997313106,-0.249992739081433,-0.249988746904779,-0.223710408658127,-0.25,0.25,-0.24999872727491,0.25,0.799186470553609,0.804094168606652,0.04,0.00800262155812103,381.3836418085,0.725698417953588,0.386154020977922
7121,-0.249999807246837,-0.24999538571587,-0.24997054088722,-0.241651303123973,-0.249986196621568,0.249999592138638,-0.249999593401062,0.25,0.811410549215883,0.816769682212917,0.04,0.00895217978190919,387.142530038318,0.760382931674065,0.374104731089971
7181,-0.24999973037366,-0.249996612204999,-0.249962103952253,-0.249965376169121,-0.249979799934002,0.249999403129715,-0.249999994776596,0.25,0.821279020305139,0.829445195819183,0.04,0.0110746751247261,391.90431800909,0.804377792336624,0.357993097441156
7241,-0.249998491320674,-0.249998562810122,-0.24998799958488,-0.249988702076004,-0.249993100418818,0.249999810991076,-0.249999998345922,0.249841178271559,0.83357873911624,0.842120709425449,0.04,0.0135418133887811,397.82260130884,0.855435839856116,0.341709212352603
7301,-0.249997917125387,-0.249999466749081,-0.25,-0.249999511642608,-0.249999264058124,0.25,-0.25,0.249767577958379,0.845686807947989,0.854796223031715,0.04,0.0164272414709157,403.581114208336,0.910063922670862,0.325846914654999
7361,-0.249999340423039,-0.249998120189974,0.0916666666666666,0.0916668213131742,-0.249323822539131,0.249951860309944,0.0909803342443132,-0.0915925140856598,0.837581739055229,0.86747173663798,0.04,0.0283646831893868,399.656284041613,1.0414238133359,0.281977086053446
7421,-0.25,-0.249997496174779,0.25,0.25,-0.24901081305472,0.249929551673089,0.248995611089239,-0.249783776252409,0.867862102830409,0.880147250244246,0.04,0.0362872017800301,414.274554048034,1.1655733090968,0.261158004167414
7481,-0.249986014495904,-0.233749883825781,0.25,0.249728144786588,-0.249203756061176,0.249976975689795,0.249681943511592,-0.249632165004555,0.884274040215763,0.884161162886231,0.04,0.0467488210944772,421.958732968236,1.1879314333052,0.260995657620679
7541,-0.24997953340864,-0.226220502493319,0.25,0.249602163102325,-0.249293168673924,0.249998952673146,0.25,-0.249561906133599,0.891088526923658,0.884161162886231,0.04,0.0575765499384453,425.167051579426,1.15766238101973,0.269856172860025
7601,-0.249977879449639,-0.0246253845241181,-0.00279231191238227,0.24986458430272,-0.249714888941882,0.248950677845644,0.157538040124255,-0.24986127027564,0.894965392361541,0.884161162886231,0.04,0.0619588266600763,427.005947660324,1.10067164848251,0.285056416102694
7661,-0.249977112980834,0.068796743315268,-0.119939968652267,0.249986194127294,-0.24991032028557,0.248464891949972,0.114689814815983,-0.25,0.892833526970603,0.884161162886231,0.04,0.0645668251455385,425.946854449674,1.04055372646254,0.300777664528838
7721,-0.24996360085091,-0.0507452782644519,0.130936848317483,0.246162310667405,-0.249970999530168,0.249079007449644,-0.134514891974939,-0.249999450053251,0.894074878058593,0.884161162886231,0.04,0.0631419577496267,426.571766550718,0.986573814485409,0.317699988760611
7781,-0.249957339132165,-0.106142800459932,0.247196836669318,0.244390267112822,-0.249999119180103,0.249363597559248,-0.25,-0.249999195199879,0.890055587652825,0.884161162886231,0.04,0.0606727459666708,424.615861545212,0.939446943886477,0.332107460346416
7841,-0.249964938977732,-0.204388903986859,0.249112279611196,-0.0934430820809397,-0.247217029103582,0.249798056041699,-0.226032704976644,-0.249974890396613,0.893567084405022,0.884161162886231,0.04,0.0467583764721359,426.360328413665,0.896861860245651,0.349305889896485
7901,-0.249968460857385,-0.249917586109094,0.249999923901334,-0.25,-0.245927767848609,0.249999390460396,-0.214925909721918,-0.249963627195099,0.889966490725331,0.884161162886231,0.04,0.0395750527383563,424.560405947194,0.845853191464376,0.368807015681567
7961,-0.249990012604839,-0.249857206384143,-0.0916666901022749,0.091666664092093,-0.248644668275327,0.249943207550717,-0.238893204549053,-0.249954422588565,0.887951923339358,0.884161162886231,0.04,0.0329031417724402,423.631926007519,0.821633011523889,0.37884841840135
8021,-0.25,-0.249829225535995,-0.249999999030777,0.249999996232331,-0.249903719692587,0.249917171568184,-0.249999999712847,-0.249950157039195,0.885498777743758,0.884161162886231,0.04,0.0284080737473657,422.454925156583,0.807141377262139,0.384578890711559
8081,-0.249999983058065,-0.117727970606237,-0.249999999693079,0.249999994679618,-0.249964179855638,0.249972028307232,-0.249990284331068,-0.249984216395745,0.880153480309932,0.884161162886231,0.04,0.0289800742950762,419.890565878473,0.817243870884423,0.377519267008799
8141,-0.249999975206924,-0.0565103158826903,-0.25,0.249999993960067,-0.249992197979979,0.249997449722889,-0.249985782080975,-0.25,0.881430907764631,0.884161162886231,0.04,0.0290029349333758,420.542373551093,0.840760215225426,0.367529568867257
8201,-0.249999992148859,0.152937915258358,-0.24997864805978,-0.0909327224906574,0.0814560577952454,0.249999192412248,-0.249995496941067,-0.25,0.877202146337383,0.884161162886231,0.04,0.0344593562835074,418.495238022721,0.869826936123354,0.353518661688417
8261,-0.25,0.249999290665185,-0.249968753258215,-0.248925932553188,0.235054029983764,0.25,-0.249999998949402,-0.25,0.880833265052654,0.884161162886231,0.04,0.0377436526466988,420.272847568312,0.901230726722996,0.342649433905122
8321,-0.25,0.196748956426713,-0.249990105198435,-0.249659878641843,-0.0963995571718081,0.249959010683043,-0.249982846224327,-0.249936833812507,0.891123157944377,0.884161162886231,0.04,0.0324899898489676,425.230508165195,0.886936611674132,0.352278800806051
8381,-0.25,0.172071972267421,-0.25,-0.25,-0.25,0.249940015633721,-0.249974897400511,-0.249907561676839,0.886536521479006,0.884161162886231,0.04,0.0326451112267399,422.926649044723,0.853132210689829,0.364253210445311
8441,-0.25,-0.1163430657,-0.24999011358023,-0.249985691047806,-0.249478433472255,0.249979850471635,-0.249991602908658,-0.249895721155099,0.892911360716787,0.884161162886231,0.04,0.0264618873640976,426.056023906468,0.822567003579668,0.380583628256105
8501,-0.25,-0.249998815001975,-0.249985532068629,-0.24997906006996,-0.249236731910617,0.249998310518473,-0.249999344485604,-0.249890234084048,0.886771914908777,0.884161162886231,0.04,0.024100570742758,423.055805807849,0.783916383339236,0.396535975662592
8561,-0.249941151473508,-0.249984698831209,0.091186008197137,0.0916732976445127,-0.249736060051368,0.249564604679039,0.0916402483052347,0.00722852635303479,0.85248676360035,0.884161162886231,0.04,0.0465639347507765,406.547020798718,0.887373180522628,0.336634916901385
8621,-0.249913880205133,-0.249978157191098,0.249289892710541,0.25,-0.249967456019033,0.249363619046131,0.249961035208306,0.126381122653146,0.871280808259025,0.884161162886231,0.04,0.0503203313966658,415.813882800818,1.02896128689545,0.296930374430903
8681,-0.249972728731626,-0.249984543342035,0.249770913486466,0.249970619884874,-0.249321407154844,0.00873134442277012,0.249987661149297,-0.13081264449317,0.890519332431528,0.884161162886231,0.04,0.0476635868262377,424.972763221954,1.03217882315207,0.30252469269265
8741,-0.25,-0.249987502777836,0.249993825553359,0.249957004709572,-0.249022018656805,-0.102781173085617,0.25,-0.25,0.888406111111988,0.884161162886231,0.04,0.0516641810850751,423.838924076099,0.991709162063967,0.31403003617171
8801,-0.25,-0.249996042546315,0.249981462248151,0.249951755479113,0.0917475912408494,0.0305571902833561,0.25,0.0916666666666667,0.872472732474042,0.884161162886231,0.04,0.0667041942416619,416.174410477759,1.02069526756308,0.299594577167606
8861,-0.25,-0.25,0.249975732911592,0.249949322908901,0.249665215339762,0.0923481391616606,0.25,0.25,0.881963694248792,0.884161162886231,0.04,0.0686720459913437,420.863899882569,1.0675787863731,0.2896652622231
8921,-0.249999649834873,-0.25,0.249983575791817,0.249983952254485,0.249881939418049,-0.141589755932141,-0.0916666666666666,0.25,0.897368398780663,0.884161162886231,0.04,0.0619872792176382,428.225747225949,1.02411118224195,0.307241830509454
8981,-0.249999487563229,-0.25,0.249987210297287,0.25,0.249982372527499,-0.25,-0.25,0.25,0.89211174964019,0.884161162886231,0.04,0.0616182553412444,425.567223137806,0.952533875503373,0.328278483223456
9041,-0.249999727715808,-0.249939839737774,0.249995949927474,0.249986154054368,0.249977880904606,-0.25,-0.249628370819281,-0.0908512369614261,0.897258622552669,0.884161162886231,0.04,0.0529831297847305,428.123120068837,0.893589506379753,0.352034557376768
9101,-0.249999839006028,-0.249911960591864,0.25,0.249979737640538,0.249975799420826,-0.25,-0.249456152418461,-0.248806688236233,0.888896839852676,0.884161162886231,0.04,0.0473102051324348,424.029757807768,0.838352120629769,0.371641791463861
9161,-0.249971568393941,-0.24997212085409,0.196740090044089,0.249949802352485,-0.0916743301834051,-0.244453409945252,0.0913637875655699,-0.249622117271116,0.883203374017624,0.884161162886231,0.04,0.0365603288332612,421.388872834018,0.836386031422822,0.370195358048983
9221,-0.249958467378583,-0.25,0.172058668357203,0.249935929901924,-0.25,-0.241883038944271,0.249304735363047,-0.249999999018988,0.88548089526591,0.884161162886231,0.04,0.0323272961971305,422.448640290457,0.826655704710454,0.37549479883871
9281,-0.249986626062479,-0.249993309505,-0.116250226886721,0.249960351977231,-0.249999968234653,0.0932114057985812,-0.0918641987538546,-0.249999480500673,0.890727820983834,0.884161162886231,0.04,0.0227235596429912,425.006203221746,0.803577713232166,0.388617238916397
9341,-0.249999675208675,-0.249990209031707,-0.24985678809732,0.249971669524325,-0.249999953514127,0.248499075313562,-0.249966875539736,-0.249999240211697,0.885507311326428,0.884161162886231,0.04,0.019335439618419,422.442610686895,0.776589734776295,0.399696871132956
9401,-0.249968155767084,0.091442842345616,-0.249949363619562,-0.0916756379839638,-0.249927647408202,0.249524707182628,-0.249988937919114,-0.249999759400371,0.8820176945216,0.884161162886231,0.04,0.0186939879789229,420.813248287536,0.780614178282612,0.396102556357584
9461,-0.249953549196591,0.249667914935107,-0.249992264471333,-0.25,-0.249894139700579,0.25,-0.249999161948582,-0.25,0.881488325177078,0.884161162886231,0.04,0.0197032718421951,420.542779937211,0.796979607283863,0.387719503988579
9521,-0.249984947490406,0.249894624333479,0.0916689816512506,-0.248701939747861,-0.24971796792146,0.248312361918291,-0.249462049559536,-0.249999854863297,0.87122037946302,0.884161162886231,0.04,0.0288245202379727,415.610620464616,0.847194531210361,0.360460905677195
9581,-0.249999497919247,0.249999684786383,0.249999803025131,-0.248100399631016,-0.249636327340893,0.247530285734084,-0.24921314381827,-0.249999787604825,0.87845545498036,0.884161162886231,0.04,0.033743852949029,419.163978621804,0.905128793514507,0.340273595077632
9641,-0.240570393274001,0.249999900182355,0.249999802533169,-0.249369163815791,-0.249884836991283,0.249217893576368,-0.249750828875786,-0.249999932741528,0.882123254840987,0.884161162886231,0.04,0.0391200842494524,420.879925880254,0.92293793274682,0.335073739670563
9701,-0.236200808194497,0.25,0.249999802305186,-0.249957127706297,-0.25,0.249999955747183,-0.25,-0.25,0.884056706959554,0.884161162886231,0.04,0.0436918175060591,421.794600967054,0.927134469544753,0.334281979204299
9761,-0.245596281563768,-0.0916666623664105,0.249666354545931,0.0916802428930058,-0.249807972786406,0.199821686705791,-0.25,-0.24984483000169,0.877754846084986,0.869587164019183,0.04,0.047948261836625,418.658221746558,0.898488641927347,0.342374735142707
9821,-0.249950281417821,-0.249999993706942,0.249511829974569,0.25,-0.249718984565472,0.176568342515877,-0.25,-0.249772921953693,0.856891867837654,0.848259360799113,0.04,0.0539833579156817,408.638301953092,0.840829841210166,0.357096530544634
9881,-0.249984251260622,-0.249999998007198,0.249830085928127,0.249994009677356,-0.249900542667722,0.226636508365339,0.0916666666666666,-0.249928091952003,0.834972128843227,0.841505556446091,0.04,0.0595518157108865,398.290460428411,0.841964924672702,0.347584643855643
9941,-0.249999993382896,-0.25,0.24997757039441,0.24999123367418,-0.249984679349252,0.249838829124846,0.25,-0.25,0.839189055334254,0.841505556446091,0.04,0.0552313464563903,400.415404781608,0.873883715654503,0.336675727323765
10001,-0.249991109848829,-0.243433244191486,0.13435912686367,0.249994388909829,-0.249891367127838,0.249948856496201,-0.0916427650178772,-0.249999948347434,0.850838541715802,0.841505556446091,0.04,0.0440750154347888,406.001579488255,0.846866967413612,0.35226314337969
10061,-0.24998699308914,-0.240390113450956,0.0807798481543026,0.249995851092203,-0.24984812487889,0.249999844790244,-0.249965021977381,-0.249999924410879,0.844833892549667,0.841505556446091,0.04,0.0404202821128286,403.019684486839,0.803907076341668,0.368362221508914
10121,-0.249995881144894,-0.0653380829680574,-0.145239544386155,-0.0914161884234168,-0.249951906048591,0.249960346297895,-0.249957318531317,-0.249978815601657,0.849968607820599,0.841505556446091,0.04,0.0265136055489048,405.616211273322,0.775303008743773,0.384413393828526
10181,-0.25,0.0157835896947493,-0.24998023849027,-0.249631523808704,-0.24999999976138,0.249942042118514,-0.249953748641678,-0.249969033470555,0.844780726409229,0.841505556446091,0.04,0.0221145655625251,403.022834131253,0.732124498851014,0.404482176561905
10241,-0.25,0.175635765787525,0.0916686361989575,-0.249883315865389,-0.249965357832453,0.249980595010918,-0.249967227000526,-0.249990193932342,0.826883157759498,0.841505556446091,0.04,0.0316074247227992,394.465668241768,0.77388210175379,0.374532133735694
10301,-0.25,0.249713603489055,0.249993724469575,-0.249999999989219,-0.249949304255633,0.249998460985447,-0.249973473069261,-0.25,0.835487170717077,0.841505556446091,0.04,0.0346583780976083,398.672097699665,0.84002712630889,0.348720281797668
10361,-0.249999974751785,-0.0193768794457332,-0.0916609281731257,0.0916665572508773,-0.249983946347617,0.249971098913709,-0.249991599468074,-0.183134179232062,0.844412324272616,0.841505556446091,0.04,0.031890209044691,402.924930404648,0.844209500678482,0.350694197720355
10421,-0.249999963051392,-0.144077347147221,-0.249988694031939,0.249999839874336,-0.25,0.249958418929244,-0.249999999506548,-0.152147579363993,0.841988544694172,0.841505556446091,0.04,0.0323926560084447,401.689871389344,0.826996492803299,0.356896171860292
10481,-0.249999988299607,-0.21645782659662,-0.249996419640221,0.24999994929354,-0.25,0.249850501566425,-0.249998743924277,-0.218195568585448,0.844278885841512,0.841505556446091,0.04,0.0304806941615837,402.8230811639,0.819120431085182,0.361344346920779
10541,-0.25,-0.25,-0.249999999800157,0.25,-0.25,0.249800491081216,-0.249998162069077,-0.24880317334661,0.84179193997706,0.841505556446091,0.04,0.030243750711343,401.602993275407,0.808761498063046,0.364864112867803
10601,-0.25,-0.249898231841565,-0.249966669771769,0.25,-0.25,0.0846246881601734,-0.0751298341061162,-0.249621004893093,0.8412971335877,0.841505556446091,0.04,0.030871667806832,401.381805634377,0.810302418580525,0.363969693890385
10661,-0.25,-0.249851070987657,-0.249951224148857,0.25,-0.25,0.00807980387969042,0.00590670812062206,-0.25,0.840287726373812,0.841505556446091,0.04,0.0312538107847659,400.894926443044,0.814817147218861,0.361513963403803
10721,-0.24999998051921,-0.249952645025644,-0.249984554313805,-0.0916666666666666,-0.25,-0.168274728771431,-0.16896287425697,-0.249909193632162,0.85834263809505,0.841505556446091,0.04,0.0186629255310703,409.642316497463,0.764673152092095,0.393625882582261
10781,-0.249999971491528,-0.249999715921297,-0.25,-0.25,-0.25,-0.25,-0.249999997797806,-0.249867112632432,0.845898908443629,0.841505556446091,0.04,0.0148381152615425,403.643281829018,0.692578947939793,0.428235945474419
10841,-0.249999990972317,-0.249999696448165,-0.249999999160232,-0.25,0.091648219684786,0.0916666478241435,-0.249999999302639,-0.249863467624709,0.82054817012422,0.841505556446091,0.04,0.024174834699603,391.48898532488,0.756140416469122,0.380427384701191
10901,-0.25,-0.249999687424031,-0.249999998771072,-0.25,0.24997300441676,0.249999972425576,-0.25,-0.249861778474788,0.83145969291204,0.841505556446091,0.04,0.026034045541072,396.752431029121,0.852500304901001,0.341963481373827
10961,-0.249999998068206,-0.249714467754396,-0.249999926300901,-0.247596023946516,-0.0916727644686391,-0.0916658466608457,0.0916666666666666,-0.249950029297038,0.846182636672951,0.841505556446091,0.04,0.0254731735988083,403.798165506138,0.859930991309046,0.345028855011674
11021,-0.249999997172985,-0.249582292785541,-0.249999892717164,-0.246481986263194,-0.249996413464312,-0.24999878721309,0.25,-0.249990926019544,0.840722968197584,0.841505556446091,0.04,0.0283172391928095,401.072788307154,0.842103397962028,0.349955202171852
11081,-0.249999999104779,-0.218189885612159,-0.249999966027102,-0.247700078827729,-0.249217955763033,-0.249999615950812,-0.0916666666666667,-0.248352926992659,0.845858925007645,0.841505556446091,0.04,0.0232818402227255,403.603555697433,0.832126191710367,0.356385862808021
11141,-0.25,-0.203642184726933,-0.25,-0.248264560747879,-0.248857207072196,-0.25,-0.25,-0.247593854272884,0.841980714921778,0.841505556446091,0.04,0.0229626043569367,401.677661264667,0.816537037403104,0.361456856459804
11201,0.0891999857320526,0.106346546292222,-0.249989075621208,-0.249450444236828,-0.249638115572862,-0.237139359246722,-0.25,-0.24923774988316,0.803573431308034,0.816630146169357,0.04,0.0417207431248319,383.08702327908,0.851646838149239,0.330516068985088
11261,0.246390223022516,0.249999860666953,-0.249984013104207,-0.25,-0.25,-0.231179550117154,-0.25,-0.249999555165971,0.801103343764333,0.805102517016725,0.04,0.0513579859327331,382.288823003339,0.908033014532987,0.309346094903666
11321,0.24885690395713,0.00552309587974105,-0.249994937482999,-0.249999104049584,-0.25,-0.244020614285727,-0.249995371870421,-0.249828861726949,0.811633158887194,0.805102517016725,0.04,0.0495697427005953,387.28593804255,0.89178575950578,0.319099314870545
11381,0.25,-0.107771014631406,-0.25,-0.24999868885305,-0.25,-0.249971351339456,-0.249993227127445,-0.249749759889353,0.809141946650496,0.805102517016725,0.04,0.0505108412726444,386.017484287383,0.855073768040978,0.331709621682427
11441,0.248475851732779,0.134618837695237,-0.25,-0.249999279101951,0.0916666666666666,-0.249818007028467,-0.249992914979776,-0.249920757298295,0.794976391679891,0.805102517016725,0.04,0.0625678140262042,379.227131857458,0.879236912023368,0.316918918653386
11501,0.24776953912114,0.246945842431974,-0.25,-0.24999955263193,0.25,-0.249746945030691,-0.249992770325978,-0.25,0.804962216461298,0.805102517016725,0.04,0.0659259684732044,384.114856945773,0.909529986316246,0.310312135242879
11561,-0.0923720335790852,-0.0926332799719617,0.091665384061821,0.0916666650225815,-0.0916666088288139,0.0917468006300448,-0.249997710603226,0.0916655999201241,0.799992760421921,0.805102517016725,0.04,0.0707125350574532,381.671097848965,0.921809837935575,0.304230402225415
11621,-0.249998616049921,-0.249999214744517,0.249998123017299,0.249999790277111,-0.24999991535924,0.249999999838679,-0.25,0.249998438907499,0.806983326779319,0.805102517016725,0.04,0.070453060729028,385.031782902297,0.923982641277977,0.306187491220109
11681,-0.249999561749142,-0.24999973592926,0.249998947013927,0.249999783427898,-0.249997084028795,0.249999999948915,-0.249996870659593,0.249996211246261,0.808252024931148,0.805102517016725,0.04,0.0703475484426227,385.620653773879,0.906672180428038,0.312510542265063
11741,-0.25,-0.249999977453896,0.249999328866023,0.249999780253873,-0.249995771948832,0.25,-0.249995420477453,0.249995178915443,0.808380696185879,0.805102517016725,0.04,0.0687803330283058,385.677603653143,0.886992769572523,0.319491285453992
11801,-0.249999810389453,-0.168129254173029,-0.0916668791924261,0.249995871368906,-0.249998657809322,0.25,-0.249997506813496,0.249998473323224,0.811799798594018,0.805102517016725,0.04,0.0580081920313506,387.339961126732,0.857308624551218,0.331978369934318
11861,-0.249999722521151,-0.13018916289653,-0.25,0.249994059934409,-0.249999995159305,0.25,-0.249998473652151,0.25,0.809487167777945,0.805102517016725,0.04,0.05221453121222,386.17895594538,0.820334571472039,0.345901357075619
11921,-0.249999809000354,-0.212059901583901,-0.25,-0.0916684328290365,-0.249999998467113,0.25,-0.249999516656514,0.249999961158632,0.817886669439999,0.805102517016725,0.04,0.0402152719767522,390.289195852683,0.772690292494735,0.371138278766381
11981,-0.249999849076083,-0.25,-0.25,-0.249999831914536,-0.25,0.25,-0.25,0.249999943158974,0.810595790450643,0.805102517016725,0.04,0.0345973837987209,386.727802258471,0.711254570401767,0.399516758395638
12041,0.0916667144592404,-0.249999153663961,-0.25,-0.249999946772936,-0.249996142216158,0.25,-0.249999837468242,0.249999982000342,0.794921856483827,0.805102517016725,0.04,0.0356633835576945,379.185383404441,0.724483322460672,0.384572186853364
12101,0.25,-0.249998761459455,-0.25,-0.25,-0.24999435446267,0.25,-0.249999762148647,0.25,0.800822611906828,0.805102517016725,0.04,0.0340479075906039,382.072714966119,0.774032293802709,0.362695043143036
12161,0.0487613048833525,-0.165659798370775,0.0916666666666667,0.0916666666666667,0.0916658590572375,-0.0916666641468627,-0.249999924680405,0.24999976480471,0.787446228567382,0.805102517016725,0.04,0.0458718142668737,375.667731546196,0.844204807121672,0.326972138597786
12221,-0.0444956513902159,-0.126575888646753,0.25,0.25,0.249996201907927,-0.249999996312482,-0.25,0.249999655811771,0.801074638159811,0.805102517016725,0.04,0.0523276129994782,382.269202324654,0.901825071367343,0.311459571498951
12281,-0.184923558247336,0.130750968595195,0.249986674827697,0.171879566472772,0.249860243408614,-0.249999998727127,-0.249521811537987,-0.0153351330713239,0.81232923451726,0.805102517016725,0.04,0.0553388542463078,387.626498762849,0.882881262353363,0.322601093367084
12341,-0.249999905327464,0.25,0.249980499747849,0.135677414350398,0.249797238250395,-0.249999999846109,-0.24930021200681,-0.13829515718788,0.808826785482775,0.805102517016725,0.04,0.0589705842765152,385.848852810155,0.843674303250898,0.336044713859769
12401,-0.249993551781432,0.25,0.249993819560007,0.213777402913625,0.249935792112625,-0.196714675048215,-0.249778400468823,-0.0655640391051247,0.802733382274249,0.805102517016725,0.04,0.060476410323251,382.952846384306,0.84467608059278,0.333126960354004
12461,-0.249990607455222,0.25,0.249999992155886,0.249970080540486,0.25,-0.17202147575163,-0.25,-0.0318593746277501,0.804645238441101,0.805102517016725,0.04,0.0576034808043594,383.918540927738,0.855990557849654,0.329552635050637
12521,-0.24999700023418,0.25,0.249997559943398,0.0759705064773867,0.249999989758165,0.116359863109571,-0.0191437732012457,0.16074446790287,0.793019382966912,0.805102517016725,0.04,0.0646493946743685,378.290119010198,0.894820378088497,0.310630294198535
12581,-0.249999962741503,0.25,0.249996432820537,-0.00466344247868369,0.249999985011948,0.249999995752567,0.0878383806811039,0.249999907124377,0.802977955808468,0.805102517016725,0.04,0.0639996028184702,383.176332601361,0.939677084660538,0.299622702317698
12641,-0.249999329547702,-0.0916666666666666,0.249998870146705,-0.172289660450795,0.249998785209519,0.24999999865498,-0.143017845713389,0.249999652867679,0.819808289459107,0.805102517016725,0.04,0.0498891306284732,391.252715125238,0.894018549339164,0.321562584757238
12701,-0.249999036116429,-0.25,0.24999999963932,-0.249970102925675,0.249998229203515,0.25,-0.249999999408398,0.249999535041405,0.813400999864471,0.805102517016725,0.04,0.0467160259043366,387.996621888709,0.811724141167728,0.351215891582426
12761,0.0916562405372314,-0.25,0.17540144796482,-0.249990231208354,0.249911427692532,-0.0916339315031982,-0.238280806450874,0.249999852763111,0.807820026678264,0.805102517016725,0.04,0.0402215964399953,385.394658853603,0.783380278218256,0.361482880156467
12821,0.249984295571855,-0.25,0.140831387432735,-0.249999558949107,0.249871202602077,-0.249952094882729,-0.227088719422847,0.25,0.806590449420847,0.805102517016725,0.04,0.0367693643835889,384.817780659103,0.771643952050125,0.366431542039548
12881,-0.0916622429958366,-0.25,0.215427523053405,-0.249999374651568,0.249958986714543,-0.24995536639423,-0.228798162913951,0.249988257923459,0.810328085729158,0.805102517016725,0.04,0.0262477310224186,386.665910352681,0.755382450859949,0.376117612185134
12941,-0.249986248673547,-0.25,0.249996463950789,-0.249999289245391,0.249999667156906,-0.249956882460535,-0.25,0.249982816473355,0.808267817727828,0.805102517016725,0.04,0.0226302569241088,385.592791690699,0.717811216877641,0.394705649234748
13001,-0.249969230319004,0.0489166168355225,0.249998880251083,-0.249998829214071,0.249999019901058,-0.24998588378967,-0.25,0.249983284242344,0.796908837582872,0.805102517016725,0.04,0.0287954906299825,380.192347605464,0.737568157864267,0.378752831611601
13061,-0.24996134376446,0.187438951466618,0.25,-0.249998616028825,0.249998719953226,-0.249999323430001,-0.25,0.249983501013339,0.812442611549493,0.821852481608699,0.04,0.0266933031262898,387.826783708872,0.798593043687041,0.356834594635779
13121,-0.249987406830775,0.230000605912078,0.249999866475407,-0.249999561742461,0.24998845887546,0.0913072737325174,-0.249998795096406,0.249944479798848,0.830464865204233,0.846364624914026,0.04,0.0336922092529112,396.380235465599,0.877477171768634,0.331918027408059
13181,-0.249999484837116,0.249724299435583,0.249999804598156,-0.25,0.249983703741861,0.249473745588319,-0.249998236726448,0.249926396797011,0.859029420239872,0.870876768219353,0.04,0.0354990690570126,410.074925858206,0.96418082391604,0.312506749430653
13241,-0.249999836865087,-0.0916970906943963,0.249999737849378,-0.249994789653285,0.249988627786449,-0.0917763206439855,-0.249983159713874,0.249976692319053,0.901134164809055,0.89538891152468,0.04,0.0224044086893316,430.300722371442,0.98113198685181,0.322254741917491
13301,-0.25,-0.249916759291216,0.249999706917017,-0.249992375102368,0.249990909660771,-0.249916595239444,-0.249976172805608,0.25,0.918407099039506,0.919901054830008,0.04,0.0214294524986967,438.291233313317,0.954021034349779,0.337566631565806
13361,-0.249978053485661,-0.119054279835377,-0.0916667594740588,0.0908430388953367,0.144662309985388,0.0916888440552868,-0.249989523999038,0.25,0.920379406385379,0.927663233543361,0.04,0.0301515198085822,439.115344071059,0.987421344026767,0.326761422939926
13421,-0.249967883149748,-0.0584106917948667,-0.249999999996753,0.2487911575772,0.0958514955016739,0.249993803728454,-0.249995711137458,0.25,0.926651135733858,0.927663233543361,0.04,0.0361060731676584,442.140175721416,1.00947624679855,0.321824091138058
13481,-0.249989686908626,-0.189329371727448,-0.249999999620802,0.088381863218581,-0.140480357195087,0.249625677322517,-0.249981436497759,0.249998279387983,0.93966399898931,0.927663233543361,0.04,0.0306764713263109,448.41871795051,0.972634388204412,0.338757398208218
13541,-0.24999979108957,-0.249999003891327,-0.249999999446581,0.0140458487597089,-0.249999996249684,0.24945508215879,-0.249974821420826,0.249997482031195,0.933481335912169,0.927663233543361,0.04,0.030920091948644,445.305950837292,0.909747513965658,0.359660130609912
13601,0.0916666984673332,0.0916669820678483,-0.249999997114386,0.17528012913053,0.0916663232305352,-0.091741742074031,-0.249992026768327,0.249999202643212,0.912358754624862,0.927663233543361,0.04,0.0477247077299273,435.26064243788,0.949933352746562,0.336675054213165
13661,0.24999994972541,0.249999999951368,-0.249999996033613,0.249998454180423,0.249999495672588,-0.249857343547777,-0.249999999978145,0.25,0.922550234243697,0.927663233543361,0.04,0.0546077851368611,440.229584101871,1.01131641360832,0.319850360733919
13721,0.249999298416982,-0.00300018049890411,-0.24999998484092,0.249999510490467,-0.0916668263703472,0.0866844355437903,-0.249999999419837,0.25,0.930845067073249,0.927663233543361,0.04,0.0496168831311123,444.161578655739,1.00922026418802,0.323377427719003
13781,0.249998996591125,-0.120244166561226,-0.249999979654062,0.25,-0.25,0.242642820976468,-0.249999999161109,0.25,0.930924047168328,0.927663233543361,0.04,0.0492429217178838,444.125864301326,0.983020516772437,0.33196948124062
13841,0.249999676115869,-0.208868859443286,-0.249999950593545,0.00231371248593484,-0.249996105431212,0.247624015784132,-0.249611536292286,0.249999690352169,0.934541813456174,0.927663233543361,0.04,0.0420486755685582,445.908364756467,0.954590663383937,0.343228318965144
13901,0.249999991017579,-0.249938839071557,-0.249999937126476,-0.112467737825461,-0.249994300631041,0.249932374353538,-0.249431516914051,0.249999546856833,0.931919004224894,0.927663233543361,0.04,0.0392125991649259,444.586908774309,0.916574691153424,0.35640475167514
13961,-0.0916666695110999,-0.24998063237266,0.091630374755251,0.135218273820342,-0.249992772293249,0.249978585211954,-0.249810060794875,0.249999856504664,0.925565721024531,0.927663233543361,0.04,0.043517466782531,441.571087664184,0.916504205854134,0.354014331421713
14021,-0.25,-0.25,0.249946860749222,0.249999596290348,-0.24999206403915,0.25,-0.249985483568915,0.25,0.927217196685991,0.927663233543361,0.04,0.043534882512251,442.377266974041,0.923163857970223,0.35210215574678
14081,-0.25,0.0598410402407031,-0.0916721073460329,0.249999871421128,-0.249968130409446,0.25,-0.249995403130156,0.249976198900636,0.927457357517901,0.927663233543361,0.04,0.0407141676870698,442.493591284479,0.924407851432665,0.35172078671782
14141,-0.25,0.20342591254737,-0.249983336463346,0.249999998920758,-0.249957039215194,0.25,-0.25,0.249965169122881,0.927669210686771,0.927663233543361,0.04,0.0401036258683091,442.589918245217,0.92390840380848,0.351987528315303
14201,-0.249923692290449,0.223519902394077,-0.249984428029521,-0.01597356949838,-0.249980131178241,0.249999027568917,-0.249996808387241,0.249988970222246,0.93183861211174,0.927663233543361,0.04,0.0348561905570998,444.61989036249,0.911521072756077,0.358407302935873
14261,-0.249888330181144,0.232831751347428,-0.24998493387726,-0.139229613399931,-0.249990832331848,0.249998576930122,-0.249995329347181,0.25,0.929511810434704,0.927663233543361,0.04,0.0337225131479374,443.445971856582,0.889360943824507,0.366367834052743
14321,0.091702028775971,-0.0970825333379352,-0.249987893261966,-0.214922710909978,-0.249958113922037,0.249999549361205,-0.249986130046174,0.249981990764587,0.929437979876333,0.927663233543361,0.04,0.0313000656185273,443.433786393072,0.878245082402586,0.370994720754377
14381,0.25,-0.249969640875055,-0.249989264684147,-0.25,-0.249942951732125,0.25,-0.249981866955463,0.249973645021347,0.927751744445264,0.927663233543361,0.04,0.0306680611291661,442.62030530481,0.874401981178112,0.37194170428969
14441,0.25,-0.249989612466851,-0.249949934589386,-0.249973149955059,-0.249981934715173,0.25,-0.24992458508845,0.249968001088996,0.927081744814101,0.927663233543361,0.04,0.0305588695782646,442.30610940889,0.876580851296087,0.370753820576466
14501,0.25,-0.249998867594756,-0.249931708447911,-0.249960707251306,-0.25,0.25,-0.249898039833004,0.24996538560815,0.926615879436489,0.927663233543361,0.04,0.0308221874049847,442.085589007048,0.882018396132254,0.368284457665089
14561,0.193193904655006,-0.249989549489267,-0.24997456480968,-0.249969171678486,0.0891198828488556,-0.0916666666666667,0.091698954052882,-0.0916776278907526,0.949733055440143,0.958814753822739,0.04,0.0238103734851816,453.452448125673,0.920839825406093,0.361828134762369
14621,0.166869128763424,-0.249985231342821,-0.24999442507489,-0.249973094217912,0.246272999291008,-0.25,0.25,-0.25,0.961772057357399,0.962632858479049,0.04,0.024622377292103,458.767382476315,0.945754510468286,0.356425516705573
14681,-0.117983893947611,-0.24999521747466,-0.249998234607049,-0.249921716323113,0.248819310305605,-0.249999730473872,-0.0916666666666667,-0.25,0.963838373999941,0.947094372063839,0.04,0.0192696389353496,459.837083025615,0.890949590376548,0.379232488002268
14741,-0.249988953252725,-0.249999845194293,-0.25,-0.249897907054791,0.249999308092858,-0.24999960557152,-0.25,-0.25,0.939928436794274,0.93155588564863,0.04,0.0199443139728191,448.271470247525,0.805701520078055,0.408810077356134
14801,-0.249995618127503,-0.249999950978193,-0.108210006312357,-0.2499675773374,0.249999780896072,-0.249999875097648,-0.249986651922338,-0.25,0.916355302569028,0.91601739923342,0.04,0.0240605524935233,437.035246873678,0.786127718793373,0.4084868034132
14861,-0.24999870672801,-0.25,-0.0425024482619862,-0.249999863565925,0.25,-0.25,-0.249980466227812,-0.25,0.901932606971916,0.900478912818211,0.04,0.0258841027323018,430.190514308578,0.783355155350915,0.40351232115412
14921,-0.24999959046387,0.0916666666666667,0.157355113239935,-0.249999956795876,0.25,-0.25,-0.0492947603975998,-0.249999973928012,0.866934918490066,0.884940426403001,0.04,0.0439176382909903,413.403335252242,0.836829220996282,0.362987621910331
14981,-0.25,0.25,0.249972031984727,-0.25,0.25,-0.25,0.0437059325481084,-0.249999961845871,0.865435124711695,0.869401939987792,0.04,0.0510806177430169,412.87638548261,0.906077938782752,0.334818282291823
15041,-0.25,-0.0916620639229022,0.24999114346183,-0.25,0.249999944876028,-0.249959204829561,-0.156993121359766,-0.249999987917859,0.867634901332327,0.853863453572583,0.04,0.0461260032215079,413.924661007627,0.863841965044507,0.35208026303704
15101,-0.25,-0.249993264277418,0.25,-0.25,0.249999919330773,-0.249940299750577,-0.25,-0.25,0.846505221048126,0.838324967157373,0.04,0.0479528699320472,403.693743913205,0.788205721006772,0.376328502807279
15161,-0.249999667042218,-0.249967895734688,0.249934985488785,0.0916577763033797,-0.0916666695354764,0.0916566011536238,-0.24999995074474,0.0916666032664207,0.815653519263978,0.822786480742164,0.04,0.0626648539662183,388.95932723949,0.793950051208947,0.359969484030713
15221,-0.249999512744709,-0.24995613958074,0.249904856812856,0.249986989712263,-0.249999966814958,0.249957604011668,-0.249999927919131,0.249999907219152,0.808004948599882,0.807247994326954,0.04,0.0644791818818527,385.434423879512,0.815888348549487,0.347115849979997
15281,-0.24999612473957,-0.249985831263739,0.249623680839726,0.24999560177284,-0.249985670705515,0.249986572769791,-0.249999835123539,0.249938496523511,0.795921880388887,0.791709507911745,0.04,0.0659411166012855,379.621277643239,0.79405731682459,0.35127995695207
15341,-0.249994554688407,-0.249999590824153,0.249493379779007,0.249999592727742,-0.249979045679187,0.249999997316239,-0.249999792120703,0.249910037908459,0.781057594117839,0.776171021496535,0.04,0.0665027544611911,372.521031929605,0.764822393076045,0.357886139113326
15401,-0.249998221174809,-0.249995498729824,-0.00227890786161515,0.249999871030452,-0.249992254853866,0.249999087649372,-0.249999934171556,0.249971512004345,0.769039956416431,0.760632535081326,0.04,0.0565705709931333,366.812674334547,0.724225548019508,0.372156122780305
15461,-0.249999920278263,-0.249993602393428,-0.118953870426782,0.25,-0.249998376178717,0.249998666096434,-0.25,0.25,0.751234554114156,0.745094048666117,0.04,0.051114741662947,358.265470522345,0.676011026657578,0.389408878700667
15521,0.0916666919118834,-0.125809914168021,-0.151010416123591,0.25,-0.249999174956608,0.249909891737195,-0.249999629806264,0.249999662518044,0.726305823406141,0.729555562250907,0.04,0.061114406165758,346.350552733043,0.664184279255147,0.383161592294248
15581,0.25,-0.0682613757221011,-0.165865888519673,0.25,-0.249999545121972,0.249868752399986,-0.249999458253069,0.249999506123966,0.715427489115668,0.714017075835698,0.04,0.0650941913559287,341.252228259857,0.672972957395489,0.372591170665103
15641,0.249999946101355,-0.192449435645332,-0.22335611627274,-0.0885572940474923,-0.249999812401311,0.249955308497539,-0.249999816903344,0.249999816463228,0.708856678823929,0.698478589420488,0.04,0.0468804434178332,338.132811377133,0.63259938539902,0.392747316244025
15701,0.249999921123934,-0.25,-0.249997929133917,-0.245449698606086,-0.249999936262469,0.24999541985982,-0.24999998310713,0.249999960278984,0.689883638448366,0.682940103005279,0.04,0.0396685927136433,328.95701456515,0.568284294743721,0.425332113299219
15761,-0.0916311123495714,0.0916649563713969,0.0916512567269463,0.0931075954414061,0.0916567109940249,0.249998549622276,0.0916592782091238,0.224210954417601,0.660073486134193,0.68637351266224,0.04,0.0729778022402682,314.870159476419,0.641497903015527,0.360654154498966
15821,-0.249947932739732,0.249997497128873,0.249976489199053,0.25,0.249985401186058,0.25,0.249989179794705,0.21225995170135,0.684541960801051,0.69859877659655,0.04,0.0663539257812949,326.795633480235,0.772825870459434,0.310705735036981
15881,-0.249936682080514,0.249994215023775,0.249983710869312,0.25,0.249995290403041,0.19567068469827,0.249996573601657,0.238045297717803,0.704170699701797,0.710824040530859,0.04,0.0617758574345148,336.091259408559,0.824481804584419,0.299523442602731
15941,-0.249931468360388,0.249992694048242,0.249987057496993,0.25,0.249999873210911,0.170493684924298,0.25,0.249994604408355,0.719346302410566,0.723049304465168,0.04,0.0609168753226993,343.312554348269,0.852093746906871,0.296044490529217
16001,-0.249978298314123,0.24999768644861,0.249983384926129,0.249989489715178,0.249975770195765,-0.116843666440639,0.25,0.249841920421327,0.737580143655051,0.735274568399477,0.04,0.0539645507696706,352.0411562656,0.8547868442502,0.302614884519775
16061,-0.25,0.25,0.249981683003045,0.249984619095383,0.249964600505819,-0.25,0.25,0.249771164427339,0.747810232815276,0.747499832333787,0.04,0.0521357889663571,356.846587289577,0.842920377459158,0.311063941782053
16121,-0.249990818193133,0.106957861210875,0.249994199617631,0.249995129380205,0.249988790160176,-0.249983022532781,0.25,-0.014147697334539,0.766844038894354,0.759725096268096,0.04,0.0413576498795635,365.802948454567,0.819337174461371,0.32804937758603
16181,-0.249986563209463,0.0406700407964024,0.25,0.25,0.25,-0.249975154926021,0.25,-0.00760223504899873,0.771491518067534,0.771950360202405,0.04,0.037446313668214,368.145992342362,0.810879838533472,0.333594015465304
16241,-0.24999574501633,-0.157954487081139,0.249277577811536,0.249999888350443,0.249997241278622,-0.249977108002099,-0.0126005903036016,-0.0126005903036016,0.791761571118841,0.784175624136715,0.04,0.0226090695503809,377.727204131196,0.788238695119442,0.352107430082297
16301,-0.25,-0.25,0.248942796797369,0.249999836610405,0.249995962846764,-0.249978013086135,-0.0404787507927723,-0.0404787507927723,0.797080993964959,0.796400888071024,0.04,0.0174538409049786,380.35011625067,0.771147125899218,0.362410678130206
16361,-0.249999932862968,-0.25,0.249665218985834,0.249999920831642,0.0926796331942345,0.0916328701684399,-0.0846593741278864,-0.0846593741278864,0.80434834917589,0.808626152005333,0.04,0.0190466482654472,383.826488905768,0.786741959656069,0.358473706511331
16421,-0.249999901750684,-0.25,0.25,0.249999959860995,0.0197769438430622,0.249940352652267,-0.134237939604058,-0.134237939604058,0.817381033513959,0.820851415939643,0.04,0.0182066628932099,390.08044081466,0.812932657965801,0.352577245208071
16481,-0.249999968887717,-0.249999993745341,-0.0916666666666667,0.249999987289315,-0.164570304963158,0.249980809131538,-0.191020388543155,-0.106201303348621,0.838048459474753,0.833076679873952,0.04,0.00508688792694422,399.990519363527,0.804517489582563,0.365316160267272
16541,-0.25,-0.24999999084684,-0.25,0.25,-0.249999517824577,0.249999557256078,-0.249999348751835,-0.0397276123872975,0.845467189018256,0.845301943808261,0.04,0.00418741279622124,403.424138571553,0.776118212335307,0.381934317189535
16601,-0.249998112970471,-0.249998909877625,-0.249995740349301,-0.00299777304727866,-0.249999660840929,0.249985644830475,-0.249999743280289,0.094437371682902,0.859162620132131,0.85752720774257,0.04,0.00488622667025653,409.994772529493,0.776199498406759,0.388114294147684
16661,-0.249997238493373,-0.249998408940672,-0.24999376636483,-0.120240643483822,-0.249999727116799,0.249979197608854,-0.249999926110548,0.156611388691043,0.865707000487212,0.86975247167688,0.04,0.00634390736880154,413.11700721426,0.784128866800012,0.387115275173449
16721,-0.249999125522901,-0.249999440006007,-0.24999802601553,-0.208901447206109,-0.249999913586986,0.249993362693526,-0.24999592139277,0.220426939752164,0.854730310541596,0.851212312100971,0.04,0.0130009330555901,407.567119896352,0.781381525799649,0.383257513568505
16781,-0.25,-0.249999917816771,-0.25,-0.249988161126192,-0.25,0.249999927001056,-0.249994065547946,0.25,0.826136219333093,0.823011554887206,0.04,0.0214509724532094,393.949880421059,0.757971808843547,0.381893789703567
16841,-0.249995704848374,-0.249987004053027,-0.249992662899539,-0.249950028551127,-0.25,0.249976991770056,-0.249994518389274,0.249999998965806,0.800638620387632,0.796940906137033,0.04,0.0277322905619157,381.783010613463,0.735879832691125,0.381210078150741
16901,-0.249993714412255,-0.249981019625926,-0.249989262779813,-0.249932357357805,-0.25,0.249966363248373,-0.249994728242572,0.249999998486545,0.775242086800208,0.77087025738686,0.04,0.0329986249188028,369.665553083888,0.709680894283245,0.382737085937958
16961,-0.249998009563881,-0.183775286883908,0.0910355996792932,0.0916880868366951,-0.249999900384187,0.249984665529044,-0.0725473690108905,-0.091369125572762,0.74494504339187,0.762614551949305,0.04,0.0454269273761552,355.35885455444,0.756511634663892,0.345148671439936
17021,-0.25,-0.153094581466876,0.249071511550586,0.25,-0.249999854220761,0.249993147073745,0.0096843340476936,-0.249564573307563,0.756349498705413,0.762614551949305,0.04,0.0478699544798068,360.934510688019,0.83135846497459,0.31900299620143
17081,-0.249999898003786,-0.21850028301423,0.249241381573375,0.249992481666561,-0.24941036982805,0.249997472688673,0.173900039115103,-0.249823865232078,0.759544908317188,0.762614551949305,0.04,0.0531213929150746,362.389637678116,0.851828835760422,0.312592180201614
17141,-0.249999850737248,-0.248810242267883,0.249320101827838,0.249988997560821,-0.249137194133867,0.249999477241932,0.25,-0.249944024904414,0.762992530820365,0.762614551949305,0.04,0.0562787622214314,364.044425914874,0.857571733039429,0.311916683472101
17201,-0.249952244048916,-0.248880638461208,0.249784698912149,0.24999651589426,-0.140833324734553,0.249995613991565,0.25,-0.0605972827546841,0.75846839889786,0.762614551949305,0.04,0.0636574925542629,361.837168517744,0.868088762456469,0.306269477978681
17261,-0.24993018241286,-0.248913261087383,0.25,0.25,-0.0906437267202364,0.24999382370481,0.25,0.0271487684854345,0.763203457614381,0.762614551949305,0.04,0.0648393003169632,364.160538600453,0.880168062880963,0.304005858485347
17321,-0.249977891097406,-0.249641784725907,0.249947294663331,0.249886878861203,0.142128335485491,-0.0916654914048479,-0.0905845017387028,0.00215587893259931,0.774389812096968,0.762614551949305,0.04,0.0566058798151455,369.534065391468,0.837602709200244,0.324168702541633
17381,-0.25,-0.24997939324132,0.249922870239021,0.249834456870053,0.249998315532048,-0.24999541791908,-0.248416344007858,-0.00942619183578785,0.774551041438562,0.772810098368588,0.04,0.0511295799641134,369.580147596959,0.793405147398734,0.342269576210138
17441,-0.249999999614667,-0.24999336614872,0.24997557557569,0.24994757800885,0.249999289838743,-0.249998549007709,-0.249457893481989,0.0999097135457474,0.782244277270126,0.787730410201687,0.04,0.0436940639638689,373.300763424488,0.81423777023478,0.336869979511774
17501,-0.249999999436098,-0.249999841398491,0.25,0.25,0.249999741346724,-0.25,-0.249940562750488,0.150577572137191,0.798745355704196,0.802650722034785,0.04,0.0380044878379942,381.213269949491,0.845007728892162,0.331483568093219
17561,0.0916666661957,-0.249994376872083,0.249999600937668,0.249999743435534,0.249999715262428,-0.249999623455426,-0.249980169990735,0.218516192596269,0.806739893935459,0.817571033867883,0.04,0.0453811090104657,384.955045446463,0.886314580670621,0.319136735679251
17621,0.24999999904946,-0.249991844530577,0.249999416006344,0.249999624539807,0.249999703174584,-0.24999944895916,-0.249998524565484,0.24999994354072,0.825856703776527,0.832491345700981,0.04,0.0470309991942483,394.187251120189,0.945782668495841,0.306242808621399
17681,0.249999999698996,-0.249994538199707,0.249999815068675,-0.0916626330470608,-0.0916667606613819,-0.249998137040131,-0.24999953277907,0.249997559142987,0.854793615133417,0.847411657534079,0.04,0.0326637354038436,408.075150262147,0.939539855881496,0.31913880728249
17741,0.25,-0.249995786485402,0.25,-0.249993923148292,-0.25,-0.249997529077654,-0.25,0.249996454178183,0.865413834975569,0.862331969367177,0.04,0.03071933869214,412.94499570151,0.892381596898525,0.340013591998399
17801,0.249997769399866,-0.165001101651725,-0.0916666666666667,-0.249998075663626,-0.249999995347106,0.0916670459306814,-0.25,0.142728018962928,0.87808932099782,0.877252281200275,0.04,0.0288368980103191,419.058908922509,0.887682957060372,0.346874099007885
17861,0.249996735707121,-0.125613320875143,-0.25,-0.25,-0.249999993190886,0.249999409958934,-0.25,0.0930182563021993,0.890602296394556,0.892172593033373,0.04,0.0274039390626694,425.004563975293,0.889972340318517,0.350890621590682
17921,0.249997936898774,0.131055781722871,0.0916511886151931,-0.249999977911828,-0.249999878527706,0.249999137395956,-0.249999438999917,0.200286132965672,0.889578654474088,0.907092904866471,0.04,0.0425808229329536,424.478073709344,0.955382314767634,0.326462077762068
17981,0.249998493548564,0.25,0.249977349192965,-0.249999967675846,-0.24999982539111,0.249999011086283,-0.249999179024269,0.24999563678533,0.912604251088043,0.922013216699569,0.04,0.0461829500658363,435.595086632477,1.04107369610282,0.307437029327085
18041,0.249999301638521,0.25,0.249992827244439,-0.249999989764018,-0.249999944707185,0.249988994330127,0.0916454189962791,0.249998618315354,0.924771160590123,0.936933528532667,0.04,0.0532596395083971,441.299139237595,1.10043596503429,0.2946612187699
18101,0.249999676119233,0.25,0.25,-0.25,-0.25,0.249984352418738,0.249968525396045,0.25,0.946465692411789,0.951853840365765,0.04,0.0551905788771153,451.731138924503,1.15478644263129,0.287430617759261
18161,-0.0916571301849244,0.249993938297562,-0.0916397601370818,-0.121376211003119,-0.144033953726391,0.249995044932601,-0.0916766336245857,0.25,0.973297343876892,0.95657860577958,0.04,0.0448153051607811,464.509482111282,1.11224362769262,0.306866396707651
18221,-0.249985894081973,0.249991129215945,-0.249960624590851,-0.061770064882614,-0.0949277371605718,0.25,-0.25,0.25,0.96762109299281,0.95657860577958,0.04,0.0450914292083405,461.564624287782,1.01280606790801,0.334858168420648
18281,0.0916711220145497,0.249993168502337,-0.249987408173396,-0.190391526403204,-0.200893781960665,-0.0916612995962075,-0.215637595400963,0.25,0.965090215343119,0.95657860577958,0.04,0.0410124306840722,460.441107034272,0.961040444937122,0.352036018544177
18341,0.24999998313245,0.249994113537494,-0.249999820077503,-0.249996593937136,-0.249999997843635,-0.249992145750548,-0.199713554245311,0.25,0.961915701374509,0.95657860577958,0.04,0.0383357068153294,458.908950086876,0.920852863036196,0.366176914922722
18401,0.249999577314567,0.24999813595354,-0.249999941242524,-0.249998921413426,-0.249999999317151,-0.249997324114296,0.107590707822318,0.249997053177167,0.953206140947198,0.95657860577958,0.04,0.0423370855184398,454.73643788402,0.920036702249293,0.36316942559099
18461,0.249999389252621,0.25,-0.249999997392168,-0.25,-0.25,-0.249999723843838,0.25,0.249995687576341,0.956577479778292,0.95657860577958,0.04,0.0421896346328827,456.399340770147,0.93170070727857,0.359934320522139
18521,0.249999806596663,-0.0916654257067876,-0.249878271710785,-0.249999255199261,-0.249999907877381,0.0916667541161178,-0.0916666666666667,0.249998634399175,0.963920457802664,0.95657860577958,0.04,0.0329823896406806,459.9371556206,0.90739165451872,0.372441777541961
18581,0.25,-0.249998183961153,-0.249821862248681,-0.249998910047699,-0.249999865186412,0.25,-0.25,0.25,0.959080568821599,0.95657860577958,0.04,0.0293979811358193,457.534047628403,0.873216462691469,0.384995966275199
18641,0.249999444702233,-0.249998630902173,0.0916954159362036,-0.249999308006642,-0.249991823222493,0.249999850753523,0.0916623769270298,0.25,0.941018475465896,0.95657860577958,0.04,0.0423430124896502,448.867522561528,0.921041619411212,0.358091163791646
18701,0.249999187369121,-0.249998838021182,0.249959520460906,-0.249999492426639,-0.249988096458726,0.249999781590521,0.249993722332239,0.25,0.950395933146031,0.95657860577958,0.04,0.0449865615994114,453.501540940273,0.991517987015512,0.336072399092592
18761,-0.0916669239997783,-0.249999632040041,-0.0916794851873797,-0.248060733668837,-0.242778965963366,0.249999930836998,-0.0916686545947911,0.249930346441295,0.978384694087615,0.95657860577958,0.04,0.0276777386900658,466.976123880669,0.935658853909884,0.36671765658556
18821,-0.25,-0.25,-0.25,-0.247162284488392,-0.239438149392345,0.25,-0.25,0.249898067962871,0.96519587895893,0.95657860577958,0.04,0.0230209513408534,460.372048543731,0.827366223435439,0.408851727114263
18881,-0.25,-0.201254433283016,-0.249978280314454,-0.249055556219286,0.0947247387925141,-0.0916660068234032,-0.25,0.249853922870262,0.957137957692502,0.95657860577958,0.04,0.0200812779197276,456.621068373347,0.811037954841703,0.413684685180721
18941,-0.25,-0.178665024316609,-0.249968215094322,-0.249932926045797,0.249580711365985,-0.249999034375712,-0.25,0.249833465388321,0.949792816582157,0.948955469400287,0.04,0.0191413820976263,453.045912471931,0.809176325615523,0.411389994317644
19001,-0.249788093830502,0.114256075633074,0.0916767318867979,-0.249977905445378,0.249867225265895,-0.249971879164593,-0.0210581190857562,-0.0869423200664771,0.92106593891939,0.937799660064736,0.04,0.0301181211231155,439.264709109093,0.86368712849254,0.373701242661376
19061,-0.24968989341049,0.25,0.25,-0.249998749557379,0.25,-0.249959295042367,0.0850368988988933,-0.243009147472359,0.921745291693805,0.926643850729186,0.04,0.0368494755987763,439.759649942945,0.931055648022911,0.347051891346034
19121,-0.249901799579989,0.24998719369635,0.25,0.0916670626401634,0.249260690467482,0.0916794530840199,0.197563002149864,-0.247786230032914,0.904331783398144,0.915488041393635,0.04,0.0596775988958354,431.318825730901,0.973386919473549,0.325587396225099
19181,-0.25,0.24998125906783,0.25,0.25,0.248918083610949,0.249999848557223,0.249709245119826,-0.25,0.901744978669054,0.904332232058084,0.04,0.0670222354257988,430.209514052013,1.01768775495547,0.310613364492931
19241,-0.25,-0.0916692614584691,0.249689654073587,0.249552179637036,0.249657393143467,-0.0915007358807194,-0.0866486461185554,-0.249824564888946,0.914018639645894,0.893176422722534,0.04,0.0516955524617547,436.150745657822,0.95222754874488,0.33655074305481
19301,-0.25,-0.249995112434071,0.24954583522964,0.24934465312737,0.25,-0.249757104278791,-0.242521815229025,-0.249743265691141,0.893768275166725,0.882020613386983,0.04,0.0496308824024251,426.221077931032,0.83806232644513,0.37369155309791
19361,-0.249999999783355,-0.249998452270789,-0.0918086615637525,0.249792473490334,-0.0916666402219786,0.0912255849754084,-0.24763189764023,-0.249917053358964,0.881460562242723,0.870864804051433,0.04,0.0344421992549638,420.503599484481,0.784117266198564,0.394042782255871
19421,-0.249999999682958,-0.25,-0.249997330809471,0.25,-0.249999961300457,0.249241953166379,-0.249999984611277,-0.249997589107468,0.865668388148431,0.859708994715882,0.04,0.0263263996867793,412.873705726019,0.727630474446057,0.416927960991711
19481,-0.249999999899603,-0.25,-0.249999154756332,0.249999999998338,-0.249996208422782,0.24975995183602,-0.249999995126904,-0.249999236550394,0.851114743024116,0.848553185380331,0.04,0.0219570329628953,405.965245189726,0.706919089619322,0.421962466133479
19541,-0.25,-0.25,-0.25,0.249999999997568,-0.249994469284347,0.25,-0.25,-0.249999999999555,0.838763954429554,0.837397376044781,0.04,0.0201798075726339,400.076034389229,0.695857783007538,0.422451371081521
19601,-0.249999999425172,-0.249999993229811,-0.249750589657096,-0.0916666666674369,-0.24999824860671,0.249999999998416,-0.249665861279331,-0.249999976745351,0.837204464796438,0.82624156670923,0.04,0.0134617816039148,399.364772874722,0.658103378236226,0.445892646455603
19661,-0.249999999158788,-0.249999990092406,-0.249635009254287,-0.25,-0.25,0.249999999997683,-0.249511016506337,-0.249999965969013,0.816942326055963,0.815085757373679,0.04,0.0124094763602476,389.609077650803,0.614605098731195,0.465787237308021
19721,-0.249999999733616,-0.105008528077874,-0.172470540931899,-0.249836654913828,-0.249995977997734,0.24996669840637,-0.249842730345403,-0.249999630858755,0.795167694349685,0.803929948038129,0.04,0.0164655043390477,379.104360404358,0.633855345350478,0.439463994402058
19781,-0.25,-0.0378173627540667,-0.136711397075182,-0.24976095841048,-0.249994114143026,0.249951265961616,-0.249996451392775,-0.249999475563758,0.787878958709149,0.792774138702578,0.04,0.0182536292546602,375.81145161811,0.680820228814483,0.405594665819358
19841,-0.25,0.158856071187064,0.12717168439507,-0.0153506277152659,-0.249996877355221,0.249984567554512,-0.00864972887614374,0.0916645680535664,0.745984834888227,0.781618329367027,0.04,0.0495370121415851,355.762764738517,0.813794726233336,0.321218312825449
19901,-0.25,0.249997418623198,0.249458966052016,0.0932785499239798,-0.24999815786819,0.25,0.10319387424132,0.249996685827449,0.759148210345516,0.770462520031477,0.04,0.0596925707567259,362.272582198359,0.956437586204216,0.278313009931843
19961,-0.249988987822881,-0.0916674828922306,-0.0918371083224445,0.20037154080926,-0.249999416462541,0.25,-0.00581577314414562,-0.0915431005395533,0.7818250226899,0.759306710695926,0.04,0.0495691055512394,373.114487096858,0.900010912616963,0.304613406180636
20021,-0.24998388461885,-0.249999998228649,-0.249998703764268,0.25,-0.249999999713581,0.25,-0.0563324390057028,-0.249817635685237,0.761046105848878,0.748150901360376,0.04,0.0529874544837676,362.904881807198,0.774550385993987,0.344268915904599
20081,-0.249994896795969,-0.249999999439072,0.00475216577942967,0.249993456843274,-0.249999987263744,0.249999935968375,0.15299472749739,-0.108166864275304,0.732343015488883,0.736995092024825,0.04,0.0677647114849096,349.230289607675,0.76219688077071,0.336666119525485
20141,-0.25,-0.25,0.122807446787485,0.249990424648693,-0.249999981494307,0.249999906295184,0.249999999779312,-0.0425238238658225,0.727719290423085,0.725839282689274,0.04,0.0686297511110951,347.1621591139,0.776425071420625,0.328539435294847
20201,-0.25,-0.249998415406428,0.20972235814937,0.249996066177214,-0.249959102303115,0.173223812947333,0.249919021408463,-0.18429921064557,0.722609257423722,0.714683473353724,0.04,0.067444930488144,344.69174348461,0.739610873931795,0.342438250331227
20261,-0.25,-0.249997681082577,0.25,0.249998680544089,-0.249940158287685,0.137644647737353,0.249881494846362,-0.249999999641062,0.709306322298721,0.703527664018173,0.04,0.06682314528352,338.305065203325,0.696679487588867,0.356804360104484
20321,-0.25,-0.249998955610419,0.25,0.249999582172295,0.0916855981153201,-0.127241513398524,-0.0917041932986519,-0.249995794196746,0.703266352532893,0.692371854682622,0.04,0.0566628681269454,335.486337658418,0.646659232457892,0.381201001096876
20381,-0.25,-0.249999546245273,0.25,0.25,0.249999973033786,-0.249993636851736,-0.25,-0.249993845332306,0.68663212735195,0.681216045347072,0.04,0.0516551413117416,327.452560501168,0.591808588471637,0.406557337480823
20441,-0.249999287810031,-0.249999301594976,-0.0916666666666666,-0.0914840787862921,0.249999991460699,-0.249997975213506,-0.249995887782781,-0.249998051021897,0.684123867997468,0.670060236011521,0.04,0.0133551458403132,326.636995024101,0.547305524903801,0.438520818011941
20501,-0.249998957770778,-0.249999188220449,-0.25,-0.249732798223842,0.25,-0.249999985673838,-0.249993982121142,-0.25,0.673375694523832,0.65890442667597,0.04,0.00313852868186225,321.235857531517,0.441005425466931,0.535222991069972
