time,bias_percent_1,bias_percent_2,bias_percent_3,bias_percent_4,bias_percent_5,bias_percent_6,bias_percent_8,bias_percent_9,normalized_power,power_SP,SP,CV,total_power_MW,fuel_fraction,thermal_efficiency
5,0,0,0,0,0,0,0,0,0.9975717044145,1,0.04,0.0412669314085701,475.73841709553,0.999505207854946,0.34973398641484
65,-0.000169301022786726,-0.00196384710455106,-0.00130315297481957,-0.00180477282964671,0.000741190483411515,-0.00191155378058863,-0.000410134656209777,0.00197900567105154,0.999649195900371,0.997947974313167,0.04,0.0401066797041109,476.916285334773,0.997802839909994,0.351198047862936
125,-0.00220091329622687,-0.0255300123591646,-0.016940988672654,-0.0234620467854082,0.00963547628434935,-0.0248501991476512,-0.00533175053072733,0.0257270737236702,0.981621333057211,0.973323666071173,0.04,0.045292305487315,468.148584338634,0.953484511515279,0.360765291258278
185,-0.00423252556966725,-0.0490961776137781,-0.0325788243704886,-0.04511932074117,0.0185297620852873,-0.047788844514714,-0.0102533664052449,0.0494751417762888,0.957367351294513,0.948699357829179,0.04,0.048756353004028,456.561638105622,0.900080452623411,0.372711474996387
245,-0.00626413784310739,-0.0726623428683916,-0.0482166600683231,-0.0667765946969315,0.027424047886225,-0.0707274898817766,-0.0151749822797624,0.0732232098289075,0.932262040595264,0.924075049587185,0.04,0.049387632851791,444.580079356002,0.848709196568176,0.384898099871896
305,-0.00829575011654765,-0.0962285081230052,-0.0638544957661577,-0.088433868652693,0.0363183336871629,-0.0936661352488394,-0.0200965981542801,0.0969712778815261,0.906985928478267,0.899450741345191,0.04,0.0480423110560695,432.517254099661,0.801073975637985,0.396721274337505
365,-0.010327362389988,-0.119794673377619,-0.0794923314639922,-0.110091142608455,0.0452126194881007,-0.116604780615902,-0.0250182140287976,0.120719345934145,0.881628272708177,0.874826433103197,0.04,0.0454462878341311,420.51544662984,0.757615569875234,0.407838046716721
425,-0.0123589746634282,-0.143360838632232,-0.0951301671618267,-0.131748416564216,0.0541069052890385,-0.139543425982965,-0.0299398299033152,0.144467413986763,0.856746758771679,0.850202124861203,0.04,0.0423899077795243,408.526694140377,0.717374340370896,0.418436227076646
