time,bias_percent_1,bias_percent_2,bias_percent_3,bias_percent_4,bias_percent_5,bias_percent_6,bias_percent_8,bias_percent_9,normalized_power,power_SP,SP,CV,total_power_MW,fuel_fraction,thermal_efficiency
49,0,0,0,0,0,0,0,0,0.999799192714106,1,0.04,0.039917362807388,477.007634951043,0.999958020064482,0.350508245303429
109,-0.0107114259827291,-0.0184380693188361,-0.0172339837510726,0.00395062669643175,0.00557344100712294,0.0270966803179113,0.00893533065084165,0.0145195538561449,0.997556968815363,0.99692070406075,0.04,0.0406099003544427,475.907130587849,0.997377306467983,0.35060443531363
169,-0.0238274577983159,-0.0410152970561866,-0.0383368209972841,0.00878812877369501,0.012398062648498,0.0602762888704556,0.0198765518559538,0.0322985993942814,0.993935735440674,0.993150137604526,0.04,0.0413184991160542,474.17717304645,0.992646500534516,0.350994817083936
229,-0.0369434896139026,-0.0635925247935369,-0.0594396582434956,0.0136256308509584,0.0192226842898732,0.0934558974230001,0.030817773061066,0.050077644932418,0.990195032100207,0.989379571148302,0.04,0.0417457871025312,472.392201028217,0.987609553747526,0.35145693136698
289,-0.0500595214294893,-0.0861697525308873,-0.080542495489707,0.0184631329282219,0.0260473059312484,0.126635505975544,0.0417589942661782,0.0678566904705545,0.9864345125205,0.985609004692078,0.04,0.0419781280882179,470.597947342865,0.982481856740433,0.351949348580311
349,-0.063175553245076,-0.108746980268238,-0.101645332735918,0.0233006350054851,0.0328719275726236,0.159815114528089,0.0527002154712904,0.0856357360086911,0.982658098048255,0.981838438235853,0.04,0.0420874558668609,468.796067336004,0.977353767158192,0.352441340827868
409,-0.0762915850606628,-0.131324208005588,-0.12274816998213,0.0281381370827485,0.0396965492139986,0.192994723080633,0.0636414366764027,0.103414781546828,0.978859537416244,0.978067871779629,0.04,0.0421083806867119,466.983581829815,0.972345750469948,0.352886925275249
469,-0.0894076168762496,-0.153901435742939,-0.143851007228341,0.0329756391600116,0.0465211708553736,0.226174331633178,0.0745826578815148,0.121193827084964,0.975037355110226,0.974297305323405,0.04,0.0420561371703331,465.159843408972,0.967600035917397,0.353232793676948
529,-0.102523648691836,-0.176478663480289,-0.164953844474553,0.0378131412372751,0.0533457924967487,0.259353940185722,0.0855238790866271,0.138972872623101,0.971196173676802,0.970526738867181,0.04,0.0419430158954456,463.327093165816,0.963242410842926,0.353432739268546
589,-0.115639680507423,-0.199055891217639,-0.186056681720764,0.0426506433145383,0.0601704141381239,0.292533548738267,0.0964651002917393,0.156751918161237,0.967343535315277,0.966756172410956,0.04,0.0417839214580864,461.488941333908,0.95935773666159,0.353456027845786
649,-0.12875571232301,-0.22163311895499,-0.207159518966976,0.0474881453918017,0.0669950357794989,0.325713157290811,0.107406321496851,0.174530963699374,0.963504529100356,0.962985605954732,0.04,0.0415919198275318,459.658390746169,0.955978574951689,0.353298431555725
709,-0.141871744138596,-0.24421034669234,-0.228262356213187,0.0523256474690651,0.0738196574208741,0.358892765843355,0.118347542701964,0.19231000923751,0.959632619170397,0.959215039498508,0.04,0.0413927106002691,457.810753097902,0.953126922371632,0.35293109902756
769,-0.154987775954183,-0.26678757442969,-0.249365193459399,0.0571631495463284,0.0806442790622492,0.3920723743959,0.129288763907076,0.210089054775647,0.955784246482554,0.955444473042284,0.04,0.0411910739980091,455.974016826928,0.950738864587402,0.352398072555881
829,-0.16810380776977,-0.289364802167041,-0.27046803070561,0.0620006516235917,0.0874689007036243,0.425251982948444,0.140229985112188,0.227868100313784,0.951959079602868,0.95167390658606,0.04,0.0409934927717538,454.149207639824,0.94876781120752,0.351716947319549
889,-0.181219839585357,-0.311942029904391,-0.291570867951822,0.0668381537008549,0.0942935223449994,0.458431591500989,0.1511712063173,0.24564714585192,0.948143871541354,0.947903340129835,0.04,0.0408032668631466,452.330805716932,0.947163411269458,0.350902069387121
