time,bias_percent_1,bias_percent_2,bias_percent_3,bias_percent_4,bias_percent_5,bias_percent_6,bias_percent_8,bias_percent_9,normalized_power,power_SP,SP,CV,total_power_MW,fuel_fraction,thermal_efficiency
48,0,0,0,0,0,0,0,0,0.999791661352074,1,0.04,0.0399196615402469,477.0041948439,0.999944717561722,0.35051038035186
108,0.0175354406581839,0.0188029490873661,-0.0276739544889899,0.0117205112282003,0.00998363806349232,-0.000894190731729054,-0.0260105911426283,0.023598332597372,0.998181989614689,0.997821140142733,0.04,0.0410264794510197,476.2115558623,0.998294280021575,0.350506457433893
168,0.0394547414809139,0.0423066354465736,-0.0622663976002272,0.0263711502634505,0.0224631856428578,-0.00201192914639046,-0.0585238300709135,0.0530962483440871,0.995439990314809,0.995097565321149,0.04,0.0422906504336148,474.902322380806,0.996006168656723,0.350345820981093
228,0.0613740423036437,0.0658103218057812,-0.0968588407114644,0.041021789298701,0.0349427332222232,-0.00312966756105163,-0.0910370689991988,0.0825941640908022,0.99266530631313,0.992373990499565,0.04,0.0432559948686734,473.57862352673,0.994024376839229,0.350065838886712
288,0.0832933431263735,0.0893140081649888,-0.131451283822702,0.0556724283339513,0.0474222808015886,-0.00424740597571304,-0.123550307927484,0.112092079837517,0.989908515742045,0.989650415677981,0.04,0.0440077427192443,472.263499464642,0.992280408966066,0.34970725336867
348,0.105212643949104,0.112817694524196,-0.166043726933939,0.0703230673692018,0.059901828380954,-0.00536514439037433,-0.156063546855769,0.141589995584232,0.987166326225976,0.986926840856397,0.04,0.0446083354695924,470.955291888124,0.990674896051926,0.349303710907979
408,0.127131944771833,0.136321380883404,-0.200636170045176,0.0849737064044519,0.0723813759603194,-0.00648288280503573,-0.188576785784055,0.171087911330947,0.984434306296148,0.984203266034813,0.04,0.0450951968793367,469.651837629692,0.989145069307332,0.348875692683751
468,0.149051245594563,0.159825067242611,-0.235228613156414,0.0996243454397024,0.0848609235396848,-0.00760062121969713,-0.22109002471234,0.200585827077662,0.981705774529315,0.98147969121323,0.04,0.0454926479503484,468.350149431358,0.987645099394887,0.348437128694178
528,0.170970546417293,0.183328753601819,-0.269821056267651,0.114274984474953,0.0973404711190502,-0.00871835963435842,-0.253603263640625,0.230083742824377,0.979062968834815,0.978756116391646,0.04,0.045855655041085,467.090517127217,0.985926508189572,0.348105738891548
588,0.192889847240023,0.206832439961026,-0.304413499378888,0.128925623510203,0.109820018698416,-0.00983609804901982,-0.286116502568911,0.259581658571092,0.976503240931181,0.976032541570062,0.04,0.0462849841234845,465.869312860554,0.983303721163052,0.348121701630837
648,0.214809148062753,0.230336126320234,-0.339005942490126,0.143576262545453,0.122299566277781,-0.0109538364636811,-0.318629741497196,0.289079574317807,0.97392606646761,0.973308966748478,0.04,0.046728768672666,464.639508524466,0.979750201096818,0.348462020353444
708,0.236728448885483,0.253839812679442,-0.373598385601363,0.158226901580704,0.134779113857146,-0.0120715748783424,-0.327763974970686,0.318577490064523,0.970657630043037,0.970585391926894,0.04,0.0475576415080111,463.072080702733,0.977017137776839,0.348257992386911
768,0.258647749708213,0.277343499038649,-0.4081908287126,0.172877540615954,0.147258661436512,-0.0131893132930037,-0.309180749376776,0.348075405811238,0.967563169995129,0.96786181710531,0.04,0.0485137696371689,461.602107039805,0.978307169532198,0.346694715971089
828,0.280567050530943,0.300847185397857,-0.442783271823838,0.187528179651205,0.159738209015877,-0.0143070517076651,-0.288385274445903,0.377573321557953,0.964847790123601,0.965138242283726,0.04,0.0496032267067231,460.307700697336,0.979997541645113,0.345126200641065
888,0.302486351353673,0.324350871757064,-0.477375714935075,0.202178818686455,0.172217756595243,-0.0154247901223265,-0.265007022000202,0.407071237304668,0.962200434800599,0.962414667462142,0.04,0.0508183577467663,459.044847943964,0.981315293941154,0.34371716917581
948,0.306870211518219,0.329051609028906,-0.484294203557323,0.205108946493505,0.174713666111116,-0.0156483378052587,-0.239192551247218,0.412970820454011,0.961810787316214,0.961869952497826,0.04,0.0504576638275686,458.882164850159,0.982350440581242,0.34323329579689
1008,0.306870211518219,0.329051609028906,-0.484294203557322,0.205108946493505,0.174713666111116,-0.0156483378052587,-0.212838512991941,0.412970820454011,0.962008531011825,0.961869952497826,0.04,0.0498440030366561,458.975342138518,0.981852076298407,0.343477242528987
1068,0.306870211518219,0.329051609028906,-0.484294203557323,0.205108946493505,0.174713666111116,-0.0156483378052587,-0.187064047707028,0.412970820454011,0.962107590977495,0.961869952497826,0.04,0.0492703731355288,459.022082124957,0.980596748936079,0.343951973634337
1128,0.306870211518219,0.329051609028906,-0.484294203557322,0.205108946493505,0.174713666111116,-0.0156483378052587,-0.162351791478482,0.412970820454011,0.96215726407888,0.961869952497826,0.04,0.0486929396878028,459.045490003041,0.978956367918997,0.344545883478619
1188,0.306870211518219,0.329051609028906,-0.484294203557323,0.205108946493505,0.174713666111116,-0.0156483378052587,-0.138935466923002,0.412970820454011,0.962177891498144,0.961869952497826,0.04,0.048110200130344,459.055152358358,0.977139782313159,0.345193689213322
1248,0.306870211518219,0.329051609028906,-0.484294203557322,0.205108946493505,0.174713666111116,-0.0156483378052587,-0.116929990514118,0.412970820454011,0.962180573506116,0.961869952497826,0.04,0.0475308384853688,459.056321439023,0.975274586797066,0.345854746870192
1308,0.306870211518219,0.329051609028906,-0.484294203557323,0.205108946493505,0.174713666111116,-0.0156483378052587,-0.0963819375586652,0.412970820454011,0.962172241027857,0.961869952497826,0.04,0.0469644346719669,459.052278126821,0.973439577816107,0.346503657859843
1368,0.306870211518219,0.329051609028906,-0.484294203557322,0.205108946493505,0.174713666111116,-0.0156483378052587,-0.0772930094727546,0.412970820454011,0.962157436304335,0.961869952497826,0.04,0.0464188130335949,459.045178008713,0.971681961319202,0.347125058252547
1428,0.306870211518219,0.329051609028906,-0.484294203557323,0.205108946493505,0.174713666111116,-0.0156483378052588,-0.059633696061295,0.412970820454011,0.962139175923269,0.961869952497826,0.04,0.0458995360662866,459.036447223106,0.970028028999118,0.347710305450036
1488,0.306870211518219,0.329051609028906,-0.484294203557322,0.205108946493505,0.174713666111116,-0.0156483378052587,-0.0433527756267785,0.412970820454011,0.962119431059702,0.961869952497826,0.04,0.0454100916303632,459.027022367586,0.968490303923349,0.348255233675523
1548,0.306870211518219,0.329051609028906,-0.484294203557322,0.205108946493505,0.174713666111116,-0.0156483378052587,-0.0283845177359954,0.412970820454011,0.962099468486475,0.961869952497826,0.04,0.0449522985380223,459.017499608482,0.967072400604602,0.348758603600116
1608,0.306870211518219,0.329051609028906,-0.484294203557323,0.205108946493505,0.174713666111116,-0.0156483378052588,-0.0149018714704175,0.412970820454011,0.962071972669529,0.961869952497826,0.04,0.0445328106442021,459.003773106676,0.965783272392949,0.349213683606238
