time,bias_percent_1,bias_percent_2,bias_percent_3,bias_percent_4,bias_percent_5,bias_percent_6,bias_percent_8,bias_percent_9,normalized_power,power_SP,SP,CV,total_power_MW,fuel_fraction,thermal_efficiency
35,0,0,0,0,0,0,0,0,0.999665929455589,1,0.04,0.0399634006066967,476.947456690276,0.999720617022318,0.350547250411938
95,-0.0124429540183866,-0.00142296579586036,0.0184080960625472,0.0130725689163083,0.0152773632799149,0.0077021038143738,-0.0012276508702314,-0.0205999232847932,0.985591729878349,0.974358085837667,0.04,0.0468496506569819,469.944243174358,0.963294962012239,0.358460842495112
155,-0.0337737323356208,-0.0038623357316211,0.0499648321697708,0.0354826870585514,0.041467128902626,0.0209057103533004,-0.00333219521919955,-0.0559140774872959,0.944458858216391,0.930400518702238,0.04,0.059405411316125,450.433277260491,0.878367080524961,0.376798437635178
215,-0.0551045106528552,-0.00630170566738184,0.0815215682769943,0.0578928052007943,0.0676568945253371,0.0341093168922268,-0.00543673956816758,-0.0912282316897985,0.899912237757848,0.88644295156681,0.04,0.0676765425641193,428.989696029288,0.792966204119219,0.397508902038668
275,-0.0764352889700893,-0.00874107560314269,0.113078304384218,0.0803029233430373,0.093846660148048,0.0473129234311534,-0.00754128391713567,-0.126542385892301,0.8548379478406,0.842485384431381,0.04,0.0715571935081154,407.485599123979,0.714432290655857,0.419088617878554
335,-0.0977660672873236,-0.0111804455389033,0.144635040491442,0.10271304148528,0.120036425770759,0.06051652997008,-0.00964582826610385,-0.161856540094804,0.809912878018059,0.798527817295952,0.04,0.0725903781416079,386.052357519449,0.641970207044715,0.44186134651068
395,-0.119096845604558,-0.0136198154746641,0.176191776598665,0.125123159627523,0.14622619139347,0.0737201365090065,-0.011750372615072,-0.17737505778891,0.763691280490861,0.754570250160524,0.04,0.0723216360160556,364.256395542159,0.576826112221426,0.463998898854551
455,-0.140427623921792,-0.0160591854104247,0.207748512705889,0.147533277769766,0.172415957016182,0.086923743047933,-0.0138549169640401,-0.0973986966904336,0.717708094158653,0.710612683025095,0.04,0.0712580671169082,342.07806190391,0.530297633718511,0.473980211077271
515,-0.161758402239026,-0.0184985553461855,0.239305248813112,0.169943395912009,0.198605722638893,0.10012734958686,-0.0159594613130082,-0.0460074044941554,0.671996635709357,0.666655115889667,0.04,0.071682436342386,320.251813384992,0.493293090610091,0.477025111096081
575,-0.183089180556261,-0.0209379252819462,0.270861984920336,0.192353514054252,0.224795488261604,0.113330956125786,-0.0180640056619763,-0.0217319921341095,0.627424689956415,0.622697548754238,0.04,0.074433504860608,298.992108953003,0.461818383813465,0.475710991079007
635,-0.204419958873495,-0.0233772952177069,0.30241872102756,0.214763632196495,0.250985253884315,0.126534562664713,-0.0102651536860768,-0.0102651536860768,0.58304393724823,0.578739981618809,0.04,0.080104344869349,277.820038208879,0.433063268121686,0.471375378353377
695,-0.225750737190729,-0.0258166651534676,0.333975457134783,0.237173750338738,0.277175019507026,0.139738169203639,-0.00484862843645097,-0.00484862843645097,0.539123746206755,0.534782414483381,0.04,0.0879076337267454,256.86708678647,0.404972154438798,0.466055861137873
755,-0.247081515507963,-0.0282560350892284,0.365532193242007,0.259583868480981,0.303364785129737,0.152941775742566,-0.0022900552156986,-0.0022900552156986,0.495389838984984,0.490824847347952,0.04,0.0979515641950195,236.003884536891,0.37602758415293,0.461162646807547
815,-0.268412293825198,-0.0306954050249892,0.39708892934923,0.281993986623224,0.329554550752448,0.166145382281492,-0.00108147853672619,-0.00108147853672619,0.45175167679035,0.446867280212524,0.04,0.110206210257263,215.443549394938,0.346024436241651,0.457489785525004
875,-0.289743072142432,-0.0331347749607498,0.428645665456454,0.304404104765467,0.355744316375159,0.179348988820419,-0.000510589973150235,-0.000510589973150235,0.408524555536854,0.402909713077095,0.04,0.12604973843292,194.834416066256,0.312187203102792,0.458569592632002
935,-0.298630896441279,-0.0341511791006502,0.441794305501131,0.313741653991401,0.366656718717956,0.184850491544971,-0.000240921347230975,-0.000240921347230975,0.3787746886342,0.384594060104,0.04,0.11961050517165,180.666476868346,0.316856002221845,0.418957831916051
995,-0.298630896441279,-0.0341511791006502,0.441794305501131,0.313741653991401,0.366656718717956,0.184850491544971,-0.000113538828488039,-0.000113538828488039,0.377809085953858,0.384594060104,0.04,0.0872721510055312,180.256644132216,0.357889933054095,0.370080732727314
1055,-0.298630896441279,-0.0341511791006501,0.441794305501131,0.313741653991401,0.366656718717956,0.184850491544971,-5.3367872713357e-05,-5.3367872713357e-05,0.378827544191717,0.384594060104,0.04,0.0730839890610714,180.749820690333,0.395051096096962,0.336185734028795
1115,-0.298630896441279,-0.0341511791006502,0.441794305501131,0.313741653991401,0.366656718717956,0.184850491544971,-2.49523903339869e-05,-2.49523903339869e-05,0.380298446180338,0.384594060104,0.04,0.0689005816432184,181.451694828811,0.423834462984605,0.314571546904091
1175,-0.298630896441279,-0.0341511791006502,0.441794305501131,0.313741653991401,0.366656718717956,0.184850491544971,-1.15228008384502e-05,-1.15228008384502e-05,0.38154667216494,0.384594060104,0.04,0.068688339658158,182.0443032483,0.444491202456953,0.300932158094528
1235,-0.298630896441279,-0.0341511791006501,0.441794305501131,0.313741653991401,0.366656718717956,0.184850491544972,-5.17914204144592e-06,-5.17914204144592e-06,0.382430355377741,0.384594060104,0.04,0.0696494495738258,182.463292448467,0.459119713877832,0.292014382659955
1295,-0.298630896441279,-0.0341511791006502,0.441794305501131,0.313741653991401,0.366656718717956,0.184850491544972,-2.18262402083308e-06,-2.18262402083308e-06,0.383039456934511,0.384594060104,0.04,0.0707336165599374,182.752139326955,0.469585576701286,0.285958096014063
1355,-0.298630896441279,-0.0341511791006502,0.441794305501131,0.313741653991401,0.366656718717956,0.184850491544971,-7.67175848857344e-07,-7.67175848857344e-07,0.383468346454236,0.384594060104,0.04,0.0716455494836978,182.955611902212,0.477146766921887,0.281739945473841
1415,-0.298630896441279,-0.0341511791006502,0.441794305501131,0.313741653991401,0.366656718717956,0.184850491544971,-9.85686475097886e-08,-9.85686475097886e-08,0.383776720993341,0.384594060104,0.04,0.0723488998359555,183.101946853916,0.482633265585015,0.278759955081264
1475,-0.298630896441279,-0.0341511791006502,0.441794305501131,0.313741653991401,0.366656718717956,0.184850491544971,2.17257532879296e-07,2.17257532879296e-07,0.384000594367023,0.384594060104,0.04,0.0728750322028294,183.208191569633,0.486617439621617,0.276638037378326
1535,-0.298630896441279,-0.0341511791006502,0.441794305501131,0.313741653991401,0.366656718717956,0.184850491544972,3.66442549161089e-07,3.66442549161089e-07,0.384163448207652,0.384594060104,0.04,0.0732637386487962,183.28547774913,0.48950907688699,0.275119886029165
1595,-0.298630896441279,-0.0341511791006502,0.441794305501131,0.313741653991401,0.366656718717956,0.184850491544972,4.36912226676676e-07,4.36912226676676e-07,0.384284627414539,0.384594060104,0.04,0.0735501884838756,183.343120571584,0.491601719396603,0.274034916198708
1655,-0.298630896441279,-0.0341511791006502,0.441794305501131,0.313741653991401,0.366656718717956,0.184850491544971,4.70199587384342e-07,4.70199587384342e-07,0.384392417995812,0.384594060104,0.04,0.0737934536490889,183.39435905483,0.49302015113768,0.273322874227327
1715,-0.298630896441279,-0.0341511791006501,0.441794305501131,0.313741653991401,0.366656718717956,0.184850491544972,4.85923348609687e-07,4.85923348609687e-07,0.384467757680484,0.384594060104,0.04,0.074006326092769,183.430034792962,0.4939153573185,0.272880558222684
1775,-0.298630896441279,-0.0341511791006502,0.441794305501131,0.313741653991401,0.366656718717956,0.184850491544971,4.93350692256514e-07,4.93350692256514e-07,0.384514274294581,0.384594060104,0.04,0.0741697744914152,183.452044377725,0.494477874376576,0.272602835250761
1835,-0.296815319821372,-0.0220798667516666,0.437011871010502,0.314487070828209,0.356816510833549,0.194090550887733,4.96859104325194e-07,4.96859104325194e-07,0.38818019712427,0.39363835869809,0.04,0.0688061357668131,185.290758173661,0.512030015907413,0.265896740760948
1895,-0.293702902758674,-0.00138618843912354,0.428813411883709,0.315764928262738,0.339947583031708,0.209930652618182,2.53047626679707e-07,2.53047626679707e-07,0.402957119354239,0.409142870573674,0.04,0.0592057310521924,192.301291089781,0.551127596229688,0.256380339702359
1955,-0.290590485695975,0.0193074898734197,0.420614952756917,0.317042785697266,0.323078655229867,0.225770754348631,0.00889709105300809,3.83348406113904e-07,0.419434828270354,0.424647382449258,0.04,0.0560268683054256,200.239777673718,0.585130776197263,0.251450260181035
2015,-0.287478068633277,0.0400011681859628,0.412416493630125,0.318320643131795,0.306209727428026,0.24161085607908,0.0237463989001932,4.44897938965099e-07,0.435925450736433,0.440151894324842,0.04,0.0559802894892592,208.110265973146,0.613050687196562,0.249431786323329
2075,-0.284365651570579,0.0606948464985059,0.404218034503333,0.319598500566323,0.289340799626186,0.257450957809529,0.0385957067473784,4.73971752872023e-07,0.452202975304256,0.455656406200426,0.04,0.0570490168187901,215.874250409338,0.635999290507131,0.24940140036338
2135,-0.28125323450788,0.0813885248110491,0.39601957537654,0.320876358000851,0.272471871824345,0.273291059539977,0.0534450145945635,4.87705184963482e-07,0.468169477303792,0.47116091807601,0.04,0.0583218720632569,223.489479826569,0.655518652879903,0.250510945926223
2195,-0.278140817445182,0.102082203123592,0.387821116249748,0.322154215435379,0.255602944022504,0.289131161270426,0.0682943224417487,4.94192368159141e-07,0.483898039746527,0.486665429951593,0.04,0.0593588250756468,230.992203185364,0.673271160910985,0.252093695801696
2255,-0.275028400382483,0.122775881436135,0.379622657122956,0.323432072869908,0.238734016220663,0.304971263000875,0.0831436302889338,4.97256681983521e-07,0.499502907894809,0.502169941827177,0.04,0.0601005376208685,238.436630203336,0.690213232856391,0.25383083023102
2315,-0.271915983319785,0.143469559748679,0.371424197996163,0.324709930304436,0.221865088418823,0.320811364731324,0.0979929381361189,4.98704154473672e-07,0.515049762213208,0.517674453702761,0.04,0.060618030005591,245.853727633061,0.706804185786847,0.255583233877705
2375,-0.268803566257087,0.164163238061222,0.363225738869371,0.325987787738965,0.204996160616982,0.336651466461773,0.112842245983304,0.0315447973354479,0.529772656306905,0.533178965578345,0.04,0.0617458677750603,252.870481622288,0.725399890977536,0.256138773749567
2435,-0.265691149194388,0.184856916373765,0.355027279742579,0.327265645173493,0.188127232815141,0.352491568192222,0.127691553830489,0.0864258014575855,0.544935478453595,0.548683477453929,0.04,0.0628664092344185,260.112117845639,0.748422271033995,0.255369225290321
2495,-0.26257873213169,0.205550594686308,0.346828820615787,0.328543502608021,0.171258305013301,0.36833166992267,0.142540861677674,0.141306805579723,0.560543063422377,0.564187989329513,0.04,0.0643483017238893,267.559455658693,0.771335430284044,0.254877617840218
2555,-0.259466315068992,0.226244272998851,0.338630361488994,0.32982136004255,0.15438937721146,0.384171771653119,0.15739016952486,0.196187809701861,0.576160884498226,0.579692501205096,0.04,0.06608519801363,275.010301097116,0.793505603591439,0.254655839746813
2615,-0.256353898006293,0.246937951311394,0.330431902362202,0.331099217477078,0.137520449409619,0.400011873383568,0.172239477372045,0.251068813823998,0.591716226074873,0.59519701308068,0.04,0.0678472746670176,282.43126190487,0.815238510765636,0.254555658731569
2675,-0.253241480943595,0.267631629623937,0.32223344323541,0.332377074911606,0.120651521607778,0.415851975114017,0.18708878521923,0.305949817946136,0.607219615485977,0.610701524956264,0.04,0.0695136085558858,289.827610316774,0.836882719533021,0.254466040318259
2735,-0.251944640500804,0.276253995587497,0.318817418599246,0.332909515509326,0.113622801690345,0.422452017501704,0.193275996822224,0.328816902997026,0.623762602974682,0.626206036831848,0.04,0.0699924321402139,297.730325634295,0.85575744233302,0.255638972858039
2795,-0.251944640500804,0.276253995587497,0.318817418599246,0.332909515509326,0.113622801690345,0.422452017501704,0.193275996822224,0.328816902997026,0.639782515975859,0.641710548707432,0.04,0.0701445375147118,305.363933051989,0.868570396025945,0.258325568575256
2855,-0.251944640500804,0.276253995587497,0.318817418599246,0.332909515509327,0.113622801690345,0.422452017501704,0.193275996822224,0.328816902997026,0.655202344039167,0.657215060583015,0.04,0.0698135026606055,312.719146282009,0.881152339302891,0.260770313765942
2915,-0.251944640500804,0.276253995587497,0.318817418599246,0.332909515509326,0.113622801690345,0.422452017501704,0.193275996822224,0.328816902997026,0.670567030170646,0.672719572458599,0.04,0.0690722050941172,320.049866724868,0.89457172684041,0.262879765628691
2975,-0.251944640500804,0.276253995587497,0.318817418599247,0.332909515509326,0.113622801690345,0.422452017501704,0.193275996822224,0.328816902997026,0.685975945047537,0.688224084334183,0.04,0.068161989462869,327.401827171714,0.908663090730187,0.264748121579013
3035,-0.251944640500804,0.276253995587497,0.318817418599247,0.332909515509326,0.113622801690345,0.422452017501704,0.193275996822224,0.328816902997026,0.701422327441177,0.703728596209767,0.04,0.0672164400884034,334.771518595585,0.923170754794697,0.26645332291817
3095,-0.251944640500804,0.276253995587497,0.318817418599246,0.332909515509326,0.113622801690345,0.422452017501704,0.193275996822224,0.328816902997026,0.716889135456204,0.719233108085351,0.04,0.0662854316326405,342.150844803174,0.937939477497981,0.268038684251419
3155,-0.251944640500804,0.276253995587497,0.318817418599246,0.332909515509326,0.113622801690345,0.422452017501704,0.193275996822224,0.328816902997026,0.732365927002187,0.734737619960935,0.04,0.0653816924673068,349.534874622975,0.952891412735082,0.26952668934022
3215,-0.251944640500804,0.276253995587497,0.318817418599246,0.332909515509326,0.113622801690345,0.422452017501704,0.193275996822224,0.328816902997026,0.747847664595888,0.750242131836518,0.04,0.0645056472670533,356.921239024811,0.967988493046471,0.270929860604789
3275,-0.251944640500804,0.276253995587497,0.318817418599247,0.332909515509326,0.113622801690345,0.422452017501704,0.193275996822224,0.328816902997026,0.763332035213996,0.765746643712102,0.04,0.0636548861814483,364.308847701213,0.983211047197454,0.272256116554553
3335,-0.251944640500804,0.276253995587497,0.318817418599247,0.332909515509326,0.113622801690345,0.422452017501704,0.193275996822224,0.328816902997026,0.778817904878916,0.781251155587686,0.04,0.0628269494574194,371.697164491037,0.998548127297253,0.273511079012831
3395,-0.251944640500804,0.276253995587497,0.318817418599246,0.332909515509327,0.113622801690345,0.422452017501704,0.193275996822224,0.328816902997026,0.794304662222372,0.79675566746327,0.04,0.0620198989505451,379.085902317742,1.01399332319079,0.27469908629595
3455,-0.251944640500804,0.276253995587497,0.318817418599246,0.332909515509326,0.113622801690345,0.422452017501704,0.193275996822224,0.328816902997026,0.809791940678759,0.812260179338854,0.04,0.0612322502630449,386.474884493903,1.02954285231503,0.275823664786321
3515,-0.251944640500804,0.276253995587497,0.318817418599246,0.332909515509326,0.113622801690345,0.422452017501704,0.193275996822224,0.328816902997026,0.825279504480031,0.827764691214438,0.04,0.0604628640854032,393.864004219845,1.04519456095465,0.276887804097796
3575,-0.251944640500804,0.276253995587497,0.318817418599246,0.332909515509326,0.113622801690345,0.422452017501704,0.193275996822224,0.328816902997026,0.840767205707269,0.843269203090021,0.04,0.0597108254964191,401.253186570462,1.06094734648238,0.277894108588795
3635,-0.249441350141926,0.254489229292042,0.29677106231452,0.30377990999384,0.115740786321385,0.408522930632608,0.195959519121859,0.332600469028494,0.852793840575968,0.849729416371515,0.04,0.0598129865945748,406.910174827733,1.05957911858154,0.282175845419618
3695,-0.245149995240994,0.217178201356976,0.25897730868356,0.253843443395862,0.119371617117454,0.384644495999873,0.200559843064092,0.339086582225297,0.854974399189698,0.849729416371515,0.04,0.0614851833404952,407.910355184256,1.03011205904572,0.29096110367807
3755,-0.240858640340061,0.179867173421911,0.2211835550526,0.203906976797885,0.123002447913523,0.360766061367137,0.205160167006325,0.345572695422099,0.854693408838103,0.849729416371515,0.04,0.0612097844662587,407.769948935337,0.999369186746654,0.29980849771189
3815,-0.236567285439128,0.142556145486845,0.183389801421641,0.153970510199908,0.126633278709592,0.336887626734401,0.209760490948557,0.352058808618901,0.85417697319607,0.849729416371515,0.04,0.0592019447099984,407.52426087632,0.971673697780579,0.308168112043934
3875,-0.232275930538195,0.10524511755178,0.145596047790681,0.104034043601931,0.13026410950566,0.313009192101666,0.21436081489079,0.358544921815704,0.853811272400062,0.849729416371515,0.04,0.0562254888412864,407.351075915942,0.946514891531811,0.316224921104843
