time,bias_percent_1,bias_percent_2,bias_percent_3,bias_percent_4,bias_percent_5,bias_percent_6,bias_percent_8,bias_percent_9,normalized_power,power_SP,SP,CV,total_power_MW,fuel_fraction,thermal_efficiency
24,0,0,0,0,0,0,0,0,0.999553990091873,1,0.04,0.0400222271187043,476.897243210864,0.999393569683775,0.3506250475005
84,-0.00659921065508752,-0.00568830154467253,0.00358092190385048,0.00799554485393946,-0.00225418923283326,0.00448513479108317,-0.00218228800916586,-0.00423640374976145,0.99585472297554,0.990962264492318,0.04,0.0418613943758733,474.999036102716,0.987919117978017,0.353285664163993
144,-0.0230972372928063,-0.0199090554063539,0.0125332266634766,0.0279844069887882,-0.00788966231491656,0.0156979717687912,-0.00763800803208034,-0.0148274131241649,0.97600844085001,0.968367925723113,0.04,0.0476022641108577,465.476969927213,0.9433504993599,0.362559919014293
204,-0.0395952639305252,-0.0341298092680353,0.0214855314231029,0.0479732691236368,-0.0135251353969998,0.0269108087464991,-0.0130937280549948,-0.0254184224985684,0.95321958496459,0.945773586953907,0.04,0.0507850758823998,454.597468119796,0.896731081382372,0.372494157984797
264,-0.0560932905682439,-0.0483505631297165,0.0304378361827293,0.0679621312584857,-0.019160608479083,0.0381236457242072,-0.0185494480779092,-0.0360094318729719,0.93007032060268,0.923179248184702,0.04,0.0516144738140552,443.552110173125,0.853096212592064,0.382033381119009
324,-0.0725913172059627,-0.0625713169913978,0.0393901409423554,0.0879509933933344,-0.0247960815611661,0.0493364827019153,-0.0240051681008238,-0.0466004412473754,0.906879353182184,0.900584909415497,0.04,0.0509519630336537,432.487790661159,0.812982382840049,0.390883549444655
384,-0.0890893438436816,-0.0767920708530791,0.0483424457019817,0.107939855528183,-0.0304315546432493,0.0605493196796232,-0.0294608881237382,-0.0571914506217789,0.883782411530123,0.877990570646292,0.04,0.0494592150547596,421.459456313934,0.776382514484438,0.39887308588891
444,-0.1055873704814,-0.0910128247147604,0.0572947504616079,0.127928717663032,-0.0360670277253326,0.0717621566573313,-0.0349166081466528,-0.0677824599961824,0.860649497894117,0.855396231877087,0.04,0.0476107876656894,410.423105063024,0.743110215256966,0.405819813142904
504,-0.122085397119119,-0.105233578576442,0.0662470552212342,0.147917579797881,-0.0417025008074158,0.0829749936350393,-0.0403723281695673,-0.0783734693705859,0.83733763294736,0.832801893107881,0.04,0.0455458548769854,399.459494888912,0.713278701219034,0.411498416927805
564,-0.138583423756838,-0.119454332438123,0.0751993599808603,0.167906441932729,-0.0473379738894992,0.0941878306127472,-0.0458280481924817,-0.0889644787449894,0.814349516357519,0.810207554338676,0.04,0.0438664493409033,388.390723678199,0.685617400661804,0.416237968915852
624,-0.155081450394557,-0.133675086299805,0.0841516647404866,0.187895304067578,-0.0529734469715823,0.105400667590455,-0.0512837682153962,-0.0995554881193929,0.791443349806005,0.787613215569471,0.04,0.0421471816802958,377.422582963278,0.660858732993718,0.419637146652944
