time,bias_percent_1,bias_percent_2,bias_percent_3,bias_percent_4,bias_percent_5,bias_percent_6,bias_percent_8,bias_percent_9,normalized_power,power_SP,SP,CV,total_power_MW,fuel_fraction,thermal_efficiency
29,0,0,0,0,0,0,0,0,0.999590006476283,1,0.04,0.0400033456771485,476.907454815689,0.999568840770572,0.350571073032978
89,0.0167009386789019,0.0159287825914715,-0.0135454212148026,-0.00708203334351356,0.0164701544862422,0.0119786928881576,0.00152924722127023,-0.00997763806076222,0.991484383760871,0.984256578988265,0.04,0.0444817840001826,472.837198220482,0.979231963912873,0.354797646516761
149,0.0512546049111125,0.0488848845048609,-0.0415704306247391,-0.0217345161231968,0.0505463361819156,0.0367621954153805,0.00469320698941556,-0.0306210271519943,0.96155256796565,0.951683983791572,0.04,0.0548475281111878,458.49869031029,0.920350504166376,0.366049249845919
209,0.0858082711433233,0.0818409864182503,-0.0695954400346753,-0.03638699890288,0.0846225178775893,0.0615456979426032,0.00785716675756089,-0.0512644162432264,0.928707083706074,0.919111388594879,0.04,0.0617999845377218,442.824654054908,0.860559099332754,0.378099207624672
269,0.120361937375534,0.11479708833164,-0.0976204494446117,-0.0510394816825632,0.118698699573263,0.0863292004698261,0.0110211265257062,-0.0719078053344585,0.895864600361551,0.886538793398186,0.04,0.0661596077510309,427.155814694655,0.802438617511965,0.391137249878225
329,0.154915603607745,0.147753190245029,-0.125645458854548,-0.0656919644622466,0.152774881268936,0.111112702997049,0.0141850862938515,-0.0925511944256905,0.862983025837072,0.853966198201493,0.04,0.0687914218072039,411.467450249526,0.746039466737749,0.405254978393095
389,0.189469269839955,0.180709292158419,-0.153670468264484,-0.0803444472419297,0.18685106296461,0.135896205524272,0.0173490460619968,-0.113194583516923,0.830036434646824,0.8213936030048,0.04,0.0700618948578325,395.748200268861,0.691759850214525,0.42035698930953
449,0.224022936072166,0.213665394071808,-0.181695477674421,-0.094996930021613,0.220927244660283,0.160679708051494,0.0205130058301422,-0.133837972608155,0.797045144331006,0.788821007808107,0.04,0.0701463030662617,380.007754969826,0.639909456266615,0.436343597385835
509,0.258576602304377,0.246621495985197,-0.209720487084357,-0.109649412801296,0.255003426355957,0.185463210578717,0.0236769655982875,-0.0801603847742663,0.761760611649346,0.756248412611414,0.04,0.070960100526519,363.162315164178,0.599019942197078,0.445465599106037
569,0.293130268536588,0.279577597898587,-0.237745496494294,-0.12430189558098,0.289079608051631,0.21024671310594,0.0268409253664328,-0.0378646411528922,0.72766753919445,0.723675817414721,0.04,0.0720864797622476,346.903460346501,0.570874960474437,0.446500874344209
629,0.327683934768798,0.312533699811976,-0.26577050590423,-0.138954378360663,0.323155789747304,0.235030215633163,0.0300048851345781,-0.0178856413339678,0.694477204745017,0.691103222218028,0.04,0.0746817276160119,331.07339466017,0.548052855653098,0.443870735832702
689,0.362237601001009,0.345489801725365,-0.293795515314166,-0.153606861140346,0.357231971442978,0.259813718160386,0.0331688449027234,-0.00844827483823347,0.661723599315733,0.658530627021335,0.04,0.0787071861583064,315.448837407861,0.527032000326304,0.439791287923599
749,0.39679126723322,0.378445903638755,-0.321820524724103,-0.168259343920029,0.391308153138651,0.284597220687608,0.0363328046708687,-0.0039904010004492,0.629035406277092,0.625958031824642,0.04,0.083767031401251,299.960965305075,0.506636031537824,0.435034145359122
809,0.431344933465431,0.411402005552144,-0.349845534134039,-0.182911826699712,0.425384334834325,0.309380723214831,0.0394967644390141,-0.00188466114218807,0.596578255034182,0.593385436627949,0.04,0.0896786360543146,284.473285707597,0.485729414296641,0.430330136639546
869,0.465898599697641,0.444358107465533,-0.377870543543976,-0.197564309479396,0.459460516529998,0.334164225742054,0.0426607242071594,-0.000889983733950401,0.564170946276132,0.560812841431256,0.04,0.0960412702928276,268.895352591604,0.464501406003225,0.425354409762668
929,0.48375132725095,0.461385426787451,-0.392350131739109,-0.205134758915565,0.47706654373943,0.346969035381119,0.0442954367540345,-0.000420132735970161,0.537968639436622,0.543983667246298,0.04,0.0939939016438265,256.59231319985,0.469899445840323,0.401229988541157
989,0.48375132725095,0.461385426787451,-0.392350131739109,-0.205134758915565,0.47706654373943,0.346969035381119,0.0442954367540345,-0.000198191892759027,0.536273639416154,0.543983667246298,0.04,0.0785066403883362,255.876097125313,0.518313506617899,0.362737009230693
1049,0.48375132725095,0.461385426787451,-0.392350131739109,-0.205134758915565,0.47706654373943,0.346969035381119,0.0442954367540345,-9.33549591417573e-05,0.539262752235848,0.543983667246298,0.04,0.0724905208309948,257.303957803739,0.552811190404161,0.341998591169335
1109,0.48375132725095,0.461385426787451,-0.392350131739109,-0.205134758915565,0.47706654373943,0.346969035381119,0.0442954367540345,-4.3833733164364e-05,0.541364169459971,0.543983667246298,0.04,0.0722185708605448,258.29684926657,0.572216958582017,0.331675246235038
1169,0.48375132725095,0.461385426787451,-0.392350131739109,-0.205134758915565,0.47706654373943,0.346969035381119,0.0442954367540345,-2.04416733464282e-05,0.542471990749995,0.543983667246298,0.04,0.0733647022362775,258.819546734445,0.583190456566901,0.326092897779237
1229,0.48375132725095,0.461385426787451,-0.392350131739109,-0.205134758915565,0.47706654373943,0.346969035381119,0.0442954367540345,-9.39209911384168e-06,0.54304774306008,0.543983667246298,0.04,0.0744573916180292,259.091383983409,0.589807309234203,0.322773221547701
1289,0.48375132725095,0.461385426787451,-0.392350131739109,-0.205134758915565,0.47706654373943,0.346969035381119,0.0442954367540345,-4.17267458809623e-06,0.543370202323646,0.543983667246298,0.04,0.0752256965211219,259.243885368833,0.594065048458139,0.320648488027411
1349,0.48375132725095,0.461385426787451,-0.392350131739109,-0.205134758915565,0.47706654373943,0.346969035381119,0.0442954367540345,-1.70720471509317e-06,0.543570193015243,0.543983667246298,0.04,0.0757230713062441,259.338613196008,0.596912780258859,0.319235354926503
1409,0.48375132725095,0.461385426787451,-0.392350131739109,-0.205134758915565,0.47706654373943,0.346969035381119,0.0442954367540345,-5.42604735784608e-07,0.5437031323793,0.543983667246298,0.04,0.0760421626050595,259.401627874797,0.598842734482267,0.318283839702915
1469,0.48375132725095,0.461385426787451,-0.392350131739109,-0.205134758915565,0.47706654373943,0.346969035381119,0.0442954367540345,7.51073171995867e-09,0.543793708681648,0.543983667246298,0.04,0.0762501299401934,259.444568043004,0.60015094571889,0.317642615834089
1529,0.48375132725095,0.461385426787451,-0.392350131739109,-0.205134758915565,0.47706654373943,0.346969035381119,0.0442954367540345,2.67365645823118e-07,0.543855420560059,0.543983667246298,0.04,0.0763879291289116,259.473821445145,0.601035025089417,0.317211149131837
1589,0.48375132725095,0.461385426787451,-0.392350131739109,-0.205134758915565,0.47706654373943,0.346969035381119,0.0442954367540345,3.90111833436903e-07,0.543897187169301,0.543983667246298,0.04,0.0764800758484931,259.493618012986,0.601631329317911,0.31692092435846
1649,0.48375132725095,0.461385426787451,-0.392350131739109,-0.205134758915565,0.47706654373943,0.346969035381119,0.0442954367540345,4.48092751849465e-07,0.543925304739221,0.543983667246298,0.04,0.0765418556381873,259.506944344598,0.602033574141915,0.316725440345088
1709,0.48375132725095,0.461385426787451,-0.392350131739109,-0.205134758915565,0.477066543739429,0.346969035381119,0.0442954367540345,4.75480868460808e-07,0.543944187475744,0.543983667246298,0.04,0.0765832358030971,259.515893648319,0.602305409703393,0.316593411797158
1769,0.48375132725095,0.461385426787451,-0.392350131739109,-0.205134758915565,0.47706654373943,0.346969035381119,0.0442954367540345,4.88418037309689e-07,0.543956862426009,0.543983667246298,0.04,0.0766108853484494,259.521900829744,0.6024897041654,0.316503895773399
1829,0.480737916658514,0.440198094340435,-0.36668828797229,-0.188054058704219,0.452818307418415,0.341183363608979,0.0546140287777421,4.94529094166923e-07,0.545178922815323,0.547255767909551,0.04,0.0752213448644745,260.140541725579,0.608301092666282,0.314227449234386
1889,0.474503274053475,0.39636223410523,-0.313594818109906,-0.152714678956605,0.402649542616317,0.329213008218344,0.0759628398612751,4.97415739332381e-07,0.55135675696207,0.554025631350764,0.04,0.0715805899829089,263.109335933095,0.624758533467069,0.309441628491501
1949,0.468268631448435,0.352526373870024,-0.260501348247522,-0.117375299208992,0.352480777814218,0.31724265282771,0.0973116509448081,4.98779287488769e-07,0.558690242553574,0.560795494791977,0.04,0.0696122806754765,266.60939478018,0.638950874257407,0.306593297618104
2009,0.462033988843396,0.308690513634818,-0.207407878385138,-0.0820359194613783,0.30231201301212,0.305272297437075,0.118660462028341,4.99423378896957e-07,0.565894977271918,0.56756535823319,0.04,0.068751133167318,270.044850135431,0.650056366206391,0.305238675213675
2069,0.455799346238356,0.264854653399612,-0.154314408522754,-0.0466965397137648,0.252143248210021,0.29330194204644,0.140009273111874,4.99727624724045e-07,0.572869159500635,0.574335221674403,0.04,0.0682252697540803,273.36969031945,0.659438468411354,0.304600603116118
2129,0.449564703633317,0.221018793164406,-0.10122093866037,-0.0113571599661514,0.201974483407922,0.281331586655806,0.161358084195407,4.99871339640279e-07,0.579751645475985,0.581105085115616,0.04,0.0676851901185103,276.653842017886,0.66805725415464,0.304283005969795
2189,0.443330061028277,0.177182932929201,-0.0481274687979862,0.0239822197814622,0.151805718605824,0.269361231265171,0.18270689527894,4.99939225433399e-07,0.586548904359745,0.587874948556829,0.04,0.0671032863473284,279.894910099006,0.676328888426047,0.304082718399939
2249,0.437095418423238,0.133347072693995,0.0049660010643978,0.0593215995290757,0.101636953803725,0.257390875874536,0.204055706362473,4.99971292257757e-07,0.593337354316637,0.594644811998043,0.04,0.0664460982106239,283.135205846193,0.684475809457698,0.303941810695495
2309,0.430860775818198,0.0895112124587892,0.0580594709267817,0.0946609792766892,0.0514681890016267,0.245420520483902,0.225404517446006,4.99986439485624e-07,0.600110037533917,0.601414675439256,0.04,0.0657544502814719,286.366127576303,0.692617658722555,0.303796497872323
2369,0.424626133213159,0.0456753522235833,0.111152940789166,0.130000359024303,0.00129942419952829,0.233450165093267,0.246753328529539,4.99993594496962e-07,0.606872363518127,0.608184538880469,0.04,0.0650362583870476,289.592533928698,0.700809954663745,0.30362796940884
2429,0.418391490608119,0.00183949198837763,0.16424641065155,0.165339738771916,-0.0488693406025702,0.221479809702632,0.268102139613072,4.99996974269068e-07,0.613623518786265,0.614954402321682,0.04,0.0643028354738101,292.813399634057,0.70908057231057,0.303424074974727
2489,0.41215684800308,-0.0419963682468282,0.217339880513934,0.20067911851953,-0.099038105404669,0.209509454311998,0.289450950696605,4.99998570752691e-07,0.620371804386233,0.621724265762895,0.04,0.0635526993674991,296.033023904886,0.717486603356036,0.303166382205021
2549,0.40592220539804,-0.0858322284820338,0.270433350376318,0.236018498267143,-0.149206870206767,0.197539098921363,0.310799761780138,4.99999324874579e-07,0.627114979104191,0.628494129204108,0.04,0.0627926128678565,299.250160508193,0.726043275926909,0.302849290555376
2609,0.399687562793001,-0.12966808871724,0.323526820238702,0.271357878014757,-0.199375635008866,0.185568743530728,0.332148572863671,4.99999681094833e-07,0.633851307025871,0.635263992645321,0.04,0.0620250193054126,302.46402044669,0.734767227371115,0.302467432326818
2669,0.393452920187961,-0.173503948952445,0.376620290101086,0.30669725776237,-0.249544399810965,0.173598388140094,0.353497383947204,4.9999984936061e-07,0.640589851645366,0.642033856086534,0.04,0.0612461690552438,305.67901772022,0.743693146981627,0.302013617864078
2729,0.390231688175358,-0.196152476740635,0.404051916196651,0.324955937298637,-0.275464928292049,0.167413704521599,0.36452760300703,4.99999928843328e-07,0.647468501151264,0.648803719527747,0.04,0.0605743887379379,308.96274474668,0.752485888075156,0.301691053237974
2789,0.390231688175358,-0.196152476740635,0.404051916196651,0.324955937298637,-0.275464928292049,0.167413704521599,0.36452760300703,4.99999966388178e-07,0.654377107602107,0.65557358296896,0.04,0.0602544221702804,312.257889192276,0.76020803808519,0.301811399097431
2849,0.390231688175358,-0.196152476740635,0.404051916196651,0.324955937298637,-0.275464928292049,0.167413704521599,0.36452760300703,4.99999984122975e-07,0.661211347933149,0.662343446410173,0.04,0.0599591923386088,315.518100653584,0.767445461601676,0.302086580398443
2909,0.390231688175358,-0.196152476740635,0.404051916196651,0.324955937298637,-0.275464928292049,0.167413704521599,0.36452760300703,4.9999999250026e-07,0.668011403137049,0.669113309851386,0.04,0.0596425940412943,318.762238184657,0.774446763044003,0.302433555335061
2969,0.390231688175358,-0.196152476740635,0.404051916196651,0.324955937298637,-0.275464928292049,0.167413704521599,0.36452760300703,4.9999999645739e-07,0.674796716792229,0.6758831732926,0.04,0.0593022501039039,321.999432283636,0.781330738170146,0.30281324843677
3029,0.390231688175357,-0.196152476740635,0.404051916196651,0.324955937298637,-0.275464928292049,0.167413704521599,0.36452760300703,4.99999998326598e-07,0.681574674675469,0.682653036733813,0.04,0.058945945268219,325.233153441012,0.788153325723797,0.303206686136302
3089,0.390231688175358,-0.196152476740635,0.404051916196651,0.324955937298637,-0.275464928292049,0.167413704521599,0.36452760300703,4.99999999209623e-07,0.688344858212244,0.689422900175026,0.04,0.0585814001984273,328.463225571158,0.794938016064429,0.303604471163961
3149,0.390231688175358,-0.196152476740635,0.404051916196651,0.324955937298637,-0.275464928292049,0.167413704521599,0.36452760300703,4.99999999626654e-07,0.695118934489518,0.696192763616239,0.04,0.0582101652109393,331.69508801342,0.801725334407423,0.303996167900034
3209,0.390231688175357,-0.196152476740635,0.404051916196651,0.324955937298637,-0.275464928292049,0.167413704521599,0.36452760300703,4.99999999823645e-07,0.701889096087271,0.702962627057452,0.04,0.0578397237185041,334.925113877248,0.808504429923372,0.30438271477566
3269,0.390231688175358,-0.196152476740635,0.404051916196651,0.324955937298637,-0.275464928292049,0.167413704521599,0.36452760300703,4.99999999916696e-07,0.708657594980905,0.709732490498665,0.04,0.0574699060938371,338.154354732794,0.81528895171633,0.304760097484803
3329,0.390231688175358,-0.196152476740635,0.404051916196651,0.324955937298637,-0.275464928292049,0.167413704521599,0.36452760300703,4.99999999960743e-07,0.715420650290901,0.716502353939878,0.04,0.0571030530466137,341.381076072466,0.822077387692715,0.305127546378475
3389,0.390231688175357,-0.196152476740635,0.404051916196651,0.324955937298637,-0.275464928292049,0.167413704521599,0.36452760300703,4.99999999981456e-07,0.72219171176623,0.723272217381091,0.04,0.0567348008746907,344.611485488811,0.828897171000385,0.305480692712823
3449,0.390231688175358,-0.196152476740635,0.404051916196651,0.324955937298637,-0.275464928292049,0.167413704521599,0.36452760300703,4.99999999991241e-07,0.72895932473582,0.730042080822304,0.04,0.0563718378031222,347.840303065827,0.835726919237321,0.305823029272015
3509,0.390231688175358,-0.196152476740635,0.404051916196651,0.324955937298637,-0.275464928292049,0.167413704521599,0.36452760300703,4.99999999995862e-07,0.735726148267273,0.736811944263517,0.04,0.056012123582576,351.068750711897,0.842573759105615,0.306153282821638
3569,0.390231688175358,-0.196152476740635,0.404051916196651,0.324955937298637,-0.275464928292049,0.167413704521599,0.36452760300703,4.99999999998052e-07,0.742490670785031,0.74358180770473,0.04,0.0556782242642003,354.292701842836,0.849407209115941,0.30647915385072
3629,0.378017088846655,-0.191360012975462,0.384743815088269,0.328914464093798,-0.253590981742565,0.165936927837179,0.362928602288085,4.9999999999908e-07,0.747796229452472,0.74707957048269,0.04,0.0562022868638109,356.790351358095,0.851298630646752,0.307953995222726
3689,0.352745504028651,-0.181444570702689,0.344796019691616,0.337104519532061,-0.208334540605703,0.162881527800448,0.359620324938543,4.99999999999565e-07,0.748525707373429,0.74707957048269,0.04,0.0579878721149425,357.120892587884,0.843047140683012,0.311256245795826
3749,0.327473919210646,-0.171529128429917,0.304848224294964,0.345294574970324,-0.163078099468841,0.159826127763716,0.356312047589002,4.99999999999795e-07,0.748226774103739,0.74707957048269,0.04,0.0587566461241761,356.975927813224,0.835411061212726,0.313973783265531
3809,0.302202334392642,-0.161613686157145,0.264900428898311,0.353484630408586,-0.117821658331978,0.156770727726985,0.353003770239461,4.99999999999903e-07,0.747866505579759,0.74707957048269,0.04,0.0586654312837621,356.804582426907,0.829986612665248,0.315874096130715
3869,0.276930749574637,-0.151698243884372,0.224952633501659,0.361674685846849,-0.0725652171951158,0.153715327690253,0.34969549288992,4.99999999999954e-07,0.747594405963714,0.74707957048269,0.04,0.0581212476553536,356.675473542263,0.82638466797735,0.31713609313491
3929,0.251659164756632,-0.1417828016116,0.185004838105006,0.369864741285112,-0.0273087760582534,0.150659927653522,0.346387215540378,4.99999999999978e-07,0.747399066945089,0.74707957048269,0.04,0.0573738128833116,356.58278277888,0.824099084267894,0.317933004813634
3989,0.226387579938628,-0.131867359338828,0.145057042708353,0.378054796723375,0.017947665078609,0.14760452761679,0.343078938190837,4.9999999999999e-07,0.747265919763627,0.74707957048269,0.04,0.0565465184612457,356.520024471732,0.822750580589042,0.31839805530177
4049,0.201115995120623,-0.121951917066055,0.105109247311701,0.386244852161638,0.0632041062154715,0.144549127580059,0.339770660841296,4.99999999999995e-07,0.747246599875922,0.74707957048269,0.04,0.0557618993284921,356.511409264671,0.821745485189237,0.318779791719107
4109,0.175844410302619,-0.112036474793283,0.0651614519150481,0.394434907599901,0.108460547352334,0.141493727543328,0.336462383491755,4.83243677657942e-07,0.747256785738813,0.74707957048269,0.04,0.0550523817090325,356.516287555146,0.820703975593821,0.319188704884244
4169,0.150572825484614,-0.102121032520511,0.0252136565183955,0.402624963038164,0.153716988489196,0.138438327506596,0.333154106142214,4.92084910086709e-07,0.747263326681926,0.74707957048269,0.04,0.0543721461288494,356.519361730566,0.819611766364613,0.31961680961939
4229,0.125301240666609,-0.0922055902477384,-0.0147341388782571,0.410815018476426,0.198973429626059,0.135382927469865,0.329845828792672,4.96261193550409e-07,0.747264648458955,0.74707957048269,0.04,0.0536915471131956,356.519960700907,0.818501980696761,0.320050707486027
4289,0.100029655848605,-0.082290147974966,-0.0546819342749097,0.419005073914689,0.244229870762921,0.132327527433133,0.326537551443131,4.98233921116409e-07,0.747263138052909,0.74707957048269,0.04,0.052998803771755,356.519225618107,0.817396613541807,0.320482851947209
4349,0.0747580710306,-0.0723747057021937,-0.0946297296715624,0.427195129352952,0.289486311899783,0.129272127396402,0.32322927409359,4.90808333154877e-07,0.747260623108559,0.74707957048269,0.04,0.0522911040711046,356.518022232683,0.816304961667135,0.320910353315411
4409,0.0494864862125954,-0.0624592634294215,-0.134577525068215,0.435385184791215,0.334742753036646,0.12621672735967,0.319920996744049,4.94798762247284e-07,0.747258101238247,0.74707957048269,0.04,0.0515690939470084,356.516828180304,0.815228782133714,0.321332909291596
4469,0.0242149013945908,-0.052543821156649,-0.174525320464868,0.443575240229478,0.379999194173508,0.123161327322939,0.316612719394507,4.97543120663558e-07,0.747256102436769,0.74707957048269,0.04,0.0508344935125517,356.515872142877,0.814165791892385,0.321751584796384
4529,0.0111579159052885,-0.04742084264905,-0.195165014753138,0.447806768872581,0.403381688760887,0.121582703970628,0.314903442763911,4.98839457670433e-07,0.747221539390514,0.74707957048269,0.04,0.0503693582089119,356.497720078909,0.81310436223491,0.322155197170786
4589,0.0111579159052885,-0.04742084264905,-0.195165014753138,0.447806768872581,0.403381688760887,0.121582703970628,0.314903442763911,4.99451801221422e-07,0.747116455567653,0.74707957048269,0.04,0.0502786323998797,356.4489051554,0.812744653412467,0.322253646364741
4649,0.0111579159052885,-0.04742084264905,-0.195165014753138,0.447806768872581,0.403381688760887,0.121582703970628,0.314903442763911,4.99741050461342e-07,0.747092413352339,0.74707957048269,0.04,0.0501968729989661,356.437702627827,0.812634739894091,0.322287103818344
4709,0.0111579159052884,-0.04742084264905,-0.195165014753138,0.447806768872581,0.403381688760887,0.121582703970628,0.314903442763911,4.99877681479435e-07,0.747085901313188,0.74707957048269,0.04,0.0501490124637699,356.434654720126,0.812587024296867,0.322303272663391
4769,0.0111579159052885,-0.04742084264905,-0.195165014753138,0.447806768872581,0.403381688760887,0.121582703970628,0.314903442763911,4.99942221096239e-07,0.747083378830377,0.74707957048269,0.04,0.0501235874569634,356.433466014989,0.81255991231863,0.322312951762453
4829,0.0111579159052884,-0.0474208426490501,-0.195165014753138,0.447806768872581,0.403381688760887,0.121582703970628,0.314903442763911,4.999727073079e-07,0.747081984545678,0.74707957048269,0.04,0.0501102757519654,356.432806094825,0.812542899065468,0.322319103682151
4889,0.0111579159052884,-0.0474208426490501,-0.195165014753138,0.447806768872581,0.403381688760887,0.121582703970628,0.314903442763911,4.99987107904567e-07,0.747081079692834,0.74707957048269,0.04,0.0501031789932652,356.432377285625,0.812532173468425,0.32232297058912
4949,0.0111579159052884,-0.0474208426490501,-0.195165014753138,0.44780676887258,0.403381688760887,0.121582703970628,0.314903442763911,4.99993910234216e-07,0.74708047099815,0.74707957048269,0.04,0.0500992727761449,356.432088794741,0.812525643895507,0.322325299937511
5009,0.0111579159052884,-0.0474208426490501,-0.195165014753138,0.447806768872581,0.403381688760887,0.121582703970628,0.314903442763911,4.99997123410186e-07,0.747080063228631,0.74707957048269,0.04,0.050097039130447,356.43189791922,0.812521934355101,0.322326598890832
