time,bias_percent_1,bias_percent_2,bias_percent_3,bias_percent_4,bias_percent_5,bias_percent_6,bias_percent_8,bias_percent_9,normalized_power,power_SP,SP,CV,total_power_MW,fuel_fraction,thermal_efficiency
53,0,0,0,0,0,0,0,0,0.999826158240441,1,0.04,0.0399095806184678,477.019946416568,1.00000717992864,0.3505000605879
113,-0.0263394731492317,-0.0308431206703742,-0.00673829385126953,-0.0303901308757154,0.0176527551241231,-0.0124723447942187,-0.0115950989413956,-0.0276295920303275,0.990475809108859,0.982511714080172,0.04,0.0417401692815648,472.421794288022,0.96432007800264,0.359967582828452
173,-0.056157744638928,-0.0657598610519299,-0.0143665510413858,-0.064794052621808,0.0376370062080359,-0.0265919804103153,-0.0247216260448622,-0.0589083754608869,0.971639858910318,0.962713654548291,0.04,0.0430436121503741,463.410981852429,0.910291572209092,0.374059316368814
233,-0.0859760161286242,-0.100676601433486,-0.0219948082315021,-0.0991979743679009,0.057621257291949,-0.040711616026412,-0.0378481531483289,-0.0901871588914464,0.951434878597227,0.94291559501641,0.04,0.041435962089677,453.767718881687,0.857141137950218,0.388987758155308
293,-0.11579428761832,-0.135593341815041,-0.0296230654216185,-0.133601896113994,0.0776055083758619,-0.0548312516425085,-0.0509746802517956,-0.121465942322006,0.931088720937289,0.923117535484529,0.04,0.037839133143007,444.061177972484,0.807260202936489,0.404188488277138
353,-0.145612559108017,-0.170510082196597,-0.0372513226117348,-0.168005817860086,0.0975897594597748,-0.0689508872586051,-0.0641012073552622,-0.152744725752565,0.910768490387482,0.903319475952648,0.04,0.0332917536454292,434.365794780404,0.7604866547942,0.419680409739957
413,-0.175430830597713,-0.205426822578153,-0.0448795798018513,-0.202409739606179,0.117574010543688,-0.0830705228747017,-0.0772277344587289,-0.184023509183125,0.890576046231714,0.883521416420767,0.04,0.0283168597502286,424.813440030216,0.71705976006566,0.435308926649264
473,-0.205249102087409,-0.240343562959708,-0.0525078369919676,-0.236813661352272,0.137558261627601,-0.0971901584907984,-0.0903542615621956,-0.215302292613684,0.870514155404121,0.863723356888886,0.04,0.0239066081023483,415.164257542811,0.674515730412102,0.452254139829173
533,-0.235067373577105,-0.275260303341264,-0.0601360941820839,-0.271217583098365,0.157542512711514,-0.111309794106895,-0.103480788665662,-0.246581076044244,0.850193996515423,0.843925297357005,0.04,0.0197397846081612,405.465426847817,0.634726582139771,0.469377014474932
593,-0.264885645066802,-0.31017704372282,-0.0677643513722003,-0.305621504844457,0.177526763795427,-0.125429429722992,-0.116607315769129,-0.277859859474803,0.8297767171386,0.824127237825124,0.04,0.0159688973823676,395.72421226342,0.598567843727635,0.485773609807591
653,-0.294703916556498,-0.345093784104375,-0.0753926085623166,-0.34002542659055,0.19751101487934,-0.139549065339088,-0.129733842872595,-0.309138642905362,0.809362672230622,0.804329178293244,0.04,0.0128730573615286,385.98421416113,0.566085963345632,0.501004738497817
713,-0.324522188046194,-0.380010524485931,-0.083020865752433,-0.374429348336643,0.217495265963252,-0.153668700955185,-0.142860369976062,-0.340417426335922,0.788814810701601,0.784531118761363,0.04,0.0105218294365633,376.179487036099,0.537771620466663,0.51398672983762
773,-0.35434045953589,-0.414927264867487,-0.0906491229425493,-0.408833270082735,0.237479517047165,-0.167788336571281,-0.155986897079529,-0.371696209766481,0.76810633018671,0.764733059229482,0.04,0.0088523938145266,366.298206266253,0.514597064112903,0.523024657929473
833,-0.384158731025587,-0.449844005249043,-0.0982773801326657,-0.443237191828828,0.257463768131078,-0.181907972187378,-0.169113424182995,-0.402974993197041,0.747319595606477,0.744934999697601,0.04,0.00792000117367145,356.38075857202,0.497290690742467,0.526573009628839
893,-0.413977002515283,-0.474202716538968,-0.105905637322782,-0.474202716538968,0.277448019214991,-0.196027607803475,-0.182239951286462,-0.4342537766276,0.727705213343683,0.72513694016572,0.04,0.00687767111163517,347.194451654551,0.484790701270449,0.526227053474747
953,-0.417455800855748,-0.464673779106429,-0.106795600661629,-0.464673779106429,0.279779515174781,-0.197674898625353,-0.183771379448533,-0.437902968027832,0.719277175455065,0.722827166553667,0.04,0.00642710761686867,343.072564832501,0.496424841759555,0.507793525949389
1013,-0.417455800855748,-0.472803421316409,-0.106795600661629,-0.472803421316409,0.279779515174781,-0.197674898625353,-0.183771379448533,-0.437902968027832,0.719336141754176,0.722827166553667,0.04,0.00670323351143956,343.237707706745,0.524679083219515,0.480679851308331
1073,-0.417455800855748,-0.48883436534178,-0.106795600661629,-0.481654904445298,0.279779515174781,-0.197674898625353,-0.183771379448533,-0.437902968027832,0.716376815822305,0.722827166553667,0.04,0.00779628132864472,341.961382332764,0.561902109479774,0.447168371203018
1133,-0.417455800855748,-0.48883436534178,-0.106795600661629,-0.481654904445298,0.279779515174781,-0.197674898625353,-0.183771379448533,-0.437902968027832,0.711237319091925,0.722827166553667,0.04,0.0104820839422232,339.992316476267,0.610185868382175,0.409413004522224
1193,-0.417455800855748,-0.48883436534178,-0.106795600661629,-0.481654904445298,0.279779515174781,-0.197674898625353,-0.183771379448533,-0.437902968027832,0.712166904215211,0.722827166553667,0.04,0.0138722666403039,340.06778335532,0.663230136971637,0.376752302070094
1253,-0.417455800855748,-0.48883436534178,-0.106795600661629,-0.481654904445298,0.279779515174781,-0.197674898625353,-0.183771379448533,-0.437902968027832,0.713097251603553,0.722827166553667,0.04,0.0175518167891528,340.275873922883,0.720226702701788,0.347149556969365
1313,-0.417455800855748,-0.48883436534178,-0.106795600661629,-0.481654904445298,0.279779515174781,-0.197674898625353,-0.183771379448533,-0.437902968027832,0.713944280292288,0.722827166553667,0.04,0.0214455860729251,340.633612941974,0.775464266526964,0.322760505462939
1373,-0.417455800855748,-0.48883436534178,-0.106795600661629,-0.481654904445298,0.279779515174781,-0.197674898625353,-0.183771379448533,-0.437902968027832,0.715306022090954,0.722827166553667,0.04,0.0255120968715261,341.284932687601,0.823678834564495,0.304448532500284
1433,-0.417455800855748,-0.48883436534178,-0.106795600661629,-0.481654904445298,0.279779515174781,-0.197674898625353,-0.183771379448533,-0.437902968027832,0.717010589664129,0.722827166553667,0.04,0.029575442546484,342.099887220034,0.862167502197886,0.291551955311226
1493,-0.417455800855747,-0.48883436534178,-0.106795600661629,-0.481654904445298,0.279779515174781,-0.197674898625353,-0.183771379448533,-0.437902968027832,0.721176540474106,0.722827166553667,0.04,0.0350728530223481,344.09562874545,0.878825225598065,0.287694339802524
1553,-0.417455800855748,-0.48883436534178,-0.106795600661629,-0.481654904445298,0.279779515174781,-0.197674898625353,-0.183771379448533,-0.437902968027832,0.723486004829432,0.722827166553667,0.04,0.0402917447063747,345.188715018667,0.879126715733045,0.288509280370255
1613,-0.417455800855748,-0.48883436534178,-0.106795600661629,-0.481654904445298,0.279779515174781,-0.197674898625353,-0.183771379448533,-0.437902968027832,0.724948358370761,0.722827166553667,0.04,0.0443543254496342,345.881488075795,0.869014259827942,0.292452334258677
1673,-0.417455800855748,-0.48883436534178,-0.106795600661629,-0.481654904445298,0.279779515174781,-0.197674898625353,-0.183771379448533,-0.437902968027832,0.725728478022235,0.722827166553667,0.04,0.0470876719804101,346.248995039917,0.852910584680083,0.298290686596758
1733,-0.417455800855748,-0.48883436534178,-0.106795600661629,-0.481654904445298,0.279779515174781,-0.197674898625353,-0.183771379448533,-0.437902968027832,0.726004887062255,0.722827166553667,0.04,0.0485451970354424,346.377533905591,0.834200514871553,0.305094190885716
1793,-0.417455800855748,-0.48883436534178,-0.106795600661629,-0.481654904445298,0.279779515174781,-0.197674898625353,-0.183771379448533,-0.437902968027832,0.725931641544843,0.722827166553667,0.04,0.0489124623020897,346.340346044448,0.815282224881617,0.31214026091184
1853,-0.401973001492134,-0.437392322055498,-0.126394172011936,-0.46499768051668,0.283701717386491,-0.157243537402748,-0.192503220497749,-0.390235224951319,0.724775867400293,0.726079299218066,0.04,0.0497543520971105,345.8002523821,0.814335229119642,0.312015923794322
1913,-0.384445304099364,-0.379156046637066,-0.148581233917944,-0.446140445880509,0.288141946305408,-0.111472185075271,-0.202388323572333,-0.336271742223191,0.726819007203356,0.72976095883814,0.04,0.0500484267722101,346.785643084867,0.829434825976513,0.307208706186019
1973,-0.366917606706594,-0.320919771218633,-0.170768295823951,-0.427283211244337,0.292582175224324,-0.0657008327477947,-0.212273426646917,-0.282308259495062,0.729681924613767,0.733442618458214,0.04,0.0509333141144622,348.156380791972,0.850807939657838,0.300675125766283
2033,-0.349389909313824,-0.262683495800201,-0.192955357729959,-0.408425976608165,0.297022404143241,-0.0199294804203179,-0.222158529721501,-0.228344776766934,0.733210240525386,0.737124278078288,0.04,0.0525443927800148,349.845746395407,0.874570274124663,0.293925023920368
2093,-0.331862211921054,-0.204447220381768,-0.215142419635967,-0.389568741971994,0.301462633062158,0.0258418719071589,-0.232043632796086,-0.174381294038806,0.737361906509624,0.740805937698362,0.04,0.0549670720328686,351.829941844551,0.896597386915888,0.288330114217574
2153,-0.314334514528284,-0.146210944963336,-0.237329481541974,-0.370711507335822,0.305902861981075,0.0716132242346356,-0.241928735870669,-0.120417811310678,0.741826462232666,0.744487597318436,0.04,0.0579736498105052,353.961610248737,0.914456148478357,0.284412024743354
2213,-0.296806817135514,-0.0879746695449036,-0.259516543447982,-0.351854272699651,0.310343090899991,0.117384576562112,-0.251813838945254,-0.0664543285825491,0.746412735238311,0.74816925693851,0.04,0.0612694634955426,356.150089617192,0.927056820268833,0.282280826873726
2273,-0.279279119742744,-0.0297383941264711,-0.28170360535399,-0.332997038063479,0.314783319818908,0.163155928889589,-0.261698942019838,-0.012490845854421,0.750997403735422,0.751850916558584,0.04,0.0646003999758915,358.337154413107,0.934194902218235,0.281844149248324
2333,-0.261751422349973,0.0284978812919613,-0.303890667259998,-0.314139803427308,0.319223548737825,0.208927281217066,-0.271584045094422,0.0414726368737072,0.755605197146319,0.755532576178658,0.04,0.0678068530166557,360.518633260844,0.935958529993158,0.283025642915194
2393,-0.244223724957203,0.0867341567103937,-0.326077729166005,-0.295282568791136,0.323663777656742,0.254698633544542,-0.281469148169006,0.0954361196018356,0.760238183521774,0.759214235798732,0.04,0.0708636532166729,362.745516979555,0.932033233426863,0.285973197915081
2453,-0.226696027564433,0.144970432128826,-0.348264791072013,-0.276425334154964,0.328104006575659,0.300469985872019,-0.29135425124359,0.149399602329964,0.764357252141105,0.762895895418806,0.04,0.0735906260818332,364.704694856603,0.923958330550045,0.290030482328944
2513,-0.209168330171663,0.203206707547258,-0.370451852978021,-0.257568099518793,0.332544235494575,0.346241338199496,-0.301239354318174,0.203363085058092,0.76788456082734,0.76657755503888,0.04,0.0754621171227692,366.384411233814,0.91578440437994,0.293966891597088
2573,-0.191640632778893,0.261442982965691,-0.392638914884028,-0.238710864882621,0.336984464413492,0.392012690526973,-0.311124457392758,0.25732656778622,0.771173261475497,0.770259214658954,0.04,0.0763600100371234,367.952629759769,0.909627646272854,0.297223357725197
2633,-0.174112935386123,0.319679258384123,-0.414825976790036,-0.21985363024645,0.341424693332409,0.437784042854449,-0.321009560467342,0.311290050514349,0.77443116852722,0.773940874279028,0.04,0.0765236188815788,369.507145893471,0.9060124388864,0.299670061961277
2693,-0.156585237993353,0.377915533802555,-0.437013038696044,-0.200996395610278,0.345864922251326,0.483555395181926,-0.330894663541926,0.365253533242477,0.777733522739287,0.777622533899102,0.04,0.0762429440300736,371.083178239427,0.904783255472602,0.301357073121561
2753,-0.154540339964197,0.384709765934706,-0.439601529251745,-0.198796384902725,0.346382948958533,0.488895386286799,-0.332047925567294,0.371549272894092,0.783223886921835,0.781304193519176,0.04,0.0727802346934193,373.712549658347,0.897251225545673,0.306040073951495
2813,-0.154540339964197,0.384709765934706,-0.439601529251745,-0.198796384902725,0.346382948958533,0.488895386286799,-0.332047925567294,0.371549272894092,0.787230107618137,0.78498585313925,0.04,0.0692999575639217,375.616541565878,0.884188080106936,0.312143812232276
2873,-0.154540339964196,0.384709765934706,-0.439601529251745,-0.198796384902725,0.346382948958533,0.488895386286799,-0.332047925567294,0.371549272894092,0.790794918380135,0.788667512759324,0.04,0.0654661464896224,377.29242151971,0.871391524733693,0.318140842254643
2933,-0.154540339964197,0.384709765934706,-0.439601529251745,-0.198796384902725,0.346382948958533,0.488895386286799,-0.332047925567294,0.371549272894092,0.79409921065102,0.792349172379398,0.04,0.0614362970318866,378.892736848028,0.860362968065126,0.323585645206426
2993,-0.154540339964197,0.384709765934706,-0.439601529251745,-0.198796384902725,0.346382948958533,0.488895386286799,-0.332047925567294,0.371549272894092,0.797441670144992,0.796030831999472,0.04,0.0574621190919508,380.466758448254,0.851440605027013,0.328334891495237
3053,-0.154540339964197,0.384709765934706,-0.439601529251745,-0.198796384902725,0.346382948958533,0.488895386286799,-0.305659767389744,0.371549272894092,0.800064559889622,0.799712491619546,0.04,0.0542539637202045,381.732627663988,0.84663657254377,0.331296565100312
3113,-0.154540339964196,0.384709765934706,-0.439601529251745,-0.198796384902725,0.346382948958533,0.488895386286799,-0.262340589438427,0.371549272894092,0.803149634962792,0.80339415123962,0.04,0.0515451401789154,383.210081118286,0.847310606016855,0.332314245798943
3173,-0.154540339964196,0.384709765934706,-0.439601529251745,-0.198796384902725,0.346382948958533,0.488895386286799,-0.226734102606221,0.371549272894092,0.806631386870053,0.807075810859694,0.04,0.0493815601615729,384.869637965502,0.849746425504988,0.332796677039524
3233,-0.154540339964197,0.384709765934706,-0.439601529251745,-0.198796384902725,0.346382948958533,0.488895386286799,-0.197576877020019,0.371549272894092,0.810208140510083,0.810757470479768,0.04,0.047726209637809,386.580644275003,0.852980151013822,0.333008912270917
3293,-0.154540339964197,0.384709765934706,-0.439601529251745,-0.198796384902725,0.346382948958533,0.488895386286798,-0.173605903970018,0.371549272894092,0.813899824678591,0.814439130099842,0.04,0.0464684852061541,388.325401433295,0.856485820781803,0.33314269798208
3353,-0.154540339964196,0.384709765934706,-0.439601529251745,-0.198796384902725,0.346382948958533,0.488895386286799,-0.153717067845125,0.371549272894092,0.817532665020102,0.818120789719916,0.04,0.0454907456270492,390.075997708531,0.86013394313177,0.333225185086959
3413,-0.154540339964197,0.384709765934706,-0.439601529251745,-0.198796384902725,0.346382948958533,0.488895386286799,-0.137030166676144,0.371549272894092,0.821240386604808,0.82180244933999,0.04,0.0447190821403774,391.84331188834,0.863707802732561,0.333349855908132
3473,-0.154540339964197,0.384709765934706,-0.439601529251745,-0.198796384902725,0.346382948958533,0.488895386286799,-0.122870010777837,0.371549272894092,0.824939690974508,0.825484108960064,0.04,0.0440985290883903,393.605285577419,0.86714808544876,0.333520342796002
3533,-0.154540339964197,0.384709765934706,-0.439601529251745,-0.198796384902725,0.346382948958533,0.488895386286798,-0.110730288945789,0.371549272894092,0.828645327003925,0.829165768580138,0.04,0.0435664794679029,395.376125403506,0.870496255761323,0.333732275742209
3593,-0.154540339964197,0.384709765934706,-0.439601529251745,-0.198796384902725,0.346382948958533,0.488895386286799,-0.100244791044407,0.371549272894092,0.832326597426656,0.832847428200212,0.04,0.0431136940849501,397.134246515898,0.873732782861246,0.333974558962789
3653,-0.13639947248526,0.348881504031797,-0.437802338408146,-0.197435499054939,0.307428546735518,0.451275571482181,-0.0918524805796885,0.3341386000085,0.836044664316133,0.833276955155888,0.04,0.0409443532493939,398.878937893723,0.862769930009667,0.339704093895698
