time,bias_percent_1,bias_percent_2,bias_percent_3,bias_percent_4,bias_percent_5,bias_percent_6,bias_percent_8,bias_percent_9,normalized_power,power_SP,SP,CV,total_power_MW,fuel_fraction,thermal_efficiency
2,0,0,0,0,0,0,0,0,1.00600587760582,1,0.04,0.0415752768438718,479.848838412948,0.991706763940385,0.355529669201865
62,0,0,0,0,0,0,0,0,0.99987653372437,1,0.04,0.039899289686026,477.043175656241,1.000099391477,0.350484810226929
122,0,0,0,0,0,0,0,0,0.999985968858808,1,0.04,0.0399169325458713,477.093548878156,1.00029856958562,0.350452024124374
182,0,0,0,0,0,0,0,0,0.999999240072167,1,0.04,0.0399558205592924,477.099673397252,1.00031804410415,0.350449700125749
242,0,0,0,0,0,0,0,0,1.00000189908576,1,0.04,0.0399812688366911,477.1009192077,1.00031075178796,0.350453170028506
302,0,0,0,0,0,0,0,0,1.00000317078007,1,0.04,0.0399961914028223,477.101520252553,1.00029398370982,0.350459486230829
362,0,0,0,0,0,0,0,0,1.00000383044539,1,0.04,0.0400044716737468,477.101830569184,1.00027207568066,0.35046738997012
422,0,0,0,0,0,0,0,0,1.00000398764528,1,0.04,0.0400085628636639,477.101902079363,1.00024825127627,0.350475790105527
482,0,0,0,0,0,0,0,0,1.00000377640403,1,0.04,0.0400100143175965,477.101798956955,1.00022501252726,0.350483857137443
542,0,0,0,0,0,0,0,0,1.00000333976952,1,0.04,0.0400098597690463,477.101589428321,1.00020399911618,0.350491066571584
602,0,0,0,0,0,0,0,0,1.00000279650248,1,0.04,0.0400088067482231,477.101329693659,1.00018607788478,0.350497155823344
662,0,0,0,0,0,0,0,0,1.00000223296638,1,0.04,0.0400073348163563,477.101061044557,1.00017153097432,0.350502056236732
722,-0.00519683922543152,-0.0083332826662429,-0.00833333245525921,0.00833221939074292,0.00833333106291809,-0.00833333298502305,0.00833333047507028,0.00833332568856167,0.999986966277318,0.999612416607046,0.04,0.0403729612425854,477.081604087048,0.999748814103628,0.350635956506986
782,-0.155905176762943,-0.249998479987288,-0.249999973657777,0.249966581722286,0.249999931887543,-0.24999998955069,0.249999914252109,0.24999977065685,0.989178037651387,0.987984914818412,0.04,0.0397461135756833,471.934371818226,1.00100666284857,0.34641709623403
842,-0.150312379505124,-0.249998476692983,-0.23333338816039,0.23330102899821,0.233350627629903,-0.249999989899001,0.249904639419479,0.248861065546912,0.979778355147015,0.976357413029778,0.04,0.0423561199724601,467.441329701913,0.97807095584427,0.351165160425525
902,0.0118787409716288,-0.249998381158133,0.249997591263811,-0.25,-0.249479195841654,-0.25,0.247141669273221,0.215838617358709,0.974581821653018,0.964729911241144,0.04,0.0416456462813429,464.945586303529,0.925335726005567,0.369196415282259
962,0.0198161162725744,-0.233331981845907,0.249997633806774,-0.249999999990712,-0.232829889313599,-0.249998205051055,0.247235778082415,0.216977330113419,0.957999151324849,0.953102409452511,0.04,0.0431460836377323,457.035798628947,0.891254199880533,0.376793416177761
1022,0.25,0.249993598208671,0.249998867552684,-0.24999999972136,0.25,-0.249946151531656,0.249964933549041,0.25,0.931086116566711,0.941474907663877,0.04,0.0707713941910291,444.206249509414,0.946198879165934,0.344950605281075
1082,0.25,0.249983398309521,0.2499988311222,-0.249999999730648,0.23341466792499,-0.233288439467623,0.233299478821141,0.24999999991839,0.930566330091691,0.929847405875243,0.04,0.067475572885448,443.952021053741,0.95807373340659,0.340480136200009
1142,0.25,0.249687601234173,0.249997774638166,-0.25,-0.247559962250317,0.249785210389351,-0.249998708287974,0.249999997551705,0.931279436510793,0.918219904086609,0.04,0.0600058774310104,444.306339023901,0.894938623006254,0.364790848240004
1202,0.233344444798523,0.233035941624587,0.233331182150227,-0.249999923103283,-0.247641296841973,0.233125749760305,-0.233332084678375,0.246779005508447,0.911544022293982,0.906592402297976,0.04,0.0601923041494642,434.823428155032,0.853112991005747,0.37450796325116
1262,-0.249666656044295,-0.249862187053413,-0.25,-0.249997693098486,-0.25,-0.249998608482031,0.25,0.153370236253964,0.931228885890072,0.894964900509342,0.04,0.0135257129018188,444.308248202863,0.72802154556783,0.448430165583241
1322,-0.233011100842818,-0.244522398317654,-0.249961905835466,-0.249978081533532,-0.233333342132843,-0.233341704811095,0.244921588485239,0.141354809896257,0.892852072704995,0.883337398720708,0.04,0.0123199615662436,425.982997169495,0.63262723354223,0.494765099970811
1382,0.25,-0.0896685249806561,-0.248857175063987,-0.249409346149863,0.249999736014725,0.249708501646059,0.0976476545571837,-0.207092554477239,0.852676126774999,0.871709896932074,0.04,0.0323966014990239,406.777156084035,0.729385208298362,0.409783323349836
1442,0.249090470141539,-0.095012907481301,-0.232228602561854,-0.249429034611534,0.233583005798466,0.233051596772048,0.100122829629678,-0.194009225635565,0.855611472413682,0.860082395143441,0.04,0.0296418794776295,408.205054358315,0.776279821099006,0.386380105726579
1502,0.222714104246161,-0.25,0.25,-0.25,-0.242502170473043,-0.249998644574274,0.171902906732019,0.185407310772973,0.85041257529894,0.848454893354807,0.04,0.028563003364594,405.729502568692,0.782907431906402,0.380785891610093
1562,0.223623634104623,-0.249988372254754,0.249999085776228,-0.233333333336189,-0.226085809850966,-0.233332023088465,0.174506143174285,0.187557109635087,0.837007890225383,0.836827391566173,0.04,0.0346223974482776,399.25562690419,0.78020671097925,0.376007095360829
1622,0.25,-0.249651167642631,0.249972573286825,0.249999999914341,0.249988648189266,0.25,0.25,0.249901276636389,0.805517922744193,0.82519988977754,0.04,0.0715386720979594,384.250016964882,0.891681042380829,0.316635086959028
1682,0.233333333333333,-0.249659574257309,0.247219199133001,0.249999480100255,0.249988667932664,0.249954723487188,0.24998610749439,0.249904461508333,0.812693629341316,0.813572387988906,0.04,0.0713839209863198,387.70143636025,0.922512912346227,0.308801664505451
1742,-0.25,-0.24990336608298,0.167371348672113,0.249984405491777,0.249989240491202,0.248641704615644,0.249583224831691,0.249996822794705,0.812664678709716,0.801944886200272,0.04,0.0630602948113726,387.718581654129,0.8762723547868,0.325111387168837
1802,-0.233333401874006,-0.233239927908314,0.153579166267924,0.233318284104609,0.233322933388515,0.24866835406958,0.232973272677627,0.249996065728316,0.796570387629307,0.790317384411638,0.04,0.0657836530385259,380.026344122947,0.826370080025063,0.337904359986861
1862,0.249997943779812,0.249999779157002,-0.24639412345357,-0.249999236123273,-0.249999972589408,0.249441188233702,-0.14585492513919,0.249974110803055,0.79598104985447,0.778689882623005,0.04,0.0535029857679169,379.731187678247,0.726092322351589,0.384272317286908
1922,0.249998012320485,0.249999786517624,-0.246514319334937,-0.244566567178513,-0.249977528218162,0.249459815292578,-0.0880961767084553,0.249974416642016,0.773634191064845,0.767062380834371,0.04,0.0538384696462034,368.976638433345,0.673229957181704,0.402707866627177
1982,0.25,0.249999999975655,-0.249999999894588,-0.0870191677804567,-0.249326641452011,0.25,0.249987511511627,0.249983285971873,0.751982193810559,0.755434879045737,0.04,0.0602938701017693,358.646965241222,0.680699182589082,0.387138717952474
2042,0.249999427147051,0.249999470072215,-0.246793156750372,-0.0924518621877745,-0.232682420070277,0.249999854414488,0.233326945408488,0.249977133689519,0.746019867238104,0.743807377257103,0.04,0.0548239769985392,355.842770503812,0.672591824729886,0.388741797938716
2102,0.249982814411541,0.249984102872452,-0.153794705568099,-0.249999999999992,0.25,0.249995632434647,-0.0119718974072926,0.249798717501239,0.730830045911153,0.73217987546847,0.04,0.0622656538245136,348.578844036312,0.65810147006025,0.389191046609227
2162,0.24998338726449,0.249565669580567,-0.156998500194409,-0.233333333333325,0.233409823708691,0.233329111353492,-0.00565483340905688,0.249805425253608,0.720870047729754,0.720552373679836,0.04,0.0591882478330808,343.916010924441,0.658091582380969,0.383990725711607
2222,0.25,0.2374311041159,-0.24990854435739,0.25,-0.247705288739277,-0.25,0.249955599093037,0.249999950072316,0.711330826633531,0.708924871891202,0.04,0.0483345434903916,339.230497741468,0.628694773630055,0.396469438577276
2282,0.23333909222668,0.22118340064537,-0.238565311718353,0.233333723304324,-0.238980698061049,-0.25,0.233292153157819,0.23333340799545,0.699533814601149,0.697297370102569,0.04,0.0473512125752601,333.650023684195,0.614214865197875,0.399140239230467
2342,-0.249827233199598,-0.25,0.0903884348137154,-0.24998830087027,0.0140324316075393,-0.25,-0.0224502047173129,-0.0224502047173129,0.691969044907256,0.685669868313935,0.04,4.93527339736708e-09,330.004118121355,0.518618902910774,0.46754745099482
2402,-0.242863418393536,-0.249996627594741,0.0790438644924444,-0.249986234482596,0.00523193883464273,-0.25,-0.0863413399412156,-0.0863413399412156,0.660896981353717,0.674042366525301,0.04,4.43083554417094e-10,315.299648617089,0.576217071270101,0.402061086838531
2462,-0.0409127890177428,-0.249898827842236,-0.249948674824417,-0.249926309240059,-0.249982351579358,-0.25,-0.171397422575987,0.249999999719668,0.675827097507327,0.662414864736667,0.04,1.77692713953906e-06,322.468979165881,0.597440004448557,0.396595990755714
2522,-0.0312156964831098,-0.249152812360251,-0.233285309677299,-0.233263297031216,-0.238023559346892,-0.233333343158557,-0.176449008705305,0.249999950719781,0.667806317149933,0.650787362948034,0.04,2.83976286016517e-05,318.599780109822,0.495318403070878,0.472623904740933
2582,0.249999987021243,-0.227518363382696,0.249952279589097,0.249964057025242,0.108781415394624,0.249999705243291,0.249999996015092,0.249998529723054,0.599546125546302,0.6391598611594,0.04,0.0706227404484506,285.999989050774,0.704308452242763,0.298371812508184
2642,0.249999102735127,-0.216825759472404,0.24995387026946,0.233298588457734,0.113488341614257,0.233335125917734,0.233353093169353,0.249998578732127,0.623942636188217,0.627532359370766,0.04,0.0682125988873967,297.717740309986,0.779003592829145,0.28081475900645
2702,0.249973458437743,0.0932597539260518,0.25,-0.25,0.249989201983614,-0.249937674523425,-0.249407089357068,0.249999999995253,0.638045588366714,0.615904857582132,0.04,0.0613803745161247,304.4638014114,0.688377768113865,0.324985141986126
2762,0.249974343156485,0.0818247295744462,0.25,-0.233437784922878,0.247136337411726,-0.23328205667413,-0.243437565439775,0.249999999101878,0.615194817194376,0.604277355793499,0.04,0.0750293363218578,293.343108453174,0.599930440436596,0.359277208287334
2822,0.25,-0.249790976622114,0.25,0.246866452313655,0.164403264826984,0.24973086095544,-0.161639738825115,0.249999973193999,0.588164426294229,0.592649854004865,0.04,0.0887445069683894,280.484850081087,0.604001845832444,0.341213196286773
2882,0.249952349077998,-0.249797944068044,0.249999863069599,0.230305073755856,0.150589822666085,0.249739665557633,-0.0782281098275203,0.249999974087533,0.582272838799556,0.581022352216231,0.04,0.0802403874848142,277.721781479595,0.603706639326784,0.338017096267869
2942,0.248570472339926,-0.25,0.249995892087964,-0.249974904420313,-0.25,0.249994999021245,0.25,0.25,0.575169746916664,0.570401955664553,0.04,0.0580259310291626,274.33813865169,0.572651850394364,0.352006104896112
3002,0.248581541627296,-0.233333346346094,0.249996029018365,-0.233309074272969,-0.233562852039104,0.249995165537538,0.249471583343336,0.25,0.584024722637742,0.588987610984586,0.04,0.0442866687040476,278.769622320956,0.592563912979431,0.345672573929797
3062,0.248902550961034,0.249999609617171,0.25,0.25,0.243114438826895,0.249999994510041,0.234147500300066,0.25,0.587654239796928,0.607573266304619,0.04,0.0832403971706745,280.381313995219,0.695093880356318,0.296387769222047
3122,0.248939132595256,0.249999194566364,0.249962805463281,0.233434213033738,0.226677290865999,0.249999986925433,0.218009250320411,0.247928700967439,0.613999222606469,0.626158921624652,0.04,0.070299816978481,292.96020924894,0.786751465198205,0.273606085744179
3182,0.249999999987679,0.249987158092954,0.24888416389844,-0.246973608987868,-0.25,0.249999766971777,-0.00200109152703933,0.187861029023178,0.654248592536945,0.644744576944685,0.04,0.0378094642145292,312.36969022938,0.758675628427269,0.302529291365404
3242,0.235222472709409,0.249982438738548,0.248921356096872,-0.230407822472299,-0.233335145515528,0.233338166936087,-0.00111605728687687,0.174199833319855,0.663219756602739,0.663330232264718,0.04,0.043167412762363,316.534856340175,0.744148641316462,0.312547855909686
3302,-0.193325818360428,0.249845577460761,0.24999992985138,0.249999986479196,0.249945634534157,-0.249848234098943,-0.000645986957638408,-0.000645986957638408,0.680375402627154,0.681915887584752,0.04,0.0402419543815506,324.617527221926,0.739765840714444,0.3224277167989
3362,-0.195214913713159,0.233223315906136,0.249999897405522,0.233333320263223,0.245288927841385,-0.23318812621507,-0.00378083065477616,-0.00378083065477616,0.695685854325713,0.700501542904785,0.04,0.0330971264535469,332.050925706401,0.764723556840533,0.319047174642603
3422,-0.249998678942352,-0.248822269178007,0.249998956475642,-0.25,0.110244433750987,0.24995500241725,-0.0242335546987309,0.249981108306545,0.718710837535877,0.718467676380817,0.04,0.0150851569456903,343.110291862744,0.776635408735236,0.324616980926251
3482,-0.233332628883719,-0.232233574875558,0.23333236543132,-0.249990912579968,0.0982392347220344,0.233290064628647,-0.0645758551118735,0.233315446358791,0.722192887861921,0.718467676380817,0.04,0.0214422541476047,344.557012336317,0.748717475111639,0.338140974215179
3542,0.24998282281666,0.248838559895452,-0.249998774854031,-0.249727377399039,-0.24991153711758,-0.249993131240865,0.186528683659019,-0.116509490923476,0.726458814419252,0.718467676380817,0.04,0.0151141743484044,346.587401489089,0.684758793181577,0.371903127376941
3602,0.23345203356999,0.232210611643231,-0.24999762137893,-0.233103263925521,-0.249914485879756,-0.23332689272807,0.18857241908319,-0.173258298144102,0.722770904095183,0.718467676380817,0.04,0.0190155279273989,344.821367544756,0.656663116420772,0.385839088331636
3662,-0.245940854583443,-0.249999887671175,-0.249964170601011,0.248996026806509,-0.249999999982861,0.24999402414299,0.247840746384156,-0.156033012748238,0.717110660207288,0.718467676380817,0.04,0.0224167485850096,342.12623205711,0.658805802444657,0.381578270379542
3722,-0.229461397739162,-0.246644413666707,-0.238447240887843,0.249029492579626,-0.233343337530907,0.233342015880924,0.242806129442234,-0.159164687498142,0.718113480518138,0.718467676380817,0.04,0.0205889811044564,342.583971620096,0.645758391606899,0.389808816591496
3782,0.248442850745001,-0.149335667537117,0.0955437207940157,0.25,0.249699873575766,-0.249566223718986,0.0968022381265033,-0.249983255245371,0.704366355104271,0.718467676380817,0.04,0.0408456406559281,336.142768431372,0.720466741880911,0.342818705824545
3842,0.248494755720167,-0.144881159870163,0.100691262034842,0.249999970066782,0.246122857458033,-0.232914037353485,0.101870184222476,-0.249713242373294,0.714665096966434,0.718467676380817,0.04,0.042346745675142,341.011622640396,0.761863406575497,0.32888702717733
3902,0.25,-0.015700437528496,0.249969958018791,0.249999102003464,0.142389390043777,0.249999367246039,0.248840621005674,-0.241882869083054,0.7063489454361,0.718467676380817,0.04,0.0675760254482168,336.976953681301,0.82255567266714,0.301015995836051
3962,0.25,-0.00684410473774733,0.249942468246601,0.249885021728588,0.145828042934529,0.233333066922717,0.248867844136731,-0.22548677431937,0.716908463084112,0.718467676380817,0.04,0.0671457778570238,342.073730356736,0.848511825461184,0.296221448077352
4022,0.25,0.249989546193966,0.2491452648531,0.246576693757188,0.24554897676632,-0.249989642453609,0.24965731493738,0.249999973827469,0.714643001549385,0.718467676380817,0.04,0.0762657696872014,340.971238843154,0.870700721850837,0.287742173161173
4082,0.249999452937002,0.249944796723238,0.232507090165366,0.246688797817494,0.245697323864341,-0.233323321586144,0.244586319060511,0.249952492876427,0.721642179570305,0.718467676380817,0.04,0.0763434504369595,344.31762944044,0.861551721251262,0.293651741984756
4142,0.249983588110057,0.248647062072136,-0.249999975778905,0.249939815566387,0.249999389706947,0.249999983570351,0.0975274386313227,0.248575545296191,0.723019500556587,0.718467676380817,0.04,0.0716712279580202,344.962985725636,0.837904132244047,0.302505198385718
4202,0.249971596371592,0.248692005975486,-0.24991107179154,0.249941820939057,0.249999409510065,0.249999540297241,0.10259237268537,0.231956529169152,0.721834860462876,0.718467676380817,0.04,0.0719025361285473,344.377731415832,0.81359415391554,0.311015417204723
4262,0.249623835956096,0.249995379172636,-0.247332856157952,0.249999976746496,0.249999983800489,0.249986685377053,0.24947546025273,-0.0193369631187863,0.7204224267614,0.718467676380817,0.04,0.0709664442243798,343.634354911509,0.78125521253531,0.323190304921759
4322,0.249636160100524,0.233827363459725,-0.231967329095026,0.240029477559142,0.233333317673806,0.249985143702706,0.248088602349501,-0.000719907202655493,0.718510676058604,0.718467676380817,0.04,0.0675565621066434,342.792243268491,0.778856529966271,0.323391199345902
4382,0.249993560288954,-0.235045092214684,0.213632955729847,-0.0491149988741189,-0.25,0.249940435146635,0.207869723155876,0.249999366908877,0.723027302746388,0.718467676380817,0.04,0.0461210294305342,344.999652744664,0.763608515915065,0.331972853231919
4442,0.249987989852648,-0.218879654190058,0.200127237444595,-0.0396725904637693,-0.243782462771157,0.243144567124155,0.19260739905068,0.24999191437452,0.720839867134465,0.718467676380817,0.04,0.0468433281546216,343.90290388828,0.744025251315242,0.339627496684046
4502,0.249826447199787,0.249918048524105,-0.191538592827716,0.234157253436366,-0.0634738831347087,0.0460643944722257,-0.000965767008076567,0.249775790878154,0.719972496361688,0.718467676380817,0.04,0.0551116973095518,343.460105078394,0.720700756280278,0.350167630116735
4562,0.249826403841373,0.238948099402666,-0.184678255889494,0.23125776211816,-0.069687180975536,0.0528622380507103,-0.000455930050082901,0.233118151484883,0.718676491736147,0.718467676380817,0.04,0.0522393277261554,342.880553293208,0.718607773232675,0.350594920863126
4622,0.249825146447354,-0.0791804251190454,0.0142715153189475,0.14717251389018,-0.249872818359532,0.249999701826758,-0.000283908705262369,-0.000283908705262369,0.722935403550799,0.718467676380817,0.04,0.0391330004398773,344.869924399083,0.67953985787668,0.372902300919146
4682,0.234015593105381,-0.0682077442817439,0.00546580517902976,0.133933430093841,-0.249809069093511,0.233341726402191,-0.00242814028066829,-0.00242814028066829,0.718936105247897,0.718467676380817,0.04,0.0355965407154928,342.988123274954,0.671076650907614,0.375544693495303
4742,-0.224461453811855,0.25,-0.249899788878585,-0.25,-0.247960340378896,-0.249739560910249,0.168000025353981,0.249890600385136,0.733982303254413,0.718467676380817,0.04,0.00473178657425321,350.173187783284,0.606770602699402,0.424046062073738
4802,-0.209961242664497,0.24991396831487,-0.235780449242767,-0.233333333333333,-0.231361838449764,-0.233081582542767,0.154066691175515,0.233233348157054,0.721708486539927,0.718467676380817,0.04,0.00479503084497169,344.277842016082,0.571117324172633,0.442933383778216
4862,0.210544880608881,0.247419049446105,0.173680400195966,0.25,0.249994717495053,0.249999790114211,-0.143514641076569,-0.143514641076569,0.694074898401572,0.718467676380817,0.04,0.0586513007988412,331.129692072766,0.702154136113169,0.346513646734561
4922,0.210458385890118,0.247505081131235,0.159564923959094,0.24487114173164,0.233328280656838,0.249999727172807,-0.156187058506818,-0.153372685469971,0.710736675805105,0.718467676380817,0.04,0.0514097523015562,339.157788864871,0.777227335224678,0.320633137746288
4982,0.207950039045992,0.25,-0.2497838869102,0.0961342519492068,-0.249998387651397,0.249997901872077,-0.157359636293254,-0.0710015101081886,0.729305956729065,0.718467676380817,0.04,0.0269037415301009,348.052827440951,0.746095835653512,0.342771911558335
5042,0.209326982610293,0.249387302721428,-0.2471193105025,0.0845964584081647,-0.242624172414103,0.233332814464334,-0.160440796402079,-0.0608906611513639,0.721806167853641,0.718467676380817,0.04,0.036917908017234,344.345728063154,0.713300972011375,0.354712554536319
5102,0.24925834597503,0.231619081642833,-0.169846594679185,-0.249999554282058,-0.0287719305325672,-0.249954720360239,-0.18248915800523,0.232323958596553,0.719497652434837,0.718467676380817,0.04,0.0273208492034373,343.279264110262,0.704687558320862,0.357936216350122
5162,0.249283067775862,0.232231402624474,-0.172518132370726,-0.233695355462246,-0.0361461995148151,-0.249956229681564,-0.204398481726337,0.221295027046481,0.72129854257143,0.718467676380817,0.04,0.0297881246220095,344.129983061583,0.688146070757574,0.367448564390151
5222,0.25,0.249988711092068,-0.249992725425408,0.239126410312312,-0.25,-0.25,-0.113083233986991,-0.0985439879055989,0.72391987020141,0.718467676380817,0.04,0.0355608061118574,345.366725868776,0.652315279272417,0.389025095974531
5282,0.249863305562594,0.233323087371065,-0.249851595789871,0.223274760619418,-0.249987031785572,-0.249998091004661,-0.100981353218189,-0.0869258558029262,0.718364911638331,0.718467676380817,0.04,0.0346315486514117,342.715385645566,0.646597535245294,0.389452264381313
5342,0.245899166877804,-0.249980000538033,-0.245758836359309,-0.236423080474516,-0.249610953567147,-0.249942730139833,0.249973189077068,0.249999975174584,0.727135803524933,0.718467676380817,0.04,0.0224074805277565,346.984170080164,0.632131487930915,0.403326645479642
5402,0.246024753002013,-0.249980647696761,-0.229233551681949,-0.225126731847331,-0.232957256973996,-0.233277972468505,0.233307416107832,0.233333309335432,0.718234014496662,0.717714269863702,0.04,0.0222283932587822,342.66082786408,0.616327740802878,0.4085144475156
5462,0.249666750604063,-0.249999415299866,0.249999703961516,0.102467378341021,0.249999944227364,0.25,-0.25,-0.25,0.691429801993305,0.695112074350255,0.04,0.0527073432646392,329.825717430934,0.670752373794667,0.361307497524468
5522,0.233809717686512,-0.233332768123203,0.249999713829465,0.0907184657296539,0.233333279419785,0.249993060545958,-0.25,-0.249999955456462,0.675668238028223,0.672509878836808,0.04,0.0595533839170541,322.347225254524,0.661595476815316,0.358002521160643
5582,-0.226044236922475,0.25,0.25,-0.25,-0.25,0.249791816378746,-0.25,-0.249998663693849,0.665798079175962,0.649907683323362,0.04,0.0418228908899844,317.633280723884,0.585763301198076,0.398435950472259
5642,-0.210195051898478,0.233333333333333,0.249982030515925,-0.25,-0.249977091981739,0.245929929254043,-0.233344424169514,-0.249998568241854,0.634326489572132,0.627305487809915,0.04,0.0464598866427718,302.602559039853,0.522895065974612,0.425219065650688
5702,0.249431313797454,-0.25,0.249460915477744,-0.25,-0.249312759452179,0.133935202637648,0.249667274914594,-0.249995800133983,0.601241768651644,0.604703292296469,0.04,0.0515290298634955,286.758760380769,0.52672150155351,0.400027937789508
5762,0.239296531883826,-0.233361673837182,0.232812218557204,-0.25,-0.24933374890333,0.137798198318141,0.233011821868748,-0.247360553647348,0.587021157308187,0.583537034429259,0.04,0.0501379268898673,279.895813303288,0.507810524212047,0.404994738729589
5822,-0.0546121436113989,0.249149784884537,-0.249999992138457,-0.25,-0.249942442986734,0.249825073052427,-0.242590358969092,-0.242590358969092,0.609599355074338,0.604012968302941,0.04,0.00310223939817207,291.042645961885,0.489355753589561,0.437005202706791
5882,-0.0444646968334649,0.232515880626059,-0.249999986327352,-0.249999981797591,-0.249903835502643,0.249825789200828,-0.249996428067641,-0.249792761285212,0.61244348171735,0.624488902176623,0.04,7.78734734888946e-06,292.265316821554,0.524589783709141,0.409366338372536
5942,0.249811259726623,-0.249867342869818,-0.249999817805333,-0.249999453927724,-0.248784218464014,0.249846557504465,-0.249999664666079,-0.249996889706703,0.624401850139432,0.644964836050305,0.04,1.42432926143243e-06,298.095723347151,0.641346314753139,0.341521318245764
6002,0.233158589033384,-0.249871764774157,-0.249999823878488,-0.249999472130133,-0.248824744515213,0.233185382703494,-0.249999626617869,-0.233339512308359,0.658724952396619,0.665440769923987,0.04,9.75247575187397e-06,314.571432542672,0.71577556621603,0.322921593719715
6062,-0.249768861070555,-0.25,-0.25,-0.25,-0.25,-0.249988686524667,-0.249998523219789,0.249724432243637,0.712143245852991,0.685916703797668,0.04,0.00132959132702917,339.831317472072,0.630252658987284,0.396189889886753
6122,-0.233110529573535,-0.233333333333333,-0.233333807052293,-0.233333333333333,-0.233334078583362,-0.249989063640512,-0.233331905779129,0.249733617835516,0.706654681058932,0.70639263767135,0.04,0.00441418881521785,337.110862464751,0.619793854372595,0.399650312900662
6182,0.249981083840035,0.25,0.249985788431198,0.25,0.249977642499148,-0.25,0.25,0.25,0.652621322410449,0.726868571545032,0.04,0.0530423220922541,311.593323032526,1.02900624109089,0.222497333343773
6242,0.233354645594096,0.233333333333333,0.233319595483491,0.23699982852485,0.23331172108251,-0.24999999831247,0.237357184648013,0.233333333333333,0.729998162019925,0.747344505418714,0.04,0.0510739124438979,348.672707961241,1.2164603781279,0.210607902590258
6302,-0.248812063538125,-0.25,-0.25,-0.140005144254506,-0.25,-0.249999949374098,-0.129284460559607,-0.25,0.830053698413567,0.767820439292396,0.04,0.0143722560843306,396.59986113777,0.973716119328261,0.299278056233295
6362,-0.232184994753521,-0.233333333333333,-0.233333333333333,-0.127004972779356,-0.25,-0.233336583102762,-0.116641889387382,-0.25,0.799670430025926,0.788203789957879,0.04,0.0267492508381492,381.616248647644,0.856089160058551,0.327538636163922
6422,0.25,0.25,0.25,0.25,-0.25,0.249901038765985,0.249992674607146,-0.25,0.771734476838306,0.805902227585622,0.04,0.0791634723677786,368.272216800967,1.02786917435861,0.263260553763337
6482,0.25,0.233358059580643,0.249999999975332,0.233333333333333,-0.25,0.249904337473786,0.233326253227075,-0.233333333333333,0.815208451826762,0.823600665213364,0.04,0.0683769896317337,389.164062766664,1.1196745604607,0.255385122633097
6542,0.25,-0.24925821258071,0.249999999259958,-0.25,-0.25,0.25,-0.249999966795005,0.25,0.850677573803131,0.841299102841106,0.04,0.0500889029467524,406.110779382396,1.09443998788851,0.272651091586832
6602,0.25,-0.232616272161353,0.249999999284626,-0.233333333333333,-0.233333348627133,0.233335600415879,-0.249999967901839,0.233336497171508,0.863851348280198,0.858997540468848,0.04,0.0552927512540847,412.2900143036,1.05674687208695,0.286672821942689
6662,0.25,0.25,0.25,0.25,0.249999541186019,-0.24993198752364,-0.25,-0.249905084854775,0.88085512964718,0.876695978096591,0.04,0.0689496384464302,420.359636600836,1.03178035018731,0.299356320102043
6722,0.249999999626366,0.25,0.23743919485734,0.25,0.233332889824546,-0.249934249165431,-0.233333333333333,-0.247239992042293,0.891176371476787,0.894394415724333,0.04,0.0625271768778291,425.286118657789,1.04373109172953,0.299396874976778
6782,0.249999988790977,0.25,-0.126824154279787,0.25,-0.24999999965817,-0.249999836777359,0.25,-0.169952300480335,0.908530371261951,0.912092853352075,0.04,0.0468429587851543,433.670396880438,1.07399271132564,0.296696975849942
6842,0.249999989164611,0.248450715797791,-0.130930015803794,0.23333392070578,-0.233333380365262,-0.233333175551599,0.233333333333333,-0.172620557070662,0.929657771712011,0.929791290979818,0.04,0.0457372137193581,443.693920038262,1.07788983040357,0.302457096947561
6902,0.25,0.203521473933724,-0.25,-0.249982378826607,0.24999857912907,0.249999999995425,-0.25,-0.249999998190138,0.952405439851305,0.94748972860756,0.04,0.0412735939639886,454.529286219099,1.05396451682129,0.316876882833147
6962,0.249915407166826,0.188432032802959,-0.233333333333333,-0.233316299532386,0.248717764691323,0.233333333328911,-0.24999999993409,-0.249999996267786,0.964413990348335,0.965188166235302,0.04,0.0396487629031741,460.248931898724,1.05162749346021,0.321577410646166
7022,0.247462215004772,-0.24916175998922,0.25,0.25,0.211574145996643,-0.25,-0.249999998022696,-0.249999940519587,0.980644933707434,0.98229665594212,0.04,0.0368875088897323,467.993779191889,1.06279544254012,0.323552733396809
7082,0.23088014117128,-0.249189701322912,0.249924244442961,0.233333333333333,0.21285500767012,-0.25,-0.23333333142194,-0.233333364897346,0.98481051864295,0.98229665594212,0.04,0.0397201629236629,469.812302726975,1.05134461601416,0.328347690933798
7142,-0.25,-0.25,0.247727333288845,-0.25,0.249999996200959,-0.25,0.25,0.249997328147624,0.981821358124443,0.98229665594212,0.04,0.0365790589380763,468.618465870629,1.07489719039465,0.320337031326373
7202,-0.249999378319547,-0.25,0.23113648500602,-0.249999962691457,0.233333329660928,-0.249999957655487,0.233333333333333,0.233330750542704,0.985264446965088,0.98229665594212,0.04,0.0391729866219073,470.091807432688,1.05379265964824,0.327779802882216
7262,-0.249981349586422,-0.25,-0.249998115195894,-0.249998880743711,-0.25,-0.249998729664616,-0.25,-0.25,1.02724939693586,0.98229665594212,0.04,0.00384273851482476,490.270669918406,0.840523485483035,0.428588719494828
7322,-0.249981207959887,-0.249998072272275,-0.233333207257995,-0.249998918052221,-0.241418282498806,-0.234700424331371,-0.233333335073844,-0.233333389350752,0.993563607672638,0.98229665594212,0.04,0.00494665928398118,473.879216695125,0.745436156295679,0.467102169530791
7382,-0.249977100790362,-0.249942168168248,0.24994912294107,-0.24999999999902,0.00745152503582324,0.208950430332739,0.249999947784682,0.249998319477439,0.941980167763004,0.98229665594212,0.04,0.0426483566610332,449.309024356808,0.940687538520903,0.350957418468555
7442,-0.249712687681406,-0.248711053268614,0.233392469656332,-0.233333333396864,0.0155364741295124,0.193670760678503,0.23335181865879,0.249998372929516,0.972037058678464,0.98229665594212,0.04,0.0367920487177002,463.827125011447,1.02838329322404,0.331402520097994
7502,-0.242044707521671,-0.213008721179225,-0.246750475601088,0.249999998065648,0.249999997846498,-0.249439659294337,-0.249443925992084,0.249999923039758,0.98777506295039,0.98229665594212,0.04,0.027890376175026,471.322228308475,1.01639588101969,0.34072947348467
7562,-0.225653398521753,-0.197575155830154,-0.230201219287712,0.24999589042132,0.249994250035804,-0.24943798948585,-0.232800011186878,0.24999808918258,0.981989440007927,0.98229665594212,0.04,0.0328467211460538,468.533858384806,1.015287985793,0.339083306668063
7622,0.249694562475854,0.249998239292894,0.249727213800208,0.249876768735825,0.249827563525675,-0.249389565039736,0.249873518164104,0.249944907324423,0.956481057439309,0.98229665594212,0.04,0.0717717249334083,456.328313417735,1.15520813729543,0.290249748958494
7682,0.249682958893045,0.249962502855424,0.233069675013121,0.249880850671101,0.233171285289259,-0.247187416757631,0.233235020709423,0.233443480074505,0.978126198574638,0.98229665594212,0.04,0.0690138126057022,466.797688243052,1.21306204629366,0.282748531437174
7742,0.249346454991557,0.248926146168813,-0.249998949812412,0.249999226794101,-0.249860783566825,-0.183325116576587,-0.249281405476323,-0.245097910173118,1.01666560041436,0.98229665594212,0.04,0.0458359043622183,485.170507672093,1.06333078519502,0.335259182718158
7802,0.249366233267282,0.248953878982721,-0.249985329455213,0.233332586203783,-0.249827891821102,-0.169862330262175,-0.233057110599208,-0.245261313137135,0.991157126494546,0.98229665594212,0.04,0.0517989132508443,472.783694345901,0.975723095203568,0.356033268619881
7862,0.249939803263331,0.249758130586046,-0.249590339096443,-0.249999990915452,-0.24887403119514,0.220558472855769,0.237447440837134,-0.249999999093643,0.976838813229508,0.98229665594212,0.04,0.0501077287088891,466.038319211356,0.994320814430351,0.344389397657308
7922,0.233275167604484,0.249766192899844,-0.249603056831981,-0.249999988427717,-0.232244986336318,0.204873190427244,0.237864464323675,-0.233333332457188,0.9836736610068,0.98229665594212,0.04,0.0461190093916053,469.297374900486,0.99254817170108,0.347417113361521
7982,-0.249999266502058,0.25,-0.249971871162569,-0.249999916283424,0.249997314569518,-0.25,0.249958145433374,0.25,0.980833066807748,0.98229665594212,0.04,0.04062338971967,468.024807199315,1.00848115196807,0.341001087055093
8042,-0.249999288256237,0.235798368453452,-0.237523581917227,-0.249998915393679,0.246635311247518,-0.233333333333333,0.233292873918928,0.247065636054164,0.983545737288552,0.98229665594212,0.04,0.0405543229021237,469.261516953149,0.998089191365233,0.345461984886601
8102,-0.249999919127438,-0.176048946396426,0.1234768061977,-0.249969889591089,0.149137214909499,0.25,-0.25,0.161969081624937,0.990043271871637,0.98229665594212,0.04,0.0378204379497116,472.370943980321,0.964114718297975,0.360005502875451
8162,-0.23333338161074,-0.161847314849878,0.127693811976936,-0.23330422660472,0.135832643235608,0.23333333710255,-0.25,0.148236784182577,0.98360670225518,0.98229665594212,0.04,0.0367569337640322,469.299945431822,0.948296024642385,0.363631292853066
8222,0.249996206373509,0.25,0.249986979574782,0.25,-0.249999935307256,-0.249999886923505,-0.25,-0.249999841645858,0.987042742245397,0.98229665594212,0.04,0.0470136034300037,470.976255856363,0.932682374635474,0.371039306323487
8282,0.249996331434696,0.233333352338745,0.249987413588956,0.233333334033974,-0.249999937431967,-0.233352445873298,-0.249999998722816,-0.233340583097389,0.980064079809362,0.98229665594212,0.04,0.044840343892749,467.554718145393,0.939921680594793,0.365506793024753
8342,0.249999958209105,-0.24999942983766,0.25,-0.249999978980784,-0.249999999048597,0.249423344582715,-0.24999996168447,0.249777914808212,0.973939667139205,0.981784035406439,0.04,0.034356936691137,464.750712286945,0.995006118241015,0.343201351285664
8402,0.249993109858775,-0.233333788412253,0.249973242120612,-0.249978022590402,-0.233333332413644,0.249442462802116,-0.249999962961655,0.24978529524826,0.970874346682858,0.966405419336013,0.04,0.04057969128837,463.115114341754,0.977831429548092,0.348000316528319
8462,0.249794507699183,0.249969812924561,0.249197263618356,-0.249341287269306,0.25,0.249996891164752,-0.25,0.249999328009648,0.945313827895704,0.951026803265588,0.04,0.0677248957263426,450.87387512184,0.999727620206121,0.331381345715432
8522,0.249801193731786,0.24997075800095,0.232557354831078,-0.232719399790388,0.233333333333333,0.246011682886357,-0.249994895759588,0.233333681678885,0.938759136178974,0.935648187195162,0.04,0.0673974423652206,447.812435594091,0.993668741638193,0.331138134407218
8582,0.249995088677284,0.249998165216246,-0.25,0.249315337098242,-0.25,0.130440642812902,-0.249846872787643,-0.249970061913242,0.945838674497374,0.920269571124736,0.04,0.050824650482463,451.204398428573,0.870858517614802,0.380697826179623
8642,0.234963524207177,0.249998226375705,-0.233333450587219,0.2326714925283,-0.233333333333333,0.117759288052472,-0.233185310379862,-0.249969304677458,0.913362986654562,0.904890955054311,0.04,0.0531122278477131,435.583505190456,0.796249261773005,0.401954651697531
8702,-0.200951845425926,0.25,0.24999648238343,-0.25,0.25,-0.25,0.249999999445765,-0.246986707427564,0.885711218227659,0.889512338983885,0.04,0.0471869878471977,422.391105438378,0.801383261450436,0.387283659739516
8762,-0.185920117245061,0.233333333351856,0.233330296738482,-0.238401101902748,0.233333333333333,-0.249999762117628,0.233342412020816,-0.222760376073077,0.876249567224015,0.874133722913459,0.04,0.0410809421132849,418.048930931135,0.792276720896878,0.387708121081397
8822,0.25,-0.249999999444325,-0.249989086964994,0.0979669429175473,-0.25,-0.249992863528845,-0.225457478173643,-0.225457478173643,0.882988709513983,0.858755106843033,0.04,0.00564979248859025,421.110949897068,0.674368027629708,0.458832570233155
8882,0.233333962434947,-0.239162411212534,-0.249989450732828,0.0863680448202957,-0.25,-0.23334215051819,-0.249736452745123,-0.25,0.84846607835962,0.843376490772608,0.04,0.00439567416060374,404.629224715005,0.617999059035917,0.48108754039697
8942,-0.249981126951597,0.0751276475094124,-0.25,-0.25,-0.25,0.249528526790798,-0.24999250657588,-0.25,0.830879702531451,0.827997874702182,0.04,0.00407675289979185,396.271884361465,0.599263157722974,0.485881493728047
9002,-0.24998175605321,0.0642900592770577,-0.25,-0.249999440938316,-0.249990175236302,0.232878929869314,-0.241080983545751,-0.25,0.814681660552564,0.812619258631756,0.04,0.00426024337107488,388.582676093682,0.580205550247295,0.49210324878524
9062,-0.25,-0.249999999461227,-0.25,-0.249983228149478,-0.249705257089061,-0.249959380853722,0.0173531843279909,-0.25,0.798826447886495,0.797240642561331,0.04,1.2813450990018e-05,381.08611627724,0.545698854553421,0.513126874461857
9122,-0.25,-0.233333332812599,-0.249982313124405,-0.249983786901235,-0.249197281353517,-0.247468160561831,0.0246829010423261,-0.249999994156786,0.781755572623084,0.781862026490905,0.04,1.85318528608689e-05,372.966516744698,0.546695552312532,0.501278387104027
9182,-0.25,0.24999999999763,-0.249469393732165,-0.249999990702208,-0.234465985022738,-0.175222772096988,0.237244685758045,-0.249999824703572,0.739848037244197,0.766483410420479,0.04,0.0179754044166433,353.057733735399,0.629510647778189,0.412094980938083
9242,-0.243555976981076,0.233333333369669,-0.249276047389769,-0.233333372995137,-0.23498125861895,-0.161050257315274,0.221003196232777,-0.249995706651495,0.742210919837316,0.751104794350054,0.04,0.0194825940450394,354.022640159482,0.696964334258856,0.373228808456173
9302,-0.0566793094322696,-0.249999998841217,-0.24366900346031,0.249998540509934,-0.249924192909093,0.249952671354436,-0.25,-0.249876283141274,0.725354987414869,0.735726178279628,0.04,0.0263491035913582,345.971379510675,0.75962524530753,0.334653568172642
9362,-0.0464698439879882,-0.233352272632705,-0.227213560435574,0.249998589159603,-0.249923124084498,0.249954227645147,-0.249819757298435,-0.233213740369898,0.718557871210766,0.720347562209202,0.04,0.0352307004068356,342.748693820593,0.782092344211486,0.322012291950065
9422,0.249604653896174,0.249431787414146,0.249994287281784,0.25,-0.249892128171241,0.249999360075751,-0.244592718953052,0.25,0.685242350020427,0.704968946138777,0.04,0.08812899179246,326.874567638559,0.902011550546831,0.266270901828232
9482,0.249617624880267,0.249450727833675,0.249897261175124,0.249876529867598,-0.242432120610051,0.249998697092053,-0.228106296290692,0.233333333333333,0.69519249081484,0.689590330068351,0.04,0.0939760943650033,331.655205553458,0.906295306551778,0.268888212210133
9542,0.249993783418961,0.25,0.247083504081963,0.246295896027932,-0.0260919013355417,0.249979470564816,0.249999960917748,-0.25,0.684575622226932,0.674211713997925,0.04,0.107497388537042,326.486268585487,0.847574122016156,0.283036150060781
9602,0.233327323971662,0.241795573628339,0.230514053945897,0.229752753905863,-0.0335555022436379,0.249980154373273,0.249999954809235,-0.249997755555386,0.669193956937229,0.658833097927499,0.04,0.109276727968035,319.257539864729,0.783021211517686,0.299586550226241
9662,-0.25,0.00386720885017382,-0.25,-0.249998367634164,-0.249999928578424,0.24999998481853,0.249999777662337,-0.249932666661564,0.671657299118838,0.643454481857074,0.04,0.0542959541414094,320.509804204801,0.65724183898809,0.358319788422905
9722,-0.233333333333333,-0.0045950314448321,-0.233337995773082,-0.24870217195029,-0.23415162419777,0.233333318657912,0.243092981763679,-0.239458774293749,0.640443147964885,0.628075865786648,0.04,0.0527355856356992,305.53011209696,0.545209554236716,0.41176102647138
9782,0.25,-0.25,0.249860126807552,-0.211112497117928,0.22544920284121,-0.25,0.0427959007025851,0.0642841043728898,0.609099077309131,0.612697249716223,0.04,0.0716452962671497,290.535052293981,0.548635073827929,0.389107538102763
9842,0.249999938524998,-0.249999999998991,0.240174205951348,-0.212408747213997,0.226169044794969,-0.233333334833747,0.0497027040124989,0.05380796756046,0.601537009552095,0.598287694215518,0.04,0.0610516318643992,286.894720086159,0.53597273762513,0.393309586701281
9902,0.249998155749952,-0.24999999996974,-0.040717498878566,-0.25,0.247044461454006,0.249999954987593,0.25,-0.151199728341306,0.605484386659214,0.611980895236744,0.04,0.0480627321792272,288.92128421775,0.561196511607687,0.378285112669943
9962,0.249976402769524,-0.233333333304082,-0.0476913520402854,-0.233333333612762,0.23047631341071,0.249999956488007,0.233333333414159,-0.119387002545285,0.619219114601123,0.625674096257969,0.04,0.0344451423079731,295.536022920306,0.598548729795515,0.362798587408965
10022,0.249345566337085,0.25,-0.249933093730149,0.249999991617139,-0.249999979844879,0.25,-0.115207216667427,-0.115207216667427,0.636077816036171,0.639367297279195,0.04,0.033546142833997,303.505579934915,0.611467556709337,0.364710223108359
10082,0.23270257940902,0.233333333333333,-0.233268657272497,0.249974786762189,-0.233394901788454,0.233333333333333,-0.124472312692383,-0.124472312692383,0.648018819403433,0.65306049830042,0.04,0.0300112205196849,309.280064727091,0.643097925806261,0.353369852324534
10142,-0.249944041504857,-0.25,0.249999999999428,0.249243845968644,0.248152361847873,-0.25,0.249999532462496,-0.146946051585,0.657171562583577,0.666753699321646,0.04,0.0217910888759409,313.654461454465,0.692208932567146,0.33294227774428
10202,-0.249945854843226,-0.233333358856635,0.249999999999447,0.232602396537102,0.231566141111624,-0.249999947964416,0.249999548000936,-0.184435879793902,0.676664811810155,0.680446900342871,0.04,0.0214777432923688,322.943844918147,0.709493949868399,0.334451379399955
10262,-0.249998441655934,0.249999234300958,0.25,-0.249999636977615,-0.249434260239607,-0.249998438932479,0.249999998615713,0.25,0.690276363874765,0.694140101364097,0.04,0.0249323497695508,329.47253962056,0.730107546960751,0.331579034122204
10322,-0.249998395370553,0.247544985109703,0.246976448918167,-0.249999633534093,-0.249453059909254,-0.233331921147978,0.233333332003686,0.248918746348867,0.703396454855333,0.707833302385322,0.04,0.0277757262766551,335.703308372278,0.757154015889328,0.32578123654266
10382,-0.249997053094492,0.176371758563313,0.159293467545013,-0.249999533671956,-0.249998250329021,0.249997094602561,-0.249999999745097,0.217562390466011,0.720152170753281,0.721526503406548,0.04,0.0240314881813476,343.719995334991,0.772036987714012,0.327130747446637
10442,-0.233362831660374,0.162170975878487,0.145650351960179,-0.233332884111067,-0.233332215688226,0.233330541917594,-0.249996150799216,0.201977315817541,0.732432189738811,0.735219704427773,0.04,0.0269413725384244,349.558067037036,0.788155438429857,0.325883317515258
10502,0.249029589929052,-0.249651721981461,-0.25,0.249999953154705,0.249982788894829,-0.24999948594646,-0.249884531368643,-0.249989848988092,0.75329365067341,0.748912905448999,0.04,0.021867441864552,359.541119382573,0.770599243750202,0.342826720337201
10562,0.249060689023329,-0.23299667393704,-0.23333333333429,0.249999954470526,0.249983361407944,-0.23333350607633,-0.233228368512581,-0.233323520688489,0.759681901619182,0.762606106470224,0.04,0.024974060184623,362.536793447871,0.780879191678123,0.3411323572512
10622,0.249962562757346,0.249999719351169,0.249999999971315,0.249999992629334,0.249999964288289,0.249979910157438,0.249800354313207,0.25,0.736605883147296,0.776299307491449,0.04,0.0782807796535718,351.486347356424,0.976348749028512,0.264519786005144
10682,0.249963810665434,0.24999972870613,0.249998818451052,0.2499999928596,0.233333298812013,0.233313982659384,0.233140553995471,0.238898448568662,0.779891993793861,0.789992508512675,0.04,0.0693126487109645,372.34062168189,1.0829546083668,0.252629953479936
10742,0.25,0.25,0.249964554363399,0.249999999537318,-0.25,-0.249997914784181,-0.249993655218866,-0.0830465429401472,0.833395243646299,0.8036857095339,0.04,0.0454875499621736,397.883869664071,0.967038928620929,0.302320120617747
10802,0.233333333333333,0.233333333333333,0.249936465033403,0.233334640959901,-0.249999999762083,-0.249993970127559,-0.249993421081923,-0.0719855821871771,0.823686508718438,0.817378910555126,0.04,0.0531548566750771,392.978025764685,0.892574667667733,0.323503054725773
10862,-0.25,-0.25,0.249121874463517,-0.249960757785163,-0.249999992862497,-0.249879575085511,-0.249986631110556,0.248782279648955,0.851422793889974,0.831072111576351,0.04,0.0129720823546626,406.636863531216,0.840988470606251,0.355280508079346
10922,-0.249999894314033,-0.249999999848252,0.242265687424285,-0.233301477485085,-0.235155186532397,-0.242901198821391,-0.233320517187717,0.24882236507794,0.850366462980092,0.844765312597577,0.04,0.0142913099955329,405.767119638595,0.782710207516357,0.380917153942132
10982,-0.249996829420982,-0.249999995447563,0.0434362632865696,0.249817651217177,0.195344197040504,-0.0405282871619094,0.249996786574632,0.249984842518502,0.832266938927069,0.858458513618802,0.04,0.0383092153231334,397.120513854825,0.914038828822654,0.319236361938961
11042,-0.249982798261807,-0.246271941047585,0.050321591079785,0.233157062843271,0.197133337229194,-0.0344898197311572,0.233338640040555,0.246226827148919,0.864447101050837,0.872151714640028,0.04,0.034775154706016,412.585160470964,0.978485286161463,0.309823232260233
11102,-0.249575894645734,-0.138158363448227,0.249996097083032,-0.25,0.249018402701189,0.140625735760652,-0.249747609447678,0.137244381431004,0.891454196842081,0.885844915661253,0.04,0.0300587851911879,425.469723710111,0.964427823090835,0.324155658092718
11162,-0.23292336482421,-0.141886417999953,0.249990555597884,-0.233333333333333,0.249051104336351,0.144254481404691,-0.23374416691937,0.140672470554176,0.898379633252279,0.899538116682479,0.04,0.0342320472974467,428.713651838488,0.965425923875268,0.326289450956606
11222,0.25,-0.25,0.249829852528586,0.25,0.249999451756051,0.249488105081826,0.230355666401566,0.240087055126173,0.886806623812367,0.913231317703704,0.04,0.0605197288723956,423.152698645531,1.09348284390059,0.284341216805008
11282,0.25,-0.233334114071606,0.233199837053588,0.249999999998928,0.233347996269551,0.232838595108034,0.214344487411707,0.223752476322659,0.91983016010954,0.92692451872493,0.04,0.0562426278490327,439.082018739528,1.16511150798101,0.276906300013163
11342,0.25,0.249976577851829,-0.249070611721385,0.249999999967838,-0.249544212838935,-0.249997194131942,-0.249979703294228,-0.249950308979248,0.975417535430224,0.940617719746155,0.04,0.0324464337643492,465.615936161521,1.01760866268484,0.336203102609064
11402,0.233333333333333,0.24997304094563,-0.249094806802896,0.233333333302244,-0.232908198678051,-0.233335376028619,-0.24587196355897,-0.240371817116583,0.959699841845247,0.95431092076738,0.04,0.0378222026255627,457.866763173214,0.94626963677658,0.355532159103594
11462,-0.25,0.249870470665846,-0.249796464166734,-0.25,0.249536211987578,0.249857348967735,-0.126747511236499,0.0374044469007242,0.957218898607705,0.967547681754565,0.04,0.0332758233474374,456.857036548028,1.0011675507,0.335295889704828
11522,-0.238329552491844,0.23326661012853,-0.249544324454522,-0.249999655901378,0.249551671587992,0.233195446892543,-0.114206066454125,0.0444736410131854,0.968519687843182,0.967547681754565,0.04,0.0330338338428265,462.083101441547,1.00112308620367,0.339146458474524
11582,0.100113425244696,-0.248245345453653,-0.242232272800384,-0.249989677041351,0.25,-0.249999713288017,0.249495832234715,0.249480270274563,0.969850362299729,0.967547681754565,0.04,0.0320609143162474,462.76743435933,0.996516133619279,0.34121894145427
11642,0.105109644403206,-0.231711043778751,-0.242491197040372,-0.244277826422241,0.240163176606185,-0.249818499693333,0.232845971160225,0.232854622750141,0.96909524590983,0.967547681754565,0.04,0.0337340419869156,462.392167968511,0.986356562203903,0.344453980151629
11702,0.25,0.247783704793391,-0.25,-0.0786341584680393,-0.0451047018144494,-0.244563305447492,-0.25,-0.249289155458097,0.983662225608515,0.967547681754565,0.04,0.032293155632279,469.385515301849,0.920149454385607,0.374822788243463
11762,0.249999680615354,0.231519645219896,-0.233352066617035,-0.0676796865191047,-0.035504388051792,-0.23393386323485,-0.233333822552246,-0.232680019654961,0.969944310504641,0.967547681754565,0.04,0.03480892542724,462.70921036434,0.890527333176036,0.381782103730797
11822,0.249990418460625,-0.240138082411467,0.249438001488965,0.25,0.242904711065271,0.0743199609317733,0.249985323432628,0.248984918636009,0.933650630553998,0.967547681754565,0.04,0.0613002495555319,445.434806387022,1.05451869743429,0.310373434244714
11882,0.249990705234072,-0.22380201500388,0.249456734772667,0.249946724691261,0.243141220696429,0.0635610775181748,0.233319786389581,0.232352088014809,0.961650875650454,0.967547681754565,0.04,0.0563605452884087,458.946137417375,1.12504824079279,0.299740377876299
11942,0.249999021664036,0.249943939816136,0.25,0.248401740737843,0.25,-0.248446541476184,-0.249980787858791,-0.25,0.989875408471904,0.967547681754565,0.04,0.0559883433813629,472.338015235033,1.03094674174104,0.336644362606525
12002,0.233332387876971,0.249938778703938,0.233333333333333,0.231788582470935,0.249999939714695,-0.231854080892382,-0.2333147645458,-0.233434382701342,0.970089866168453,0.967547681754565,0.04,0.0587847427417979,462.721706594086,0.989813526347975,0.34349558938423
12062,-0.249999991947904,0.24978910645019,-0.25,-0.249993007269397,0.249998191440853,0.249327276037874,0.249999911530917,0.246968518959743,0.959835672802558,0.967547681754565,0.04,0.0420495843348145,458.150645359304,1.05160720041277,0.320117508329073
12122,-0.249409681224586,0.249796136235183,-0.233334101536513,-0.249993077324861,0.233331615822116,0.249348217349782,0.249995153141271,0.230407185999813,0.969526014580182,0.967547681754565,0.04,0.0426393445820451,462.601091032681,1.04275959793876,0.325969625140774
12182,-0.232290670248359,0.25,0.249976953904618,-0.249995108933295,-0.249999077121255,0.249955515395092,0.249857159841524,-0.249871469838147,0.981214253249325,0.967547681754565,0.04,0.0408267805938384,468.160026919004,0.977170426016699,0.352029201945046
12242,-0.216214344293389,0.233333636850775,0.249952693898273,-0.233328830012964,-0.249986033354388,0.245944564389205,0.24986192118014,-0.249840903351729,0.970489002458848,0.967547681754565,0.04,0.0409774437652657,462.998468115482,0.946996719832158,0.35924088339324
12302,0.249999108400753,-0.249990894476738,0.249249153714253,0.249993258676636,-0.24960776411524,0.129626985218471,0.25,-0.248954475245629,0.96310330203348,0.967547681754565,0.04,0.0444143727849894,459.464748846629,0.961547631910742,0.351104237170064
12362,0.249999137875935,-0.249991016795582,0.232608361670291,0.24987981993996,-0.233060290998889,0.13359804482801,0.246401007756961,-0.232322660961382,0.966289077113701,0.967547681754565,0.04,0.0417956468822525,461.007842798262,0.974455087122044,0.347617124622231
12422,0.249999992656217,-0.24999456404205,-0.249974607604613,0.246590096576343,0.246816429375296,0.248758773504654,0.142030232708839,0.249999953281778,0.956411116760639,0.967547681754565,0.04,0.044580543688723,456.322891132624,1.03259846685172,0.324709844577578
12482,0.248996272216925,-0.233337010479825,-0.249975454017793,0.246703760023798,0.246922546555062,0.234436096482571,0.145334741208882,0.233346264552606,0.966363030281999,0.967547681754565,0.04,0.0446716760007469,461.107696897772,1.05073474029623,0.322451169465301
12542,0.219888379477459,0.249732042824695,-0.25,0.25,0.24999994476827,-0.180921537157834,0.241165487710122,-0.231354091088751,0.978572319123844,0.967547681754565,0.04,0.0485681512574024,466.706142047471,0.99954962657811,0.343078759783652
12602,0.220892100161544,0.249687489743601,-0.233333539644921,0.237407372775862,0.24997881836557,-0.16655748591924,0.241459971445096,-0.213665944461366,0.96869006089645,0.967547681754565,0.04,0.0492454638216033,462.13798802684,0.98251834637995,0.345609504141272
12662,0.25,0.248395450391879,0.24999381065236,-0.127778816724136,0.249366152687269,0.25,0.249999999759347,0.249911406529823,0.948270578448279,0.967547681754565,0.04,0.06304654024278,452.393735432607,1.07058617022317,0.310491438729511
