time,bias_percent_1,bias_percent_2,bias_percent_3,bias_percent_4,bias_percent_5,bias_percent_6,bias_percent_8,bias_percent_9,normalized_power,power_SP,SP,CV,total_power_MW,fuel_fraction,thermal_efficiency
16,0,0,0,0,0,0,0,0,0.999337218553551,1,0.04,0.0401822629032478,476.747010232213,0.999091056442349,0.350620724776661
76,0.000162499120109146,-0.00518516685084671,0.00908996398332499,-0.00419710250306241,0.00305979161871574,0.0047051833217605,-0.000950663606297951,0.00102497938835876,0.998571197882131,0.996959412922263,0.04,0.0407086555362216,476.361835534617,0.996768244284276,0.351153856874667
136,0.000771870820518529,-0.0246295425415225,0.0431773289207933,-0.019936236889547,0.0145340101888995,0.0223496207783618,-0.00451565212991517,0.00486865209470409,0.988721787000427,0.985557211380749,0.04,0.0442411468225676,471.630770209369,0.978636272932675,0.354107804922972
196,0.00138124252092803,-0.044073918232198,0.0772646938582619,-0.0356753712760313,0.0260082287590834,0.0399940582349632,-0.00808064065353238,0.00871232480104953,0.97731851042664,0.974155009839235,0.04,0.0466424679987502,466.186816877642,0.958877564854485,0.357232947525588
256,0.00199061422133741,-0.0635182939228737,0.11135205879573,-0.0514145056625158,0.0374824473292673,0.0576384956915646,-0.0116456291771496,0.0125559975073948,0.965739201555616,0.962752808297722,0.04,0.0479297693059032,460.664668029768,0.940046639976573,0.360072686446486
316,0.00259998592174668,-0.0829626696135492,0.145439423733199,-0.0671536400490003,0.0489566658994511,0.0752829331481659,-0.0152106177007668,0.0163996702137402,0.954146337800377,0.951350606756208,0.04,0.0485914706885034,455.131027622799,0.922280841774448,0.362600110953094
376,0.00320935762215618,-0.102407045304225,0.179526788670667,-0.0828927744354846,0.0604308844696351,0.0929273706047674,-0.018775606224384,0.0202433429200856,0.942559134301031,0.939948405214694,0.04,0.0488241987488377,449.602882459957,0.905673967023306,0.364763923743913
436,0.00381872932256556,-0.1218514209949,0.213614153608136,-0.0986319088219691,0.0719051030398189,0.110571808061369,-0.0223405947480013,0.0240870156264309,0.930987843479588,0.92854620367318,0.04,0.048835304873189,444.082365778652,0.890116556244446,0.366582159452374
496,0.00442810102297483,-0.141295796685576,0.247701518545604,-0.114371043208454,0.0833793216100027,0.12821624551797,-0.0259055832716185,0.0279306883327762,0.91943679893503,0.917144002131666,0.04,0.0487387185098808,438.571535361228,0.87549537918715,0.368079185511403
556,0.00503747272338433,-0.160740172376252,0.281788883483073,-0.130110177594938,0.0948535401801867,0.145860682974571,-0.0294705717952358,0.0317743610391216,0.907907427958378,0.905741800590153,0.04,0.0486048164328567,433.071040405431,0.861681378003258,0.369289629781171
616,0.00564684442379371,-0.180184548066927,0.315876248420542,-0.145849311981422,0.106327758750371,0.163505120431173,-0.033035560318853,0.035618033745467,0.89639781829892,0.894339599048639,0.04,0.0484722696270929,427.579950622578,0.848550902148158,0.370249183578203
676,0.00625621612420309,-0.199628923757603,0.34996361335801,-0.161588446367907,0.117801977320554,0.181149557887774,-0.0366005488424702,0.0394617064518123,0.884905286463678,0.882937397507125,0.04,0.048358106551525,422.096991581143,0.835996306459224,0.370990316932102
736,0.00686558782461248,-0.219073299448279,0.384050978295478,-0.177327580754391,0.129276195890738,0.198793995344376,-0.0401655373660874,0.0433053791581577,0.873428221852772,0.871535195965611,0.04,0.0482679758914957,416.621402545383,0.823922049814121,0.371543893015883
796,0.00747495952502186,-0.238517675138954,0.418138343232947,-0.193066715140876,0.140750414460922,0.216438432800977,-0.0437305258897047,0.0471490518645031,0.861965613024142,0.860132994424098,0.04,0.0482027990153853,411.152702251211,0.812239339667424,0.371940786534801
856,0.00808433122543124,-0.25796205082963,0.452225708170415,-0.20880584952736,0.152224633031106,0.234082870257578,-0.0472955144133219,0.0509927245708485,0.850516155557737,0.848730792882584,0.04,0.0481612322459322,405.690263689105,0.800866339868004,0.372211014372
916,0.00853120380573148,-0.272221259669458,0.477223109124559,-0.220347881410782,0.160639059982574,0.247022124392419,-0.0499098393306412,0.053811417888835,0.840422859783542,0.840369178418807,0.04,0.0470596868940664,400.932829976186,0.793296610959343,0.37135621513916
976,0.00853120380573148,-0.272221259669458,0.477223109124559,-0.220347881410782,0.160639059982574,0.247022124392419,-0.0499098393306412,0.0538114178888351,0.838952226264244,0.840369178418807,0.04,0.0426436265340647,400.26245276616,0.800599067619029,0.367353725558281
