time,bias_percent_1,bias_percent_2,bias_percent_3,bias_percent_4,bias_percent_5,bias_percent_6,bias_percent_8,bias_percent_9,normalized_power,power_SP,SP,CV,total_power_MW,fuel_fraction,thermal_efficiency
55,0,0,0,0,0,0,0,0,0.999838042475392,1,0.04,0.0399063598158726,477.025422217799,1.00002945907389,0.350496275342325
115,-0.029391737745534,0.0234317130541193,-0.0271870439651034,-0.0268149184279342,-0.0285278376551327,0.00454723601283149,0.0313794734882948,-0.0305616266354954,0.97969485632599,0.967817802692758,0.04,0.0467803744929779,467.161454097037,0.943460789083756,0.363829427090485
175,-0.0614554516497526,0.0489935818404316,-0.0568456373815795,-0.0560675567129531,-0.0596491150970954,0.00950785711773881,0.0656116263846165,-0.0639015829651267,0.945478373504218,0.932709951084857,0.04,0.0530281507571399,450.804310839159,0.864971958075847,0.382948796095029
235,-0.0935191655539715,0.0745554506267438,-0.0865042307980558,-0.0853201949979721,-0.0907703925390582,0.0144684782226459,0.0998437792809381,-0.0972415392947581,0.909517405946991,0.897602099476956,0.04,0.0547915895807833,433.643433789155,0.789769768598476,0.403447422761363
295,-0.12558287945819,0.100117319413056,-0.116162824214532,-0.114572833282991,-0.121891669981021,0.019429099327553,0.13407593217726,-0.130581495624389,0.873074560080372,0.862494247869056,0.04,0.0529980132358961,416.433701099089,0.720944099011742,0.424423041844708
355,-0.157646593362409,0.125679188199368,-0.145821417631008,-0.14382547156801,-0.153012947422984,0.0243897204324602,0.168308085073581,-0.163921451954021,0.837243631977191,0.827386396261155,0.04,0.0489174764302072,399.344570720634,0.657618742211742,0.446198677257977
415,-0.189710307266628,0.15124105698568,-0.175480011047485,-0.173078109853029,-0.184134224864947,0.0293503415373674,0.202540237969903,-0.197261408283652,0.801560071808337,0.792278544653254,0.04,0.0432564461441254,382.238293431434,0.600053843974371,0.468056895256089
