time,bias_percent_1,bias_percent_2,bias_percent_3,bias_percent_4,bias_percent_5,bias_percent_6,bias_percent_8,bias_percent_9,normalized_power,power_SP,SP,CV,total_power_MW,fuel_fraction,thermal_efficiency
19,0,0,0,0,0,0,0,0,0.999267562149263,1,0.04,0.0400805810918953,476.778139473252,0.99937690980473,0.350543323439688
79,0.00938829618180455,-0.00116989791093067,0.00327659694590125,0.011051647624759,0.00795928245366758,-0.00987392362265359,-0.00642863525849987,0.00252539503763268,0.994450991877836,0.987321607462453,0.04,0.0430696906617917,474.242056654329,0.984431149468301,0.353972395081944
139,0.0390355472822401,-0.00486431236650128,0.0136237451961158,0.0459515874924186,0.0330938586231441,-0.0410547350626125,-0.0267295887063942,0.0105003267354201,0.959719196273765,0.947284578396515,0.04,0.0556706144108254,457.570859341939,0.912731778883859,0.368357793543961
199,0.0686827983826756,-0.00855872682207189,0.0239708934463303,0.0808515273600785,0.0582284347926206,-0.0722355465025713,-0.0470305421542886,0.0184752584332073,0.919566832801253,0.907247549330577,0.04,0.0647470446241223,438.40299058248,0.835922707181285,0.385355943493482
259,0.0983300494831113,-0.0122531412776425,0.0343180416965447,0.115751467227738,0.0833630109620972,-0.10341635794253,-0.067331495602183,0.0264501901309947,0.879025442474495,0.867210520264639,0.04,0.070182427451119,419.060233716271,0.761962960444929,0.404107831148632
319,0.127977300583547,-0.0159475557332131,0.0446651899467591,0.150651407095398,0.108497587131574,-0.134597169382489,-0.0876324490500774,0.034425121828782,0.838371944969107,0.827173491198701,0.04,0.0730151348248591,399.663646917063,0.691455054081003,0.424703038264766
379,0.157624551683982,-0.0196419701887838,0.0550123381969736,0.185551346963058,0.13363216330105,-0.165777980822448,-0.107933402497972,0.0424000535265693,0.797660825209983,0.787136462132763,0.04,0.0737254025961023,380.240207163113,0.62491551372998,0.447086347178638
439,0.187271802784418,-0.0233363846443543,0.0653594864471881,0.220451286830718,0.158766739470527,-0.196958792262407,-0.122145190245506,0.0503749852243566,0.756935412189941,0.747099433066824,0.04,0.0728189405618208,360.806770149795,0.562474718058533,0.47133137208288
499,0.216919053884853,-0.0270307990999249,0.0757066346974026,0.255351226698377,0.183901315640003,-0.228139603702366,-0.0579555203865099,0.058349916922144,0.713220083632284,0.707062404000886,0.04,0.073453151930254,339.940796828758,0.517584448032903,0.482588252535556
559,0.246566304985289,-0.0307252135554956,0.086053782947617,0.290251166566037,0.20903589180948,-0.259320415142324,-0.027375855672403,0.0663248486199313,0.671703690930444,0.667025374934948,0.04,0.0742381209680309,320.144701793461,0.485191858394084,0.484827773398528
619,0.276213556085725,-0.0344196280110661,0.0964009311978316,0.325151106433697,0.234170467978957,-0.290501226582283,-0.012931113401054,0.0742997803177186,0.631155437263889,0.62698834586901,0.04,0.0768640040171706,300.803905857473,0.457438214202818,0.483176390176567
679,0.30586080718616,-0.0381140424666368,0.106748079448046,0.360051046301357,0.259305044148433,-0.321682038022242,-0.00610793266194489,0.082274712015506,0.591065306630388,0.586951316803072,0.04,0.0813154308979536,281.679953138304,0.430851472096873,0.480377917330893
739,0.335508058286596,-0.0418084569222074,0.117095227698261,0.394950986169017,0.28443962031791,-0.352862849462201,-0.00288490558925744,0.0902496437132933,0.551209757106992,0.546914287737134,0.04,0.0874842456429311,262.665028901741,0.403461973065981,0.478359411706771
799,0.365155309387031,-0.045502871377778,0.127442375948475,0.429850926036676,0.309574196487386,-0.38404366090216,-0.00136246262482937,0.0982245754110806,0.511214057511117,0.506877258671196,0.04,0.094804122138698,243.581421659421,0.375415126984404,0.476746012249534
859,0.394802560487467,-0.0491972858333486,0.137789524198689,0.464750865904336,0.334708772656863,-0.36070771820938,-0.00064331590277584,0.106199507108868,0.470248630358581,0.466840229605258,0.04,0.104232120090727,224.260273756298,0.352015683748032,0.468106865461236
919,0.415061515406098,-0.0517218023779885,0.144860075503003,0.488599158147237,0.351884066372672,-0.339701617847161,-0.000303616698002394,0.111649043769023,0.433975279165578,0.439481593076867,0.04,0.107769261114451,206.937185471169,0.34928062453733,0.435330122833857
979,0.415061515406098,-0.0517218023779885,0.144860075503003,0.488599158147237,0.351884066372672,-0.349098265808111,-0.000143153874695123,0.111649043769023,0.429251831611747,0.439481593076867,0.04,0.0832478514685921,204.811485193662,0.409497128531225,0.367500659175202
1039,0.415061515406098,-0.0517218023779885,0.144860075503003,0.488599158147237,0.351884066372672,-0.381269227479995,-6.7356976624443e-05,0.111649043769023,0.432827802810057,0.439481593076867,0.04,0.0697706660933949,206.532765982614,0.457646707458874,0.331599063582632
1099,0.415061515406098,-0.0517218023779885,0.144860075503003,0.488599158147237,0.351884066372672,-0.413929110134837,-3.15532241673292e-05,0.111649043769023,0.436054260750102,0.439481593076867,0.04,0.0671950552963712,208.060948779232,0.484049498794259,0.315831524107349
1159,0.415061515406098,-0.0517218023779885,0.144860075503003,0.488599158147237,0.351884066372672,-0.436531360159424,-1.46407991680611e-05,0.111649043769023,0.437824761742583,0.439481593076867,0.04,0.0683345813551104,208.895170606109,0.496977865202733,0.308848879332026
1219,0.415061515406098,-0.0517218023779885,0.144860075503003,0.488599158147237,0.351884066372672,-0.436531360159424,-6.65197317595334e-06,0.111649043769023,0.438386928969155,0.439481593076867,0.04,0.0703364173351527,209.158087438112,0.504569699957861,0.304584761202182
1279,0.415061515406098,-0.0517218023779885,0.144860075503003,0.488599158147237,0.351884066372672,-0.436531360159424,-2.87833688577395e-06,0.111649043769023,0.438772975812382,0.439481593076867,0.04,0.0715775938148254,209.341069360338,0.509536964994343,0.301879358663424
1339,0.415061515406098,-0.0517218023779885,0.144860075503003,0.488599158147237,0.351884066372672,-0.436531360159424,-1.09580577736989e-06,0.111649043769023,0.439027243418631,0.439481593076867,0.04,0.0723819923703529,209.461499487444,0.512728801696579,0.300172685457282
1399,0.415061515406098,-0.0517218023779885,0.144860075503003,0.488599158147237,0.351884066372672,-0.436531360159424,-2.538016974597e-07,0.111649043769023,0.439189937977163,0.439481593076867,0.04,0.0729047430699793,209.538538417042,0.514775590565775,0.299089137980625
1459,0.415061515406098,-0.0517218023779885,0.144860075503003,0.488599158147237,0.351884066372672,-0.436531360159424,1.4393098010359e-07,0.111649043769023,0.439293476100412,0.439481593076867,0.04,0.0732423614868307,209.587567319184,0.516093333106754,0.29839527657837
1519,0.415061515406098,-0.0517218023779885,0.144860075503003,0.488599158147237,0.351884066372672,-0.436531360159424,3.31805702537877e-07,0.111649043769023,0.439359718900746,0.439481593076867,0.04,0.0734593675366755,209.618939301301,0.516945761072022,0.297947823225355
1579,0.415061515406098,-0.0517218023779885,0.144860075503003,0.488599158147237,0.351884066372672,-0.436531360159424,4.20551016465832e-07,0.111649043769023,0.439402381762349,0.439481593076867,0.04,0.0735986478747921,209.639145890321,0.517499190162629,0.297657879417056
1639,0.415061515406098,-0.0517218023779885,0.144860075503003,0.488599158147237,0.351884066372672,-0.436531360159424,4.62471135586307e-07,0.111649043769023,0.439429964737708,0.439481593076867,0.04,0.0736880830476454,209.652210610597,0.517859524060817,0.29746930204636
1699,0.415061515406098,-0.0517218023779885,0.144860075503003,0.488599158147237,0.351884066372672,-0.436531360159424,4.82272703796447e-07,0.111649043769023,0.439447817448858,0.439481593076867,0.04,0.073745535896531,209.660666597828,0.518094905495866,0.297346147971415
1759,0.415061515406098,-0.0517218023779885,0.144860075503003,0.488599158147237,0.351884066372672,-0.436531360159424,4.91626257932445e-07,0.111649043769023,0.439459368979181,0.439481593076867,0.04,0.0737824125089622,209.66613796473,0.518249423303882,0.297265250537314
1819,0.411892442638116,-0.0455976540151874,0.138034046337452,0.473828001166378,0.33939308232365,-0.431003892932403,4.96044542644523e-07,0.104995680852567,0.43964101874959,0.438550398967372,0.04,0.0729396207393227,209.755421944092,0.516254510263276,0.298541020518412
1879,0.401884844423437,-0.0262582381326576,0.11647816476203,0.427182242279454,0.299947869537267,-0.413548733268127,4.98131583109254e-07,0.0839850611163908,0.438305126500105,0.435609785990019,0.04,0.0716469890532185,209.095378800969,0.501824131983936,0.30615937936847
1939,0.391877246208759,-0.00691882225012779,0.0949222831866078,0.38053648339253,0.260502656750883,-0.396093573603851,4.99117426541638e-07,0.0629744413802147,0.43534412455729,0.432669173012667,0.04,0.0696053036968347,207.677224189322,0.48524887442386,0.314469847447476
1999,0.38186964799408,0.012420593632402,0.0733664016111854,0.333890724505606,0.221057443964499,-0.378638413939575,4.9958310376115e-07,0.0419638216440386,0.432147296415505,0.429728560035314,0.04,0.0660874104762088,206.152174242765,0.470109767970777,0.322213194605467
2059,0.371862049779401,0.0317600095149318,0.0518105200357631,0.287244965618682,0.181612231178116,-0.361183254275299,4.79705533797836e-07,0.0209532019078625,0.429076772144334,0.426787947057962,0.04,0.0615847143971852,204.688454217443,0.456118772609132,0.32973881705469
2119,0.361854451564723,0.0510994253974616,0.0302546384603408,0.240599206731758,0.142167018391732,-0.343728094611023,4.9041361196342e-07,4.9041361196342e-07,0.426069816036194,0.423847334080609,0.04,0.0565223046904378,203.265847949938,0.442523763708349,0.337506774802461
2179,0.351846853350044,0.0704388412799914,0.00869875688491857,0.193953447844834,0.102721805605349,-0.326272934946746,0.0123716034178675,4.95471727265117e-07,0.422361970679305,0.420906721103257,0.04,0.0524709720025565,201.467560071601,0.431654687351234,0.342944104853234
2239,0.341839255135365,0.0897782571625212,-0.0128571246905038,0.14730768895791,0.0632765928189651,-0.30881777528247,0.0593243662181401,4.11347138178506e-07,0.418576536264342,0.417966108125904,0.04,0.0489185839896535,199.699817370163,0.427211870076659,0.343470176233333
2299,0.331831656920686,0.109117673045051,-0.0344130062659261,0.100661930070986,0.0238313800325814,-0.291362615618194,0.106277129018413,4.58123482712488e-07,0.41590780164682,0.415025495148551,0.04,0.0462242885292867,198.408498995934,0.422469945632705,0.345079475325614
2359,0.321824058706008,0.128457088927581,-0.0559688878413483,0.0540161711840616,-0.0156138327538021,-0.273907455953918,0.153229891818685,4.78791180986832e-07,0.413143094524281,0.412084882171199,0.04,0.0444529166273436,197.10729765406,0.416286035133003,0.347908899337508
2419,0.311816460491329,0.147796504810111,-0.0775247694167706,0.00737041229713759,-0.0550590455401858,-0.256452296289642,0.200182654618958,4.77265752953706e-07,0.410277394113812,0.409144269193846,0.04,0.0428304797170887,195.741714757283,0.409405253080696,0.351305261310521
