time,bias_percent_1,bias_percent_2,bias_percent_3,bias_percent_4,bias_percent_5,bias_percent_6,bias_percent_8,bias_percent_9,normalized_power,power_SP,SP,CV,total_power_MW,fuel_fraction,thermal_efficiency
30,0,0,0,0,0,0,0,0,0.999606161949866,1,0.04,0.0399956599750085,476.912498100406,0.999593026091111,0.35056629809806
90,0.00639206583222858,0.0143080206916816,0.00536534849704879,-0.0145931241995792,-0.0165155151672592,0.00883548387283895,-0.0079978183779233,0.0033036562529374,0.997912481486101,0.995869210032084,0.04,0.0410102251794523,476.055191441981,0.994126969799556,0.35186018430807
150,0.0191761974966855,0.0429240620750446,0.0160960454911462,-0.0437793725987378,-0.0495465455017778,0.0265064516185168,-0.0239934551337699,0.0099109687588122,0.990452927230168,0.987607630096251,0.04,0.043435011930605,472.480262995957,0.977337200444676,0.355217143856415
210,0.0319603291611426,0.0715401034584078,0.0268267424852438,-0.0729656209978966,-0.0825775758362964,0.0441774193641947,-0.0399890918896166,0.0165182812646871,0.982132975489155,0.979346050160419,0.04,0.0448099074447951,468.508767186618,0.95996034535049,0.358607282803198
270,0.0447444608255996,0.100156144841771,0.0375574394793415,-0.102151869397055,-0.115608606170815,0.0618483871098726,-0.0559847286454632,0.0231255937705618,0.973699258687192,0.971084470224586,0.04,0.0453291399471556,464.484745522059,0.943487843954593,0.361734409868456
330,0.0575285924900566,0.128772186225134,0.048288136473439,-0.131338117796214,-0.148639636505334,0.0795193548555504,-0.0719803654013099,0.0297329062764366,0.965253336297129,0.962822890288753,0.04,0.0453169207675952,460.456162565335,0.928143887031938,0.364525284342629
390,0.0703127241545137,0.157388227608497,0.0590188334675366,-0.160524366195372,-0.181670666839852,0.0971903226012285,-0.0879760021571565,0.0363402187823114,0.956801474191223,0.954561310352921,0.04,0.0450081956027409,456.423045030568,0.913917466488308,0.366957072834077
450,0.0830968558189707,0.18600426899186,0.0697495304616341,-0.189710614594531,-0.214701697174371,0.114861290346906,-0.103971638913003,0.0429475312881862,0.94848770134049,0.946299730417088,0.04,0.0446138723734343,452.458873361948,0.900372232054638,0.369242509038152
510,0.0958809874834276,0.214620310375223,0.0804802274557317,-0.21889686299369,-0.247732727508889,0.132532258092584,-0.11996727566885,0.049554843794061,0.94024749650563,0.938038150481256,0.04,0.0442927380494141,448.526801520281,0.886761377860944,0.371651856006264
570,0.108665119147885,0.243236351758587,0.0912109244498294,-0.248083111392848,-0.280763757843408,0.150203225838262,-0.135962912424696,0.0561621562999358,0.93198317231038,0.929776570545423,0.04,0.0440060825466907,444.583411748651,0.873118143894877,0.374140668072926
630,0.121449250812342,0.27185239314195,0.101941621443927,-0.277269359792007,-0.313794788177926,0.16787419358394,-0.151958549180543,0.0627694688058106,0.923712587890726,0.921514990609591,0.04,0.0437012136167091,440.637371276909,0.859512976256131,0.376689544759274
690,0.134233382476799,0.300468434525313,0.112672318438024,-0.306455608191166,-0.346825818512445,0.185545161329618,-0.16795418593639,0.0693767813116855,0.915423177827044,0.913253410673758,0.04,0.043355805727131,436.68241074778,0.846023385324842,0.379260844491706
750,0.147017514141256,0.329084475908676,0.123403015432122,-0.335641856590324,-0.379856848846963,0.203216129075296,-0.183949822692236,0.0759840938175602,0.907153539330198,0.904991830737926,0.04,0.0429427869449738,432.74092735184,0.832779115500905,0.381814856021804
810,0.159801645805713,0.357700517292039,0.13413371242622,-0.364828104989483,-0.412887879181482,0.220887096820974,-0.199945459448083,0.082591406323435,0.898820491507081,0.896730250802093,0.04,0.0425148412400939,428.755718977993,0.819870082195842,0.384255031847117
870,0.17258577747017,0.386316558675402,0.144864409420317,-0.394014353388641,-0.445918909516,0.238558064566652,-0.21594109620393,0.0891987188293098,0.890382132118901,0.88846867086626,0.04,0.0420278464496197,424.767899490935,0.807540408657737,0.386493417639743
