time,bias_percent_1,bias_percent_2,bias_percent_3,bias_percent_4,bias_percent_5,bias_percent_6,bias_percent_8,bias_percent_9,normalized_power,power_SP,SP,CV,total_power_MW,fuel_fraction,thermal_efficiency
54,0,0,0,0,0,0,0,0,0.999832207957595,1,0.04,0.0399079202397772,477.02273006501,1.00001851438744,0.350498133251806
114,0.0130735815962777,0.000585219131491726,-0.00702733018181539,-0.0276817616934176,0.010273386261076,-0.00232703173967593,-0.019032712170523,0.0108852468575323,0.971707858673427,0.956979776760636,0.04,0.0511000866946313,463.256742552499,0.930154516848699,0.365949641451925
174,0.0275997833699196,0.00123546261092702,-0.0148354748282768,-0.0584392746861035,0.0216882598844937,-0.00491262256153789,-0.0401801701377707,0.0229799655881237,0.924984475641047,0.909179528716898,0.04,0.0625301073925632,440.924070712645,0.832816942816548,0.389017315582803
234,0.0421259851435616,0.00188570609036242,-0.0226436194747381,-0.0891967876787896,0.0331031335079115,-0.00749821338339996,-0.0613276281050185,0.0350746843187151,0.876421242464759,0.86137928067316,0.04,0.0689511510507081,417.753376163705,0.738478847336755,0.415658422087224
294,0.0566521869172034,0.00253594956979782,-0.0304517641211996,-0.119954300671476,0.0445180071313292,-0.010083804205262,-0.0824750860722662,0.0471694030493066,0.827634289047973,0.813579032629422,0.04,0.0714273701911867,394.47577636466,0.649649811074365,0.446165206377229
354,0.0711783886908454,0.00318619304923311,-0.038259908767661,-0.150711813664162,0.055932880754747,-0.0126693950271241,-0.103622544039514,0.059264121779898,0.7787252404175,0.765778784585684,0.04,0.070597204824707,371.140581570387,0.567265246621294,0.480736329018919
414,0.0857045904644873,0.00383643652866851,-0.0460680534141225,-0.181469326656848,0.0673477543781648,-0.0152549858489859,-0.124770002006762,0.0713588405104894,0.729737624944116,0.717978536541946,0.04,0.0667465612014757,347.767940207582,0.491846276078201,0.519535025590414
474,0.100230792238129,0.0044866800081038,-0.0538761980605839,-0.212226839649534,0.0787626280015825,-0.0178405766708481,-0.0890029451350738,0.0834535592410809,0.679087658772821,0.670178288498208,0.04,0.0617456371452322,323.837824000897,0.429822470452129,0.55359624149178
534,0.114756994011771,0.00513692348753915,-0.0616843427070453,-0.24298435264222,0.0901775016250003,-0.0204261674927101,-0.0420420685351603,0.0955482779716723,0.629391235722919,0.62237804045447,0.04,0.0566002516299926,300.253859465445,0.382577461433366,0.576665399000165
594,0.129283195785413,0.0057871669669745,-0.0694924873535068,-0.273741865634906,0.101592375248418,-0.0230117583145722,-0.019858981490912,0.107642996702264,0.580822525022424,0.574577792410732,0.04,0.0530899546983068,277.023467748456,0.341786437109241,0.595547509469661
