time,bias_percent_1,bias_percent_2,bias_percent_3,bias_percent_4,bias_percent_5,bias_percent_6,bias_percent_8,bias_percent_9,normalized_power,power_SP,SP,CV,total_power_MW,fuel_fraction,thermal_efficiency
53,0,0,0,0,0,0,0,0,0.999826158240441,1,0.04,0.0399095806184678,477.019946416568,1.00000717992864,0.3505000605879
113,-0.0307406467325437,-0.021514189816559,0.0150902360788183,0.0277392889930422,0.0290370996911452,0.0155569199232153,-0.00617045670520344,-0.0266048278126768,0.992309102811633,0.988132822846833,0.04,0.0429251041845957,473.33456482856,0.980787000171467,0.354607727198097
173,-0.0655413788825935,-0.045869876401343,0.0321735222057821,0.0591422576644106,0.0619092880207434,0.0331685273834588,-0.0131558793903395,-0.05672350080816,0.979225655312633,0.974698282673437,0.04,0.0456151685103445,467.080374125077,0.952948442728766,0.360144586430841
233,-0.100342111032643,-0.0702255629861268,0.0492568083327463,0.0905452263357793,0.0947814763503417,0.0507801348437026,-0.0201413020754754,-0.0868421738036432,0.965514480243013,0.96126374250004,0.04,0.0466634011549298,460.537579174594,0.926135487466307,0.365380380993727
293,-0.135142843182692,-0.0945812495709107,0.0663400944597103,0.121948195007148,0.12765366467994,0.0683917423039463,-0.0271267247606115,-0.116960846799126,0.951754110323474,0.947829202326644,0.04,0.0466982917571716,453.972382954776,0.901255699393256,0.370114488095187
353,-0.169943575332742,-0.118936936155695,0.0834233805866743,0.153351163678516,0.160525853009538,0.08600334976419,-0.0341121474457474,-0.14707951979461,0.93802174915939,0.934394662153247,0.04,0.0461736950298781,447.416298730143,0.878462440286325,0.374234032759749
413,-0.204744307482792,-0.143292622740478,0.100506666713638,0.184754132349885,0.193398041339136,0.103614957224434,-0.0410975701308834,-0.177198192790093,0.9241280458547,0.920960121979851,0.04,0.0453496449398008,440.792334826327,0.85805763316088,0.37746114322117
473,-0.239545039632841,-0.167648309325262,0.117589952840602,0.216157101021253,0.226270229668735,0.121226564684677,-0.0480829928160194,-0.207316865785576,0.910311537191883,0.907525581806454,0.04,0.0443750672635953,434.200541639437,0.839947723680586,0.379833075237
533,-0.274345771782891,-0.192003995910046,0.134673238967566,0.247560069692622,0.259142417998333,0.138838172144921,-0.0550684155011554,-0.237435538781059,0.896396863169826,0.894091041633058,0.04,0.0433947227566898,427.628461680625,0.824115188612514,0.381270637678221
593,-0.30914650393294,-0.21635968249483,0.15175652509453,0.27896303836399,0.292014606327931,0.156449779605165,-0.0620538381862914,-0.267554211776542,0.88280517903233,0.880656501459661,0.04,0.0425041185486595,421.078749630547,0.809917093167589,0.382012378850907
653,-0.34394723608299,-0.240715369079614,0.168839811221494,0.310366007035359,0.324886794657529,0.174061387065408,-0.0690392608714274,-0.297672884772025,0.869216947989882,0.867221961286264,0.04,0.0417298226070067,414.605426701633,0.797387875004592,0.382049847745014
713,-0.378747968233039,-0.265071055664398,0.185923097348458,0.341768975706727,0.357758982987128,0.191672994525652,-0.0760246835565634,-0.319637702851157,0.855204586124558,0.853787421112868,0.04,0.0414144117039025,407.901982336896,0.786493539100857,0.381079277258196
773,-0.413548700383089,-0.289426742249182,0.203006383475422,0.373171944378096,0.390631171316726,0.209284601985896,-0.0830101062416994,-0.314821520448704,0.841305523689128,0.840352880939471,0.04,0.041584047643062,401.280094682756,0.779787733781381,0.37811673069369
833,-0.448349432533138,-0.313782428833966,0.220089669602386,0.404574913049464,0.423503359646324,0.226896209446139,-0.0899955289268353,-0.310176943644849,0.827987544832388,0.826918340766075,0.04,0.0422479777280002,394.927422750714,0.773019508135404,0.375388974900675
893,-0.483150164683188,-0.338138115418749,0.23717295572935,0.435977881720833,0.456375547975922,0.244507816906383,-0.0969809516119713,-0.304571060049389,0.814741346447845,0.813483800592679,0.04,0.0433085595958626,388.607807610775,0.765197337540425,0.373157992396009
