time,bias_percent_1,bias_percent_2,bias_percent_3,bias_percent_4,bias_percent_5,bias_percent_6,bias_percent_8,bias_percent_9,normalized_power,power_SP,SP,CV,total_power_MW,fuel_fraction,thermal_efficiency
3,0,0,0,0,0,0,0,0,1.00359760546208,1,0.04,0.0418599618805883,478.147104453644,0.993589331857457,0.35359758203579
63,-0.000907086925979456,0.00141633555430371,-0.00121115752738558,-0.000956239804187021,0.00156388170930131,-0.000464295403116807,-0.0011871853446417,-0.000780836499825227,0.999862381804444,0.99756376460739,0.04,0.0400604513197419,477.022969135797,0.99731823142579,0.351447298493996
123,-0.0190488254455706,0.0297430466403772,-0.0254343080750999,-0.0200810358879288,0.0328415158953267,-0.009750203465455,-0.0249308922374771,-0.0163975664963307,0.965034419502147,0.948839056755198,0.04,0.052993018286018,460.054584505172,0.911073862641759,0.371031217627892
183,-0.0371905639651616,0.0580697577264508,-0.049657458622814,-0.0392058319716706,0.0641191500813521,-0.0190361115277933,-0.0486745991303124,-0.0320142964928362,0.916790125522548,0.900114348903006,0.04,0.0634491899145337,437.005076631188,0.808087741064067,0.397358621164223
243,-0.0553323024847526,0.0863964688125243,-0.0738806091705284,-0.0583306280554124,0.0953967842673774,-0.0283220195901316,-0.0724183060231477,-0.0476310264893417,0.867053053320538,0.851389641050813,0.04,0.0686249344325299,413.274611404328,0.709480520156291,0.428009025076376
303,-0.0734740410043438,0.114723179898598,-0.0981037597182426,-0.077455424139154,0.126674418453403,-0.0376079276524698,-0.0961620129159831,-0.0632477564858471,0.817121345709379,0.802664933198621,0.04,0.0695077616364623,389.451045170527,0.617759506005889,0.46322086474457
363,-0.0916157795239348,0.143049890984671,-0.122326910265957,-0.0965802202228959,0.157952052639428,-0.0468938357148079,-0.119905719808818,-0.0788644864823526,0.766940183188546,0.753940225346428,0.04,0.0663352614497276,365.796053806783,0.534553357197856,0.502808523185991
423,-0.109757518043526,0.171376602070745,-0.146550060813671,-0.115705016306638,0.189229686825454,-0.0561797437771461,-0.143649426701654,-0.094481216478858,0.716943863020032,0.705215517494236,0.04,0.0601380222586066,342.017933608415,0.459276083871753,0.547179381616827
483,-0.127899256563117,0.199703313156818,-0.170773211361385,-0.134829812390379,0.220507321011479,-0.0654656518394845,-0.106607747629644,-0.106607747629644,0.665442822163861,0.656490809642044,0.04,0.0531292717070577,317.320519919564,0.398161831759354,0.585589401307157
543,-0.146040995082708,0.228030024242892,-0.194996361909099,-0.153954608474121,0.251784955197504,-0.0747515599018226,-0.0636648758514366,-0.0636648758514366,0.613669367243066,0.607766101789851,0.04,0.0457740233783106,292.740943257713,0.358937349948061,0.599265798323057
