time,bias_percent_1,bias_percent_2,bias_percent_3,bias_percent_4,bias_percent_5,bias_percent_6,bias_percent_8,bias_percent_9,normalized_power,power_SP,SP,CV,total_power_MW,fuel_fraction,thermal_efficiency
24,0,0,0,0,0,0,0,0,0.999553990091873,1,0.04,0.0400222271187043,476.897243210864,0.999393569683775,0.3506250475005
84,-0.00853231132689371,-0.00097574797430434,0.0126226944428894,0.00896404725689717,0.0104759062490845,0.00528144261557065,-0.00084181773958727,-0.0141256616810011,0.991654762286241,0.982416973145829,0.04,0.0443344466840734,472.87133840341,0.976928008961826,0.355660067449627
144,-0.029863089644128,-0.00341511791006496,0.044179430550113,0.0313741653991401,0.0366656718717955,0.0184850491544971,-0.00294636208855536,-0.0494398158835037,0.952603439547736,0.9384594060104,0.04,0.0575674712320939,454.141799122661,0.89394858665635,0.37327904496617
204,-0.0511938679613621,-0.0058544878458257,0.0757361666573366,0.0537842835413832,0.0628554374945066,0.0316886556934238,-0.00505090643752351,-0.0847539700860064,0.908171103829272,0.894501838874971,0.04,0.0665459137242885,432.930434002531,0.808106294665314,0.393644604713407
264,-0.0725246462785965,-0.00829385778158644,0.10729290276456,0.076194401683626,0.0890452031172177,0.0448922622323502,-0.0071554507864916,-0.120068124288509,0.863086269946196,0.850544271739543,0.04,0.071095190368364,411.420550827097,0.728346588628276,0.415052053714202
324,-0.0938554245958306,-0.0107332277173472,0.138849638871784,0.098604519825869,0.115234968739929,0.0580958687712766,-0.00925999513545969,-0.155382278491012,0.818145850260966,0.806586704604114,0.04,0.0725698627065283,389.980289481297,0.654827043410977,0.437593363348299
384,-0.115186202913065,-0.0131725976531078,0.170406374979008,0.121014637968112,0.14142473436264,0.0712994753102033,-0.0113645394844278,-0.190696432693514,0.773240436044165,0.762629137468686,0.04,0.0718955135643067,368.555935104078,0.587019236448659,0.46132368495916
444,-0.136516981230299,-0.0156119675888685,0.201963111086231,0.143424756110355,0.167614499985351,0.0845030818491299,-0.0134690838333959,-0.111690686568748,0.72589458350709,0.718671570333257,0.04,0.0716763365569615,345.946060131955,0.538009458801506,0.472468821129794
504,-0.157847759547533,-0.0180513375246294,0.233519847193455,0.165834874252598,0.193804265608062,0.0977066883880563,-0.015573628182364,-0.0527890940227426,0.680268805853286,0.674714003197828,0.04,0.0714840140633563,324.196611239671,0.499482473219952,0.47691709920025
564,-0.179178537864768,-0.0204907074603901,0.265076583300678,0.188244992394841,0.219994031230773,0.110910294926983,-0.0176781725313321,-0.0249354202397001,0.63555184642074,0.6307564360624,0.04,0.0737173969359632,302.869034164061,0.467392733375582,0.476132243598829
624,-0.200509316182002,-0.0229300773961508,0.296633319407902,0.210655110537084,0.246183796853484,0.124113901465909,-0.0117783387979049,-0.0117783387979049,0.591131396527029,0.586798868926971,0.04,0.0789133358641463,281.677556172456,0.43818696244686,0.472332107868517
684,-0.221840094499236,-0.0253694473319115,0.328190055515126,0.233065228679327,0.272373562476196,0.137317508004836,-0.00556340308010859,-0.00556340308010859,0.547167248634903,0.542841301791543,0.04,0.0863134672919461,260.704606042023,0.410156640094728,0.467039522558522
744,-0.24317087281647,-0.0278088172676723,0.359746791622349,0.25547534682157,0.298563328098907,0.150521114543762,-0.00262768924819249,-0.00262768924819249,0.503382954140111,0.498883734656114,0.04,0.095911294988166,239.817237914262,0.381477974906178,0.461918764034969
804,-0.264501651133705,-0.030248187203433,0.391303527729573,0.277885464963813,0.324753093721618,0.163724721082689,-0.00124096426863122,-0.00124096426863122,0.4597036862655,0.454926167520686,0.04,0.10780785951634,219.201534733256,0.351686612431236,0.457975694964091
864,-0.285832429450939,-0.0326875571391937,0.422860263836796,0.300295583106056,0.350942859344329,0.176928327621616,-0.000585925586245869,-0.000585925586245869,0.416593126423122,0.410968600385257,0.04,0.122910008865726,198.630478677609,0.318516082868729,0.458214891695168
924,-0.298630896441279,-0.0341511791006502,0.441794305501131,0.313741653991401,0.366656718717956,0.184850491544971,-0.000276507506620207,-0.000276507506620207,0.379864825050762,0.384594060104,0.04,0.126382293628519,181.187747913134,0.310029898921634,0.429417683211532
984,-0.298630896441279,-0.0341511791006502,0.441794305501131,0.313741653991401,0.366656718717956,0.184850491544971,-0.000130348460170086,-0.000130348460170086,0.37774789375525,0.384594060104,0.04,0.0916653651552392,180.224724719856,0.35044506206618,0.37787581961335
1044,-0.298630896441279,-0.0341511791006502,0.441794305501131,0.313741653991401,0.366656718717956,0.184850491544971,-6.13081428109383e-05,-6.13081428109383e-05,0.37857813523625,0.384594060104,0.04,0.0746923526129336,180.630085325799,0.388806108896667,0.341359256115189
1104,-0.298630896441279,-0.0341511791006501,0.441794305501131,0.313741653991401,0.366656718717956,0.184850491544971,-2.87041414929076e-05,-2.87041414929076e-05,0.380031687808382,0.384594060104,0.04,0.069245926268887,181.324905778485,0.419217021410998,0.317814149611702
1164,-0.298630896441279,-0.0341511791006502,0.441794305501131,0.313741653991401,0.366656718717956,0.184850491544971,-1.32949941918931e-05,-1.32949941918931e-05,0.381346296259936,0.384594060104,0.04,0.0685877639147378,181.949264946392,0.441220403314851,0.303004720515383
1224,-0.298630896441279,-0.0341511791006502,0.441794305501131,0.313741653991401,0.366656718717956,0.184850491544971,-6.01626293485051e-06,-6.01626293485051e-06,0.382292202765028,0.384594060104,0.04,0.0694474174382122,182.397791820065,0.456795766107486,0.293394644830177
1284,-0.298630896441279,-0.0341511791006502,0.441794305501131,0.313741653991401,0.366656718717956,0.184850491544971,-2.57805005536429e-06,-2.57805005536429e-06,0.382943577296879,0.384594060104,0.04,0.0705442915252105,182.706662661734,0.467914427659915,0.28690797794035
1344,-0.298630896441279,-0.0341511791006502,0.441794305501131,0.313741653991401,0.366656718717956,0.184850491544971,-9.53960995443696e-07,-9.53960995443696e-07,0.383400098788998,0.384594060104,0.04,0.0714944084462739,182.923229372055,0.475936156119688,0.282406596929135
1404,-0.298630896441279,-0.0341511791006502,0.441794305501131,0.313741653991401,0.366656718717956,0.184850491544971,-1.86799284692408e-07,-1.86799284692408e-07,0.383727359541913,0.384594060104,0.04,0.0722344167489068,183.078521727444,0.481754200346209,0.279232885004728
1464,-0.298630896441279,-0.0341511791006502,0.441794305501131,0.313741653991401,0.366656718717956,0.184850491544971,1.75580528685324e-07,1.75580528685324e-07,0.383964698118789,0.384594060104,0.04,0.0727899879415734,183.191155974445,0.485979176049802,0.276975604606885
1524,-0.298630896441279,-0.0341511791006501,0.441794305501131,0.313741653991401,0.366656718717956,0.184850491544971,3.46755819765843e-07,3.46755819765843e-07,0.384137341246754,0.384594060104,0.04,0.0732011190251212,183.273088186248,0.489045985454932,0.275361789895205
1584,-0.298630896441279,-0.0341511791006501,0.441794305501131,0.313741653991401,0.366656718717956,0.184850491544972,4.2761291829842e-07,4.2761291829842e-07,0.384263452000552,0.384594060104,0.04,0.0735032763614525,183.333002511611,0.491269779189077,0.274204942338634
1644,-0.298630896441279,-0.0341511791006502,0.441794305501131,0.313741653991401,0.366656718717956,0.184850491544971,4.65806925983977e-07,4.65806925983977e-07,0.384374783392424,0.384594060104,0.04,0.0737503706607778,183.385997384208,0.492805507086363,0.273429454160876
1704,-0.298630896441279,-0.0341511791006502,0.441794305501131,0.313741653991401,0.366656718717955,0.184850491544971,4.83848412131254e-07,4.83848412131254e-07,0.384456431891152,0.384594060104,0.04,0.0739706969602076,183.424675053735,0.493781047067562,0.272946807122455
1764,-0.298630896441279,-0.0341511791006502,0.441794305501131,0.313741653991401,0.366656718717956,0.184850491544971,4.92370566315284e-07,4.92370566315284e-07,0.384507387984704,0.384594060104,0.04,0.0741437111178807,183.448786021389,0.49439292155778,0.272644834676529
1824,-0.2973859296162,-0.0258737077756329,0.438514921850414,0.314252796965213,0.359909147597219,0.191186532237151,4.96396127809693e-07,4.96396127809693e-07,0.386332571979995,0.390795864854233,0.04,0.0709405406182081,184.3906414531,0.505446338513905,0.26805165721908
1884,-0.294273512553502,-0.00518002946308974,0.430316462723621,0.315530654399741,0.343040219795379,0.2070266339676,2.16646202436084e-07,2.16646202436084e-07,0.399885207491665,0.406300376729817,0.04,0.060539806653666,190.852479664679,0.544144071741877,0.257714337913662
1944,-0.291161095490803,0.0155136488494533,0.422118003596829,0.316808511834269,0.326171291993538,0.222866735698049,0.00617471794769081,3.66153655723409e-07,0.416361825439949,0.421804888605401,0.04,0.0562483881672431,198.782559378852,0.579418335621286,0.252081352299529
2004,-0.288048678428105,0.0362073271619964,0.413919544470037,0.318086369268798,0.309302364191697,0.238706837428497,0.021024025794876,4.36775746171656e-07,0.432922243210596,0.437309400480985,0.04,0.0558732969859788,206.677480785321,0.608323834960598,0.249639326640341
2064,-0.284936261365407,0.0569010054745396,0.405721085343245,0.319364226703326,0.292433436389857,0.254546939158946,0.0358733336420611,4.70135118864542e-07,0.449240639195986,0.452813912356569,0.04,0.0568159305508334,214.461420682475,0.632107378676656,0.24929467098022
2124,-0.281823844302708,0.0775946837870828,0.397522626216452,0.320642084137854,0.275564508588016,0.270387040889395,0.0507226414892462,4.85892895981713e-07,0.465264030780726,0.468318424232153,0.04,0.0581000295917293,222.103654828845,0.652111889656541,0.250258169060119
2184,-0.27871142724001,0.0982883620996259,0.38932416708966,0.321919941572383,0.258695580786175,0.286227142619844,0.0655719493364314,4.93336307521864e-07,0.481026475623649,0.483822936107736,0.04,0.0591919531279141,229.622365157814,0.67009692555047,0.251785801955374
2244,-0.275599010177312,0.118982040412169,0.381125707962868,0.323197799006911,0.241826652984334,0.302067244350293,0.0804212571836165,4.96852309489914e-07,0.496647685697329,0.49932744798332,0.04,0.0599839256076543,237.074489314724,0.687142641739938,0.253508543316894
2304,-0.272486593114613,0.139675718724712,0.372927248836076,0.324475656441439,0.224957725182494,0.317907346080742,0.0952705650308017,4.98513143339103e-07,0.512202168849369,0.514831959858904,0.04,0.0605360586387996,244.495181682372,0.703777027319305,0.255264190569551
2364,-0.269374176051915,0.160369397037255,0.364728789709283,0.325753513875968,0.208088797380653,0.333747447811191,0.110119872877987,0.021483279913056,0.527136673476195,0.530336471734488,0.04,0.0615190671864374,251.609864598579,0.721421815368328,0.256267226871842
2424,-0.266261758989216,0.181063075349799,0.356530330582491,0.327031371310496,0.191219869578812,0.349587549541639,0.124969180725172,0.0763642840351936,0.54209765451676,0.545840983610072,0.04,0.0626408357824177,258.757577530081,0.744154173019138,0.255496427190108
2484,-0.263149341926518,0.201756753662342,0.348331871455699,0.328309228745024,0.174350941776971,0.365427651272088,0.139818488572357,0.131245288157331,0.55767573211486,0.561345495485655,0.04,0.0640495074486569,266.191452790125,0.767193821793707,0.254943348678118
2544,-0.26003692486382,0.222450431974885,0.340133412328906,0.329587086179553,0.157482013975131,0.381267753002537,0.154667796419542,0.186126292279469,0.573302007918728,0.576850007361239,0.04,0.0657594817343736,273.646429693371,0.789485460355983,0.25468321661251
2604,-0.256924507801121,0.243144110287428,0.331934953202114,0.330864943614081,0.14061308617329,0.397107854732986,0.169517104266727,0.241007296401606,0.588868956501082,0.592354519236823,0.04,0.0675292310345061,281.072909849853,0.811269598291954,0.254570728071539
2664,-0.253812090738423,0.263837788599971,0.323736494075322,0.332142801048609,0.123744158371449,0.412947956463435,0.184366412113912,0.295888300523744,0.604380155703914,0.607859031112407,0.04,0.069217718311649,288.472948300921,0.832909374846317,0.254484900482821
2724,-0.251944640500804,0.276253995587497,0.318817418599246,0.332909515509326,0.113622801690345,0.422452017501704,0.193275996822224,0.328816902997026,0.620646775435756,0.623363542987991,0.04,0.0699805079610691,296.24752920267,0.853044858726563,0.255174659144864
2784,-0.251944640500804,0.276253995587497,0.318817418599246,0.332909515509326,0.113622801690345,0.422452017501704,0.193275996822224,0.328816902997026,0.636920536704277,0.638868054863575,0.04,0.070143465163923,303.999325647415,0.866317020217738,0.257840093266779
2844,-0.251944640500804,0.276253995587497,0.318817418599246,0.332909515509326,0.113622801690345,0.422452017501704,0.193275996822224,0.328816902997026,0.652386377486873,0.654372566739158,0.04,0.0699129759854415,311.375709368735,0.878785748133942,0.260349292111986
2904,-0.251944640500804,0.276253995587497,0.318817418599246,0.332909515509326,0.113622801690345,0.422452017501704,0.193275996822224,0.328816902997026,0.667747356816132,0.669877078614742,0.04,0.0692266029821384,318.704528802214,0.892052527048832,0.262514008338278
2964,-0.251944640500804,0.276253995587497,0.318817418599246,0.332909515509327,0.113622801690345,0.422452017501704,0.193275996822224,0.328816902997026,0.683147615484534,0.685381590490326,0.04,0.0683340014932204,326.052372931745,0.906042225888983,0.264419575201114
3024,-0.251944640500804,0.276253995587497,0.318817418599246,0.332909515509327,0.113622801690345,0.422452017501704,0.193275996822224,0.328816902997026,0.698588537080399,0.70088610236591,0.04,0.0673894624646472,333.419485875676,0.920488188762382,0.266150590184353
3084,-0.251944640500804,0.276253995587497,0.318817418599246,0.332909515509326,0.113622801690345,0.422452017501704,0.193275996822224,0.328816902997026,0.714052589805542,0.716390614241494,0.04,0.0664541971518984,340.797512732224,0.935216573358574,0.267755806856935
3144,-0.251944640500804,0.276253995587497,0.318817418599246,0.332909515509327,0.113622801690345,0.422452017501704,0.193275996822224,0.328816902997026,0.729528047154574,0.731895126117077,0.04,0.0655452501511473,348.180914388125,0.950138562752283,0.26926052785844
3204,-0.251944640500804,0.276253995587497,0.318817418599246,0.332909515509326,0.113622801690345,0.422452017501704,0.193275996822224,0.328816902997026,0.745009104081244,0.747399637992661,0.04,0.0646642842161867,355.56695785002,0.965210872850716,0.270678565884581
3264,-0.251944640500804,0.276253995587497,0.318817418599246,0.332909515509326,0.113622801690345,0.422452017501704,0.193275996822224,0.328816902997026,0.760493096072208,0.762904149868245,0.04,0.0638090845516293,362.954388905894,0.980411426243198,0.272018451810109
3324,-0.251944640500804,0.276253995587497,0.318817418599247,0.332909515509326,0.113622801690345,0.422452017501704,0.193275996822224,0.328816902997026,0.775978748498354,0.778408661743829,0.04,0.06297712624542,370.342603427768,0.995728089275135,0.273286131395093
3384,-0.251944640500804,0.276253995587497,0.318817418599246,0.332909515509326,0.113622801690345,0.422452017501704,0.193275996822224,0.328816902997026,0.791465377028428,0.793913173619413,0.04,0.0621663694340023,377.731278042861,1.01115380749805,0.274486129194553
3444,-0.251944640500804,0.276253995587497,0.318817418599246,0.332909515509326,0.113622801690345,0.422452017501704,0.193275996822224,0.328816902997026,0.806952577364212,0.809417685494997,0.04,0.0613752541510372,385.120225778736,1.02668441250809,0.275622098744733
3504,-0.251944640500804,0.276253995587497,0.318817418599246,0.332909515509326,0.113622801690345,0.422452017501704,0.193275996822224,0.328816902997026,0.822440102876456,0.82492219737058,0.04,0.0606025931906413,392.509325838127,1.04231749339724,0.276697114034876
3564,-0.251944640500804,0.276253995587497,0.318817418599246,0.332909515509326,0.113622801690345,0.422452017501704,0.193275996822224,0.328816902997026,0.83792778656706,0.840426709246164,0.04,0.0598474368895472,399.898500551841,1.05805179596198,0.277713839826902
3624,-0.250228098540431,0.261329584413471,0.303699917146863,0.312934928870135,0.115075134008773,0.41290064364861,0.195116126399117,0.331411348275747,0.851618131009285,0.849729416371515,0.04,0.0595010840264314,406.365999331474,1.06345578072091,0.280771229191481
3684,-0.245936743639498,0.224018556478405,0.265906163515903,0.262998462272158,0.118705964804841,0.389022209015874,0.199716450341349,0.33789746147255,0.854886322678421,0.849729416371515,0.04,0.0612963553787655,407.871714369471,1.03592395714381,0.289301301722686
3744,-0.241645388738565,0.18670752854334,0.228112409884943,0.213061995674181,0.12233679560091,0.365143774383139,0.204316774283582,0.344383574669352,0.854789075756342,0.849729416371515,0.04,0.0614143454451081,407.815857076784,1.00479188530424,0.298224051267737
3804,-0.237354033837632,0.149396500608274,0.190318656253983,0.163125529076204,0.125967626396979,0.341265339750403,0.208917098225815,0.350869687866154,0.85426249848415,0.849729416371515,0.04,0.0596620047849046,407.564817604472,0.97653127739163,0.306665701336808
3864,-0.233062678936699,0.112085472673209,0.152524902623024,0.113189062478227,0.129598457193048,0.317386905117667,0.213517422168047,0.357355801062957,0.853866435678133,0.849729416371515,0.04,0.056817977227557,407.377188682913,0.950982438714532,0.314759528394276
