time,bias_percent_1,bias_percent_2,bias_percent_3,bias_percent_4,bias_percent_5,bias_percent_6,bias_percent_8,bias_percent_9,normalized_power,power_SP,SP,CV,total_power_MW,fuel_fraction,thermal_efficiency
27,0,0,0,0,0,0,0,0,0.999586606986644,1,0.04,0.0400160422788015,476.903131349477,0.999489637355747,0.350595675238032
87,-0.00916258193447356,0.00308026117811926,-0.00200520077884107,-0.0051110042941491,0.0158031492814192,0.00504565860608727,0.0149574548674115,-0.0127868613551328,0.991656762729559,0.983702445135658,0.04,0.0439565061015694,472.906525669214,0.978529427159068,0.355104431872835
147,-0.0295238751221924,0.00992528601838455,-0.00646120250959871,-0.0164687916144802,0.0509212587956841,0.0162582332862813,0.0481962434616593,-0.0412021088109835,0.958933808623967,0.947485656548232,0.04,0.0541283965717661,457.221765029769,0.91084150116679,0.368840635591902
207,-0.0498851683099115,0.0167703108586498,-0.0109172042403565,-0.0278265789348115,0.0860393683099489,0.0274708079664751,0.0814350320559071,-0.0696173562668343,0.922289714601175,0.911268867960805,0.04,0.0605520102506072,439.729872931187,0.841552056654487,0.383936729309476
267,-0.0702464614976304,0.0236153356989149,-0.0153732059711141,-0.0391843662551428,0.121157477824214,0.0386833826466691,0.114673820650155,-0.0980326037226849,0.885197556748293,0.875052079373379,0.04,0.0634548224408935,422.032751558582,0.777050558091071,0.399072273306726
327,-0.0906077546853494,0.0304603605391802,-0.0198292077018718,-0.050542153575474,0.156275587338479,0.0498959573268631,0.147912609244403,-0.126447851178536,0.848117886776357,0.838835290785952,0.04,0.0639401413026455,404.342492238022,0.717797615896617,0.413906311049051
387,-0.110969047873068,0.0373053853794453,-0.0242852094326297,-0.0618999408958052,0.191393696852743,0.061108532007057,0.18115139783865,-0.154863098634386,0.811144695480402,0.802618502198526,0.04,0.062881602918782,386.703396030704,0.663328035036456,0.428355462537904
447,-0.131330341060787,0.0441504102197107,-0.0287412111633873,-0.0732577282161365,0.226511806367008,0.072321106687251,0.214390186432898,-0.183278346090237,0.774206599215536,0.766401713611099,0.04,0.0608671277193608,369.080256782446,0.613210431501367,0.442248080105349
507,-0.151691634248506,0.0509954350599759,-0.0331972128941451,-0.0846155155364676,0.261629915881273,0.0835336813674451,0.247628975027146,-0.133947790864152,0.735459417033082,0.730184925023673,0.04,0.0597407631088667,350.590929479382,0.575535581124907,0.447592884741361
567,-0.172052927436225,0.0578404599002412,-0.0376532146249028,-0.0959733028567989,0.296748025395538,0.094746256047639,0.280867763621394,-0.0809035161985015,0.698642207395451,0.693968136436247,0.04,0.058633166082658,333.031779073521,0.544826981586737,0.449140012336856
627,-0.192414220623944,0.0646854847405064,-0.0421092163556606,-0.10733109017713,0.331866134909803,0.105958830727833,0.314106552215642,-0.0387871444507804,0.662041016833053,0.65775134784882,0.04,0.0590712608620841,315.567374703877,0.51635331684599,0.449055274631713
687,-0.212775513811663,0.0715305095807715,-0.0465652180864183,-0.118688877497461,0.366984244424068,0.117171405408027,0.347345340809889,-0.0183213989692173,0.625471772396803,0.621534559261394,0.04,0.0611218700551596,298.12289513965,0.490351935942178,0.446726907712735
747,-0.233136806999382,0.0783755344210367,-0.051021219817176,-0.130046664817793,0.402102353938333,0.128383980088221,0.380584129404137,-0.00865411119362728,0.589106215061839,0.585317770673967,0.04,0.0645029128688323,280.773827817136,0.465563583127231,0.443131167517169
807,-0.253498100187101,0.0852205592613019,-0.0554772215479338,-0.141404452138124,0.437220463452598,0.139596554768415,0.413822917998385,-0.00408762945856239,0.552829846664407,0.549100982086541,0.04,0.0689367033538649,263.466912480468,0.441291483576289,0.438687451960678
867,-0.27385939337482,0.0920655841015671,-0.0599332232786915,-0.152762239458455,0.472338572966863,0.150809129448609,0.447061706592633,-0.00193058645738705,0.516668118245409,0.512884193499115,0.04,0.0743017280988417,246.216039744702,0.41702858663762,0.433815626523467
927,-0.285058104628066,0.095830347763713,-0.0623840242306083,-0.159009022484637,0.491653533199708,0.156976045522715,0.465343040319469,-0.000911676325065655,0.489720335644581,0.49296495977603,0.04,0.069633635464141,233.621346853845,0.414020260742808,0.414615568131301
