time,bias_percent_1,bias_percent_2,bias_percent_3,bias_percent_4,bias_percent_5,bias_percent_6,bias_percent_8,bias_percent_9,normalized_power,power_SP,SP,CV,total_power_MW,fuel_fraction,thermal_efficiency
59,0,0,0,0,0,0,0,0,0.999862439718101,1,0.04,0.0399021624100542,477.036692657883,1.00007366081419,0.350489064571562
119,0,0,0,0,0,0,0,0,0.99998432764244,1,0.04,0.039914801786947,477.092793050805,1.00029567711152,0.350452482298873
179,0,0,0,0,0,0,0,0,0.99999900210608,1,0.04,0.0399541885646546,477.099562702134,1.00031800690051,0.350449631849405
239,0,0,0,0,0,0,0,0,1.00000181462869,1,0.04,0.0399802852501297,477.100879329992,1.00031138913459,0.35045291744585
299,0,0,0,0,0,0,0,0,1.00000312286793,1,0.04,0.0399956287986351,477.101497588317,1.00029497330061,0.350459122873403
359,0,0,0,0,0,0,0,0,1.00000381030679,1,0.04,0.04000417299978,477.101821183655,1.00027324095886,0.350466974795296
419,0,0,0,0,0,0,0,0,1.00000398978269,1,0.04,0.0400084313558907,477.101903238075,1.00024944588285,0.350475372380436
479,0,0,0,0,0,0,0,0,1.00000379345509,1,0.04,0.0400099869465423,477.101807179646,1.00022613182141,0.350483470972067
539,0,0,0,0,0,0,0,0,1.00000336466502,1,0.04,0.0400098936774322,477.101601322183,1.00020498112601,0.350490731193973
599,0,0,0,0,0,0,0,0,1.00000282478174,1,0.04,0.0400088724496061,477.101343143499,1.00018689419109,0.350496879644534
659,0,0,0,0,0,0,0,0,1.00000226054608,1,0.04,0.0400074129405884,477.101074092828,1.00017217878649,0.350501838802222
719,0,0,0,0,0,0,0,0,1.00000172925194,1,0.04,0.0400058357104472,477.100821001083,1.00016074027793,0.350505661440437
779,0,0,0,0,0,0,0,0,1.00000126243861,1,0.04,0.0400043371946048,477.100598900836,1.00015224609433,0.350508475077687
839,0,0,0,0,0,0,0,0,1.00000087418173,1,0.04,0.040003025072444,477.100414313094,1.00014624583095,0.350510442302604
899,0,0,0,0,0,0,0,0,1.00000056621333,1,0.04,0.0400019456339795,477.100268014453,1.00014225652575,0.350511732915478
959,0,0,0,0,0,0,0,0,1.00000033273101,1,0.04,0.0400011047026284,477.100157171664,1.00013981653741,0.350512506607275
1019,0,0,0,0,0,0,0,0,1.00000016393739,1,0.04,0.0400004841777095,477.100077102781,1.00013851633842,0.350512903455656
1079,0,0,0,0,0,0,0,0,1.00000004842256,1,0.04,0.0400000531790029,477.100022368183,1.00013801265588,0.35051303976643
1139,0,0,0,0,0,0,0,0,0.999999974760615,1,0.04,0.0399997761975741,477.099987512412,1.00013803127364,0.350513007633932
1199,0,0,0,0,0,0,0,0,0.99999993254028,1,0.04,0.0399996180380037,477.099967579641,1.0001383628132,0.350512876796997
1259,0,0,0,0,0,0,0,0,0.999999912824316,1,0.04,0.0399995469107865,477.099958320491,1.00013885470621,0.350512697603647
1319,0,0,0,0,0,0,0,0,0.999999908338509,1,0.04,0.0399995358624317,477.099956277714,1.00013940151218,0.350512504467151
1379,0,0,0,0,0,0,0,0,0.999999913391017,1,0.04,0.039999563236176,477.09995874505,1.00013993511401,0.350512319271892
1439,0,0,0,0,0,0,0,0,0.999999923761129,1,0.04,0.0399996124717198,477.099963716092,1.00014041560307,0.350512154530289
1499,0,0,0,0,0,0,0,0,0.999999936464446,1,0.04,0.0399996715543372,477.099969791597,1.00014082343412,0.35051201606418
1559,0,0,0,0,0,0,0,0,0.999999949494166,1,0.04,0.0399997322264355,477.099976005141,1.0001411529759,0.350511905137044
1619,0,0,0,0,0,0,0,0,0.999999961623967,1,0.04,0.0399997892632253,477.099981781524,1.00014140743703,0.350511820201743
1679,0,0,0,0,0,0,0,0,0.99999997219052,1,0.04,0.0399998397204991,477.099986808836,1.00014159507733,0.350511758134334
1739,0,0,0,0,0,0,0,0,0.999999980925169,1,0.04,0.039999882295243,477.099990961293,1.00014172649795,0.350511715127081
1799,0,0,0,0,0,0,0,0,0.999999987822955,1,0.04,0.0399999168044051,477.099994238007,1.00014181280962,0.350511687285427
1859,0,0,0,0,0,0,0,0,0.999999993035401,1,0.04,0.0399999437643094,477.099996712424,1.00014186449354,0.350511670990061
1919,0,0,0,0,0,0,0,0,0.999999996795881,1,0.04,0.0399999640807919,477.099998496028,1.00014189076622,0.350511663092852
1979,0,0,0,0,0,0,0,0,0.999999999367234,1,0.04,0.0399999788254256,477.099999714439,1.00014189930597,0.350511660995125
2039,0,0,0,0,0,0,0,0,1.0000000010079,1,0.04,0.0399999890859143,477.100000490822,1.00014189621808,0.350511662647699
2099,0,0,0,0,0,0,0,0,1.00000000195159,1,0.04,0.0399999958730923,477.100000936351,1.00014188614753,0.350511666504361
2159,0,0,0,0,0,0,0,0,1.00000000239798,1,0.04,0.0400000000702399,477.100001146005,1.00014187246933,0.350511671452074
2219,0,0,0,0,0,0,0,0,1.00000000250869,1,0.04,0.0400000024133612,477.100001196708,1.00014185751182,0.350511676731365
2279,0,0,0,0,0,0,0,0,1.00000000240811,1,0.04,0.0400000034894942,477.10000114754,1.00014184277899,0.350511681858537
2339,0,0,0,0,0,0,0,0,1.00000000219024,1,0.04,0.0400000037486864,477.100001042169,1.0001418291511,0.350511686557184
2399,0,0,0,0,0,0,0,0,1.00000000192061,1,0.04,0.0400000035273611,477.10000091412,1.00014181706202,0.350511690699872
2459,0,0,0,0,0,0,0,0,1.00000000164229,1,0.04,0.0400000030561915,477.100000781383,1.00014180664161,0.350511694254312
2519,0,0,0,0,0,0,0,0,1.00000000138307,1,0.04,0.040000002494117,477.100000657926,1.00014179782478,0.350511697253574
2579,0,0,0,0,0,0,0,0,1.00000000115711,1,0.04,0.0400000019392503,477.1000005504,1.0001417904377,0.35051169976347
2639,0,0,0,0,0,0,0,0,1.00000000096975,1,0.04,0.0400000014472106,477.100000461293,1.00014178425555,0.350511701864612
2699,0,0,0,0,0,0,0,0,1.00000000082149,1,0.04,0.0400000010436241,477.100000390931,1.00014177904184,0.350511703640129
2759,0,0,0,0,0,0,0,0,1.000000000709,1,0.04,0.0400000007340417,477.100000337709,1.00014177457408,0.350511705166809
2819,0,0,0,0,0,0,0,0,1.00000000062742,1,0.04,0.0400000005130802,477.10000029878,1.00014177065646,0.350511706511184
2879,0,0,0,0,0,0,0,0,1.00000000057068,1,0.04,0.0400000003680204,477.100000271911,1.0001417671275,0.350511707728211
2939,0,0,0,0,0,0,0,0,1.00000000053361,1,0.04,0.0400000002842684,477.100000254352,1.00014176385833,0.35051170886103
2999,0,0,0,0,0,0,0,0,1.00000000051105,1,0.04,0.040000000247075,477.100000243668,1.00014176075198,0.35051170994184
3059,0,0,0,0,0,0,0,0,1.00000000049889,1,0.04,0.0400000002423812,477.100000237923,1.00014175773823,0.350511710993825
3119,0,0,0,0,0,0,0,0,1.00000000049348,1,0.04,0.0400000002594529,477.100000235344,1.0001417547695,0.350511712032356
3179,0,0,0,0,0,0,0,0,1.00000000049218,1,0.04,0.0400000002892035,477.100000234818,1.00014175181546,0.35051171306725
3239,0,0,0,0,0,0,0,0,1.00000000049325,1,0.04,0.0400000003246825,477.100000235335,1.00014174885863,0.350511714103886
3299,0,0,0,0,0,0,0,0,1.00000000049538,1,0.04,0.0400000003612875,477.100000236296,1.00014174589097,0.350511715144644
3359,0,0,0,0,0,0,0,0,1.00000000049684,1,0.04,0.0400000003953326,477.100000237236,1.00014174291172,0.350511716189446
3419,0,0,0,0,0,0,0,0,1.0000000004987,1,0.04,0.0400000004255512,477.100000237968,1.00014173992146,0.350511717237959
3479,0,0,0,0,0,0,0,0,1.00000000049941,1,0.04,0.0400000004509749,477.100000238248,1.00014173692579,0.350511718288034
3539,0,0,0,0,0,0,0,0,1.0000000004992,1,0.04,0.040000000471181,477.100000238155,1.00014173392977,0.350511719337955
3599,0,0,0,0,0,0,0,0,1.0000000004981,1,0.04,0.040000000486493,477.100000237627,1.00014173093876,0.350511720385803
3659,0,0,0,0,0,0,0,0,1.00000000049621,1,0.04,0.0400000004973953,477.100000236707,1.00014172795772,0.350511721429869
3719,0,0,0,0,0,0,0,0,1.00000000049356,1,0.04,0.0400000005045296,477.100000235451,1.00014172499097,0.350511722468681
3779,0,0,0,0,0,0,0,0,1.0000000004904,1,0.04,0.0400000005086314,477.100000233943,1.00014172204194,0.350511723501096
3839,0,0,0,0,0,0,0,0,1.00000000048685,1,0.04,0.0400000005101582,477.100000232251,1.00014171911333,0.35051172452622
3899,0,0,0,0,0,0,0,0,1.00000000048309,1,0.04,0.0400000005098585,477.10000023052,1.00014171620708,0.350511725543477
3959,0,0,0,0,0,0,0,0,0.992382193968278,0.988899557401895,0.04,0.0428514682733269,473.382366509252,0.982075436447216,0.354178263290187
4019,0,0,0,0,0,0,0,0,0.981311634452099,0.977610971708907,0.04,0.0450587422574309,468.093148075352,0.959307619596243,0.358532943210523
4079,0,0,0,0,0,0,0,0,0.969831716458444,0.966322386015919,0.04,0.0459971612905432,462.615059730764,0.937233980683718,0.362682346260437
4139,0,0,0,0,0,0,0,0,0.958292488489424,0.955033800322931,0.04,0.0461049916614874,457.109526005139,0.916593326885439,0.366436104076732
4199,0,0,0,0,0,0,0,0,0.946745065976536,0.943745214629943,0.04,0.0457425994308214,451.600265299782,0.897500013273877,0.369721240047679
4259,0,0,0,0,0,0,0,0,0.935206111336891,0.932456628936955,0.04,0.0451445945237863,446.095144508354,0.879932877747884,0.372505446916066
4319,0,0,0,0,0,0,0,0,0.923687021158541,0.921168043243967,0.04,0.0444615274996222,440.599587781743,0.863794234071576,0.374790403297179
4379,0,0,0,0,0,0,0,0,0.912195441063187,0.909879457550979,0.04,0.043789223969389,435.117192677598,0.848932803241271,0.376606320833125
4439,0,0,0,0,0,0,0,0,0.900735338521441,0.898590871857991,0.04,0.043185632197941,429.649836770468,0.835166154259532,0.37800404003042
4499,0,0,0,0,0,0,0,0,0.889307530816816,0.887302286165003,0.04,0.0426814551039685,424.19788132317,0.822300792703245,0.379046475203385
4559,0,0,0,0,0,0,0,0,0.877910472326347,0.876013700472015,0.04,0.0422878248533527,418.760577508154,0.810148052584167,0.379800973827752
4619,0,0,0,0,0,0,0,0,0.866541003276433,0.864725114779027,0.04,0.0420023278249236,413.336404109318,0.798535321209273,0.380333169294912
4679,0,0,0,0,0,0,0,0,0.855194981744387,0.853436529086039,0.04,0.0418138491106728,407.923385635649,0.787313080150269,0.380702573887718
4739,0,0,0,0,0,0,0,0,0.843867909109413,0.842147943393051,0.04,0.041706392308786,402.519374936712,0.776358305105469,0.380959898767416
4799,0,0,0,0,0,0,0,0,0.832555330442026,0.830859357700063,0.04,0.0416620755257982,397.122243543438,0.765575012084642,0.3811458011444
4859,0,0,0,0,0,0,0,0,0.821253143828837,0.819570772007075,0.04,0.0416632449452233,391.730035643714,0.754892706568167,0.38129079334345
4919,0,0,0,0,0,0,0,0,0.809957790673102,0.808282186314087,0.04,0.0416939018193382,386.341064699032,0.744263420934193,0.381415970591409
4979,0,0,0,0,0,0,0,0,0.798666388548892,0.796993600621098,0.04,0.0417405207222292,380.953951503257,0.733657876332181,0.381534288971099
5039,0,0,0,0,0,0,0,0,0.78737666913781,0.785705014928111,0.04,0.0417924396286592,375.5676396531,0.723061608135336,0.381651996208712
5099,0,0,0,0,0,0,0,0,0.776087072985417,0.774416429235122,0.04,0.041841837642649,370.18136794546,0.712470986429253,0.381770220452012
5159,0,0,0,0,0,0,0,0,0.764796523838618,0.763127843542134,0.04,0.0418835310674885,364.794639325005,0.70188980491786,0.381886397802577
5219,0,0,0,0,0,0,0,0,0.753504427657942,0.751839257849146,0.04,0.0419146298069045,359.407164711696,0.691326295856121,0.381995573435831
5279,0,0,0,0,0,0,0,0,0.742210558366491,0.740550672156158,0.04,0.0419340630766135,354.018847686894,0.680790783447459,0.382091514339599
5339,0,0,0,0,0,0,0,0,0.730914929568915,0.72926208646317,0.04,0.0419421471525753,348.629694497633,0.6702939899659,0.382167477877572
5399,0,0,0,0,0,0,0,0,0.71964281310209,0.717973500770182,0.04,0.0419593923742994,343.252055035381,0.659766072670975,0.382276713246704
5459,0,0,0,0,0,0,0,0,0.708383075843877,0.706684915077194,0.04,0.0420128588002474,337.880014672304,0.649070521078373,0.382494588772021
5519,0,0,0,0,0,0,0,0,0.697117989809936,0.695396329384206,0.04,0.0420782239729065,332.505385670493,0.638220879607811,0.382809187310282
5579,0,0,0,0,0,0,0,0,0.685845721343474,0.684107743691218,0.04,0.0421347768109461,327.127332602051,0.627258373245085,0.383199594907735
5639,0,0,0,0,0,0,0,0,0.674566197379829,0.67281915799823,0.04,0.0421715118219648,321.745816308107,0.616226694992439,0.383642821774346
5699,0,0,0,0,0,0,0,0,0.663279828472215,0.661530572305242,0.04,0.0421844143186293,316.361034469468,0.60516800091653,0.384115389304812
5759,0,0,0,0,0,0,0,0,0.651987430291447,0.650241986612254,0.04,0.0421740913314158,310.973388164317,0.594120318052362,0.384594878733234
5819,0,0,0,0,0,0,0,0,0.648249495356074,0.650053843517371,0.04,0.0372588593117267,309.274093563948,0.602016550858454,0.377476385464566
5879,0,0,0,0,0,0,0,0,0.648008473121428,0.650053843517371,0.04,0.0340649908571389,309.164938290868,0.614138432678834,0.369895148875364
5939,0,0,0,0,0,0,0,0,0.648128013608383,0.650053843517371,0.04,0.0332970552126785,309.223758079968,0.626052217468814,0.362925072361092
5999,0,0,0,0,0,0,0,0,0.648428054117287,0.650053843517371,0.04,0.0340132149108637,309.367776887711,0.636475782253125,0.357147709557355
6059,0,0,0,0,0,0,0,0,0.64879540996095,0.650053843517371,0.04,0.0354391247505659,309.543308628449,0.644796317327206,0.352739055937169
6119,0,0,0,0,0,0,0,0,0.649169535555607,0.650053843517371,0.04,0.037050193467334,309.721654351543,0.650859807420452,0.349654235400371
6179,0,0,0,0,0,0,0,0,0.649505722936988,0.650053843517371,0.04,0.0385363558135227,309.881615654782,0.65481041637961,0.347724193552717
6239,0,0,0,0,0,0,0,0,0.649777922060185,0.650053843517371,0.04,0.0397360721832842,310.010920032545,0.656988512171452,0.346716007108712
6299,0,0,0,0,0,0,0,0,0.649977954173908,0.650053843517371,0.04,0.040590869824668,310.105786012839,0.657818029027835,0.346384758095974
6359,0,0,0,0,0,0,0,0,0.650109932808061,0.650053843517371,0.04,0.0411102378494071,310.168249779454,0.657720331503791,0.346505991659456
6419,0,0,0,0,0,0,0,0,0.650184570502916,0.650053843517371,0.04,0.041343490095954,310.203455804971,0.657063528584926,0.346891730117393
6479,0,0,0,0,0,0,0,0,0.650215055207854,0.650053843517371,0.04,0.0413582103741129,310.217703168343,0.656140048148409,0.347395915681216
6539,0,0,0,0,0,0,0,0,0.650214503107746,0.650053843517371,0.04,0.0412250475395398,310.21724258854,0.655162531544354,0.347913721319762
6599,0,0,0,0,0,0,0,0,0.650194555920959,0.650053843517371,0.04,0.0410079918937315,310.207612957355,0.65427025600532,0.348377381838061
6659,0,0,0,0,0,0,0,0,0.650164704908213,0.650053843517371,0.04,0.04075906088594,310.19332435446,0.653540941767516,0.348750086367456
6719,0,0,0,0,0,0,0,0,0.650132083383264,0.650053843517371,0.04,0.0405163015694108,310.177761096,0.653004656693142,0.349018987918072
6779,0,0,0,0,0,0,0,0,0.650101555828815,0.650053843517371,0.04,0.0403041441544115,310.16322698881,0.652657732088074,0.349188148510231
6839,0,0,0,0,0,0,0,0,0.650075995844408,0.650053843517371,0.04,0.0401352245852073,310.15107884745,0.652475347831288,0.3492720754575
6899,0,0,0,0,0,0,0,0,0.65005667160636,0.650053843517371,0.04,0.0400129708676774,310.141910345077,0.652421991429649,0.349290313821988
6959,0,0,0,0,0,0,0,0,0.650043666819572,0.650053843517371,0.04,0.0399343801492778,310.135754015351,0.652459431964062,0.349263337223135
7019,0,0,0,0,0,0,0,0,0.650036290463271,0.650053843517371,0.04,0.0398925914417414,310.132275403986,0.65255218878392,0.349209774373275
7079,0,0,0,0,0,0,0,0,0.650033430967086,0.650053843517371,0.04,0.03987901664611,310.13094203668,0.652670749402765,0.349144837722375
7139,0,0,0,0,0,0,0,0,0.650033836418324,0.650053843517371,0.04,0.0398849294118715,310.131156431801,0.652792944631825,0.349079723199486
7199,0,0,0,0,0,0,0,0,0.650036312782136,0.650053843517371,0.04,0.0399025108231614,310.132349983148,0.652903967041305,0.349021707501043
7259,0,0,0,0,0,0,0,0,0.650039844985812,0.650053843517371,0.04,0.0399254217602465,310.134040122622,0.652995509495844,0.348974680484407
7319,0,0,0,0,0,0,0,0,0.650043653597494,0.650053843517371,0.04,0.0399490012483907,310.135856921252,0.653064439206346,0.34893989098557
7379,0,0,0,0,0,0,0,0,0.650047202946097,0.650053843517371,0.04,0.0399702007513722,310.137546715167,0.653111331852174,0.348916738584456
7439,0,0,0,0,0,0,0,0,0.650050177395159,0.650053843517371,0.04,0.0399873559600448,310.13896049564,0.653139090397813,0.348903500041451
7499,0,0,0,0,0,0,0,0,0.65005244001562,0.650053843517371,0.04,0.0399998811833032,310.140034165915,0.653151782603323,0.348897927908921
7559,0,0,0,0,0,0,0,0,0.650053984898591,0.650053843517371,0.04,0.040007948084835,310.140765752403,0.653153756430097,0.348897696551095
7619,0,0,0,0,0,0,0,0,0.658869384057686,0.662997939423034,0.04,0.0349461417151788,314.445988524117,0.675258437995162,0.342161164369389
7679,0,0,0,0,0,0,0,0,0.671970777462216,0.676161426784726,0.04,0.0320269422490563,320.703524825863,0.701329990702669,0.335997463365357
7739,0,0,0,0,0,0,0,0,0.68538242020174,0.689324914146417,0.04,0.0315908746542233,327.102903320424,0.726192437154902,0.330969027209418
7799,0,0,0,0,0,0,0,0,0.698866680785506,0.702488401508109,0.04,0.0323758920705727,333.536769081364,0.749271950689366,0.327083712795204
7859,0,0,0,0,0,0,0,0,0.712398116746741,0.7156518888698,0.04,0.0336495131385105,339.99278685937,0.770218494535518,0.324347411922365
7919,0,0,0,0,0,0,0,0,0.725925203557394,0.728815376231491,0.04,0.0350040368556035,346.446334278449,0.788948154022627,0.322657810469171
7979,0,0,0,0,0,0,0,0,0.739404482505381,0.741978863593183,0.04,0.0362141455160876,352.876792068106,0.8056687301029,0.321826101971774
8039,0,0,0,0,0,0,0,0,0.752814728480735,0.755142350954874,0.04,0.037174344362933,359.274243095716,0.820762038596586,0.321635144967569
8099,0,0,0,0,0,0,0,0,0.76615336644756,0.768305838316566,0.04,0.0378591306082135,365.637567745269,0.834659700396947,0.321881519248394
8159,0,0,0,0,0,0,0,0,0.779428562214521,0.781469325678257,0.04,0.038291070085732,371.970699985499,0.847762639721699,0.322395621275616
8219,0,0,0,0,0,0,0,0,0.792652730918116,0.794632813039949,0.04,0.0385162561023342,378.279597818526,0.860403550290678,0.323046768568696
8279,0,0,0,0,0,0,0,0,0.805838840121125,0.80779630040164,0.04,0.0385875303202518,384.570445128872,0.872836950635614,0.323740816606875
8339,0,0,0,0,0,0,0,0,0.818998559909632,0.820959787763331,0.04,0.0385544387285345,390.848775862038,0.885244143116536,0.324414584495207
8399,0,0,0,0,0,0,0,0,0.832141410788435,0.834123275125023,0.04,0.0384583475001656,397.119126065602,0.897744806895472,0.325029349576316
8459,0,0,0,0,0,0,0,0,0.845274682693336,0.847286762486714,0.04,0.0383308627531844,403.384957700951,0.910410231818128,0.32556465204738
8519,0,0,0,0,0,0,0,0,0.858403644143704,0.860450249848406,0.04,0.0381942194091781,409.648772700908,0.923276112359226,0.32601286246894
8579,0,0,0,0,0,0,0,0,0.871531813757916,0.873613737210097,0.04,0.0380626942540447,415.912220330886,0.936353653512868,0.326374671637829
8639,0,0,0,0,0,0,0,0,0.884661316222061,0.886777224571789,0.04,0.0379443252695859,422.176322926163,0.949638650247731,0.326655644582709
8699,0,0,0,0,0,0,0,0,0.897793259776356,0.89994071193348,0.04,0.0378426373256267,428.441594206239,0.963118249886051,0.326863698606823
8759,0,0,0,0,0,0,0,0,0.91092804845854,0.913104199295172,0.04,0.0377581423384279,434.708220883312,0.976775904380243,0.327007408526151
8819,0,0,0,0,0,0,0,0,0.924065633393006,0.926267686656863,0.04,0.0376894916119872,440.976180579714,0.990594610047526,0.327094956134756
8879,0,0,0,0,0,0,0,0,0.937203659852373,0.939431174018554,0.04,0.037631284657684,447.247643232108,1.00453700164789,0.327142372243804
8939,0,0,0,0,0,0,0,0,0.941573561612907,0.939650565474583,0.04,0.0408959955172219,449.232897303183,0.997141180207877,0.331031693767709
8999,0,0,0,0,0,0,0,0,0.94183521183086,0.939650565474583,0.04,0.0433701980096706,449.348333846656,0.984005039587352,0.33553705567806
9059,0,0,0,0,0,0,0,0,0.941574990219985,0.939650565474583,0.04,0.0443229399724041,449.22293351514,0.971849992467781,0.339638848814613
9119,0,0,0,0,0,0,0,0,0.941252375184368,0.939650565474583,0.04,0.0443148654286045,449.068937499718,0.961573553268642,0.343150931136733
9179,0,0,0,0,0,0,0,0,0.940936499390612,0.939650565474583,0.04,0.0438057598423752,448.918373706741,0.953219292008708,0.346042334998125
9239,0,0,0,0,0,0,0,0,0.940644727966051,0.939650565474583,0.04,0.0430829114623434,448.779406522264,0.946671061636465,0.348328086967484
9299,0,0,0,0,0,0,0,0,0.940386879992275,0.939650565474583,0.04,0.0423173299411715,448.656685108881,0.941743343030024,0.350054980093429
9359,0,0,0,0,0,0,0,0,0.940168661529881,0.939650565474583,0.04,0.0416066470748499,448.552900841976,0.938207998111273,0.351292772735627
9419,0,0,0,0,0,0,0,0,0.939991780883863,0.939650565474583,0.04,0.0410009228656427,448.46883686911,0.935818620251696,0.352123706217349
9479,0,0,0,0,0,0,0,0,0.939854629741519,0.939650565474583,0.04,0.0405191051515665,448.403704597779,0.934332117375055,0.352632706491578
9539,0,0,0,0,0,0,0,0,0.939753290147413,0.939650565474583,0.04,0.0401603862974824,448.355619299963,0.933524693672432,0.352899857545781
9599,0,0,0,0,0,0,0,0,0.939682515103673,0.939650565474583,0.04,0.0399123690795566,448.322073225566,0.933201767132349,0.352995562353704
9659,0,0,0,0,0,0,0,0,0.939636558411143,0.939650565474583,0.04,0.0397569047079617,448.300321643972,0.93320256348054,0.352978134586573
9719,0,0,0,0,0,0,0,0,0.939609785235194,0.939650565474583,0.04,0.0396741000499264,448.287678715993,0.933400608002616,0.352893288809513
9779,0,0,0,0,0,0,0,0,0.939597078875468,0.939650565474583,0.04,0.0396448859108477,448.281709658141,0.933701345777809,0.352774927343485
9839,0,0,0,0,0,0,0,0,0.939594075509886,0.939650565474583,0.04,0.0396524880586433,448.280338599578,0.934038020806439,0.352646690669648
9899,0,0,0,0,0,0,0,0,0.939597252248185,0.939650565474583,0.04,0.039683102121991,448.281891441626,0.934366754456099,0.352523841860227
9959,0,0,0,0,0,0,0,0,0.939603911337884,0.939650565474583,0.04,0.0397260225266769,448.28508741281,0.934661519693762,0.352415178509363
10019,0,0,0,0,0,0,0,0,0.939612099875282,0.939650565474583,0.04,0.0397734355039575,448.289000225816,0.934909481516618,0.352324784227841
10079,0,0,0,0,0,0,0,0,0.939620493537908,0.939650565474583,0.04,0.0398200213169843,448.293002546061,0.935106976855549,0.352253517840783
10139,0,0,0,0,0,0,0,0,0.939628268819555,0.939650565474583,0.04,0.0398624839002891,448.296704980212,0.935256246193044,0.352200206043638
10199,0,0,0,0,0,0,0,0,0.939634980702204,0.939650565474583,0.04,0.0398990778178046,448.299897757913,0.935362918131175,0.352162548036223
10259,0,0,0,0,0,0,0,0,0.939640452502125,0.939650565474583,0.04,0.0399291765751533,448.302498348968,0.935434181031597,0.352137762461321
10319,0,0,0,0,0,0,0,0,0.930894390626174,0.926895742040503,0.04,0.0434822223850791,444.033819357157,0.914616442797249,0.356723499998167
10379,0,0,0,0,0,0,0,0,0.918136838765608,0.913924735158388,0.04,0.0462031131575416,437.938698456945,0.888624982366274,0.362117472964355
10439,0,0,0,0,0,0,0,0,0.904922601956073,0.900953728276274,0.04,0.047312964876859,431.633127893177,0.863600951620271,0.367245373652397
10499,0,0,0,0,0,0,0,0,0.891648835363259,0.887982721394159,0.04,0.0473672613851381,425.300049496899,0.840325475029464,0.371879792420261
10559,0,0,0,0,0,0,0,0,0.878367629290878,0.875011714512044,0.04,0.0468227274203149,418.96361045455,0.818906528788445,0.375921050976936
10619,0,0,0,0,0,0,0,0,0.86509573530587,0.862040707629929,0.04,0.0459796237530472,412.631712309695,0.799319196451659,0.379312395567211
10679,0,0,0,0,0,0,0,0,0.851846268829296,0.849069700747815,0.04,0.0450349478508147,406.310618816705,0.781454501092188,0.382040277559646
10739,0,0,0,0,0,0,0,0,0.838629141753193,0.8360986938657,0.04,0.0441175132686315,400.005014332585,0.765136735656855,0.38413250470612
10799,0,0,0,0,0,0,0,0,0.825450280526866,0.823127686983585,0.04,0.0433072506612078,393.717701181969,0.750146465583037,0.385650189956879
10859,0,0,0,0,0,0,0,0,0.812311750231825,0.81015668010147,0.04,0.042647224710521,387.449628104953,0.736244162733666,0.386676750363065
10919,0,0,0,0,0,0,0,0,0.799212410991341,0.797185673219356,0.04,0.0421525441940471,381.200232407216,0.723190944876232,0.387306560400321
10979,0,0,0,0,0,0,0,0,0.786148687738473,0.784214666337241,0.04,0.0418180801704863,374.967790250778,0.710764802284651,0.387634771146737
11039,0,0,0,0,0,0,0,0,0.773115393100383,0.771243659455126,0.04,0.0416252297609564,368.749824910264,0.69877191567401,0.387749330940699
11099,0,0,0,0,0,0,-2.8421709430404e-17,-2.8421709430404e-17,0.760106518475812,0.758272652573011,0.04,0.0415477040387022,362.543458961209,0.687053186874636,0.387725524210657
11159,0,0,0,0,0,0,2.8421709430404e-17,2.8421709430404e-17,0.747115918210256,0.745301645690897,0.04,0.0415562267372226,356.345764779681,0.675486471048221,0.387623075109908
11219,0,0,0,0,0,0,0,0,0.73415882145479,0.732330638808782,0.04,0.0416364211610309,350.164323266117,0.663925849166557,0.387531486459825
11279,0,0,0,0,0,0,0,0,0.721229873544619,0.719359631926667,0.04,0.0417967594111234,343.995978577019,0.652145458665456,0.387581971503076
11339,0,0,0,0,0,0,0,0,0.708301665877722,0.706388625044552,0.04,0.0419932508491861,337.827901839222,0.640104659118993,0.387792320011786
11399,0,0,0,0,0,0,0,0,0.695367799627174,0.693417618162438,0.04,0.0421849949248839,331.657095345364,0.62782743379126,0.3881536552399
11459,0,0,0,0,0,0,0,0,0.682425248247542,0.680446611280323,0.04,0.0423457042452885,325.482129434884,0.615360566122607,0.388644174961116
11519,0,0,0,0,0,0,0,0,0.669472485659038,0.667475604398208,0.04,0.0424611580340377,319.302288788367,0.602762868540515,0.389233504867482
11579,0,0,0,0,0,0,0,0,0.656509284113069,0.654504597516093,0.04,0.0425264436449707,313.117460883074,0.590097072490041,0.389886773783175
11639,0,0,0,0,0,0,0,0,0.61575950737817,0.600801007395914,0.04,0.0629274153849398,293.367848721353,0.50820071407157,0.424162159519526
11699,0,0,0,0,0,0,0,0,0.598549151571038,0.599894441181132,0.04,0.0494121570205717,285.545868017462,0.50397431004098,0.41631509436856
11759,0,0,0,0,0,0,0,0,0.597317084254224,0.599894441181132,0.04,0.0347220887562056,284.974645132259,0.517805806979389,0.404384016230798
11819,0,0,0,0,0,0,0,0,0.596806100409846,0.599894441181132,0.04,0.0277119702317563,284.73352973819,0.535454146730266,0.390724821991739
11879,0,0,0,0,0,0,0,0,0.596658937388581,0.599894441181132,0.04,0.0259655292884513,284.66631805535,0.554755235746261,0.377041670252336
11939,0,0,0,0,0,0,0,0,0.596865025101884,0.599894441181132,0.04,0.027278658499249,284.767178090018,0.573514055639955,0.364838399500967
11999,0,0,0,0,0,0,0,0,0.597346227090909,0.599894441181132,0.04,0.0300649163758602,284.998544699777,0.589902859614766,0.354990570494536
12059,0,0,0,0,0,0,0,0,0.597991433134879,0.599894441181132,0.04,0.0333303474225451,285.307143735427,0.602692615186777,0.347833536373459
12119,0,0,0,0,0,0,0,0,0.598672763265389,0.599894441181132,0.04,0.0364761200396639,285.63197863129,0.611406499009839,0.343266525224408
