time,bias_percent_1,bias_percent_2,bias_percent_3,bias_percent_4,bias_percent_5,bias_percent_6,bias_percent_8,bias_percent_9,normalized_power,power_SP,SP,CV,total_power_MW,fuel_fraction,thermal_efficiency
59,0,0,0,0,0,0,0,0,0.999859575568599,1,0.04,0.0399010929494848,477.03536996029,1.00006939340178,0.350489588330794
119,0.00362474341630673,-0.0175922943178874,-0.0153684916140274,-0.0074562552070222,-0.031520905588333,-0.0134608717907396,-0.0270790153793773,-0.0337323232033441,0.983862093287474,0.973020324162458,0.04,0.0443906715999631,469.204654975683,0.945401051387172,0.364670730848264
179,0.00731092316170361,-0.0354827631157389,-0.0309974661367671,-0.015038887620943,-0.0635760638137564,-0.0271498939508136,-0.0546169971211169,-0.0680363806982704,0.957093783906681,0.945583365683602,0.04,0.047514723677913,456.407305390507,0.874761301280046,0.383369626344478
239,0.0109971029071003,-0.0533732319135903,-0.0466264406595068,-0.0226215200348638,-0.0956312220391798,-0.0408389161108879,-0.0821549788628565,-0.102340438193197,0.928857084285445,0.918146407204747,0.04,0.0465619710152356,442.93182688762,0.807261253964532,0.403160017834382
299,0.0146832826524972,-0.071263700711442,-0.0622554151822467,-0.0302041524487847,-0.127686380264603,-0.054527938270962,-0.109692960604596,-0.136644495688123,0.900479965607944,0.890709448725891,0.04,0.0423657175025056,429.52752619089,0.746187298621624,0.422958565725491
