time,bias_percent_1,bias_percent_2,bias_percent_3,bias_percent_4,bias_percent_5,bias_percent_6,bias_percent_8,bias_percent_9,normalized_power,power_SP,SP,CV,total_power_MW,fuel_fraction,thermal_efficiency
3,0,0,0,0,0,0,0,0,1.00359760546208,1,0.04,0.0418599618805883,478.147104453644,0.993589331857457,0.35359758203579
63,-0.00101806465938591,0.000342251242013276,-0.000222800086537859,-0.000567889366016516,0.00175590547571323,0.000560628734009811,0.00166193942971233,-0.00142076237279258,0.999869803608869,0.998189160570629,0.04,0.0400878684817176,477.023407441386,0.998029633549249,0.3511971072273
123,-0.0213793578471049,0.00718727608227834,-0.00467880181729572,-0.0119256766863479,0.036874014989978,0.0117732034142036,0.0349007280239602,-0.0298360098286432,0.972986214388335,0.961972371983202,0.04,0.0503909165500731,463.939870012401,0.939071283988764,0.363009350918907
183,-0.0417406510348239,0.0140323009225438,-0.00913480354805335,-0.023283464006679,0.071992124504243,0.0229857780943977,0.068139516618208,-0.0582512572844939,0.937091545077484,0.925755583395776,0.04,0.0584615795222306,446.792534132824,0.868806297610329,0.377865832240848
243,-0.0621019442225429,0.0208773257628088,-0.0135908052788111,-0.0346412513270102,0.107110234018508,0.0341983527745916,0.101378305212456,-0.0866665047403446,0.90003884262585,0.889538794808349,0.04,0.0626413519524371,429.113491294123,0.802212301734917,0.39304070281754
303,-0.0824632374102619,0.0277223506030741,-0.0180468070095689,-0.0459990386473415,0.142228343532773,0.0454109274547854,0.134617093806704,-0.115081752196195,0.862944369216275,0.853322006220923,0.04,0.0639766073587621,411.415941854583,0.740883116804607,0.40802436175026
363,-0.102824530597981,0.0345673754433393,-0.0225028087403266,-0.0573568259676728,0.177346453047038,0.0566235021349795,0.167855882400951,-0.143496999652046,0.825923302276113,0.817105217633497,0.04,0.0634425709287358,393.754153184143,0.684587051133724,0.422621068434089
423,-0.1231858237857,0.0414124002836046,-0.0269588104710842,-0.068714613288004,0.212464562561303,0.0678360768151734,0.201094670995199,-0.171912247107897,0.788981604207679,0.78088842904607,0.04,0.0617648167878349,376.129406929848,0.63273851905034,0.436784976173154
483,-0.143547116973419,0.0482574251238697,-0.0314148122018421,-0.0800724006083352,0.247582672075567,0.0790486514953674,0.234333459589447,-0.15599025208274,0.750593031172517,0.744671640458644,0.04,0.0604181627617095,357.801322182397,0.588986184775166,0.446366413746191
543,-0.163908410161138,0.0551024499641348,-0.0358708139325997,-0.0914301879286664,0.282700781589832,0.0902612261755613,0.267572248183695,-0.101766535676458,0.713284721380817,0.708454851871217,0.04,0.058926596045366,340.016334804315,0.556794084174081,0.44870390126598
603,-0.184269703348857,0.0619474748044003,-0.0403268156633575,-0.102787975248998,0.317818891104097,0.101473800855755,0.300811036777942,-0.0523574428523776,0.676726416849443,0.672238063283791,0.04,0.0586820766774259,322.569455240673,0.527442232579378,0.449368903741283
663,-0.204630996536576,0.0687924996446654,-0.0447828173941152,-0.114145762569329,0.352937000618362,0.112686375535949,0.33404982537219,-0.0247315236317689,0.640062570506536,0.636021274696364,0.04,0.0601279609612103,305.083413468475,0.500543927135257,0.447848451108682
723,-0.224992289724295,0.0756375244849306,-0.049238819124873,-0.12550354988966,0.388055110132627,0.123898950216143,0.367288613966438,-0.011682025317064,0.603638892020115,0.599804486108938,0.04,0.0630098793094562,287.707069336112,0.475388675268638,0.444688990830798
783,-0.245353582912014,0.0824825493251959,-0.0536948208556307,-0.136861337209991,0.423173219646892,0.135111524896337,0.400527402560686,-0.00551790802903488,0.567332352944912,0.563587697521511,0.04,0.0670505068315718,270.385877759234,0.450967221621114,0.440548477268573
843,-0.265714876099733,0.0893275741654611,-0.0581508225863884,-0.148219124530323,0.458291329161157,0.146324099576531,0.433766191154934,-0.00260619900971129,0.531093713658355,0.527370908934085,0.04,0.0720286697055003,253.097314156262,0.426807278477487,0.435722910369733
903,-0.285058104628066,0.095830347763713,-0.0623840242306083,-0.159009022484637,0.491653533199708,0.156976045522715,0.465343040319469,-0.00123081158324619,0.495081381905082,0.49296495977603,0.04,0.0779704804092987,235.918110199231,0.404017494918981,0.429057784074875
963,-0.285058104628066,0.095830347763713,-0.0623840242306083,-0.159009022484637,0.491653533199708,0.156976045522715,0.465343040319469,-0.000581127648373591,0.488191028061895,0.49296495977603,0.04,0.0594443915223138,232.908493010283,0.430837518838607,0.397215772982147
