time,bias_percent_1,bias_percent_2,bias_percent_3,bias_percent_4,bias_percent_5,bias_percent_6,bias_percent_8,bias_percent_9,normalized_power,power_SP,SP,CV,total_power_MW,fuel_fraction,thermal_efficiency
24,0,0,0,0,0,0,0,0,0.999559911440631,1,0.04,0.0400205412244266,476.900289166365,0.999412468214436,0.350620656716088
84,0,0,0,0,0,0,0,0,0.999944068899492,1,0.04,0.0398950298579363,477.074261528672,1.00022295930999,0.350464347278788
144,0,0,0,0,0,0,0,0,0.999993922984056,1,0.04,0.0399324626471032,477.097214027368,1.00031202904148,0.350450000924026
204,0,0,0,0,0,0,0,0,1.00000055119267,1,0.04,0.0399666741642479,477.100285109267,1.0003169108783,0.350450546467204
264,0,0,0,0,0,0,0,0,1.0000024482122,1,0.04,0.0399877226203409,477.101178739108,1.00030542731057,0.350455226077839
324,0,0,0,0,0,0,0,0,1.00000347759489,1,0.04,0.0399998430924808,477.101664931175,1.00028636472137,0.350462261889065
384,0,0,0,0,0,0,0,0,1.00000394008505,1,0.04,0.0400063618889843,477.101881479772,1.00026341199402,0.350470462908168
444,0,0,0,0,0,0,0,0,1.0000039451527,1,0.04,0.0400093382897152,477.10188080411,1.00023955715829,0.35047882082483
504,0,0,0,0,0,0,0,0,1.00000363546191,1,0.04,0.0400101009019434,477.101731131997,1.00021698846873,0.350486619005016
564,0,0,0,0,0,0,0,0,1.00000314749676,1,0.04,0.0400095483042243,477.101497487672,1.00019704366349,0.350493436372922
624,0,0,0,0,0,0,0,0,1.00000258870541,1,0.04,0.0400082959140637,477.101230518027,1.00018035134945,0.350499089737081
684,0,0,0,0,0,0,0,0,1.00000203283531,1,0.04,0.0400067563966516,477.100965632409,1.00016702972803,0.350503563574532
744,-0.0597963903152551,-0.0999999990962816,-0.0451001904878701,0.0912180075693468,0.0998132186532891,-0.0999978222578318,0.1,0.0745246482660947,0.996368252027215,1,0.04,0.0399444525384056,475.357758546477,1.00903907770565,0.346152344265983
804,-0.149490975788138,-0.249999997740704,-0.112750476219675,0.228045018923367,0.249533046633223,-0.249994555644579,0.25,0.186311620665237,0.999285848135743,1,0.04,0.039102397312427,476.753797903945,1.02303638259449,0.342418924392789
864,0.00811134413374532,-0.249999609816603,-0.0436458728060713,0.23682701135402,0.049719838332384,-0.249996733386748,0.0500312756814818,0.194307904423825,1.00422619601537,1,0.04,0.0376883683918916,479.152039418449,1.01343289788976,0.34740256372328
924,0.24451482401657,-0.249999027930453,0.0600110323143344,0.25,-0.249999974118875,-0.25,-0.249921810796295,0.206302330061707,1.00376724606724,1,0.04,0.0384663920433549,478.848077291454,0.977975282887218,0.359769668126019
984,0.246705167349158,-0.0784024884197803,0.136006619388601,0.249617666177448,-0.249361142283555,-0.0499999999999999,-0.248097329425902,0.223756288761747,0.99250569025202,1,0.04,0.0489950343701832,473.372959276352,0.986690637360265,0.352514605010307
1044,0.249990682348041,0.178992320846228,0.25,0.249044165443621,-0.248402894530576,0.25,-0.245360607370312,0.249937226811807,0.990412354931118,1,0.04,0.0582951207195969,472.62294397217,1.06114725905262,0.327260674191919
1104,0.0499948692725325,0.20171350397694,0.25,0.0494264992661726,-0.0490417840745305,0.25,-0.0472163644221872,0.249962336087084,0.993014092047647,1,0.04,0.0562642539849013,473.753397132063,1.09744978807174,0.317192094346014
1164,-0.24999885034073,0.235795278673007,0.25,-0.25,0.249999881609538,0.25,0.25,0.25,0.998691362116268,1,0.04,0.0534581998083999,476.520835418663,1.12502235004135,0.311225677071703
1224,-0.249999310204438,0.0414771672038044,0.05,-0.0500000000000001,0.249984668588187,0.05,0.0500017690040572,0.235541325187559,1.01516404891652,1,0.04,0.0435089772174522,484.574225107277,1.09072510510453,0.32643722465737
1284,-0.25,-0.25,-0.25,0.25,0.249961849056162,-0.25,-0.249995577489857,0.213853312968897,1.01588499660175,1,0.04,0.0311937861385902,484.470406646,0.956510279610659,0.372162223970985
1344,-0.0500025356654753,-0.0500000000000001,-0.0500000000000001,0.25,0.249977101131619,-0.0500000096379075,-0.0499973471581829,0.228311987781338,0.982543484746376,1,0.04,0.0508855593099833,468.724160607344,0.960949393632002,0.358402886914828
1404,0.249993660836312,0.25,0.25,0.25,0.249999979244804,0.249999975905231,0.249999998339328,0.25,0.979189247413736,1,0.04,0.0685634694157938,467.397914923506,1.12605757905523,0.304986663549255
1464,0.158514159522387,0.214035321611001,0.249999998328038,0.249999999660902,0.249999987546882,0.0512575815804901,0.229829432992244,0.249988932183535,1.00066979692305,1,0.04,0.0595952033378197,477.58711880234,1.16715673469094,0.300661694445453
1524,0.0212949075514994,0.160088304027503,0.249999995820095,0.249999999152255,0.25,-0.246856009906621,0.199573584971617,0.249972330458837,1.00703426523346,1,0.04,0.0554973090463133,480.39627617298,1.11919557790711,0.315390293313634
1584,0.112529368471039,0.196052981021963,0.165162626034922,0.249931771057389,0.0500000003788668,-0.0481136059439729,0.0197441566061407,0.0499834100123668,1.01426639796344,1,0.04,0.0510529218177819,484.064061912186,1.0716230527817,0.331906279756101
1644,0.249381059850349,0.249999996513655,0.037906571357163,0.24982942891509,-0.249999999052833,0.25,-0.114363125458395,-0.114363125458395,1.00559225340386,1,0.04,0.0499418127555018,479.67119151113,0.99700013602568,0.353511132445817
1704,0.249628635910209,0.0499999979081927,0.122743942814298,0.249897657349054,-0.2499999994317,0.183059760656916,-0.0863890263043092,-0.0500024251016327,1.00202526187205,1,0.04,0.0417047870605533,477.851582607703,0.986282928091498,0.355996877837078
1764,0.25,-0.25,0.25,0.25,-0.25,0.0826494016422906,-0.0730758853563869,0.249993893231925,0.99832737346718,1,0.04,0.0343935517872542,476.347683280661,1.00778977296577,0.347303201570395
1824,0.25,-0.0500015352752935,0.25,0.0500000616358516,-0.0500000000000001,-0.0504086652786727,-0.0742810361466036,0.182875036532588,1.00233138933627,1,0.04,0.035226242599848,478.235796823281,1.00198421205135,0.350700090916189
1884,0.25,0.249996161811766,0.25,-0.249999845910371,0.25,-0.249995765660118,-0.0802145619786986,0.0821967514835839,1.00196444284075,1,0.04,0.0381774757440376,478.001948045556,0.983124896229681,0.357252806081599
1944,0.249999552001361,0.249997557729836,0.050000000073264,-0.0854850345537297,0.249999997975482,-0.23323540728953,-0.0858327748965987,0.149318027722629,0.996958126446813,1,0.04,0.0379022358537354,475.611867570521,0.988005099569289,0.353710679677001
2004,0.249998880003403,0.24999965160694,-0.24999999981684,0.161287182481233,0.249999994938705,-0.208094869733648,-0.0920130431547042,0.249999942081196,0.998245676066655,1,0.04,0.036439918644547,476.29160709069,1.00684835201898,0.347587013027072
2064,0.249999327911498,0.115053779988952,-0.050001250905036,-0.00319595376443306,0.0500001293987244,-0.0475458660443333,-0.0997586001753993,0.249999963604597,1.00143853639388,1,0.04,0.0341314948174506,477.828634838718,1.00637810912828,0.348871640212755
2124,0.249999999773641,-0.0873650274380296,0.24999687246267,-0.249920658132931,-0.249999668911246,0.193277639489639,-0.113124490738833,0.249999995889699,1.00290731115549,1,0.04,0.0312058688444757,478.457411255271,0.985519244008804,0.356724430556548
2184,0.0500509634573626,0.0475809834881885,0.050038582037353,-0.248631705935583,-0.0500773578936474,0.0167848200033903,-0.132353215430885,0.0500324458557544,1.01248320103415,1,0.04,0.0216096409564751,483.250817607727,0.953381132252567,0.372443775877388
2244,-0.249872591017055,0.249999999877516,-0.249898853600622,-0.246698277639561,0.249806108632751,-0.247954409225983,-0.171851316914198,-0.171851316914198,1.01048056416154,1,0.04,0.0101305325425129,481.974534688128,0.858199520909253,0.412658220702219
2304,-0.0499238197084628,0.0500000088459915,-0.0499393121603735,-0.248018966562307,0.0498837009893151,-0.248727627237966,-0.233560794433472,-0.233560794433472,1.00350118698749,1,0.04,0.00362084957379209,478.756264008695,0.828582831988741,0.424554271735589
2364,0.249999337254425,-0.249999977701295,0.25,-0.249999999946426,-0.249999910475838,-0.249887454255941,-0.249999141965576,-0.25,0.998439748066265,1,0.04,0.00247253342490036,476.330798289892,0.829013881664013,0.422183772460594
2424,0.249999602352655,-0.0507748490619166,0.05,-0.0500435546400914,-0.22739645487356,-0.249882280147147,-0.0499994851793457,-0.25,0.984588913111949,1,0.04,0.0157916463066142,469.51616970173,0.87064058470375,0.396247305499733
2484,0.25,0.248062843897151,-0.25,0.24989111331941,-0.193491271470144,-0.249874518983956,0.25,-0.25,0.986456143303898,1,0.04,0.0289014091042588,470.786939889336,0.984742903848588,0.351282263843319
2544,0.249999880706999,0.24883770633829,-0.207375745041444,0.249934648724499,-0.0160947628820861,-0.0499247113903735,0.249999244943111,-0.0500089596508527,0.978411545227858,1,0.04,0.0456401569549148,466.645811022434,1.06520021542258,0.321892458811199
2604,0.249999701767498,0.25,-0.14343936260361,0.249999951832132,0.25,0.25,0.249998112357777,0.249977600872868,0.984186864876742,1,0.04,0.0586296390342904,469.755614750686,1.20534581419087,0.286361739546603
2664,0.249999808593166,0.249999530017363,0.0134655653624709,0.24999930940759,0.195524089839524,0.178052491345207,0.249992614522019,0.0725886734913978,1.0028613176329,1,0.04,0.0627320713244513,478.593364796958,1.22637220424713,0.286747110899464
2724,0.24999996883167,0.249998825043408,0.248822957311593,0.249998345770777,0.113810224598809,0.070131228363018,0.249984367768382,-0.193494717580808,1.00569987353254,1,0.04,0.067757149091585,479.756451736979,1.18125986832542,0.298421459759929
2784,0.249999981299002,0.243759418652755,0.249293657827971,0.249998670198119,0.168267261753241,-0.0579210945721115,0.249989316017619,-0.0160968305484846,0.998220101162398,1,0.04,0.0688139122141004,476.185656388389,1.17324169387349,0.298224622509287
2844,0.25,0.234400309066775,0.249999708602538,0.249999156839133,0.249952817484889,-0.249999578974806,0.249996738391474,0.25,0.998915976642372,1,0.04,0.0666790267440231,476.639809206394,1.19198838408392,0.293814324296303
2904,0.25,0.240640185440065,0.183576719171329,0.24999949410348,0.249970730998638,-0.247621877680746,0.249897117380802,0.25,1.00321039209584,1,0.04,0.0646390626827411,478.65597430569,1.1799987655519,0.298055134171979
2964,0.25,0.25,0.0839422350245156,0.25,0.249997601269262,-0.244055325739657,0.249747685864794,0.25,1.00428619249021,1,0.04,0.062609562072683,479.137819377573,1.1540325172178,0.305068300154409
3024,0.25,0.249997551469973,0.150365341014709,0.249999997974305,0.0660556549330979,-0.0464331954437942,0.249644111894154,0.25,1.00168662774454,1,0.04,0.0625476173999665,477.868955116617,1.13528095977112,0.309285912827756
3084,0.25,0.249993878674931,0.25,0.249999994935762,-0.209857264571149,0.25,0.249488750938194,0.25,1.00094986403651,1,0.04,0.0612608366264918,477.571128453935,1.13288180783629,0.309747733427997
3144,0.249997417740842,0.119532777496435,0.24999993050533,0.249986097989409,-0.225914218689341,0.224317917691746,0.249655882930407,0.05,1.01001741650782,1,0.04,0.0528434574311399,482.022888761975,1.106340439566,0.32013528930968
3204,0.249993544352105,-0.0761588742713107,0.249999826263324,0.249965252569878,-0.24999964986663,0.185794794229366,0.249906580918726,-0.0165091275303,1.00565616380306,1,0.04,0.0478528319381992,479.735212986473,1.05132000524076,0.335290574506772
3264,0.249993071727465,0.0408156332434478,0.249999895757995,0.249978941065406,-0.0506113947053848,0.0114787717157153,0.233772263508165,-0.007798268071536,1.00068379793958,1,0.04,0.0485365760934245,477.394026128375,1.03821336964981,0.337866427095634
3324,0.249992362790504,0.216277394515585,0.25,0.249999473808697,0.248470988036482,-0.249995262054761,0.209570787392324,-0.00368335971129408,0.99540208461102,0.993325084298061,0.04,0.0517716252053171,474.814889125233,1.03580944702869,0.336820981934093
3384,0.232851465796405,0.0297683970282536,0.0927918014108116,0.24607927626437,0.249082592810467,-0.247963151534443,0.0257424724353942,-0.00177425340406878,0.990907662699093,0.976637795043213,0.04,0.0420731210602872,472.825371087215,0.991263693123847,0.350482427947577
3444,0.207140120305256,-0.249995099202743,-0.143020496472971,0.240198979947878,0.249999999971444,-0.244914985753966,-0.00394902256924123,0.249999991193461,0.968710248211889,0.959950505788365,0.04,0.0348713608154115,462.024558234192,0.928470159869494,0.36563838854595
3504,0.0242840721831536,-0.249997012187805,-0.185810514401808,0.0441208409425102,0.0500006774233696,-0.246909464578256,-0.0135016760940306,0.0499999951850399,0.96842213031821,0.943263216533516,0.04,0.0148012716972508,462.25286040326,0.845864943746797,0.401544107511067
3564,-0.25,-0.249999881665397,-0.249995541295062,-0.249996367565542,-0.249998306398742,-0.249901182814691,0.249998699096328,-0.0583966114278183,0.945165931665496,0.926575927278668,0.04,2.01825105601593e-05,450.544510653052,0.683732856625251,0.484178977180282
3624,-0.249967714133547,-0.249999928356418,-0.249997300964784,-0.249997820538512,-0.249523358493427,-0.247808471382513,0.249929715919043,-0.0549124938091296,0.905464067358739,0.916563553725759,0.04,2.23467524783664e-06,432.06594369369,0.698183988690149,0.454710336759516
3684,-0.249919285333867,-0.249999998392949,-0.249999940469366,-0.249999999997966,-0.248810936635453,-0.244669404234246,0.249826241153114,0.237718763718564,0.921765090871698,0.916563553725759,0.04,0.00130355418592619,439.55450070862,0.654115003226314,0.49375703563943
3744,-0.24995128218966,-0.213164768181021,-0.0500000204891073,-0.050008674066498,-0.0492967825280953,-0.0468048846093466,0.249894856894216,0.087883472031919,0.88058330661177,0.916563553725759,0.04,0.0114348417248443,420.477344077881,0.733830165053735,0.42101902057297
3804,-0.249999277473349,-0.157911922863128,0.24999985948128,0.249978314830704,0.249974448632942,0.249991894828003,0.249997780505869,-0.136869465498049,0.889053255279047,0.916563553725759,0.04,0.025194980343214,424.518385442017,0.975842604273145,0.319647568413637
3864,-0.0501125441282236,0.00525006307716455,0.249990760718451,0.249986839022829,0.249984664930725,0.249870965356127,0.0499986683302587,-0.0534876378416801,0.901336535547217,0.916563553725759,0.04,0.038879807126458,429.995362958041,1.06774422186434,0.295904260701862
3924,0.249717555889464,0.249993041987602,0.249977112574206,0.249999625311017,0.249999989377401,0.249689571148313,-0.249999999933156,0.0715851036428729,0.910294311898248,0.916563553725759,0.04,0.0578013352860939,434.392336261101,1.13034351116842,0.282375091963004
3984,0.249228162276383,0.249991118050892,0.249956643706198,0.24999920256741,0.0499999945318893,0.0540520349658937,-0.157461388233016,0.14295105497246,0.919422420382728,0.916563553725759,0.04,0.0602181499770493,438.734161433102,1.1329524195126,0.284540739923326
4044,0.24849407185676,0.249988232145827,0.249925940404186,0.249998568451999,-0.249999997736379,-0.239404269307734,-0.0186534706828072,0.24999998196684,0.9239038720491,0.916563553725759,0.04,0.0596493094368189,440.784108984157,1.0912697247377,0.296789477132229
4104,0.0490991101606128,0.0500457933307553,0.2312119986661,0.249998997520142,-0.24999871477992,-0.0436425625281431,0.0888074901402848,0.249991563024361,0.919451500103336,0.916563553725759,0.04,0.0592858194209516,438.658673669398,1.06030761603866,0.303983153860301
4164,-0.24999333238361,-0.249867864891853,0.203141086058971,0.249999641122355,-0.249996790345232,0.249999997641244,0.249998931374923,0.249978934610644,0.924305034624859,0.916563553725759,0.04,0.0517086098511038,440.949721197762,1.02283479067019,0.316765778569684
4224,-0.0503153129788465,-0.0508545759359349,0.0221919369069196,0.0520993616436141,-0.0500117456304617,0.24983748537453,0.249688664572531,0.14740249961124,0.920173981262194,0.916563553725759,0.04,0.0542581810204282,438.959407705233,0.988688520392745,0.326226732220671
4284,0.249201716128299,0.247665357497942,-0.249231786821157,-0.244751057574497,0.249965821441694,0.249593716974459,0.249223264368943,-0.0064621528878647,0.918573236673868,0.916563553725759,0.04,0.0591643311385068,438.268754727914,0.975711778885005,0.33004536509972
4344,0.148938253438133,0.248599214498765,-0.248486404984281,-0.0468506345446984,0.203912439562045,0.249658343555271,0.249533958621366,0.0961221872612508,0.915162262973391,0.916563553725759,0.04,0.0591903864022943,436.565370620324,0.969007477628987,0.331037223926187
4404,-0.00145694059711445,0.25,-0.247368332228968,0.25,0.134832366742572,0.249755283426489,0.25,0.249998697484924,0.914959332579501,0.916563553725759,0.04,0.057015286731895,436.5660644872,0.987970530210813,0.324683829512567
4464,0.0966533897036937,0.249104991634805,-0.0845903549585302,0.249974507143093,-0.019100579954457,0.124679761029184,0.249988373516174,0.249998990162795,0.918722153632787,0.916563553725759,0.04,0.0561005947781395,438.337078289446,0.98258944006852,0.327786295720725
4524,0.243818885154906,0.247762479087013,0.159576610947127,0.249936267857734,-0.25,-0.0629335225667742,0.249970933790435,0.249999429179601,0.919094533619956,0.916563553725759,0.04,0.0568337900479418,438.485978048144,0.964576088087621,0.334021094499791
4584,0.217160638024044,0.161253444675473,0.195745966568276,0.0499617607146401,-0.110614914037356,0.0617346134835415,0.249982560274261,0.249999657507761,0.916144044250094,0.916563553725759,0.04,0.0542748363917089,437.063228853157,0.958322744880903,0.335109816722267
4644,0.177173267327751,0.031489893058163,0.25,-0.25,0.0984627149066105,0.248736817559015,0.25,0.25,0.916297231204731,0.916563553725759,0.04,0.0499289023407829,437.179487608401,0.964477009556976,0.333060073284917
4704,0.206303960396651,-0.0791824520870891,0.204045051052355,-0.0500000019586879,-0.0298989419373351,0.0493255363537912,0.25,0.05,0.929152675714319,0.916563553725759,0.04,0.0393337697988754,443.499065396771,0.937088441435793,0.347749732153527
4764,0.25,-0.245190969804967,0.135112627630887,0.24999999510328,-0.222441427203253,-0.249791385454044,0.25,-0.00959576508634506,0.923881734909035,0.916563553725759,0.04,0.0325581343830799,440.679096906288,0.863964944193283,0.374783968826192
4824,0.0500000000000001,-0.247049234913729,0.181063490428501,0.0500096167204725,-0.233450035371886,-0.0614455193801958,0.0515342858150291,-0.0228877599567751,0.926175583586868,0.916563553725759,0.04,0.018412278160569,442.033274944335,0.832985937487212,0.389916819673529
4884,-0.25,-0.249836632576871,0.249989784624922,-0.249975950853739,-0.249962947624835,0.221073279730577,-0.063157640385701,-0.063157640385701,0.924616536944841,0.916563553725759,0.04,0.00632188535635774,441.083716490287,0.764590451508614,0.423883812092471
4944,-0.0690813305471867,-0.0499055646523075,0.249993870774953,-0.145280122786931,-0.0500096073695254,0.0590829118394313,0.0395770571747735,-0.128298757620929,0.900059648593361,0.916563553725759,0.04,0.0204530792318792,429.179794169539,0.7780098712234,0.405330081630413
5004,0.202296673632033,0.249991037234538,0.25,0.0117636193132814,0.249920403013439,-0.183902639997288,0.249999984612157,-0.176095758379078,0.89983029221081,0.916563553725759,0.04,0.039747370486294,429.492957533631,0.914534385764272,0.345072765220178
5064,0.0419556372344214,0.0499946223407226,0.25,0.107058171587969,0.249913449790173,-0.0103415839983727,0.249931863675793,-0.0500009577663819,0.90527538027052,0.916563553725759,0.04,0.0414003569935686,431.844710433399,0.972604592789698,0.326246577681007
5124,-0.198555917361996,-0.25,0.25,0.25,0.249903019955275,0.25,0.249829682271246,0.249997585945393,0.912962217472819,0.916563553725759,0.04,0.0435044785208373,435.610065862007,1.01937090183374,0.313993277849838
5184,-0.0191335545474487,-0.0504337782048103,0.181773116342741,0.249997186090622,0.249941811973165,0.0500076982671897,0.249897809362748,0.0499994471883176,0.92048797256829,0.916563553725759,0.04,0.0476481017462447,439.217547409373,1.01529885144541,0.31786335566776
5244,0.249999989674372,0.248915554487974,0.0794327908568525,0.249992965226555,0.25,-0.249980754332026,0.25,-0.188971311815035,0.920539303094833,0.916563553725759,0.04,0.0571152573153898,439.122265840568,0.973126342292241,0.331566699347764
5304,0.0501136593763606,0.249349332692785,-0.0523403254858885,0.0499957792521175,0.0500000000000001,-0.0500126164253696,0.0502561665145722,-0.0499986568201545,0.924433980196914,0.916563553725759,0.04,0.0412280498359043,441.16825134988,0.951269868636526,0.340765160453002
5364,-0.249715836070657,0.25,-0.25,-0.249999999709539,-0.25,0.249939590434615,-0.15405058612163,0.249999999370558,0.924176083507292,0.909905168208482,0.04,0.024609020536848,440.718625778166,0.862995449830729,0.375238659279369
5424,-0.0498306529863211,0.25,-0.0520758600836321,-0.0518691040148149,-0.0500973129101154,0.249951560543924,-0.0496157759358656,0.249116879603017,0.883414460784785,0.893259204415287,0.04,0.0528864449571176,420.946238685805,0.835987109605768,0.369982965145306
5484,0.249997121640183,0.25,0.24481034979092,0.245327239527271,0.249756717724712,0.249969515707888,0.24999993573069,0.247792199951706,0.863711437241798,0.876613240622092,0.04,0.0764141690109772,412.162122319159,0.953323334509285,0.317674628364505
5544,0.247407434797194,0.0788658452610869,0.183871018259186,0.0471963437163623,0.0498558364952626,0.105781012635034,0.0801195573396429,0.248656952836485,0.877241602171383,0.859967276828897,0.04,0.0557975422603288,418.748728891015,0.93050398394249,0.330666304015922
5604,0.243522904532711,-0.177835386847283,0.0924620209615853,-0.25,-0.249995485348911,-0.110501741974247,-0.0495427685046625,0.249954082163654,0.865094422713546,0.843321313035702,0.04,0.0357118349387731,412.388465513041,0.758655266982388,0.39940795329047
5664,0.245583586551068,-0.149233859617582,-0.0445227874230488,-0.25,-0.249997291209347,0.0336989280950155,-0.00482060614815698,0.0567750389505837,0.841852670807177,0.826675349242508,0.04,0.0311496665671034,401.491376803682,0.675611599928056,0.436650337994855
5724,0.248674609578605,-0.106331568773031,-0.25,-0.25,-0.25,0.249999933198909,0.25,-0.0420165967499785,0.813296166962616,0.810029385449313,0.04,0.0311143186711569,387.905588408134,0.646855107439836,0.440629633295541
5784,0.0492172835372986,0.0362010582400167,-0.249862865999985,-0.0628579122317412,-0.249999983817118,0.0499999599193454,0.05,-0.0588683049181285,0.804006179424484,0.793383421656118,0.04,0.0155761010513585,383.559475959483,0.609754871967921,0.462202312317738
5844,-0.24996870552466,0.249999998759588,-0.249657164999962,0.217855219420647,-0.249999959542795,-0.25,-0.104904743083197,-0.104904743083197,0.78927200052975,0.791404889317902,0.04,2.79921090488872e-06,376.255160483287,0.574284484334483,0.481404403463395
5904,-0.249981223314796,0.249999999255753,-0.0498105630640796,0.0948851494711379,-0.249999975725677,-0.24998144484389,-0.180341912047315,-0.180341912047315,0.774995361519245,0.811427504162153,0.04,5.55980386550911e-10,369.964398723123,0.76133148274202,0.357059688249655
5964,-0.25,0.25,0.249959339839744,-0.0895699554531257,-0.25,-0.249953612109726,-0.249742925004188,-0.225913518290375,0.817045900101401,0.831450119006405,0.04,8.96430660892427e-07,390.250569117623,0.906151065993972,0.31644454656385
6024,-0.249999706453949,0.05,0.0499798368768221,-0.153741970832365,-0.249999595199718,-0.232318238830635,-0.129718047971295,-0.235548110974225,0.860774811129328,0.851472733850657,0.04,1.43326345561422e-05,410.848479376428,0.879872438617746,0.343096783216591
6084,-0.249999266134873,-0.25,-0.249989417567561,-0.249999993901223,-0.249998987999294,-0.205865178911999,0.050319267578045,-0.25,0.876457234330853,0.871495348694908,0.04,1.33701231247063e-05,418.278401697468,0.839052488757582,0.366294996384831
6144,-0.0500117351661897,-0.0500013861011733,-0.0499943522899699,-0.0500008390512138,-0.249999392799577,-0.0235270456832644,0.130191560546827,-0.050009631706016,0.856034427208657,0.89151796353916,0.04,0.0235563946496982,408.060557910068,0.888974362690107,0.33727958812
6204,0.249969561286835,0.249996534747067,0.249998245626417,0.2499978932238,-0.25,0.249980154159838,0.25,0.24997592073496,0.873178002634837,0.911540578383412,0.04,0.0472011054587601,417.184651375224,1.22395884051312,0.250447202334434
6264,0.0499864183300297,0.249997916045331,0.180337680593585,0.249998692372655,-0.0500000047444549,0.0499974914948564,0.0500003084929021,0.0575473240560126,0.936171961721615,0.931563193227663,0.04,0.0429516283644317,447.170221602019,1.29351453205743,0.254013172689273
6324,-0.249988296105179,0.249999987992728,0.0758468330443379,0.249999891095937,0.249999988138863,-0.249976502502616,-0.249999228767745,-0.231095570962409,0.96646963737768,0.951585808071915,0.04,0.0433194470192668,461.078062856912,1.17968890459409,0.287184926567784
6384,-0.0499940722321774,0.249999992795637,0.145469789413526,0.249999756714369,0.0499999928833179,-0.249985187605315,-0.0499995372606468,-0.123188040742966,0.964962790961851,0.971608422916166,0.04,0.0537255941653921,460.341384210104,1.16767982870153,0.289674934594153
6444,0.249997263577325,0.25,0.249904223967307,0.249999555142017,-0.25,-0.249998215259363,0.25,0.0386732545861981,0.975958264762306,0.977979848729239,0.04,0.0598717370153982,465.732139339568,1.22889327249761,0.278468912268579
6504,0.249998349745848,0.249901018156088,0.0499454975964738,0.249983500729037,-0.25,-0.0499989307781943,0.050006153425022,0.123203493284272,0.976125633044343,0.963874490995543,0.04,0.0652790822416251,465.657811005008,1.17567646414823,0.291027309536314
6564,0.249999978998634,0.24975254539022,-0.249992591959777,0.249959419109568,-0.25,0.249999995943558,-0.249984616437445,0.249998851331383,0.963540054710196,0.949769133261847,0.04,0.0687454530754249,459.563144419905,1.08832268484942,0.31027171551563
6624,0.24999998739918,0.248864535523744,-0.249995155925472,0.0499819618474819,-0.164944889898318,0.24998437201118,-0.0499907698624669,0.0499995881128611,0.948773408078568,0.935663775528151,0.04,0.0689109070846524,452.56578384418,1.01220814999652,0.328523591948948
6684,0.25,0.247532520724031,-0.249999001874015,-0.249984224045646,-0.0373622247457947,0.249960936112612,0.25,-0.249999306714922,0.933370137517456,0.921558417794455,0.04,0.0657238475277848,445.162458953783,0.932973024132178,0.350593711620411
6744,0.0502367180318904,0.248519512404973,-0.227965888904012,-0.249990442942107,-0.122417334847477,0.249976561667567,0.249960446619961,-0.245433043372339,0.920040051724106,0.907453060060759,0.04,0.0568268825980126,438.907631236733,0.867433353629464,0.371784852128512
6804,-0.249408204920274,0.249999999926386,-0.194916219449009,-0.249999771286798,-0.25,0.25,0.249901116549903,-0.238583648358464,0.904960849039563,0.893347702327063,0.04,0.0424719834273956,431.560195887037,0.781997530267828,0.405499829907802
6864,-0.0496484569389412,0.249999999955832,-0.0169497316694055,-0.249999862772079,-0.05,0.0542905820471345,0.249940669929942,-0.0431501890150785,0.870708997154394,0.879242344593367,0.04,0.0519611124270071,415.064642567278,0.767478861168416,0.39737815885827
6924,0.249991165033058,0.25,0.25,-0.25,0.25,-0.239273544882163,0.25,0.25,0.857603892983885,0.865136986859671,0.04,0.0630866454992133,409.213988852784,0.846139337164732,0.355355680213035
6984,0.203986409557648,0.25,0.05,-0.0917248186780837,0.05,-0.243563691686032,0.249999999521904,0.249984927733852,0.857187904451241,0.851031629125976,0.04,0.0556689100540049,408.966865404538,0.835697751996232,0.359578374760777
7044,0.134979276344533,0.25,-0.25,0.145687953304791,-0.25,-0.249998911891834,0.249999998804761,0.249962319334629,0.846676845534754,0.83692627139228,0.04,0.048084199743844,403.767549696052,0.767960568516794,0.386319977529262
7104,0.180976548462159,0.25,-0.0500000042406599,-0.0125767987315896,-0.0500041047069262,-0.0499993471351011,0.249999998230224,0.249570603193236,0.820394197204407,0.822820913658584,0.04,0.0634189700888766,391.146268535608,0.744573243079254,0.385999233614725
7164,0.249972456638599,0.25,0.24999998939835,-0.24997392678616,0.249989738232684,0.249999999999998,0.249999997368418,0.248983028981146,0.803864995241935,0.808715555924888,0.04,0.0742664487541869,383.499504181002,0.78740120289972,0.357868447417145
7224,0.249981284404766,0.25,0.24922299652787,-0.249984356071696,0.24998665093767,0.249999999999999,0.249999998421051,0.249389817388687,0.794909362057529,0.794610198191192,0.04,0.0726815892769373,379.153433130937,0.791072984890978,0.352170614721716
7284,0.249994526054017,0.25,0.248057507222149,-0.25,0.249982019995148,0.25,0.25,0.25,0.781665112911834,0.780504840457496,0.04,0.0736850343313093,372.82296281369,0.784475600999003,0.34920293816356
7344,0.0500157074878041,0.249999969288737,0.0488384444050434,-0.249955685850209,0.0848897947482142,0.249999920687127,0.249998078935217,0.050000029942273,0.779899204165108,0.7663994827238,0.04,0.0557937743529986,372.263790015938,0.752581096102756,0.363456270323677
7404,-0.249952520361514,0.249999923221843,-0.249990149820614,-0.249889214625523,-0.162748543122187,0.249999801717818,0.249995197338044,-0.00618566268529212,0.766417113125815,0.752294124990104,0.04,0.0331581530740832,365.389464896374,0.632802969370697,0.424269868372166
7464,-0.249965591386487,0.249999888273371,-0.0503566458167581,-0.249928108493407,0.00231916325166867,0.063203435830929,0.249997110071399,-0.0169897764139102,0.737529023360047,0.738188767256408,0.04,0.034663045994374,351.692855385487,0.602900918232598,0.428619846790942
7524,-0.249985197923945,0.249999835850662,0.249093610189026,-0.249986449295232,0.249920722812452,-0.216991112999404,0.249999979171432,-0.027464424129806,0.722129270843511,0.724083409522712,0.04,0.0368311461856758,344.454904992862,0.621671021669955,0.407123738517441
7584,-0.0499918843927193,0.0500226724158726,0.24945616359046,-0.124565791498824,0.0503491254133273,-0.230194667661231,0.0506933221864291,-0.0392473578230347,0.719829474308107,0.709978051789016,0.04,0.0222477483862578,343.378793352387,0.599835016481178,0.420626210628214
7644,0.249998085904119,-0.249943072736312,0.24999999369261,0.0635651951957894,-0.249008270685359,-0.24999999965397,-0.0705163560535373,-0.0705163560535373,0.700527579918412,0.69587269405532,0.04,0.0179880858714325,334.082579557226,0.549579678403549,0.446660801599798
7704,0.0500015989161568,-0.249965553715903,0.0500004238778336,0.0789876557945316,-0.248895691571,-0.0502904726399828,-0.117551575086636,-0.117551575086636,0.68570878038772,0.681767336321624,0.04,0.0057124310193918,327.174915466133,0.531909008845423,0.451957220606805
7764,-0.249993131565787,-0.24999927518529,-0.249998930844331,0.102121346692645,-0.248726822899461,0.249273817880998,-0.0563232497620893,-0.188648124564769,0.677387041045036,0.667661978587928,0.04,1.10845442683065e-05,322.997051249225,0.476845326744947,0.497709239469407
7824,-0.249978965710198,-0.249999502664034,-0.249985630672776,-0.0387109201532564,-0.249236079192735,0.0495643370851909,0.0661985699079649,-0.249999197083484,0.651784929319936,0.653556620854232,0.04,1.65786998328576e-06,310.748572577133,0.458395205238508,0.49810827006027
7884,-0.249957716926815,-0.24999984388215,-0.249965680415444,-0.249959320422108,-0.249999963632646,-0.24999988410852,0.249981299413046,-0.249997995801328,0.633338007592769,0.639451263120536,0.04,3.9867414441289e-07,302.116212775584,0.495472213590097,0.448032381980487
7944,-0.249974630156089,-0.0930742538267531,-0.0499967999373555,-0.249743992809975,-0.0499999781795876,-0.249999908744202,0.0499887805722445,-0.249981478027321,0.626665423467693,0.62534590538684,0.04,7.72493179585486e-06,298.950185407804,0.499679258004846,0.439604552618298
8004,-0.25,0.142314131256342,0.249956520779778,-0.249421001391776,0.25,-0.249999945697724,-0.249999997688958,-0.24995670136631,0.601800238154245,0.611240547653145,0.04,0.0170336886005307,287.276133145199,0.595687324276961,0.354352795993899
8064,-0.05,-0.0146045954717439,0.0522856375544727,-0.0496526008350653,0.106471927248841,-0.249972717522847,-0.249999738743701,-0.249973693619089,0.598098017936801,0.597135189919449,0.04,0.0270058708197891,284.936297200008,0.615129676708172,0.34035785080742
8124,0.25,-0.249982685563873,-0.244220687283485,0.25,-0.108820181877898,-0.249931875260531,-0.249999350325815,-0.249999181998257,0.584857874315017,0.583029832185753,0.04,0.0345337306667985,278.9959484544,0.600911377800226,0.341147462824534
8184,0.249999956751394,-0.0499897070601908,-0.0465327338388721,0.249997868079657,0.0347078905643697,-0.0513833071365416,-0.0499996101954891,-0.0500075022212441,0.550775560179093,0.568924474452057,0.04,0.0831720331331054,262.477937027774,0.629153701934647,0.306542520469412
8244,0.249999891878485,0.249999760695333,0.249999196328047,0.249994670199143,0.249999999227771,0.246439545049442,0.25,0.249980017444276,0.546805922752929,0.565119677691086,0.04,0.116335518417135,261.151695581621,0.767368932391853,0.250059474277895
8304,0.249585573998516,0.049999893816345,0.249997383648492,0.249996712838232,0.249999895786721,0.247858833130231,0.216636177194201,0.0500030032342542,0.578582068246653,0.576765722389203,0.04,0.0953710156485556,276.318613715282,0.803050701903143,0.252826068670379
8364,0.248964097178563,-0.249999906502136,0.24999466462916,0.249999776796866,0.249999740625145,0.249987765251415,0.166590442985503,-0.249962518080778,0.596421442804879,0.58841176708732,0.04,0.0816783816516358,284.551352050338,0.745296374832344,0.280534527634599
8424,0.0493784583071379,-0.249999943901282,0.0500170922052581,0.0499998660781193,0.0499999579293082,0.249930163605355,0.199954265791302,-0.249854111261426,0.609762730118891,0.600057811785437,0.04,0.0529579154686384,291.259596700821,0.713751598018492,0.299838796828433
8484,-0.25,-0.25,-0.249949266430595,-0.25,-0.249999716114447,0.249843761136265,0.25,-0.209974613854573,0.627012545923018,0.611703856483554,0.04,0.0184021030757016,298.897138745603,0.56958555165451,0.385582637483228
8544,-0.0991944257369194,-0.24995974415113,-0.0499848636305321,-0.0500001449350754,-0.0572755913768073,0.249896380498087,0.0718015199627225,-0.216407192503198,0.606040422050931,0.623349901181671,0.04,0.0256821067553454,289.009700419386,0.55875044551279,0.380057418099705
8604,0.127013935657702,-0.249899360377825,0.249961740569562,0.249999637662312,0.231810595729653,0.24997530954082,-0.195496200093194,-0.231002772311084,0.619471001284083,0.634995945879788,0.04,0.0398086002808977,295.78139151657,0.676668214037143,0.321180927363884
8664,0.17617788833907,-0.24035057393757,0.0499771263230534,0.199013917015447,0.236945512920037,0.249985068843759,-0.116045742535409,-0.0501887225449413,0.635014630081425,0.646641990577905,0.04,0.0372158064819619,303.015803630427,0.737866130718177,0.301746596198342
8724,0.249923817361124,-0.226027394277187,-0.249999795046709,0.122535336045149,0.244647888705613,0.249999707798167,0.00312994380126858,0.249524680412509,0.652115340359845,0.658288035276022,0.04,0.0380418030220859,311.292374818819,0.797096002042402,0.286954161947624
8784,0.249646024282124,-0.0356241724470699,-0.0500003624423508,0.173520826445883,0.246605361119816,0.050498971157086,-0.0981220337192388,0.2496946207439,0.667280895670835,0.669934079974139,0.04,0.0504456875052261,318.474384984965,0.814802981254305,0.287194801523225
8844,0.249229334663626,0.249980660298105,0.249998786464186,0.249999062046984,0.24954156974112,-0.248752133804535,-0.231907430495077,0.249949531240985,0.681277990914033,0.681580124672256,0.04,0.0656651965177087,325.104633914654,0.815666499254692,0.292863474565925
8904,0.249533958490293,0.24998710581409,0.248530802277225,0.249999425776787,0.249672462732737,-0.0492514828864786,-0.188331673844554,0.0626431879022208,0.693538945699558,0.693226169370373,0.04,0.0650307007366524,331.002220394274,0.82074953100923,0.296329535402788
8964,0.249990894230295,0.249996774088067,0.246328825996783,0.249999971371491,0.249868802220163,0.249999493490606,-0.132720092430875,-0.132720092430875,0.701042915407488,0.70487221406849,0.04,0.0658626981586918,334.536359300168,0.830105960613929,0.296117770027277
9024,0.249993392777163,0.057607759757544,0.0477989233496304,0.249988936215599,0.0499243317428289,0.249791498893912,-0.0465529900558804,-0.0309905034187977,0.718071271661876,0.716518258766607,0.04,0.0482749011762811,342.627063642439,0.846461261763557,0.297419372594487
9084,0.249997140597464,-0.230975761738241,-0.249995930621098,0.24997238348176,-0.249992373973172,0.24947950699887,0.248080822554984,0.249998232111895,0.73121849982103,0.728164303464724,0.04,0.0332589976770008,348.96533381405,0.840828871360587,0.304950498094433
9144,0.184507811972985,-0.0385854570429442,-0.249997558372659,0.249982952191417,-0.0500103295372581,0.249687704199322,0.248848459211917,0.249998939267137,0.736091681102238,0.739810348162841,0.04,0.0449712699324155,351.16294364295,0.837512836014101,0.308085944398233
9204,0.0862738190362671,0.25,-0.25,0.249998805255903,0.249962737116612,0.25,0.249999914197318,0.25,0.745477743207109,0.751456392860958,0.04,0.0542407509323934,355.822041110556,0.884265711043905,0.295668282178564
9264,0.151763613248662,0.249999746584219,-0.050000377252109,0.249999185892262,0.249977642269968,0.0499999999999999,0.249999948518391,0.249999808066947,0.76091419876569,0.763102437559075,0.04,0.0564652070373385,363.132208137094,0.902576398896848,0.295621130628994
9324,0.249998304567254,0.249999366460549,0.249999056869728,0.249999756846801,0.25,-0.25,0.25,0.249999520167368,0.77248461904193,0.774748482257192,0.04,0.06124377695301,368.62999777694,0.913666498625125,0.296454228262332
9384,0.249998982740353,0.249997396702678,0.249999252574802,0.249996959711166,0.249999795251626,-0.0501992215128178,0.05,0.249999712100421,0.784949799871529,0.786394526955309,0.04,0.0601497916088593,374.611621490752,0.928399657329681,0.296483788221259
9444,0.25,0.249994442065871,0.249999546132414,0.249992764007714,0.249999488129065,0.249501946217955,-0.000913794205865094,0.25,0.791320793912751,0.798040571653426,0.04,0.0630686181499676,377.660621953653,0.965805422011881,0.287320584407189
9504,0.249999923401578,0.249996665239523,0.249998373818275,0.249994728892584,0.249999692877439,0.249673806875651,-0.000431379953146101,0.249999862797776,0.805361120409386,0.809686616351543,0.04,0.0612325936406288,384.342171562908,0.996187896202325,0.283485894993155
9564,0.249999808503946,0.25,0.249996615347065,0.249997676219889,0.25,0.249931597862196,-0.000203504676762334,0.249999656994439,0.818034334161194,0.82133266104966,0.04,0.0609131446203491,390.382230186715,1.0182740461133,0.281695586391133
9624,0.249999885102367,0.249999986820402,0.249997969208239,0.249997991263467,0.249998468987602,0.249958833776899,-9.58645286999275e-05,0.249999761870838,0.830176582797058,0.832978705747777,0.04,0.0607973949644328,396.172616529754,1.03651874686647,0.280841942819085
9684,0.25,0.249999967051005,0.25,0.249998463828834,0.249996172469004,0.249999687648953,-4.50191642610488e-05,0.249999919185435,0.84208786180507,0.844624750445894,0.04,0.0605949364045192,401.854294430529,1.0527916362266,0.280466415469052
9744,0.25,0.0500040348572924,0.249994631187208,0.0966326213588078,0.249997703464981,0.249999812584147,-2.10016286903531e-05,0.24999995151122,0.857808626972516,0.856270795144011,0.04,0.0526301116356937,409.443794858483,1.06034148392445,0.283728666755602
9804,0.25,-0.249989863433277,0.24998657796802,-0.133416142346232,0.249999999958947,0.24999999998694,-5.09543057893299e-05,0.249999999999897,0.874178270497695,0.867916839842128,0.04,0.0433090886894434,417.114417515579,1.02087270950557,0.300219075703376
9864,0.25,-0.050579807358421,0.0499969656350152,0.00013253561238821,0.249971867598925,0.050166375318022,-5.45816312170414e-05,0.050006069821503,0.891761989001859,0.879562884540245,0.04,0.0397075396155352,425.688903308215,0.980137052099452,0.319124537542164
9924,0.25,0.248535276753862,-0.249987452864493,0.200455552550319,0.249929669058892,-0.249584061685354,0.0664548404677089,-0.000192156485062549,0.894816936815322,0.891208929238362,0.04,0.0409543270213524,426.948201958039,0.931629301030016,0.336733811342396
9984,0.249260479515068,0.249117684746664,-0.249891736497177,0.02137411776774,0.190959578457947,-0.0497606876104034,0.0712081715816903,-0.00137394929142669,0.901492818663473,0.902854973936479,0.04,0.0349180507302485,430.179270094853,0.931692775869025,0.339259038212387
10044,0.248151198787671,0.249991296735866,-0.249748161946203,-0.247248034406128,0.102504442556529,0.249974373502023,0.0783381682526625,-0.010918127751688,0.913963900935277,0.914501018634596,0.04,0.0298709668115885,436.143792899287,0.938032472808933,0.341638258440001
10104,0.048890719272603,0.0499947784192869,-0.249848897167722,-0.248348797925712,-0.0384973344660823,0.0499846243091836,0.147002900951597,-0.0313744498685899,0.937617972005382,0.926147063332713,0.04,0.0108491779699071,447.724110614226,0.919563560303088,0.357753099942079
10164,-0.25,-0.249999999055582,-0.25,-0.249999943205087,-0.25,-0.249999999480076,0.25,-0.0859189968817486,0.931179057797733,0.93779310803083,0.04,2.04619070214269e-07,444.239676925898,0.881253022197976,0.370400361201168
10224,-0.249999966332668,-0.249999992268417,-0.249999999071143,-0.24999937866333,-0.249999960013627,-0.249363839738677,0.249999986043927,0.0114849554014134,0.948066610603156,0.949439152728947,0.04,4.66807572830466e-06,452.725238798546,0.934322554416418,0.356034882451239
10284,-0.249999915831669,-0.249999982087671,-0.249999997677858,-0.249998531850694,-0.249999900034066,-0.24840960012658,0.249999965109818,0.249655042787822,0.973272033525905,0.961085197427064,0.04,0.00360234060052553,463.799674266346,0.842648483713739,0.404425631152625
10344,-0.123684014181767,-0.0500014779562607,-0.0500003512830506,-0.0499991191104165,-0.0500002912058486,-0.203422858646309,0.249999935139696,0.249792068274268,0.932200983736797,0.972731242125181,0.04,0.0208902047808739,444.141371729375,0.933665556946871,0.349530089283185
10404,0.0657898382930856,0.249996278240854,0.24999911830916,0.25,0.249999122036478,-0.135942746425904,0.249999890184512,0.249997606503937,0.952373197838769,0.984377286823298,0.04,0.0382848444175846,454.851746373645,1.22406111671258,0.273036960303932
10464,-0.0605260970241486,0.249996438537414,0.249998930082469,0.24999975369152,0.0500006179296565,0.018434352144458,0.0499999341107074,0.249998563902362,0.995224701303407,0.991364913642168,0.04,0.041831689895585,475.089216541697,1.2774856679331,0.273258583541317
10524,-0.25,0.249996678982254,0.249998647742433,0.2499993842288,-0.249997138230575,0.25,-0.25,0.25,1.00399848218779,0.991364913642168,0.04,0.0491105515076033,478.914213222161,1.1903440140064,0.295624150566348
10584,-0.0500234146976811,0.212268955802379,0.0501042223919221,0.0946571457160358,-0.249997969426751,0.0506847290391406,-0.05,0.25,0.99972380795664,0.991364913642168,0.04,0.051274085724246,476.970799676116,1.13890552149321,0.307722158438802
10644,0.249941463255797,0.155677371032567,-0.249737415633844,-0.138356212053111,-0.249999216221016,-0.248288177402149,0.25,0.25,0.999572560541042,0.991364913642168,0.04,0.0478075122698673,476.88230345734,1.08706232660401,0.322337948709548
10704,0.0499727543891495,-0.00649997641112009,-0.0498424493803063,-0.182986391174218,-0.0968659307338803,-0.0489729064412891,0.249992431742876,0.25,0.993142947333396,0.991364913642168,0.04,0.050675573490945,473.758365547175,1.05550814505892,0.329799489485143
10764,-0.249980308910822,-0.249765997576652,0.25,-0.249931659855878,0.132833997496822,0.25,0.249981079357189,0.25,0.99437202933718,0.991364913642168,0.04,0.0503692007166948,474.402361800193,1.04795243363143,0.332628875968041
10824,-0.0499882920270137,-0.049859598545991,0.249999351530141,-0.249958995913527,0.179696623093487,0.249866934785976,0.249988647614313,0.0500229373919995,0.990699312324376,0.991364913642168,0.04,0.0547178846878454,472.591024575464,1.03590603487871,0.335212173818401
10884,0.249999733298699,0.25,0.249998378825353,-0.25,0.249990561488484,0.24966733696494,0.25,-0.249942656520001,0.989824598474829,0.991364913642168,0.04,0.0631918938301835,472.24210246961,1.04237023533133,0.332887416238153
10944,0.249999839744715,0.249999558938631,0.0794602243071347,-0.209333272725182,0.249994336880828,0.0545197045265973,0.25,-0.249965555292521,0.996171837104347,0.991364913642168,0.04,0.0524275139209802,475.387239809015,1.03847224975858,0.336362290272935
11004,0.24999999941374,0.249998897346578,-0.176347007470193,-0.148333181812956,0.249999999969344,-0.238201744130917,0.25,-0.236200936222763,0.998093253823732,0.991364913642168,0.04,0.043111263398479,476.112659727211,0.984594484006155,0.355309653660448
11064,0.148222736224487,0.249999338407947,-0.00580820448211568,-0.18899796677879,0.0500067631261562,-0.0429263677199361,0.05,-0.216498565993449,0.998691104655021,0.991364913642168,0.04,0.0379320176538769,476.549873955269,0.955870745166458,0.366322728453367
11124,-0.00444315855939124,0.25,0.25,-0.249995144227541,-0.249983092138625,0.249986696896535,-0.21217929872505,-0.21217929872505,0.995636136177779,0.991364913642168,0.04,0.0327120451211505,474.938958635543,0.908883548065727,0.383958449931152
11184,-0.102646527182982,0.217485974268332,0.0500000000000001,-0.24998095821815,-0.249987916245836,0.0499920211457701,-0.05,-0.222931957250171,0.995458802820142,0.991364913642168,0.04,0.0174330880659848,475.00967665411,0.89610914619222,0.389489920546956
11244,-0.249951580118368,0.168714935670829,-0.25,-0.249959679204064,-0.249995152406653,-0.249999992480376,0.25,-0.25,1.00134699542348,0.991364913642168,0.04,0.00498461429884739,477.626025276043,0.819425243713264,0.428285449773972
11304,-0.249970948071021,0.00126103815301724,-0.0500053512013974,-0.0499763299838994,-0.247801152274561,-0.0499999954882259,0.24999952834183,-0.24997871744473,0.976864159304599,0.991364913642168,0.04,0.0146136295054432,465.717022940911,0.839797079949466,0.407476370062584
11364,-0.25,-0.249919808123701,0.249986621996506,0.249998693846348,-0.244510152076423,0.25,0.249998820854575,-0.249946793611825,0.978506463803791,0.991364913642168,0.04,0.0240600782332945,467.009256863876,0.955472121991699,0.359138649549389
11424,-0.249989757984386,-0.249950057892774,0.0499919731979755,0.0499995968850108,-0.24669687016886,0.0500537341386578,0.0503907600262247,-0.129890464326172,1.00611596974992,0.991364913642168,0.04,0.0138698697216098,480.458199989507,0.957212669417425,0.368809286561713
11484,-0.249974394960966,-0.249995432546384,-0.249999999999821,-0.249999048556995,-0.249976947307515,-0.249865664653355,-0.249021331216301,0.0501940296023063,1.00679325282245,0.991364913642168,0.04,0.00455774211043575,480.171428681468,0.800827342144844,0.440567136750049
11544,-0.0499846369765795,-0.0499972595278305,-0.0500078157544456,-0.070421431740563,-0.0499861683845089,-0.0499194229473028,-0.0494127997499835,0.00960772507567208,0.942379916810841,0.984373495079699,0.04,0.0315242348240941,448.176369777749,0.875020911218958,0.376344175356437
11604,0.25,0.25,0.249980460613617,0.198944993484085,0.25,0.249999939611776,0.249999997449493,-0.0512717317142792,0.939337217053107,0.966894948673526,0.04,0.0601817776046571,448.444801166103,1.1555630156092,0.285147807270768
11664,0.25,0.249712821528323,0.249981224745333,0.219366985472786,0.19752578838805,0.0709667482810601,0.249999949035414,-0.0589092461340131,0.953952511081441,0.949416402267353,0.04,0.0664046925439996,455.161922435815,1.18115803055633,0.283147409286098
11724,0.25,0.249282053820807,0.249982370942907,0.249999973455837,0.118814470970125,-0.197583038715014,0.249999876414296,-0.0703655177636138,0.944211258449935,0.93193785586118,0.04,0.0748402148534352,450.315320199479,1.1067984724673,0.298952952938244
11784,0.249995446614949,0.249569232292484,0.249989422565744,0.249999984032761,0.171288682582075,-0.0185526571634364,0.249999373176731,-0.142219101496789,0.922290746792867,0.914459309455007,0.04,0.0832911895205391,439.831089148668,1.04664988694419,0.308772894742805
11844,0.249988616537373,0.25,0.25,0.249999999898147,0.25,0.249992915163929,0.249998618320384,-0.249999477096551,0.905273457418539,0.903972181611303,0.04,0.084658858212886,431.875374228116,1.02481987302796,0.309646074585234
11904,0.0499931980962009,0.0500000998776037,0.0500126552527786,0.249999999938888,0.050090128292444,0.0499957490983576,0.0500026833715909,-0.249999300094775,0.923438717586768,0.903972181611303,0.04,0.0530039297191578,440.978418426813,0.984521780524679,0.32911424738963
11964,-0.249999929565556,-0.249999750305991,-0.249968361868053,0.25,-0.24977467926889,-0.25,-0.249991219051599,-0.249999034592111,0.931776015271313,0.903972181611303,0.04,0.0112639770361027,444.20265428583,0.764235431556205,0.427079432495923
12024,-0.249999948937667,-0.249999850183594,-0.050290987330206,0.0500274758195948,-0.249842513543896,-0.25,-0.249994693801479,-0.249954395282656,0.910552688331011,0.903972181611303,0.04,0.000305849739252724,434.344507405549,0.70036025806503,0.455687920279348
12084,-0.249999977995833,-0.25,0.249225074476565,-0.249931310451013,-0.249944264956404,-0.25,-0.2499999059263,-0.249887436318474,0.889731286357793,0.903972181611303,0.04,3.00309539060722e-06,424.496320831303,0.761236600376404,0.409740549679819
