time,bias_percent_1,bias_percent_2,bias_percent_3,bias_percent_4,bias_percent_5,bias_percent_6,bias_percent_8,bias_percent_9,normalized_power,power_SP,SP,CV,total_power_MW,fuel_fraction,thermal_efficiency
1,0,0,0,0,0,0,0,0,1.01334502070237,1,0.04,0.0404999826659105,482.488765428893,0.985295336602725,0.359811843508822
61,1.70087821437619e-05,8.43775310678438e-05,0.000273137313551956,-0.000124669461479357,0.000229156880735445,0.000334440171749748,-0.000220090392361215,0.000404379697708976,0.999870163748833,0.99921776127022,0.04,0.0399180920057402,477.039628637365,0.999264578087701,0.350775006793544
121,0.00103753571077368,0.00514702939514109,0.0166613761266696,-0.00760483715023656,0.0139785697248626,0.0204008504767384,-0.0134255139340381,0.0246671615602452,0.965978595793367,0.952283437483401,0.04,0.0540334572889211,460.517222389869,0.926228329236727,0.36532760758257
181,0.0020580626394036,0.0102096812592143,0.0330496149397873,-0.0150850048389939,0.0277279825689899,0.0404672607817272,-0.0266309374757149,0.0489299434227816,0.919593319864377,0.905349113696582,0.04,0.066200268298195,438.357820777057,0.838322008036084,0.384213453492599
241,0.00307858956803329,0.0152723331232876,0.049437853752905,-0.0225651725277511,0.0414773954131172,0.0605336710867158,-0.0398363610173917,0.0731927252853179,0.871852814617804,0.858414789909763,0.04,0.07387876624538,415.581988867788,0.753800123375279,0.405093420310446
301,0.00409911649666321,0.0203349849873608,0.0658260925660225,-0.0300453402165084,0.0552268082572442,0.0806000813917044,-0.0530417845590684,0.0974555071478542,0.824185166728072,0.811480466122944,0.04,0.0783507814036222,392.839613046743,0.673711353323215,0.428445992280408
361,0.00511964342529302,0.025397636851434,0.0822143313791402,-0.0375255079052657,0.0689762211013715,0.100666491696693,-0.0662472081007452,0.121718289010391,0.776503566343468,0.764546142336125,0.04,0.0803678830261845,370.090730453409,0.598088636192523,0.454671081992027
421,0.00614017035392294,0.0304602887155073,0.0986025701922578,-0.0450056755940229,0.0827256339454988,0.120732902001682,-0.079452631642422,0.145981070872927,0.728491494727594,0.717611818549306,0.04,0.0802129036815751,347.43425867017,0.528275795922745,0.483244147423367
481,0.00716069728255275,0.0355229405795804,0.114990809005375,-0.0524858432827803,0.0964750467896259,0.14079931230667,-0.0474168895847317,0.170243852735463,0.677671581579697,0.670677494762488,0.04,0.0820510764748598,323.202243845663,0.4764000458176,0.498490916404256
541,0.0081812242111825,0.0405855924436535,0.131379047818493,-0.0599660109715376,0.110224459633753,0.160865722611659,-0.0223978639750405,0.194506634598,0.629222463128591,0.623743170975669,0.04,0.0842390190313727,300.093431068839,0.43992142543959,0.501228839599592
601,0.00920175113981236,0.0456482443077268,0.147767286631611,-0.0674461786602949,0.12397387247788,0.180932132916648,-0.0105797269970841,0.218769416460536,0.582063377285265,0.57680884718885,0.04,0.0892264641254235,277.539833487136,0.407036614536839,0.501010147514423
661,0.0102222780684422,0.0507108961718001,0.164155525444728,-0.0749263463490522,0.137723285322008,0.200998543221636,-0.00499724090124081,0.243032198323072,0.535009211917707,0.529874523402031,0.04,0.0968427107218045,255.172398801575,0.374919065859513,0.500093081438399
721,0.011242804997072,0.0557735480358733,0.180543764257846,-0.0824065140378095,0.151472698166135,0.221064953526625,-0.00236026384589616,0.267294980185609,0.488076395132679,0.482940199615212,0.04,0.106487077733998,232.845447746487,0.342157948386503,0.500029693203862
781,0.0122633319257019,0.0608361998999465,0.196932003070964,-0.0898866817265668,0.165222111010262,0.241131363831614,-0.00111464497802728,0.291557762048145,0.441442168034618,0.436005875828393,0.04,0.117741892100315,210.513822431516,0.308370056079726,0.501606428383357
841,0.0132838588543317,0.0658988517640197,0.213320241884081,-0.0973668494153241,0.178971523854389,0.261197774136602,-0.000526256861888256,0.315820543910681,0.394722199201587,0.389071552041574,0.04,0.130584726474736,188.261171096188,0.27368997801722,0.505424787896352
901,0.0142873770008177,0.070877126097025,0.229435343383647,-0.104722347642602,0.192491779817781,0.280929744269841,-0.000248322150467557,0.339678946075509,0.348286542857554,0.342919466984536,0.04,0.145426793015169,166.042702235976,0.237529447196239,0.513637839909093
961,0.0142873770008177,0.070877126097025,0.229435343383647,-0.104722347642602,0.192491779817781,0.280929744269841,-0.000117034885714811,0.339678946075509,0.331812948641803,0.342919466984536,0.04,0.117202970555404,158.298837639486,0.294522001745844,0.394925028963482
1021,0.0142873770008177,0.070877126097025,0.229435343383647,-0.104722347642602,0.192491779817781,0.280929744269841,-5.50192853785621e-05,0.339678946075509,0.335204989447898,0.342919466984536,0.04,0.0865997396765622,159.959919367296,0.350994924598155,0.3348613441852
1081,0.0142873770008177,0.070877126097025,0.229435343383647,-0.104722347642602,0.192491779817781,0.280929744269841,-2.57253290178486e-05,0.339678946075509,0.337911568302291,0.342919466984536,0.04,0.0796449385160845,161.233661584592,0.385580217181336,0.307252658639531
1141,0.0142873770008177,0.070877126097025,0.229435343383647,-0.104722347642602,0.192491779817781,0.280929744269841,-1.18879094877542e-05,0.339678946075509,0.339735933846567,0.342919466984536,0.04,0.0796115761702165,162.100995711654,0.408235201050434,0.291762793658751
1201,0.0142873770008177,0.070877126097025,0.229435343383647,-0.104722347642602,0.192491779817781,0.280929744269841,-5.35160633723024e-06,0.339678946075509,0.341142551149186,0.342919466984536,0.04,0.0818877359826989,162.768282106705,0.421539919252124,0.283717254217777
1261,0.0142873770008177,0.070877126097025,0.229435343383647,-0.104722347642602,0.192491779817781,0.280929744269841,-2.26408999918521e-06,0.339678946075509,0.342043934576487,0.342919466984536,0.04,0.0845302853786758,163.194367276023,0.428389803738463,0.279911483272941
1321,0.0142873770008177,0.070877126097025,0.229435343383647,-0.104722347642602,0.192491779817781,0.280929744269841,-8.05657469639704e-07,0.339678946075509,0.342509750833504,0.342919466984536,0.04,0.0866294246093558,163.413805285947,0.431625891602936,0.278186423466025
1381,0.0142873770008177,0.070877126097025,0.229435343383647,-0.104722347642602,0.192491779817781,0.280929744269841,-1.1674599181954e-07,0.339678946075509,0.342711814812976,0.342919466984536,0.04,0.087984490374227,163.508789937672,0.433196780460642,0.277338754293282
1441,0.0142873770008177,0.070877126097025,0.229435343383647,-0.104722347642602,0.192491779817781,0.280929744269841,2.08671204147874e-07,0.339678946075509,0.342795545684194,0.342919466984536,0.04,0.0887520441759441,163.548190287386,0.434077779436441,0.276842565000939
1501,0.0142873770008177,0.070877126097025,0.229435343383647,-0.104722347642602,0.192491779817781,0.280929744269841,3.6238667390078e-07,0.339678946075509,0.342837012590303,0.342919466984536,0.04,0.0891584732588313,163.567791619375,0.434646196113492,0.276513655296173
1561,0.0142873770008177,0.070877126097025,0.229435343383647,-0.104722347642602,0.192491779817781,0.280929744269841,4.34996375951443e-07,0.339678946075509,0.342863645204348,0.342919466984536,0.04,0.0893728205858771,163.580421936003,0.435030988845345,0.276290406838265
1621,0.0142873770008177,0.070877126097025,0.229435343383647,-0.104722347642602,0.192491779817781,0.280929744269841,4.69294607875406e-07,0.339678946075509,0.342882555762218,0.342919466984536,0.04,0.0894911003665894,163.589392429926,0.435287973088885,0.276142433574857
1681,0.0142873770008177,0.070877126097025,0.229435343383647,-0.104722347642602,0.192491779817781,0.280929744269841,4.85495868586946e-07,0.339678946075509,0.342895635884371,0.342919466984536,0.04,0.0895602963915354,163.595591879123,0.435455184742202,0.276046857656036
1741,0.0142873770008177,0.070877126097025,0.229435343383647,-0.104722347642602,0.192491779817781,0.280929744269841,4.93148765949852e-07,0.339678946075509,0.342904213766734,0.342919466984536,0.04,0.0896023726376835,163.599654103179,0.435562380372056,0.275985772963695
1801,0.0145548270118114,0.0707835707657985,0.229102611500634,-0.104696584615513,0.192060533848093,0.280900926755096,4.96763721354736e-07,0.339691688670711,0.3429096383421,0.342883728580723,0.04,0.0896282597790868,163.602209185399,0.435593718452549,0.275970227623564
1861,0.0306018276714316,0.0651702508922039,0.20913869851985,-0.103150802990169,0.166185775666819,0.279171875870382,4.98471297392882e-07,0.34045624438283,0.34198686338688,0.340739424351991,0.04,0.0898728054916859,163.148006516319,0.429507065641735,0.279104047923412
1921,0.0466488283310518,0.0595569310186094,0.189174785539067,-0.101605021364825,0.140311017485546,0.277442824985669,4.99277895445362e-07,0.341220800094949,0.339920041683154,0.338595120123259,0.04,0.0903583437547042,162.157954165023,0.421363480105901,0.282771763645301
1981,0.0626958289906719,0.0539436111450148,0.169210872558283,-0.10005923973948,0.114436259304272,0.275713774100955,4.99658903579152e-07,0.341985355807069,0.337646676930022,0.336450815894527,0.04,0.0899807810609216,161.07324619374,0.413813539818338,0.286004845559624
2041,0.0787428296502922,0.0483302912714203,0.1492469595775,-0.0985134581141363,0.0885615011229979,0.273984723216241,4.9983887822398e-07,0.342749911519188,0.335419078081583,0.334306511665794,0.04,0.0890629039690536,160.01099251735,0.406894461168815,0.28895001228467
2101,0.0947898303099123,0.0427169713978257,0.129283046596716,-0.0969676764887922,0.0626867429417242,0.272255672331528,4.99923891823188e-07,0.343514467231307,0.333245720248256,0.332162207437062,0.04,0.0879264508349987,158.974376252115,0.400245060643369,0.291847397478435
2161,0.110836830969533,0.0371036515242311,0.109319133615933,-0.095421894863448,0.0368119847604504,0.270526621446814,4.99964049213454e-07,0.344279022943426,0.331094349474277,0.33001790320833,0.04,0.0866955529154904,157.948034282213,0.393669455456989,0.294806586447932
2221,0.126883831629153,0.0314903316506366,0.089355220635149,-0.0938761132381038,0.0109372265791766,0.2687975705621,4.99983018131462e-07,0.345043578655546,0.328945691557676,0.327873598979598,0.04,0.0853829386153821,156.922887599878,0.387119359328768,0.297848952503385
2281,0.142930832288773,0.025877011777042,0.0693913076543655,-0.0923303316127597,-0.0149375316020971,0.267068519677387,4.99991978371359e-07,0.345808134367665,0.326790923417339,0.325729294750865,0.04,0.0839654883692394,155.89477718027,0.380616485182431,0.300952979614457
2341,0.158977832948393,0.0202636919034474,0.0494273946735819,-0.0907845499874155,-0.0408122897833709,0.265339468792673,4.99996210868909e-07,0.346572690079784,0.324626161424141,0.323584990522133,0.04,0.0824137334426393,154.861887153393,0.374215091294477,0.304073046894511
2401,0.175024833608013,0.0146503720298529,0.0294634816927984,-0.0892387683620714,-0.0666870479646447,0.263610417907959,4.99998210149701e-07,0.347337245791904,0.322452227849598,0.321440686293401,0.04,0.0807049730602047,153.824644596727,0.367974164258024,0.307159016984756
2461,0.191071834267633,0.00903705215625837,0.00949956871201488,-0.0876929867367271,-0.0925618061459184,0.261881367023246,4.99999154538595e-07,0.348101801504023,0.320273229923034,0.319296382064669,0.04,0.0788308782719751,152.785023659864,0.361933404875995,0.310175001939025
2521,0.207118834927254,0.00342373228266376,-0.0104643442687687,-0.086147205111383,-0.118436564327192,0.260152316138532,4.36134006253675e-07,0.348866357216142,0.318062637104876,0.317152077835936,0.04,0.0767889442194841,151.74518954564,0.356149581644613,0.313066912494345
2581,0.223165835586874,-0.00218958759093073,-0.0304282572495522,-0.0846014234860388,-0.144311322508466,0.258423265253818,0.011826813280963,0.349630912928261,0.315710959024244,0.315007773607204,0.04,0.0752689026314933,150.607556655266,0.351162306284073,0.315132755246082
2641,0.239212836246494,-0.00780290746452533,-0.0503921702303358,-0.0830556418606946,-0.17018608068974,0.256694214369105,0.026938419646989,0.350395468640381,0.313503669423766,0.312863469378472,0.04,0.0736588295274216,149.555671054416,0.347155908698175,0.316543208914615
2701,0.25499238689512,-0.0133226720068933,-0.0700233513281062,-0.0815356232624396,-0.195629592901326,0.254993980999136,0.0417981659069145,0.351147281757298,0.311347310500942,0.310719165149739,0.04,0.0722272701827727,148.526690471307,0.343255178069824,0.317937740103471
2761,0.254992386895121,-0.0133226720068933,-0.0700233513281062,-0.0815356232624395,-0.195629592901326,0.254993980999136,0.0417981659069145,0.351147281757298,0.309004794286332,0.308574860921007,0.04,0.0722798174520737,147.408025563038,0.340086945918209,0.318482697761217
2821,0.25499238689512,-0.0133226720068933,-0.0700233513281062,-0.0815356232624396,-0.195629592901326,0.254993980999136,0.0417981659069145,0.351147281757298,0.306767075351734,0.306430556692275,0.04,0.0721470251845776,146.341034331831,0.337808796125542,0.318309677576388
2881,0.25499238689512,-0.0133226720068933,-0.0700233513281062,-0.0815356232624396,-0.195629592901326,0.254993980999136,0.0417981659069145,0.351147281757298,0.304578067386691,0.304286252463543,0.04,0.0720958242953464,145.296897701906,0.335873976748997,0.317859108882976
2941,0.25499238689512,-0.0133226720068933,-0.0700233513281062,-0.0815356232624396,-0.195629592901326,0.254993980999136,0.0417981659069145,0.351147281757298,0.302411311517251,0.30214194823481,0.04,0.072151990585185,144.263265642576,0.334112544692512,0.317261704478884
3001,0.25499238689512,-0.0133226720068933,-0.0700233513281062,-0.0815356232624396,-0.195629592901326,0.254993980999136,0.0417981659069145,0.351147281757298,0.300256524380069,0.299997644006078,0.04,0.0722964287954227,143.235284297596,0.332434803914752,0.316590737957055
3061,0.25499238689512,-0.0133226720068933,-0.0700233513281062,-0.0815356232624395,-0.195629592901326,0.254993980999136,0.0417981659069145,0.351147281757298,0.298107919876082,0.297853339777346,0.04,0.0725041271970101,142.21021851719,0.330793390112623,0.315884747941683
3121,0.25499238689512,-0.0133226720068933,-0.0700233513281062,-0.0815356232624396,-0.195629592901326,0.254993980999136,0.0417981659069145,0.351147281757298,0.29596223750402,0.295709035548614,0.04,0.0727537168479935,141.186528156061,0.329165061155249,0.315162258349468
3181,0.25499238689512,-0.0133226720068933,-0.0700233513281062,-0.0815356232624396,-0.195629592901326,0.254993980999136,0.0417981659069145,0.351147281757298,0.29381774928818,0.293564731319881,0.04,0.0730296092198979,140.163398064159,0.32753968897516,0.314431003536425
3241,0.25499238689512,-0.0133226720068933,-0.0700233513281062,-0.0815356232624396,-0.195629592901326,0.254993980999136,0.0417981659069145,0.351147281757298,0.291673613759007,0.291420427091149,0.04,0.0733214847156883,139.140431878515,0.325913755650563,0.313693364650212
3301,0.254992386895121,-0.0133226720068933,-0.0700233513281062,-0.0815356232624396,-0.195629592901326,0.254993980999136,0.0417981659069145,0.351147281757298,0.289529469794571,0.289276122862417,0.04,0.0736230068103394,138.117460076113,0.324286738629587,0.312949362008973
3361,0.25499238689512,-0.0133226720068933,-0.0700233513281062,-0.0815356232624396,-0.195629592901326,0.254993980999136,0.0417981659069145,0.351147281757298,0.287385195718816,0.287131818633685,0.04,0.0739305432224704,137.094425725197,0.322659248294083,0.312198171606286
3421,0.25499238689512,-0.0133226720068933,-0.0700233513281062,-0.0815356232624396,-0.195629592901326,0.254993980999136,0.0417981659069145,0.351147281757298,0.285240776662429,0.284987514404952,0.04,0.0742421580364973,136.071322314232,0.321032155878406,0.311438820697696
3481,0.25499238689512,-0.0133226720068933,-0.0700233513281062,-0.0815356232624395,-0.195629592901326,0.254993980999136,0.0417981659069145,0.351147281757298,0.283096237289808,0.28284321017622,0.04,0.0745569085726664,135.048161753591,0.319406243887322,0.310670453703374
3541,0.25499238689512,-0.0133226720068933,-0.0700233513281062,-0.0815356232624396,-0.195629592901326,0.254993980999136,0.0417981659069145,0.351147281757298,0.280951609477362,0.280698905947488,0.04,0.0748743983723072,134.024959307733,0.317782107464009,0.309892395720995
3601,0.254598557506264,-0.013565472854543,-0.0702750528365851,-0.0813492781677704,-0.195884227789147,0.254854357882457,0.0417267574127827,0.350495309099229,0.278806921957957,0.278590340122568,0.04,0.075186849195016,133.001679139939,0.316197686066616,0.309067338859804
3661,0.23096879417489,-0.0281335237135313,-0.0853771433453226,-0.0701685724876212,-0.211162321058401,0.246476970881677,0.0374422477648751,0.311376949615074,0.279447390345642,0.278590340122568,0.04,0.0651676626462426,133.327959218228,0.313655887708438,0.312336301782122
