time,bias_percent_1,bias_percent_2,bias_percent_3,bias_percent_4,bias_percent_5,bias_percent_6,bias_percent_8,bias_percent_9,normalized_power,power_SP,SP,CV,total_power_MW,fuel_fraction,thermal_efficiency
33,0,0,0,0,0,0,0,0,0.999643619372713,1,0.04,0.039973063402758,476.9375662366,0.999691847834543,0.350550068976956
93,0,0,0,0,0,0,0,0,0.999959599746935,1,0.04,0.0398984738254612,477.081410195717,1.00025118327423,0.350459709616
153,0,0,0,0,0,0,0,0,0.999995801085491,1,0.04,0.039938495212437,477.098080894103,1.00031482755781,0.350449657244626
213,0,0,0,0,0,0,0,0,1.00000094062385,1,0.04,0.0399705764677624,477.100467731562,1.0003158650905,0.350451046992402
273,0,0,0,0,0,0,0,0,1.00000264286329,1,0.04,0.0399900103112316,477.101270781636,1.00030295023388,0.350456161529511
333,0,0,0,0,0,0,0,0,1.00000358092251,1,0.04,0.0400011164846948,477.101713569604,1.00028308928053,0.35046344521081
393,0,0,0,0,0,0,0,0,1.0000039667297,1,0.04,0.0400069954193398,477.101893647427,1.00025982785322,0.350471727655532
453,0,0,0,0,0,0,0,0,1.00000391518316,1,0.04,0.0400095679357333,477.101866144887,1.00023604797772,0.350480039659356
513,0,0,0,0,0,0,0,0,1.0000035706478,1,0.04,0.0400100841095628,477.10170001135,1.00021380701442,0.350487710962023
573,0,0,0,0,0,0,0,0,1.0000030661125,1,0.04,0.0400093931290777,477.101458470456,1.00019432462553,0.3504943605294
633,0,0,0,0,0,0,0,0,1.00000250386349,1,0.04,0.0400080754455904,477.101190107925,1.00017814034096,0.350499834868453
693,0,0,0,0,0,0,0,0,1.00000195292819,1,0.04,0.0400065185053598,477.100927591542,1.00016531210743,0.350504137560287
753,0,0,0,0,0,0,0,0,1.00000145553911,1,0.04,0.0400049683068351,477.100690779179,1.00015559277042,0.350507369721299
813,0,0,0,0,0,0,0,0,1.00000103241536,1,0.04,0.0400035666652409,477.100489557637,1.00014857076863,0.35050968278836
873,0,0,0,0,0,0,0,0,1.00000069000219,1,0.04,0.0400023837782661,477.100326799809,1.00014376891606,0.350511246068962
933,0,0,0,0,0,0,0,0,1.00000042534345,1,0.04,0.0400014405909762,477.10020113386,1.00014071131934,0.350512225316944
993,0,0,0,0,0,0,0,0,1.00000022986119,1,0.04,0.0400007277832536,477.10010836094,1.00013896341547,0.350512769735694
1053,0,0,0,0,0,0,0,0,1.00000009269822,1,0.04,0.040000218917906,477.100043340296,1.00013815225515,0.350513006249494
1113,0,0,0,0,0,0,0,0,1.00000000224219,1,0.04,0.0399998796237237,477.100000508886,1.00013797390895,0.350513037286401
1173,0,0,0,0,0,0,0,0,0.999999947586088,1,0.04,0.0399996741235199,477.099974675719,1.00013819170286,0.350512941978388
1233,0,0,0,0,0,0,0,0,0.99999991912094,1,0.04,0.0399995688972709,477.099961269201,1.00013862957995,0.35051277866866
1293,0,0,0,0,0,0,0,0,0.999999908818408,1,0.04,0.039999534784762,477.099956469805,1.00013916292855,0.350512588223185
1353,0,0,0,0,0,0,0,0,0.999999910330942,1,0.04,0.0399995478310275,477.099957264933,1.00013970861659,0.350512397563536
1413,0,0,0,0,0,0,0,0,0.999999918838452,1,0.04,0.0399995893255757,477.099961364756,1.00014021554465,0.350512222915903
1473,0,0,0,0,0,0,0,0,0.999999930825458,1,0.04,0.0399996453530804,477.099967098305,1.00014065624,0.350512072680801
1533,0,0,0,0,0,0,0,0,0.999999943901122,1,0.04,0.0399997061347776,477.099973339198,1.00014101973404,0.350511949874723
1593,0,0,0,0,0,0,0,0,0.999999956531481,1,0.04,0.03999976522732,477.099979357179,1.00014130593861,0.350511853992016
1653,0,0,0,0,0,0,0,0,0.99999996782826,1,0.04,0.0399998187784359,477.099984733945,1.00014152131939,0.350511782459338
1713,0,0,0,0,0,0,0,0,0.999999977369449,1,0.04,0.0399998648460618,477.099989271418,1.0001416757351,0.350511731676032
1773,0,0,0,0,0,0,0,0,0.999999985052419,1,0.04,0.0399999028196226,477.099992922202,1.00014178025015,0.350511697729599
1833,0,0,0,0,0,0,0,0,0.999999990969944,1,0.04,0.0399999329563905,477.099995732117,1.00014184572397,0.350511676847879
1893,0,0,0,0,0,0,0,0,0.999999995327976,1,0.04,0.0399999560257121,477.099997800018,1.00014188197235,0.350511665663427
1953,0,0,0,0,0,0,0,0,0.999999998381964,1,0.04,0.0399999730495633,477.099999247784,1.00014189735589,0.350511661335714
2013,0,0,0,0,0,0,0,0,1.00000000039545,1,0.04,0.0399999851229471,477.100000201186,1.00014189865448,0.350511661581048
2073,0,0,0,0,0,0,0,0,1.00000000161465,1,0.04,0.0399999932984528,477.10000077746,1.00014189112568,0.350511664642977
2133,0,0,0,0,0,0,0,0,1.00000000225449,1,0.04,0.0399999985188212,477.100001078809,1.00014187866864,0.350511669230086
2193,0,0,0,0,0,0,0,0,1.0000000024929,1,0.04,0.0400000015845648,477.100001190068,1.00014186403786,0.350511674439358
2253,0,0,0,0,0,0,0,0,1.00000000247156,1,0.04,0.0400000031467209,477.100001178032,1.00014184906644,0.350511679677429
2313,0,0,0,0,0,0,0,0,1.00000000229433,1,0.04,0.040000003713404,477.100001092822,1.00014183488457,0.350511684585034
2373,0,0,0,0,0,0,0,0,1.00000000204062,1,0.04,0.0400000036660845,477.100000971316,1.0001418220978,0.350511688977043
2433,0,0,0,0,0,0,0,0,1.0000000017618,1,0.04,0.0400000032793359,477.1000008383,1.00014181095308,0.350511692785122
2493,0,0,0,0,0,0,0,0,1.0000000014912,1,0.04,0.0400000027412125,477.100000709679,1.00014180145874,0.350511696018032
2553,0,0,0,0,0,0,0,0,1.00000000125026,1,0.04,0.0400000021744422,477.100000594766,1.00014179347721,0.350511698730831
2613,0,0,0,0,0,0,0,0,1.00000000104593,1,0.04,0.0400000016509428,477.100000497572,1.00014178680195,0.350511700998851
2673,0,0,0,0,0,0,0,0,1.00000000088092,1,0.04,0.0400000012066756,477.100000419021,1.00014178119719,0.350511702905395
2733,0,0,0,0,0,0,0,0,1.00000000075367,1,0.04,0.0400000008568298,477.100000358696,1.00014177643171,0.350511704531197
2793,0,0,0,0,0,0,0,0,1.00000000065933,1,0.04,0.0400000005987647,477.10000031391,1.00014177229765,0.350511705947127
2853,0,0,0,0,0,0,0,0,1.00000000059283,1,0.04,0.0400000004225238,477.100000282367,1.00014176861776,0.350511707213615
2913,0,0,0,0,0,0,0,0,1.00000000054759,1,0.04,0.0400000003139913,477.100000260977,1.00014176524998,0.350511708378178
2973,0,0,0,0,0,0,0,0,1.00000000051931,1,0.04,0.0400000002582377,477.100000247597,1.00014176208317,0.350511709478195
3033,0,0,0,0,0,0,0,0,1.00000000050324,1,0.04,0.0400000002410409,477.100000239989,1.00014175903622,0.350511710540447
3093,0,0,0,0,0,0,0,0,1.00000000049536,1,0.04,0.040000000249965,477.100000236301,1.00014175605262,0.350511711583375
3153,0,0,0,0,0,0,0,0,1.00000000049249,1,0.04,0.040000000275084,477.100000235019,1.00014175309512,0.350511712618926
3213,0,0,0,0,0,0,0,0,1.0000000004928,1,0.04,0.040000000308883,477.100000235145,1.00014175014081,0.350511713654391
3273,0,0,0,0,0,0,0,0,1.00000000049439,1,0.04,0.0400000003453951,477.100000235899,1.00014174717853,0.350511714693111
3333,0,0,0,0,0,0,0,0,1.00000000049659,1,0.04,0.0400000003809217,477.100000236931,1.00014174420386,0.350511715736378
3393,0,0,0,0,0,0,0,0,1.00000000049817,1,0.04,0.0400000004133338,477.100000237697,1.00014174121801,0.350511716783368
3453,0,0,0,0,0,0,0,0,1.00000000049927,1,0.04,0.0400000004406468,477.100000238197,1.00014173822421,0.350511717832947
3513,0,0,0,0,0,0,0,0,1.00000000049934,1,0.04,0.0400000004630919,477.10000023823,1.0001417352278,0.350511718883102
3573,0,0,0,0,0,0,0,0,1.00000000049873,1,0.04,0.0400000004803586,477.100000237941,1.0001417322339,0.350511719932137
3633,0,0,0,0,0,0,0,0,1.00000000049707,1,0.04,0.0400000004931746,477.100000237128,1.00014172924803,0.350511720977974
3693,0,0,0,0,0,0,0,0,1.00000000049461,1,0.04,0.040000000501937,477.100000236226,1.00014172627477,0.350511722019327
3753,0,0,0,0,0,0,0,0,1.0000000004916,1,0.04,0.0400000005071858,477.100000234631,1.00014172331774,0.350511723054482
3813,0,0,0,0,0,0,0,0,1.00000000048803,1,0.04,0.0400000005094802,477.100000232763,1.00014172038015,0.350511724082622
3873,0,0,0,0,0,0,0,0,1.00000000048472,1,0.04,0.0400000005102099,477.100000231235,1.00014171746361,0.350511725103636
3933,0,0,0,0,0,0,0,0,0.996617574865375,0.993791277868857,0.04,0.0415111840188069,475.415290592057,0.991289888689945,0.352392896697367
3993,0,0,0,0,0,0,0,0,0.986212137060574,0.982502692175869,0.04,0.0442772906572747,470.432763285894,0.969195783961819,0.356648761778695
4053,0,0,0,0,0,0,0,0,0.974820517433203,0.971214106482881,0.04,0.0457188284795418,464.995447565152,0.946639517565035,0.360926480955423
4113,0,0,0,0,0,0,0,0,0.963295236238851,0.959925520789892,0.04,0.0461337899822616,459.496378246416,0.925349820822783,0.364863839291653
4173,0,0,0,0,0,0,0,0,0.951748703618195,0.948636935096905,0.04,0.0459399656481121,453.98748145856,0.905583130609435,0.36835810491547
4233,0,0,0,0,0,0,0,0,0.940204460682336,0.937348349403916,0.04,0.0454214974614685,448.479801336782,0.88736271150594,0.371361082745266
4293,0,0,0,0,0,0,0,0,0.928675608041346,0.926059763710928,0.04,0.0447608056526714,442.979549447232,0.870620995949019,0.373860185348387
4353,0,0,0,0,0,0,0,0,0.91717142270418,0.91477117801794,0.04,0.0440747962905615,437.491125549233,0.855227170898031,0.375874128362668
4413,0,0,0,0,0,0,0,0,0.905697406699209,0.903482592324952,0.04,0.0434362619687531,432.017124985431,0.84100964357764,0.377445857190763
4473,0,0,0,0,0,0,0,0,0.894255673062969,0.892194006631964,0.04,0.042886639273664,426.558527190813,0.827777479826477,0.378634076734882
4533,0,0,0,0,0,0,0,0,0.8828455919771,0.880905420938976,0.04,0.0424447289593894,421.115027094467,0.815338289040215,0.379505066037641
4593,0,0,0,0,0,0,0,0,0.871464637141918,0.869616835245988,0.04,0.0421133277503557,415.685389331436,0.803511373908277,0.380125852919663
4653,0,0,0,0,0,0,0,0,0.860108994894331,0.858328249553,0.04,0.0418845660783679,410.267791164033,0.792136625119383,0.380559007487501
4713,0,0,0,0,0,0,0,0,0.848774269439128,0.847039663860012,0.04,0.0417441415346399,404.860145539326,0.781079303347619,0.380859307079382
4773,0,0,0,0,0,0,0,0,0.837455954019964,0.835751078167024,0.04,0.0416746807985695,399.46028863822,0.770231780479099,0.38107183713575
4833,0,0,0,0,0,0,0,0,0.826149724195145,0.824462492474036,0.04,0.0416582289453615,394.066168268465,0.759512856764558,0.381231429398358
4893,0,0,0,0,0,0,0,0,0.814851810270035,0.813173906781048,0.04,0.0416779243203257,388.675979978855,0.748865190429247,0.381363157615289
4953,0,0,0,0,0,0,0,0,0.803559002767937,0.80188532108806,0.04,0.0417191027629781,383.28821881868,0.738251927230879,0.381483323343857
5013,0,0,0,0,0,0,0,0,0.792268779761827,0.790596735395072,0.04,0.0417698609524041,377.901665747249,0.727652628719001,0.381600890857325
5073,0,0,0,0,0,0,0,0,0.78097929453165,0.779308149702084,0.04,0.041821127394958,372.515450203532,0.717059452431358,0.381719020817103
5133,0,0,0,0,0,0,0,0,0.769689253411305,0.768019564009096,0.04,0.0418666368665693,367.128963139574,0.706473374989707,0.381836574157027
5193,0,0,0,0,0,0,0,0,0.758397878832287,0.756730978316108,0.04,0.0419025585841953,361.741835848165,0.695901015712223,0.381949498569434
5253,0,0,0,0,0,0,0,0,0.747104791076543,0.74544239262312,0.04,0.0419270791979337,356.35389066022,0.685352038751044,0.382051995173286
5313,0,0,0,0,0,0,0,0,0.735809905665698,0.734153806930132,0.04,0.0419399780473409,350.965088186947,0.674837184668457,0.382137439286209
5373,0,0,0,0,0,0,0,0,0.724523086765812,0.722865221237144,0.04,0.0419468930589649,345.580377571547,0.664346227777957,0.382216364822302
5433,0,0,0,0,0,0,0,0,0.713262662883088,0.711576635544156,0.04,0.0419866353192447,340.208079177172,0.653726275104692,0.3823872106122
5493,0,0,0,0,0,0,0,0,0.702000367139409,0.700288049851168,0.04,0.0420500103123272,334.834797507947,0.642938808152067,0.382662250142472
5553,0,0,0,0,0,0,0,0,0.690731268017214,0.68899946415818,0.04,0.0421122508023618,329.458250591398,0.63201984389671,0.383022555914189
5613,0,0,0,0,0,0,0,0,0.679454869025072,0.677710878465192,0.04,0.0421584180170726,324.078225287892,0.621012807328245,0.383445787785155
5673,0,0,0,0,0,0,0,0,0.668171391736964,0.666422292772204,0.04,0.0421817837160729,318.694819423401,0.60996085430104,0.383908489633143
5733,0,0,0,0,0,0,0,0,0.656881474355953,0.655133707079216,0.04,0.0421812308413672,313.308357629302,0.598904095298326,0.384387603749029
5793,0,0,0,0,0,0,0,0,0.648826155538525,0.650053843517371,0.04,0.0395112140847026,309.538044064416,0.597398496862497,0.3807190295381
5853,0,0,0,0,0,0,0,0,0.648033881703104,0.650053843517371,0.04,0.0350934180320474,309.175839075435,0.608814941316886,0.373142676367363
5913,0,0,0,0,0,0,0,0,0.648047600349323,0.650053843517371,0.04,0.0333975435231674,309.184530224214,0.621006656862408,0.365827354905607
5973,0,0,0,0,0,0,0,0,0.648285213437401,0.650053843517371,0.04,0.0335753130841242,309.29935718775,0.632195526119215,0.359486243275386
6033,0,0,0,0,0,0,0,0,0.648632243793883,0.650053843517371,0.04,0.0347735658701985,309.465402038005,0.641466569875766,0.354480827324526
6093,0,0,0,0,0,0,0,0,0.649009834109958,0.650053843517371,0.04,0.036353228320712,309.645570104387,0.648505981079547,0.350837139691049
6153,0,0,0,0,0,0,0,0,0.649366825688862,0.650053843517371,0.04,0.0379208587093514,309.815560893489,0.653339188652695,0.348432931160409
6213,0,0,0,0,0,0,0,0,0.649668701325063,0.650053843517371,0.04,0.0392570320914001,309.959061341609,0.656235843942519,0.347055607008186
6273,0,0,0,0,0,0,0,0,0.649900078652581,0.650053843517371,0.04,0.040263395329104,310.068872996779,0.657596314317108,0.346460299602133
6333,0,0,0,0,0,0,0,0,0.650060504335353,0.650053843517371,0.04,0.0409238262113649,310.1448747896,0.657851309311094,0.34641089423494
6393,0,0,0,0,0,0,0,0,0.650158442118082,0.650053843517371,0.04,0.0412734199683757,310.191151893711,0.657396186592431,0.346702442550716
6453,0,0,0,0,0,0,0,0,0.650206402557733,0.650053843517371,0.04,0.041374065045471,310.213690659486,0.656557538369115,0.347170523872994
6513,0,0,0,0,0,0,0,0,0.650217762025144,0.650053843517371,0.04,0.0412965714178424,310.218871338894,0.65558226380351,0.347692797334541
6573,0,0,0,0,0,0,0,0,0.650204918818741,0.650053843517371,0.04,0.0411087020619497,310.212596792913,0.654640205529397,0.34818610112354
6633,0,0,0,0,0,0,0,0,0.650178344677249,0.650053843517371,0.04,0.0408680793640618,310.199845165541,0.653834115231894,0.348601037952229
6693,0,0,0,0,0,0,0,0,0.65014619825897,0.650053843517371,0.04,0.040618877075871,310.184490321118,0.653212964388175,0.348915256249024
6753,0,0,0,0,0,0,0,0,0.650114301601124,0.650053843517371,0.04,0.0403912690529306,310.169292099074,0.652786057069831,0.349126331827986
6813,0,0,0,0,0,0,0,0,0.650086348801402,0.650053843517371,0.04,0.0402027160853895,310.15599691169,0.652536316537655,0.349244979657658
6873,0,0,0,0,0,0,0,0,0.650064252130697,0.650053843517371,0.04,0.04006029499828,310.145504857331,0.652431735795374,0.349289145189433
6933,0,0,0,0,0,0,0,0,0.650048557119275,0.650053843517371,0.04,0.0399634541725289,310.138067103767,0.652434446044607,0.34927931778089
6993,0,0,0,0,0,0,0,0,0.650038861085333,0.650053843517371,0.04,0.0399067137440179,310.133485349229,0.65250725585372,0.349235184139079
7053,0,0,0,0,0,0,0,0,0.650034195267897,0.650053843517371,0.04,0.0398820061501863,310.131294521609,0.652617800657489,0.349173561698879
7113,0,0,0,0,0,0,0,0,0.650033339516438,0.650053843517371,0.04,0.0398805055698847,310.130911450849,0.652740658619519,0.349107409510212
7173,0,0,0,0,0,0,0,0,0.650035055549254,0.650053843517371,0.04,0.039893903882593,310.131745916165,0.652857896783774,0.349045657071687
7233,0,0,0,0,0,0,0,0,0.650038240404239,0.650053843517371,0.04,0.0399151769686191,310.133273186186,0.652958535281199,0.348993578374487
7293,0,0,0,0,0,0,0,0,0.650042009043604,0.650053843517371,0.04,0.0399389317694725,310.135072946251,0.653037377189702,0.348953469031502
7353,0,0,0,0,0,0,0,0,0.650045721572119,0.650053843517371,0.04,0.0399614415669014,310.136841810102,0.653093569753178,0.348925434959573
7413,0,0,0,0,0,0,0,0,0.650048971362505,0.650053843517371,0.04,0.0399804770804425,310.138387533519,0.65312916507702,0.348908157589741
7473,0,0,0,0,0,0,0,0,0.650051549780113,0.650053843517371,0.04,0.0399950247917671,310.139611947513,0.653147851693854,0.348899552733104
7533,0,0,0,0,0,0,0,0,0.650053399959445,0.650053843517371,0.04,0.040004966596683,310.140488966187,0.653153946311827,0.348897283746374
7593,0,0,0,0,0,0,0,0,0.653801531002414,0.657293761566301,0.04,0.0372234654911541,312.013686840507,0.66428956919726,0.345120604479274
7653,0,0,0,0,0,0,0,0,0.666203972419137,0.670457248927993,0.04,0.0328986701566688,317.951119012099,0.690114682062866,0.33852735426297
7713,0,0,0,0,0,0,0,0,0.679561038151195,0.683620736289684,0.04,0.0315691497948081,324.325273579089,0.715612837542474,0.333010054689085
7773,0,0,0,0,0,0,0,0,0.693015321837565,0.696784223651376,0.04,0.0319427052378059,330.7448786452,0.739516357701304,0.328624561524276
7833,0,0,0,0,0,0,0,0,0.706531831965218,0.709947711013067,0.04,0.0330689497289062,337.193968590673,0.761416462232487,0.325396001360424
7893,0,0,0,0,0,0,0,0,0.720067265621108,0.723111198374758,0.04,0.0344248634357394,343.651653117914,0.781096397894893,0.323272289233514
7953,0,0,0,0,0,0,0,0,0.733571202323947,0.73627468573645,0.04,0.0357164880936047,350.093976915505,0.798647703850965,0.322095062954777
8013,0,0,0,0,0,0,0,0,0.747012592341713,0.749438173098141,0.04,0.0367919973916489,356.506299238419,0.814393687238925,0.32165291062198
8073,0,0,0,0,0,0,0,0,0.760381714347573,0.762601660459833,0.04,0.0375955360107826,362.884139763799,0.828757151603429,0.321732826604423
8133,0,0,0,0,0,0,0,0,0.773683022979077,0.775765147821524,0.04,0.0381322915947447,369.229691090846,0.842159152965362,0.322149246668861
8193,0,0,0,0,0,0,0,0,0.786927672758682,0.788928635183216,0.04,0.038440683712653,375.548315105094,0.85496445073432,0.322754597205766
8253,0,0,0,0,0,0,0,0,0.800128734331314,0.802092122544907,0.04,0.0385722139830356,381.846248241094,0.867461438104581,0.323439477152147
8313,0,0,0,0,0,0,0,0,0.813298591062304,0.815255609906599,0.04,0.0385787215077161,388.129383874791,0.879861974481419,0.324128075183708
8373,0,0,0,0,0,0,0,0,0.826447720839398,0.82841909726829,0.04,0.0385054651709168,394.402709145477,0.892310859856712,0.324771855935719
8433,0,0,0,0,0,0,0,0,0.839584395738048,0.841582584629982,0.04,0.0383883330536229,400.670141587789,0.904898684536326,0.32534317373151
8493,0,0,0,0,0,0,0,0,0.852714698535715,0.854746071991673,0.04,0.0382534812676155,406.934579079067,0.917675120451673,0.325829434139952
8553,0,0,0,0,0,0,0,0,0.865842874425234,0.867909559353364,0.04,0.0381184207484218,413.198025750057,0.930660736109902,0.326228216899122
8613,0,0,0,0,0,0,0,0,0.878971609030716,0.881073046715056,0.04,0.0379936867528274,419.461751147574,0.943857044627779,0.326543332269357
8673,0,0,0,0,0,0,0,0,0.892102415148526,0.894236534076747,0.04,0.0378845699592099,425.726484143825,0.957254218838754,0.3267819465309
8733,0,0,0,0,0,0,0,0,0.905235952062783,0.907400021438439,0.04,0.0377927078341138,431.992522318065,0.970836835838279,0.326952497753323
8793,0,0,0,0,0,0,0,0,0.918372345607032,0.92056350880013,0.04,0.0377174420604362,438.259901230434,0.984587777286656,0.327063419219419
8853,0,0,0,0,0,0,0,0,0.931511273913231,0.933726996161822,0.04,0.0376568405776018,444.528533333869,0.998490833107524,0.327122364590326
8913,0,0,0,0,0,0,0,0,0.940771909373564,0.939650565474583,0.04,0.039362016093346,448.865054034003,1.00203361177636,0.329145697016328
8973,0,0,0,0,0,0,0,0,0.941852827348514,0.939650565474583,0.04,0.0425090874237022,449.358800377479,0.989715653438238,0.333608792746755
9033,0,0,0,0,0,0,0,0,0.941705072179042,0.939650565474583,0.04,0.0440619448560332,449.285249055691,0.976902021872228,0.337929283801681
9093,0,0,0,0,0,0,0,0,0.94139304763876,0.939650565474583,0.04,0.0444023224388026,449.136038702491,0.96578735154307,0.341704790349752
9153,0,0,0,0,0,0,0,0,0.941071151424994,0.939650565474583,0.04,0.044066175099236,448.98254055484,0.95660896053532,0.344865448067981
9213,0,0,0,0,0,0,0,0,0.940767479991073,0.939650565474583,0.04,0.0434093590913823,448.837858893042,0.949297530305435,0.347409593651929
9273,0,0,0,0,0,0,0,0,0.940493988260128,0.939650565474583,0.04,0.0426467453391159,448.707652148583,0.943693662944186,0.34937120961665
9333,0,0,0,0,0,0,0,0,0.940258162373716,0.939650565474583,0.04,0.0419037898474202,448.595457992526,0.939584684053174,0.350811336759553
9393,0,0,0,0,0,0,0,0,0.940063392661696,0.939650565474583,0.04,0.0412487377971818,448.502863562489,0.936729198626224,0.351808103531645
9453,0,0,0,0,0,0,0,0,0.939909394660327,0.939650565474583,0.04,0.0407123874462696,448.429705572739,0.93488035260373,0.352446350245873
9513,0,0,0,0,0,0,0,0,0.939793124247747,0.939650565474583,0.04,0.0403013253451182,448.37451526715,0.933804425108099,0.352809011017877
9573,0,0,0,0,0,0,0,0,0.93970979557502,0.939650565474583,0.04,0.0400073382927416,448.334998980601,0.933293324925737,0.352971109198588
9633,0,0,0,0,0,0,0,0,0.939653795916944,0.939650565474583,0.04,0.0398141806927367,448.30847550017,0.933171351724851,0.352996360951069
9693,0,0,0,0,0,0,0,0,0.939619375374716,0.939650565474583,0.04,0.0397023247340737,448.292202442231,0.933297323976384,0.352935903485412
9753,0,0,0,0,0,0,0,0,0.939601156182376,0.939650565474583,0.04,0.0396521049541183,448.283619088078,0.933563280737467,0.352828602212641
9813,0,0,0,0,0,0,0,0,0.939594430927634,0.939650565474583,0.04,0.039645630574947,448.280484876616,0.933890994933333,0.352702324216455
9873,0,0,0,0,0,0,0,0,0.939595308159717,0.939650565474583,0.04,0.0396677670593334,448.280950369105,0.934227299541745,0.352575723993356
9933,0,0,0,0,0,0,0,0,0.939600739245945,0.939650565474583,0.04,0.0397064759019764,448.283567607211,0.934539033789077,0.352460173072994
9993,0,0,0,0,0,0,0,0,0.939608461484372,0.939650565474583,0.04,0.0397527312789548,448.287262908728,0.93480818120483,0.352361598274963
10053,0,0,0,0,0,0,0,0,0.939616893941116,0.939650565474583,0.04,0.0398001877240109,448.291286813923,0.93502755047256,0.352282091913105
10113,0,0,0,0,0,0,0,0,0.939625011399705,0.939650565474583,0.04,0.0398447316704054,448.295154335975,0.935197176150706,0.352221233807798
10173,0,0,0,0,0,0,0,0,0.939632219070213,0.939650565474583,0.04,0.0398840024023187,448.298584446691,0.93532148138399,0.352177117873238
10233,0,0,0,0,0,0,0,0,0.939638236694753,0.939650565474583,0.04,0.0399169367599047,448.301445463089,0.935407163029732,0.352147106439328
10293,0,0,0,0,0,0,0,0,0.935775730627281,0.93251651168942,0.04,0.0418139554562844,446.376962668216,0.925202926115272,0.354502621757287
10353,0,0,0,0,0,0,0,0,0.923782431515561,0.919545504807305,0.04,0.0452464223091639,440.633978216625,0.899887134005129,0.359786295823566
10413,0,0,0,0,0,0,0,0,0.910663468585457,0.90657449792519,0.04,0.0469949425908281,434.37232666839,0.874245820410025,0.365075980812207
10473,0,0,0,0,0,0,0,0,0.897403045329379,0.893603491043075,0.04,0.0474398574191936,428.045421651914,0.850185539592816,0.369939596492298
10533,0,0,0,0,0,0,0,0,0.884122539248819,0.880632484160961,0.04,0.0471100383993507,421.709251200532,0.827959633088257,0.374247270236424
10593,0,0,0,0,0,0,0,0,0.870844846569251,0.867661477278846,0.04,0.046367131989629,415.374548080762,0.807587388201904,0.377924485022973
10653,0,0,0,0,0,0,0,0,0.857584221818554,0.854690470396731,0.04,0.0454472325843947,409.048089151124,0.788994363321242,0.380938742590174
10713,0,0,0,0,0,0,0,0,0.844352121825573,0.841719463514616,0.04,0.0445056389230441,402.735321117108,0.772031189450903,0.383300645530612
10773,0,0,0,0,0,0,0,0,0.831156211686544,0.828748456632502,0.04,0.0436417119298102,396.439858891616,0.756494420776203,0.385058096639717
10833,0,0,0,0,0,0,0,0,0.818000179024206,0.815777449750387,0.04,0.0429132747174557,390.16343540826,0.742150452770899,0.386286282532355
10893,0,0,0,0,0,0,0,0,0.804884172032269,0.802806442868272,0.04,0.0423465476254358,383.906099242987,0.728757858309982,0.387076171949149
10953,0,0,0,0,0,0,0,0,0.791805564532654,0.789835435986157,0.04,0.0419442948630254,377.666581473974,0.716085651662824,0.387523694325281
11013,0,0,0,0,0,0,0,0,0.778759793985721,0.776864429104043,0.04,0.0416929767653246,371.442678476264,0.703926685037034,0.387720754805875
11073,0,0,0,0,0,0,0,0,0.765741101829257,0.763893422221928,0.04,0.041568996378855,365.231648389304,0.692106315775886,0.387748625750071
11133,0,0,0,0,0,0,-2.8421709430404e-17,-2.8421709430404e-17,0.752743321781591,0.750922415339813,0.04,0.0415438540934018,359.030548325875,0.680486372943721,0.387673973802724
11193,0,0,0,0,0,0,0,0,0.739766598625595,0.737951408457698,0.04,0.0415906459134584,352.839668739131,0.668954161659306,0.387557121900992
11253,0,0,0,0,0,0,0,0,0.726831649545622,0.724980401575584,0.04,0.0417199346172109,346.668588718763,0.657282404694411,0.387540559814732
11313,0,0,0,0,0,0,0,0,0.713904337556484,0.712009394693469,0.04,0.0419066346710824,340.500955594411,0.645353460284298,0.387681759932765
11373,0,0,0,0,0,0,0,0,0.700973394271221,0.699038387811354,0.04,0.0421044832890654,334.331559874373,0.633173976842284,0.387979691718795
11433,0,0,0,0,0,0,0,0,0.688034879670429,0.686067380929239,0.04,0.042281032227201,328.158522416305,0.62078256827963,0.388417555321877
11493,0,0,0,0,0,0,0,0,0.675086642711917,0.673096374047125,0.04,0.0424171865971772,321.980835118392,0.608233917472951,0.388968170617743
11553,0,0,0,0,0,0,0,0,0.662127927910894,0.66012536716501,0.04,0.0425043151475422,315.798148528158,0.595589963578945,0.389598149143886
11613,0,0,0,0,0,0,0,0,0.637252061900462,0.624371728980249,0.04,0.0528805759240928,303.661833517066,0.547996982276337,0.40716151284367
11673,0,0,0,0,0,0,0,0,0.600932844023052,0.599894441181132,0.04,0.057864131751717,286.626940538793,0.500681414609378,0.420639656113021
11733,0,0,0,0,0,0,0,0,0.597655101608268,0.599894441181132,0.04,0.0400367494071385,285.133902223242,0.511199600736027,0.409838759192039
11793,0,0,0,0,0,0,0,0,0.596986690710134,0.599894441181132,0.04,0.0299565529406303,284.818451721225,0.527473123699167,0.396755048469848
11853,0,0,0,0,0,0,0,0,0.596676108813791,0.599894441181132,0.04,0.0262298991193295,284.673238328118,0.546333898020229,0.382862799236823
11913,0,0,0,0,0,0,0,0,0.596736660853944,0.599894441181132,0.04,0.0264510417436909,284.704917214739,0.565580597901652,0.369875139211586
11973,0,0,0,0,0,0,0,0,0.59711022088388,0.599894441181132,0.04,0.0287518044107994,284.88528288001,0.583187031228092,0.358935846392474
12033,0,0,0,0,0,0,0,0,0.597700174178435,0.599894441181132,0.04,0.0319017841260219,285.167986151051,0.597640465099083,0.350602856294236
12093,0,0,0,0,0,0,2.8421709430404e-17,2.8421709430404e-17,0.598381152626096,0.599894441181132,0.04,0.0351545653997048,285.493102441037,0.608131023308108,0.344947607588386
