time,bias_percent_1,bias_percent_2,bias_percent_3,bias_percent_4,bias_percent_5,bias_percent_6,bias_percent_8,bias_percent_9,normalized_power,power_SP,SP,CV,total_power_MW,fuel_fraction,thermal_efficiency
49,0,0,0,0,0,0,0,0,0.999799192714106,1,0.04,0.039917362807388,477.007634951043,0.999958020064482,0.350508245303429
109,-0.0173754767434992,0.0199786365687974,0.000101468034523123,-0.0208398783404197,-0.0154940244921393,0.00442173407076427,0.024554773169663,-0.00828410024064561,0.998968859562074,0.998216253703418,0.04,0.0401302492111079,476.59406732698,0.997096272436951,0.351209468238951
169,-0.038651570715131,0.0444422731836514,0.00022571460740869,-0.0463580967164437,-0.0344662993804728,0.00983610232067986,0.0546218423570053,-0.0184278964536811,0.996980378332472,0.996032074564747,0.04,0.0403911317377385,475.642477095584,0.991522474413689,0.352478592710895
229,-0.0599276646867628,0.0689059097985053,0.000349961180294144,-0.0718763150924678,-0.0534385742688065,0.0152504705705952,0.0846889115443477,-0.0285716926667166,0.994819273110099,0.993847895426076,0.04,0.0403991074028059,474.610871587509,0.985599228766217,0.35382784175862
289,-0.0812037586583946,0.0933695464133594,0.000474207753179712,-0.0973945334684919,-0.0724108491571402,0.0206648388205108,0.11475598073169,-0.0387154888797521,0.99261643820293,0.991663716287404,0.04,0.0402290616626831,473.559692936104,0.979722579673583,0.355161833397273
349,-0.102479852630026,0.117833183028213,0.000598454326065166,-0.122912751844516,-0.0913831240454739,0.0260792070704262,0.144823049919033,-0.0488592850927874,0.990410018806612,0.989479537148733,0.04,0.0399604060034598,472.506436656389,0.974034025037424,0.356441512069443
409,-0.123755946601658,0.142296819643067,0.00072270089895062,-0.14843097022054,-0.110355398933808,0.0314935753203416,0.174890119106375,-0.0590030813058229,0.988164365940475,0.987295358010061,0.04,0.0396547211237454,471.435463114764,0.968620878702251,0.357621070505027
469,-0.14503204057329,0.166760456257921,0.000846947471836302,-0.173949188596564,-0.129327673822141,0.0369079435702572,0.204957188293717,-0.0691468775188584,0.985932437327433,0.98511117887139,0.04,0.0393423049687117,470.370632167622,0.963487597990798,0.358714346263897
529,-0.166308134544922,0.191224092872775,0.000971194044721642,-0.199467406972588,-0.148299948710475,0.0423223118201727,0.23502425748106,-0.0792906737318938,0.983705487591384,0.982926999732719,0.04,0.039048607305909,469.308211488684,0.958623333334114,0.359720206209647
589,-0.187584228516553,0.215687729487629,0.0010954406176071,-0.224985625348612,-0.167272223598809,0.0477366800700881,0.265091326668402,-0.0894344699449293,0.981486908107067,0.980742820594047,0.04,0.0387872845723263,468.249798360268,0.953983628087381,0.360654498633073
649,-0.208860322488185,0.240151366102483,0.00121968719049278,-0.250503843724636,-0.186244498487142,0.0531510483200036,0.295158395855744,-0.0995782661579648,0.979276035375686,0.978558641455376,0.04,0.0385631502213051,467.195032314467,0.949517996871936,0.3615344542785
709,-0.230136416459817,0.264615002717337,0.00134393376337823,-0.27602206210066,-0.205216773375476,0.0585654165699192,0.325225465043087,-0.109722062371,0.977065782326736,0.976374462316704,0.04,0.0383711598624103,466.14048476932,0.94520515967024,0.362364309595846
769,-0.251412510431449,0.289078639332191,0.0014681803362638,-0.301540280476685,-0.22418904826381,0.0639797848198345,0.355292534230429,-0.119865858584036,0.974846598225647,0.974190283178033,0.04,0.0381979124960761,465.081613261705,0.941080063538328,0.363125939537337
829,-0.27268860440308,0.313542275947045,0.00159242690914925,-0.327058498852709,-0.243161323152143,0.0693941530697501,0.385359603417772,-0.130009654797071,0.972614081950973,0.972006104039362,0.04,0.0380294705514483,464.016375752443,0.937217246957883,0.363787449407944
889,-0.293964698374712,0.338005912561899,0.00171667348203482,-0.352576717228733,-0.262133598040477,0.0748085213196656,0.415426672605114,-0.140153451010107,0.970369863612503,0.96982192490069,0.04,0.037858545861712,462.945580714044,0.933692405894853,0.364318136987872
949,-0.297865315602845,0.342490912607955,0.00173945202039704,-0.357255057264337,-0.265611848436672,0.0758011554988167,0.420938968622793,-0.142013146982497,0.96898254727121,0.969421492058601,0.04,0.0373476214052754,462.297632194293,0.934290017595924,0.363575522300471
1009,-0.297865315602845,0.342490912607955,0.00173945202039704,-0.357255057264337,-0.265611848436672,0.0758011554988167,0.420938968622794,-0.142013146982496,0.968685955445755,0.969421492058601,0.04,0.036870675314861,462.158678207198,0.938249881870535,0.361932239696117
1069,-0.297865315602845,0.342490912607955,0.00173945202039704,-0.357255057264337,-0.265611848436672,0.0758011554988168,0.420938968622794,-0.142013146982496,0.968573842199842,0.969421492058601,0.04,0.0367178978963519,462.106142859767,0.943165502350835,0.360004981741491
1129,-0.297865315602845,0.342490912607955,0.00173945202039704,-0.357255057264337,-0.265611848436672,0.0758011554988168,0.420938968622793,-0.142013146982496,0.96856386873672,0.969421492058601,0.04,0.036832922627773,462.102076294144,0.948334430392719,0.358039611932633
1189,-0.297865315602845,0.342490912607956,0.00173945202039704,-0.357255057264337,-0.265611848436672,0.0758011554988167,0.420938968622794,-0.142013146982496,0.96862790205521,0.969421492058601,0.04,0.0371390782344662,462.133109227784,0.953257655441626,0.356214389406262
1249,-0.297865315602845,0.342490912607956,0.00173945202039704,-0.357255057264337,-0.265611848436672,0.0758011554988167,0.420938968622794,-0.142013146982496,0.968740228273016,0.969421492058601,0.04,0.037563936833701,462.186985769275,0.957593546430822,0.35464282535041
1309,-0.297865315602845,0.342490912607955,0.00173945202039704,-0.357255057264337,-0.265611848436672,0.0758011554988167,0.420938968622793,-0.142013146982496,0.96887771594258,0.969421492058601,0.04,0.0380446927163484,462.252697561686,0.961145446992689,0.353382482664238
1369,-0.297865315602845,0.342490912607956,0.00173945202039704,-0.357255057264337,-0.265611848436672,0.0758011554988168,0.420938968622794,-0.142013146982496,0.96902132332068,0.969421492058601,0.04,0.0385307291003233,462.321198472183,0.963839908413941,0.352446805829556
1429,-0.297865315602845,0.342490912607955,0.00173945202039704,-0.357255057264337,-0.265611848436672,0.0758011554988168,0.420938968622794,-0.142013146982496,0.969156846722689,0.969421492058601,0.04,0.0389844435935013,462.385747313373,0.96569880001834,0.35181748797158
1489,-0.297865315602845,0.342490912607956,0.00173945202039704,-0.357255057264337,-0.265611848436672,0.0758011554988167,0.420938968622794,-0.142013146982496,0.969274935087949,0.969421492058601,0.04,0.0393807949763131,462.441923832579,0.966809894584167,0.351455860137469
1549,-0.297865315602845,0.342490912607956,0.00173945202039715,-0.357255057264337,-0.265611848436672,0.0758011554988168,0.420938968622794,-0.142013146982496,0.969370583970817,0.969421492058601,0.04,0.0397059691151982,462.487369414131,0.967299550282534,0.351312471190399
1609,-0.297865315602845,0.342490912607956,0.00173945202039704,-0.357255057264337,-0.265611848436672,0.0758011554988167,0.420938968622794,-0.142013146982496,0.969442291549974,0.969421492058601,0.04,0.0399554751187898,462.521391678261,0.967309863462787,0.351334569153668
1669,-0.297865315602845,0.342490912607955,0.00173945202039704,-0.357255057264337,-0.265611848436672,0.0758011554988167,0.420938968622794,-0.142013146982496,0.96949111950341,0.969421492058601,0.04,0.0401319819698126,462.544515646015,0.966981309498324,0.351471514190331
1729,-0.297865315602845,0.342490912607955,0.00173945202039704,-0.357255057264337,-0.265611848436672,0.0758011554988168,0.420938968622794,-0.142013146982497,0.969519810583415,0.969421492058601,0.04,0.0402431401245105,462.558057612555,0.966440994221133,0.35167830977874
1789,-0.297865315602845,0.342490912607955,0.00173945202039704,-0.357255057264337,-0.265611848436672,0.0758011554988167,0.420938968622794,-0.142013146982496,0.969531973027601,0.969421492058601,0.04,0.0402995682611999,462.563744992988,0.965795755709609,0.35191758949773
1849,-0.303584997979219,0.324495604569738,-0.0236039799131814,-0.348567906273614,-0.261660236045756,0.0461000387588541,0.412394208882602,-0.149038802237868,0.963082017779023,0.957825735758065,0.04,0.0414241054750015,459.391485760296,0.943226439205177,0.357866999749389
1909,-0.310588690684983,0.302460533502533,-0.0546367537094001,-0.337930578529871,-0.256821526995654,0.00973132438338973,0.401931237772164,-0.15764164540771,0.950058606517234,0.943626850492102,0.04,0.0424899912232385,453.164352960717,0.905523604815877,0.367714402360478
1969,-0.317592383390748,0.280425462435328,-0.0856695275056186,-0.327293250786128,-0.251982817945553,-0.0266373899920748,0.391468266661725,-0.166244488577552,0.936115370091019,0.92942796522614,0.04,0.0419392244540647,446.507913716412,0.864957922168656,0.379305251944246
2029,-0.324596076096512,0.258390391368123,-0.116702301301837,-0.316655923042385,-0.247144108895452,-0.0630061043675391,0.381005295551287,-0.174847331747394,0.921545247245929,0.915229079960178,0.04,0.0399975943510645,439.663097104902,0.824758803801571,0.391694732380343
2089,-0.331599768802276,0.236355320300918,-0.147735075098056,-0.306018595298643,-0.242305399845351,-0.0993748187430035,0.370542324440849,-0.183450174917237,0.90715348002193,0.901030194694216,0.04,0.0370293754041155,432.68545272986,0.786098672266425,0.404436094227641
2149,-0.33860346150804,0.214320249233713,-0.178767848894274,-0.2953812675549,-0.23746669079525,-0.135743533118468,0.36007935333041,-0.192053018087079,0.892314369814006,0.886831309428253,0.04,0.0333896909035884,425.604504024783,0.751089188586419,0.416360365325885
2209,-0.345607154213805,0.192285178166508,-0.209800622690493,-0.284743939811157,-0.232627981745149,-0.172112247493932,0.349616382219972,-0.200655861256921,0.87733210573416,0.872632424162291,0.04,0.0294527575535535,418.455659856457,0.720523370375809,0.426732824961618
2269,-0.352610846919569,0.170250107099303,-0.240833396486711,-0.274106612067414,-0.227789272695048,-0.208480961869397,0.339153411109534,-0.209258704426764,0.862286276701464,0.858433538896329,0.04,0.0256029324940379,411.27707657683,0.6949478408961,0.434847492539865
2329,-0.359614539625333,0.148215036032098,-0.27186617028293,-0.263469284323671,-0.222950563644946,-0.244849676244861,0.328690439999095,-0.217861547596606,0.847245065687971,0.844234653630366,0.04,0.0221630452791558,404.10119933733,0.674466052569222,0.440235154948061
2389,-0.366618232331098,0.126179964964893,-0.302898944079148,-0.252831956579928,-0.218111854594845,-0.281218390620326,0.318227468888657,-0.226464390766448,0.832262982451376,0.830035768364404,0.04,0.0193382549488112,396.953837430162,0.658825380473872,0.442715124937365
2449,-0.373621925036862,0.104144893897688,-0.333931717875367,-0.242194628836185,-0.213273145544744,-0.31758710499579,0.307764497778218,-0.23506723393629,0.817350832936516,0.815836883098442,0.04,0.017206949349338,389.839739848528,0.64759973824383,0.442317497974149
2509,-0.380625617742626,0.0821098228304828,-0.364964491671586,-0.231557301092443,-0.208434436494643,-0.353955819371255,0.29730152666778,-0.243670077106133,0.802499884130749,0.801637997832479,0.04,0.0157184094428537,382.754896647121,0.640416059165082,0.43915033448416
2569,-0.387629310448391,0.0600747517632778,-0.395997265467804,-0.2209199733487,-0.203595727444542,-0.390324533746719,0.286838555557342,-0.252272920275975,0.787736074332797,0.787439112566517,0.04,0.0147789204497448,375.711938245373,0.636819564666591,0.433504164313523
2629,-0.394633003154155,0.0380396806960728,-0.427030039264023,-0.210282645604957,-0.198757018394441,-0.426693248122183,0.276375584446903,-0.260875763445817,0.773182180583516,0.773240227300555,0.04,0.0142424278259932,368.848614958401,0.63631524377831,0.425922424366345
2689,-0.401636695859919,0.0160046096288678,-0.458062813060241,-0.199645317861214,-0.193918309344339,-0.463061962497648,0.265912613336465,-0.269478606615659,0.758697900828548,0.759041342034593,0.04,0.0142272962736885,361.859050150634,0.637629256795413,0.416990229621952
2749,-0.402920706189309,0.0119648465998802,-0.463752154922881,-0.197695141108195,-0.193031212685154,-0.46972956013315,0.263994401966218,-0.271055794530131,0.741967816811487,0.74484245676863,0.04,0.0159735416190141,353.875970546201,0.64830992899258,0.401072677037645
2809,-0.402920706189309,0.0119648465998802,-0.463752154922881,-0.197695141108195,-0.193031212685154,-0.46972956013315,0.263994401966218,-0.271055794530131,0.727212938778994,0.730643571502668,0.04,0.0182947964430991,346.839372378521,0.667475316165838,0.381810491790542
2869,-0.402920706189309,0.0119648465998802,-0.463752154922881,-0.197695141108195,-0.193031212685154,-0.46972956013315,0.263994401966218,-0.27105579453013,0.713230762251675,0.716444686236706,0.04,0.0213588533633611,340.173844939538,0.686829577356486,0.363920571568281
2929,-0.402920706189309,0.0119648465998802,-0.463752154922881,-0.197695141108194,-0.193031212685154,-0.46972956013315,0.263994401966218,-0.271055794530131,0.699846309698912,0.702245800970743,0.04,0.0250464844415037,333.792155338649,0.702441220948544,0.349157047991154
2989,-0.402920706189309,0.0119648465998803,-0.463752154922881,-0.197695141108194,-0.193031212685154,-0.46972956013315,0.263994401966218,-0.27105579453013,0.686858414337845,0.688046915704781,0.04,0.0291283684847036,327.597814304726,0.711483135403443,0.338322640394341
3049,-0.402920706189309,0.0119648465998802,-0.463752154922881,-0.197695141108194,-0.193031212685154,-0.46972956013315,0.263994401966218,-0.271055794530131,0.674212011755513,0.673848030438819,0.04,0.0332725783380331,321.56374336302,0.712522428391193,0.331606635753121
3109,-0.402920706189309,0.0119648465998802,-0.463752154922881,-0.197695141108195,-0.193031212685154,-0.46972956013315,0.263994401966218,-0.27105579453013,0.661094246515106,0.659649145172856,0.04,0.0372867947359072,315.304332061171,0.705708053790133,0.328291425846063
3169,-0.402920706189309,0.0119648465998802,-0.463752154922881,-0.197695141108195,-0.193031212685154,-0.46972956013315,0.263994401966218,-0.271055794530131,0.647932268942664,0.645450259906894,0.04,0.0407310993411331,309.016078390648,0.692188073211844,0.328028547678211
3229,-0.402920706189309,0.0119648465998802,-0.463752154922881,-0.197695141108195,-0.193031212685154,-0.46972956013315,0.263994401966218,-0.271055794530131,0.634372022910588,0.631251374640932,0.04,0.0433944817645872,302.549945472444,0.673983550774851,0.329839343957838
3289,-0.402920706189309,0.0119648465998802,-0.463752154922881,-0.197695141108195,-0.193031212685154,-0.46972956013315,0.263994401966218,-0.27105579453013,0.620520020234249,0.61705248937497,0.04,0.0451711414777234,295.938777311811,0.653029526459698,0.332984281598795
3349,-0.402920706189309,0.0119648465998802,-0.463752154922881,-0.197695141108195,-0.193031212685154,-0.46972956013315,0.263994401966218,-0.271055794530131,0.606397710802412,0.602853604109007,0.04,0.0460540145397859,289.199131317679,0.631092740924974,0.336711907917359
3409,-0.402920706189309,0.0119648465998803,-0.463752154922881,-0.197695141108194,-0.193031212685154,-0.46972956013315,0.263994401966218,-0.27105579453013,0.592070500505337,0.588654718843045,0.04,0.0461378071690546,282.362263449852,0.609539325479405,0.340376525489539
3469,-0.402920706189309,0.0119648465998802,-0.463752154922881,-0.197695141108194,-0.193031212685154,-0.46972956013315,0.263994401966218,-0.27105579453013,0.577603666401911,0.574455833577083,0.04,0.0455834236731941,275.459276262871,0.589338762287975,0.343436991993505
3529,-0.402920706189309,0.0119648465998803,-0.463752154922881,-0.197695141108194,-0.193031212685154,-0.46972956013315,0.263994401966218,-0.271055794530131,0.563081983155573,0.56025694831112,0.04,0.044599811601119,268.531088133343,0.571032241404626,0.345532273788775
3589,-0.402920706189309,0.0119648465998802,-0.463752154922881,-0.197695141108194,-0.193031212685154,-0.46972956013315,0.263994401966218,-0.27105579453013,0.548579638443768,0.546058063045158,0.04,0.043459645847977,261.612038557022,0.554571436753771,0.346621026289203
3649,-0.365412504224278,-0.0106428521160283,-0.460823148624545,-0.207872165520655,-0.192650750792938,-0.452843166539863,0.227936477958517,-0.260955915310607,0.542361488515463,0.543454934079732,0.04,0.0385025585089603,258.744207181209,0.55410886255412,0.343107503106292
3709,-0.319484093654852,-0.038325748502855,-0.457236610300052,-0.220333828066525,-0.192184879088184,-0.432165949895023,0.183783917949088,-0.248588716266292,0.54102397682579,0.543454934079732,0.04,0.0341758678005092,258.114878146271,0.566513158926382,0.334778618511192
3769,-0.273555683085426,-0.0660086448896819,-0.453650071975559,-0.232795490612395,-0.19171900738343,-0.411488733250183,0.139631357939659,-0.236221517221977,0.540279365080784,0.543454934079732,0.04,0.031820547339618,257.763265070618,0.584267330908244,0.324163488210708
3829,-0.227627272516,-0.0936915412765086,-0.450063533651066,-0.245257153158265,-0.191253135678676,-0.390811516605342,0.0954787979302298,-0.223854318177662,0.540023308059611,0.543454934079732,0.04,0.0311430781464672,257.645137652464,0.604587149294516,0.313124979783447
3889,-0.181698861946574,-0.121374437663335,-0.446476995326572,-0.257718815704135,-0.190787263973922,-0.370134299960502,0.0513262379208004,-0.211487119133347,0.540257927446735,0.543454934079732,0.04,0.0318177185846019,257.760696613112,0.624478791546821,0.303286919201782
3949,-0.135770451377147,-0.149057334050162,-0.442890457002079,-0.270180478250005,-0.190321392269168,-0.349457083315662,0.00717367791137121,-0.199119920089032,0.540886118416505,0.543454934079732,0.04,0.0334862597352331,258.062945945426,0.64134026519635,0.295659487629507
4009,-0.0898420408077213,-0.176740230436989,-0.439303918677586,-0.282642140795874,-0.189855520564414,-0.328779866670822,-0.036978882098058,-0.186752721044717,0.541751198441156,0.543454934079732,0.04,0.0357685574004891,258.476864688202,0.653411403230533,0.290662927862649
4069,-0.0439136302382952,-0.204423126823816,-0.435717380353092,-0.295103803341744,-0.189389648859659,-0.308102650025981,-0.0811314421074871,-0.174385522000402,0.542684577719814,0.543454934079732,0.04,0.0382938545221119,258.922094888924,0.659941882967589,0.288282378679604
4129,0.00201478033113074,-0.232106023210642,-0.432130842028599,-0.307565465887614,-0.188923777154905,-0.287425433381141,-0.125284002116916,-0.162018322956087,0.543544820010533,0.543454934079732,0.04,0.0407330659487942,259.331567165649,0.661101643830719,0.288231753458328
4189,0.0479431909005568,-0.259788919597469,-0.428544303704106,-0.320027128433484,-0.188457905450151,-0.266748216736301,-0.169436562126345,-0.149651123911772,0.544237814785169,0.543454934079732,0.04,0.0428272540971487,259.660565071974,0.657728277246824,0.290077577963423
4249,0.0938716014699829,-0.287471815984296,-0.424957765379613,-0.332488790979354,-0.187992033745397,-0.24607100009146,-0.213589122135775,-0.137283924867457,0.544724605383821,0.543454934079732,0.04,0.04440451838663,259.891131085518,0.651002403871118,0.293334769192551
4309,0.139800012039409,-0.315154712371123,-0.42137122705512,-0.344950453525224,-0.187526162040643,-0.22539378344662,-0.257741682145204,-0.124916725823142,0.545007684260112,0.543454934079732,0.04,0.0453887240670994,260.024661509979,0.642169986692333,0.297522087187439
4369,0.185728422608835,-0.342837608757949,-0.417784688730626,-0.357412116071094,-0.187060290335889,-0.20471656680178,-0.301894242154633,-0.112549526778827,0.545115463959561,0.543454934079732,0.04,0.0457894992258128,260.074840086792,0.632349295094266,0.302201056033443
4429,0.231656833178261,-0.370520505144776,-0.414198150406133,-0.369873778616964,-0.186594418631135,-0.184039350156939,-0.346046802164062,-0.100182327734512,0.545085480925385,0.543454934079732,0.04,0.0456812331564063,260.059587512977,0.62244511854822,0.306991591463329
4489,0.277585243747687,-0.398203401531603,-0.41061161208164,-0.382335441162834,-0.186128546926381,-0.163362133512099,-0.390199362173491,-0.0878151286901973,0.544953971188589,0.543454934079732,0.04,0.0451772242833634,259.99617160117,0.613138925730033,0.311575098343224
4549,0.286005452352082,-0.403278599202521,-0.409954080055483,-0.384620079296243,-0.186043137113842,-0.159571310460545,-0.39829399817522,-0.0855478088654063,0.544877247048367,0.543454934079732,0.04,0.0444215474580043,259.960427898815,0.604788721488943,0.315833531112821
4609,0.286005452352082,-0.403278599202521,-0.409954080055483,-0.384620079296243,-0.186043137113842,-0.159571310460545,-0.39829399817522,-0.0855478088654063,0.544613597878119,0.543454934079732,0.04,0.0434156996982699,259.832631580121,0.597237156807295,0.319669755478196
4669,0.286005452352082,-0.403278599202521,-0.409954080055483,-0.384620079296243,-0.186043137113842,-0.159571310460545,-0.39829399817522,-0.0855478088654063,0.544276055502751,0.543454934079732,0.04,0.042228400143846,259.671294034458,0.591598883876813,0.322516005693624
4729,0.286005452352082,-0.403278599202521,-0.409954080055483,-0.384620079296243,-0.186043137113842,-0.159571310460545,-0.39829399817522,-0.0855478088654061,0.543919157953521,0.543454934079732,0.04,0.0410106310657725,259.5010119072,0.58808135608236,0.324232332636936
4789,0.286005452352082,-0.403278599202521,-0.409954080055483,-0.384620079296243,-0.186043137113842,-0.159571310460545,-0.39829399817522,-0.0855478088654061,0.543577761323695,0.543454934079732,0.04,0.0398917172045914,259.338516840432,0.586662341707387,0.324813063527826
4849,0.286005452352082,-0.403278599202521,-0.409954080055483,-0.384620079296243,-0.186043137113842,-0.159571310460545,-0.39829399817522,-0.0855478088654061,0.543278813374003,0.543454934079732,0.04,0.0389694367705569,259.196185900685,0.587134914171081,0.324373506974292
4909,0.286005452352082,-0.403278599202521,-0.409954080055483,-0.384620079296243,-0.186043137113842,-0.159571310460545,-0.39829399817522,-0.0855478088654063,0.54304574339629,0.543454934079732,0.04,0.0383013992204767,259.085578694252,0.589149174121799,0.323126549389365
4969,0.286005452352082,-0.403278599202521,-0.409954080055483,-0.384620079296243,-0.186043137113842,-0.159571310460545,-0.39829399817522,-0.0855478088654061,0.542891464212327,0.543454934079732,0.04,0.0379116841339065,259.012626856399,0.592254967056803,0.321341562454188
5029,0.286005452352082,-0.403278599202521,-0.409954080055483,-0.384620079296243,-0.186043137113842,-0.159571310460545,-0.39829399817522,-0.0855478088654061,0.542819926259159,0.543454934079732,0.04,0.0377921211978978,258.97914380293,0.59595919875916,0.319302956231919
5089,0.286005452352082,-0.403278599202521,-0.409954080055483,-0.384620079296243,-0.186043137113842,-0.159571310460545,-0.39829399817522,-0.0855478088654063,0.542825829455808,0.543454934079732,0.04,0.0379091667751286,258.982532122084,0.599781979142449,0.317271992538749
5149,0.286005452352082,-0.403278599202521,-0.409954080055483,-0.384620079296243,-0.186043137113842,-0.159571310460545,-0.39829399817522,-0.0855478088654063,0.542896096858676,0.543454934079732,0.04,0.0382114548553239,259.016499450876,0.60330698798883,0.315459601433317
5209,0.286005452352082,-0.403278599202521,-0.409954080055483,-0.384620079296243,-0.186043137113842,-0.159571310460545,-0.39829399817522,-0.0855478088654063,0.543012419715409,0.543454934079732,0.04,0.0386378023592497,259.072280429744,0.606218492607845,0.314012143792436
5269,0.286005452352082,-0.403278599202521,-0.409954080055483,-0.384620079296243,-0.186043137113842,-0.159571310460545,-0.39829399817522,-0.0855478088654063,0.543154303181739,0.543454934079732,0.04,0.0391248457970487,259.140094962559,0.608320790676719,0.313008859547467
5329,0.286005452352082,-0.403278599202521,-0.409954080055483,-0.384620079296243,-0.186043137113842,-0.159571310460545,-0.39829399817522,-0.0855478088654063,0.543301994735024,0.543454934079732,0.04,0.0396137017973306,259.210531782305,0.609539554855126,0.312467912315483
5389,0.286005452352082,-0.403278599202521,-0.409954080055483,-0.384620079296243,-0.186043137113842,-0.159571310460545,-0.39829399817522,-0.0855478088654063,0.54343837498548,0.543454934079732,0.04,0.0400552969523416,259.275434578542,0.609908039263037,0.312357320941473
5449,0.29596626047495,-0.35861415836473,-0.392786009354375,-0.337130002618052,-0.174731272279209,-0.152687339673576,-0.403270501219851,-0.0634836605444668,0.53943463649261,0.543454934079732,0.04,0.0436759197567268,257.354336927427,0.624034941981751,0.303024162472278
5509,0.308163168380503,-0.303923006318454,-0.371763881965264,-0.278978888318226,-0.160880009216392,-0.144257987689532,-0.409364178417359,-0.0364663360698471,0.53895280818586,0.543454934079732,0.04,0.0480512706552622,257.137284898416,0.650935926422046,0.290256188761032
5569,0.320360076286057,-0.249231854272179,-0.350741754576153,-0.2208277740184,-0.147028746153575,-0.135828635705489,-0.415457855614866,-0.00944901159522738,0.539941697608799,0.543454934079732,0.04,0.0543227736891489,257.61829592168,0.674627239926428,0.280586974629486
5629,0.332556984191609,-0.194540702225903,-0.329719627187041,-0.162676659718574,-0.133177483090758,-0.127399283721445,-0.421551532812374,0.0175683128793926,0.541683387398115,0.543454934079732,0.04,0.0621952330130415,258.451672824323,0.688975297282144,0.275632467442858
5689,0.344753892097162,-0.139849550179628,-0.30869749979793,-0.104525545418747,-0.119326220027941,-0.118969931737401,-0.427645210009881,0.0445856373540123,0.543468903904896,0.543454934079732,0.04,0.0707431945057477,259.302983429371,0.692508118307935,0.275129602597992
5749,0.356950800002715,-0.0851583981333525,-0.287675372408819,-0.0463744311189214,-0.105474956965125,-0.110540579753358,-0.433738887207389,0.0716029618286318,0.545407756198748,0.543454934079732,0.04,0.0792515131066783,260.232115140358,0.685019903478342,0.279133767715605
5809,0.369147707908268,-0.030467246087077,-0.266653245019707,0.0117766831809047,-0.0916236939023078,-0.102111227769314,-0.439832564404896,0.0986202863032515,0.548477180092265,0.543454934079732,0.04,0.0882343587399315,261.693188750706,0.661154911839768,0.290833122904015
5869,0.381344615813821,0.0242239059591985,-0.245631117630596,0.069927797480731,-0.077772430839491,-0.0936818757852703,-0.445926241602404,0.125637610777871,0.54881986999646,0.543454934079732,0.04,0.0953475965241746,261.838170100056,0.628515462850427,0.3061058762292
5929,0.393541523719374,0.078915058005474,-0.224608990241485,0.128078911780557,-0.0639211677766741,-0.0852525238012266,-0.452019918799911,0.152654935252491,0.548233644467454,0.543454934079732,0.04,0.0976534998865719,261.556943965497,0.598561940719746,0.321078948271038
5989,0.405738431624927,0.133606210051749,-0.203586862852373,0.186230026080383,-0.0500699047138572,-0.0768231718171829,-0.458113595997419,0.179672259727111,0.547436160844584,0.543454934079732,0.04,0.0958442090561116,261.174381806134,0.572906699630182,0.334966480959796
6049,0.41793533953048,0.188297362098025,-0.182564735463262,0.244381140380209,-0.0362186416510405,-0.0683938198331392,-0.453329497488066,0.206689584201731,0.546381224716556,0.543454934079732,0.04,0.0914570335174989,260.660501901713,0.553062772130145,0.34630238080197
6109,0.430132247436033,0.2429885141443,-0.161542608074151,0.302532254680035,-0.0223673785882236,-0.0599644678490956,-0.31638841482449,0.23370690867635,0.542527938868682,0.543454934079732,0.04,0.0889308475777046,258.826448388758,0.553166547186631,0.343801226001361
6169,0.442329155341586,0.297679666190576,-0.14052048068504,0.360683368979862,-0.00851611552540669,-0.0515351158650518,-0.185600453298185,0.26072423315097,0.541624210577134,0.543454934079732,0.04,0.0858552060815411,258.405460145604,0.56292624695302,0.337291086141272
6229,0.454526063247139,0.352370818236851,-0.119498353295928,0.418834483279688,0.00533514753740997,-0.0431057638810082,-0.0880612091912565,0.28774155762559,0.540595769865621,0.543454934079732,0.04,0.0849206114866171,257.906379808801,0.577242122395264,0.328290826133744
6289,0.466722971152692,0.407061970283127,-0.0984762259068169,0.476985597579514,0.0191864106002268,-0.0346764118969645,-0.0415967086375828,0.314758882100209,0.539421555719804,0.543454934079732,0.04,0.0855648766068681,257.351964620944,0.599417917995377,0.315465915945801
6349,0.468959070935377,0.41708868149161,-0.0946221692188132,0.487646635201149,0.0217258088284099,-0.0331310306998898,-0.019648536823865,0.31971205825389,0.537981859778285,0.538587245693085,0.04,0.0855031385661954,256.642617661963,0.610807364819295,0.308730252152235
6409,0.468959070935377,0.41708868149161,-0.0946221692188132,0.487646635201148,0.0217258088284099,-0.0331310306998898,-0.00928100779644344,0.31971205825389,0.53316592799375,0.532626810933926,0.04,0.0871013473518008,254.328676457334,0.608651177789737,0.3070305147419
6469,0.468959070935377,0.41708868149161,-0.0946221692188131,0.487646635201149,0.02172580882841,-0.0331310306998897,-0.00438375304099253,0.31971205825389,0.527295375902372,0.526666376174768,0.04,0.088360756951472,251.525043611768,0.604594746464917,0.305683178237283
6529,0.468959070935377,0.41708868149161,-0.0946221692188132,0.487646635201148,0.0217258088284099,-0.0331310306998898,-0.00207046466959653,0.31971205825389,0.521318622884079,0.520705941415609,0.04,0.0891399296255145,248.67377768339,0.600604572882272,0.304225794310926
6589,0.468959070935377,0.41708868149161,-0.0946221692188132,0.487646635201149,0.0217258088284099,-0.0331310306998898,-0.000977749800384098,0.31971205825389,0.515389231737562,0.51474550665645,0.04,0.0897244988994521,245.845197487862,0.596529107766495,0.302820146457249
6649,0.468959070935377,0.41708868149161,-0.0946221692188132,0.487646635201149,0.02172580882841,-0.0331310306998897,-0.000461590293484769,0.31971205825389,0.509482928092501,0.508785071897291,0.04,0.0902697457587101,243.027342357792,0.592157446841382,0.301559225128138
6709,0.468959070935377,0.41708868149161,-0.0946221692188132,0.487646635201149,0.0217258088284099,-0.0331310306998898,-0.000217774963378433,0.31971205825389,0.503571341225615,0.502824637138132,0.04,0.0908186972590699,240.206824074976,0.58747298119436,0.300436102931176
6769,0.468959070935377,0.41708868149161,-0.0946221692188131,0.487646635201149,0.02172580882841,-0.0331310306998897,-0.000102605302813964,0.31971205825389,0.497645472293332,0.496864202378974,0.04,0.0913730599428503,237.37947742749,0.582550938982506,0.299408371499523
6829,0.468959070935377,0.41708868149161,-0.0946221692188132,0.487646635201149,0.0217258088284099,-0.0331310306998898,-4.82032653854288e-05,0.31971205825389,0.491706760435646,0.490903767619815,0.04,0.0919282271656922,234.546031825547,0.577474040171394,0.298435374604184
6889,0.468959070935377,0.41708868149161,-0.0946221692188132,0.487646635201149,0.0217258088284099,-0.0331310306998898,-2.25056844259895e-05,0.31971205825389,0.485759109205969,0.484943332860656,0.04,0.0924823184014564,231.708350316988,0.57230401779132,0.297488078566703
6949,0.468959070935377,0.41708868149161,-0.0946221692188132,0.487646635201149,0.0217258088284099,-0.0331310306998898,-1.03670642865812e-05,0.31971205825389,0.479805766140543,0.478982898101497,0.04,0.0930359540033342,228.86797568205,0.567081105272118,0.296547677762469
7009,0.468959070935377,0.41708868149161,-0.0946221692188132,0.487646635201149,0.0217258088284099,-0.0331310306998898,-4.63321334074164e-06,0.31971205825389,0.473848856692204,0.473022463342338,0.04,0.093590644882313,226.025911302629,0.56183054748101,0.295602128249958
7069,0.468959070935377,0.41708868149161,-0.0946221692188132,0.487646635201149,0.0217258088284099,-0.0331310306998898,-1.92474678594733e-06,0.31971205825389,0.467889671231507,0.46706202858318,0.04,0.0941478673898243,223.182769352219,0.556568329123288,0.294643489176914
7129,0.468959070935377,0.41708868149161,-0.0946221692188132,0.487646635201149,0.0217258088284099,-0.0331310306998898,-6.45363846325637e-07,0.31971205825389,0.461929005661036,0.461101593824021,0.04,0.0947087548338153,220.338926746996,0.551304775939533,0.293666326879473
7189,0.468959070935377,0.41708868149161,-0.0946221692188132,0.487646635201149,0.0217258088284099,-0.0331310306998898,-4.10290047904329e-08,0.31971205825389,0.45596737421446,0.455141159064862,0.04,0.0952741363069395,217.494626133235,0.546046623964742,0.292666814658588
7249,0.423847315212758,0.368063646605004,-0.0623202757744486,0.483920907222066,0.024820653496772,-0.00640211740497745,2.44437206601601e-07,0.321937706897323,0.449710090658493,0.449180724305703,0.04,0.0954510786297341,214.510705422354,0.542109268478052,0.290748052793919
7309,0.368608430654448,0.308032991641813,-0.0227669368629817,0.479358791329313,0.0286102592131339,0.0263271641806295,3.79281257028184e-07,0.324662990950508,0.444125140891105,0.443220289546544,0.04,0.0957229137686953,211.847789314998,0.537246349056693,0.289737787755371
7369,0.313369546096139,0.248002336678622,0.0167864020484854,0.474796675436559,0.0323998649294958,0.0590564457662366,4.4297677408003e-07,0.327388275003692,0.438419786285323,0.437259854787386,0.04,0.0964967579766967,209.123609728918,0.5303723872952,0.289718906707414
7429,0.258130661537829,0.187971681715431,0.0563397409599522,0.470234559543805,0.0361894706458576,0.0917857273518436,4.73064263143636e-07,0.330113559056876,0.432478216350518,0.431299420028227,0.04,0.097217427272895,206.28750062096,0.522952754852943,0.289844547630417
7489,0.20289177697952,0.127941026752239,0.0958930798714191,0.465672443651051,0.0399790763622195,0.12451500893745,4.87276519202657e-07,0.33283884311006,0.426423646091624,0.425338985269068,0.04,0.0975356431308689,203.398398883894,0.515924539723249,0.289678338471129
7549,0.147652892421211,0.0679103717890483,0.135446418782886,0.461110327758297,0.0437686820785813,0.157244290523058,4.93989881752126e-07,0.335564127163244,0.420345613871522,0.419378550509909,0.04,0.0971421114371652,200.498598984759,0.509585525837008,0.289100561157151
7609,0.0924140078629011,0.00787971682585709,0.174999757694353,0.456548211865544,0.0475582877949431,0.189973572108664,4.97161034631265e-07,0.338289411216428,0.414265438793379,0.41341811575075,0.04,0.0956455021673326,197.597473540388,0.503942472468893,0.288107856480281
7669,0.0371751233045917,-0.0521509381373341,0.21455309660582,0.45198609597279,0.051347893511305,0.222702853694272,4.98658974077968e-07,0.341014695269612,0.408097010673254,0.407457680991592,0.04,0.0929122090432885,194.65363148051,0.49932074374465,0.286442580758637
7729,-0.0180637612537176,-0.112181593100525,0.254106435517287,0.447423980080036,0.0551374992276668,0.255432135279878,4.99366547213514e-07,0.343739979322797,0.40229115902906,0.401497246232433,0.04,0.0901471124019648,191.892358398715,0.495251670486714,0.284699305452434
7789,-0.073302645812027,-0.172212248063716,0.293659774428754,0.442861864187282,0.0589271049440287,0.288161416865486,4.99700779510586e-07,0.346465263375981,0.397040846726369,0.395536811473274,0.04,0.0895622438082577,189.385096334324,0.487225409875006,0.285608116930787
7849,-0.128541530370336,-0.232242903026908,0.333213113340221,0.438299748294528,0.0627167106603904,0.320890698451092,4.99858658919504e-07,0.349190547429165,0.39148432052289,0.389576376714115,0.04,0.0898750225266837,186.73201760475,0.476178043987643,0.288140363201904
7909,-0.183780414928646,-0.292273557990099,0.372766452251688,0.433737632401775,0.0665063163767523,0.3536199800367,4.99933235517812e-07,0.351915831482349,0.385717009058652,0.383615941954956,0.04,0.0905445750703595,183.979055784069,0.463583613126703,0.291605013149551
7969,-0.239019299486955,-0.35230421295329,0.412319791163154,0.429175516509021,0.0702959220931141,0.386349261622306,4.99968462841333e-07,0.354641115535533,0.379777046052266,0.377655507195798,0.04,0.0916601928717261,181.143486075871,0.450500204382172,0.29544891902872
8029,-0.294258184045265,-0.412334867916481,0.451873130074621,0.424613400616267,0.0740855278094759,0.419078543207913,4.99985102971757e-07,0.357366399588717,0.37359382554224,0.371695072436639,0.04,0.0937694521907088,178.191886611626,0.438273220529327,0.298742951326474
8089,-0.349497068603574,-0.413379045388655,0.491426468986088,0.420051284723513,0.0778751335258378,0.45180782479352,0.0276069211267473,0.360091683641902,0.367330138402211,0.36573463767748,0.04,0.0991127717636432,175.193270822287,0.426215605238263,0.302024900878904
8149,-0.359624197439264,-0.403570374765696,0.49867791445319,0.419214896809842,0.0785698945738375,0.457808193084215,0.0340077837250717,0.360591319051652,0.365832175904067,0.364641891304967,0.04,0.0958303067987897,174.525567717456,0.418783430281408,0.306213438162382
8209,-0.359624197439264,-0.396261561383737,0.49867791445319,0.419214896809842,0.0785698945738375,0.457808193084215,0.0340077837250717,0.360591319051652,0.364971457614557,0.364641891304967,0.04,0.0948265326655441,174.125937771877,0.415792034995866,0.307710261293977
8269,-0.359624197439264,-0.391875515158719,0.498677914453191,0.419214896809842,0.0785698945738374,0.457808193084215,0.0340077837250717,0.360591319051652,0.364879722255137,0.364641891304967,0.04,0.0938825942169408,174.083870420305,0.414275802297118,0.308761856143473
8329,-0.359624197439264,-0.38911931562311,0.498677914453191,0.419214896809842,0.0785698945738375,0.457808193084215,0.0340077837250717,0.360591319051652,0.36484644119629,0.364641891304967,0.04,0.093500682324295,174.067927328443,0.412975225515306,0.309705868964527
8389,-0.359624197439264,-0.387239073525212,0.49867791445319,0.419214896809842,0.0785698945738375,0.457808193084215,0.0340077837250717,0.360591319051652,0.364805372967277,0.364641891304967,0.04,0.0933678856162407,174.048318038717,0.411909188937163,0.310472419862856
8449,-0.359624197439264,-0.385892311432518,0.49867791445319,0.419214896809842,0.0785698945738375,0.457808193084215,0.0340077837250717,0.360591319051652,0.364767316843175,0.364641891304967,0.04,0.0933193230103824,174.030212654356,0.411081885736436,0.311064884386369
8509,-0.359624197439264,-0.384905290459352,0.498677914453191,0.419214896809842,0.0785698945738375,0.457808193084215,0.0340077837250717,0.360591319051652,0.364736611279135,0.364641891304967,0.04,0.093298733106189,174.015623363869,0.410454427243515,0.31151428982062
8569,-0.359624197439264,-0.384174363172183,0.498677914453191,0.419214896809842,0.0785698945738375,0.457808193084215,0.0340077837250717,0.360591319051652,0.364713003595071,0.364641891304967,0.04,0.093288232829147,174.004411407805,0.409982591712625,0.311852707212779
8629,-0.359624197439264,-0.383630461809359,0.49867791445319,0.419214896809842,0.0785698945738375,0.457808193084215,0.0340077837250717,0.360591319051652,0.364695148390387,0.364641891304967,0.04,0.0932818972200236,173.995932805424,0.409628970074469,0.312106712674677
8689,-0.359624197439264,-0.383224817587382,0.49867791445319,0.419214896809842,0.0785698945738374,0.457808193084215,0.0340077837250717,0.360591319051652,0.364681717895887,0.364641891304967,0.04,0.0932775603666128,173.98955558246,0.409364395436548,0.312296982502915
8749,-0.359624197439264,-0.382922014342479,0.49867791445319,0.419214896809842,0.0785698945738375,0.457808193084215,0.0340077837250717,0.360591319051652,0.364671632532932,0.364641891304967,0.04,0.0932743225633312,173.984766799278,0.409166716750378,0.312439261369158
8809,-0.359624197439264,-0.382695972500713,0.498677914453191,0.419214896809842,0.0785698945738375,0.457808193084215,0.0340077837250717,0.360591319051652,0.364664062057978,0.364641891304967,0.04,0.0932717544435456,173.98117215195,0.409019256710356,0.312545444749107
8869,-0.359624197439264,-0.382527345583721,0.49867791445319,0.419214896809842,0.0785698945738375,0.457808193084215,0.0340077837250717,0.360591319051652,0.364658379084139,0.364641891304967,0.04,0.0932696241013797,173.978473731743,0.408909493286101,0.312624492376229
8929,-0.359624197439264,-0.38240172075392,0.498677914453191,0.419214896809842,0.0785698945738375,0.457808193084215,0.0340077837250717,0.360591319051652,0.364654112475924,0.364641891304967,0.04,0.0932677933955696,173.976447840029,0.408828030033593,0.312683144989483
8989,-0.359624197439264,-0.382308332082011,0.498677914453191,0.419214896809842,0.0785698945738374,0.457808193084215,0.0340077837250717,0.360591319051652,0.364650908874417,0.364641891304967,0.04,0.0932661744405393,173.974926677844,0.408767815374142,0.312726471287926
9049,-0.342170079184712,-0.380899798935374,0.448109557127776,0.395029027186224,0.0875452522153545,0.428812913002993,0.0469809658802246,0.334301150917448,0.366233904334258,0.364641891304967,0.04,0.0870283629908539,174.725742029159,0.402033372176141,0.319337164773426
9109,-0.320797689485261,-0.376101330020146,0.386189119586453,0.365413676626692,0.0985354860621101,0.393308488413741,0.0628664950497995,0.302109108304138,0.365780528132697,0.364641891304967,0.04,0.0819004486293359,174.512597583157,0.394558375590849,0.324990145508296
9169,-0.299425299785809,-0.370492709342353,0.32426868204513,0.33579832606716,0.109525719908866,0.357804063824489,0.0787520242193745,0.269917065690828,0.365722975368092,0.364641891304967,0.04,0.0752836996124366,174.486390288932,0.388027985127731,0.330410002192118
9229,-0.278052910086358,-0.346642708986853,0.262348244503806,0.306182975507629,0.120515953755621,0.322299639235237,0.0946375533889494,0.237725023077517,0.36607342237486,0.364641891304967,0.04,0.0685802509189332,174.634658344113,0.379793360241271,0.337860754258201
9289,-0.256680520386906,-0.310818665152074,0.200427806962483,0.276567624948097,0.131506187602377,0.286795214645985,0.110523082558524,0.205532980464207,0.365187237025175,0.364641891304967,0.04,0.0631777364712038,174.228459644265,0.375649135856601,0.340793559932644
9349,-0.235308130687455,-0.274994621317296,0.138507369421159,0.246952274388565,0.142496421449132,0.251290790056733,0.126408611728099,0.173340937850897,0.364942864128124,0.364641891304967,0.04,0.0568818886035138,174.113257408875,0.37338238555658,0.342635762856257
