time,bias_percent_1,bias_percent_2,bias_percent_3,bias_percent_4,bias_percent_5,bias_percent_6,bias_percent_8,bias_percent_9,normalized_power,power_SP,SP,CV,total_power_MW,fuel_fraction,thermal_efficiency
35,0,0,0,0,0,0,0,0,0.999674882566231,1,0.04,0.0399626004819886,476.951579913249,0.999730268766088,0.350546896567542
95,0,0,0,0,0,0,0,0,0.999962421330203,1,0.04,0.0398994683894711,477.082708946807,1.00025629813301,0.350458871569368
155,0,0,0,0,0,0,0,0,0.999996148210494,1,0.04,0.0399397975732315,477.098241157628,1.00031530256821,0.350449608550462
215,0,0,0,0,0,0,0,0,1.00000101954888,1,0.04,0.0399714037209594,477.100504857606,1.00031559406671,0.35045116921371
275,0,0,0,0,0,0,0,0,1.00000268408455,1,0.04,0.0399904932082137,477.10129024575,1.00030237837088,0.35045637617927
335,0,0,0,0,0,0,0,0,1.00000360218855,1,0.04,0.0400013834770456,477.101723571489,1.00028235075863,0.350463711309746
395,0,0,0,0,0,0,0,0,1.00000397130481,1,0.04,0.0400071260813679,477.101895705038,1.00025902969727,0.350472008825677
455,0,0,0,0,0,0,0,0,1.00000390760446,1,0.04,0.0400096126606614,477.101862461901,1.00023527289476,0.350480308541033
515,0,0,0,0,0,0,0,0,1.00000355574403,1,0.04,0.0400100766737913,477.101692861065,1.0002131085316,0.35048795046677
575,0,0,0,0,0,0,0,0,1.00000304785067,1,0.04,0.0400093566171095,477.101449758054,1.00019373058119,0.350494562297841
635,0,0,0,0,0,0,0,0,1.00000248479951,1,0.04,0.0400080257618215,477.101180974389,1.00017765957237,0.350499996637925
695,0,0,0,0,0,0,0,0,1.00000193552774,1,0.04,0.0400064658010211,477.100919223951,1.00016493979219,0.350504261889513
755,0.0920290875734454,-0.145585605275584,-0.145832881331375,0.14583049137462,-0.145833333333333,0.145833333333333,0.0769062582802941,0.0278154349422967,0.993025885865336,0.990181591350831,0.04,0.0420265568752436,473.655217647553,0.990458669948406,0.351382917224427
815,0.157764150125906,-0.249575323329572,-0.2499992251395,0.249995128070777,-0.25,0.25,0.131839299909075,0.0476836027582229,0.978283832609064,0.973350033666542,0.04,0.0452230182600986,466.613838173026,0.964417656119667,0.355506166261163
875,0.211565572611505,-0.249820893643676,0.0416065687327903,0.249988115269784,0.0184911034820993,0.249999709785953,-0.0909001923172535,-0.0102251000141123,0.958373918120057,0.956518475982253,0.04,0.0571450843993034,457.07089522649,0.940563835522674,0.357067208085558
935,0.249995160101219,-0.249996301010893,0.249896421498712,0.249983106126217,0.21027046311217,0.249999502490205,-0.249999829621774,-0.051588459137209,0.94154550307522,0.939686918297964,0.04,0.0633428359865017,449.094410590362,0.9324184081663,0.353900753431987
995,0.249971398714783,0.0415029412000755,0.249956824011947,0.249990764715787,0.233440426761298,0.249999792704252,-0.249999929009073,0.124299717325405,0.918034855700941,0.922855360613675,0.04,0.0729234009747153,437.797908354813,0.936560196718618,0.343473046403882
1055,0.2499544262959,0.249716685636482,0.249999968664258,0.249996235136909,0.249990400796388,0.25,-0.25,0.249934129084415,0.905438678232275,0.906023802929386,0.04,0.0753973228505134,431.916040125166,0.959974862209816,0.330593376596314
1115,0.249977646458181,-0.0417733378898366,0.249998694803162,0.249998431307045,0.249938527927604,0.249996839748074,-0.0665125103959958,0.24985634099481,0.890570092002795,0.889192245245097,0.04,0.0708420334266762,424.764850687769,0.95008563911688,0.328503873112442
1175,0.249994232288382,-0.249980497551493,0.249997784902378,0.25,0.249901475878473,0.249994582425269,0.064549982178293,0.249800778073664,0.878119004938169,0.872360687560808,0.04,0.066660147790673,418.839506048065,0.925437775344546,0.332548575683725
1235,0.249951319151872,-0.249912100965816,-0.0416170234327666,-0.0416666666666666,0.24961880687472,0.249410551438561,0.172729065181172,0.249902358894222,0.866296111098803,0.855529129876518,0.04,0.0558932837646897,413.239492442068,0.875435395415768,0.346842568599777
1295,0.249920666911508,-0.249863246261761,-0.249913315100727,-0.25,0.249416900443468,0.248993386448056,0.249999838754657,0.249974916623192,0.848717320961595,0.838697572192229,0.04,0.0497767021475788,404.73971799258,0.799581446828926,0.371935637343368
1355,-0.041699722120205,-0.201023209529584,0.041702785374697,0.0416666666666666,-0.0419008447201778,0.249562771900434,0.24999993281444,0.249955469149373,0.827114404899024,0.82186601450794,0.04,0.051251748582352,394.600301024037,0.759621405806879,0.381693614062599
1415,-0.25,-0.1661374690066,0.25,0.25,-0.249984948408497,0.24996947579499,0.25,0.249941578096645,0.809540639760772,0.805034456823651,0.04,0.051373379382511,386.06723814481,0.7271627082737,0.390109050967612
1475,0.0416666666666666,-0.213806227698419,0.249999659168777,0.249995850409864,-0.249993723898757,0.249987281581246,-0.00253078355345126,0.249972599804236,0.793612622341891,0.788202899139362,0.04,0.0495601940564657,378.378348767161,0.695493453897428,0.399749479750898
1535,0.25,-0.247855341049719,0.249999415717904,0.24999288641691,-0.249999992106087,0.25,-0.00119518801313643,0.249994758166802,0.776927652932849,0.781189750104242,0.04,0.0499741858919497,370.671837683233,0.714061434360873,0.381424591223123
1595,-0.0415707737504205,-0.249106301947376,-0.0416288181756767,-0.0416696306596209,0.0416657082209202,0.249998121719097,-0.00428627423168981,-0.00428627423168981,0.795539080122275,0.781189750104242,0.04,0.0183152199825796,379.572541829616,0.691203228523263,0.403500155496801
1655,-0.249835612143578,-0.249999845445703,-0.249934699528234,-0.25,0.249998351311639,0.249996780089881,0.0381831178011967,-0.039941459912932,0.787124209864848,0.781189750104242,0.04,0.00715922644876634,375.395608642473,0.617674870028846,0.446564228749166
1715,-0.24993148706609,-0.249947731393393,0.0369211923148133,0.0416650999371956,0.249999313046516,0.207766779597974,-0.101866739376496,0.0416926679575584,0.764487332803331,0.781189750104242,0.04,0.0196434613991086,364.333712510272,0.647044676997573,0.413732623160763
1775,-0.249999969153599,-0.249910507070315,0.24181825791699,0.24999731417805,0.25,0.177602493532326,-0.154592645377825,0.25,0.769939472431257,0.781189750104242,0.04,0.0272187259897694,367.462508669602,0.765386712052186,0.352766059400398
1835,-0.249999987147333,0.0416991289647336,-0.0447597548605804,0.24993569118066,-0.0416551026981936,-0.0718322243070395,-0.197981412778117,0.25,0.787728641062777,0.781189750104242,0.04,0.0167069073837761,375.86505540933,0.770937584738425,0.358234499665904
1895,-0.25,0.249991726132625,-0.249458335415988,0.249891674753953,-0.249980176054046,-0.249999879906587,-0.249845667718278,0.25,0.783803733281006,0.781189750104242,0.04,0.0163412574389997,373.956512431622,0.71762311139682,0.382894704654634
1955,0.0416637384083938,0.249975213381658,0.0418923602433383,0.249946459019239,-0.249967593818659,0.0416667167055889,0.0417271553069893,0.25,0.755910711800519,0.781189750104242,0.04,0.0504484954969423,360.531370466629,0.791399067155233,0.334735830094504
2015,0.249994980128675,0.249963418559539,0.25,0.249985590637301,-0.249958606507668,0.25,0.249993457467895,0.25,0.768651881574536,0.781189750104242,0.04,0.0645949039744522,366.896081936191,0.922710154127251,0.292167867262593
2075,-0.0416687582797188,0.249984757733141,0.25,-0.0416726705677912,-0.24998208967573,-0.0416547306877147,0.249994083090111,0.249999876489224,0.791938386949841,0.781189750104242,0.04,0.0494098921562736,378.011903482936,0.914060760287259,0.303868083403614
2135,-0.25,0.25,0.25,-0.25,-0.249998863367202,-0.249979538321797,0.249994529963122,0.249999788267242,0.791515769388431,0.781189750104242,0.04,0.0445062859295141,377.541865174294,0.820139312475345,0.338245605938592
2195,-0.249994462263574,0.25,0.249992185780029,-0.25,-0.249998044188991,-0.249991474300749,0.249997720817968,0.2375872616322,0.786238816570033,0.781189750104242,0.04,0.0448694676369773,375.097472762259,0.783752317741632,0.351657574425039
2255,-0.249990506737555,0.25,0.249986604194335,-0.25,-0.249997459061696,-0.25,0.25,0.228721171178599,0.784399544417014,0.781189750104242,0.04,0.0422363189599216,374.226049962365,0.760876398574546,0.36138870831706
2315,-0.249996044473981,0.044737609418946,0.249988028189613,-0.25,-0.200291163617558,-0.249994035036302,0.25,0.241133821324416,0.786602597354368,0.781189750104242,0.04,0.0348493880094507,375.327424865106,0.73838708230752,0.373491639805172
2375,-0.25,-0.101878383853235,0.249989045329098,-0.25,-0.164786666871746,-0.249989774347945,0.25,0.25,0.784173203019793,0.781189750104242,0.04,0.0308642156294625,374.065557170689,0.706711080565814,0.388920197028689
2435,-0.25,0.103384006727818,-0.0415495998713304,-0.249986950075406,0.0771722221367726,-0.249882734191124,-0.0415443421408301,0.249171855808194,0.783702864811476,0.781189750104242,0.04,0.0224293072813283,373.882731443198,0.69340024557544,0.396192355830243
2495,-0.25,0.25,-0.249791489300208,-0.249977628700696,0.25,-0.249806276936252,-0.249790300812852,0.248580324242619,0.781226907054612,0.781189750104242,0.04,0.0187589568267728,372.732047206776,0.68450784453835,0.400104081216518
2555,-0.0452459713268358,-0.0413909394495106,-0.0419038013088691,-0.249922193748862,0.24999913240165,-0.24984062038399,0.0417540413279785,0.031903028832567,0.774123154104098,0.781189750104242,0.04,0.0233860129863398,369.26215281568,0.705040758772385,0.384835607598226
2615,0.101006906296853,-0.24952732477059,0.10658740439923,-0.249882597354695,0.249998512688543,-0.249865151418089,0.25,-0.122866467888898,0.776300066329713,0.781189750104242,0.04,0.0276795542448268,370.41931590447,0.747071416167743,0.364322657779146
2675,-0.103723588641808,0.00969944616751843,0.177463018307483,-0.249951082231123,-0.0416672863797737,-0.249783169253777,-0.0416577517295186,0.00806538224062763,0.784851163497487,0.781189750104242,0.04,0.0227149405922228,374.521026420686,0.749738623934831,0.36704642333194
2735,-0.249959656455137,0.194861425409024,0.228088456813379,-0.25,-0.25,-0.249724610564982,-0.249984717250603,0.101588132333146,0.782417010463386,0.781189750104242,0.04,0.0226964207017303,373.236825862615,0.721899554446914,0.379893961053648
2795,-0.249978207528525,-0.0646410727462397,0.240605398662183,0.0415483281451199,-0.249931677412488,-0.249807930142714,-0.243202543343278,0.188161721805477,0.776787855580896,0.781189750104242,0.04,0.0278502331809141,370.62088032217,0.736623665086581,0.369691012378794
2855,-0.249991458295231,-0.25,0.249546071411329,0.249797133963063,-0.249882875564265,-0.249867444126809,-0.238358133409474,0.25,0.778862056928311,0.781189750104242,0.04,0.0306192011899664,371.559038820846,0.756527739293805,0.360875709114921
2915,-0.249984955047903,-0.149111659601804,0.249711596708963,0.249875659538707,-0.248611417958683,-0.24994476838617,0.0464498709112409,0.247598682040581,0.77038365018839,0.781189750104242,0.04,0.0417277885805784,367.509860754338,0.794959433427344,0.339686826931956
2975,-0.249980309871241,-0.0770485593173784,0.249829829064417,0.249931749235596,-0.247703233954697,-0.25,0.249884159711751,0.24588345492671,0.776038880916714,0.781189750104242,0.04,0.0473500882349295,370.300203371543,0.849059085309744,0.320457701500231
3035,-0.0290780223233048,0.113678059116278,0.249929095443507,0.249969890814321,0.0426236525188763,-0.249999514317971,-0.041714933453437,0.248254664738174,0.773273842057425,0.781189750104242,0.04,0.0598935073109946,369.011228593232,0.882993078430384,0.307069695597957
3095,0.128709325925221,0.249911357997461,0.25,0.249997134799124,0.25,-0.249999167402236,-0.25,0.249948386032076,0.780244718933483,0.781189750104242,0.04,0.0724081428011337,372.285962108274,0.898150403574309,0.304566594556522
3155,0.0818573025809845,0.249959355554263,0.25,0.196585943651228,-0.0415232150957186,-0.249895874686965,-0.249927883816295,0.24994075538597,0.787411335535471,0.781189750104242,0.04,0.063597832007532,375.742390459008,0.880648629249994,0.313503365099655
3215,0.0483915716208159,0.249993639523407,0.25,0.158435092831303,-0.249754083021232,-0.249822094176057,-0.249876372256506,0.249935304924466,0.787955703859902,0.781189750104242,0.04,0.0588180052985505,375.898891627241,0.831472365934433,0.332183381291901
3275,0.165962542696891,0.249988897257959,0.249982041030646,-0.0798182632812877,-0.24989753459218,-0.249923967565472,-0.249948488440211,0.249972807147099,0.78714144001152,0.781189750104242,0.04,0.0529581764914033,375.554828151295,0.797910045297127,0.345839100754932
3335,0.24994180775123,0.249985509925497,0.249969213195394,-0.249999231933138,-0.25,-0.249996734272197,-0.25,0.249999594448981,0.785744492541149,0.781189750104242,0.04,0.048087301355137,374.857188325282,0.764533333890091,0.360266677300317
3395,0.249975353320256,0.24958580934523,-0.0412030368992625,-0.249999679972141,0.0416666666666666,-0.249998639280082,0.0415709186388514,0.249639060177208,0.774125897268995,0.781189750104242,0.04,0.0523128636212475,369.266124102823,0.77296936214046,0.351020001668501
3455,0.249999314440988,0.249300308930753,-0.249183215538303,-0.25,0.25,-0.25,0.249835860523745,0.249381535697371,0.780308628703265,0.781189750104242,0.04,0.0497527768000932,372.343891202742,0.802903594794776,0.340749719480816
3515,0.249346752876701,0.249708462054481,-0.249311958645834,-0.24999993513281,0.249997875271992,-0.0565019259159526,0.249890868071875,0.249742223054762,0.780463633863047,0.781189750104242,0.04,0.0564931710103708,372.336668590631,0.800768505207733,0.341651633298124
3575,0.24888063747364,0.25,-0.249403918008356,-0.249999888799103,0.24999635760913,0.0817109841440816,0.249930159177682,0.24999985688147,0.781662766634505,0.781189750104242,0.04,0.0587218725104667,372.951621743592,0.804979751650576,0.340425606552405
3635,-0.0420445070594452,0.249999863600861,0.0418951519857545,0.0414319642300217,-0.0416681843295293,0.179877728616516,-0.0416471207501022,0.175474976846296,0.790973839298575,0.781189750104242,0.04,0.053489924015342,377.433279588635,0.773697315348741,0.358446032021673
3695,-0.249848181725935,0.249999766172905,0.249965916267262,0.249597573536539,-0.25,0.249996831811112,-0.0776816272507426,0.122242919678314,0.782222219332057,0.781189750104242,0.04,0.0513560113890943,373.146419768387,0.745237912381477,0.367907816392518
3755,-0.109291922797643,0.249999902572044,0.249981511632772,0.204708467773505,0.0413452260297398,0.249965810186535,0.119525130598452,0.180926032374181,0.767910490441431,0.781189750104242,0.04,0.0602275053632969,366.257145275075,0.783230999593187,0.343598227033878
3815,-0.00889459499172119,0.25,0.249992651179565,0.172644820799909,0.249448958908126,0.249943651883267,0.25,0.222842541442657,0.77244688341571,0.781189750104242,0.04,0.061426390224512,368.627357698322,0.865113861182287,0.313089835948032
3875,0.14212722796075,0.249996178465916,0.249996904435477,-0.0736941059994074,0.249770399545052,0.249976521618028,0.25,-0.00966709374800186,0.783563658478425,0.773196442399112,0.04,0.0593744122549587,373.65526391581,0.850047662086014,0.322985111898664
3935,0.249999958641087,0.249993448798713,0.249999942475415,-0.249650482284633,0.25,0.25,0.25,-0.00456612626549187,0.76611572523697,0.759493629190319,0.04,0.0669361209412298,365.378778353048,0.802296980113641,0.334628431820857
3995,0.249993804091988,0.249960426780826,0.249176739907982,-0.249854367618597,-0.0416664301037978,0.249998440127574,0.249952125150704,-0.00215661145685457,0.754576413291531,0.745790815981526,0.04,0.0624428606164273,359.937929491209,0.760183508841697,0.347907544303902
4055,0.249989407985489,0.249936839625193,0.248588738074102,-0.25,-0.249999594463653,0.249997325932985,0.249917928829779,-0.00101844246832274,0.738971397790136,0.732088002772733,0.04,0.0599687226063559,352.41332321314,0.706209301781739,0.366668465948147
4115,0.24999558666062,0.249973569321731,0.249411974197543,0.0397968825715648,-0.24999827257796,0.24886317594801,0.249694759704441,0.0311716302151586,0.718589907487329,0.71838518956394,0.04,0.0692124453039707,342.70983634463,0.686917259921434,0.36658679501371
4175,0.25,0.249999804819258,0.25,0.246794655836968,-0.249997328373894,0.248053068815885,0.249535353186342,0.232005096016605,0.701313447742419,0.704682376355147,0.04,0.0744887038554431,334.558019493957,0.725837857325756,0.338677624544298
4235,0.24999692727264,0.249994509954734,0.25,0.245994289665938,0.0416069682387461,0.249188772239337,0.249806397160976,0.242502123340252,0.68806679711534,0.690979563146353,0.04,0.0833840401307183,328.134359377445,0.73445184127692,0.328278968882539
4295,0.249994732467383,0.249990727908645,0.25,0.245422599543774,0.249895751533489,0.249999988970374,0.25,0.25,0.675742675717659,0.67727674993756,0.04,0.0882749574767292,322.321956313327,0.752694097431005,0.314648782948335
4355,-0.0416688614719238,-0.0416705291787007,-0.0416596853158807,-0.0435739168567608,-0.0413747833731331,0.185569493998411,0.249997475121794,0.249913051502917,0.680693493681912,0.663573936728767,0.04,0.0465736606348788,324.78359528378,0.71303467150223,0.334686437099054
4415,-0.25,-0.249999998526805,-0.249988031970081,-0.25,-0.249425165449291,0.13954771187558,0.249995671637361,0.249850945433572,0.675614391343918,0.657864431225103,0.04,0.0199130319889805,322.069432912438,0.538563519232235,0.439407284797703
4475,0.0416666666666666,-0.249999961336424,0.0416716533457997,0.0416632622595848,-0.249760485603871,0.20275295310365,0.249998193861644,0.117122594951635,0.639374303464868,0.657864431225103,0.04,0.0348360642363994,305.069041075926,0.559706641924563,0.40049062349245
4535,0.25,-0.249999934771866,0.25,0.249994163873574,-0.25,0.247899553980842,0.249999995450418,0.0223166303216805,0.647642335265709,0.657864431225103,0.04,0.0440654952285724,309.114835840992,0.659176048558021,0.34456654398962
4595,-0.0416481235465073,-0.249999972821611,-0.0415196179741522,-0.0416687224864805,-0.25,-0.0420656685794916,-0.0414777393006865,-0.0795034758751374,0.680876310210941,0.657864431225103,0.04,3.1079158953697e-07,324.655167490489,0.610340726398708,0.390845076884629
4655,-0.249968211794013,-0.25,-0.249747916527118,-0.249999355600805,-0.25,-0.249183684694016,-0.134642821660819,-0.134642821660819,0.626427785261688,0.657864431225103,0.04,1.63548678638583e-10,299.004848879142,0.784831093853388,0.279934681193009
4715,-0.249986754914172,-0.25,-0.249894925466306,-0.24999971304739,-0.249999915157003,-0.24653420523937,0.0418013455510368,-0.215565150244096,0.663565978953453,0.657864431225103,0.04,6.13199705941574e-09,317.091290942568,0.858175502608652,0.271495651105496
4775,-0.25,-0.25,-0.24999993185144,-0.249999968366379,-0.249999854554862,-0.244641719914623,0.249999536134464,-0.249971333043033,0.696200163503751,0.657864431225103,0.04,1.99978097686858e-05,332.187504419382,0.658189274673653,0.370840507858334
4835,-0.249859485684689,-0.249987621366442,-0.249998421428574,0.0416666798473418,-0.249997963797018,0.0436911778240022,0.249895220355527,0.0299429331954377,0.643627370585851,0.657864431225103,0.04,0.0314147051316228,306.747178296905,0.627953433455261,0.358928392029157
4895,-0.249759118316609,-0.249978779485328,-0.249997342555099,0.25,-0.249996613255701,0.249643247637306,0.249820709084858,0.229881694794345,0.651773710590867,0.657864431225103,0.04,0.0360550578869053,311.07041457961,0.716580266010962,0.318969046665236
4955,-0.0240029875101102,-0.24993818308815,-0.111684769895253,0.249999938491009,-0.249992470388978,0.249851349922073,0.249923713332513,-0.0500446114667842,0.651904218062581,0.657864431225103,0.04,0.0420083648359902,310.946216533381,0.736791915041178,0.310095241222068
5015,0.137251391637389,-0.249909185661594,-0.0128900751382201,0.249999894556016,-0.249989511198461,0.249999994411192,0.249997287795124,-0.249991973081877,0.656937429997209,0.657864431225103,0.04,0.0492108104342742,313.478274426765,0.759201834859478,0.303392523823823
5075,-0.0886452220299243,-0.24996215667924,-0.151199941379106,0.0724118484721417,-0.249935030825097,-0.0412392175411735,0.249969481397453,-0.249885801252681,0.677813818115313,0.657864431225103,0.04,0.0317024457092713,323.649097015036,0.709391062200838,0.335230375534828
5135,-0.249999946078005,-0.249999993120415,-0.249992702979739,-0.0544367558734825,-0.249896116272694,-0.249267226078577,0.249949619684832,-0.249809964231827,0.670608660902393,0.657864431225103,0.04,0.0241917511884515,319.802434208076,0.575087842378381,0.408603662290799
5195,-0.249999333088669,-0.249996236413327,0.0416030885435712,-0.168512930684576,0.0415371312373812,-0.0639565972230154,0.249928509079207,-0.2499170049857,0.64348003833391,0.657864431225103,0.04,0.0374544151529785,306.796219765096,0.594574193305423,0.379139143857142
5255,-0.249998895239143,-0.249993553051122,0.249885796774507,-0.249995912692499,0.249703736601721,0.0684081376738148,0.24991343007519,-0.249993462667037,0.642520134465758,0.644168402693053,0.04,0.0445561898439728,306.509348251655,0.663685942456865,0.339340567635667
5315,0.0415614411506082,-0.203768430739304,0.249907640214356,0.0416680473310344,0.2494975579573,-0.0436690468365936,0.24989336480792,0.0413364494679952,0.608972825230389,0.620689496638111,0.04,0.0749845915537042,290.289031908818,0.683864869876651,0.31189973711779
5375,0.249818824286145,-0.170750486230863,0.249923242671392,0.249999447347844,0.249350287497,-0.123724178629742,0.249879032474156,0.249429243850161,0.599783472832539,0.597210590583168,0.04,0.094584996850318,286.111105739738,0.714304941479265,0.29431048712555
5435,0.249919513955322,0.0745616968925732,0.213186475314908,0.249996937668852,0.249725934704147,0.0942074960802473,0.249708516447976,-0.0417377198368722,0.588664569813985,0.573731684528225,0.04,0.1104165218068,280.715779006944,0.645338725655188,0.319619872634773
5495,0.249991435147592,0.249784684837885,0.186945927203133,0.249995145040999,0.249994254137824,0.249872978015954,0.249586719286418,-0.204617619244425,0.560507942667234,0.550252778473283,0.04,0.116904270910938,267.155416574124,0.562335241686159,0.349078706878135
5555,0.249994598888336,0.249910285349119,-0.0679332334403414,-0.0416686895662503,-0.0416690606743691,0.249947074173314,0.249827799702674,-0.0966598098851582,0.547793436090186,0.547743526195905,0.04,0.0859116266932958,261.432824185125,0.544708795793465,0.352655289779026
5615,0.249996858703153,0.25,-0.249989776757109,-0.25,-0.249999999825935,0.25,0.25,-0.045756499332844,0.560890204457586,0.560212598045361,0.04,0.0459909862666037,267.63992483634,0.529523472539911,0.371381579866116
5675,0.24999218271623,0.098727429262944,-0.215704867287577,-0.249954746488279,-0.24999997379859,0.119344576547448,0.25,-0.0247763397083232,0.573530302097014,0.572681669894816,0.04,0.0219159816712889,273.773171916918,0.534269574051616,0.376517461156248
5735,0.24998884272557,-0.0093244069778101,-0.191215646237911,-0.249922422551335,-0.249999955207628,0.0260192740813391,0.25,-0.0448349658274979,0.585491400488931,0.585150741744272,0.04,0.00988826161573819,279.445440929122,0.518146786825519,0.396277026519566
5795,-0.0416713155310125,0.141866949521559,0.0659413207836157,-0.249829055828991,-0.24992008888859,0.156670658122776,0.249999956212371,-0.0942959471213495,0.58717158539198,0.597619813593727,0.04,0.017767416201534,280.124263543022,0.554568451929805,0.371150665898627
5855,-0.25,0.249860775592537,0.249624868656134,-0.249762365313031,-0.249863041517849,0.249993075295232,0.249999924935494,-0.147165774145995,0.6026964203561,0.610088885443183,0.04,0.0187063935247612,287.761336448425,0.617266331800593,0.342542551747897
5915,0.0416666666666666,0.243223911609696,0.144855580340464,0.0417603108796721,-0.24994293396577,0.249997114706347,0.249999968723122,-0.0700568167883275,0.604539177515914,0.622557957292638,0.04,0.0413746822575276,288.406875548226,0.680907682261242,0.311223263077725
5975,0.25,0.238483294479095,0.0700203744006993,0.24999079387446,-0.25,0.25,0.25,0.0584713519842222,0.624077676536887,0.635027029142093,0.04,0.0534217584157391,297.965198753639,0.783751353675217,0.279345651607978
6035,0.25,0.245201080265337,-0.116655638448582,0.249968545058249,0.041665191619629,-0.00386010140715257,0.249993415890207,-0.121451095270993,0.651543565796851,0.647496100991549,0.04,0.050124087837767,311.056760648815,0.794259815232204,0.287760865338222
6095,0.25,0.249999498684081,-0.249995647626641,0.249952653046671,0.249997471347935,-0.185188745269404,0.24998871295464,-0.18211817566852,0.662664377324199,0.659965172841004,0.04,0.0540345342662575,316.21268388973,0.763544330601954,0.304298425881776
6155,-0.0416666666666666,0.218341412830928,0.0410447910064424,-0.0407369625418529,0.158928794861274,-0.222987003888877,0.249995297064433,0.0745864504846015,0.669617442941454,0.672434244690459,0.04,0.0462018040439394,319.563360916003,0.770348640223252,0.304806578570951
6215,-0.25,0.195728494364391,0.248930818601502,-0.248372402247941,0.0938797402279449,-0.249985760045644,0.25,0.25,0.686318594864633,0.684903316539915,0.04,0.0373254559864679,327.531788750494,0.770839307591262,0.312208182217771
6275,0.039461148245553,0.22738666660521,0.08852094878502,0.0401651576332698,-0.106713930216308,-0.249994066685685,0.25,-0.0389581574244511,0.70434486655724,0.69737238838937,0.04,0.0393652416172768,336.172318699657,0.745481967453783,0.331344284152887
6335,0.246219111278091,0.249999646777225,-0.0260575296553241,0.246263414691278,-0.249995123390774,-0.25,0.25,-0.128108595395545,0.709201462143394,0.709841460238826,0.04,0.0452501236953175,338.430497880997,0.732038506672933,0.339695851189148
6395,-0.0432420369674621,-0.0416668138428231,-0.156584200656594,-0.0432235772119675,-0.249997968079489,0.0393666926460311,0.247472686704225,-0.124270038241395,0.730080594735444,0.722310532088281,0.04,0.0152709146107038,348.679551504152,0.723494745155054,0.354116182605493
6455,-0.25,-0.25,-0.249817537086073,-0.25,-0.25,0.246057187393196,0.245667462921529,-0.161162752475456,0.744979145638727,0.734779603937737,0.04,0.0031538360858665,355.419759589858,0.615001962845642,0.424638867742044
6515,-0.249993639117267,-0.249935329552887,-0.249923973785864,-0.249999567816183,-0.248414169329056,-0.0428878099899357,0.24781742953197,0.0424785398259147,0.748750345584824,0.747248675787192,0.04,0.000151883029704438,357.388443496634,0.605118180795413,0.433965275261908
6575,-0.249989095629601,-0.249889136376378,-0.25,-0.249999259113456,-0.247281433135524,-0.24927709383503,0.249353119967999,0.249950030493136,0.757444341318342,0.759717747636647,0.04,0.000580399669734021,361.514334378881,0.599927840028086,0.442773053311511
6635,0.0404415224123698,-0.247223594182475,-0.25,0.0412450064782932,-0.247693588924185,0.0419656790235463,0.24966528446355,-0.0416874872945266,0.741186108385267,0.772186819486103,0.04,0.00622304148948807,353.723334789535,0.695478152404277,0.373710151578176
6695,0.24789196387092,-0.245319635472545,-0.25,0.249276624758114,-0.247987985916086,0.249996231065386,0.249888259103228,-0.25,0.76535941778156,0.784655891335558,0.04,0.0129888501038959,365.498109783756,0.890016622783166,0.301746119396931
6755,0.249118748231635,0.0436133641788297,0.0416637613482358,0.249698362188184,0.0425050058682975,0.249990822435515,0.249953441293012,0.0416583442626114,0.757133801327134,0.797124963185013,0.04,0.0440424012453258,361.281531072576,1.06068153719859,0.250273823024651
6815,0.249995022775003,0.249994078215526,0.249995019454119,0.249999603209662,0.25,0.249986959128463,0.25,0.249985733021619,0.794797156324804,0.809594035034469,0.04,0.0629548616106851,379.525677292574,1.22666099124856,0.227337607753229
6875,-0.0416685407536463,-0.0416687980733212,0.249990636760839,-0.0416663936555825,-0.0416609434688791,0.249994566303526,0.249852205285221,0.249908411743473,0.838500652967612,0.822063106883924,0.04,0.0535690036244176,400.422776520655,1.20404277871676,0.244360796259505
6935,-0.249999657559825,-0.249999423993926,0.249987506265639,-0.249999248559329,-0.249990188803793,0.25,0.249746637631808,0.249853182259083,0.851569944168641,0.83453217873338,0.04,0.054143715137987,406.243052055646,1.05984250512615,0.281643212696268
6995,-0.249999857316594,-0.249977236997476,0.122486656078388,0.0416644294986914,-0.249982120535158,-0.0416666666666666,0.249889899176302,-0.0417274242225807,0.864716184215404,0.847001250582835,0.04,0.0481689965701212,412.707128367751,0.972875673168081,0.311701794448611
7055,-0.25,-0.249961389142869,0.0314146202303519,0.249995628111563,-0.249976357486133,-0.25,0.24999222885094,-0.249999285995198,0.868272222114987,0.859470322432291,0.04,0.041458670621099,414.257560950682,0.886582353875208,0.343325480901124
7115,-0.249997622325441,0.0416827545238048,-0.132743908237353,0.249972072714087,-0.249989302599159,-0.249996127011066,0.249996762021225,0.0238469983277741,0.864797506618273,0.871939394281746,0.04,0.0420038614727351,412.606509061955,0.890481238290907,0.340459908039677
7175,-0.24999592398647,0.25,-0.25,0.249955247430174,-0.249998549108463,-0.249993360590399,0.25,0.219451487129897,0.880728717929915,0.884408466131201,0.04,0.0403904162633678,420.335713327859,0.933598600283189,0.330819251931982
7235,-0.249997002885316,0.24999891204945,-0.249925171716665,0.0769969625639117,-0.24999939546186,-0.249997233579333,0.25,-0.0543952136958762,0.906064611782838,0.896877537980657,0.04,0.0302389133596112,432.472905378217,0.91531179038266,0.347171865847147
7295,-0.249997773527348,0.249998134941915,-0.249871722942854,-0.0465446694834187,-0.25,-0.25,0.25,-0.25,0.912071811256066,0.909346609830112,0.04,0.0254760063510817,435.186202237692,0.869653543498041,0.367691442861437
7355,0.041667594363605,0.249998813110021,-0.0438217178359633,0.126439650172394,-0.22407690516516,-0.25,-0.0416666666666667,-0.176824749389305,0.907367734085423,0.921815681679568,0.04,0.0330143943897508,432.97971255898,0.908398981955802,0.350223743009603
7415,0.25,0.249999297515812,0.103356857240387,0.249999878497975,-0.20556040885456,-0.25,-0.25,-0.124556713238808,0.925291947010052,0.934284753529023,0.04,0.0385066729166301,441.614314783813,0.981522078156505,0.330596115086083
7475,0.249634078318912,-0.0416669593684118,-0.102640493875489,0.249999380671228,-0.171531780237096,-0.249999466483415,-0.249607033565685,-0.197725383063321,0.950983237026512,0.946753825378478,0.04,0.0256349055983588,453.941300231983,0.993867821100114,0.335602930207492
7535,0.249372705689564,-0.25,-0.249781458958258,0.249999025080693,-0.147225616938908,-0.249999085400139,-0.24932634325546,-0.24998871865226,0.961494810195523,0.959222897227934,0.04,0.0212632483242468,458.756449827987,0.95487686440887,0.353012016095549
7595,-0.0419269217429205,-0.249815179333789,-0.24990870452947,0.249972647508488,0.084489221801217,0.0123239815756284,-0.24971929652135,-0.249991808122295,0.96558994810271,0.971691969077389,0.04,0.0256725335236788,460.769094412254,0.976795185130195,0.34660474800076
7655,-0.249998084194695,-0.249683164572209,-0.249999594223193,0.249953806385484,0.249999820901306,0.199697600844034,-0.249999977425556,-0.249994014886607,0.979730639077831,0.984161040926845,0.04,0.0273568500294273,467.523786299303,1.00669949125042,0.341238904152799
7715,-0.165935528086365,-0.24986798523842,-0.249983134448252,0.249961805015289,0.249993077728864,-0.0624119509559498,-0.249966382996688,0.0139856275409347,0.983667979734081,0.989356487530784,0.04,0.0300168762907212,469.311824525489,1.03719350551928,0.332473001499041
7775,-0.105890845151843,-0.25,-0.249971377466152,0.249967518322293,0.249988261177121,-0.249633059384509,-0.249942386976068,0.202542514989179,0.987570662787369,0.989356487530784,0.04,0.0340199565166054,471.199248431124,1.05904652875204,0.326922058086535
7835,0.100647168568241,-0.249967273167948,0.0416558602495487,0.24998611874825,0.244976612321278,0.0418136994467783,0.0230204945601153,-0.0614406187545088,0.975758713263778,0.989356487530784,0.04,0.0528755384286513,465.453715448285,1.10034471673741,0.310815318714242
7895,0.248174321225443,-0.249943896859338,0.249961030046478,0.24999940476679,0.241396863138533,0.249989955754841,0.217993981371675,-0.25,0.982516440034026,0.989356487530784,0.04,0.0624140050710296,468.858763948588,1.17382712921695,0.293489502433009
7955,0.249218231609076,-0.247294837834432,0.194294060438304,0.196019398543355,0.246415291692247,-0.041670851768816,0.236664158904865,0.0416666611745709,0.987683998131524,0.989356487530784,0.04,0.0624531475030717,471.24535602814,1.18870608200366,0.29129113980703
8015,0.2499638818831,-0.245402652816642,0.154531939289608,0.157462251240901,0.249999883516328,-0.25,0.25,0.249999990584979,0.992669629746527,0.989356487530784,0.04,0.0633314692603879,473.631613255106,1.18075519979433,0.29473756538839
8075,0.224184346772131,-0.248082547364626,0.21022164137067,-0.00649788011399914,-0.0416667152015302,-0.249993869211859,0.25,0.249993695627525,1.00047900450759,0.989356487530784,0.04,0.0589512700734189,477.399542512883,1.13639409586587,0.308679441706793
8135,0.20577039312144,-0.249996757756043,0.25,-0.123612259653213,-0.25,-0.249989490077473,0.25,0.249989199229344,0.998432743632577,0.989356487530784,0.04,0.0566152771113997,476.300167542193,1.06551517489215,0.328454919748186
8195,-0.0596909729697953,-0.249998602257929,-0.0416659602833905,0.0943282251444945,-0.25,-0.249989473077257,0.249998639711984,0.249995499678893,1.00079201213531,0.989356487530784,0.04,0.0459664610593389,477.563295783488,1.01369969619655,0.34615953647933
8255,-0.249306234463535,-0.249999919759277,-0.249998789057241,0.25,-0.25,-0.249989460934246,0.249997668077687,0.25,0.998043855552587,0.989356487530784,0.04,0.0387451262215051,476.105810678546,0.937513822093164,0.373147450577198
8315,-0.249710738917206,-0.249999380493388,-0.249984462156329,-0.0416666666666666,-0.249999150719667,-0.24991511285447,0.249999028365703,0.249354918941734,0.995787566784374,0.980154358946266,0.04,0.0316759860436837,475.025964682716,0.872063608988269,0.400243106808878
8375,-0.249999670669828,-0.249998995303468,-0.249974228655677,-0.25,-0.249998544090858,-0.249862007083202,0.25,0.248894146757258,0.973874448752424,0.964379281372805,0.04,0.0283436354035459,464.50681457619,0.787211068665253,0.433566355755528
8435,-0.249844001960165,-0.249999221862983,-0.249861550815078,-0.249999557905081,-0.249999121747305,0.0417217642126366,0.249704082262542,0.249538962818398,0.945179881866045,0.948604203799345,0.04,0.0304476350416889,450.793566460429,0.772545684215697,0.428754029777483
8495,-0.249732810024691,-0.249999383691208,-0.24978106664322,-0.249999242122996,-0.249999534359052,0.249995886566807,0.249492712450071,0.249999545719213,0.931962776741829,0.932829126225885,0.04,0.030053121192998,444.50660484472,0.792374346384181,0.412194780562236
8555,0.0417779530304614,-0.20631519539017,0.0417557257732847,-0.249999557106402,0.0416668388929448,0.249998286069503,-0.0418779994620388,0.249999801308419,0.89319337714532,0.917054048652424,0.04,0.0411975312447872,425.944488897197,0.85358016282516,0.366659858256626
8615,0.249999926641285,-0.175112203746571,0.249996291785074,-0.249999782094549,0.249999962644372,0.25,-0.249999936542117,0.249999983872137,0.894653389416515,0.901278971078964,0.04,0.0506113475731341,426.859652944362,0.94737682901091,0.331067862377796
8675,0.249997391100566,0.0728699151055955,0.249998454910448,-0.0028971402079851,0.249999984435155,0.249997401854553,-0.249999510404089,-0.0415805665672299,0.890630884263804,0.885503893505503,0.04,0.0662202118665491,424.851149477642,0.935111628328174,0.33383203996121
8735,0.249995580000052,0.25,0.25,0.173604746853846,0.25,0.249995546036377,-0.249999206019782,-0.249852388309635,0.874108540535015,0.869728815932043,0.04,0.0763601143415942,416.889960882608,0.898664754460018,0.34086185588125
8795,0.249998158333355,0.25,0.25,-0.0734980221442308,0.25,0.249938241145933,0.0416634027929655,0.0417273038607048,0.844783132232752,0.853953738358583,0.04,0.0797182977748317,402.827591965648,0.912491752051612,0.324373180339586
8855,0.25,0.25,0.25,-0.25,0.25,0.249897309081331,0.249993837659214,0.249998512553805,0.839111305696623,0.838178660785122,0.04,0.0770163045663537,400.328548642443,0.946827533560489,0.310670745593744
8915,0.249999995974563,0.25,0.249996949511372,0.0416666666666666,0.249991522133857,0.249956214782182,0.249861229771145,0.249999380230752,0.827100746382279,0.822403583211662,0.04,0.0859058696720376,394.462834715577,0.915416397790198,0.31662272330244
8975,0.24999999309925,0.25,0.249994770590924,0.25,0.249985466515184,0.24999829028279,0.249766509851096,0.25,0.81095111668711,0.806628505638201,0.04,0.0893247751163844,386.780595001067,0.891179117067274,0.31889987740165
9035,0.249999774583423,0.249999980541963,-0.0416688455871148,0.24999336559973,0.249993944381327,0.249999287617829,0.249899182593947,0.153219489525679,0.799480922178719,0.790853428064741,0.04,0.0818722297582484,381.363231406808,0.853862859179486,0.32817490775502
9095,0.249999618500689,0.249999966643366,-0.25,0.249988626742394,0.25,0.25,0.24999394883884,0.0840905534725933,0.782323659014059,0.77507835049128,0.04,0.0785904016811964,373.075958924943,0.796385737456742,0.344213949649614
9155,0.249999757343068,-0.0416666805652643,-0.0474582777577943,0.249995261142664,0.25,0.0397927906603879,0.24999747868285,0.180870932422183,0.764499754452263,0.75930327291782,0.04,0.0719226534117956,364.616518826577,0.7639758039712,0.350680334744523
9215,0.249999856516196,-0.25,0.0972143809866384,0.25,0.25,-0.110355216010764,0.25,0.249999774529033,0.747631510919065,0.74352819534436,0.04,0.0654476164091303,356.556576429714,0.73505094858053,0.356422970200451
9275,0.249998209117345,0.0416270901204572,-0.105327341255567,0.25,0.24999965014944,-0.191814673337818,0.249987187759283,0.249994485604795,0.732555177178001,0.727753117770899,0.04,0.0670434604000917,349.385797208317,0.709228179928423,0.361971135110392
9335,0.249997032403881,0.249932154492212,-0.25,0.25,0.249999400256182,-0.25,0.249978036158771,0.249990707801768,0.715822953531546,0.711978040197439,0.04,0.0703873532569542,341.382213312443,0.681334775817988,0.368158650870046
9395,0.249991403812255,-0.041694049773993,-0.249999950010639,0.249999777235422,0.249986623474384,-0.249997826655563,0.249990844766971,0.249996128250737,0.701294021916073,0.696202962623979,0.04,0.0583877151007526,334.48729119671,0.656505551613098,0.374365565223986
9455,0.249987383389665,-0.249998481392711,-0.249999914303952,0.249999618117866,0.249977497201671,-0.24999627426668,0.249999993772828,0.25,0.68532305517117,0.680427885050518,0.04,0.0485583039709876,326.818275053113,0.62118529769971,0.386580409258444
9515,-0.0416711018263678,0.0416656986139398,-0.249999964293313,0.24999960005722,0.249969055614128,-0.249998447611117,-0.000252597298285907,0.25,0.680483877616724,0.673854936061576,0.04,0.0393275651197259,324.633212138324,0.592282189879401,0.402734608529226
9575,-0.249998591266391,0.249997255761548,-0.25,0.249999587156759,0.249963025908741,-0.25,-0.00286192120186489,0.25,0.671853460639016,0.673854936061576,0.04,0.0314196568395173,320.515839404958,0.595363717099579,0.39556859855941
9635,-0.249988555193674,0.249995529678717,-0.249999659336749,0.249956093714426,0.249984594128642,-0.249925703692829,0.0417011308888311,0.249999999664288,0.670579016563423,0.673854936061576,0.04,0.0274452840973217,319.763477074711,0.613036780324793,0.383263095017689
9695,-0.249981386570304,0.249994296762409,-0.249999416005856,0.249925026969902,0.25,-0.249872634901993,0.249881927415191,0.249999999424493,0.669143210133831,0.673854936061576,0.04,0.0304222498464575,319.29263922625,0.659017898158373,0.355997028790317
9755,0.0416738716036948,-0.0416690430156626,0.0416669056229284,0.249968761237459,0.249999566340584,0.0417197354575029,-0.0417158635770038,0.249981917158958,0.670144541539246,0.673854936061576,0.04,0.0448584628425472,319.684631492157,0.675380946697232,0.347798440468407
9815,0.249999056013694,-0.25,0.249999992500631,0.25,0.249999256583858,0.25,-0.0559884129171975,0.249969001255004,0.667388786118112,0.673854936061576,0.04,0.0569180901732477,318.47352526889,0.727315815602113,0.321739942627008
9875,0.249999606672372,0.0416658502113181,-0.0416621649434135,0.00997727862217926,0.249931522427293,0.249956334359885,-0.0317084266041184,0.249969603320304,0.675661868189361,0.673854936061576,0.04,0.0519529365009622,322.423061437566,0.736033800949033,0.321871863701642
9935,0.25,0.24999860036226,-0.249992277403445,-0.161467522361979,0.24988314088689,0.249925144616946,-0.014977812978629,0.249970033366946,0.677099465943139,0.673854936061576,0.04,0.0537574122892691,323.026504435795,0.71189468123881,0.333408821071806
9995,0.25,-0.0416063145888575,-0.249996782251436,-0.213110995605597,0.249951151062814,0.0864792961076207,-0.00816148176633141,-0.00816148176633141,0.691490995786779,0.673854936061576,0.04,0.0312223675653562,330.007147447225,0.656939059367943,0.369107558015256
10055,0.25,-0.249895539553941,-0.25,-0.24999919077961,0.249999729759903,-0.0302677385418973,-0.0239712796847048,-0.0239712796847048,0.685058109950565,0.681033202733684,0.04,0.0161573811462716,326.837632992691,0.595361044666041,0.40337252915973
10115,0.249967378167413,-0.249956474814142,0.0416585696649354,0.0414765100986815,0.249993136573941,-0.157499541675628,-0.0651866752021586,-0.0651866752021586,0.683107060856503,0.693338802743011,0.04,0.0223994940518896,325.940476210498,0.622142280842483,0.3849490524715
10175,0.249944076858422,-0.25,0.249986119425604,0.249673439297461,0.249988427155397,-0.248379401056864,-0.105495450340223,-0.105495450340223,0.696305939650757,0.705644402752338,0.04,0.0252649053679103,332.349311860654,0.689490410098202,0.354177713651186
10235,-0.0416886708484958,0.041666646970495,-0.0416723936583119,0.249863933007413,0.240844615229023,0.0423416849617029,0.041665322170059,0.0416680094762953,0.699256084661906,0.717950002761665,0.04,0.0331630339267434,333.547777730136,0.756804005057148,0.323839116564737
10295,-0.249997776353437,0.249999966235134,-0.249999903003966,0.249999999943094,0.2343133209959,0.249999603546394,0.249997695148673,0.249999680263508,0.720192222101189,0.730255602770992,0.04,0.0373573045818693,343.779905074421,0.856961463225017,0.294763612947547
10355,-0.0665500387943541,-0.041519345453568,-0.249997675449726,0.249999999976289,-0.0482027829183751,-0.0416668318556692,0.249185906194668,0.249999863759211,0.751898926348259,0.74256120278032,0.04,0.0271382567301434,359.021660994146,0.855768576622073,0.308261290879859
10415,0.0644840594621339,-0.249747425231213,-0.249996084339555,0.25,-0.25,-0.25,0.248606056941807,0.249999994827571,0.759001934486523,0.754866802789647,0.04,0.0258267498782896,362.163074748629,0.790025430154294,0.336835435770233
10475,-0.118964975224111,-0.249801506634652,0.0395426494480615,0.167028131753818,-0.249999878085884,-0.249924246117519,-0.04224710885549,0.249999997844821,0.77257622315774,0.767172402798974,0.04,0.0203427906401862,368.740626595824,0.771331550164344,0.351264749936371
10535,-0.25,-0.249840136208537,0.246356030724931,0.107762511577974,-0.249999791004373,-0.249870136201461,-0.249999370139274,0.25,0.781286607583552,0.779478002808301,0.04,0.0170934018255946,372.774146604037,0.743197673255588,0.36854974885888
10595,-0.249982499035241,-0.00637176621713456,-0.0360214289542808,-0.100898298418571,-0.249981598845852,-0.115411614507117,-0.249929933573108,0.249993115045622,0.794302591902815,0.791783602817628,0.04,0.0136082296261324,379.048575735987,0.737204937641554,0.377799440171092
10655,-0.249969998346127,0.167534212348153,-0.237719614439432,-0.249941734130389,-0.249968604446907,-0.0193698132968714,-0.249880336025847,0.249988197221066,0.801746674775528,0.804089202826956,0.04,0.0127680151849212,382.568662430859,0.735173408701831,0.38236160737293
10715,0.0416791673557806,0.215283767672005,-0.244743600449528,-0.249959696287899,-0.102889667481009,0.13776257779297,0.0363283842321924,0.249995081609587,0.783630691090644,0.816394802836283,0.04,0.0320576671739663,373.820415297678,0.837368630754131,0.32802051374013
10775,0.25,0.249390592903328,-0.249760733313883,-0.249972526400406,0.00216671606606064,0.25,0.240763184416507,0.249999999029959,0.811298222230256,0.82870040284561,0.04,0.0408198487478672,387.326566257011,1.0051948380557,0.283127277132981
10835,-0.0416658018322365,0.249746080376386,-0.249775512875566,-0.249346475336711,-0.144930308267903,0.249999930955596,-0.0455119835808699,0.241576814751078,0.850897030408992,0.841006002854937,0.04,0.0336459587651393,406.254823888076,1.0161311729737,0.293767286832131
10895,-0.249998517426691,0.25,-0.249786069705339,-0.248899296005501,-0.249999611363592,0.249999881638165,-0.249994246436139,0.235560254551878,0.859303173840482,0.853311602864264,0.04,0.0339755221225507,409.98440907569,0.942651691663545,0.319573505563002
10955,0.0416672457527283,-0.0416666172710732,-0.100384362794552,-0.249541351107017,0.0416668285985035,-0.0416574718869549,-0.128884065164237,-0.0474903307535416,0.866831991878508,0.865617202873591,0.04,0.0349854360449654,413.647984523655,0.927796644265205,0.327591625867335
11015,0.249999933738028,-0.24999991532184,0.00633114214172531,-0.249999961893814,0.25,-0.249984152976326,-0.0423767928271641,-0.249669320257412,0.877588028160992,0.877922802882918,0.04,0.0351782013590509,418.792123819039,0.928305106206151,0.331483901915152
11075,0.249999972390845,-0.249020259937766,0.148471309225719,-0.249999984122423,0.249999839164639,0.0416663638187281,-0.163490330344652,-0.249862216773922,0.880850682893977,0.883050136220138,0.04,0.0442970239637983,420.227015889442,0.93475344296549,0.330325097658352
11135,0.25,-0.248320506091999,0.25,-0.25,0.249999724282238,0.249988161529481,-0.25,-0.25,0.882469976356962,0.883050136220138,0.04,0.050071341236715,421.055929586326,0.947869450467284,0.326396834153353
11195,0.249997010986321,0.0423392137126877,0.25,0.0416666666666666,0.249855844710853,-0.0416715993627159,-0.25,-0.230917918180946,0.882159682369119,0.883050136220138,0.04,0.0595333044971428,420.873189853096,0.948423321986831,0.326064646421423
11255,0.24999487597655,0.249953299287464,0.25,0.25,0.249753073588435,-0.25,-0.25,-0.217287859738765,0.881999528549683,0.883050136220138,0.04,0.0638375505037854,420.80777755487,0.954811996582449,0.323832600441779
11315,0.249997864990229,-0.0416861252968899,-0.0416647776478088,0.25,0.249755869065798,-0.249977216254987,-0.249999870634599,-0.236047476798494,0.889626503645896,0.883050136220138,0.04,0.0458130528525918,424.546727772772,0.941111442297711,0.331466101505924
11375,0.25,-0.25,-0.249996761681958,0.25,0.249757865835343,-0.249960942151407,-0.249999778230742,-0.24944720326973,0.890112288926001,0.883050136220138,0.04,0.0353321694493021,424.611328181107,0.882911061084352,0.353369689667513
11435,-0.0416639636609299,-0.25,-0.249998101314723,-0.0416577795792916,-0.0417662046415561,-0.249983492042982,0.0416658664009167,-0.249725446706308,0.898084993289963,0.883050136220138,0.04,0.018657601216163,428.830116044887,0.83808740194712,0.375967791611955
11495,-0.24999536627588,-0.25,-0.24999905819527,-0.249984764993071,-0.249997683553627,-0.249999599108392,0.249998469709244,-0.249924192018149,0.893311434199027,0.883050136220138,0.04,0.0139835867856898,425.947513448159,0.719265461774441,0.435132535220052
11555,0.0416647500091855,0.0416070894175407,-0.07650669925108,-0.0606135124693725,0.0416675957587357,-0.249995697863908,0.249999361925424,-0.249966160754479,0.843673568087586,0.883050136220138,0.04,0.0355791818627218,402.205370796766,0.803168747521498,0.36795587437674
11615,0.249993404498518,0.249897867572927,0.0474164142804842,0.074651667904698,0.249999938124709,-0.249992911260705,0.249999999222696,-0.249996138423285,0.866702433525733,0.883050136220138,0.04,0.0460321887145592,413.721037444509,0.980985990934861,0.30988423022942
11675,0.249997251487902,0.249957293564442,0.165584335946707,-0.114728471099329,0.249999971602761,-0.249996681324664,0.249999998871904,-0.249880307180322,0.881506660810978,0.883050136220138,0.04,0.0519274657251004,420.626493131407,1.01153356495345,0.30554205924425
11735,0.249999999337462,0.249999740701238,0.249989994279723,-0.249999998959348,0.249999995515654,-0.249999374227492,0.249999998621339,-0.249797570578206,0.885386519588886,0.883050136220138,0.04,0.0582424220522561,422.429172177755,1.0019339229388,0.30979149996854
11795,0.164106651795437,0.108648738398552,0.249995827827511,-0.249999966484068,-0.0416639002064461,-0.249999528653698,0.249982562004862,0.0407911051997731,0.884405553124424,0.883050136220138,0.04,0.0550885226743165,421.970921907957,0.991090343447576,0.31284120951042
11855,0.102754260693991,0.00768373675377597,0.24999999464736,-0.249999943287439,-0.249995254293661,-0.249999638958131,0.249970107278808,0.248354445041187,0.888123338991951,0.883050136220138,0.04,0.0520227253974046,423.718867271596,0.963599442953131,0.323099241610354
11915,0.186033064949601,-0.14263174083963,-0.0415008968887913,-0.249992335872449,-0.249997370501183,-0.249999849560447,0.249987434538311,-0.0423522641952025,0.902681798283998,0.883050136220138,0.04,0.038546359225774,430.803038240876,0.893560380241289,0.354249731312487
11975,0.24551792513218,-0.249999939120635,-0.249715819414613,-0.249986902004599,-0.249998882077984,-0.249999999990673,0.249999811152241,-0.249999913649766,0.893656254536521,0.883050136220138,0.04,0.0302766693277466,426.29683394722,0.785420449048435,0.398808658989573
12035,-0.0432086666947266,-0.249994408012057,-0.249828409542902,-0.249994542498845,-0.249917586695474,-0.249999998465156,0.162119277531457,-0.249999143280517,0.898453653651038,0.883050136220138,0.04,0.0154388094942832,428.747431968657,0.721354674040781,0.436724300528054
12095,-0.249441946571089,-0.249990457220215,-0.249908831063108,-0.249999999994735,-0.24985951856511,-0.249999997375501,0.0993474678023247,-0.249998593016767,0.892653923762333,0.883050136220138,0.04,0.00594661097041874,425.683378027188,0.635835659259462,0.491922274384938
