time,bias_percent_1,bias_percent_2,bias_percent_3,bias_percent_4,bias_percent_5,bias_percent_6,bias_percent_8,bias_percent_9,normalized_power,power_SP,SP,CV,total_power_MW,fuel_fraction,thermal_efficiency
51,0,0,0,0,0,0,0,0,0.999813287560987,1,0.04,0.0399132216256095,477.014056471665,0.999983365629477,0.350504079780752
111,0.0252001634353702,-0.00314025228723506,0.00879507601268222,0.0296649488875108,0.0213643897440551,-0.026503689723965,-0.0172558104307103,0.00677869194311927,0.977361838746704,0.965968525293953,0.04,0.0499836032125511,466.01219997189,0.948343907609825,0.3610655921702
171,0.0548474145358058,-0.00683466674280567,0.0191422242628968,0.0645648887551706,0.0464989659135316,-0.0576845011639239,-0.0375567638786046,0.0147536236409065,0.938492020200068,0.925931496228015,0.04,0.0610497496429781,447.433181217287,0.871460568974093,0.37725510275416
231,0.0844946656362413,-0.0105290811983763,0.0294893725131112,0.0994648286228304,0.0716335420830081,-0.0888653126038828,-0.0578577173264989,0.0227285553386939,0.897954184693329,0.885894467162076,0.04,0.0680122910661581,428.091637997701,0.796095964904531,0.395117257173369
291,0.114141916736677,-0.0142234956539469,0.0398365207633258,0.13436476849049,0.0967681182524848,-0.120046124043842,-0.0781586707743933,0.0307034870364813,0.857356306503093,0.845857438096138,0.04,0.0719801846870065,408.721361439403,0.723883959101589,0.414870982255447
351,0.143789167837112,-0.0179179101095175,0.0501836690135402,0.16926470835815,0.121902694421961,-0.1512269354838,-0.0984596242222876,0.0386784187342686,0.816661629358697,0.8058204090302,0.04,0.0736367161748631,389.305521067302,0.655460907037522,0.436413769237727
411,0.173436418937548,-0.0216123245650881,0.0605308172637548,0.20416464822581,0.147037270591438,-0.182407746923759,-0.118760577670182,0.0466533504320559,0.775943565367243,0.765783379964262,0.04,0.0733439040534339,369.87885090477,0.591097705481335,0.459785109838738
471,0.203083670037984,-0.0253067390206587,0.0708779655139692,0.23906458809347,0.172171846760914,-0.213588558363718,-0.0822431898726789,0.0546282821298432,0.73323685968678,0.725746350898324,0.04,0.0733903256915487,349.482383552268,0.536232965267169,0.478879731860048
531,0.232730921138419,-0.0290011534762293,0.0812251137641836,0.273964527961129,0.197306422930391,-0.244769369803677,-0.0388484839493824,0.0626032138276305,0.69090289033062,0.685709321832386,0.04,0.0736774300150204,329.300490709103,0.499400213844901,0.484505074669577
591,0.262378172238855,-0.0326955679317999,0.0915722620143981,0.308864467828789,0.222440999099867,-0.275950181243636,-0.018350373559243,0.0705781455254179,0.650004543071919,0.645672292766448,0.04,0.0753963070639782,309.795110071577,0.47009118325379,0.484224911868029
651,0.29202542333929,-0.0363899823873705,0.101919410264613,0.343764407696449,0.247575575269344,-0.307130992683595,-0.00866779775589739,0.0785530772232052,0.609721072065716,0.60563526370051,0.04,0.0790190834861841,290.579373571623,0.44327498922913,0.481666266474798
711,0.321672674439726,-0.0400843968429411,0.112266558514827,0.378664347564109,0.272710151438821,-0.338311804123554,-0.00409409450212735,0.0865280089209925,0.569806288327881,0.565598234634572,0.04,0.0844088116497672,271.537830413367,0.416389471046902,0.479165212528422
771,0.351319925540161,-0.0437788112985117,0.122613706765042,0.413564287431768,0.297844727608297,-0.369492615563512,-0.00193364031324013,0.0945029406187799,0.529905924884073,0.525561205568634,0.04,0.091302092361845,252.499968652612,0.388505035089076,0.477550553886978
831,0.380967176640597,-0.0474732257540823,0.132960855015256,0.448464227299428,0.322979303777774,-0.372177052067217,-0.000913119113640099,0.102477872316567,0.4888136835826,0.485524176502696,0.04,0.0999699136748945,233.180573129309,0.362460079440159,0.472701369346962
891,0.410614427741032,-0.0511676402096529,0.143308003265471,0.483364167167088,0.34811387994725,-0.348289545807356,-0.000431062374483202,0.110452804014355,0.449018247942365,0.445487147436758,0.04,0.109400383925322,214.067284721479,0.340129732842433,0.462445309390855
951,0.415061515406098,-0.0517218023779885,0.144860075503003,0.488599158147237,0.351884066372672,-0.340250572321442,-0.000203355003166925,0.111649043769023,0.429374089064592,0.439481593076867,0.04,0.094472603847292,204.831298466674,0.38037683420191,0.395673472831901
1011,0.415061515406098,-0.0517218023779885,0.144860075503003,0.488599158147237,0.351884066372672,-0.365132175317012,-9.57938282352518e-05,0.111649043769023,0.430945948283993,0.439481593076867,0.04,0.0741907015484834,205.636034730171,0.438207145383263,0.344805704490235
1071,0.415061515406098,-0.0517218023779885,0.144860075503003,0.488599158147237,0.351884066372672,-0.39947390367404,-4.49857909541852e-05,0.111649043769023,0.434734064188129,0.439481593076867,0.04,0.0675980900899113,207.436874523799,0.47393499626657,0.321604307901657
1131,0.415061515406098,-0.0517218023779885,0.144860075503003,0.488599158147237,0.351884066372672,-0.428083044732692,-2.09858643312298e-05,0.111649043769023,0.437157624144207,0.439481593076867,0.04,0.0676122757592351,208.581354569554,0.492095333720309,0.311444677237447
1191,0.415061515406098,-0.0517218023779885,0.144860075503003,0.488599158147237,0.351884066372672,-0.436531360159424,-9.64915551375129e-06,0.111649043769023,0.438151761426861,0.439481593076867,0.04,0.0695328309589669,209.046508068442,0.501407337018106,0.306342257965561
1251,0.415061515406098,-0.0517218023779885,0.144860075503003,0.488599158147237,0.351884066372672,-0.436531360159424,-4.29409885747952e-06,0.111649043769023,0.4386116615537,0.439481593076867,0.04,0.0710659035728725,209.264631365165,0.50748744594383,0.302987844663831
1311,0.415061515406098,-0.0517218023779885,0.144860075503003,0.488599158147237,0.351884066372672,-0.436531360159424,-1.7645612065108e-06,0.111649043769023,0.438922344603332,0.439481593076867,0.04,0.0720491919604118,209.41182208235,0.511414491739936,0.300872740332616
1371,0.415061515406098,-0.0517218023779885,0.144860075503003,0.488599158147237,0.351884066372672,-0.436531360159424,-5.69697895368353e-07,0.111649043769023,0.439123091231698,0.439481593076867,0.04,0.072688787125805,209.506885746247,0.513932166211221,0.299534724909606
1431,0.415061515406098,-0.0517218023779885,0.144860075503003,0.488599158147237,0.351884066372672,-0.436531360159424,-5.28710995563236e-09,0.111649043769023,0.439250902558502,0.439481593076867,0.04,0.0731031470834832,209.567406600692,0.515549520719594,0.298681296522953
1491,0.415061515406098,-0.0517218023779885,0.144860075503003,0.488599158147237,0.351884066372672,-0.436531360159424,2.61320402150182e-07,0.111649043769023,0.439332422296429,0.439481593076867,0.04,0.0733699625925463,209.606011451721,0.51659353790288,0.298132581748622
1551,0.415061515406098,-0.0517218023779885,0.144860075503003,0.488599158147237,0.351884066372672,-0.436531360159424,3.87256276070939e-07,0.111649043769023,0.43938477372828,0.439481593076867,0.04,0.0735412657722908,209.6308059748,0.517270309962294,0.297777739436373
1611,0.415061515406098,-0.0517218023779885,0.144860075503003,0.488599158147237,0.351884066372672,-0.436531360159424,4.46743888460084e-07,0.111649043769023,0.439418573363533,0.439481593076867,0.04,0.0736512285173807,209.646815042132,0.517710377072344,0.297547342048552
1671,0.415061515406098,-0.0517218023779885,0.144860075503003,0.488599158147237,0.351884066372672,-0.436531360159424,4.74843713534453e-07,0.111649043769023,0.439440444368054,0.439481593076867,0.04,0.0737218613576576,209.657174323467,0.517997364569541,0.297397185646171
1731,0.415061515406098,-0.0517218023779885,0.144860075503003,0.488599158147237,0.351884066372672,-0.436531360159424,4.88117068061525e-07,0.111649043769023,0.439454599025177,0.439481593076867,0.04,0.0737672247036243,209.663878687469,0.51818527524257,0.297298846489833
1791,0.415061515406098,-0.0517218023779885,0.144860075503003,0.488599158147237,0.351884066372672,-0.436531360159424,4.94386927035204e-07,0.111649043769023,0.439463755197125,0.439481593076867,0.04,0.0737963073559949,209.66821548135,0.518309084131744,0.297233978496958
1851,0.406555056923621,-0.0352832988778382,0.126537576163894,0.448950263093352,0.318355635504246,-0.421694474444789,4.97348584352573e-07,0.093790016993273,0.439272339930662,0.436982072046117,0.04,0.0721722096368312,209.564326200088,0.509360595009723,0.302305944700008
1911,0.396547458708942,-0.0159438829953084,0.104981694588471,0.402304504206428,0.278910422717862,-0.404239314780513,4.98747565872962e-07,0.0727793972570968,0.436807216701068,0.434041459068765,0.04,0.0707555965440024,208.376543868553,0.49286586815416,0.310652435855479
1971,0.386539860494263,0.00339553288722141,0.0834258130130492,0.355658745319504,0.239465209931478,-0.386784155116237,4.99408394815769e-07,0.0517687775209208,0.433629355002619,0.431100846091412,0.04,0.0678850478137651,206.85905218287,0.47698306025636,0.31865904561563
2031,0.376532262279585,0.0227349487697513,0.0618699314376269,0.30901298643258,0.200019997145095,-0.369328995451961,4.9972054674167e-07,0.0307581577847446,0.430488617612926,0.42816023311406,0.04,0.0637772228247098,205.362311252454,0.462554965175689,0.326221118629013
2091,0.366524664064906,0.042074364652281,0.0403140498622046,0.262367227545656,0.160574784358711,-0.351873835787685,4.86396244242064e-07,0.00974753804856855,0.427432570957846,0.425219620136707,0.04,0.0589560273729616,203.924997931179,0.448865737100184,0.333817182166956
2151,0.356517065850227,0.0614137805348108,0.0187581682867823,0.215721468658732,0.121129571572328,-0.334418676123409,4.93574064485888e-07,4.93574064485888e-07,0.424143146622296,0.422279007159354,0.04,0.0541355826833355,202.340584822357,0.436166178121288,0.340867575315597
2211,0.346509467635549,0.0807531964173406,-0.00279771328864001,0.169075709771807,0.0816843587859441,-0.316963516459133,0.0374130769113462,3.74195432310717e-07,0.420070009885171,0.419338394182002,0.04,0.0506207530825645,200.403669864791,0.428993150609235,0.343249559287455
2271,0.33650186942087,0.10009261229987,-0.0243535948640623,0.122429950884884,0.0422391459995605,-0.299508356794856,0.0843658397116188,4.40574308047174e-07,0.417142960678861,0.416397781204649,0.04,0.0473272756840681,198.997745770826,0.424874322910973,0.344145700029372
2331,0.326494271206191,0.1194320281824,-0.0459094764394846,0.0757841919979595,0.00279393321317684,-0.28205319713058,0.131318602511891,4.71924810436457e-07,0.414442876274101,0.413457168227297,0.04,0.0452081890959027,197.724336087749,0.419337814015364,0.346458144651677
2391,0.316486672991512,0.13877144406493,-0.0674653580149069,0.0291384331110355,-0.0366512795732067,-0.264598037466304,0.178271365312164,4.85727848410322e-07,0.411670340079523,0.410516555249944,0.04,0.0436061864100312,196.3844965379,0.412597350993249,0.349732055677073
