time,bias_percent_1,bias_percent_2,bias_percent_3,bias_percent_4,bias_percent_5,bias_percent_6,bias_percent_8,bias_percent_9,normalized_power,power_SP,SP,CV,total_power_MW,fuel_fraction,thermal_efficiency
14,0,0,0,0,0,0,0,0,0.999633628841516,1,0.04,0.040196590831846,476.847368431528,0.998705057546507,0.350830075834518
74,-0.00306040742363689,-0.00526801980538187,-0.00492399535744937,0.00112875048469471,0.00159241171632084,0.00774190866226047,0.00255295161452619,0.00414844395889855,0.99936194447307,0.999120201160214,0.04,0.0401155668092703,476.777005915922,0.999541015240404,0.350484937666521
134,-0.0161764392392237,-0.0278452475427322,-0.0260268326036607,0.00596625256195819,0.00841703335769591,0.0409215172148048,0.0134941728196384,0.0219274894970351,0.996082246751731,0.99534963470399,0.04,0.0409411303344002,475.20201741819,0.995479434315107,0.350752406729691
194,-0.0292924710548103,-0.0504224752800825,-0.0471296698498721,0.0108037546392216,0.0152416549990711,0.0741011257673492,0.0244353940247506,0.0397065350351716,0.992381343775296,0.991579068247766,0.04,0.041526460802105,473.435395147162,0.990565311056738,0.351182029859789
254,-0.0424085028703971,-0.072999703017433,-0.0682325070960836,0.0156412567164847,0.0220662766404462,0.107280734319893,0.0353766152298628,0.0574855805733083,0.988629770910533,0.987808501791542,0.04,0.0418612032739327,471.645369212434,0.985479078625591,0.351659895103526
314,-0.0555245346859838,-0.0955769307547834,-0.0893353443422951,0.0204787587937482,0.0288908982818214,0.140460342872438,0.046317836434975,0.0752646261114448,0.984863318946037,0.984037935335317,0.04,0.0420359488745144,469.848274652921,0.980339195696341,0.352156692142813
374,-0.0686405665015705,-0.118154158492134,-0.110438181588506,0.0253162608710115,0.0357155199231964,0.173639951424982,0.0572590576400872,0.0930436716495813,0.981078306117836,0.980267368879093,0.04,0.0421058377016717,468.042269956815,0.975244399477453,0.352635709045447
434,-0.0817565983171571,-0.140731386229484,-0.131541018834718,0.0301537629482748,0.0425401415645715,0.206819559977527,0.0682002788451994,0.110822717187718,0.977269672755309,0.976496802422869,0.04,0.042094839692779,466.224979960909,0.97032853264385,0.353046095815522
494,-0.0948726301327439,-0.163308613966834,-0.152643856080929,0.0349912650255382,0.0493647632059467,0.239999168530071,0.0791415000503116,0.128601762725854,0.973438770807871,0.972726235966645,0.04,0.0420156120863127,464.397100106465,0.965731253709726,0.353336000501952
554,-0.107988661948331,-0.185885841704185,-0.173746693327141,0.0398287671028015,0.0561893848473218,0.273178777082616,0.0900827212554239,0.146380808263991,0.969591838571175,0.968955669510421,0.04,0.0418813719695762,462.561633573394,0.961563103002727,0.353465063099534
614,-0.121104693763917,-0.208463069441535,-0.194849530573352,0.0446662691800648,0.0630140064886968,0.30635838563516,0.101023942460536,0.164159853802128,0.965736755020927,0.965185103054196,0.04,0.041708013646646,460.72233953425,0.957889261210256,0.353409844289402
674,-0.134220725579504,-0.231040297178886,-0.215952367819564,0.049503771257328,0.069838628130072,0.339537994187704,0.111965163665648,0.181938899340264,0.96188165927769,0.961414536597972,0.04,0.0415119618071892,458.883137899378,0.954731525509448,0.353163256174085
734,-0.147336757395091,-0.253617524916236,-0.237055205065775,0.0543412733345915,0.0766632497714471,0.372717602740249,0.12290638487076,0.199717944878401,0.958030374557926,0.957643970141748,0.04,0.0413086703488632,457.045668360585,0.952068939808378,0.352732824957519
794,-0.160452789210678,-0.276194752653587,-0.258158042311987,0.0591787754118548,0.0834878714128222,0.405897211292793,0.133847606075873,0.217496990416537,0.954193192944949,0.953873403685524,0.04,0.0411100185085774,455.212945750276,0.949862528022674,0.352134458538942
854,-0.173568821026264,-0.298771980390937,-0.279260879558198,0.064016277489118,0.0903124930541973,0.439076819845338,0.144788827280985,0.235276035954674,0.950352700265743,0.950102837229299,0.04,0.0409161441369902,453.383656993947,0.948063626839746,0.351384865921673
914,-0.183624445418214,-0.316081188322905,-0.29543972144696,0.0677250290816867,0.0955447029792516,0.464514519735622,0.153177096871571,0.248906637533912,0.947009567301175,0.947212069612861,0.04,0.0405241890450343,451.814253994851,0.947310115361108,0.350447067038509
