time,bias_percent_1,bias_percent_2,bias_percent_3,bias_percent_4,bias_percent_5,bias_percent_6,bias_percent_8,bias_percent_9,normalized_power,power_SP,SP,CV,total_power_MW,fuel_fraction,thermal_efficiency
23,0,0,0,0,0,0,0,0,0.99951704944427,1,0.04,0.0400234542933021,476.887208672833,0.999382215275805,0.350621653410659
83,0.0049005838047085,0.0109694825302892,0.0041134338477375,-0.0111880618863441,-0.0126618949615654,0.00677387096917653,-0.00613166075640788,0.00253280312725201,0.998593841569481,0.996833061024598,0.04,0.0406979977591447,476.384645818539,0.995778551480857,0.351519696129422
143,0.0176847154691654,0.0395855239136523,0.014844130841835,-0.0403743102855028,-0.045692925296084,0.0244448387148543,-0.0221272975122545,0.00914011563312681,0.991398984455013,0.988571481088765,0.04,0.0432031040928971,472.932255775184,0.979388312877019,0.354812322737704
203,0.0304688471336225,0.0682015652970153,0.0255748278359325,-0.0695605586846614,-0.0787239556306025,0.0421158064605323,-0.0381229342681012,0.0157474281390016,0.983113481435663,0.980309901152932,0.04,0.044700713342445,468.976651696169,0.961949464586134,0.358223143535959
263,0.0432529787980797,0.0968176066803785,0.0363055248300301,-0.0987468070838199,-0.111754985965121,0.0597867742062101,-0.0541185710239478,0.0223547406448764,0.974684666480119,0.9720483212171,0.04,0.0453011389249717,464.954897416688,0.945353465743233,0.36138596507206
323,0.0560371104625367,0.125433648063742,0.0470362218241276,-0.127933055482979,-0.14478601629964,0.077457741951888,-0.0701142077797945,0.0289620531507512,0.966246349729527,0.963786741281267,0.04,0.0453441923645342,460.924602550477,0.929870011638022,0.36421877071428
383,0.0688212421269938,0.154049689447105,0.0577669188182251,-0.157119303882137,-0.177817046634158,0.0951287096975659,-0.086109844535641,0.035569365656626,0.957786084654349,0.955525161345435,0.04,0.0450549540955963,456.892532681571,0.915521095376612,0.366691109621336
443,0.0816053737914508,0.182665730830468,0.0684976158123228,-0.186305552281296,-0.210848076968677,0.112799677443244,-0.102105481291488,0.0421766781625008,0.949511156272049,0.947263581409602,0.04,0.0446508997485446,452.942656678669,0.901911239410135,0.369006571407023
503,0.0943895054559077,0.211281772213831,0.0792283128064204,-0.215491800680455,-0.243879107303195,0.130470645188922,-0.118101118047334,0.0487839906683756,0.94120224799636,0.93900200147377,0.04,0.0443327495739324,448.980159496949,0.888359188125259,0.371358379209226
563,0.107173637120365,0.239897813597194,0.089959009800518,-0.244678049079613,-0.276910137637714,0.1481416129346,-0.134096754803181,0.0553913031742504,0.932948007889553,0.930740421537937,0.04,0.0440398374359199,445.043735892661,0.874710367604972,0.373846306942861
623,0.119957768784822,0.268513854980557,0.100689706794615,-0.273864297478772,-0.309941167972232,0.165812580680278,-0.150092391559028,0.0619986156801252,0.924678432649086,0.922478841602105,0.04,0.0437381807098999,441.098273801903,0.86109838742472,0.376389291124366
683,0.132741900449279,0.29712989636392,0.111420403788713,-0.303050545877931,-0.342972198306751,0.183483548425955,-0.166088028314874,0.0686059281860001,0.916391353279937,0.914217261666272,0.04,0.0433987325072735,437.144328658624,0.847587819774443,0.378961261659808
743,0.145526032113736,0.325745937747284,0.122151100782811,-0.332236794277089,-0.37600322864127,0.201154516171633,-0.182083665070721,0.0752132406918748,0.908093456899786,0.905955681730439,0.04,0.0430071851400644,433.183786970623,0.834318408197037,0.381500440791631
803,0.158310163778193,0.354361979130647,0.132881797776908,-0.361423042676248,-0.409034258975788,0.218825483917311,-0.198079301826567,0.0818205531977496,0.89973836118259,0.897694101794607,0.04,0.0425397443759817,429.22925761883,0.821436043669788,0.383946080250766
863,0.17109429544265,0.38297802051401,0.143612494771006,-0.390609291075406,-0.442065289310307,0.236496451662989,-0.214074938582414,0.0884278657036244,0.891454969801117,0.889432521858774,0.04,0.0420902645245755,425.242360795644,0.808858858201329,0.386294434197102
923,0.178977843302398,0.400624579367084,0.150229757917366,-0.408607477588221,-0.46243442468326,0.24739354843949,-0.223938914581853,0.0925023750822472,0.884222461090512,0.884337880898344,0.04,0.0408142169732086,421.858293996548,0.801856680351514,0.386566768279164
