time,bias_percent_1,bias_percent_2,bias_percent_3,bias_percent_4,bias_percent_5,bias_percent_6,bias_percent_8,bias_percent_9,normalized_power,power_SP,SP,CV,total_power_MW,fuel_fraction,thermal_efficiency
53,0,0,0,0,0,0,0,0,0.999826158240441,1,0.04,0.0399095806184678,477.019946416568,1.00000717992864,0.3505000605879
113,-0.00827505347033468,0.029338537501081,0.0256336043390351,0.00369532079098076,0.00830161076984268,0.0134818985024451,-0.0147410287990735,-0.021481393636537,0.990109284717045,0.985310417145344,0.04,0.0448327552044356,472.260201883509,0.977426791408109,0.355019154845633
173,-0.0176430385310908,0.0625519761815501,0.054652779062471,0.00787870281850633,0.0176996606979665,0.028744425108987,-0.0314289859300999,-0.0457999524703524,0.97379654166851,0.96868070070611,0.04,0.0495880850070547,464.464043156022,0.945751394448438,0.360852554765015
233,-0.0270110235918471,0.0957654148620192,0.083671953785907,0.0120620848460316,0.0270977106260901,0.0440069517155288,-0.0481169430611265,-0.0701185113041679,0.956800042906364,0.952050984266876,0.04,0.0522919350603225,456.353779905067,0.915627265827194,0.366216250335489
293,-0.0363790086526033,0.128978853542488,0.112691128509343,0.016245466873557,0.036495760554214,0.0592694783220707,-0.0648049001921531,-0.0944370701379834,0.939754187720314,0.935421267827642,0.04,0.0535757491389124,448.221307686935,0.887959076456731,0.370897771372444
353,-0.0457469937133595,0.162192292222957,0.141710303232779,0.0204288489010822,0.0458938104823378,0.0745320049286123,-0.0814928573231796,-0.118755628971799,0.922741937708151,0.918791551388409,0.04,0.0539849926580861,440.105047659777,0.86265896689198,0.37486240309466
413,-0.0551149787741157,0.195405730903426,0.170729477956215,0.0246122309286077,0.0552918604104616,0.0897945315351541,-0.0981808144542061,-0.143074187805614,0.905765596965426,0.902161834949175,0.04,0.0538687385055758,432.005922619685,0.83951236262206,0.378109231900251
473,-0.0644829638348718,0.228619169583895,0.199748652679651,0.0287956129561331,0.0646899103385854,0.105057058141696,-0.114868771585233,-0.16739274663943,0.88886300350199,0.885532118509941,0.04,0.0534556314444724,423.94283658216,0.818217863535947,0.380708892193862
533,-0.0738509488956279,0.261832608264364,0.228767827403087,0.0329789949836585,0.0740879602667092,0.120319584748238,-0.131556728716259,-0.191711305473245,0.872084724716743,0.868902402070707,0.04,0.0529734980057033,415.938368968774,0.798015077059124,0.382976886486056
593,-0.0832189339563841,0.295046046944833,0.257787002126523,0.0371623770111839,0.0834860101948329,0.135582111354779,-0.148244685847286,-0.21012723579738,0.855226079306009,0.852272685631474,0.04,0.0526748240934337,407.864137082904,0.778692763392218,0.384861136216602
653,-0.0925869190171403,0.328259485625302,0.286806176849959,0.0413457590387095,0.0928840601229568,0.150844637961321,-0.164932642978312,-0.176493369449513,0.837097040682378,0.83564296919224,0.04,0.0529531539733451,399.24336098201,0.76756662559277,0.382187339438434
713,-0.101954904077896,0.361472924305771,0.315825351573395,0.0455291410662347,0.102282110051081,0.166107164567863,-0.142440400022422,-0.142440400022422,0.819317552284614,0.819013252753006,0.04,0.0542270472706518,390.759321927042,0.762363434014895,0.376618774581906
773,-0.111322889138653,0.394686362986241,0.344844526296831,0.0497125230937602,0.111680159979204,0.181369691174405,-0.106291761935715,-0.106291761935715,0.802526937026264,0.802383536313773,0.04,0.0560641100767654,382.75412620254,0.760683299253434,0.369718068956657
833,-0.120690874199409,0.42789980166671,0.373863701020267,0.0538959051212856,0.121078209907328,0.196632217780947,-0.0664057090233106,-0.0664057090233106,0.786047269053651,0.785753819874539,0.04,0.0585507902710009,374.892232336389,0.758431256730697,0.363199210109906
893,-0.130058859260165,0.461113240347179,0.402882875743703,0.058079287148811,0.130476259835452,0.211894744387488,-0.031741319387834,-0.031741319387834,0.769569965098581,0.769124103435305,0.04,0.0613534123342246,367.030417599846,0.75525457731157,0.3570782256619
953,-0.131151790850587,0.464988141526567,0.406268446128103,0.0585673483853557,0.131572698993733,0.213675372491585,-0.0149932066559656,-0.0149932066559656,0.762406822703607,0.767183969850728,0.04,0.0573242670163321,363.735819835531,0.776478129245153,0.344200518407112
1013,-0.131151790850587,0.464988141526567,0.406268446128104,0.0585673483853556,0.131572698993733,0.213675372491585,-0.00708201612225954,-0.00708201612225954,0.762947785653909,0.767183969850728,0.04,0.0534703496487476,364.013341684648,0.804181263149113,0.332596770323148
1073,-0.131151790850587,0.464988141526567,0.406268446128103,0.0585673483853556,0.131572698993733,0.213675372491585,-0.00334502862195891,-0.00334502862195891,0.764337228814413,0.767183969850728,0.04,0.0524290942239216,364.675377192365,0.824042502348515,0.325170774075058
1133,-0.131151790850587,0.464988141526567,0.406268446128103,0.0585673483853556,0.131572698993733,0.213675372491585,-0.00157980832441832,-0.00157980832441832,0.765398434337976,0.767183969850728,0.04,0.0527450682114658,365.178357452131,0.836719979036666,0.320685680588297
1193,-0.131151790850587,0.464988141526567,0.406268446128103,0.0585673483853556,0.131572698993733,0.213675372491585,-0.00074598125376501,-0.00074598125376501,0.766078960817136,0.767183969850728,0.04,0.0534222000980266,365.500456107448,0.844582362293267,0.317980576122344
1253,-0.131151790850587,0.464988141526567,0.406268446128103,0.0585673483853556,0.131572698993733,0.213675372491585,-0.000352111103550058,-0.000352111103550058,0.766494881466263,0.767183969850728,0.04,0.0540569012455583,365.697246070655,0.849465952380448,0.316322722339258
1313,-0.131151790850587,0.464988141526567,0.406268446128103,0.0585673483853556,0.131572698993733,0.213675372491585,-0.000166060901187638,-0.000166060901187638,0.766747699004334,0.767183969850728,0.04,0.0545420832537548,365.816879234583,0.85253986855273,0.315285297528106
1373,-0.131151790850587,0.464988141526567,0.406268446128103,0.0585673483853557,0.131572698993733,0.213675372491585,-7.81774254274141e-05,-7.81774254274141e-05,0.766903589808954,0.767183969850728,0.04,0.0548821024129904,365.890670433458,0.854505010496258,0.314623674261778
1433,-0.131151790850587,0.464988141526567,0.406268446128104,0.0585673483853556,0.131572698993733,0.213675372491585,-3.66644078997451e-05,-3.66644078997451e-05,0.767001705987846,0.767183969850728,0.04,0.0551107501335143,365.937129561499,0.855777612155133,0.314195696741898
1493,-0.131151790850587,0.464988141526567,0.406268446128104,0.0585673483853557,0.131572698993733,0.213675372491585,-1.70551399532373e-05,-1.70551399532373e-05,0.767064598323744,0.767183969850728,0.04,0.0552616070152312,365.966917598124,0.85660907689623,0.313916275089564
1553,-0.131151790850587,0.464988141526567,0.406268446128103,0.0585673483853556,0.131572698993733,0.213675372491585,-7.79242159888833e-06,-7.79242159888833e-06,0.767105430565994,0.767183969850728,0.04,0.0553603867231763,365.986260403122,0.857155325330694,0.313732803495029
1613,-0.131151790850587,0.464988141526567,0.406268446128103,0.0585673483853556,0.131572698993733,0.213675372491585,-3.41704401997827e-06,-3.41704401997827e-06,0.767132138801928,0.767183969850728,0.04,0.0554249303005181,365.998913543414,0.857515445859249,0.313611890914578
1673,-0.131151790850587,0.464988141526567,0.406268446128103,0.0585673483853556,0.131572698993733,0.213675372491585,-1.35027180196728e-06,-1.35027180196728e-06,0.767149673500937,0.767183969850728,0.04,0.0554671067382021,366.007221057968,0.857753502052005,0.313531969242093
1733,-0.131151790850587,0.464988141526567,0.406268446128103,0.0585673483853557,0.131572698993733,0.213675372491585,-3.74002365991854e-07,-3.74002365991854e-07,0.76716120323751,0.767183969850728,0.04,0.0554946802585355,366.012683622399,0.857911330573564,0.313478967810653
1793,-0.131151790850587,0.464988141526567,0.406268446128104,0.0585673483853556,0.131572698993733,0.213675372491585,8.71524740596646e-08,8.71524740596646e-08,0.767168788104467,0.767183969850728,0.04,0.0555127078425742,366.016277207309,0.858016387224248,0.313443662456741
1853,-0.130480292603831,0.448965027597119,0.358368814035597,0.0661116553226176,0.113506631949932,0.18132252335069,3.0498554086108e-07,3.0498554086108e-07,0.76386589493821,0.759195550142522,0.04,0.0558384220026905,364.385936962686,0.837974358394061,0.319510808515057
1913,-0.129720105909391,0.430825653337368,0.304142815440306,0.0746523801572539,0.0930544805795919,0.144696656398733,4.07882129258622e-07,4.07882129258622e-07,0.755585089859538,0.750152056133232,0.04,0.0563973108512028,360.416789689992,0.805353457144545,0.328831310254676
1973,-0.12895991921495,0.412686279077617,0.249916816845016,0.0831931049918902,0.0726023292092515,0.108070789446777,4.56486805402053e-07,4.56486805402053e-07,0.746198006142694,0.741108562123943,0.04,0.055250842912083,355.935767376484,0.773514640424805,0.338109808633781
2033,-0.12819973252051,0.394546904817865,0.195690818249725,0.0917338298265265,0.052150177838911,0.0714449224948197,4.79445919788631e-07,4.79445919788631e-07,0.736778187028757,0.732065068114653,0.04,0.0527107926912394,351.442524872868,0.744074576048192,0.347050377454007
2093,-0.12743954582607,0.376407530558114,0.141464819654435,0.100274554661163,0.0316980264685706,0.0348190555428631,4.9029097281003e-07,4.9029097281003e-07,0.727462319527961,0.723021574105364,0.04,0.0491729415979846,347.058120197408,0.716597342750711,0.355862063744049
