time,bias_percent_1,bias_percent_2,bias_percent_3,bias_percent_4,bias_percent_5,bias_percent_6,bias_percent_8,bias_percent_9,normalized_power,power_SP,SP,CV,total_power_MW,fuel_fraction,thermal_efficiency
41,0,0,0,0,0,0,0,0,0.99973432630934,1,0.04,0.0399404845089674,476.977286347619,0.999833536914432,0.350529581814931
101,0.0202589549186309,-0.00252451654463994,0.0070705513043132,0.0238482922429008,0.0171752937158089,-0.0213068878173053,-0.0138723181893945,0.00544953666015471,0.983206800048707,0.972641363471609,0.04,0.0478050211130529,468.816696760035,0.960471318212522,0.358652073855954
161,0.0499062060190665,-0.00621893100021055,0.0174176995545276,0.0587482321105607,0.0423098698852856,-0.052487699257264,-0.0341732716372889,0.013424468357942,0.945229303397138,0.932604334405671,0.04,0.0595225439342506,450.63600087549,0.884299025154941,0.37443929094316
221,0.079553457119502,-0.00991334545578115,0.0277648478047422,0.0936481719782205,0.0674444460547621,-0.0836685106972229,-0.0544742250851832,0.0213994000557293,0.904708386568968,0.892567305339733,0.04,0.0670881604790529,431.314166091799,0.808452885107863,0.392006874711018
281,0.109200708219938,-0.0136077599113518,0.0381119960549566,0.12854811184588,0.0925790222242387,-0.114849322137182,-0.0747751785330775,0.0293743317535167,0.864131673138488,0.852530276273795,0.04,0.0714917756539522,411.954034341814,0.735670577391421,0.41145282596985
341,0.138847959320373,-0.0173021743669224,0.0484591443051712,0.16344805171354,0.117713598393715,-0.146030133577141,-0.0950761319809719,0.037349263451304,0.823446989232599,0.812493247207857,0.04,0.0735039471044352,392.542841982295,0.666585180877768,0.432699192012327
401,0.168495210420809,-0.020996588822493,0.0588062925553857,0.1983479915812,0.142848174563192,-0.177210945017099,-0.115377085428866,0.0453241951490913,0.782730582584602,0.772456218141919,0.04,0.0735161530685464,373.116963477077,0.601540197123206,0.455758751595775
461,0.198142461521244,-0.0246910032780635,0.0691534408056001,0.23324793144886,0.167982750732668,-0.208391756457058,-0.0931938836475736,0.0532991268468786,0.74054253735166,0.732419189075981,0.04,0.0733446634702393,352.95755707144,0.543752570556674,0.476953278162967
521,0.22778971262168,-0.0283854177336341,0.0795005890558145,0.268147871316519,0.193117326902145,-0.239572567897017,-0.0440212008758002,0.061274058544666,0.697826253115555,0.692382160010042,0.04,0.0735683218100728,332.601701724869,0.504811335429747,0.484116678397487
581,0.257436963722115,-0.0320798321892048,0.089847737306029,0.303047811184179,0.218251903071621,-0.270753379336976,-0.0207937804292444,0.0692489902424533,0.656763960477392,0.652345130944104,0.04,0.0749736593032088,313.019220442955,0.474716706715682,0.484497081919076
641,0.287084214822551,-0.0357742466447754,0.100194885556243,0.337947751051839,0.243386479241098,-0.301934190776935,-0.00982197595998139,0.0772239219402407,0.616405600077663,0.612308101878166,0.04,0.0782931553612878,293.767869001221,0.447687962662932,0.482151532896881
701,0.316731465922986,-0.039468661100346,0.110542033806458,0.372847690919499,0.268521055410574,-0.333115002216894,-0.00463928709495219,0.085198853638028,0.576445991635523,0.572271072812228,0.04,0.0833900710912578,274.705562670747,0.420945945578067,0.479507935905608
761,0.346378717023422,-0.0431630755559166,0.120889182056673,0.407747630787158,0.293655631580051,-0.364295813656853,-0.00219116983703418,0.0931737853358153,0.53657074388317,0.53223404374629,0.04,0.0900828452372031,255.680065422286,0.393187547709146,0.477806209869407
821,0.376025968123858,-0.0468574900114872,0.131236330306887,0.442647570654818,0.318790207749527,-0.376451491669279,-0.00103476672338171,0.101148717033603,0.495563161073902,0.492197014680352,0.04,0.0984059759285868,236.40034571612,0.366428670790939,0.474038195682456
881,0.405673219224293,-0.0505519044670578,0.141583478557101,0.477547510522478,0.343924783919004,-0.352108940949308,-0.000488524328028825,0.10912364873139,0.455507132954422,0.452159985614414,0.04,0.107861332384292,217.270302699685,0.343913105340136,0.464201265509678
941,0.415061515406098,-0.0517218023779885,0.144860075503003,0.488599158147237,0.351884066372672,-0.338845078384311,-0.000230498164151285,0.111649043769023,0.430098996045982,0.439481593076867,0.04,0.0988785690316933,205.154861978762,0.369904265126843,0.407518333069928
1001,0.415061515406098,-0.0517218023779885,0.144860075503003,0.488599158147237,0.351884066372672,-0.359686345391427,-0.000108615288788023,0.111649043769023,0.430308271716788,0.439481593076867,0.04,0.0765345154597643,205.32914206536,0.429953695998871,0.350900172889453
1061,0.415061515406098,-0.0517218023779885,0.144860075503003,0.488599158147237,0.351884066372672,-0.393926643890701,-5.10421872797648e-05,0.111649043769023,0.434183622937018,0.439481593076867,0.04,0.0680259556410955,207.17611171329,0.469453263670774,0.324266431009116
1121,0.415061515406098,-0.0517218023779885,0.144860075503003,0.488599158147237,0.351884066372672,-0.423946785586589,-2.38466931819848e-05,0.111649043769023,0.436855832231689,0.439481593076867,0.04,0.0674221992661623,208.439111083578,0.489910196158066,0.312620469120405
1181,0.415061515406098,-0.0517218023779885,0.144860075503003,0.488599158147237,0.351884066372672,-0.436531360159424,-1.10005089644168e-05,0.111649043769023,0.438058472779908,0.439481593076867,0.04,0.0691984197349004,209.002293768112,0.500120011022729,0.307065833825068
1241,0.415061515406098,-0.0517218023779885,0.144860075503003,0.488599158147237,0.351884066372672,-0.436531360159424,-4.93242999991879e-06,0.111649043769023,0.438546285859532,0.439481593076867,0.04,0.0708563382798843,209.233644421244,0.50664728652775,0.303445341721674
1301,0.415061515406098,-0.0517218023779885,0.144860075503003,0.488599158147237,0.351884066372672,-0.436531360159424,-2.066086057176e-06,0.111649043769023,0.438879316063514,0.439481593076867,0.04,0.0719132349024264,209.391442587818,0.510874865108771,0.301161234834373
1361,0.415061515406098,-0.0517218023779885,0.144860075503003,0.488599158147237,0.351884066372672,-0.436531360159424,-7.1212747388029e-07,0.111649043769023,0.439095579473757,0.439481593076867,0.04,0.0726004013387111,209.49385849367,0.513586215813186,0.299717852976874
1421,0.415061515406098,-0.0517218023779885,0.144860075503003,0.488599158147237,0.351884066372672,-0.436531360159424,-7.25657597595688e-08,0.111649043769023,0.439233401872744,0.439481593076867,0.04,0.0730460626768159,209.559119495049,0.515326813880992,0.298798560370568
1481,0.415061515406098,-0.0517218023779885,0.144860075503003,0.488599158147237,0.351884066372672,-0.436531360159424,2.29540369050797e-07,0.111649043769023,0.439321226991374,0.439481593076867,0.04,0.0733332753096508,209.600709472447,0.51644947318328,0.29820820312935
1541,0.415061515406098,-0.0517218023779885,0.144860075503003,0.488599158147237,0.351884066372672,-0.436531360159424,3.7224452261362e-07,0.111649043769023,0.439377563154364,0.439481593076867,0.04,0.0735177205265534,209.627390803529,0.517176778750012,0.297826740338519
1601,0.415061515406098,-0.0517218023779885,0.144860075503003,0.488599158147237,0.351884066372672,-0.436531360159424,4.39652871872449e-07,0.111649043769023,0.439413911069917,0.439481593076867,0.04,0.0736361097569345,209.644606735699,0.517649483285103,0.297579209510175
1661,0.415061515406098,-0.0517218023779885,0.144860075503003,0.488599158147237,0.351884066372672,-0.436531360159424,4.71494170365557e-07,0.111649043769023,0.439437426633359,0.439481593076867,0.04,0.0737121485552993,209.655744964679,0.517957591893163,0.297417994346243
1721,0.415061515406098,-0.0517218023779885,0.144860075503003,0.488599158147237,0.351884066372672,-0.436531360159424,4.86534863408406e-07,0.111649043769023,0.439452646382407,0.439481593076867,0.04,0.0737609898351876,209.662953819249,0.518159171574534,0.29731251221315
1781,0.415061515406098,-0.0517218023779885,0.144860075503003,0.488599158147237,0.351884066372672,-0.436531360159424,4.93639550023438e-07,0.111649043769023,0.439462492369534,0.439481593076867,0.04,0.0737923155937753,209.667617345249,0.518291822090563,0.297243030095334
1841,0.408222989959401,-0.0385065348582598,0.130130223093131,0.456724556241172,0.32492983763531,-0.424603667722169,4.96995550084899e-07,0.0972917869493023,0.439491484991886,0.437472174209009,0.04,0.0723585690071509,209.672717549626,0.511803990451879,0.301018323520903
1901,0.398215391744722,-0.01916711897573,0.108574341517708,0.410078797354248,0.285484624848926,-0.407148508057892,4.98580805084145e-07,0.0762811672131262,0.437303928488657,0.434531561231657,0.04,0.0710803771386786,208.614445391878,0.495654772131215,0.309257159065616
1961,0.388207793530043,0.000172296906799829,0.0870184599422863,0.363433038467324,0.246039412062542,-0.389693348393616,4.99329622970559e-07,0.0552705474769501,0.434165162480385,0.431590948254304,0.04,0.06846478930813,207.114604141123,0.479515370754938,0.317367803744118
2021,0.378200195315365,0.0195117127893296,0.065462578366864,0.3167872795804,0.206594199276159,-0.37223818872934,4.99683337754754e-07,0.034259927740774,0.431000928482573,0.428650335276952,0.04,0.0645281722102117,205.605897600149,0.46488676131643,0.324969846470731
2081,0.368192597100686,0.0388511286718594,0.0439066967914417,0.270141520693476,0.167148986489775,-0.354783029065064,4.84584913107636e-07,0.0132493080045979,0.427974195410979,0.425709722299599,0.04,0.0597842774842712,204.163579927888,0.451101344191936,0.332551435882953
2141,0.358184998886007,0.0581905445543892,0.0223508152160193,0.223495761806552,0.127703773703392,-0.337327869400788,4.92718456743004e-07,4.92718456743004e-07,0.424760164318586,0.422769109322247,0.04,0.0549532528346197,202.626386855038,0.437984302682712,0.339932063763248
2201,0.348177400671328,0.077529960436919,0.000794933640597037,0.176850002919628,0.088258560917008,-0.319872709736512,0.0295876164446341,3.57444652411371e-07,0.420740331052487,0.419828496344894,0.04,0.0512233290778719,200.704089516916,0.429665209683976,0.343226418069215
2261,0.33816980245665,0.0968693763194488,-0.0207609479348253,0.130204244032704,0.0488133481306244,-0.302417550072236,0.0765403792449067,4.32661826190439e-07,0.417583819550809,0.416887883367541,0.04,0.0477824812876992,199.212340809977,0.425655354437195,0.343884668517356
2321,0.328162204241971,0.116208792201979,-0.0423168295102475,0.0835584851457802,0.00936813534424084,-0.28496239040796,0.123493142045179,4.68191799969211e-07,0.414933538221024,0.413947270390189,0.04,0.0455138500622231,197.942824895884,0.42031834649155,0.346031864815733
2381,0.318154606027292,0.135548208084508,-0.0638727110856699,0.0369127262588561,-0.0300770774421428,-0.267507230743684,0.170445904845452,4.83827523675288e-07,0.412107924506851,0.411006657412836,0.04,0.0438627847954673,196.613069681045,0.413800451460741,0.349121102137398
