time,bias_percent_1,bias_percent_2,bias_percent_3,bias_percent_4,bias_percent_5,bias_percent_6,bias_percent_8,bias_percent_9,normalized_power,power_SP,SP,CV,total_power_MW,fuel_fraction,thermal_efficiency
32,0,0,0,0,0,0,0,0,0.999620875550017,1,0.04,0.0399816325672792,476.926414708071,0.999656501683247,0.350554267144667
92,0.00739100526532695,-7.90661459309376e-05,-0.0184626529363601,-0.0141354823926679,0.0181892893943131,0.00662923789259094,-0.0115760947643071,-0.00223962897380773,0.993973861082785,0.988196319733817,0.04,0.042453688956107,474.091347811586,0.982588273633238,0.354523582206861
152,0.0212491401378151,-0.000227315169551389,-0.0530801271920352,-0.0406395118789201,0.0522942070086501,0.0190590589411988,-0.0332812724473829,-0.00643893329969717,0.973812645779369,0.966064419234725,0.04,0.0476513765235984,464.43129603687,0.936571512745598,0.36436378902614
212,0.0351072750103032,-0.000375564193171726,-0.0876976014477102,-0.0671435413651722,0.0863991246229871,0.0314888799898068,-0.0549864501304588,-0.0106382376255866,0.951149457462928,0.943932518735633,0.04,0.0501690199214692,453.732527521205,0.89003793719003,0.374581282429892
272,0.0489654098827913,-0.000523813216792178,-0.122315075703385,-0.0936475708514242,0.120504042237324,0.0439187010384148,-0.0766916278135346,-0.0148375419514759,0.92869874747189,0.92180061823654,0.04,0.0504575024620482,442.901394527341,0.846078534088596,0.384636989925157
332,0.0628235447552794,-0.000672062240412629,-0.15693254995906,-0.120151600337676,0.154608959851661,0.0563485220870228,-0.0983968054966104,-0.0190368462773654,0.906018088994846,0.899668717737448,0.04,0.0493413450014913,432.083840657732,0.805929038105041,0.39393620512158
392,0.0766816796277676,-0.000820311264032966,-0.191550024214735,-0.146655629823929,0.188713877465998,0.0687783431356308,-0.120101983179686,-0.0232361506032548,0.883267148246055,0.877536817238355,0.04,0.0475540667950735,421.317981166718,0.768856127507542,0.4026424786545
452,0.0905398145002556,-0.000968560287653531,-0.226167498470411,-0.173159659310181,0.222818795080335,0.0812081641842386,-0.141807160862762,-0.0274354549291442,0.860934725645032,0.855404916739263,0.04,0.0456386717230687,410.567961910458,0.733673223229157,0.411184811457571
512,0.104397949372744,-0.00111680931127398,-0.260784972726086,-0.199663688796433,0.256923712694672,0.0936379852328467,-0.163512338545838,-0.0316347592550337,0.838282370901474,0.833273016240171,0.04,0.0435356973347215,399.861678780451,0.701436739148389,0.418866812726403
572,0.118256084245232,-0.00126505833489443,-0.295402446981761,-0.226167718282685,0.291028630309009,0.106067806281455,-0.185217516228914,-0.0358340635809231,0.81572981989016,0.811141115741078,0.04,0.0416322398420031,389.152785867113,0.67105567566364,0.426104642748087
