time,bias_percent_1,bias_percent_2,bias_percent_3,bias_percent_4,bias_percent_5,bias_percent_6,bias_percent_8,bias_percent_9,normalized_power,power_SP,SP,CV,total_power_MW,fuel_fraction,thermal_efficiency
12,0,0,0,0,0,0,0,0,0.999806821796218,1,0.04,0.0401053790766637,476.991446710209,0.998489794038291,0.35101173628365
72,-0.00187359701215132,0.00664268773609376,0.00580383494468708,0.000836676405505045,0.00187960998562471,0.00305250532130822,-0.00333759142620534,-0.00486371176676306,0.998844966614436,0.996674056712153,0.04,0.0407911512668062,476.471704664983,0.996196734830216,0.351436348159897
132,-0.0112415820729075,0.0398561264165628,0.0348230096681231,0.00502005843303039,0.0112776599137485,0.0183150319278501,-0.0200255485572319,-0.0291822706005786,0.985137006599915,0.98004434027292,0.04,0.0465749326449581,469.880500216632,0.967440258571815,0.356876493230963
192,-0.0206095671336635,0.073069565097032,0.0638421843915592,0.00920344046055595,0.0206757098418723,0.033577558534392,-0.0367135056882584,-0.0535008294343941,0.968431405129344,0.963414623833686,0.04,0.0506406499000487,461.903528107627,0.935951070543481,0.362620882411017
252,-0.0299775521944198,0.106283003777501,0.092861359114995,0.0133868224880813,0.0300737597699961,0.0488400851409336,-0.053401462819285,-0.0778193882682095,0.95139931505493,0.946784907394452,0.04,0.0528223697929762,453.777018165185,0.906596635292242,0.36777573352927
312,-0.0393455372551759,0.13949644245797,0.121880533838431,0.0175702045156067,0.03947180969812,0.0641026117474755,-0.0700894199503115,-0.102137947102025,0.93436310271785,0.930155190955218,0.04,0.0537798485372641,445.649310591667,0.879701301303708,0.372231121575312
372,-0.0487135223159322,0.172709881138439,0.150899708561867,0.0217535865431321,0.0488698596262437,0.0793651383540173,-0.086777377081338,-0.12645650593584,0.917362195693916,0.913525474515985,0.04,0.0539928625030566,437.538463268075,0.855106462972226,0.375967863571845
432,-0.0580815073766884,0.205923319818908,0.179918883285303,0.0259369685706575,0.0582679095543675,0.0946276649605592,-0.103465334212365,-0.150775064769656,0.900397286181174,0.896895758076751,0.04,0.0537591191504389,429.444792770238,0.832596727156148,0.378989622231091
492,-0.0674494924374446,0.239136758499377,0.208938058008739,0.0301203505981828,0.0676659594824913,0.109890191567101,-0.120153291343391,-0.175093623603471,0.883543364669461,0.880266041637517,0.04,0.0533049180832828,421.40507552071,0.811729162284957,0.381454980421798
552,-0.0768174774982008,0.272350197179846,0.237957232732175,0.0343037326257082,0.0770640094106151,0.125152718173643,-0.136841248474418,-0.199412182437287,0.866778758784205,0.863636325198283,0.04,0.0528161856377295,413.406928598186,0.791781358578318,0.383642890661826
612,-0.0861854625589569,0.305563635860315,0.266976407455611,0.0384871146532337,0.0864620593387389,0.140415244780184,-0.153529205605444,-0.199470843558215,0.849127715302655,0.84700660875905,0.04,0.0528553812722837,404.972494349525,0.774525033788385,0.384188838863637
672,-0.0955534476197132,0.338777074540784,0.295995582179047,0.0426704966807591,0.0958601092668627,0.155677771386726,-0.165833337254815,-0.165833337254815,0.831705306392004,0.830376892319816,0.04,0.0531834749277843,396.654676781238,0.764765225641006,0.381100153271225
732,-0.104921432680469,0.371990513221253,0.325014756902483,0.0468538787082845,0.105258159194986,0.170940297993268,-0.131295668522036,-0.131295668522036,0.813918873219332,0.813747175880582,0.04,0.0547287659673309,388.186542706902,0.761792502805027,0.374419498847897
792,-0.114289417741226,0.405203951901723,0.354033931625919,0.0510372607358098,0.11465620912311,0.18620282459981,-0.0941452647200012,-0.0941452647200012,0.797299797056129,0.797117459441349,0.04,0.0567957282156113,380.260663061969,0.760076133845168,0.367602944469439
852,-0.123657402801982,0.438417390582191,0.383053106349355,0.0552206427633353,0.124054259051234,0.201465351206352,-0.0529913578965077,-0.0529913578965077,0.78091083143685,0.780487743002115,0.04,0.0593751491488629,372.445329800425,0.757535887049473,0.361255108797923
912,-0.131151790850587,0.464988141526567,0.406268446128104,0.0585673483853556,0.131572698993733,0.213675372491585,-0.0250309624751954,-0.0250309624751954,0.765200521725311,0.767183969850728,0.04,0.0610876098011503,365.017674321374,0.758312857517002,0.353687857525098
972,-0.131151790850587,0.464988141526567,0.406268446128103,0.0585673483853557,0.131572698993733,0.213675372491585,-0.0118234726884313,-0.0118234726884313,0.76229039087179,0.767183969850728,0.04,0.0557505326048144,363.691006782332,0.78584360129896,0.340056528604381
1032,-0.131151790850587,0.464988141526567,0.406268446128103,0.0585673483853556,0.131572698993733,0.213675372491585,-0.00558474244407715,-0.00558474244407715,0.763395767535776,0.767183969850728,0.04,0.0529028934108342,364.227538261166,0.811379680526377,0.32984000425565
1092,-0.131151790850587,0.464988141526567,0.406268446128103,0.0585673483853556,0.131572698993733,0.213675372491585,-0.00263776950613769,-0.00263776950613769,0.764719212624242,0.767183969850728,0.04,0.0524446355273223,364.856564034235,0.828718904250723,0.323496506040232
1152,-0.131151790850587,0.464988141526567,0.406268446128103,0.0585673483853557,0.131572698993733,0.213675372491585,-0.0012457243590573,-0.0012457243590573,0.765650014056995,0.767183969850728,0.04,0.0529484196810248,365.297458951269,0.839628649032023,0.31967897845565
1212,-0.131151790850587,0.464988141526567,0.406268446128103,0.0585673483853556,0.131572698993733,0.213675372491585,-0.000588171911453703,-0.000588171911453703,0.766233759308517,0.767183969850728,0.04,0.0536365205767943,365.573700265101,0.84638390558516,0.317367334593618
1272,-0.131151790850587,0.464988141526567,0.406268446128103,0.0585673483853556,0.131572698993733,0.213675372491585,-0.000277567602206611,-0.000277567602206611,0.766588781577674,0.767183969850728,0.04,0.0542276708645032,365.74167602491,0.850594476282379,0.315941422296318
1332,-0.131151790850587,0.464988141526567,0.406268446128103,0.0585673483853556,0.131572698993733,0.213675372491585,-0.00013084921149198,-0.00013084921149198,0.766805259134227,0.767183969850728,0.04,0.0546640321859195,365.844122380589,0.853258038314331,0.315043388561491
1392,-0.131151790850587,0.464988141526567,0.406268446128103,0.0585673483853556,0.131572698993733,0.213675372491585,-6.1544679864383e-05,-6.1544679864383e-05,0.766939589841227,0.767183969850728,0.04,0.0549648352244175,365.907715341411,0.854968506915626,0.314467758851609
1452,-0.131151790850587,0.464988141526567,0.406268446128103,0.0585673483853556,0.131572698993733,0.213675372491585,-2.88076924920017e-05,-2.88076924920017e-05,0.767024668988422,0.767183969850728,0.04,0.0551655440265327,365.948004956538,0.856079777418766,0.314094131381013
1512,-0.131151790850587,0.464988141526567,0.406268446128104,0.0585673483853556,0.131572698993733,0.213675372491585,-1.33439079882948e-05,-1.33439079882948e-05,0.767079460494716,0.767183969850728,0.04,0.0552975328347586,365.973957814687,0.856807325352655,0.313849678508816
1572,-0.131151790850587,0.464988141526567,0.406268446128103,0.0585673483853557,0.131572698993733,0.213675372491585,-6.03936806661507e-06,-6.03936806661507e-06,0.767115135639338,0.767183969850728,0.04,0.0553838655352852,365.990858188916,0.857285904985492,0.313688957234951
1632,-0.131151790850587,0.464988141526567,0.406268446128103,0.0585673483853557,0.131572698993733,0.213675372491585,-2.58896409502447e-06,-2.58896409502447e-06,0.767138505709683,0.767183969850728,0.04,0.0554402705537105,366.001930029775,0.857601694041549,0.313582935730149
1692,-0.131151790850587,0.464988141526567,0.406268446128103,0.0585673483853556,0.131572698993733,0.213675372491585,-9.59116398274447e-07,-9.59116398274447e-07,0.767153858790269,0.767183969850728,0.04,0.0554771344289979,366.009203950664,0.857810625362667,0.31351278901444
1752,-0.131151790850587,0.464988141526567,0.406268446128104,0.0585673483853557,0.131572698993733,0.213675372491585,-1.89234513001528e-07,-1.89234513001528e-07,0.767163956381326,0.767183969850728,0.04,0.0555012369823412,366.013988010028,0.857949298556087,0.313466212124627
1812,-0.130999753511699,0.461360266674616,0.395423246409046,0.0602754933522829,0.127482268719665,0.206350199101194,1.74430177420284e-07,1.74430177420284e-07,0.767049885070861,0.76537527104887,0.04,0.0553370125654653,365.944937431615,0.85530088560307,0.314377530369794
1872,-0.130239566817258,0.443220892414865,0.341197247813755,0.0688162181869192,0.107030117349325,0.169724332149237,3.46212434882444e-07,3.46212434882444e-07,0.761511621809303,0.75633177703958,0.04,0.0561684580482557,363.253649493627,0.827931904880576,0.322381449588916
1932,-0.129479380122818,0.425081518155113,0.286971249218464,0.0773569430215555,0.086577965978984,0.13309846519728,4.27356242672045e-07,4.27356242672045e-07,0.752649611944484,0.747288283030291,0.04,0.0562183340694148,359.014667256258,0.795013533907291,0.331812196957314
1992,-0.128719193428378,0.406942143895362,0.232745250623174,0.0858976678561918,0.0661258146086436,0.0964725982453235,4.65685681578423e-07,4.65685681578423e-07,0.743202231044749,0.738244789021001,0.04,0.054570969611877,354.506673412519,0.763953506066579,0.340966854300063
2052,-0.127959006733937,0.38880276963561,0.178519252027883,0.094438392690828,0.0456736632383032,0.0598467312933669,4.83791137240012e-07,4.83791137240012e-07,0.733719130408392,0.729201295011711,0.04,0.0516698947236128,350.038612529177,0.735301418383104,0.349788257746895
2112,-0.127198820039497,0.370663395375859,0.124293253432593,0.102979117525464,0.0252215118679627,0.0232208643414101,4.92343500865867e-07,4.92343500865867e-07,0.724524535469725,0.720157801002422,0.04,0.0479846198759628,345.64563028345,0.708011775836947,0.358711471937766
