time,bias_percent_1,bias_percent_2,bias_percent_3,bias_percent_4,bias_percent_5,bias_percent_6,bias_percent_8,bias_percent_9,normalized_power,power_SP,SP,CV,total_power_MW,fuel_fraction,thermal_efficiency
37,0,0,0,0,0,0,0,0,0.999693664342244,1,0.04,0.0399546828466726,476.959504514886,0.999758262216666,0.350542905388754
97,0.0135169021740168,0.0144939399215112,-0.021332006585263,0.00903456073840437,0.00769572100727532,-0.000689272022374439,-0.0200498306724426,0.0181903813771409,0.998659726351674,0.998320462193357,0.04,0.0407600576888647,476.440160737905,0.998726244742749,0.350523045404128
157,0.0354362029967467,0.0379976262807189,-0.0559244496965003,0.0236851997736549,0.0201752685866408,-0.00180701043703573,-0.0525630696007279,0.047688297123856,0.995949182198766,0.995596887371773,0.04,0.0420835859071273,475.145284252565,0.996403913098296,0.350385136695526
217,0.0573555038194766,0.0615013126399264,-0.0905168928077377,0.0383358388089051,0.0326548161660062,-0.00292474885169713,-0.0850763085290133,0.077186212870571,0.993172771089815,0.992873312550189,0.04,0.0430973773047071,473.820706015229,0.994366472258849,0.350124288529691
277,0.0792748046422065,0.0850049989991339,-0.125109335918975,0.0529864778441555,0.0451343637453716,-0.00404248726635842,-0.117589547457299,0.106684128617286,0.990412643609157,0.990149737728605,0.04,0.04388267104008,472.503996744787,0.992587316782639,0.349777155151931
337,0.101194105464937,0.108508685358342,-0.159701779030212,0.0676371168794059,0.057613911324737,-0.00516022568101982,-0.150102786385584,0.136182044364001,0.987668245029766,0.987426162907021,0.04,0.0445076047297491,471.194744075287,0.990962227900577,0.34937997771331
397,0.123113406287666,0.132012371717549,-0.19429422214145,0.0822877559146563,0.0700934589041025,-0.00627796409568111,-0.182616025313869,0.165679960110716,0.984932562618571,0.984702588085437,0.04,0.0450132051592769,469.889774166123,0.989425867176669,0.348953380555732
457,0.145032707110396,0.155516058076757,-0.228886665252687,0.0969383949499065,0.0825730064834678,-0.00739570251034252,-0.215129264242154,0.195177875857431,0.98220560449847,0.981979013263853,0.04,0.0454257412060765,468.588612273752,0.987918540242381,0.348518046007685
517,0.166952007933126,0.179019744435964,-0.263479108363924,0.111589033985157,0.0950525540628332,-0.00851344092500381,-0.24764250317044,0.224675791604146,0.97953524068453,0.97925543844227,0.04,0.0457841379509515,467.315721857718,0.986299584302482,0.348141838456653
577,0.188871308755856,0.202523430795172,-0.298071551475162,0.126239673020408,0.107532101642199,-0.00963117933966509,-0.280155742098725,0.254173707350861,0.976972823009654,0.976531863620686,0.04,0.0462030790711075,466.093379348509,0.983858413483289,0.348092772808598
637,0.210790609578586,0.226027117154379,-0.332663994586399,0.140890312055658,0.120011649221564,-0.0107489177543265,-0.31266898102701,0.283671623097576,0.974400838927782,0.973808288799102,0.04,0.0466492839730067,464.866070321256,0.980463896957096,0.34837815817294
697,0.232709910401316,0.249530803513587,-0.367256437697636,0.155540951090908,0.13249119680093,-0.0118666561689879,-0.33095764463091,0.313169538844291,0.97136027290348,0.971084713977518,0.04,0.0473579438406136,463.404062404472,0.977032445194562,0.348502202389071
757,0.254629211224046,0.273034489872794,-0.401848880808874,0.170191590126159,0.144970744380295,-0.0129843945836492,-0.31274302344525,0.342667454591007,0.968082868726088,0.968361139155934,0.04,0.0483336048369028,461.849557897563,0.977994416595545,0.346991497442691
817,0.276548512046776,0.296538176232002,-0.436441323920111,0.184842229161409,0.15745029195966,-0.0141021329983106,-0.292380061256195,0.372165370337722,0.96533719785038,0.96563756433435,0.04,0.0493911482068583,460.541105644091,0.979706781634653,0.34540368074321
877,0.298467812869506,0.32004186259121,-0.471033767031348,0.199492868196659,0.169929839539026,-0.0152198714129719,-0.269502414909547,0.401663286084437,0.962684278969726,0.962913989512766,0.04,0.050590755044473,459.275676708591,0.981110765227477,0.343961695444976
937,0.306870211518219,0.329051609028906,-0.484294203557322,0.205108946493505,0.174713666111116,-0.0156483378052587,-0.244017215801969,0.412970820454011,0.961754592142294,0.961869952497826,0.04,0.0505855011222198,458.855740973243,0.982308641753967,0.343228135638129
997,0.306870211518219,0.329051609028906,-0.484294203557323,0.205108946493505,0.174713666111116,-0.0156483378052587,-0.217647475696568,0.412970820454011,0.961982073468259,0.961869952497826,0.04,0.049950820959124,458.962859836974,0.982015394775655,0.343410779345089
1057,0.306870211518219,0.329051609028906,-0.484294203557322,0.205108946493505,0.174713666111116,-0.0156483378052587,-0.191719571723226,0.412970820454011,0.962093985508023,0.961869952497826,0.04,0.0493754177580728,459.015663782242,0.980863746319077,0.343853539658896
1117,0.306870211518219,0.329051609028906,-0.484294203557323,0.205108946493505,0.174713666111116,-0.0156483378052587,-0.16679022713772,0.412970820454011,0.9621507622433,0.961869952497826,0.04,0.0487993820922379,459.042428904798,0.97927510092689,0.344431444373885
1177,0.306870211518219,0.329051609028906,-0.484294203557322,0.205108946493505,0.174713666111116,-0.0156483378052587,-0.143125131767659,0.412970820454011,0.962175710674588,0.961869952497826,0.04,0.0482170781769517,459.054138277379,0.977479443826701,0.345072976564517
1237,0.306870211518219,0.329051609028906,-0.484294203557322,0.205108946493505,0.174713666111116,-0.0156483378052587,-0.120855897776673,0.412970820454011,0.962181074834849,0.961869952497826,0.04,0.0476363511050567,459.056575810124,0.975616102682345,0.345733871472508
1297,0.306870211518219,0.329051609028906,-0.484294203557322,0.205108946493505,0.174713666111116,-0.0156483378052587,-0.100039415669832,0.412970820454011,0.962174362635817,0.961869952497826,0.04,0.0470669206772286,459.053300418404,0.973771265734322,0.346386402477473
1357,0.306870211518219,0.329051609028906,-0.484294203557322,0.205108946493505,0.174713666111116,-0.0156483378052587,-0.0806844131146182,0.412970820454011,0.962160481767121,0.961869952497826,0.04,0.0465170069927574,459.046636922866,0.971996986745118,0.347013657449459
1417,0.306870211518219,0.329051609028906,-0.484294203557322,0.205108946493505,0.174713666111116,-0.0156483378052587,-0.0627663045430627,0.412970820454011,0.9621426821862,0.961869952497826,0.04,0.0459925801235368,459.038122541654,0.970322777190868,0.347605952544886
1477,0.306870211518219,0.329051609028906,-0.484294203557322,0.205108946493505,0.174713666111116,-0.0156483378052587,-0.0462372542064679,0.412970820454011,0.962123098333288,0.961869952497826,0.04,0.0454974884210741,459.028771736916,0.96876326520441,0.348158435206448
1537,0.306870211518219,0.329051609028906,-0.484294203557323,0.205108946493505,0.174713666111116,-0.0156483378052587,-0.0310337313042135,0.412970820454011,0.962103104257846,0.961869952497826,0.04,0.0450338198738087,459.019233517017,0.967323412508091,0.348669420885944
1597,0.306870211518219,0.329051609028906,-0.484294203557323,0.205108946493505,0.174713666111116,-0.0156483378052588,-0.0170985213213607,0.412970820454011,0.962083561748181,0.961869952497826,0.04,0.0446026772393611,459.009891401553,0.966002175573273,0.349139203015511
