time,bias_percent_1,bias_percent_2,bias_percent_3,bias_percent_4,bias_percent_5,bias_percent_6,bias_percent_8,bias_percent_9,normalized_power,power_SP,SP,CV,total_power_MW,fuel_fraction,thermal_efficiency
15,0,0,0,0,0,0,0,0,0.999470485079707,1,0.04,0.0402002798448959,476.783786971899,0.998904838424164,0.350713140531217
75,0.00741181277510896,-0.000923603613892624,0.00258678706255364,0.00872498496691503,0.00628364404236913,-0.00779520285998967,-0.00507523836197362,0.00199373292444682,0.996073647401048,0.989990742733516,0.04,0.0422719429834223,475.042190302544,0.988207936836527,0.353214498055936
135,0.0370590638755444,-0.00461801806946335,0.0129339353127681,0.0436249248345747,0.0314182202118457,-0.0389760142999486,-0.025376191809868,0.00996866462223414,0.962316817777737,0.949953713667577,0.04,0.0549086638991792,458.812368630832,0.917893302490475,0.367280264362394
195,0.06670631497598,-0.00831243252503384,0.0232810835629825,0.0785248647022346,0.0565527963813223,-0.0701568257399074,-0.0456771452577623,0.0179435963200215,0.922269699499847,0.909916684601639,0.04,0.0642720226626321,439.692468741989,0.84095856111516,0.384175006274698
255,0.0963535660764156,-0.0120068469806044,0.0336282318131971,0.113424804569894,0.0816873725507987,-0.101337637179866,-0.0659780987056566,0.0259185280178088,0.881731394577656,0.869879655535701,0.04,0.0699081516869032,420.351323242851,0.766794792727942,0.402798588700581
315,0.126000817176851,-0.0157012614361752,0.0439753800634114,0.148324744437554,0.106821948720275,-0.132518448619825,-0.086279052153551,0.0338934597155962,0.841084933069798,0.829842626469763,0.04,0.0728962812066638,400.958040201404,0.696035010050127,0.423274902168503
375,0.155648068277287,-0.0193956758917458,0.054322528313626,0.183224684305214,0.131956524889752,-0.163699260059784,-0.106580005601445,0.0418683914133835,0.800375311836425,0.789805597403825,0.04,0.0737375920638439,381.535292107953,0.629224703022979,0.445536848267783
435,0.185295319377722,-0.0230900903473164,0.0646696765638404,0.218124624172874,0.157091101059228,-0.194880071499743,-0.12688095904934,0.0498433231111708,0.759651539526637,0.749768568337887,0.04,0.0727440990254813,362.105809916491,0.566507382260519,0.469661105169258
495,0.214942570478158,-0.0267845048028868,0.075016824814055,0.253024564040534,0.182225677228705,-0.226060882939702,-0.0609270083647922,0.0578182548089581,0.716047275780564,0.709731539271949,0.04,0.0734444672334799,341.288514645097,0.520062135710506,0.482193236442353
555,0.244589821578593,-0.0304789192584576,0.0853639730642695,0.287924503908193,0.207360253398182,-0.257241694379661,-0.028779480545665,0.0657931865067455,0.674432153654459,0.669694510206011,0.04,0.0741329782546975,321.445954579497,0.487152014869618,0.484839659600911
615,0.274237072679029,-0.0341733337140282,0.0957111213144839,0.322824443775853,0.232494829567658,-0.288422505819619,-0.013594135698044,0.0737681182045328,0.633842324955149,0.629657481140073,0.04,0.0766295016589445,302.085618414044,0.459225139974758,0.483347048648811
675,0.303884323779464,-0.0378677481695988,0.106058269564699,0.357724383643513,0.257629405737135,-0.319603317259578,-0.00642112073283156,0.0817430499023201,0.593726255241302,0.589620452074135,0.04,0.080963578318366,282.949361773025,0.432636629832408,0.48055168909221
735,0.3335315748799,-0.0415621626251693,0.116405417814913,0.392624323511173,0.282763981906611,-0.350784128699537,-0.0030328444567603,0.0897179816001075,0.553868157730757,0.549583423008197,0.04,0.0870270092500421,263.933454893177,0.405321695333192,0.478464001993599
795,0.363178825980335,-0.0452565770807399,0.126752566065127,0.427524263378832,0.307898558076088,-0.381964940139496,-0.00143234366613481,0.0976929132978948,0.513886557014939,0.509546393942259,0.04,0.0942973175077414,244.856541267639,0.377280798953755,0.476871846896713
855,0.392826077080771,-0.0489509915363105,0.137099714315342,0.462424203246492,0.333033134245564,-0.362300421617688,-0.000676325093145532,0.105667844995682,0.472953516699736,0.46950936487632,0.04,0.10358822393446,225.521226353609,0.353411788415656,0.468879309743408
915,0.415061515406098,-0.0517218023779885,0.144860075503003,0.488599158147237,0.351884066372672,-0.340443909297678,-0.000319209135675541,0.111649043769023,0.434777952319492,0.439481593076867,0.04,0.10926973369395,207.424765749815,0.346442650855013,0.439930357471545
975,0.415061515406098,-0.0517218023779885,0.144860075503003,0.488599158147237,0.351884066372672,-0.347460470188346,-0.000150519214117042,0.111649043769023,0.429142083734667,0.439481593076867,0.04,0.0846909662889518,204.755311205624,0.40548652046063,0.371033762660312
1035,0.415061515406098,-0.0517218023779885,0.144860075503003,0.488599158147237,0.351884066372672,-0.378934876188349,-7.08361007764723e-05,0.111649043769023,0.432565128680166,0.439481593076867,0.04,0.0702362395535737,206.408795450242,0.455182639682329,0.333194010296662
1095,0.415061515406098,-0.0517218023779885,0.144860075503003,0.488599158147237,0.351884066372672,-0.411975254257716,-3.31966387710796e-05,0.111649043769023,0.435886889844259,0.439481593076867,0.04,0.0671940794256376,207.981899887406,0.482804304463346,0.316525777306798
1155,0.415061515406098,-0.0517218023779885,0.144860075503003,0.488599158147237,0.351884066372672,-0.436531360159424,-1.54170895760196e-05,0.111649043769023,0.437743928295531,0.439481593076867,0.04,0.0681790502476848,208.857482051391,0.496375918680599,0.309167625418598
1215,0.415061515406098,-0.0517218023779885,0.144860075503003,0.488599158147237,0.351884066372672,-0.436531360159424,-7.01866506010311e-06,0.111649043769023,0.438355580355098,0.439481593076867,0.04,0.0702321839826505,209.143219734406,0.504155369006192,0.304813409901376
1275,0.415061515406098,-0.0517218023779885,0.144860075503003,0.488599158147237,0.351884066372672,-0.436531360159424,-3.05154904519623e-06,0.111649043769023,0.438751792696979,0.439481593076867,0.04,0.0715106755250613,209.331033529625,0.509269423964942,0.302023469085589
1335,0.415061515406098,-0.0517218023779885,0.144860075503003,0.488599158147237,0.351884066372672,-0.436531360159424,-1.17762501981453e-06,0.111649043769023,0.439013561182334,0.439481593076867,0.04,0.0723384372943323,209.455020335929,0.51255733629793,0.300263813813022
1395,0.415061515406098,-0.0517218023779885,0.144860075503003,0.488599158147237,0.351884066372672,-0.436531360159424,-2.92450187591928e-07,0.111649043769023,0.439181231409593,0.439481593076867,0.04,0.0728765183846955,209.534415753119,0.514665466661054,0.299147248798546
1455,0.415061515406098,-0.0517218023779885,0.144860075503003,0.488599158147237,0.351884066372672,-0.436531360159424,1.25674812668263e-07,0.111649043769023,0.439287924951153,0.439481593076867,0.04,0.0732241874373759,209.584938535544,0.516022254849969,0.29843263514199
1515,0.415061515406098,-0.0517218023779885,0.144860075503003,0.488599158147237,0.351884066372672,-0.436531360159424,3.23182140575005e-07,0.111649043769023,0.439356154444083,0.439481593076867,0.04,0.0734477001869425,209.61725111157,0.516899688005501,0.297971980580619
1575,0.415061515406098,-0.0517218023779885,0.144860075503003,0.488599158147237,0.351884066372672,-0.436531360159424,4.16477553555781e-07,0.111649043769023,0.439400080390136,0.439481593076867,0.04,0.0735911587681207,209.638055852905,0.517469233755459,0.297673563108567
1635,0.415061515406098,-0.0517218023779885,0.144860075503003,0.488599158147237,0.351884066372672,-0.436531360159424,4.6054697708301e-07,0.111649043769023,0.439428475499161,0.439481593076867,0.04,0.0736832724213087,209.651505221076,0.517839990999724,0.297479521772902
1695,0.415061515406098,-0.0517218023779885,0.144860075503003,0.488599158147237,0.351884066372672,-0.436531360159424,4.81363799989646e-07,0.111649043769023,0.439446853580256,0.439481593076867,0.04,0.0737424460376049,209.660210058368,0.5180821190186,0.29735283910322
1755,0.415061515406098,-0.0517218023779885,0.144860075503003,0.488599158147237,0.351884066372672,-0.436531360159424,4.91196924211444e-07,0.111649043769023,0.439458745492225,0.439481593076867,0.04,0.073780431236904,209.665842651628,0.518241001844691,0.297269662419685
1815,0.412559615852428,-0.046886948407356,0.139471105109147,0.476937718425506,0.342022763176076,-0.432167570243355,4.95841740693974e-07,0.106396388834979,0.439599336308402,0.438746439832529,0.04,0.0730945544899026,209.739232344395,0.516879841955404,0.298156825069338
1875,0.402552017637749,-0.0275475325248262,0.117915223533725,0.430291959538582,0.302577550389692,-0.414712410579079,4.98035786705494e-07,0.0853857690988025,0.438468566724908,0.435805826855176,0.04,0.0717313174551682,209.174169928433,0.502936736724109,0.305597200142399
1935,0.392544419423071,-0.00820811664229643,0.0963593419583025,0.383646200651658,0.263132337603309,-0.397257250914803,4.99072175739323e-07,0.0643751493626264,0.43555710143747,0.432865213877824,0.04,0.0697910793714354,207.778925891046,0.486315979590679,0.31393347914039
1995,0.382536821208392,0.0111312992402333,0.0748034603828803,0.337000441764734,0.223687124816925,-0.379802091250527,4.99561728895284e-07,0.0433645296264503,0.432359612685001,0.429924600900471,0.04,0.066355465527834,206.253591658949,0.471074920878191,0.321711223566853
2055,0.372529222993713,0.0304707151227631,0.053247578807458,0.29035468287781,0.184241912030541,-0.36234693158625,4.78665009196961e-07,0.0223539098902742,0.42924380184988,0.426983987923118,0.04,0.061910740663712,204.785692212405,0.45706300813687,0.329213937544061
2115,0.362521624779034,0.049810131005293,0.0316916972320357,0.243708923990886,0.144796699244158,-0.344891771921974,4.89922104668063e-07,0.00134329015409812,0.426296123017309,0.424043374945766,0.04,0.0568724670752452,203.361722466066,0.443399686262953,0.336998917994435
2175,0.352514026564356,0.0691495468878227,0.0101358156566134,0.197063165103962,0.105351486457774,-0.327436612257698,0.00924141923118263,4.95239556251573e-07,0.422713911015426,0.421102761968413,0.04,0.0526205840748519,201.634787452874,0.432129541478701,0.342851600558757
2235,0.342506428349677,0.0884889627703526,-0.0114200659188089,0.150417406217038,0.0659062736713907,-0.309981452593422,0.0561941820314552,4.06801792863516e-07,0.418776635561605,0.418162148991061,0.04,0.0491501047566987,199.79297919039,0.427463236393008,0.343428339165376
2295,0.332498830134998,0.107828378652882,-0.0329759474942313,0.103771647330114,0.026461060885007,-0.292526292929146,0.103146944831728,4.55976413834012e-07,0.416061006213041,0.415221536013708,0.04,0.0463660671676137,198.492592501156,0.422868256716601,0.344900556407076
2355,0.32249123192032,0.127167794535412,-0.0545318290696536,0.0571258884431899,-0.0129841519013766,-0.27507113326487,0.150099707632,4.79201412623733e-07,0.413338299831196,0.412280923036356,0.04,0.0445607080436219,197.198677142413,0.416726609960036,0.347702201491953
2415,0.312483633705641,0.146507210417942,-0.0760877106450758,0.0104801295562659,-0.0524293646877602,-0.257615973600594,0.197052470432273,4.78367099992695e-07,0.410459978922586,0.409340310059003,0.04,0.0429526735083754,195.830366616958,0.409869353150245,0.351066400855258
