time,bias_percent_1,bias_percent_2,bias_percent_3,bias_percent_4,bias_percent_5,bias_percent_6,bias_percent_8,bias_percent_9,normalized_power,power_SP,SP,CV,total_power_MW,fuel_fraction,thermal_efficiency
4,0,0,0,0,0,0,0,0,0.999192094722241,1,0.04,0.0416899688660758,476.57328069188,0.997730080664329,0.350971054097052
64,-0.00232004881000319,-0.00162371243898554,0.00113888574179759,0.00209353124475786,0.00219147922197317,0.00117410716401628,-0.000465694845675728,-0.0020079115330322,0.999865405853066,0.99910436398844,0.04,0.0400354511394339,477.023126089276,0.999054197989171,0.35083673558897
124,-0.0371207809600529,-0.0259793990237695,0.0182221718687616,0.0334964999161263,0.0350636675515714,0.0187857146242599,-0.0074511175308117,-0.0321265845285154,0.990043889980264,0.985669823815044,0.04,0.0435515550164014,472.249428506288,0.975763897188254,0.355616064905951
184,-0.0719215131101024,-0.0503350856085534,0.0353054579957256,0.064899468587495,0.0679358558811697,0.0363973220845037,-0.0144365402159477,-0.0622452575239985,0.976725641713172,0.972235283641647,0.04,0.045914070862112,465.887114710448,0.947899632352132,0.36113786028718
244,-0.106722245260152,-0.0746907721933372,0.0523887441226896,0.0963024372588634,0.100808044210768,0.0540089295447473,-0.0214219629010838,-0.0923639305194818,0.96299241040492,0.958800743468251,0.04,0.0467275167083731,459.334280161957,0.921425091044433,0.366288682487547
304,-0.141522977410202,-0.0990464587781212,0.0694720302496535,0.127705405930232,0.133680232540366,0.0716205370049909,-0.0284073855862197,-0.122482603514965,0.949308190491956,0.945366203294854,0.04,0.0466210812915867,452.805225974002,0.896884439027664,0.370962165217172
364,-0.176323709560251,-0.123402145362905,0.0865553163766176,0.1591083746016,0.166552420869965,0.0892321444652347,-0.0353928082713557,-0.152601276510448,0.935428035721481,0.931931663121458,0.04,0.046045022593554,446.183878885838,0.87456652348828,0.374865697376525
424,-0.211124441710301,-0.147757831947689,0.103638602503582,0.190511343272969,0.199424609199563,0.106843751925478,-0.0423782309564917,-0.182719949505931,0.921666306345409,0.918497122948061,0.04,0.0451791148341747,439.605896941111,0.854520049990632,0.378003593545966
484,-0.24592517386035,-0.172113518532473,0.120721888630546,0.221914311944337,0.232296797529161,0.124455359385722,-0.0493636536416276,-0.212838622501414,0.907815879247103,0.905062582774665,0.04,0.0441970095507633,433.003497349648,0.836838152976439,0.380193430422456
544,-0.2807259060104,-0.196469205117256,0.13780517475751,0.253317280615706,0.265168985858759,0.142066966845966,-0.0563490763267637,-0.242957295496898,0.894021763230301,0.891628042601268,0.04,0.0432084377086266,426.428623107419,0.821273091879677,0.381516592439456
604,-0.315526638160449,-0.22082489170204,0.154888460884474,0.284720249287075,0.298041174188357,0.159678574306209,-0.0633344990118997,-0.273075968492381,0.880410122545692,0.878193502427872,0.04,0.0423068829789848,419.941274302876,0.807487307319683,0.382126831735146
664,-0.350327370310499,-0.245180578286824,0.171971747011438,0.316123217958443,0.330913362517955,0.177290181766453,-0.0703199216970357,-0.303194641487864,0.866498750659648,0.864758962254475,0.04,0.0416013992517907,413.375931047345,0.79544469229752,0.381847431854031
724,-0.385128102460549,-0.269536264871608,0.189055033138402,0.347526186629811,0.363785550847554,0.194901789226697,-0.0773053443821717,-0.318696261144284,0.852543127178866,0.851324422081079,0.04,0.0414342258066455,406.634018128119,0.785110805063075,0.380563760511905
784,-0.419928834610598,-0.293891951456392,0.206138319265366,0.37892915530118,0.396657739177152,0.21251339668694,-0.0842907670673077,-0.313989418905945,0.838849242884381,0.837889881907682,0.04,0.0416655409370555,400.108685045243,0.778607625443138,0.377584364453882
844,-0.454729566760648,-0.318247638041176,0.22322160539233,0.410332123972548,0.42952992750675,0.230125004147184,-0.0912761897524436,-0.309254546963257,0.825557343115762,0.824455341734286,0.04,0.042419700568516,393.768036297234,0.771671170848604,0.374940937134768
904,-0.487210250100694,-0.340979612186974,0.239166005777496,0.439641561399159,0.460210636614375,0.246562504443411,-0.0977959175919039,-0.303356497602672,0.812325117253214,0.811916437572449,0.04,0.0432429293062088,387.47216894363,0.764700931334468,0.372309031034079
