time,bias_percent_1,bias_percent_2,bias_percent_3,bias_percent_4,bias_percent_5,bias_percent_6,bias_percent_8,bias_percent_9,normalized_power,power_SP,SP,CV,total_power_MW,fuel_fraction,thermal_efficiency
10,0,0,0,0,0,0,0,0,0.999306289714295,1,0.04,0.0399533746902805,476.885373519287,0.998913053252763,0.350784980877261
70,-0.00302362308659849,0.00472111851434556,-0.00403719175795231,-0.00318746601395685,0.00521293903100422,-0.00154765134372303,-0.00395728448213924,-0.00260278833275089,0.997933315786659,0.991879215357968,0.04,0.0412886984655039,475.905452444452,0.99035000343403,0.353091001219399
130,-0.0211653616061896,0.0330478296004193,-0.0282603423056665,-0.0223122620976987,0.0364905732170297,-0.0108335594060612,-0.0277009913749745,-0.0182195183292563,0.959651680124388,0.943154507505776,0.04,0.0544998483971579,457.478583424686,0.89905380202479,0.373886480792785
190,-0.0393071001257806,0.0613745406864925,-0.0524834928533809,-0.0414370581814405,0.0677682074030549,-0.0201194674683994,-0.0514446982678099,-0.0338362483257619,0.911001112358651,0.894429799653583,0.04,0.0643048726469837,434.243998104336,0.796267264671839,0.400709500222668
250,-0.0574488386453715,0.0897012517725663,-0.076706643401095,-0.0605618542651822,0.0990458415890804,-0.0294053755307376,-0.0751884051606452,-0.0494529783222673,0.861235900446997,0.845705091801391,0.04,0.0689333686238774,410.499064339509,0.698404132491157,0.43187697163367
310,-0.0755905771649627,0.11802796285864,-0.100929793948809,-0.079686650348924,0.130323475775106,-0.038691283593076,-0.0989321120534806,-0.0650697083187727,0.811287973826058,0.796980383949198,0.04,0.069362910388505,386.667861229075,0.607549187040144,0.467639630207312
370,-0.0937323156845538,0.146354673944713,-0.125152944496523,-0.0988114464326658,0.161601109961131,-0.0479771916554141,-0.122675818946316,-0.0806864383152782,0.761273791972069,0.748255676097006,0.04,0.0657314398311423,363.018561028905,0.525302046983313,0.507778623632265
430,-0.111874054204145,0.174681385030787,-0.149376095044238,-0.117936242516407,0.192878744147157,-0.0572630997177523,-0.146419525839151,-0.0963031683117837,0.711390969767855,0.699530968244814,0.04,0.0591819331668025,339.202291616863,0.450711799338597,0.552986496323302
490,-0.130015792723736,0.20300809611686,-0.173599245591952,-0.137061038600149,0.224156378333182,-0.0665490077800906,-0.100820761892464,-0.100820761892464,0.659157398391026,0.650806260392621,0.04,0.0527494917923045,314.342684272686,0.392504109307072,0.588455770228272
550,-0.148157531243327,0.231334807202934,-0.197822396139666,-0.156185834683891,0.255434012519207,-0.0758349158424288,-0.0597256699497367,-0.0597256699497367,0.608078185422271,0.602081552540429,0.04,0.0449960341752398,290.000742712596,0.354594854395702,0.600926501482706
