time,bias_percent_1,bias_percent_2,bias_percent_3,bias_percent_4,bias_percent_5,bias_percent_6,bias_percent_8,bias_percent_9,normalized_power,power_SP,SP,CV,total_power_MW,fuel_fraction,thermal_efficiency
51,0,0,0,0,0,0,0,0,0.999813287560987,1,0.04,0.0399132216256095,477.014056471665,0.999983365629477,0.350504079780752
111,0.0172043563672556,-0.0237864432249997,-0.000119435607303672,0.0133106442986679,0.0234035330385384,0.00103471852114023,0.0115371037578676,0.0277502727392746,0.990687385604575,0.987913293310493,0.04,0.0440665212148214,472.550645796947,0.986887186684766,0.351832153837042
171,0.0374447756228504,-0.0517704940779406,-0.000259948086484314,0.0289702258265124,0.0509371013191717,0.00225203442836403,0.0251101670024176,0.0603976524325387,0.976717606406939,0.973693638381661,0.04,0.0482672887768592,465.878501015106,0.968118987126583,0.353588887744288
231,0.0576851948784453,-0.0797545449308816,-0.000400460565665185,0.044629807354357,0.0784706695998052,0.00346935033558782,0.0386832302469676,0.093045032125803,0.962401108564167,0.959473983452829,0.04,0.0511691006767495,459.050492401946,0.949671254395753,0.355174551983801
291,0.0779256141340401,-0.107738595783822,-0.000540973044845941,0.0602893888822016,0.106004237880439,0.00468666624281161,0.0522562934915177,0.125692411819067,0.948058820582504,0.945254328523997,0.04,0.0531804478137871,452.204863975369,0.931871485985108,0.356561035669908
351,0.0981660333896349,-0.135722646636763,-0.000681485524026584,0.0759489704100461,0.133537806161072,0.0059039821500354,0.0658293567360678,0.158339791512331,0.933729566783353,0.931034673595165,0.04,0.0545897944534688,445.368485878079,0.914773345058343,0.35773436193739
411,0.11840645264523,-0.163706697489704,-0.000821998003207341,0.0916085519378907,0.161071374441705,0.00712129805725931,0.0794024199806178,0.190987171205595,0.919411908124437,0.916815018666333,0.04,0.0556023526322296,438.537614240281,0.898285331773748,0.358713084009507
471,0.138646871900825,-0.191690748342645,-0.000962510482388097,0.107268133465735,0.188604942722339,0.00833861396448299,0.0929754832251679,0.22363455089886,0.905104846848022,0.9025953637375,0.04,0.0563418182196751,431.71180227963,0.882343722601789,0.359509853191754
531,0.158887291156419,-0.219674799195586,-0.00110302296156885,0.12292771499358,0.216138511002972,0.00955592987170678,0.106548546469718,0.256281930592124,0.890808954980861,0.888375708808668,0.04,0.0568890747773048,424.891322125689,0.866882638880762,0.360140723036643
591,0.179127710412014,-0.247658850048527,-0.00124353544074961,0.138587296521424,0.243672079283605,0.0107732457789307,0.120121609714268,0.288929310285388,0.87652422021646,0.874156053879836,0.04,0.0572988417289927,418.07616139479,0.851834682675421,0.360624113294629
651,0.199368129667609,-0.275642900901468,-0.00138404791993048,0.154246878049269,0.271205647564239,0.0119905616861544,0.133694672958818,0.321576689978652,0.862249783418307,0.859936398951004,0.04,0.0576086040459502,411.26590361729,0.837135904966189,0.360978563516229
711,0.219608548923204,-0.303626951754408,-0.00152456039911101,0.169906459577114,0.298739215844872,0.0132078775933783,0.147267736203368,0.354224069671916,0.847984121850942,0.845716744022172,0.04,0.057844028819043,404.45981897174,0.822730283203586,0.361220655364296
771,0.239848968178799,-0.331611002607349,-0.00166507287829188,0.185566041104958,0.326272784125506,0.0144251935006021,0.160840799447918,0.386871449365181,0.833725359786211,0.83149708909334,0.04,0.0580226302323557,397.657011064106,0.808572468953823,0.361363571747617
831,0.260089387434394,-0.35959505346029,-0.00180558535747264,0.201225622632803,0.353806352406139,0.0156425094078259,0.174413862692468,0.419518829058445,0.818865655250027,0.817277434164508,0.04,0.0585838180742905,390.56009231799,0.796461048865389,0.360311397117049
891,0.280329806689988,-0.387579104313231,-0.00194609783665339,0.216885204160647,0.381339920686773,0.0168598253150495,0.187986925937018,0.452166208751709,0.803884020558403,0.803057779235676,0.04,0.0595809469656489,383.415859742407,0.789460245322651,0.356857217015995
951,0.283365869578328,-0.391776711941172,-0.00196717470853048,0.219234141389824,0.385469955928868,0.0170424227011332,0.190022885423701,0.457063315705699,0.798312964251116,0.800924830996351,0.04,0.0557752279380217,380.869397142781,0.80034716646722,0.349665144634556
1011,0.283365869578327,-0.391776711941172,-0.00196717470853048,0.219234141389824,0.385469955928868,0.0170424227011332,0.190022885423701,0.457063315705699,0.798435834837701,0.800924830996351,0.04,0.0525937915225385,380.938091990503,0.816133304905804,0.342963559176264
1071,0.283365869578328,-0.391776711941172,-0.00196717470853036,0.219234141389824,0.385469955928868,0.0170424227011333,0.190022885423701,0.457063315705699,0.79903772481509,0.800924830996351,0.04,0.0513623959858969,381.225785075948,0.828709129501723,0.338014102748504
1131,0.283365869578328,-0.391776711941172,-0.00196717470853048,0.219234141389824,0.385469955928867,0.0170424227011332,0.190022885423701,0.457063315705699,0.799589171953372,0.800924830996351,0.04,0.0511504274373616,381.487898565779,0.837796492872364,0.334577632882738
1191,0.283365869578327,-0.391776711941172,-0.00196717470853048,0.219234141389824,0.385469955928868,0.0170424227011332,0.190022885423701,0.457063315705699,0.800017594760992,0.800924830996351,0.04,0.0513644776372904,381.691296015182,0.844054881734454,0.332273913649039
1251,0.283365869578328,-0.391776711941172,-0.00196717470853048,0.219234141389824,0.385469955928867,0.0170424227011332,0.190022885423701,0.457063315705699,0.800326726329786,0.800924830996351,0.04,0.0517043382542539,381.837912511901,0.848222365852895,0.33076839328372
1311,0.283365869578328,-0.391776711941172,-0.00196717470853048,0.219234141389824,0.385469955928867,0.0170424227011332,0.190022885423701,0.457063315705699,0.800538765524364,0.800924830996351,0.04,0.0520346950044635,381.93840909793,0.850931389131268,0.329802138122815
1371,0.283365869578328,-0.391776711941172,-0.00196717470853048,0.219234141389824,0.385469955928868,0.0170424227011332,0.190022885423701,0.457063315705699,0.800679162014629,0.800924830996351,0.04,0.05230606008684,382.004918435228,0.852663375971553,0.329189535840096
1431,0.283365869578328,-0.391776711941172,-0.00196717470853048,0.219234141389824,0.385469955928868,0.0170424227011332,0.190022885423701,0.457063315705699,0.800769940416183,0.800924830996351,0.04,0.0525100788104332,382.047908705829,0.853758673755473,0.328804213405367
1491,0.283365869578328,-0.391776711941172,-0.00196717470853036,0.219234141389824,0.385469955928868,0.0170424227011332,0.190022885423701,0.457063315705699,0.800827739845186,0.800924830996351,0.04,0.0526552699777529,382.075275503379,0.854446540694466,0.328563045485311
1551,0.283365869578328,-0.391776711941172,-0.00196717470853048,0.219234141389824,0.385469955928867,0.0170424227011332,0.190022885423701,0.457063315705699,0.800864181226357,0.800924830996351,0.04,0.0527548492231534,382.092527439291,0.854876702622129,0.328412545404419
1611,0.283365869578328,-0.391776711941172,-0.00196717470853048,0.219234141389824,0.385469955928868,0.0170424227011332,0.190022885423701,0.457063315705699,0.80088701036647,0.800924830996351,0.04,0.052821388428254,382.10333420329,0.855145079851256,0.328318762600489
1671,0.283365869578328,-0.391776711941172,-0.00196717470853048,0.219234141389824,0.385469955928868,0.0170424227011332,0.190022885423701,0.457063315705699,0.800901249222427,0.800924830996351,0.04,0.0528650095927105,382.11007413831,0.855312399641455,0.328260325604524
1731,0.283365869578328,-0.391776711941172,-0.00196717470853048,0.219234141389824,0.385469955928867,0.0170424227011332,0.190022885423701,0.457063315705699,0.800910101233056,0.800924830996351,0.04,0.052893195660964,382.114264002816,0.85541682312962,0.328223852767506
1791,0.283365869578328,-0.391776711941172,-0.00196717470853048,0.219234141389824,0.385469955928868,0.0170424227011332,0.190022885423701,0.457063315705699,0.800915590032708,0.800924830996351,0.04,0.0529112010826316,382.116861887265,0.855482211367012,0.328200996515142
1851,0.293796379150011,-0.361996207985049,-0.0229743960202504,0.188629074616993,0.365576514010171,0.016936103798238,0.201616607465426,0.425733964601038,0.803479867083437,0.803572198176856,0.04,0.0512660887560339,383.367105336906,0.856480471956515,0.32889105095844
1911,0.306067566881404,-0.326960320977845,-0.0476887740340386,0.15262311370778,0.342172464694056,0.0168110227360086,0.215256280455691,0.388875904477908,0.806865274663725,0.80668674780098,0.04,0.0497201112565564,384.983010607792,0.856034544430386,0.330449386670736
1971,0.318338754612796,-0.291924433970641,-0.0724031520478267,0.116617152798567,0.318768415377943,0.016685941673779,0.228895953445957,0.352017844354777,0.810181201933723,0.809801297425103,0.04,0.0483344301561067,386.562501671627,0.854198133281554,0.332518476065811
2031,0.330609942344189,-0.256888546963437,-0.097117530061615,0.0806111918893541,0.295364366061828,0.0165608606115495,0.242535626436222,0.315159784231647,0.81341447187003,0.812915847049226,0.04,0.0469189369721949,388.106201791546,0.85147021636488,0.334915924371714
2091,0.342881130075582,-0.221852659956233,-0.121831908075403,0.0446052309801413,0.271960316745714,0.0164357795493199,0.256175299426487,0.278301724108517,0.816619821149406,0.81603039667335,0.04,0.0454163437717826,389.637713839071,0.848169170023624,0.337546166804738
2151,0.355152317806974,-0.186816772949029,-0.146546286089191,0.00859927007092824,0.2485562674296,0.0163106984870903,0.269814972416753,0.241443663985387,0.819959130579655,0.819144946297473,0.04,0.0439716818024446,391.217771974072,0.843776272484732,0.340679454434054
2211,0.367423505538367,-0.151780885941825,-0.171260664102979,-0.0274066908382846,0.225152218113486,0.0161856174248609,0.283454645407018,0.204585603862256,0.823317439240893,0.822259495921597,0.04,0.0425621493773746,392.807187419453,0.838055562796203,0.344398529812412
