time,bias_percent_1,bias_percent_2,bias_percent_3,bias_percent_4,bias_percent_5,bias_percent_6,bias_percent_8,bias_percent_9,normalized_power,power_SP,SP,CV,total_power_MW,fuel_fraction,thermal_efficiency
41,0,0,0,0,0,0,0,0,0.99973432630934,1,0.04,0.0399404845089674,476.977286347619,0.999833536914432,0.350529581814931
101,-0.0160954731078893,-0.00936043510167622,-0.00861126314187231,0.0228971649759784,0.0137572152896429,-0.0158699617874438,-0.00018591073643455,-0.00466602562813023,0.979817267102973,0.965665176246294,0.04,0.0482974900046412,467.135891211531,0.9477195752362,0.362174660480926
161,-0.0396498239974835,-0.0230586328114464,-0.0212131116421733,0.0564052112822883,0.033889725469608,-0.0390942961105324,-0.000457975228777968,-0.0114943558156378,0.932334033912188,0.915419092704284,0.04,0.0610378728358177,444.377876285295,0.845960009530129,0.385973307909302
221,-0.0632041748870778,-0.0367568305212164,-0.0338149601424744,0.0899132575885981,0.0540222356495731,-0.0623186304336209,-0.000730039721121273,-0.0183226860031455,0.880887823266434,0.865173009162275,0.04,0.068188670457366,419.861001522712,0.746458670367226,0.413289571393414
281,-0.086758525776672,-0.0504550282309864,-0.0464168086427754,0.123421303894908,0.0741547458295382,-0.0855429647567093,-0.00100210421346463,-0.0251510161906531,0.829309816266927,0.814926925620266,0.04,0.0703757620999051,395.2536678284,0.654950048226026,0.443427278796331
341,-0.110312876666266,-0.0641532259407567,-0.0590186571430764,0.156929350201218,0.0942872560095034,-0.108767299079798,-0.00127416870580797,-0.0319793463781607,0.777208511992804,0.764680842078257,0.04,0.0685133970051346,370.664352085397,0.572257091734824,0.475931350452337
401,-0.13386722755586,-0.0778514236505267,-0.0716205056433774,0.190437396507528,0.114419766189469,-0.131991633402886,-0.00154623319815133,-0.0388076765656684,0.7261798333159,0.714434758536248,0.04,0.0635138607269358,346.315742933242,0.49743845681507,0.511549368854302
461,-0.157421578445454,-0.0915496213602968,-0.0842223541436784,0.223945442813838,0.134552276369434,-0.155215967725975,-0.00181829769049466,-0.045636006753176,0.674564940780229,0.664188674994238,0.04,0.0563008983789718,321.749063943751,0.430982285721579,0.548545363081258
521,-0.180975929335049,-0.105247819070067,-0.0968242026439795,0.257453489120147,0.154684786549399,-0.178440302049064,-0.00209036218283801,-0.0524643369406836,0.623201714393933,0.613942591452229,0.04,0.0483517576738959,297.25033272121,0.371703000072619,0.587598879994764
