time,bias_percent_1,bias_percent_2,bias_percent_3,bias_percent_4,bias_percent_5,bias_percent_6,bias_percent_8,bias_percent_9,normalized_power,power_SP,SP,CV,total_power_MW,fuel_fraction,thermal_efficiency
37,0,0,0,0,0,0,0,0,0.999701333248652,1,0.04,0.0399545830807995,476.962700419413,0.999767438627453,0.350542036733437
97,0,0,0,0,0,0,0,0,0.999965047539716,1,0.04,0.0399005281618159,477.083917739488,1.00026105398943,0.350458093231749
157,0,0,0,0,0,0,0,0,0.999996473625723,1,0.04,0.0399410849511343,477.098391550198,1.00031573098471,0.350449568929357
217,0,0,0,0,0,0,0,0,1.00000109607068,1,0.04,0.0399722169115985,477.100540767094,1.00031530977204,0.350451295190801
277,0,0,0,0,0,0,0,0,1.00000272447587,1,0.04,0.0399909671378869,477.101309379264,1.00030179913603,0.350456593169168
337,0,0,0,0,0,0,0,0,1.00000362283948,1,0.04,0.0400016448734312,477.101733268703,1.00028160862884,0.350463978449354
397,0,0,0,0,0,0,0,0,1.00000397535454,1,0.04,0.0400072531943099,477.101897528946,1.00025823117792,0.350472289951925
457,0,0,0,0,0,0,0,0,1.00000389972436,1,0.04,0.0400096551706195,477.101858619055,1.00023449964303,0.350480576664035
517,0,0,0,0,0,0,0,0,1.00000354067459,1,0.04,0.0400100679434301,477.101685631514,1.00021241320353,0.35048818880816
577,0,0,0,0,0,0,0,0,1.00000302950844,1,0.04,0.0400093194722801,477.101440969947,1.00019314026956,0.350494762702867
637,0,0,0,0,0,0,0,0,1.00000246604695,1,0.04,0.0400079756110937,477.101172064741,1.00017718231314,0.350500157342217
697,0,0,0,0,0,0,0,0,1.00000191782505,1,0.04,0.040006413053192,477.100910782485,1.00016457127307,0.350504384834219
757,-0.154152806613333,-0.154166666629035,-0.154158602582303,0.15416666621762,0.154161018466622,-0.154151158766593,0.131349354426494,0.148799421131578,0.9902296186303,0.98645676261466,0.04,0.0398266765011999,472.406579233892,0.98979645088553,0.350691081577188
817,-0.249977524237837,-0.249999999938976,-0.249986923106438,0.249999999271816,0.249990840756684,-0.249974852053935,0.212998953124044,0.241296358591748,0.97196462768893,0.964494756043839,0.04,0.0426890854812731,463.534238849367,0.944169851517402,0.360733409219691
877,-0.249991070236854,0.0583333333567258,-0.249994067285124,-0.0583333336124707,0.151162182018642,-0.249990255016956,0.235803317303122,0.246661074082961,0.949939006494362,0.942532749473018,0.04,0.046226893211314,453.130562686774,0.898323033960653,0.370634204306505
937,-0.249999490722729,0.25,-0.249998508261064,-0.25,0.0897281509112104,-0.249999829831807,0.24997900314417,0.249995897226148,0.927759830050172,0.920570742902197,0.04,0.0497040681178942,442.452301885371,0.851072111490153,0.381992446850684
997,-0.249999804777046,0.224349356832658,-0.249999428166741,-0.25,-0.119770462858849,-0.249985627021089,0.249991177073017,0.249996031615435,0.911334243250092,0.898608736331376,0.04,0.04555963724353,434.660677681124,0.791109249921409,0.403709125702917
1057,-0.25,0.208404362431338,-0.25,-0.25,-0.249999330878075,-0.249976798246858,0.249998744650408,0.249996115154721,0.884990929650979,0.876646729760555,0.04,0.0429107432205457,422.137713244869,0.723292853028138,0.428839376291713
1117,-0.25,-0.074278299048998,-0.249999937586894,-0.249999998442173,-0.249999743503262,-0.249868826323823,0.249884114889279,0.24999851080931,0.869636100877475,0.854684723189734,0.04,0.0321204812403713,414.798830370521,0.659084113559026,0.462435701679957
1177,-0.25,-0.24999995348272,-0.249999898789558,-0.249999997473794,-0.25,-0.249801708641937,0.249812858551279,0.25,0.840946745852396,0.832722716618913,0.04,0.026744807478819,401.068776433214,0.57918179591668,0.508813500587052
1237,-0.0601765124147008,-0.249943249069783,-0.249999961202664,-0.249998766603257,0.058333028379498,-0.249923988312742,0.249928262444657,0.249109273776342,0.79893285082835,0.810760710048092,0.04,0.0311778998988949,380.639181524396,0.589729626974512,0.474258606195093
1297,0.0578218717599447,-0.249908000380661,-0.25,-0.249998001467518,0.249999505480267,-0.25,0.25,0.248555579096771,0.78363783956336,0.78879870347727,0.04,0.0312998930933578,373.875979042373,0.661082247509105,0.415553308781327
1357,0.0700900101443817,0.0583685938430293,-0.0830449728700962,0.0583340855808754,-0.0583326904476987,-0.243038599773871,-0.0583333333333333,-0.0588860721803823,0.761547327298122,0.766836696906449,0.04,0.030550829424577,363.31738786978,0.680413922585341,0.392344589364337
1417,0.0777161502211941,0.24999999025235,0.0207378818322765,0.249999977529876,-0.249998650078596,-0.238711242876548,-0.25,-0.249998450001316,0.748618316616552,0.744874690335628,0.04,0.0423146284064641,356.999845639265,0.660667456909463,0.397045053393246
1477,-0.124374434377185,0.249999561492725,0.16211583038437,0.249983502085388,0.0583332777814459,0.0626597214015799,-0.249996391678293,-0.249171422239236,0.725231159738012,0.736455921150147,0.04,0.0617090584623671,345.892576972768,0.682380002291997,0.372451413856052
1537,-0.249998311289691,0.249999294966472,0.24999942002486,0.249973260592867,0.249999070775526,0.249998428925821,-0.249994148667503,-0.248657323900646,0.728797179372189,0.736455921150147,0.04,0.0575975360284414,347.76890338652,0.75180817577911,0.339889992662459
1597,-0.208513880825815,-0.0583336035961858,0.249962851406032,0.249987222180932,0.249999643797285,-0.0578358511848791,0.0583354254035555,0.0587832742864224,0.726376768081094,0.736455921150147,0.04,0.0526494239419086,346.545579498087,0.799782739189189,0.318377972455651
1657,-0.18272626188881,-0.25,0.249940119561895,0.249995901005946,0.25,-0.249192295578017,0.249999755231511,0.249894997483789,0.73518367145311,0.736455921150147,0.04,0.0506424483482888,350.806143275717,0.829200238458034,0.310858285972669
1717,-0.223939789563187,0.0575198648801331,0.249975948554514,-0.0583349046143875,-0.0583333263821715,-0.249682453194226,0.249993832322836,0.249959749035453,0.74374557538217,0.736455921150147,0.04,0.0484143443658515,354.917146951554,0.806565277259467,0.323327121875941
1777,-0.24955900946888,0.248680861967784,0.249998220631007,-0.25,-0.249999988727846,-0.249987145766463,0.249990150514741,0.25,0.741648477703204,0.736455921150147,0.04,0.0497355468360488,353.807152254931,0.758000907951513,0.342966387043309
1837,-0.249830953629737,0.249493988502115,0.249999313229256,-0.249995397837746,-0.249952577189863,0.0581318459099631,0.249856972144309,0.249979382771716,0.73412312794629,0.736455921150147,0.04,0.0564573542021771,350.221902891206,0.754043331804112,0.341272800211156
1897,-0.25,0.24999944553697,0.249999992411952,-0.249992537034182,-0.249923105152738,0.249665273168282,0.249774185589717,0.249966566656837,0.736293521307295,0.736455921150147,0.04,0.0569073664757679,351.311616764639,0.765247796356392,0.337322336147566
1957,0.0583300826571304,0.249999787097628,0.0758086079285612,-0.249997114958227,-0.249970523641883,-0.0584616452854918,0.249907746475918,0.12526448767202,0.744425068589972,0.736455921150147,0.04,0.0473864163427776,355.210870272534,0.737077754645389,0.354101380432521
2017,0.249994728633185,0.249999999419119,-0.0324725229665196,-0.249999960694796,-0.25,-0.25,0.249990770810583,0.0477469791138911,0.741269941639233,0.736455921150147,0.04,0.0446869098933146,353.622177270082,0.692762851968645,0.375067625158319
2077,0.249997964931833,0.249999938422264,-0.166614467137166,-0.249999984933005,-0.25,-0.25,0.249996462144057,-0.135863658006342,0.746041404628266,0.736455921150147,0.04,0.0310728210877716,355.984074433451,0.654953429320033,0.399369436333382
2137,0.249999976685046,0.2499999005053,-0.25,-0.25,-0.25,-0.25,0.25,-0.179595897355949,0.739776808308138,0.736455921150147,0.04,0.0249855228548339,352.912050842504,0.618518156289,0.419245791796203
2197,0.249999972772171,-0.0583333714729681,-0.227502964728637,-0.249999953369187,-0.249966506463058,-0.249999881121382,0.249995184397425,-0.206776864213189,0.74546527137171,0.736455921150147,0.04,0.0105119418619282,355.674161727351,0.586409757996397,0.445662204729716
2257,0.249999970339843,-0.25,-0.213518321181574,-0.249999924382465,-0.249945686156311,-0.249999807223863,0.249992190914743,-0.25,0.740295455862356,0.736455921150147,0.04,0.00285650734378029,353.038639281906,0.539844252231504,0.480516643804736
2317,0.249999970049647,-0.25,-0.235990050271071,-0.24999961154789,-0.249979179693253,0.058318238631148,0.24999700643189,-0.25,0.725605207794152,0.736455921150147,0.04,0.0108059302910731,346.018447933901,0.573713294033772,0.443158431546068
2377,0.249999969869255,-0.25,-0.249958962948327,-0.249999417083155,-0.25,0.249975402270749,0.249999999861469,-0.25,0.728033711748273,0.736455921150147,0.04,0.013929759006511,347.405099886478,0.640064285057061,0.3988111310132
2437,0.249991645433948,-0.25,-0.249984055552594,-0.249969612832296,-0.25,0.249985603867715,0.249999829079511,-0.243590413992446,0.728483599027336,0.736455921150147,0.04,0.0176630772329206,347.565600920965,0.688435049021253,0.370961202568395
2497,0.249986470784974,-0.25,-0.24999965365795,-0.249951085865546,-0.25,0.249991945400963,0.249999722917753,-0.239606076744506,0.729699129874594,0.736455921150147,0.04,0.0223177912674028,348.151479439049,0.731981993373313,0.349480158229774
2557,0.249994326235278,0.0583330491582294,-0.249999493650166,0.0583520752270495,-0.109057901996692,-0.0583347992046658,0.249999049345823,-0.0212417083731131,0.712774281442156,0.736455921150147,0.04,0.0423069347147402,340.009659904232,0.819714181828683,0.304777907660735
2617,0.249999209353035,0.249999539175507,-0.249999394185868,0.249999986176501,-0.0214452464811226,-0.249997370175733,0.249998630638947,0.114498304398294,0.728295370009235,0.736455921150147,0.04,0.0534214970208478,347.603506292888,0.920251491544962,0.277544288665662
2677,0.221465416795023,0.249894107993288,-0.24988161044753,0.249999648532739,0.145922783806749,-0.24975675147948,-0.0577238050404055,0.198048636807281,0.747492069981594,0.747407002845379,0.04,0.0591372915709447,356.809940306686,0.93155364697698,0.281438657629543
2737,0.203728194394096,0.249828569690827,-0.249808393529103,0.249999438646076,0.249962370201912,-0.249607177695323,-0.24901072451676,0.24998532992638,0.765099497608737,0.765165513702511,0.04,0.0617402742567231,365.154884595192,0.927397564094958,0.289311595206177
2797,0.232253114065294,-0.0576132006339836,-0.249883661029843,0.249789576227384,0.249916734892758,0.0583948645553271,0.0587017806948119,0.249994312332264,0.773004747693548,0.782924024559644,0.04,0.0628869048111402,368.881377978395,0.959829465803054,0.282388710091807
2857,0.24998482088793,-0.248725652457514,-0.249930448935708,0.249659121210359,0.249888366997879,0.249855593521947,0.249982527177681,0.249999895989975,0.796187381221322,0.800682535416777,0.04,0.0587509284893211,380.052792039795,1.00849564536925,0.276901033303576
2917,0.249993654834109,-0.179479185305031,-0.232878841887498,0.249869043770244,0.249953057136782,0.249731381158413,0.249977993374203,0.249999636760281,0.815925207865687,0.81844104627391,0.04,0.0608252440866341,389.417922036026,1.0246187128069,0.279259739190332
2977,0.249999146206058,-0.136434084102136,-0.222279194262936,0.249999536172336,0.24999326992583,0.249654168067566,0.249975175063933,0.249999475617498,0.834556915279755,0.836199557131043,0.04,0.0610021365468357,398.31751924227,1.03845618843767,0.281835636297314
3037,-0.045308878149234,0.100842685136392,-0.238201871177481,0.249993243564097,0.249941491312964,0.249844525791742,0.249990360413541,0.249976099903811,0.853949671424124,0.853958067988176,0.04,0.0581152913951316,407.575282563177,1.04408826092568,0.286830481350831
3097,-0.228878731126848,0.248339055203585,-0.248099751421657,0.249989331942759,0.249909304607669,0.249962856268932,0.249999799955189,0.249961569054762,0.871630845478854,0.871716578845308,0.04,0.0550822996534671,415.981847167458,1.04235234392296,0.293234123834317
3157,0.0664283845826343,-0.0588968045114021,-0.249271571378302,-0.0583374227552757,-0.058362346546346,0.249975322140086,0.249999923316156,-0.0583480651956744,0.901256829039886,0.878524008007209,0.04,0.0380806707894667,430.179403384704,0.976515849197725,0.323686802675614
3217,0.249997672726366,-0.249881257847746,-0.25,-0.25,-0.249990670236679,0.249983071195128,0.25,-0.207436276075328,0.891475164746042,0.878524008007209,0.04,0.0340729051675189,425.201651661173,0.850066865389666,0.367533161942154
3277,0.249990325361656,-0.0965096756394217,-0.25,0.0583010145114108,-0.249996247482027,0.249993423278565,0.249984597362148,-0.103880139589151,0.872609846391849,0.878524008007209,0.04,0.0437243031529712,416.187220345313,0.837749305354494,0.365030657172763
3337,0.249985758080891,-0.0011705839964095,-0.25,0.249947591099585,-0.249999714418324,0.249999858357458,0.249975022749429,-0.0130488750094334,0.87487437374652,0.878524008007209,0.04,0.043856514210749,417.459698935484,0.882099719140741,0.347737516446273
3397,0.249994537728114,0.153456560678758,-0.25,-0.058328534193833,-0.249999890468214,0.249999543572052,0.249985230148421,-0.0294402118281318,0.881149053011889,0.878524008007209,0.04,0.0395616747852779,420.433942938048,0.879684106992282,0.351176706282849
3457,0.249999995346658,0.249576137098456,-0.25,-0.249959639105958,-0.249999999904633,0.249999347894638,0.249991575288336,-0.0396294212019173,0.880899427049275,0.878524008007209,0.04,0.0394550623803127,420.261981162932,0.860044523036858,0.359049102330816
3517,0.249972318979181,0.249837519221075,-0.25,-0.249984528323951,-0.249958105928608,-0.0583335675088243,0.249996770527195,0.125173649028047,0.880277336775971,0.878524008007209,0.04,0.0348736274155802,419.998056344336,0.850137835292414,0.363005004194486
3577,0.249955114750749,0.25,-0.25,-0.25,-0.249932063727296,-0.249999974381247,0.25,0.22761880079262,0.88094771159114,0.878524008007209,0.04,0.0335076752261112,420.287888829903,0.831558865724548,0.37137148434008
3637,0.249982768213485,0.24999999989064,-0.249781527417176,-0.249998600810838,-0.249972735121835,-0.249178054495697,0.249999648006708,-0.0669109402551277,0.88762906174993,0.878524008007209,0.04,0.0268156255936465,423.535873840647,0.797859874002034,0.390048177984844
3697,0.249999958203834,0.249999999822659,-0.249645720135962,-0.249997731044602,-0.249998017340061,-0.248667131323599,0.249999429200068,-0.241486027143182,0.88187832608657,0.878524008007209,0.04,0.0242450831670733,420.703414614352,0.75755478768789,0.408053085369997
3757,-0.0583333273539869,0.249998064086971,0.0584689303813761,0.0583341800873284,0.0583340919927125,-0.249488981055384,0.249999337415179,-0.249976471417192,0.865972924819955,0.878524008007209,0.04,0.0400491982754365,413.068489529076,0.790818003488621,0.383795779935029
3817,-0.249999964322362,0.249996860791813,0.249999659081343,0.249999962682852,0.249999997794166,-0.249999860618385,0.249999280359707,-0.249963713202918,0.870566284125123,0.878524008007209,0.04,0.042061405267365,415.406105305693,0.861667761128829,0.354231931427502
3877,-0.249999986323572,-0.0583114439825362,0.191809245337412,0.249999985683158,0.249996624713311,0.0583333843267629,-0.0583335553910092,-0.0594681725187149,0.877718153194374,0.878524008007209,0.04,0.0372721485543808,418.81877751726,0.883595587230347,0.348278995170679
3937,-0.25,-0.24996255235578,0.155636825983076,0.249999999980645,0.24999452793332,0.249999996049422,-0.249999912749563,0.0589479743930869,0.878308446865946,0.878524008007209,0.04,0.0368664752914591,419.018497193307,0.877300107883245,0.350945508406092
3997,-0.249998765509347,-0.249962547221191,0.213784153979662,0.249999203640058,-0.0583288489594313,0.24951870461306,-0.249999627237741,0.176587562541936,0.878577240223839,0.878524008007209,0.04,0.0347198173173608,419.184805196321,0.880587207942526,0.349774251381808
4057,-0.249997998123266,-0.249962544029419,0.249929790301864,0.249998708617531,-0.249989326487358,0.249219523449916,-0.24999944975742,0.249714874093924,0.87895467073517,0.878524008007209,0.04,0.0343447408717684,419.344192884229,0.876610274442791,0.351494677382074
4117,-0.249999231510288,0.0221563976842401,-0.0583602334194286,-0.0575689240199234,-0.125702526490864,0.249675451523947,-0.249845224126835,0.249890585703792,0.881960600787587,0.878524008007209,0.04,0.029526149036173,420.829127847061,0.866431811954973,0.356883179024279
4177,-0.249999998210328,0.191311415506244,-0.249999977894827,-0.248759614578341,-0.0484431643308819,0.249958866272668,-0.249749354140256,0.249999811839656,0.880619981776464,0.878524008007209,0.04,0.0290203483156498,420.116721029623,0.842564338754091,0.36637140473808
4237,-0.249999999313959,0.227502449556231,0.0580155944486515,-0.249523840308754,-0.172736546326838,0.249932040850995,-0.249903795145105,-0.0212978526114767,0.881287135549718,0.878524008007209,0.04,0.0298067805021576,420.489802724838,0.82999336362052,0.372250701281304
4297,-0.25,0.249999578830547,0.249484734013516,-0.249998899546578,-0.25,0.249915365588873,-0.249999799012983,-0.189942346729748,0.878422844220501,0.878524008007209,0.04,0.0317013307187929,419.068907658428,0.818511459445666,0.37619702107757
4357,0.0583272979466128,0.249999838490594,0.249802481371848,0.0583336986421388,-0.25,0.0896839540369841,0.0583296419404019,0.0221418929962944,0.856705867423543,0.878524008007209,0.04,0.0532410026543437,408.583988478902,0.883720697485212,0.339719904397236
4417,0.249990212886399,0.249999999900893,0.25,0.249999908327017,-0.25,-0.00991935584662281,0.249993889019533,0.153978042015186,0.8681012200891,0.878524008007209,0.04,0.058892458474569,414.315783921371,0.997682015456746,0.305136395263779
4477,0.24999624827312,0.249999999962009,0.0329469380727677,-0.0582253970245348,-0.249978345319115,0.150364126510674,0.249997657457488,-0.0951417505608454,0.88934180108606,0.878524008007209,0.04,0.0505731480687728,424.447324841579,0.982589493443372,0.317399589657814
4537,0.25,0.25,-0.101977938260377,-0.249824911161986,-0.249964884301267,0.249999804732778,0.25,-0.25,0.886504700405,0.878524008007209,0.04,0.0509888629543353,422.880257544904,0.908595093969798,0.341980780440135
4597,0.25,0.197447803626276,-0.193255722761816,-0.249931033001791,-0.249986537763952,-0.0583334023598981,0.249288315505121,-0.249998209586425,0.889513523256252,0.878524008007209,0.04,0.038832714090379,424.437576731396,0.860359754586607,0.362483644412407
4657,0.25,0.164780222096665,-0.249995967181629,-0.24999700063194,-0.24999999802454,-0.249999990552643,0.248845917035331,-0.249997096626635,0.885070112003389,0.878524008007209,0.04,0.0310101743760204,422.212114916118,0.800491043065584,0.387551025314581
4717,0.249893562561081,0.217332418470388,-0.249989114438974,-0.24999873588316,0.0272380931738229,-0.249999758907254,-0.0587757302392698,-0.24999888704021,0.882709915236715,0.878524008007209,0.04,0.0290078595610172,421.142406615643,0.774186296687204,0.39970370226282
4777,0.249827398747699,0.25,-0.249984854625972,-0.249999814552838,0.199575284999832,-0.249999614911472,-0.249999997464022,-0.25,0.878635164493578,0.878524008007209,0.04,0.0276862277255721,419.168229586743,0.761503853000027,0.404455671325942
4837,0.249933836186618,-0.0583333333333333,-0.249994054505938,-0.249931315622127,-0.0776628074167309,-0.249999631859129,0.0582148167011199,-0.249976874235851,0.884383357877144,0.878524008007209,0.04,0.015101411776383,422.075523644011,0.756746040702777,0.409821451176385
4897,0.25,-0.25,-0.249999773350242,-0.249888735205739,-0.25,-0.24999964239416,0.249807809290262,-0.249962498760839,0.879572154845641,0.878524008007209,0.04,0.0136165799456112,419.575890811481,0.717079426178223,0.429930186690997
4957,0.24999880531497,0.0583333333333333,0.0434550269222603,0.058275267776282,0.0583333333333333,-0.249980289078869,0.249926313357207,-0.249985479585623,0.841730132746861,0.878524008007209,0.04,0.0400971438395254,401.587547833185,0.831662498100061,0.354803418759099
5017,0.249998062672924,0.25,0.225872875740302,0.249836675035377,0.25,-0.249968258639635,0.249999978047471,-0.249999764963192,0.863762799490147,0.878524008007209,0.04,0.0526178884806545,412.267870963692,0.980488840643564,0.308952356171075
5077,0.249971590397859,0.25,-0.0675813071674204,-0.00724322567712557,0.249999999987357,-0.249987353628349,0.249954344722768,-0.249999909902557,0.882471845944829,0.878524008007209,0.04,0.0460186958723998,421.153491357992,0.996659171869032,0.310490569453123
5137,0.249955134659305,0.25,-0.249998772218167,-0.167049650444357,0.249999999979498,-0.249999223486199,0.249925978061467,-0.25,0.884461666978547,0.878524008007209,0.04,0.0479784331710321,421.943898367976,0.950238747971064,0.326269630874021
5197,0.249962350734754,0.249921438515931,-0.249999529350297,-0.21820236600367,0.249999999883408,-0.249999702336376,0.249970956476661,-0.25,0.883018457054472,0.878524008007209,0.04,0.0504980028049717,421.286660228104,0.922551132015581,0.335538174857808
5257,0.249966836403277,0.249872602998807,-0.25,-0.25,0.249999999823676,-0.25,0.249998916032051,-0.25,0.882163830116125,0.878524008007209,0.04,0.0504096293460898,420.871768067887,0.898143989993648,0.344317029222334
5317,0.249987287287923,0.249951164482876,-0.249925353676582,0.0583312692247409,-0.0583333334009242,-0.249997887767097,0.249999584478953,-0.249999343590076,0.882455454057017,0.878524008007209,0.04,0.0498237811484615,421.017810073634,0.876204663261101,0.35306086752293
5377,0.25,0.25,-0.249878951907971,0.249996652796877,-0.25,-0.249996574757454,0.25,-0.249998935551474,0.880654199644404,0.878524008007209,0.04,0.0483321463817303,420.147765862083,0.85864862378157,0.359535068017372
5437,0.25,0.249998816162374,-0.249935006500747,0.0278507597082792,0.0583333333333334,-0.249990651802908,0.249999452126617,0.0583337413719348,0.868611485087903,0.878524008007209,0.04,0.0528482752517003,414.334762876621,0.88325490078263,0.344683102032999
5497,0.25,0.249998080263309,-0.249969851247609,-0.110239930590039,0.25,-0.249986969966298,0.249999111556676,0.25,0.875697379420649,0.878524008007209,0.04,0.0518749181836441,417.868083891365,0.929614328421993,0.33028668714663
5557,0.249999766526393,-0.00161319210394845,-0.249988442952908,-0.196425306726181,-0.0583333333333334,-0.249995005153748,0.249999659430059,-0.0583333333333333,0.899645089736759,0.878524008007209,0.04,0.0319730009547728,429.432704698893,0.87088452822223,0.362317421944573
5617,0.24999962139415,-0.158020199251163,-0.249999999958904,-0.25,-0.25,-0.25,0.25,-0.25,0.888732815917799,0.878524008007209,0.04,0.0234041301440196,423.940343716867,0.751006669101303,0.414777920782483
5677,-0.0583334784655757,-0.214740917204856,-0.249997848009701,0.0583333333333334,-0.0755702643056159,-0.25,0.249999846991016,-0.249999879065069,0.877455361215512,0.878524008007209,0.04,0.020452327762578,418.648375089222,0.737032204911343,0.417366532528773
5737,-0.25,-0.249999741878773,-0.249996510311548,0.25,0.0328590308557582,-0.25,0.249999751877323,-0.249999803889301,0.878330600162999,0.878524008007209,0.04,0.0176623265212049,418.91581790696,0.737440164272373,0.417402117585953
5797,-0.249953062661022,-0.24999945538683,-0.249998592371812,-0.0583332334701544,-0.141568907816522,-0.249999997450028,0.249999672899601,0.0583333006303882,0.884608514066803,0.878524008007209,0.04,0.0145853943673643,422.095748028511,0.726807250899027,0.426723344561728
5857,-0.249923885396252,-0.249999277297243,-0.249999886625489,-0.24999983805971,-0.249997085910101,-0.24999999586491,0.249999623805341,0.249999825061546,0.877051955915436,0.878524008007209,0.04,0.0146952665081473,418.33335412426,0.70339800056116,0.436994568919241
5917,0.0583625105981034,-0.249999722963943,-0.249999841440901,-0.249999937922889,-0.249991150526157,-0.24999962305953,0.249999855792048,0.24999935935894,0.861616255172214,0.878524008007209,0.04,0.0175492636868473,410.783080887356,0.753061671082999,0.400808276018183
5977,0.25,-0.25,-0.249999813353184,-0.25,-0.249987460963164,-0.249999391315644,0.25,0.24999906986813,0.866760119609254,0.878524008007209,0.04,0.0190494055443128,413.543462293251,0.855298844711761,0.355269520907333
6037,0.249999524418571,-0.156916634804068,-0.249999904694426,-0.249999999373545,0.0583161836488501,-0.249999660616753,0.25,-0.0424113778147987,0.864805424730734,0.878524008007209,0.04,0.0240319554401689,412.617438254159,0.92733373634649,0.326938597313296
6097,0.249999228786871,-0.0990540023849751,-0.249999961474117,-0.249999998984126,0.249964395164426,-0.249999828020145,0.25,-0.224180034482565,0.872224499309115,0.878524008007209,0.04,0.0309729998581118,416.197421934351,0.986015575098256,0.310148929774207
6157,0.249999704368301,0.113096046939947,-0.249999985231745,-0.249999999610582,0.0609794945181427,-0.249999795939923,-0.057550854003835,-0.239909884469205,0.882983773112501,0.878524008007209,0.04,0.0338143206828238,421.34596279748,0.98440048753743,0.314500755581696
6217,0.25,0.244973104628413,-0.25,-0.25,-0.0564976058836014,-0.249999775998163,-0.248731114600813,-0.249687899325765,0.883805493418916,0.878524008007209,0.04,0.0402707673458506,421.651047154332,0.945600441028573,0.327642471596313
6277,0.249997483386868,0.246465008299612,-0.24995920752616,-0.25,0.132509251070124,-0.249999914132629,-0.249462044821092,-0.12042999956755,0.876092688026541,0.878524008007209,0.04,0.0513399748827824,417.92974566016,0.937960826452541,0.327395916498914
6337,0.249995919005732,0.247392407879006,-0.249933850042422,-0.25,0.249999999987305,-0.25,-0.249916406849915,-0.040080494312443,0.879470672354869,0.878524008007209,0.04,0.0545954085871937,419.636759760646,0.948517624947411,0.325074419781802
6397,0.249998434908931,0.247589606149456,-0.249974642516262,0.0583333333333334,0.249998656653295,-0.25,-0.249967955959134,0.0413490208602207,0.871363724069093,0.869657780463007,0.04,0.0669071478677619,415.597541424316,0.934094978806392,0.326916325186205
6457,0.249999998848757,0.247712188858115,-0.25,0.25,0.249997821607829,-0.25,-0.25,0.0919673681297144,0.860282606916051,0.855280114175113,0.04,0.0737783209535216,410.360864822197,0.915863089877388,0.329222914896022
6517,0.248731028381905,0.249123005728944,0.0576440455343733,0.249995161532927,0.249997349532073,-0.248742917102969,0.0583333333333334,-0.118876848563744,0.843205029139201,0.840902447887218,0.04,0.0845923098402614,402.139968293806,0.888412150681712,0.332596309473892
6577,0.247942208902511,0.25,0.248882236001687,0.249992153837179,0.249997056079577,-0.247961487194004,0.25,-0.249942172454272,0.829665096713406,0.826524781599323,0.04,0.0853484280612576,395.745388053317,0.876692465292477,0.331683039522021
6637,0.249211180079296,-0.0583327982133773,-0.0585391294235551,-0.0579627156124975,0.249998871497171,-0.247742744983552,0.249998945896507,-0.248332081337851,0.825105709452054,0.812147115311428,0.04,0.0593077940387926,393.673328144901,0.828553484079612,0.349116295187275
6697,0.25,-0.249999132237909,-0.249638897120327,-0.24939412094608,0.25,-0.247606770095973,0.249998290642984,-0.247331213887103,0.810718856117534,0.797769449023534,0.04,0.0432372845543649,386.603920936656,0.726281734090046,0.391125209495696
6757,-0.0583333333212597,0.0583336659754682,-0.249861549035295,-0.249767631343578,-0.0583333209435326,-0.249082577443366,-0.0583339885868564,0.059355035370289,0.795618425841289,0.783391782735639,0.04,0.0303094165628924,379.553728939319,0.661629756285605,0.421514879414629
6817,-0.249999999980421,0.25,-0.249999954279735,-0.249999813482562,-0.249999979908431,-0.249999971199854,-0.25,0.249997838962722,0.779340710715158,0.769014116447744,0.04,0.0227667604285667,371.585471649632,0.578339587981485,0.472096173687672
6877,0.0583273139358496,0.25,-0.0728978327693346,0.0583334048316843,0.0583333174901592,-0.24999793194322,-0.25,0.249999171602377,0.733333900739987,0.754636450159849,0.04,0.0495977118755184,349.739533114555,0.628190468017121,0.409079823568594
6937,0.249990238802721,0.25,0.0371926751965904,0.25,0.249999961819013,-0.249996664297204,-0.25,0.25,0.733919685135388,0.740258783871955,0.04,0.0655193152841926,350.155630864725,0.704811150464151,0.365042159298228
6997,0.249996153526004,0.249999990081835,-0.13990845511368,0.249991048174796,0.24999957854183,-0.249998721313928,-0.25,0.0364731161310838,0.735681592573353,0.72588111758406,0.04,0.0572031136708083,350.979370623527,0.682160226586478,0.378050548856398
7057,0.249999830245884,0.24999998391649,-0.249998346928172,0.249985483526696,0.249999340288446,-0.25,-0.223546640126526,-0.0962598116793237,0.717678469533075,0.711503451296165,0.04,0.0581317540932429,342.226654465775,0.6209795052355,0.404940524477689
7117,0.249999926192945,0.249999736357809,0.0583272430187883,-0.0583369849240909,-0.0583221795442613,0.0583325738680721,0.0259833719119077,-0.179476833520385,0.695742920407388,0.69712578500827,0.04,0.0584182559344482,331.763385670277,0.60987686212723,0.399706281632006
7177,0.249999985835713,0.249999582469981,0.249989096229061,-0.24999689774485,-0.249981502683512,0.249998768434712,0.197540603100391,-0.133352600060781,0.68282029036546,0.682748118720376,0.04,0.0565657947335759,325.703081640692,0.626424074658108,0.382039355569023
7237,0.249999994570357,0.249999839946826,0.24998528881793,-0.249997819577262,-0.24999290676066,0.249976329303336,0.22987800128784,0.0583341082219506,0.664898420019469,0.668370452432481,0.04,0.0631766512689075,317.012031459167,0.624595427212065,0.372933692382993
7297,0.25,0.25,0.249982922048849,-0.249998392608221,-0.24999999578159,0.249962380654102,0.249979627188147,0.25,0.654976953544036,0.653992786144586,0.04,0.0649928685856476,312.432150869497,0.64233657715089,0.357394398761497
7357,0.249979511002514,0.249874956276402,-0.0583398798812747,0.0583243596977207,-0.249920478962236,0.249985579250739,0.249922924800712,0.223922377606042,0.647514350230316,0.648481347400893,0.04,0.0661155901741311,308.918904804259,0.63784707886247,0.355862800232006
7417,0.249966774598671,0.249797226394165,-0.25,0.249984448968982,-0.249871049588044,0.25,0.249887677370684,0.207711963685474,0.647411930566044,0.648481347400893,0.04,0.0619353773305423,308.87453113406,0.642762134868275,0.353090872354993
7477,0.249974940171497,0.249921715238239,-0.249998669380093,0.249982635255583,-0.249668546329,-0.00128977349328909,-0.00455189734613673,0.233572104926173,0.657707931113254,0.648481347400893,0.04,0.0456053290494121,313.731607072507,0.620023180983114,0.37179626579382
7537,0.249980016068119,0.249999100195366,-0.249997842237989,0.249981507812119,-0.24954266592473,-0.157496929989117,-0.00215520974305811,0.24964732785958,0.650396696896533,0.648481347400893,0.04,0.0420063259976977,310.270170235133,0.595670783119437,0.382726383126941
7597,-0.0583409938405545,-0.0546636218950928,0.0583341604754377,0.24998028790268,-0.24982468860448,-0.214540489829162,0.0583220082920911,0.249834491926882,0.650654346036585,0.648481347400893,0.04,0.0257106084973995,310.275307877265,0.588237987910645,0.387568814080014
7657,-0.25,-0.244048557248621,0.25,0.249979529580596,-0.25,-0.25,0.249979758298552,0.249950837157907,0.650672266540662,0.648481347400893,0.04,0.0219641120296493,310.508123906411,0.573714622041256,0.39767814541221
7717,0.0583333333333334,0.0604258120056329,-0.00887273863636733,-0.0583355705604777,-0.249988152562943,-0.15805663319677,0.249992181948346,0.249981154243864,0.651095819731629,0.66131049744161,0.04,0.0209599456040136,310.791376671778,0.597246648962465,0.382357765393419
7777,0.25,0.249693663163683,-0.169793630221136,-0.249990903080605,-0.249980787939908,-0.100902648427194,0.249999904757678,0.25,0.672540910549954,0.682114524534665,0.04,0.0204472099890354,321.0948564947,0.66615410390196,0.354171260681252
7837,-0.058329734975438,0.249875044697797,-0.218877649713655,-0.249995141117231,-0.249980788542271,0.115370498748956,0.249999963490443,0.25,0.698394864861674,0.702918551627721,0.04,0.0184358198810696,333.451867241065,0.709045640789513,0.345552181180426
7897,-0.249994164825034,0.249987795381166,-0.249389337506302,-0.24999777557243,-0.249980788916713,0.249810563209807,0.25,0.25,0.717577591198583,0.723722578720776,0.04,0.0179568841239486,342.389720793107,0.732885005571975,0.343272930639894
7957,0.0583355701504034,0.249911078898122,0.0585674205150096,-0.249999147302765,-0.249844633699712,-0.0584059280705313,0.24999819361331,0.249999473477195,0.724479331090901,0.744526605813831,0.04,0.0258744687312316,345.717826498944,0.810687235240607,0.31334524984327
8017,0.25,0.249863390273528,0.249999999825554,-0.25,-0.249759996672927,-0.249999963190741,0.249997070724287,0.249999146179236,0.753778583028506,0.765330632906886,0.04,0.0320191620818543,359.867022039981,0.911355152178566,0.290140979716086
8077,0.25,0.249947632938186,0.0107749811876818,0.0582274563289212,-0.249905593611195,-0.249996971099533,0.249998614790968,0.24999967270204,0.778773147283995,0.786134659999941,0.04,0.038906155347507,371.740154598577,0.961149049104392,0.284186478752981
8137,0.25,0.25,-0.137932462830455,0.249828307560413,-0.249996099816064,-0.249995111150943,0.249999574616202,0.25,0.803490405342354,0.806938687092996,0.04,0.0442475599256441,383.535475510378,0.991357259565222,0.284269342973091
8197,0.25,-0.0583154637730709,0.101292555914992,0.249921191229423,-0.249892387074723,0.0583352073921383,0.0696199356437239,0.25,0.825571364682992,0.827742714186051,0.04,0.0486538548790144,394.042115738093,1.00614603607783,0.287763891560943
8257,0.25,-0.249971022334709,0.25,0.249978929726375,-0.249827916992267,0.25,-0.0425079480418704,0.25,0.839460319783005,0.835717591238389,0.04,0.0528792158980813,400.542252323533,1.00085538399372,0.294057108288743
8317,0.24997075517913,-0.24970939278073,0.249934195176876,0.24998161602073,-0.249934034847036,0.249998725337834,0.137871714581283,0.249999229292481,0.836870815961978,0.835717591238389,0.04,0.060850168617922,399.238934392316,0.982249060070099,0.298652353921699
8377,0.249952575966157,-0.249546758193122,0.249893289476016,0.249983285879383,-0.25,0.249997932980271,0.249999612968648,0.249998750204023,0.838915382315182,0.835717591238389,0.04,0.0629477180818038,400.270755903744,0.97289611429521,0.302302729745814
8437,0.249981302583282,-0.249826230969513,-0.0583430470449525,0.0513006628683694,-0.249999713044349,0.249989843579913,0.249999851637982,0.249999512627501,0.847596956075917,0.835717591238389,0.04,0.0515066073966644,404.46461524324,0.927065501710979,0.320571411320156
8497,0.249999159669603,-0.249999957289972,-0.249949418395825,-0.0722047514357743,-0.249999534666513,0.249984815033745,0.25,0.24999998656642,0.844345616810905,0.835717591238389,0.04,0.0455708832561917,402.774896572552,0.854730957043068,0.346248290088632
8557,0.249991366957653,0.0583333461641646,0.0583527219610888,0.126488178616287,-0.249999821622163,0.249471248763398,0.249999999998403,0.207472216824866,0.829459821429693,0.835717591238389,0.04,0.0644180902690663,395.642454171213,0.851939464722091,0.34123127329567
8617,0.249986522839414,0.249999994257277,0.24999999839917,0.25,-0.25,0.249152004865615,0.24999999999741,0.181036035634169,0.831723474941875,0.835717591238389,0.04,0.0679667371560012,396.864414006949,0.891257815771279,0.327185074090076
8677,0.249957231813198,0.0729784614552524,0.249999554636115,0.249995914088687,-0.249998588551544,0.249593925170113,0.249430326895797,0.0703235962876465,0.835325587169621,0.82793065248744,0.04,0.0602599133673485,398.503259005464,0.874693106899059,0.334757911496038
8737,0.249939023877983,-0.0370619508270869,0.249999278783405,0.249993374197871,-0.249997711164666,0.249868632386423,0.249076205778578,0.00150235020737552,0.821651044413827,0.81530318424266,0.04,0.0603198506524906,391.873242256195,0.824601310602028,0.349185551838241
8797,-0.058356598737471,0.139920068570816,0.249999721603646,-0.0583294328901577,-0.249998987202126,0.249949417481499,0.249645345718786,0.154742466605663,0.807378860276406,0.802675715997879,0.04,0.0530219027610941,385.122097603325,0.797091956210827,0.355013352838322
8857,-0.249999823606537,0.24993591846681,0.249999996870283,-0.249989556215149,-0.249999780414601,0.249999635243303,0.249999135411348,0.249999836258652,0.795794231428762,0.790048247753098,0.04,0.0471997516614717,379.551054400979,0.759210732126708,0.367335194236986
8917,-0.249999504561134,0.249975415262531,-0.0570539050468996,-0.249995977011305,-0.249999840834692,-0.0583331087617402,0.24999966857435,0.180445443394351,0.793703789386803,0.777420779508317,0.04,0.0248091665939096,378.697658395294,0.697881124005911,0.39871800180684
8977,-0.249999306235612,0.249999967324735,-0.247925249481905,-0.249999968317024,-0.249999878393126,-0.2499994090892,0.25,0.137208928911137,0.774635927975442,0.764793311263536,0.04,0.0146128861912902,369.272965430144,0.593706601544536,0.45701485030178
9037,-0.249986521254938,0.249999554914409,-0.249204678968064,-0.249999209881687,-0.249999930258723,0.0583334239700984,0.249999493916863,0.206763391618435,0.746503680013485,0.752165843018755,0.04,0.0234335149958402,355.873079742887,0.589289048732811,0.443732708546756
9097,-0.249978573834519,0.249999298551234,-0.25,-0.249998738421883,-0.2499999624995,0.249999779655608,0.249999179324643,0.249999949517566,0.74946892046069,0.756247822892759,0.04,0.0206690983461371,357.741214735333,0.638643172972257,0.41159053551042
9157,0.0583368417411039,0.249998656202451,0.0583330375508923,0.0583338169382781,-0.249999944707523,0.0762444432476538,0.24999968540778,0.249587154112855,0.739001956601763,0.770716757002763,0.04,0.0350058171427104,352.547255143061,0.749847784717359,0.345460900872232
9217,0.249992370342167,0.249998256904558,0.249999520352798,0.25,-0.249999933647645,-0.0317656307356691,0.25,0.249330551563981,0.768919275628978,0.785185691112767,0.04,0.0428443221636105,367.103712520094,0.897988506086978,0.300381149506768
9277,0.249996450873747,0.249997453966705,0.208046086424479,0.0487002084225779,0.0577358762716154,-0.166343237340231,0.25,0.249742857808771,0.793433576318441,0.799654625222771,0.04,0.04665255732579,378.710828151482,0.951488948097331,0.292454730696755
9337,0.249998987420406,0.249996954843174,0.181966924793361,-0.0764320944498736,0.249031109464669,-0.249999587391716,0.25,0.249999156285262,0.811910320881169,0.814123559332775,0.04,0.0514253525721014,387.493746879745,0.971495299361311,0.293074930884704
9397,0.249999610232552,0.200527085650626,0.223699964091738,0.124867696408247,-0.0585157058029431,-0.249999779539627,0.08296335188285,0.249999191953422,0.833918067247744,0.828592493442779,0.04,0.0490202017405246,398.035127962571,0.961727011017427,0.304105492605041
9457,0.249999997386048,0.169775545341745,0.249642123655594,0.249999998833565,-0.249693455834161,-0.249999898982924,-0.020870240189973,0.249999214125521,0.845194149309459,0.843061427552783,0.04,0.04822121317534,403.308029613885,0.932973224592668,0.317630621818515
9517,0.249999998997985,0.219204101503706,-0.05762114968641,0.248048791063699,-0.249791662828082,0.058006208304624,0.146107132685219,0.249999698432867,0.850412993606338,0.857530361662788,0.04,0.0490523557560612,405.810205998917,0.954753191739647,0.312310454671436
9577,0.25,0.24992996073952,-0.248622643926034,0.246835878125674,-0.249852710418897,0.249469464186073,0.249903877986014,0.249999999488786,0.868407149753039,0.871999295772792,0.04,0.0465082031882929,414.464253175333,0.990417343854793,0.307484705592228
9637,0.249959516241967,0.138564866611172,-0.249472013332425,0.246650075277296,-0.249943492746469,-0.0585243832332671,0.249961670454896,0.249998213487985,0.891473769685566,0.886468229882796,0.04,0.0366418807012538,425.504056722647,0.984605829347938,0.317538199972861
9697,0.249934350662649,0.0693379162070635,-0.249999999720181,0.246534576209385,-0.249999925004149,-0.249980018115559,0.24999759550312,0.249997103271271,0.903654513588179,0.9009371639928,0.04,0.0329093242103272,431.202885062931,0.953485370036967,0.33229384762828
9757,0.249974834420682,-0.127587132120626,-0.0689633684559491,0.248667636949587,-0.24999997125159,0.0582800123270704,0.249994844531199,-0.0583022404172059,0.918227790998589,0.915406098102804,0.04,0.0326877327250516,438.199002510821,0.941925312079882,0.341829542049299
9817,0.25,-0.25,0.0435729158434383,0.249993593625928,-0.25,0.249901112331948,0.249993134467572,-0.111158665699609,0.926187281852048,0.929875032212808,0.04,0.032761011343297,441.999796396177,0.961186587340726,0.337885102265968
9877,0.249999827045895,-0.0418864100434236,-0.0688349417963473,0.126810094018344,-0.249999749644711,0.24996209306058,0.249997340684005,0.0583533516188078,0.934992114050029,0.944343966322812,0.04,0.0341537696305929,446.088273248881,0.994117333927891,0.329714340412223
9937,0.249999719533884,0.0874814972268808,-0.138710096545403,0.050236567235251,-0.249999594018451,0.25,0.249999955359086,0.25,0.952214408982615,0.958812900432817,0.04,0.034907785859374,454.466347137889,1.0537876052202,0.316886195052025
9997,0.249999892487989,0.18769933504206,-0.207338870342405,-0.134909315893154,-0.249979699503817,-0.0581448611553254,0.249999881388126,0.25,0.97854706592546,0.973281834542821,0.04,0.0278211695067861,467.080933423868,1.05466611435572,0.325410695464677
10057,0.25,0.249996909900144,-0.25,-0.25,-0.249967332643369,-0.249694369441068,0.249999835406178,0.25,0.99016680666932,0.987750768652825,0.04,0.0272379360843634,472.472928520906,1.01903810845985,0.340675718456285
10117,0.25,0.24999119241508,-0.25,-0.249865821506821,-0.249987477313722,-0.249882841619076,0.249999936905701,-0.0583333333333333,1.00478994208097,0.993297193394993,0.04,0.0237986486566319,479.459281968169,0.981281174515754,0.359015285669982
10177,0.25,0.249987638302742,-0.25,-0.249782413254304,-0.249999999676373,-0.25,0.25,-0.249628280341834,0.999570817880672,0.993297193394993,0.04,0.024850389949833,476.843445583482,0.921576296951347,0.38018869389515
10237,-0.0583293643018125,0.249995254982594,-0.25,-0.249895904120693,-0.249999030348067,-0.25,0.25,0.0523624826378444,0.994492236368209,0.993297193394993,0.04,0.0236163463799381,474.483849316544,0.910787467317691,0.382788661031324
10297,-0.249993563732669,0.249999989675475,-0.25,-0.249966452497096,-0.249998427792633,-0.25,0.25,0.240317539412721,0.994604019922342,0.993297193394993,0.04,0.0225918751450583,474.54180246357,0.895679065670688,0.389293119618746
10357,-0.249862450102932,0.249999727448602,-0.25,0.0583461932094466,-0.0344997717451874,-0.25,0.0690647567140489,-0.0620449432251237,0.988569999214292,0.993297193394993,0.04,0.021220823453239,471.632380341063,0.909053727592056,0.381213909577683
10417,-0.249780947035799,0.249999564442708,-0.25,0.25,0.0994588522843059,-0.25,-0.0434085026258666,-0.25,0.99037467144487,0.993297193394993,0.04,0.0226101595597366,472.511993655097,0.929354924409883,0.373581970374208
10477,-0.249915790343758,0.249991643552023,0.058332684848878,0.25,0.192280911970082,0.0580345184690003,-0.167192042532525,-0.25,0.981087460234508,0.993297193394993,0.04,0.0385645955489138,468.001104495228,0.973271942163763,0.35331929138383
10537,-0.249999611859516,0.249986719755111,0.249998948403585,0.25,0.249981111234212,0.249515435355135,-0.244138567339366,-0.25,0.981011656153003,0.985792974715802,0.04,0.0467422344170266,468.02829907542,1.03278960991932,0.332977531471888
10597,-0.249995277039884,0.120768728750504,0.249999596888041,0.24956645239664,0.249992757371347,-0.0511511712248466,0.0574952822161527,0.0582890526701333,0.965711158752412,0.973623971452249,0.04,0.0521756675226173,460.61929966501,1.06217788441298,0.318639456200683
10657,-0.249992582422275,0.0404440316395317,0.25,0.249296949832388,0.249999996861999,-0.238052034774565,0.244997404912827,0.249928193519135,0.963135221601434,0.961454968188695,0.04,0.0554332647434503,459.487215827558,1.0809856456114,0.312326030750617
10717,0.0478829543937463,-0.138663073262994,0.25,-0.0586028358975844,-0.0583283219354564,-0.245412640017077,0.248081744316242,0.249972474182335,0.962376192951295,0.949285964925142,0.04,0.0522755876223805,459.135186951325,1.02842854394708,0.328035716023911
10777,0.233048828630733,-0.249999922256456,0.25,-0.25,-0.249991871458199,-0.249988151384044,0.249999036377824,0.25,0.947888763046126,0.937116961661589,0.04,0.0532807062793786,452.092880113984,0.94550923864624,0.351331077029156
10837,0.0606653953305106,-0.18895609532335,0.25,-0.25,-0.249986372718504,-0.24999545803055,0.248475032264846,0.25,0.933879077207669,0.924947958398036,0.04,0.0505318125423001,445.461564792682,0.891956772708741,0.366962010978689
10897,-0.0464918740182761,-0.151009932635203,0.25,-0.25,-0.249982954583018,-0.25,0.247527678356779,0.25,0.919925495481712,0.912778955134483,0.04,0.0469312325531897,438.7781852288,0.841080775216321,0.383320457265603
10957,0.136344781626327,0.0763519627432801,0.25,-0.25,-0.249993384262382,0.0583329352823995,-0.059274134878716,0.25,0.902571343925595,0.900609951870929,0.04,0.0565522415863981,430.502147357511,0.815694211060899,0.387795368740619
11017,0.25,0.217685032843418,0.25,-0.25,-0.24999986757658,0.249999354511999,-0.249988775538618,0.25,0.889489940918706,0.888440948607376,0.04,0.0599769409673034,424.287977090367,0.809283910682383,0.385225028052334
11077,0.249970588999645,0.237608503185106,0.25,0.0583333333333334,0.0583325505746109,0.249999752562933,-0.228561726630656,0.249989518973825,0.868799631062547,0.876271945343823,0.04,0.0719591203873448,414.328959565224,0.825109125087783,0.368967892488272
11137,0.249952306485911,0.249993363127236,0.25,0.25,0.24999864834427,0.25,-0.160758462126735,0.249983003741337,0.858725014122036,0.86410294208027,0.04,0.0740382366362151,409.656727252393,0.873901951496844,0.344438792628309
11197,0.249981717486266,0.0707738958552168,-0.0583333333333334,0.25,0.249999481865304,0.0272735076639939,-0.0861033850901383,0.166100792851619,0.862816740077384,0.851933938816716,0.04,0.0535312872943058,411.702231000722,0.853695765201607,0.354351903162262
11257,0.25,-0.040632800016579,-0.25,0.25,0.25,-0.11117809568001,-0.0407337532956319,0.113957796893146,0.848455116103576,0.839764935553163,0.04,0.046028491044681,404.620951015878,0.774247804567046,0.383992781398895
11317,0.25,0.138472208720128,-0.25,0.249998921584805,0.249982441859014,-0.196784580522129,-0.0192409075164172,0.197850488809039,0.828274350980485,0.82759593228961,0.04,0.0503468159581976,395.031612429685,0.753691620748859,0.385117133813797
11377,0.25,0.249807754691594,-0.25,0.249998251218602,0.249971527338942,-0.249999422451013,-0.00908845421589738,0.25,0.816252034800693,0.815426929026057,0.04,0.0508835914421363,389.352770347803,0.753586470681769,0.3796337829471
11437,0.249999997461028,0.249891551297275,-0.249994279908387,0.249998630527833,0.249989085479928,-0.249999778606222,-0.00429279760132832,0.249975548952735,0.804976429032081,0.803257925762504,0.04,0.0504841108631931,383.959616610826,0.743670654928178,0.379367026861226
11497,0.249999995882749,0.249943641079185,-0.249990724175762,0.249998866314652,0.25,-0.25,-0.00202750056590075,0.249960349653083,0.792906122034724,0.79108892249895,0.04,0.0509090497177323,378.198819167659,0.73223789173989,0.379509494860038
11557,-0.0581678529146275,0.0963383823354068,0.0583368871078266,0.249996896669517,0.249999911474682,-0.249999265818443,0.15358349055853,-0.00095745509121377,0.785642144139658,0.778919919235397,0.04,0.0450179389501469,374.664466634358,0.706713097454984,0.38954177826541
11617,-0.249731650815699,0.000854032305490819,0.249999996824652,0.249995672295514,0.249999856445431,-0.249998809435313,0.249999655396192,-0.000475726019997523,0.768266347125409,0.766750915971844,0.04,0.0410108476573175,366.432500935923,0.699267465341421,0.38503954954185
11677,-0.249879260612729,0.154494045717105,0.24999988124098,0.249946108728248,0.24975986186026,-0.249999489645699,0.24999588349679,0.074254926415396,0.751266270184066,0.754581912708291,0.04,0.0484159560523065,358.078085373084,0.699781570442612,0.375984479976953
11737,-0.249971018054126,0.25,0.24999980939167,0.24991529894319,0.249610676037046,-0.249999912479182,0.249993538802566,0.25,0.73976270745058,0.742412909444738,0.04,0.0517879913688836,352.908910877004,0.738123250177521,0.351308303784734
11797,-0.00164747011855809,-0.0583279358558418,0.249999926933474,0.249967531261556,-0.0584825741242141,-0.231922966775681,-0.000241372836758896,0.25,0.743337775237912,0.730243906181184,0.04,0.0375639106944749,354.453730174712,0.698516173168132,0.372853102625974
11857,0.152715816435984,-0.249991247333798,0.25,0.25,-0.249999999900133,-0.220685946473504,-0.0054623033167267,0.25,0.723555773354294,0.718074902917631,0.04,0.0359643890484051,345.072040963469,0.649371578191537,0.390455165249835
11917,0.212707619130686,0.0583366885220444,-0.0583333317889495,0.0349868631908669,-0.249999999961718,0.069398380668513,-0.0129712939583104,0.25,0.707798384408058,0.705905899654078,0.04,0.0409445139906816,337.579073252541,0.630679351441289,0.39329785744553
11977,0.249999820805772,0.25,-0.249999997495594,-0.0986699515823781,-0.25,0.249721070513551,-0.0133824299147022,0.25,0.69641758720656,0.693736896390525,0.04,0.0446756617276805,332.174954902475,0.618145613336256,0.394848751723419
12037,0.0256820535426884,0.249993741686656,0.0583333342933557,-0.191990148106578,-0.249998041422295,-0.0584383575818424,0.0584617130102878,0.249918052191094,0.6878694554348,0.681567893126972,0.04,0.0365635897456241,327.911819145872,0.589337036762275,0.408834946736989
12097,-0.113758720701931,0.249989851383767,0.25,-0.25,-0.249996823928045,-0.249996920992492,0.25,0.249867111661233,0.672058468962561,0.669398889863418,0.04,0.0330450834175198,320.552019548605,0.57705655273725,0.408164112118063
