time,bias_percent_1,bias_percent_2,bias_percent_3,bias_percent_4,bias_percent_5,bias_percent_6,bias_percent_8,bias_percent_9,normalized_power,power_SP,SP,CV,total_power_MW,fuel_fraction,thermal_efficiency
47,0,0,0,0,0,0,0,0,0.999783844525773,1,0.04,0.039922135298552,477.000601631074,0.999930918840599,0.350512576893781
107,-0.00839242409124188,0.0210576360942417,0.0193368650937797,0.00311766445893545,0.00385334833558784,0.00988180598063639,0.00708841781657173,0.0101863849150421,0.991855569840648,0.988936877915444,0.04,0.0441234962456675,473.110555223364,0.987290466183194,0.352105144463684
167,-0.0191061569736783,0.0479397247251886,0.0440222247879667,0.0070976616405552,0.00877251642357214,0.0224968774452785,0.0161374618377271,0.0231902805512661,0.97802436954723,0.974813743339415,0.04,0.0488998947891295,466.502307717388,0.967360387597584,0.354339993810257
227,-0.0298198898561147,0.0748218133561355,0.0687075844821536,0.011077658822175,0.0136916845115566,0.0351119489099207,0.0251865058588825,0.0361941761874901,0.963748905113002,0.960690608763386,0.04,0.0522289957503956,459.689846939327,0.948031761283784,0.356284312578798
287,-0.0405336227385511,0.101703901987082,0.0933929441763405,0.0150576560037947,0.018610852599541,0.0477270203745628,0.034235549880038,0.0491980718237142,0.949433908697364,0.946567474187356,0.04,0.0545307683835184,452.861294933614,0.929770035874238,0.357885690774203
347,-0.0512473556209875,0.128585990618029,0.118078303870527,0.0190376531854143,0.0235300206875254,0.0603420918392048,0.0432845939011934,0.0622019674599382,0.935159549838869,0.932444339611327,0.04,0.0561534179968964,446.051223964868,0.912476818022616,0.359184487395383
407,-0.0619610885034239,0.155468079248976,0.142763663564714,0.0230176503670341,0.0284491887755098,0.072957163303847,0.0523336379223488,0.0752058630961621,0.920909719641308,0.918321205035298,0.04,0.057322221983311,439.252801569433,0.89599060482226,0.360218290328755
467,-0.0726748213858604,0.182350167879923,0.167449023258901,0.0269976475486538,0.0333683568634941,0.0855722347684892,0.0613826819435043,0.0882097587323862,0.90667977057631,0.904198070459269,0.04,0.0581710298975754,432.463839901176,0.880184484089077,0.361019589361807
527,-0.0833885542682967,0.20923225651087,0.192134382953088,0.0309776447302737,0.0382875249514786,0.0981873062331314,0.0704317259646597,0.10121365436861,0.892466888696159,0.89007493588324,0.04,0.0587825888216932,425.68299839059,0.864950440251538,0.361617764596227
587,-0.0941022871507331,0.236114345141816,0.216819742647275,0.0349576419118935,0.043206693039463,0.110802377697773,0.0794807699858151,0.114217550004834,0.878267958836081,0.875951801307211,0.04,0.0592084209757032,418.908784809517,0.850198015519704,0.36203791680726
647,-0.104816020033169,0.262996433772763,0.241505102341462,0.0389376390935131,0.0481258611274474,0.123417449162416,0.0885298140069705,0.127221445641058,0.864079076989609,0.861828666731181,0.04,0.0594794511508668,412.139332009333,0.835858556452829,0.362298008319642
707,-0.115529752915606,0.28987852240371,0.266190462035649,0.042917636275133,0.0530450292154319,0.136032520627058,0.0975788580281259,0.140225341277282,0.849895759594287,0.847705532155152,0.04,0.0596129648622582,405.372493717299,0.821889248347558,0.36240622899325
767,-0.126243485798042,0.316760611034657,0.290875821729836,0.0468976334567526,0.0579641973034162,0.1486475920917,0.106627902049281,0.153229236913506,0.835181725857228,0.833582397579123,0.04,0.0600187157389326,398.343914590617,0.8096776454876,0.361493684458392
827,-0.136957218680479,0.343642699665604,0.315561181424023,0.0508776306383725,0.0628833653914006,0.161262663556342,0.115676946070437,0.16623313254973,0.820091698609425,0.819459263003094,0.04,0.0609573196507192,391.147801770082,0.803417542599548,0.357729091714676
887,-0.147670951562915,0.370524788296551,0.34024654111821,0.0548576278199921,0.067802533479385,0.173877735020984,0.124725990091592,0.179237028185954,0.805505069750644,0.805336128427065,0.04,0.062424572124834,384.192216193754,0.800981878946572,0.352436230110249
947,-0.14999226035411,0.376349240833256,0.345595035718617,0.0557199605426764,0.0688683532317817,0.17661100050499,0.126686616296176,0.182054538907136,0.798620921611776,0.802276115935592,0.04,0.0590339637245542,381.013861978268,0.815877070930969,0.343139508290346
1007,-0.14999226035411,0.376349240833256,0.345595035718617,0.0557199605426764,0.0688683532317816,0.17661100050499,0.126686616296176,0.182054538907136,0.798981675682418,0.802276115935592,0.04,0.0554503243005456,381.20244570354,0.837346613180595,0.334506904595564
1067,-0.14999226035411,0.376349240833256,0.345595035718617,0.0557199605426764,0.0688683532317817,0.17661100050499,0.126686616296176,0.182054538907136,0.800023687309512,0.802276115935592,0.04,0.0543334001328005,381.698688150979,0.852924268565862,0.328825032637958
1127,-0.14999226035411,0.376349240833256,0.345595035718617,0.0557199605426763,0.0688683532317816,0.17661100050499,0.126686616296176,0.182054538907136,0.80080860465361,0.802276115935592,0.04,0.0543997373850175,382.070826726401,0.863186074908796,0.32523264325392
1187,-0.14999226035411,0.376349240833256,0.345595035718617,0.0557199605426764,0.0688683532317816,0.17661100050499,0.126686616296176,0.182054538907136,0.801322796640331,0.802276115935592,0.04,0.0548226110090493,382.314332423661,0.869845662038191,0.322948337902412
1247,-0.14999226035411,0.376349240833256,0.345595035718617,0.0557199605426764,0.0688683532317817,0.17661100050499,0.126686616296176,0.182054538907136,0.801650284826946,0.802276115935592,0.04,0.0552637018696264,382.469404389402,0.874198236155631,0.321470739984921
1307,-0.14999226035411,0.376349240833256,0.345595035718617,0.0557199605426764,0.0688683532317817,0.17661100050499,0.126686616296176,0.182054538907136,0.801859808268286,0.802276115935592,0.04,0.0556208477916524,382.5686388732,0.877079766808263,0.320497723898502
1367,-0.14999226035411,0.376349240833256,0.345595035718617,0.0557199605426764,0.0688683532317816,0.17661100050499,0.126686616296176,0.182054538907136,0.801996060844764,0.802276115935592,0.04,0.0558832196912973,382.633190333936,0.879010847195292,0.319847588535922
1427,-0.14999226035411,0.376349240833256,0.345595035718617,0.0557199605426763,0.0688683532317816,0.17661100050499,0.126686616296176,0.182054538907136,0.802086244409801,0.802276115935592,0.04,0.0560676730999294,382.675927817998,0.880316767305245,0.31940877724044
1487,-0.14999226035411,0.376349240833256,0.345595035718617,0.0557199605426764,0.0688683532317817,0.17661100050499,0.126686616296176,0.182054538907136,0.802146770022698,0.802276115935592,0.04,0.0561947854083246,382.704615796535,0.881205052056292,0.31911072320485
1547,-0.14999226035411,0.376349240833256,0.345595035718617,0.0557199605426764,0.0688683532317817,0.17661100050499,0.126686616296176,0.182054538907136,0.802187754756306,0.802276115935592,0.04,0.0562816535750974,382.724043966132,0.881811335289958,0.318907509512018
1607,-0.14999226035411,0.376349240833256,0.345595035718617,0.0557199605426763,0.0688683532317816,0.17661100050499,0.126686616296176,0.182054538907136,0.802215644864485,0.802276115935592,0.04,0.0563408433200993,382.737265588108,0.882226005142554,0.318768626272189
1667,-0.14999226035411,0.376349240833256,0.345595035718617,0.0557199605426764,0.0688683532317816,0.17661100050499,0.126686616296176,0.182054538907136,0.802234669672193,0.802276115935592,0.04,0.056381142529473,382.746284738852,0.882510061184282,0.318673532621978
1727,-0.14999226035411,0.376349240833256,0.345595035718617,0.0557199605426763,0.0688683532317816,0.17661100050499,0.126686616296176,0.182054538907136,0.802247660387311,0.802276115935592,0.04,0.0564085762000319,382.752443364126,0.882704955828139,0.318608298415231
1787,-0.14999226035411,0.376349240833256,0.345595035718617,0.0557199605426763,0.0688683532317816,0.17661100050499,0.126686616296176,0.182054538907136,0.802256534301445,0.802276115935592,0.04,0.0564272474410853,382.756650300074,0.882838951124696,0.318563442148014
1847,-0.127155571579107,0.344658080933497,0.334528358055852,0.0328297508239968,0.0608711037536843,0.177002360333904,0.0999776477640801,0.157040175010953,0.805329505450246,0.80438259919409,0.04,0.0535403478866919,384.251663026645,0.880013345700618,0.320834581951787
1907,-0.0980023518663381,0.304201281061463,0.320400684443811,0.00360820650227822,0.0506618491007944,0.177501968626135,0.065881092191192,0.125106944505186,0.808698128639704,0.807071726758131,0.04,0.0503774759579153,385.855339688683,0.871331264436462,0.325383775147412
1967,-0.068849132153569,0.26374448118943,0.306273010831771,-0.0256133378194404,0.0404525944479043,0.178001576918366,0.0317845366183038,0.09317371399942,0.811755974655599,0.809760854322171,0.04,0.0470190841257163,387.296570016698,0.860058709998471,0.330879780270346
