time,bias_percent_1,bias_percent_2,bias_percent_3,bias_percent_4,bias_percent_5,bias_percent_6,bias_percent_8,bias_percent_9,normalized_power,power_SP,SP,CV,total_power_MW,fuel_fraction,thermal_efficiency
14,0,0,0,0,0,0,0,0,0.999633628841516,1,0.04,0.040196590831846,476.847368431528,0.998705057546507,0.350830075834518
74,0.00464730301526731,0.0061768973155398,-0.00778652022549352,-0.00597359799415415,0.0033849307150025,-0.00210531402237109,-0.0048522705589105,-0.0012684735791226,0.998544024373423,0.995316230643481,0.04,0.0406818449380966,476.32240609395,0.994089176013505,0.352071071738797
134,0.0245643159378412,0.0326493143821391,-0.0411573211918942,-0.0315747322548142,0.0178917766364416,-0.0111280884039614,-0.0256477158113842,-0.00670478891821927,0.982382408822663,0.975242933401256,0.04,0.0458393920904344,468.541335889297,0.954004047965897,0.360871321735287
194,0.0444813288604153,0.0591217314487383,-0.0745281221582948,-0.0571758665154742,0.0323986225578808,-0.0201508627855519,-0.0464431610638579,-0.0121411042573161,0.96232746953336,0.95516963615903,0.04,0.048948804280547,458.963631437568,0.90952111503662,0.370783298404709
254,0.0643983417829892,0.0855941485153373,-0.107898923124696,-0.0827770007761345,0.0469054684793198,-0.0291736371671424,-0.0672386063163316,-0.0175774195964128,0.941801759223623,0.935096338916805,0.04,0.0497217096430725,449.171056879336,0.867419224659179,0.380484874669565
314,0.0843153547055631,0.112066565581937,-0.141269724091096,-0.108378135036795,0.0614123144007589,-0.038196411548733,-0.0880340515688054,-0.0230137349355095,0.92142146498481,0.91502304167458,0.04,0.049189164534469,439.45064032535,0.827444015028654,0.390234946448232
374,0.104232367628137,0.138538982648536,-0.174640525057497,-0.133979269297455,0.075919160322198,-0.0472191859303233,-0.108829496821279,-0.0284500502746063,0.901029455298907,0.894949744432355,0.04,0.0479690758336969,429.721373183678,0.78928181990916,0.400045630910419
434,0.124149380550711,0.165011399715135,-0.208011326023898,-0.159580403558115,0.0904260062436372,-0.0562419603119137,-0.129624942073753,-0.033886365613703,0.880353640729031,0.87487644719013,0.04,0.0462344992595135,419.998278836764,0.753674040590504,0.40946673936973
494,0.144066393473285,0.191483816781734,-0.241382126990298,-0.185181537818775,0.104932852165076,-0.0652647346935041,-0.150420387326226,-0.0393226809527998,0.86017551108075,0.854803149947905,0.04,0.0444009698248396,410.212523426071,0.719814490127641,0.418738609187787
554,0.163983406395859,0.217956233848333,-0.274752927956699,-0.210782672079435,0.119439698086515,-0.0742875090750945,-0.1712158325787,-0.0447589962918965,0.83953029755692,0.834729852705679,0.04,0.0423209526577531,400.482562536786,0.689125363313553,0.427011973588731
