time,bias_percent_1,bias_percent_2,bias_percent_3,bias_percent_4,bias_percent_5,bias_percent_6,bias_percent_8,bias_percent_9,normalized_power,power_SP,SP,CV,total_power_MW,fuel_fraction,thermal_efficiency
55,0,0,0,0,0,0,0,0,0.999838042475392,1,0.04,0.0399063598158726,477.025422217799,1.00002945907389,0.350496275342325
115,-0.0137986489056128,-0.00959111842171092,-0.000556948520048309,0.00373039384042545,0.0257802085371274,0.0252594518806512,0.0045124081436021,0.00685014648579329,0.981581485455436,0.973598889785489,0.04,0.0474203390790433,468.101022100398,0.961212173630004,0.357828562074923
175,-0.0288517204390088,-0.0200541566999412,-0.00116452872373759,0.00779991439361675,0.0539040723958117,0.0528152175686344,0.00943503520934979,0.0143230335612042,0.953159869342697,0.944797678642386,0.04,0.0543351312442348,454.595767649364,0.90875111023538,0.367565811884144
235,-0.0439047919724047,-0.0305171949781715,-0.00177210892742687,0.011869434946808,0.082027936254496,0.0803709832566175,0.0143576622750975,0.0217959206366149,0.924000486541094,0.915996467499283,0.04,0.0582070438178551,440.606773117998,0.857932158123346,0.377357423774376
295,-0.0589578635058006,-0.0409802332564017,-0.00237968913111592,0.0159389554999993,0.11015180011318,0.107926748944601,0.0192802893408452,0.0292688077120258,0.894593593525789,0.887195256356179,0.04,0.0598703332777337,426.576854302176,0.810868105895588,0.386546499794245
355,-0.0740109350391965,-0.0514432715346319,-0.00298726933480521,0.0200084760531906,0.138275663971865,0.135482514632584,0.024202916406593,0.0367416947874367,0.865212613470923,0.858394045213076,0.04,0.0601464758857702,412.559445145472,0.767344186181982,0.395049033464862
415,-0.0890640065725923,-0.0619063098128621,-0.00359484953849437,0.024077996606382,0.166399527830549,0.163038280320567,0.0291255434723406,0.0442145818628475,0.83586876162838,0.829592834069973,0.04,0.0595785034695115,398.55984108558,0.727157819022525,0.402735149277874
475,-0.104117078105988,-0.0723693480910924,-0.00420242974218354,0.0281475171595732,0.194523391689233,0.19059404600855,0.0340481705380884,0.0516874689382583,0.806577412735517,0.80079162292687,0.04,0.058556956021903,384.585425014858,0.690028976501333,0.409524764379709
535,-0.119170149639384,-0.0828323863693225,-0.00481000994587282,0.0322170377127646,0.222647255547918,0.218149811696533,0.038970797603836,0.0591603560136692,0.777345214774427,0.771990411783767,0.04,0.0573821381853292,370.639129573765,0.655601234992872,0.415399701915219
595,-0.13422322117278,-0.0932954246475527,-0.00541759014956187,0.0362865582659559,0.250771119406602,0.245705577384516,0.0438934246695838,0.06663324308908,0.748148345726718,0.743189200640664,0.04,0.0562071291078411,356.709532044997,0.623609118534096,0.420297623291581
655,-0.149276292706176,-0.103758462925783,-0.00602517035325116,0.0403560788191472,0.278894983265286,0.273261343072499,0.0488160517353315,0.0741061301644909,0.718988314860561,0.714387989497561,0.04,0.0550877239918287,342.797761576737,0.593855893105706,0.424142296112792
715,-0.164329364239572,-0.114221501204013,-0.00663275055694032,0.0444255993723386,0.307018847123971,0.300817108760483,0.0537386788010792,0.0815790172399017,0.689699457212856,0.685586778354458,0.04,0.0545438407493805,328.819534492251,0.566418045070014,0.426555165658199
775,-0.179382435772968,-0.124684539482243,-0.00724033076062949,0.0484951199255299,0.335142710982655,0.328372874448466,0.0586613058668269,0.0890519043153126,0.660257719292315,0.656785567211354,0.04,0.055095720204021,314.776548718739,0.543041511201674,0.425916060119158
835,-0.194435507306364,-0.135147577760474,-0.00784791096431871,0.0525646404787212,0.363266574841339,0.355928640136449,0.0635839329325746,0.0965247913907234,0.631179439599507,0.627984356068251,0.04,0.0566343110003814,300.90542792748,0.52199654229396,0.423562079601233
895,-0.20948857883976,-0.145610616038704,-0.00845549116800788,0.0566341610319126,0.391390438700024,0.383484405824432,0.0685065599983224,0.103997678466134,0.602285351384344,0.599183144925148,0.04,0.0590510641018562,287.121011717697,0.501812425032645,0.420415037461544
