time,bias_percent_1,bias_percent_2,bias_percent_3,bias_percent_4,bias_percent_5,bias_percent_6,bias_percent_8,bias_percent_9,normalized_power,power_SP,SP,CV,total_power_MW,fuel_fraction,thermal_efficiency
13,0,0,0,0,0,0,0,0,0.999772472668643,1,0.04,0.0401663321013334,476.925204320287,0.998543460986245,0.350944126792987
73,-0.00510344269274538,-0.00296794283711688,-0.00273040050839859,0.00726007669970045,0.00436204387232578,-0.00503193910333584,-5.89473066743835e-05,-0.00147947154062666,0.996316895994923,0.989113348565898,0.04,0.0419540005262916,475.130623387697,0.987109883547231,0.353673238075378
133,-0.0286577935823396,-0.0166661405468869,-0.0153322490086996,0.0407681230060103,0.0244945540522909,-0.0282562734264243,-0.000331011799017745,-0.00830780172813428,0.955387814688048,0.938867265023889,0.04,0.0556697903680531,455.429354292615,0.894139524580786,0.374257405573139
193,-0.0522121444719338,-0.0303643382566571,-0.0279340975090006,0.0742761693123201,0.0446270642322561,-0.051480607749513,-0.000603076291361049,-0.0151361319156419,0.904974523164282,0.88862118148188,0.04,0.0655497416544187,431.353781508702,0.791936358144299,0.400219277750188
253,-0.075766495361528,-0.0440625359664272,-0.0405359460093015,0.10778421561863,0.0647595744122211,-0.0747049420726015,-0.00087514078370441,-0.0219644621031496,0.853372394478679,0.83837509793987,0.04,0.0698805002442055,406.73395374397,0.6966714523738,0.428980044493999
313,-0.0993208462511221,-0.0577607336761972,-0.0531377945096025,0.14129226192494,0.0848920845921864,-0.0979292763956899,-0.00114720527604777,-0.0287927922906572,0.801800972101093,0.788129014397861,0.04,0.069938487478202,382.128987062548,0.609394041959481,0.460751179402279
373,-0.122875197140716,-0.0714589313859674,-0.0657396430099036,0.17480030823125,0.105024594772151,-0.121153610718779,-0.0014192697683911,-0.0356211224781648,0.750145082462284,0.737882930855852,0.04,0.0662579772452478,357.715291786996,0.531217008791871,0.494789198511846
433,-0.146429548030311,-0.0851571290957374,-0.0783414915102046,0.20830835453756,0.125157104952116,-0.144377945041867,-0.00169133426073446,-0.0424494526656724,0.698809517690822,0.687636847313843,0.04,0.0598743467102924,333.206465517559,0.460835955335273,0.531277886889727
493,-0.169983898919905,-0.0988553268055076,-0.0909433400105056,0.241816400843869,0.145289615132082,-0.167602279364956,-0.00196339875307777,-0.0492777828531801,0.647370175254808,0.637390763771833,0.04,0.0521252111192352,308.680903063405,0.398252635190458,0.569515804066052
553,-0.193538249809499,-0.112553524515278,-0.103545188510807,0.275324447150179,0.165422125312047,-0.190826613688044,-0.00223546324542112,-0.0470903693342912,0.595336024364678,0.587144680229824,0.04,0.0446938264344463,284.011928900405,0.343574741161321,0.607393345717997
