time,bias_percent_1,bias_percent_2,bias_percent_3,bias_percent_4,bias_percent_5,bias_percent_6,bias_percent_8,bias_percent_9,normalized_power,power_SP,SP,CV,total_power_MW,fuel_fraction,thermal_efficiency
56,0,0,0,0,0,0,0,0,0.999843685218609,1,0.04,0.0399048976392902,477.028029945053,1.00004001208313,0.350494492717356
116,-0.0198576877068564,0.022832727507197,0.000115963468026393,-0.0238170038176224,-0.0177074565624448,0.00505341036658774,0.0280625979081862,-0.00946754313216638,0.998759870798082,0.997961432803907,0.04,0.0401721768307495,476.493730247896,0.996496607752326,0.351346832164639
176,-0.0411337816784879,0.047296364122051,0.000240210040912075,-0.0493352221936465,-0.0366797314507784,0.0104677786165033,0.0581296670955286,-0.0196113393452019,0.996732284117509,0.995777253665235,0.04,0.0404043445843571,475.524003293943,0.990837084360313,0.35263455545715
236,-0.0624098756501199,0.071760000736905,0.000364456613797529,-0.0748534405696707,-0.0556520063391122,0.0158821468664188,0.088196736282871,-0.0297551355582373,0.994563724404551,0.993593074526564,0.04,0.0403866433575245,474.488917639676,0.984907442361235,0.353985383989536
296,-0.0836859696217516,0.0962236373517588,0.000488703186682869,-0.100371658945695,-0.0746242812274459,0.0212965151163343,0.118263805470213,-0.0398989317712728,0.99235797064585,0.991408895387893,0.04,0.0402016410294829,473.436361985037,0.979047660256267,0.355314108981519
356,-0.104962063593383,0.120687273966613,0.000612949759568551,-0.125889877321719,-0.0935965561157796,0.0267108833662497,0.148330874657556,-0.0500427279843082,0.990133141070389,0.989224716249221,0.04,0.0399272512560338,472.375130150968,0.97339960482506,0.356574708029147
416,-0.126238157565015,0.145150910581467,0.000737196332453891,-0.151408095697743,-0.112568831004113,0.0321252516161652,0.178397943844898,-0.0601865241973438,0.987903863244116,0.98704053711055,0.04,0.0396179731809841,471.311178465576,0.968007219275552,0.357753441649935
476,-0.147514251536647,0.169614547196321,0.000861442905339459,-0.176926314073767,-0.131541105892447,0.0375396198660807,0.20846501303224,-0.0703303204103792,0.985672285633293,0.984856357971878,0.04,0.0393067322387826,470.246519139977,0.962906910126389,0.35883596326813
536,-0.168790345508279,0.194078183811175,0.000985689478225027,-0.202444532449791,-0.15051338078078,0.0429539881159963,0.238532082219583,-0.0804741166234147,0.983446185488093,0.982672178833207,0.04,0.0390162784792109,469.18450627964,0.95807148300591,0.35983253201935
596,-0.19006643947991,0.218541820426029,0.00110993605111048,-0.227962750825815,-0.169485655669114,0.0483683563659116,0.268599151406925,-0.0906179128364501,0.981228651767017,0.980487999694535,0.04,0.038759221452594,468.126592308894,0.953454498228738,0.360759699535816
656,-0.211342533451542,0.243005457040883,0.00123418262399605,-0.253480969201839,-0.188457930557448,0.0537827246158271,0.298666220594268,-0.100761709049486,0.97901833383567,0.978303820555864,0.04,0.0385392965913292,467.072083074468,0.949006825009479,0.361633996396233
716,-0.232618627423174,0.267469093655737,0.00135842919688139,-0.278999187577863,-0.207430205445782,0.0591970928657425,0.32873328978161,-0.110905505262521,0.976807483981629,0.976119641417193,0.04,0.0383502849911609,466.017242255999,0.944713006104071,0.362457230202807
776,-0.253894721394806,0.291932730270591,0.00148267576976707,-0.304517405953887,-0.226402480334115,0.0646114611156581,0.358800358968953,-0.121049301475556,0.97458683448266,0.973935462278521,0.04,0.038178226476675,464.957666603228,0.940614317240094,0.363208918916656
836,-0.275170815366438,0.316396366885445,0.00160692234265252,-0.330035624329911,-0.245374755222449,0.0700258293655736,0.388867428156295,-0.131193097688592,0.972352791467797,0.97175128313985,0.04,0.0380097136561546,463.891702460735,0.936787321946741,0.36385661605816
896,-0.296446909338069,0.340860003500299,0.00173116891553798,-0.355553842705935,-0.264347030110783,0.075440197615489,0.418934497343637,-0.141336893901627,0.970107458847375,0.969567104001179,0.04,0.0378383906998158,462.820381371115,0.933305958799634,0.364370420243476
956,-0.297865315602845,0.342490912607955,0.00173945202039704,-0.357255057264337,-0.265611848436672,0.0758011554988167,0.420938968622793,-0.142013146982497,0.968927932933774,0.969421492058601,0.04,0.0372764496258849,462.272073650129,0.934668677584904,0.363408135396973
1016,-0.297865315602845,0.342490912607956,0.00173945202039704,-0.357255057264337,-0.265611848436672,0.0758011554988168,0.420938968622794,-0.142013146982496,0.968666410572174,0.969421492058601,0.04,0.0368366812799064,462.149487681299,0.938790279758549,0.361716706583232
1076,-0.297865315602845,0.342490912607955,0.00173945202039704,-0.357255057264337,-0.265611848436672,0.0758011554988167,0.420938968622794,-0.142013146982496,0.968568001991097,0.969421492058601,0.04,0.0367189816311135,462.103448021309,0.943766525854966,0.359773619904673
1136,-0.297865315602845,0.342490912607956,0.00173945202039704,-0.357255057264337,-0.265611848436672,0.0758011554988167,0.420938968622794,-0.142013146982496,0.968568032199999,0.969421492058601,0.04,0.0368602478976674,462.104129712036,0.948929410762965,0.357816710484664
1196,-0.297865315602845,0.342490912607956,0.00173945202039704,-0.357255057264337,-0.265611848436672,0.0758011554988167,0.420938968622793,-0.142013146982497,0.968638992162521,0.969421492058601,0.04,0.0371838330114921,462.138443416512,0.953798787539069,0.356016402565776
1256,-0.297865315602845,0.342490912607955,0.00173945202039704,-0.357255057264337,-0.265611848436672,0.0758011554988167,0.420938968622793,-0.142013146982496,0.968755377910712,0.969421492058601,0.04,0.0376182313337128,462.194235670809,0.958050754695504,0.354479140305695
1316,-0.297865315602845,0.342490912607956,0.00173945202039704,-0.357255057264337,-0.265611848436672,0.0758011554988168,0.420938968622793,-0.142013146982497,0.968894472750597,0.969421492058601,0.04,0.038101964263166,462.260697013104,0.961504310549021,0.353256702371726
1376,-0.297865315602845,0.342490912607956,0.00173945202039704,-0.357255057264337,-0.265611848436672,0.0758011554988167,0.420938968622794,-0.142013146982496,0.969037772015552,0.969421492058601,0.04,0.0385859180568931,462.329037543178,0.964098635957014,0.352358196909766
1436,-0.297865315602845,0.342490912607956,0.00173945202039704,-0.357255057264337,-0.265611848436672,0.0758011554988167,0.420938968622794,-0.142013146982496,0.969171651949148,0.969421492058601,0.04,0.039033999187213,462.392795811553,0.965864790684059,0.351762387759141
1496,-0.297865315602845,0.342490912607955,0.00173945202039704,-0.357255057264337,-0.265611848436672,0.0758011554988168,0.420938968622794,-0.142013146982497,0.969287308553488,0.969421492058601,0.04,0.0394225624143744,462.447805731614,0.966896381116047,0.351428893108154
1556,-0.297865315602845,0.342490912607955,0.00173945202039704,-0.357255057264337,-0.265611848436672,0.0758011554988167,0.420938968622793,-0.142013146982497,0.969380182989942,0.969421492058601,0.04,0.0397389819740337,462.491926242047,0.967322688471965,0.351307529210869
1616,-0.297865315602845,0.342490912607955,0.00173945202039704,-0.357255057264337,-0.265611848436672,0.0758011554988167,0.420938968622793,-0.142013146982497,0.969449126360192,0.969421492058601,0.04,0.0399797188027533,462.524631591378,0.967286401109201,0.351345552193136
1676,-0.297865315602845,0.342490912607956,0.00173945202039704,-0.357255057264337,-0.265611848436672,0.0758011554988167,0.420938968622794,-0.142013146982496,0.969495442679676,0.969421492058601,0.04,0.0401481333887542,462.546559588694,0.96692693470897,0.351492832273263
1736,-0.297865315602845,0.342490912607955,0.00173945202039704,-0.357255057264337,-0.265611848436672,0.0758011554988167,0.420938968622793,-0.142013146982497,0.969522006626876,0.969421492058601,0.04,0.0402523212781726,462.559090421359,0.966369303815549,0.351705184435439
1796,-0.297865315602845,0.342490912607955,0.00173945202039704,-0.357255057264337,-0.265611848436672,0.0758011554988167,0.420938968622794,-0.142013146982497,0.969532495105165,0.969421492058601,0.04,0.0403031290666122,462.56398263849,0.965717730638772,0.351946203460246
1856,-0.304402095461558,0.321924846278564,-0.0272244701894069,-0.34732688470351,-0.261095719989911,0.0418570220817165,0.411173528919718,-0.150042467274349,0.961667767386231,0.956169199143702,0.04,0.0416224561386383,458.71353731876,0.939146508435459,0.358891262374358
1916,-0.311405788167322,0.299889775211359,-0.0582572439856254,-0.336689556959768,-0.256257010939809,0.00548830770625216,0.400710557809279,-0.158645310444191,0.948460770711447,0.94197031387774,0.04,0.042508249275384,452.401361501267,0.900861682520881,0.368994985772787
1976,-0.318409480873087,0.277854704144154,-0.0892900177818441,-0.326052229216025,-0.251418301889708,-0.0308804066692123,0.390247586698841,-0.167248153614034,0.934459269577207,0.927771428611778,0.04,0.0417774665163669,445.717448373219,0.860193060751194,0.380731120666238
2036,-0.325413173578851,0.255819633076949,-0.120322791578063,-0.315414901472282,-0.246579592839607,-0.0672491210446768,0.379784615588402,-0.175850996783876,0.920197570841098,0.913572543345816,0.04,0.039682184064882,438.911938318129,0.819843803903144,0.393369742276572
2096,-0.332416866284615,0.233784562009744,-0.151355565374281,-0.304777573728539,-0.241740883789506,-0.103617835420141,0.369321644477964,-0.184453839953718,0.905430906905524,0.899373658079853,0.04,0.0366319931727295,431.863763032851,0.781815546596089,0.405879520559081
2156,-0.33942055899038,0.211749490942539,-0.1823883391705,-0.294140245984796,-0.236902174739405,-0.139986549795605,0.358858673367526,-0.193056683123561,0.890572370217003,0.885174772813891,0.04,0.0329383027598871,424.773263484256,0.747279221473297,0.417665826623597
2216,-0.346424251696144,0.189714419875334,-0.213421112966718,-0.283502918241053,-0.232063465689304,-0.17635526417107,0.348395702257087,-0.201659526293403,0.875578537816458,0.870975887547929,0.04,0.0289919739747338,417.618968007948,0.717276864042008,0.427807180169759
2276,-0.353427944401908,0.167679348808129,-0.244453886762937,-0.272865590497311,-0.227224756639202,-0.212723978546534,0.337932731146649,-0.210262369463245,0.860530080083519,0.856777002281966,0.04,0.0251755045982403,410.439225219445,0.692297667839976,0.435622864854318
2336,-0.360431637107673,0.145644277740924,-0.275486660559155,-0.262228262753568,-0.222386047589101,-0.249092692921999,0.327469760036211,-0.218865212633087,0.845493292626481,0.842578117016004,0.04,0.0217990075714315,403.265490797603,0.672399796430037,0.440674745233287
2396,-0.367435329813437,0.123609206673719,-0.306519434355374,-0.251590935009825,-0.217547338539,-0.285461407297463,0.317006788925772,-0.22746805580293,0.830519977728245,0.828379231750042,0.04,0.0190538985792983,396.122331019577,0.657295964074125,0.442815726834254
2456,-0.374439022519201,0.101574135606514,-0.337552208151593,-0.240953607266082,-0.212708629488899,-0.321830121672928,0.306543817815334,-0.236070898972772,0.815614891014348,0.814180346484079,0.04,0.0170019309161544,389.011567581125,0.646560423094756,0.442087336301313
2516,-0.381442715224965,0.0795390645393089,-0.368584981947811,-0.230316279522339,-0.207869920438798,-0.358198836048392,0.296080846704896,-0.244673742142614,0.800772201273062,0.799981461218117,0.04,0.015582249983362,381.930717803818,0.639822473008818,0.438611258583978
2576,-0.38844640793073,0.0575039934721038,-0.39961775574403,-0.219678951778596,-0.203031211388697,-0.394567550423856,0.285617875594457,-0.253276585312456,0.78602107981857,0.785782575952155,0.04,0.0147011442254462,374.893837379051,0.636604958397886,0.432706043331089
2636,-0.395450100636494,0.0354689224048989,-0.430650529540248,-0.209041624034853,-0.198192502338595,-0.430936264799321,0.275154904484019,-0.261879428482299,0.7714166251176,0.771583690686193,0.04,0.0142175310081023,368.036314659152,0.636477116823442,0.424876347903339
2696,-0.402453793342258,0.0134338513376938,-0.461683303336467,-0.198404296291111,-0.193353793288494,-0.467304979174785,0.264691933373581,-0.270482271652141,0.756963125025709,0.75738480542023,0.04,0.014257144798183,361.027753174983,0.637883551918072,0.415866426941255
2756,-0.402920706189309,0.0119648465998802,-0.463752154922881,-0.197695141108195,-0.193031212685154,-0.46972956013315,0.263994401966218,-0.27105579453013,0.740231522297269,0.743185920154268,0.04,0.0162117162552379,353.042900419068,0.650339019889918,0.398880078397764
2816,-0.402920706189309,0.0119648465998803,-0.463752154922881,-0.197695141108194,-0.193031212685154,-0.46972956013315,0.263994401966218,-0.27105579453013,0.725546402981955,0.728987034888306,0.04,0.0186145102383632,346.045000729872,0.669807562028834,0.379609619687369
2876,-0.402920706189309,0.0119648465998802,-0.463752154922881,-0.197695141108195,-0.193031212685154,-0.46972956013315,0.263994401966218,-0.271055794530131,0.711641617344487,0.714788149622343,0.04,0.0217606655238728,339.416217888545,0.688909350300617,0.362013850509654
2936,-0.402920706189309,0.0119648465998802,-0.463752154922881,-0.197695141108195,-0.193031212685154,-0.46972956013315,0.263994401966218,-0.271055794530131,0.698315129810842,0.700589264356381,0.04,0.0255074997157814,333.061988818334,0.703875374775139,0.347683415818213
2996,-0.402920706189309,0.0119648465998803,-0.463752154922881,-0.197695141108194,-0.193031212685154,-0.46972956013315,0.263994401966218,-0.27105579453013,0.685357768439349,0.686390379090419,0.04,0.0296174065246194,326.881983879685,0.712029704252993,0.337324239229554
3056,-0.402920706189309,0.0119648465998803,-0.463752154922881,-0.197695141108194,-0.193031212685154,-0.46972956013315,0.263994401966218,-0.271055794530131,0.672566407665747,0.672191493824457,0.04,0.0338079942226505,320.766743958428,0.712155621050451,0.330955120990592
3116,-0.402920706189309,0.0119648465998802,-0.463752154922881,-0.197695141108195,-0.193031212685154,-0.46972956013315,0.263994401966218,-0.27105579453013,0.659570392092773,0.657992608558494,0.04,0.037720983324317,314.577019264752,0.70444092167919,0.328123316606491
3176,-0.402920706189309,0.0119648465998802,-0.463752154922881,-0.197695141108195,-0.193031212685154,-0.46972956013315,0.263994401966218,-0.271055794530131,0.64632617366886,0.643793723292532,0.04,0.0410797505027518,308.256674137932,0.690308522092115,0.328113371739862
3236,-0.402920706189309,0.0119648465998802,-0.463752154922881,-0.197695141108195,-0.193031212685154,-0.46972956013315,0.263994401966218,-0.271055794530131,0.632771717248557,0.62959483802657,0.04,0.0436488026382646,301.786144729435,0.67164292387276,0.330153214244362
3296,-0.402920706189309,0.0119648465998802,-0.463752154922881,-0.197695141108195,-0.193031212685154,-0.46972956013315,0.263994401966218,-0.271055794530131,0.618885141712958,0.615395952760607,0.04,0.0453191459528048,295.158532690069,0.650491063934747,0.333402371086814
3356,-0.402920706189309,0.0119648465998802,-0.463752154922881,-0.197695141108195,-0.193031212685154,-0.46972956013315,0.263994401966218,-0.27105579453013,0.60473546777893,0.601197067494645,0.04,0.0461023495762052,288.40589290603,0.628536305113724,0.337154094333923
3416,-0.402920706189309,0.0119648465998802,-0.463752154922881,-0.197695141108194,-0.193031212685154,-0.46972956013315,0.263994401966218,-0.271055794530131,0.590388699768998,0.586998182228683,0.04,0.0461024506811286,281.559751688482,0.607098187531616,0.340773891293793
3476,-0.402920706189309,0.0119648465998802,-0.463752154922881,-0.197695141108195,-0.193031212685154,-0.46972956013315,0.263994401966218,-0.271055794530131,0.57590956328139,0.57279929696272,0.04,0.045486034664549,274.650945639224,0.587101227459749,0.34373423320479
3536,-0.402920706189309,0.0119648465998802,-0.463752154922881,-0.197695141108195,-0.193031212685154,-0.46972956013315,0.263994401966218,-0.27105579453013,0.561389951784272,0.558600411696758,0.04,0.0444707658480683,267.723828805642,0.569018037265284,0.34571296779239
3596,-0.402920706189309,0.0119648465998802,-0.463752154922881,-0.197695141108195,-0.193031212685154,-0.46972956013315,0.263994401966218,-0.271055794530131,0.546888247004001,0.544401526430796,0.04,0.0433244972181563,260.805186191723,0.552768893010545,0.346678815719402
3656,-0.360054189657845,-0.0138725233611581,-0.460404719153354,-0.209326026151006,-0.19259639909405,-0.450430824597965,0.222785345957418,-0.259513075422103,0.542113622458439,0.543454934079732,0.04,0.0379051017911773,258.626534432672,0.555196560883085,0.342279579187689
3716,-0.314125779088419,-0.041555419747985,-0.456818180828861,-0.221787688696876,-0.192130527389296,-0.429753607953125,0.178632785947988,-0.247145876377788,0.540914112288298,0.543454934079732,0.04,0.033804264088553,258.062871294877,0.568357995426348,0.333624723991943
3776,-0.268197368518993,-0.0692383161348116,-0.453231642504368,-0.234249351242746,-0.191664655684542,-0.409076391308285,0.134480225938559,-0.234778677333473,0.540223261817367,0.543454934079732,0.04,0.0316611040571299,257.736964587622,0.586563550635965,0.322861539689075
3836,-0.222268957949567,-0.0969212125216384,-0.449645104179875,-0.246711013788616,-0.191198783979788,-0.388399174663444,0.0903276659291296,-0.222411478289158,0.540026478038736,0.543454934079732,0.04,0.0311586573021806,257.647108875696,0.606985554519741,0.311890103309842
3896,-0.17634054738014,-0.124604108908465,-0.446058565855381,-0.259172676334486,-0.190732912275034,-0.367721958018604,0.0461751059197004,-0.210044279244843,0.54031358996269,0.543454934079732,0.04,0.0319683661426892,257.787612752857,0.626644636703829,0.302270242209181
3956,-0.130412136810714,-0.152287005295292,-0.442472027530888,-0.271634338880356,-0.19026704057028,-0.347044741373764,0.00202254591027122,-0.197677080200529,0.540978134247017,0.543454934079732,0.04,0.0337282207534648,258.107061356228,0.643018991198096,0.294938021619681
4016,-0.0844837262412883,-0.179969901682119,-0.438885489206395,-0.284096001426226,-0.189801168865526,-0.326367524728924,-0.042130014099158,-0.185309881156214,0.541859650400018,0.543454934079732,0.04,0.0360574479947866,258.528660273643,0.654463076182736,0.290254006074432
4076,-0.0385553156718622,-0.207652798068946,-0.435298950881902,-0.296557663972096,-0.189335297160772,-0.305690308084083,-0.0862825741085869,-0.172942682111898,0.542790960317433,0.543454934079732,0.04,0.0385885774733623,258.972772021484,0.660342770705983,0.288163754598189
4136,0.00737309489756387,-0.235335694455772,-0.431712412557408,-0.309019326517966,-0.188869425456017,-0.285013091439243,-0.130435134118016,-0.160575483067584,0.543635303060775,0.543454934079732,0.04,0.0409996874895568,259.374419838174,0.66092080777596,0.28835825845972
4196,0.05330150546699,-0.263018590842599,-0.428125874232915,-0.321480989063836,-0.188403553751263,-0.264335874794403,-0.174587694127446,-0.148208284023269,0.54430553185579,0.543454934079732,0.04,0.0430401987796819,259.692668477676,0.6570920628749,0.290394337717977
4256,0.0992299160364161,-0.290701487229426,-0.424539335908422,-0.333942651609706,-0.187937682046509,-0.243658658149562,-0.218740254136875,-0.135841084978954,0.544767748951063,0.543454934079732,0.04,0.0445504283198073,259.911523464913,0.650057389207521,0.293784251783116
4316,0.145158326605842,-0.318384383616253,-0.420952797583929,-0.346404314155575,-0.187471810341755,-0.222981441504722,-0.262892814146304,-0.123473885934639,0.54502860045314,0.543454934079732,0.04,0.0454646066915512,260.034479319276,0.641055736266882,0.298050478057306
4376,0.191086737175268,-0.346067280003079,-0.417366259259436,-0.358865976701446,-0.187005938637001,-0.202304224859882,-0.307045374155733,-0.111106686890324,0.545118339297356,0.543454934079732,0.04,0.0458011730174613,260.07608222567,0.631183080871131,0.302760868033694
4436,0.237015147744694,-0.373750176389906,-0.413779720934942,-0.371327639247315,-0.186540066932247,-0.181627008215041,-0.351197934165162,-0.0987394878460088,0.545074716806444,0.543454934079732,0.04,0.0456404128099004,260.054361382854,0.621317652480816,0.307542489330998
4496,0.28294355831412,-0.401433072776733,-0.410193182610449,-0.383789301793185,-0.186074195227493,-0.160949791570201,-0.395350494174592,-0.0863722888016941,0.544933527349239,0.543454934079732,0.04,0.0450985672183211,259.986358381059,0.612116124985203,0.312083937623998
4556,0.286005452352082,-0.403278599202521,-0.409954080055483,-0.384620079296243,-0.186043137113842,-0.159571310460545,-0.39829399817522,-0.0855478088654061,0.544854048718808,0.543454934079732,0.04,0.0443217499327376,259.947478561745,0.603821456787378,0.316323708742424
4616,0.286005452352082,-0.403278599202521,-0.409954080055483,-0.384620079296243,-0.186043137113842,-0.159571310460545,-0.39829399817522,-0.0855478088654061,0.544576529260567,0.543454934079732,0.04,0.0432835185077113,259.814915681357,0.596474257244454,0.320056794323968
4676,0.286005452352082,-0.403278599202521,-0.409954080055483,-0.384620079296243,-0.186043137113842,-0.159571310460545,-0.39829399817522,-0.0855478088654063,0.54423469867516,0.543454934079732,0.04,0.0420851423968951,259.651547783173,0.591077849700378,0.322775756248512
4736,0.286005452352082,-0.403278599202521,-0.409954080055483,-0.384620079296243,-0.186043137113842,-0.159571310460545,-0.39829399817522,-0.0855478088654061,0.543877895452833,0.543454934079732,0.04,0.040872863115107,259.481340616679,0.5878100533009,0.324357392000301
4796,0.286005452352082,-0.403278599202521,-0.409954080055483,-0.384620079296243,-0.186043137113842,-0.159571310460545,-0.39829399817522,-0.0855478088654061,0.54354069021408,0.543454934079732,0.04,0.0397730972533158,259.320643724089,0.586624374667963,0.324811698876227
4856,0.286005452352082,-0.403278599202521,-0.409954080055483,-0.384620079296243,-0.186043137113842,-0.159571310460545,-0.39829399817522,-0.0855478088654063,0.543247886416906,0.543454934079732,0.04,0.038877601907956,259.181495994342,0.587298459523709,0.324264799787929
4916,0.286005452352082,-0.403278599202521,-0.409954080055483,-0.384620079296243,-0.186043137113842,-0.159571310460545,-0.39829399817522,-0.0855478088654061,0.543023522844931,0.543454934079732,0.04,0.0382414835601151,259.075050982576,0.589464556499107,0.322940543423637
4976,0.286005452352082,-0.403278599202521,-0.409954080055483,-0.384620079296243,-0.186043137113842,-0.159571310460545,-0.39829399817522,-0.0855478088654063,0.54287887731751,0.543454934079732,0.04,0.0378842568433383,259.006698270161,0.592665823954271,0.321111446979538
5036,0.286005452352082,-0.403278599202521,-0.409954080055483,-0.384620079296243,-0.186043137113842,-0.159571310460545,-0.39829399817522,-0.0855478088654063,0.542816813758547,0.543454934079732,0.04,0.0377944389924506,258.977730470827,0.596407810602291,0.319061038592725
5096,0.286005452352082,-0.403278599202521,-0.409954080055483,-0.384620079296243,-0.186043137113842,-0.159571310460545,-0.39829399817522,-0.0855478088654063,0.54283102600724,0.543454934079732,0.04,0.0379360040892192,258.98507040304,0.60021564620964,0.317045864898351
5156,0.286005452352082,-0.403278599202521,-0.409954080055483,-0.384620079296243,-0.186043137113842,-0.159571310460545,-0.39829399817522,-0.0855478088654061,0.542907680004779,0.543454934079732,0.04,0.0382560266231591,259.022067162271,0.603683150778271,0.31526981123382
5216,0.286005452352082,-0.403278599202521,-0.409954080055483,-0.384620079296243,-0.186043137113842,-0.159571310460545,-0.39829399817522,-0.0855478088654063,0.543028050766913,0.543454934079732,0.04,0.038692688872171,259.07976131367,0.606507951209754,0.313871343089643
5276,0.286005452352082,-0.403278599202521,-0.409954080055483,-0.384620079296243,-0.186043137113842,-0.159571310460545,-0.39829399817522,-0.0855478088654063,0.543171590957536,0.543454934079732,0.04,0.0391828333779657,259.148346244942,0.608508761537624,0.31292213326205
5336,0.286005452352082,-0.403278599202521,-0.409954080055483,-0.384620079296243,-0.186043137113842,-0.159571310460545,-0.39829399817522,-0.0855478088654063,0.543318793016252,0.543454934079732,0.04,0.0396684686480035,259.218534593251,0.609624764417678,0.312433883211368
5396,0.286005452352082,-0.403278599202521,-0.409954080055483,-0.384620079296243,-0.186043137113842,-0.159571310460545,-0.39829399817522,-0.0855478088654063,0.543453214480284,0.543454934079732,0.04,0.0401017093668218,259.282549030553,0.609900375881267,0.312369816815957
5456,0.297389233063932,-0.352233523959331,-0.390333427825646,-0.330345705949739,-0.173115291588547,-0.151703915275438,-0.403981430226227,-0.0603316393557611,0.53932072377393,0.543454934079732,0.04,0.0440978120566325,257.301418361609,0.626999173019332,0.301529556204272
5516,0.309586140969485,-0.297542371913055,-0.369311300436534,-0.272194591649913,-0.15926402852573,-0.143274563291394,-0.410075107423735,-0.0333143148811414,0.539003906928905,0.543454934079732,0.04,0.0486835243104268,257.163014195285,0.654022123856386,0.288915434961285
5576,0.321783048875038,-0.24285121986678,-0.348289173047423,-0.214043477350087,-0.145412765462913,-0.13484521130735,-0.416168784621242,-0.00629699040652167,0.540123650748512,0.543454934079732,0.04,0.0551725451657884,257.705766464687,0.676850523112715,0.279760273503423
5636,0.333979956780591,-0.188160067820505,-0.327267045658312,-0.155892363050261,-0.131561502400096,-0.126415859323307,-0.42226246181875,0.0207203340680983,0.541896219474829,0.543454934079732,0.04,0.0631772967798263,258.553165087688,0.689938659666183,0.275355689329152
5696,0.346176864686144,-0.133468915774229,-0.3062449182692,-0.0977412487504345,-0.117710239337279,-0.117986507339263,-0.428356139016257,0.047737658542718,0.543674313904916,0.543454934079732,0.04,0.0717430648128731,259.401083989983,0.692231377464515,0.275343723906441
5756,0.358373772591697,-0.0787777637279536,-0.285222790880089,-0.0395901344506083,-0.103858976274463,-0.109557155355219,-0.434449816213764,0.0747549830173375,0.545682552135853,0.543454934079732,0.04,0.0802408976842322,260.364980912092,0.683297081396195,0.27998043361042
5816,0.370570680497249,-0.0240866116816782,-0.264200663490978,0.0185609798492178,-0.0900077132116457,-0.101127803371176,-0.440543493411272,0.101772307491957,0.548666924703615,0.543454934079732,0.04,0.0892836447764091,261.779631307553,0.657389207051549,0.292595712775211
5876,0.382767588402803,0.0306045403645974,-0.243178536101866,0.076712094149044,-0.076156450148829,-0.0926984513871319,-0.44663717060878,0.128789631966577,0.548761609603368,0.543454934079732,0.04,0.0958576391102469,261.809985605524,0.624835409807381,0.30787558480757
5936,0.394964496308356,0.0852956924108728,-0.222156408712755,0.13486320844887,-0.0623051870860121,-0.0842690994030881,-0.452730847806287,0.155806956441197,0.548154146394357,0.543454934079732,0.04,0.0976387677530867,261.518797572529,0.59532000956706,0.322780363968523
5996,0.407161404213909,0.139986844457148,-0.201134281323644,0.193014322748696,-0.0484539240231952,-0.0758397474190444,-0.458824525003795,0.182824280915816,0.547318821337576,0.543454934079732,0.04,0.095409765585454,261.121562876296,0.570271333484341,0.336446389238446
6056,0.419358312119462,0.194677996503424,-0.180112153934533,0.251165437048522,-0.0346026609603784,-0.0674103954350008,-0.437118442958866,0.209841605390436,0.545713263836843,0.543454934079732,0.04,0.0915508360010997,260.302532133223,0.551842032186884,0.346591807337298
6116,0.431555220025014,0.249369148549699,-0.159090026545421,0.309316551348349,-0.0207513978975616,-0.0589810434509571,-0.300775604142024,0.236858929865056,0.542342514901124,0.543454934079732,0.04,0.0885094183052459,258.740225241672,0.554058391746479,0.343133477049339
6176,0.443752127930567,0.304060300595975,-0.13806789915631,0.367467665648175,-0.00690013483474479,-0.0505516914669134,-0.170793697397084,0.263876254339676,0.541575865245828,0.543454934079732,0.04,0.0855910815096028,258.382745079979,0.564270899466652,0.336457745663658
6236,0.45594903583612,0.35875145264225,-0.117045771767199,0.425618779948001,0.00695112822807198,-0.0421223394828697,-0.0806832551675519,0.290893578814295,0.540423580787132,0.543454934079732,0.04,0.0849397339140779,257.824562372553,0.579467652931538,0.326926231055389
6296,0.468145943741673,0.413442604688525,-0.0960236443780872,0.483769894247827,0.0208023912908888,-0.033692987498826,-0.0381116264645195,0.317910903288915,0.539337334552177,0.543454934079732,0.04,0.0857092895678961,257.312520796849,0.602351391011999,0.313881470184532
6356,0.468959070935377,0.41708868149161,-0.0946221692188132,0.487646635201148,0.0217258088284099,-0.0331310306998897,-0.0180023083823626,0.31971205825389,0.537542610827363,0.53789186163785,0.04,0.0856577409888741,256.42984968253,0.610860678179002,0.308447378896546
6416,0.468959070935377,0.41708868149161,-0.0946221692188132,0.487646635201149,0.02172580882841,-0.0331310306998897,-0.00850338789341838,0.31971205825389,0.532504099726799,0.531931426878691,0.04,0.0872802565914185,254.012201143751,0.608194794295503,0.306878565640273
6476,0.468959070935377,0.41708868149161,-0.0946221692188132,0.487646635201148,0.0217258088284099,-0.0331310306998898,-0.00401643315099139,0.31971205825389,0.526597063363229,0.525970992119532,0.04,0.0884705273212011,251.19185020906,0.604123458742809,0.305516395067213
6536,0.468959070935377,0.41708868149161,-0.0946221692188132,0.487646635201149,0.0217258088284099,-0.0331310306998897,-0.00189695586250057,0.31971205825389,0.52062442596246,0.520010557360374,0.04,0.0892137509946068,248.342629610831,0.600139427375212,0.304056150008608
6596,0.468959070935377,0.41708868149161,-0.0946221692188132,0.487646635201149,0.0217258088284099,-0.0331310306998898,-0.000895790432145412,0.31971205825389,0.514699699235396,0.514050122601215,0.04,0.0897886350522643,245.516239542328,0.596036139995499,0.302665072519148
6656,0.468959070935377,0.417088681491611,-0.0946221692188131,0.487646635201149,0.02172580882841,-0.0331310306998897,-0.000422875612953916,0.31971205825389,0.508793843056234,0.508089687842056,0.04,0.0903333992391425,242.698571231048,0.591625983313236,0.301421798363967
6716,0.468959070935377,0.41708868149161,-0.0946221692188132,0.487646635201149,0.02172580882841,-0.0331310306998897,-0.000199487529957821,0.31971205825389,0.502880751593954,0.502129253082897,0.04,0.0908831934123324,239.877329829159,0.586909274695615,0.30031215443715
6776,0.468959070935377,0.41708868149161,-0.0946221692188132,0.487646635201149,0.02172580882841,-0.0331310306998897,-9.3966971915294e-05,0.31971205825389,0.496953210322016,0.496168818323738,0.04,0.0914378546098603,237.049187715238,0.58196521184038,0.299292699320961
6836,0.468959070935377,0.41708868149161,-0.0946221692188132,0.487646635201149,0.0217258088284099,-0.0331310306998897,-4.41228261570975e-05,0.31971205825389,0.491013256053882,0.49020838356458,0.04,0.0919929313730316,234.215152194204,0.576874725656867,0.29832397156074
6896,0.468959070935377,0.41708868149161,-0.0946221692188132,0.487646635201149,0.0217258088284099,-0.0331310306998898,-2.05782305589567e-05,0.31971205825389,0.485064796039133,0.484247948805421,0.04,0.0925469053657629,231.377088853224,0.571696808841035,0.297378290672126
6956,0.468959070935377,0.41708868149161,-0.0946221692188132,0.487646635201148,0.0217258088284099,-0.0331310306998898,-9.45660386754628e-06,0.31971205825389,0.479110947319508,0.478287514046262,0.04,0.0931005816219318,228.536474039887,0.566469591066384,0.296437811013317
7016,0.468959070935377,0.41708868149161,-0.0946221692188132,0.487646635201149,0.0217258088284099,-0.0331310306998898,-4.20314433167424e-06,0.31971205825389,0.473153718439231,0.472327079287103,0.04,0.0936554987794122,225.694258218893,0.561216982469691,0.295491084848859
7076,0.468959070935377,0.41708868149161,-0.0946221692188132,0.487646635201149,0.02172580882841,-0.0331310306998897,-1.72159753454274e-06,0.31971205825389,0.467194322610681,0.466366644527944,0.04,0.0942130941408777,222.851018340839,0.555954163430466,0.294530525551575
7136,0.468959070935377,0.41708868149161,-0.0946221692188132,0.487646635201149,0.0217258088284099,-0.0331310306998898,-5.49403390035752e-07,0.31971205825389,0.461233526219924,0.460406209768786,0.04,0.0947744718304353,220.007112435121,0.550690941931266,0.293550932474404
7196,0.468959070935377,0.41708868149161,-0.0946221692188132,0.487646635201149,0.0217258088284099,-0.0331310306998898,4.29929008486589e-09,0.31971205825389,0.455271803673859,0.454445775009627,0.04,0.0953404204574526,217.162769452535,0.545433746079306,0.292548613051746
7256,0.417402778680955,0.361060070192632,-0.0577057195681107,0.483388660367912,0.0252627741636809,-0.00258370121998996,2.65848675405946e-07,0.322255656703528,0.449040491700025,0.448485340250468,0.04,0.0954415248031222,214.19199421549,0.541671068264978,0.290550930704572
7316,0.362163894122645,0.301029415229441,-0.0181523806566437,0.478826544475158,0.0290523798800429,0.0301455803656171,3.89395270750094e-07,0.324980940756712,0.443473611291972,0.442524905491309,0.04,0.0957991021939545,211.536725026071,0.536520992237895,0.289703494328678
7376,0.306925009564336,0.24099876026625,0.0214009582548231,0.474264428582404,0.0328419855964046,0.0628748619512241,4.47754273209199e-07,0.327706224809897,0.437736568931222,0.43656447073215,0.04,0.0965920890987685,208.797425736279,0.529509663506737,0.289738312172642
7436,0.251686125006027,0.180968105303059,0.06095429716629,0.46970231268965,0.0366315913127665,0.095604143536831,4.7532098323091e-07,0.330431508863081,0.431775465687677,0.430604035972992,0.04,0.0972805083908872,205.952124218238,0.522102325527096,0.28984467391593
7496,0.196447240447717,0.120937450339867,0.100507636077757,0.465140196796897,0.0404211970291282,0.128333425122438,4.88342513233135e-07,0.333156792916265,0.425714554339857,0.424643601213833,0.04,0.097533589135612,203.060076472621,0.515148314883796,0.289632263386001
7556,0.141208355889408,0.060906795376676,0.140060974989224,0.460578080904143,0.0442108027454901,0.161062706708045,4.94493419288493e-07,0.335882076969449,0.419637127937987,0.418683166454674,0.04,0.0970309962034295,200.16058901409,0.508890852803567,0.289007159818774
7616,0.0859694713310984,0.000876140413484791,0.179614313900691,0.456015965011389,0.048000408461852,0.193791988293652,4.97398887792991e-07,0.338607361022633,0.413552227476919,0.412722731695515,0.04,0.0953883798773375,197.2570964555,0.503337667290055,0.287957159186265
7676,0.030730586772789,-0.0591545145497064,0.219167652812158,0.451453849118635,0.0517900141782138,0.226521269879259,4.98771327422966e-07,0.341332645075817,0.407371583899417,0.406762296936356,0.04,0.0925257693519099,194.307572721397,0.498877528056547,0.286187368506099
7736,-0.0245082977855205,-0.119185169512898,0.258720991723625,0.446891733225881,0.0555796198945756,0.259250551464866,4.99419618923979e-07,0.344057929129001,0.401693116792884,0.400801862177198,0.04,0.08999246008186,191.606971300404,0.494534578810477,0.284688103100934
7796,-0.0797471823438299,-0.179215824476089,0.298274330635092,0.442329617333128,0.0593692256109375,0.291979833050473,4.99725848692565e-07,0.346783213182186,0.396406762398764,0.394841427418039,0.04,0.0895701801541721,189.082283804468,0.486057882128545,0.285836394616242
7856,-0.134986066902139,-0.23924647943928,0.337827669546558,0.437767501440374,0.0631588313272993,0.32470911463608,4.99870500706392e-07,0.34950849723537,0.390820675062062,0.38888099265888,0.04,0.08993784308951,186.415207566905,0.474766298755956,0.288506851988722
7916,-0.190224951460449,-0.299277134402471,0.377381008458025,0.43320538554762,0.0669484370436612,0.357438396221687,4.99938829155323e-07,0.352233781288554,0.385033407190926,0.382920557899721,0.04,0.0906446438169282,183.652760233623,0.46206265621229,0.292046002432975
7976,-0.245463836018758,-0.359307789365663,0.416934347369492,0.428643269654866,0.0707380427600229,0.390167677807294,4.99971105076065e-07,0.354959065341738,0.379068856665714,0.376960123140562,0.04,0.0918421958539102,180.805308688233,0.44899675534391,0.295884797298268
8036,-0.300702720577067,-0.419338444328854,0.456487686280959,0.424081153762113,0.0745276484763848,0.422896959392901,4.99986351069147e-07,0.357684349394922,0.372860273830862,0.370999688381404,0.04,0.0941390316203337,177.841214920712,0.436958382065285,0.299052211329852
8096,-0.355941605135377,-0.412091578336265,0.496041025192426,0.419519037869359,0.0783172541927466,0.455626240978508,0.0316801973256811,0.360409633448106,0.366459538834578,0.365039253622245,0.04,0.100105166204847,174.779297476989,0.425292940861613,0.301964919019471
8156,-0.359624197439264,-0.40253934336428,0.498677914453191,0.419214896809842,0.0785698945738375,0.457808193084215,0.0340077837250717,0.360591319051652,0.365647678221845,0.364641891304967,0.04,0.0957912452590557,174.438709162272,0.418190998112905,0.306494623439068
8216,-0.359624197439264,-0.395625784209521,0.498677914453191,0.419214896809842,0.0785698945738375,0.457808193084215,0.0340077837250717,0.360591319051652,0.364946273298038,0.364641891304967,0.04,0.0946821927871024,174.114427869083,0.415594510408763,0.30783616080958
8276,-0.359624197439264,-0.391490020208732,0.498677914453191,0.419214896809842,0.0785698945738374,0.457808193084215,0.0340077837250717,0.360591319051652,0.364876191740917,0.364641891304967,0.04,0.0938154744800445,174.082194052332,0.414113917736658,0.308879582259739
8336,-0.359624197439264,-0.388863824640326,0.49867791445319,0.419214896809842,0.0785698945738375,0.457808193084215,0.0340077837250717,0.360591319051652,0.364841844292706,0.364641891304967,0.04,0.09347705640338,174.065726230791,0.412838009829989,0.309804888893458
8396,-0.359624197439264,-0.387058752642498,0.49867791445319,0.419214896809842,0.0785698945738375,0.457808193084215,0.0340077837250717,0.360591319051652,0.364800623280341,0.364641891304967,0.04,0.0933595629659473,174.046056043226,0.411800929734333,0.310550004529292
8456,-0.359624197439264,-0.385761043086378,0.49867791445319,0.419214896809842,0.0785698945738374,0.457808193084215,0.0340077837250717,0.360591319051652,0.364763338982744,0.364641891304967,0.04,0.0933160125521364,174.028321967007,0.410999265105857,0.311124035699258
8516,-0.359624197439264,-0.38480838066728,0.498677914453191,0.419214896809842,0.0785698945738374,0.457808193084215,0.0340077837250717,0.360591319051652,0.36473351429402,0.364641891304967,0.04,0.0932971606194817,174.014152330048,0.410392154817693,0.311558924862144
8576,-0.359624197439264,-0.384102355139555,0.498677914453191,0.419214896809842,0.0785698945738375,0.457808193084215,0.0340077837250717,0.360591319051652,0.364710651344392,0.364641891304967,0.04,0.0932873396221363,174.003294410742,0.409935875461337,0.311886243792924
8636,-0.359624197439264,-0.383576793510178,0.49867791445319,0.419214896809842,0.0785698945738375,0.457808193084215,0.0340077837250717,0.360591319051652,0.364693376625898,0.364641891304967,0.04,0.0932813124280565,173.995091516946,0.409593996773889,0.312131852798265
8696,-0.359624197439264,-0.383184764033761,0.498677914453191,0.419214896809842,0.0785698945738375,0.457808193084215,0.0340077837250717,0.360591319051652,0.364680386875142,0.364641891304967,0.04,0.0932771369117711,173.988923591024,0.409338249683965,0.31231579547192
8756,-0.359624197439264,-0.382892111270661,0.49867791445319,0.419214896809842,0.0785698945738374,0.457808193084215,0.0340077837250717,0.360591319051652,0.364670633424526,0.364641891304967,0.04,0.0932739941013402,173.984292398033,0.4091471986469,0.312453314119448
8816,-0.359624197439264,-0.382673656190394,0.49867791445319,0.419214896809842,0.0785698945738375,0.457808193084215,0.0340077837250717,0.360591319051652,0.364663312077066,0.364641891304967,0.04,0.0932714866423993,173.98081604522,0.409004713594356,0.312555918286476
8876,-0.359624197439264,-0.382510708850086,0.49867791445319,0.419214896809842,0.0785698945738374,0.457808193084215,0.0340077837250717,0.360591319051652,0.364657816058131,0.364641891304967,0.04,0.0932693971559722,173.978206393002,0.408898684851372,0.312632275593874
8936,-0.359624197439264,-0.382389340311477,0.498677914453191,0.419214896809842,0.0785698945738375,0.457808193084215,0.0340077837250717,0.360591319051652,0.364653689739433,0.364641891304967,0.04,0.0932675949465197,173.976247106217,0.408820025575705,0.312688906362775
8996,-0.359624197439264,-0.382299143575896,0.49867791445319,0.419214896809842,0.0785698945738374,0.457808193084215,0.0340077837250717,0.360591319051652,0.364650591453769,0.364641891304967,0.04,0.0932659964461196,173.974775957446,0.408761916330049,0.312730713467825
9056,-0.339676633719776,-0.380439970676152,0.440885506081289,0.391573902954279,0.0888274461641427,0.424670730134247,0.048834277616675,0.330545412612562,0.366159721474367,0.364641891304967,0.04,0.0865686569825708,174.689386276685,0.401014481288691,0.320081916956633
9116,-0.318304244020325,-0.375468408247131,0.378965068539965,0.361958552394747,0.0998176800108983,0.389166305544995,0.06471980678625,0.298353369999252,0.365761911015471,0.364641891304967,0.04,0.0811709190102384,174.504898760759,0.393785641350984,0.325613515385402
9176,-0.296931854320873,-0.369818954801403,0.317044630998642,0.332343201835215,0.110807913857654,0.353661880955743,0.0806053359558249,0.266161327385942,0.365722561300689,0.364641891304967,0.04,0.0744730415206697,174.486233720972,0.38727180048601,0.331054861762352
9236,-0.275559464621422,-0.342463237206129,0.255124193457318,0.302727851275683,0.121798147704409,0.318157456366491,0.0964908651253999,0.233969284772631,0.365836754909821,0.364641891304967,0.04,0.0681017135973565,174.527957281705,0.379104597420003,0.338267778069533
9296,-0.25418707492197,-0.30663919337135,0.193203755915995,0.273112500716151,0.132788381551165,0.282653031777239,0.112376394294975,0.201777242159321,0.365149292231675,0.364641891304967,0.04,0.0624607656145197,174.212562588548,0.375315705267375,0.34106519852583
9356,-0.232814685222518,-0.270815149536572,0.131283318374672,0.243497150156619,0.143778615397921,0.247148607187987,0.12826192346455,0.16958519954601,0.364920617933436,0.364641891304967,0.04,0.0561306819381684,174.10203044847,0.373200671561402,0.342780490403267
