time,bias_percent_1,bias_percent_2,bias_percent_3,bias_percent_4,bias_percent_5,bias_percent_6,bias_percent_8,bias_percent_9,normalized_power,power_SP,SP,CV,total_power_MW,fuel_fraction,thermal_efficiency
6,0,0,0,0,0,0,0,0,0.996799603590943,1,0.04,0.0407324554238744,475.578882305307,1.0005474109817,0.349252533855318
66,-0.00235543508895944,-0.00136981977097707,-0.0012601848500301,0.00335080463063093,0.00201325101799648,-0.00232243343230891,-2.72064492343134e-05,-0.000682833018750728,0.999391260454768,0.994975391645799,0.04,0.0406473599301065,476.632875838771,0.994152825711653,0.352277998022275
126,-0.0259097859785537,-0.0150680174807472,-0.0138620333503311,0.0368588509369408,0.0221457611979616,-0.0255467677553975,-0.000299270941577674,-0.0075111632062584,0.960996623594739,0.94472930810379,0.04,0.0541477905785251,458.112361739054,0.906154951903534,0.371470404882882
186,-0.0494641368681478,-0.0287662151905173,-0.0264638818506321,0.0703668972432507,0.0422782713779268,-0.0487711020784859,-0.000571335433921035,-0.014339493393766,0.910979090645154,0.894483224561781,0.04,0.0646974278273156,434.219295698958,0.803591917586876,0.397034489726782
246,-0.073018487757742,-0.0424644129002874,-0.0390657303509331,0.10387494354956,0.0624107815578919,-0.0719954364015745,-0.000843399926264397,-0.0211678235812737,0.859388539736375,0.844237141019771,0.04,0.0696184311091379,409.604203232549,0.707370156366936,0.425473335249395
306,-0.0965728386473361,-0.0561626106100574,-0.0516675788512341,0.13738298985587,0.0825432917378571,-0.0952197707246629,-0.00111546441860776,-0.0279961537687813,0.807819772511219,0.793991057477762,0.04,0.0701208067534754,385.000611887641,0.619163504171412,0.456889046688945
366,-0.12012718953693,-0.0698608083198275,-0.0642694273515351,0.17089103616218,0.102675801917822,-0.118444105047751,-0.00138752891095103,-0.0348244839562889,0.756318831502841,0.743744973935753,0.04,0.066685255461093,360.590319950512,0.539907709279709,0.490737460798846
426,-0.143681540426525,-0.0835590060295976,-0.0768712758518362,0.20439908246849,0.122808312097787,-0.14166843937084,-0.00165959340329439,-0.0416528141437965,0.704742661317677,0.693498890393744,0.04,0.0607390451369608,336.085805806224,0.468673615670934,0.52690745337872
486,-0.167235891316119,-0.0972572037393677,-0.0894731243521372,0.2379071287748,0.142940822277752,-0.164892773693929,-0.00193165789563773,-0.0484811443313042,0.653019315752069,0.643252806851734,0.04,0.0531181332363885,311.546143959526,0.405492675160583,0.564539121498237
546,-0.190790242205713,-0.110955401449138,-0.102074972852438,0.27141517508111,0.163073332457718,-0.188117108017017,-0.00220372238798106,-0.0509707586490595,0.601734237995925,0.593006723309725,0.04,0.0453236182393703,286.990146927444,0.349098108583148,0.604051778111511
