time,bias_percent_1,bias_percent_2,bias_percent_3,bias_percent_4,bias_percent_5,bias_percent_6,bias_percent_8,bias_percent_9,normalized_power,power_SP,SP,CV,total_power_MW,fuel_fraction,thermal_efficiency
37,0,0,0,0,0,0,0,0,0.999701333248652,1,0.04,0.0399545830807995,476.962700419413,0.999767438627453,0.350542036733437
97,0,0,0,0,0,0,0,0,0.999965047539716,1,0.04,0.0399005281618159,477.083917739488,1.00026105398943,0.350458093231749
157,0,0,0,0,0,0,0,0,0.999996473625723,1,0.04,0.0399410849511343,477.098391550198,1.00031573098471,0.350449568929357
217,0,0,0,0,0,0,0,0,1.00000109607068,1,0.04,0.0399722169115985,477.100540767094,1.00031530977204,0.350451295190801
277,0,0,0,0,0,0,0,0,1.00000272447587,1,0.04,0.0399909671378869,477.101309379264,1.00030179913603,0.350456593169168
337,0,0,0,0,0,0,0,0,1.00000362283948,1,0.04,0.0400016448734312,477.101733268703,1.00028160862884,0.350463978449354
397,0,0,0,0,0,0,0,0,1.00000397535454,1,0.04,0.0400072531943099,477.101897528946,1.00025823117792,0.350472289951925
457,0,0,0,0,0,0,0,0,1.00000389972436,1,0.04,0.0400096551706195,477.101858619055,1.00023449964303,0.350480576664035
517,0,0,0,0,0,0,0,0,1.00000354067459,1,0.04,0.0400100679434301,477.101685631514,1.00021241320353,0.35048818880816
577,0,0,0,0,0,0,0,0,1.00000302950844,1,0.04,0.0400093194722801,477.101440969947,1.00019314026956,0.350494762702867
637,0,0,0,0,0,0,0,0,1.00000246604695,1,0.04,0.0400079756110937,477.101172064741,1.00017718231314,0.350500157342217
697,0,0,0,0,0,0,0,0,1.00000191782505,1,0.04,0.040006413053192,477.100910782485,1.00016457127307,0.350504384834219
757,-0.154166666666667,-0.154166666666667,0.154166397840505,0.154166666666667,-0.154166666666667,0.154166666666667,-0.154166601381062,0.154160799513741,0.999891957801739,1,0.04,0.0397189104679492,477.066850618749,1.00228796600865,0.349736855176057
817,-0.25,-0.25,0.249999564065684,0.25,-0.25,0.25,-0.249999894131451,0.249990485697958,1.0003970430714,1,0.04,0.0395501633475106,477.277813030461,0.99776745684136,0.351476738214865
877,-0.249999986773953,-0.25,0.249999758825935,0.25,-0.249999998660069,0.25,-0.249999959417056,0.231404786789225,1.00033329711071,1,0.04,0.0389941443685422,477.261198282285,0.996721944015431,0.35183317195227
937,-0.249999978552357,-0.25,0.249999879893118,0.25,-0.249999997827138,0.25,-0.25,0.219851514494608,0.999895321098344,1,0.04,0.0386900521807206,477.046520890676,0.995834684841118,0.351988245400557
997,-0.249999991778403,0.0583321757314367,-0.0583315043295142,-0.0583331294807343,0.0583333341662637,0.24994756651124,0.0583333333333334,-0.0698901632201546,0.999406941807048,1,0.04,0.0383916710817495,476.825496573005,0.998116755313589,0.351020758146831
1057,-0.25,0.249998122807735,-0.249996959386826,-0.249999669428218,0.25,0.249914972720929,0.25,-0.249999854772574,0.99961340455857,1,0.04,0.0391749103958417,476.910965156557,0.998481606951517,0.350955388614191
1117,-0.249998647271023,-0.0583339905103211,-0.249998833564395,0.0583326534602807,-0.05833333111591,-0.0583659271236437,-0.0583333333333333,-0.249998799175924,1.0196399978892,1,0.04,0.0197077888394826,486.528288880508,0.943267964504158,0.378989945427812
1177,-0.249997806385442,-0.249999898789113,-0.249999998593695,0.24999869201259,-0.249999996404178,-0.25,-0.25,-0.249998142994223,1.00936506147006,1,0.04,0.0109651433699124,481.44133838045,0.832578441190633,0.424886461398224
1237,-0.249999077511043,-0.249999530610485,-0.249999951122839,-0.058333834728507,-0.249999838731785,0.0582980114084081,-0.25,-0.24999840301665,1.00386061831491,1,0.04,0.00892083493692087,478.904278100985,0.805339968299844,0.436942349553895
1297,-0.249999867670201,-0.249999301742689,-0.249999921613928,-0.25,-0.249999740719217,0.249942721202824,-0.25,-0.249998564652214,0.99958582020641,1,0.04,0.00778669727504721,476.904816877145,0.796161193692871,0.44013446719408
1357,-0.0235831292935751,-0.249980696165616,0.0581974971550358,-0.155878284315637,0.0583333912962194,0.249953647078139,0.0570510651239014,0.0583235585555224,0.952358928110823,1,0.04,0.0353439106649805,454.076090973695,0.947638296466996,0.352079475028386
1417,0.117162410778382,-0.249969130536625,0.249779676389797,-0.097370190782114,0.249999932819328,0.24996043883847,0.247920646146867,0.249983256765737,0.97664132017567,1,0.04,0.0440602572584498,466.171193200525,1.18503032255705,0.28904845082327
1477,0.199078924131713,-0.24998787385031,-0.0584172186765063,0.116841263616291,0.248252098554207,-0.058347577464761,0.249107962288682,0.249354915599298,0.998972951353757,1,0.04,0.0459646067221624,476.732782956275,1.23452486642046,0.283746067820701
1537,0.25,-0.249999525099357,-0.24999907236637,0.249999735269353,0.247165606983997,-0.249998506518121,0.249846023674134,0.248964325144484,0.996994353430384,0.98826882921889,0.04,0.0552660374920989,475.565099590952,1.19593028780496,0.292185585472584
1597,-0.00580820125253445,-0.249999813005014,-0.249724360591676,0.249012213734831,0.241751870828267,-0.249998968630304,-0.0583914077344297,-0.0587273555879344,0.999997510636006,0.969245309033307,0.04,0.0528589687069002,477.110700730614,1.07244508989168,0.326887842096084
1657,-0.164824110139245,-0.249999991973395,-0.249553593812811,0.248398348997156,0.238386575380111,-0.249999255889228,-0.249998459691104,-0.249995157124303,0.969123322180888,0.950221788847723,0.04,0.0535788897920563,462.064010337317,0.902298411236756,0.376276093672537
1717,-0.000720392489813776,0.0583091603337076,0.0585044557050891,-0.0579012946874989,-0.0627838632768016,-0.249997796108048,-0.249999409548257,0.0582552913774573,0.929934357610037,0.931198268662139,0.04,0.0628590532652261,443.610939829504,0.864343184879977,0.377112312342391
1777,0.101290026589562,0.249960795551636,0.25,-0.248303775896879,-0.249997919739207,-0.249996888676503,-0.25,0.249870435040714,0.915543620103636,0.912174748476555,0.04,0.0625901252683016,436.712008341093,0.865506090137084,0.370748738595358
1837,0.0945950987290594,0.249294742808626,0.248836928024373,0.0589815791921754,-0.249999182088035,-0.242109036353199,0.0583333333333334,0.248724736729729,0.888278658852495,0.893151228290972,0.04,0.0746919123841258,423.56479274083,0.861990709568494,0.361053820634917
1897,0.0904333868157737,0.24888071002243,0.248113937336821,0.249996799923209,-0.249999966791361,-0.237205776800875,0.25,0.248012545887765,0.875210580934349,0.874127708105388,0.04,0.0767710675782227,417.487631776138,0.882159061299305,0.347737390474159
1957,0.18883279827938,-0.0587623944914019,-0.0590563240208852,-0.0583339431253029,0.0583333460633114,0.0632374838490899,0.249999986986478,-0.0590951907430233,0.868849980303027,0.855104187919805,0.04,0.0631105784652788,414.47438714365,0.830487768468268,0.366706943971156
2017,0.25,-0.25,-0.25,-0.249998999614918,0.25,0.249999510739608,0.249999978896991,-0.25,0.846189714098912,0.836080667734221,0.04,0.0560510104563423,403.503882666105,0.743479303082992,0.398780130483007
2077,-0.0583333264511253,0.0583333333333334,0.0583333333333334,0.0583242366885264,-0.0583331443059978,0.24999061998471,0.218512906534644,0.0583333280710499,0.811360642243262,0.817057147548637,0.04,0.0689139880833516,386.854624443866,0.736916384271462,0.385730745393452
2137,-0.249999988839663,0.25,0.25,0.2499846268231,-0.249999693469186,0.249985093299232,0.198939861552645,0.249999991466567,0.798348975868011,0.798033627363054,0.04,0.0689609694183605,380.803194544495,0.76169984927062,0.367342679587306
2197,-0.249999881772903,0.25,0.163093093615654,-0.0583389406749385,0.0583329844678744,-0.0583387814536962,-0.0779043952627544,-0.0583233858209733,0.804763411024773,0.77901010717747,0.04,0.0428360477255824,384.006076435454,0.678947964958759,0.415581572415178
2257,-0.249999815217891,0.25,0.109069881538898,-0.249999536687233,0.249999243726047,-0.249999568462273,-0.0838052040934203,-0.0838052040934203,0.767461737473567,0.759986586991886,0.04,0.0377439055194112,365.895537476709,0.582143930395383,0.461829228519221
2317,-0.24999984631779,-0.0583333333333334,-0.112356545410089,-0.249999822396773,-0.0583336163856304,-0.249991327963039,-0.0815980425115053,-0.0815980425115053,0.741649588999396,0.740963066806303,0.04,1.55751843746491e-09,353.414972042396,0.552061434239205,0.470383642566175
2377,-0.24999986565016,-0.25,-0.25,-0.25,-0.249999988887484,-0.249986205490542,-0.132568351003839,-0.132568351003839,0.690590212953932,0.721939546620719,0.04,1.52826390578171e-10,329.54450786044,0.754010735361375,0.32113765013054
2437,-0.249991599601379,-0.249998637599158,-0.24999998281006,-0.249994031499117,-0.249968562967404,-0.249994690435192,-0.211521362703564,-0.211521362703564,0.700336184739675,0.702916026435136,0.04,1.96887105309077e-10,334.179753434883,0.826312650196435,0.297160040604956
2497,-0.249986461246732,-0.249997790701337,-0.249999972124421,-0.249990321349919,-0.249949027936003,-0.249999964860244,-0.24999999429472,-0.249994919084018,0.705458161533091,0.683892506249552,0.04,2.29480978823482e-07,336.605848907652,0.748305581708968,0.330519699815932
2557,0.05833815351,-0.249995667399258,0.0583327944053664,0.0582396742717032,-0.0384549679693426,0.0583333362256046,-0.105745582509625,0.0330899164694118,0.655891413943829,0.664868986063968,0.04,0.0592497853525016,312.14336975652,0.636000088604907,0.360621499291349
2617,0.249999400520941,-0.249994347508777,0.249999108734694,0.249842103982441,0.0930143125504735,0.249999982846538,-0.0160739211297005,0.209061571002625,0.639829878575651,0.645845465878385,0.04,0.0807552514231355,305.305509434282,0.73853252280862,0.303752382229668
2677,0.249974665010567,-0.249997609061926,-0.058316785129375,-0.0583938599536491,-0.102213094323608,-0.0583333338251695,0.147992685397499,-0.0740148995628016,0.651139403639122,0.626821945692801,0.04,0.0510831307063687,310.729621854254,0.666610785042924,0.34250348671361
2737,0.249959288882496,-0.249999636513884,-0.249972611044877,-0.249999999697705,-0.223570671569659,-0.249999990134609,0.249980035400893,-0.249981354238607,0.625211792508714,0.607798425507217,0.04,0.0407120107464011,297.887598807787,0.502630328559244,0.435470168857914
2797,0.153611294217902,-0.249998270294609,-0.249944478911486,0.0583333219313753,-0.23986851236382,0.0583284877614346,0.249992180282667,-0.249987448748661,0.588824339902077,0.588774905321634,0.04,0.0512074834586872,280.691262257179,0.470075869611656,0.438748466631845
2857,0.0937192975345055,-0.249997421023167,-0.249926991369108,0.249999981322425,-0.249999602587218,0.2499921361833,0.24999972980377,-0.249991237227884,0.571431034945509,0.56975138513605,0.04,0.0489879858804695,272.504186824345,0.472732403210574,0.423557604808137
2917,0.190087132632694,-0.249998938023245,0.0582858954263581,0.0561442150704829,-0.24456976232023,-0.058332728688344,0.249999869703273,0.0259259746156195,0.545958550601146,0.550727864950466,0.04,0.0539242243278906,260.341324897393,0.475709735794854,0.40212006793179
2977,0.249991462558596,-0.249999881023294,0.249877689920837,-0.0643607207077516,-0.241194456208319,-0.249994131176122,0.24999995666783,0.197442079275095,0.545561885047525,0.550292626003712,0.04,0.0494816480761525,260.337341872232,0.503677868662773,0.379785407590237
3037,0.249375938867807,-0.175026312779498,0.249877871177816,0.129495056920506,0.0616552917576059,0.0583355262273357,0.249628822792728,0.229852796852655,0.540952680786993,0.561412264583799,0.04,0.0685411188014232,258.115409924685,0.584859864072817,0.324277480986336
3097,0.248993316032993,-0.12842112170903,0.249877983851074,0.249999999770505,0.249913243195884,0.249999907856512,0.249398117951448,0.249999999671138,0.560776087637135,0.572531903163885,0.04,0.0711303877248639,267.735364293227,0.689034886067185,0.285508606838581
3157,0.2494895833655,-0.202756253044911,0.226198713076012,0.00757698021207318,-0.0571977742587237,0.00781857829870194,-0.0585640547852781,0.249989937602265,0.598045386332604,0.583651541743971,0.04,0.0343098911764767,285.640883823499,0.675922217319824,0.310511952934692
3217,0.249798073869491,-0.248964577929377,0.211479166378001,-0.143118410324249,-0.248104622946723,-0.142726572507505,-0.0571993773749799,0.249983682802695,0.601034808052156,0.594771180324057,0.04,0.024838720933294,286.723031126354,0.596721132485401,0.353057821493624
3277,0.249922594983305,-0.246031246680315,0.235233680444901,-0.103506002902633,-0.249270412849638,-0.0439995009395565,0.0583324435981332,-0.0583330947512004,0.609000340262766,0.605890818904143,0.04,0.0236427751071863,290.47856313724,0.574600535731976,0.371452031058133
3337,0.25,-0.24420782455252,0.25,-0.0788820739648711,-0.249995093059559,0.0173713813864654,0.249998557186162,-0.097430451972989,0.611988311790604,0.617010457484229,0.04,0.0266409945084193,292.101080308567,0.612783007361256,0.350252404779209
3397,0.249962666842427,-0.223378595640666,0.249999998050951,0.123928537531302,-0.249998119006164,0.160825450515204,0.249999446921362,-0.125181656011008,0.618983885945767,0.628130096064315,0.04,0.0377405131560774,295.357151977096,0.651260016991031,0.333232807194858
3457,0.249939459744476,-0.21043069658735,0.24999999683938,0.249999998731626,-0.25,0.249999601595231,0.25,-0.139150371468423,0.632293969290285,0.639249734644402,0.04,0.0416397261078853,301.796276528119,0.706900315082487,0.313697009334054
3517,-0.0583459489774075,-0.234831767025151,0.249921369609871,-0.0583333338195436,0.0583333333167934,0.249987844109115,0.249999982992742,-0.0378847459430811,0.647157716552745,0.650369373224488,0.04,0.0360742884666268,308.864081731052,0.732427964008679,0.309854041767885
3577,-0.249982824669389,-0.25,0.249872493223961,-0.25,0.249999999973179,0.24998053540153,0.249999972420663,0.093970682254463,0.661584183642278,0.661489011804574,0.04,0.0355661208936353,315.689836468436,0.730078196500543,0.317720983206096
3637,0.0583399164802335,-0.25,-0.0583822107126482,0.0583245596704821,0.249999999989718,-0.0583407947627469,0.249999978499917,-0.118144511482249,0.67460072678336,0.67260865038466,0.04,0.0291865803106149,321.936285891437,0.7229538347772,0.327200561262401
3697,0.249999998816485,-0.25,-0.249999999646216,0.24998577243862,0.25,-0.25,0.249999982278912,-0.185041215430724,0.682566574637283,0.683728288964746,0.04,0.0295839164136473,325.736714180917,0.724935924345478,0.330157954826822
3757,0.042185853641879,0.0583032370505061,-0.249999917397179,0.0217188240831053,0.249971314026029,0.0582385698856228,0.249999992376561,0.079853194420168,0.682722114195539,0.694847927544832,0.04,0.042110694401438,325.757826104138,0.766164345352245,0.312411920678223
3817,-0.0869959122774708,0.249951195217037,-0.2499998662694,-0.120176846516269,0.249953482204372,0.249846329544253,0.249999998653477,0.249979114162011,0.700385510462685,0.705967566124918,0.04,0.0459428379745108,334.298266557812,0.824468579583256,0.297930312092604
3877,-0.187498519886547,0.00542869408536524,0.0583333845967301,0.108098566145541,0.249979779178812,0.249936972202166,0.249982779401861,0.249991710827225,0.71177888072915,0.717087204705005,0.04,0.0525440785118694,339.692375947619,0.852899062016179,0.292646166293921
3937,-0.249973113805702,-0.146571779591079,0.25,0.24999949834072,0.249996125946707,0.249993317638166,0.249972075542749,0.249999541186683,0.726295862977044,0.728206843285091,0.04,0.0558979989033473,346.618582116148,0.871975443113175,0.292080298196381
3997,0.0570419767950233,0.0979531493741708,0.249734703316694,0.191383521294211,0.249998456344096,0.249997438427964,0.249982321747469,0.249814180818136,0.731615075045657,0.739326481865177,0.04,0.0688834119771423,349.122325703831,0.896516329947319,0.286137048887272
4057,0.247889195276555,0.249955132244462,0.249569789162206,0.154946562589624,0.249999904969499,0.25,0.249988691009863,0.249698956805255,0.745879486454326,0.750446120445263,0.04,0.0735448681727153,355.992407126813,0.937216614460652,0.279097169763417
4117,0.249190858189346,0.249697644269997,0.249669544712214,0.212678417108653,0.249999963571641,0.0539580687033334,0.249995595150054,0.249788098136863,0.762118392934346,0.761565759025349,0.04,0.0690785977494675,363.72434551049,0.945571576533535,0.282639358243641
4177,0.25,0.249537584177762,0.249731554918975,0.248565786133996,0.25,-0.067905834535135,0.249999886912875,0.24984351031597,0.771987204956622,0.772685397605435,0.04,0.0676425864365959,368.379926118985,0.942918552726237,0.287062492751902
4237,0.25,0.249822740601476,0.249871590855546,0.249450218018032,0.249919024055844,0.128136096761532,0.249999119694712,0.249644045736233,0.777809511928031,0.783805036185521,0.04,0.069633606762451,371.140518302024,0.965569734024961,0.282429073885656
4297,0.25,0.25,0.249958640221522,0.25,0.249868687658126,0.25,0.249998642775314,0.249520054240721,0.789754572047632,0.794924674765607,0.04,0.068371337110653,376.905334520258,1.00483702940839,0.275607689065483
4357,0.14809318956464,0.25,0.249952897739008,0.244502309144325,-0.0163934646653973,-0.0583245445066453,0.249999479730537,-0.00206450683995779,0.821102636891098,0.806044313345693,0.04,0.0508104458066918,391.811119144657,0.973807828695024,0.295636581124619
4417,0.0847457128075239,0.25,0.249949328087715,0.241084825639446,-0.181907775569209,-0.249985747848614,0.25,-0.000981954254461528,0.824158187085585,0.81716395192578,0.04,0.0469182454611803,393.198664179388,0.901939564739759,0.320323847141215
4477,0.186649713396306,-0.0582771613581474,0.249980575766957,0.242872874463985,-0.223821392241803,-0.249994536675302,-0.0018962739702311,0.058326464079328,0.836978328874089,0.828283590505866,0.04,0.0334377956480068,399.005868319235,0.863143992644805,0.339664928657977
4537,0.249995443492036,-0.249908910310509,0.25,0.243984364273834,-0.249875802605849,-0.25,-0.0132522160598918,0.24998886066918,0.839137516480827,0.839403229085952,0.04,0.0272953015827216,400.453774403107,0.871183248749907,0.337751706136477
4597,0.249998253338614,0.058060195592844,0.249999574477341,0.24769400630497,-0.249952390998909,-0.25,-0.0347190015106449,0.247007369996051,0.846922199588852,0.850522867666038,0.04,0.0351439238845453,404.121376923041,0.881083281930336,0.337015239360136
4657,0.25,0.249500450613848,0.249999309963255,0.25,-0.25,-0.25,-0.0494380262038209,0.245154010928971,0.857925321384518,0.861642506246124,0.04,0.0387101419159104,409.419014826126,0.907709277414509,0.331417861713789
4717,0.248930472606911,0.249808491540567,-0.0577780493746628,0.24978134190749,0.0583322479518878,0.0583333333333334,-0.0561392246890842,0.247324961257017,0.856034309202495,0.858626192807024,0.04,0.0484195074953729,408.312787332146,0.922578549494411,0.325195333303023
4777,0.248265631254451,0.24999997644096,-0.24909911058472,0.249645419309444,0.24999823992198,0.25,-0.0453355090449222,0.248674470920397,0.849555902490152,0.846822665950593,0.04,0.0554107257633541,405.273136051173,0.922872349284032,0.322671686712021
4837,0.24933515864754,0.249997691470128,-0.249049075823566,0.249864077401954,0.249999325303426,0.249999983552763,0.0622288929422827,0.248368962755309,0.837486991421178,0.835019139094161,0.04,0.0628814314345352,399.336140164708,0.89755879498861,0.326911640760625
4897,0.25,0.249996271082854,-0.2490179731342,0.25,0.25,0.249999973328805,0.249998500943699,0.248179052274309,0.825224156117079,0.82321561223773,0.04,0.0669501338390082,393.653773763516,0.897601298950007,0.322244581178826
4957,-0.0583333333333334,0.149768432689441,-0.249409531122572,0.249992956010366,0.25,0.24773712024934,0.23776782490372,-0.00513023980633339,0.827260587712009,0.811412085381298,0.04,0.0545512545528837,394.463005481038,0.840507532246363,0.344841357368545
5017,-0.25,0.0874646412556982,-0.249652932034263,0.249988577314107,0.25,0.246330481848592,0.230164972230219,-0.00242691830033589,0.807195046790046,0.799608558524867,0.04,0.0485581677069114,384.95541560061,0.774646803915518,0.365141652441643
5077,-0.102978214722432,0.0103673129792122,-0.249866957279801,0.249531997182521,-0.0583333333333334,0.248593351375294,0.242396572688251,0.0583176597460464,0.79447910802263,0.787805031668435,0.04,0.0425374063796756,378.701634590937,0.735459226320248,0.378349579304057
5137,-0.0115862941444849,-0.0375580532467114,-0.25,0.249248177100724,-0.25,0.25,0.25,0.249972970803269,0.778380931491616,0.776001504812003,0.04,0.0396892389941455,371.287015997149,0.727468098282567,0.375016594289491
5197,0.0113596673034182,-0.0268485462079045,-0.25,0.249687829273554,0.0583333333333334,0.246685888349998,0.247741722313893,0.24998963880792,0.760920582554479,0.764197977955572,0.04,0.0476079732277606,362.890557677178,0.726911372068715,0.366816515637629
5257,0.0256233730683309,-0.020191285075673,-0.25,0.249961126570178,0.25,0.244625764891888,0.246337928076583,0.25,0.751555166434625,0.75239445109914,0.04,0.0505771524782771,358.508857563916,0.745132771733898,0.353525627528144
5317,0.163983773264557,0.00152152763778236,-0.249920914299982,0.249498751508468,0.215127806451697,0.247939876541891,-0.000104399915933461,-0.000104399915933461,0.755570301353091,0.740590924242709,0.04,0.0484990471756179,360.043915601701,0.695226227689151,0.380525709825097
5377,0.249991589602752,0.015018681486687,-0.24987175291889,0.249211329172811,0.193450496948698,0.25,-4.90509765758257e-05,-4.90509765758257e-05,0.73095743049113,0.728787397386277,0.04,0.0546538428112863,348.628798674037,0.672962566809883,0.38065104656094
5437,-0.0583364915086958,-0.148409505430103,-0.249923746601138,0.249697676182911,-0.0718546421805595,0.232384446888066,0.0542663054748354,-0.00123951071299662,0.728106626164036,0.716983870529845,0.04,0.0278593862781105,347.350082366978,0.638412553293621,0.399779632467709
5497,-0.249999893280677,-0.25,-0.249956066998211,0.25,-0.236774052990639,0.221434238196864,0.243388183425151,-0.0239674567861228,0.71248181474744,0.705180343673414,0.04,0.0165710568716447,339.775515080794,0.575901875209396,0.433509144667048
5557,0.0582153051891037,0.0583125784521981,-0.249982736919566,0.249996655485496,-0.0231777606732505,0.239049752145326,0.247465386651618,-0.0633045747488365,0.678594082503991,0.693376816816982,0.04,0.0427036634971727,323.542383412482,0.596316657741674,0.398665740012362
5617,0.249808536670319,0.249966343435997,-0.249999315519328,0.249994576462967,0.10959831292945,0.249999936491668,0.249999864332936,-0.0701564184803979,0.675477618483393,0.681573289960551,0.04,0.0570889123310434,322.290605798395,0.671994401335403,0.352400623617824
5677,0.249891288161614,0.249971722009657,0.0451194137985933,0.249831106578494,0.177950539343215,0.24998372725463,0.249997863946902,0.058486923683417,0.663052133976076,0.669769763104119,0.04,0.0771297329282633,316.106740886233,0.691279274191146,0.335996611268095
5737,0.249942728277825,0.249975065447337,0.228571596888112,0.249729490163822,0.220439761167987,0.249973651242417,0.249996620463692,0.249999652488344,0.654219818406317,0.657966236247688,0.04,0.0846419278861769,312.108510590431,0.737947692255209,0.310766866333773
5797,0.249410216640497,0.170195089438861,0.241781768983881,-0.0557240216245672,-0.0687440855551039,0.109946516222037,0.249135809980194,0.249826323398974,0.656672557037756,0.646162709391256,0.04,0.0669859635588245,313.329306685202,0.71193122767995,0.323383346549951
5857,0.249079195892968,0.120602131379538,0.249993497583953,-0.245600528952485,-0.24850701730189,0.0229026214796384,0.248600711571533,0.249718578289365,0.644583445776327,0.634359182534824,0.04,0.0620156776741043,307.365803644703,0.630123172741151,0.358413841401524
5917,0.249641991562568,0.20039369380178,0.249874069002769,-0.188581395492602,0.057360898800706,-0.14521054665867,0.249395482515206,0.249890948406843,0.625943210892127,0.622555655678393,0.04,0.0730110738614094,298.502113384906,0.59623574124665,0.367861282279974
5977,0.249991837519346,0.249993854226416,0.249799829614465,-0.15313706928781,0.247495008810428,-0.249713326852753,0.24988952931803,0.24999809739879,0.611006951109112,0.610752128821961,0.04,0.0763026621839551,291.414894725464,0.59089270565958,0.362374636747925
6037,-0.0582853916039081,-0.0582929102612304,-0.0583666112010154,-0.212441714020077,-0.0592726238031845,-0.249889891680974,0.249954180370189,-0.00278920596788459,0.619300950551436,0.59894860196553,0.04,0.013133505710755,295.500884450139,0.542034969346737,0.4005771344225
6097,-0.249917182680526,-0.249930628726524,-0.249929533870098,-0.249306763448243,-0.249966017049484,-0.249999648195814,0.249994368862071,-0.0465366600110775,0.583515346388405,0.587145075109098,0.04,5.31181305693356e-09,278.131075839959,0.477444644432478,0.42803685637845
6157,0.0582372433734132,-0.249973284648192,0.0583596246462097,-0.056617245124375,-0.249924679636866,-0.249986564648174,-0.0583354919362061,0.126188751644131,0.584283932802396,0.582620389814133,0.04,4.22505327537228e-06,279.057172997087,0.51651835265943,0.396974041983499
6217,0.249792697406943,-0.249999800491392,0.249998831291482,0.0631627257255972,-0.249898983407401,-0.249978431632074,-0.199404396312934,0.249995268093176,0.572859153988338,0.582620389814133,0.04,0.0184230738424691,273.77333305215,0.562601958189923,0.357556419889424
6277,0.249906556703702,-0.249972677356597,0.163148747097909,0.178379044861479,0.0583720563604965,0.0583416012077049,-0.25,-0.0583264771309916,0.576813898979911,0.582620389814133,0.04,0.035609651419029,275.201347044274,0.594073882067514,0.340380578602435
6337,0.24997733410439,-0.249955817029562,0.109160856923525,0.25,0.25,0.25,-0.25,-0.249985940378447,0.578604660364838,0.582620389814133,0.04,0.04848355335209,276.072597203927,0.621969017132993,0.326143874386544
6397,0.249785864199693,0.0582272731450471,-0.112321671512649,0.0301712944063842,0.153272430259299,0.25,0.0583318232761952,0.0582117251288136,0.569827440962459,0.582620389814133,0.04,0.0608543036415848,271.826438850107,0.6699838667317,0.29811376321055
6457,0.249666842367044,0.24980054541575,-0.25,-0.106478982043701,0.0931444815015665,0.25,0.249997551258695,0.249794057741435,0.58123023287953,0.582620389814133,0.04,0.0662054347953314,277.401504137697,0.715480574485318,0.284882414061932
6517,-0.0584608918445218,-0.0584071752848835,-0.249706654208754,-0.194983609783419,-0.118456895655747,-0.0580020925913728,0.249508624273422,-0.0584056399647811,0.614837653775463,0.582620389814133,0.04,0.0243960900628662,293.850829718108,0.626969000755122,0.344378102746555
6577,-0.249999753651711,-0.249995758423115,-0.249524304122304,-0.25,-0.249992886861645,-0.249462852850875,0.249204696687982,-0.222901388199496,0.594245106786138,0.582620389814133,0.04,0.00255413851896771,283.564708839717,0.425083779968906,0.490153741464006
6637,0.0573532097361423,0.0578121026892524,0.0584969695680826,0.0582645413446415,0.0583074562972191,0.0585392397404979,-0.0585600782012898,-0.249994453887312,0.537861691195813,0.582620389814133,0.04,0.0426890402318535,257.64974418734,0.50143250993766,0.377547765486432
6697,0.248410457247511,0.249152124461805,0.249969653213458,0.249888445423743,0.249953615558135,0.25,-0.249873316645973,-0.249997697540697,0.566952888541108,0.582620389814133,0.04,0.0648955479503497,270.660740981586,0.639835356481677,0.31082196933092
6757,0.249390675278212,-0.0586583522896414,0.249988367065159,-0.0583760959208985,-0.0577451709716671,0.249946245069749,-0.249951438047623,-0.249999107296002,0.589967048382836,0.582620389814133,0.04,0.0321822580070543,281.694604941359,0.65154384346443,0.317679770451689
6817,0.25,-0.25,0.25,-0.25,-0.249017389625327,0.249912829842836,-0.25,-0.24999998363038,0.590480336325056,0.582620389814133,0.04,0.0237637178766457,281.612246626674,0.574226407570025,0.360348777119953
6877,-0.0583333333333333,-0.25,0.0707678487075897,-0.127736471804795,-0.249621307391603,-0.0583667485602463,-0.249999881701615,-0.153745309476238,0.595706341188772,0.582620389814133,0.04,0.000523029476290741,284.718075072623,0.53628757791577,0.390096431599459
6937,-0.25,-0.25,-0.0406467318255303,-0.0517348191429113,-0.249996715732801,-0.25,-0.249999808164782,-0.0939113228398794,0.583771659602078,0.582620389814133,0.04,4.35646173267686e-06,278.485264972733,0.501098485368104,0.408351172823836
6997,-0.25,-0.25,0.13858541946688,0.134331017696224,-0.249457093559599,0.058331871332222,0.058333406870167,-0.143573135097398,0.552361976028146,0.582620389814133,0.04,0.0277127063452291,264.044017563505,0.539791781381768,0.359422069543972
7057,-0.25,-0.25,0.25,0.249993564920551,-0.24912165274923,0.249997629187387,0.25,-0.174443991365585,0.573174196101513,0.582620389814133,0.04,0.0394097357176473,273.591282975518,0.641615449073145,0.313315672720499
7117,0.0583084685119926,0.0583325726801997,0.249998482105496,0.249997533219544,0.0586700331127953,0.248429756697198,0.249927728109004,-0.221036863356808,0.564100569833542,0.582620389814133,0.04,0.0709971062208831,269.063019188203,0.709066607405139,0.278818543462252
7177,0.249959678668096,0.249998766508432,0.249997538549453,0.25,0.25,0.24745513325735,0.249882802338926,-0.25,0.577294687621136,0.582620389814133,0.04,0.0883676210735213,275.546584922839,0.779858319253702,0.259617521609268
7237,0.249984543489437,0.249999516218331,0.249999056443957,0.25,0.249983113698516,-0.0592668391673994,0.221850475083966,-0.25,0.591541154989834,0.582620389814133,0.04,0.0840662877166645,282.314425154756,0.756853838515737,0.274078979046694
7297,0.25,0.249999982254214,0.25,0.25,0.249972616808405,-0.249931849053055,0.20442497435791,-0.25,0.591312378041931,0.582620389814133,0.04,0.0833301577386009,282.067409573114,0.692158256636461,0.29943473816772
7357,0.249948559203865,0.249999906630126,0.249999997019166,0.249994138401694,0.179156773281293,0.0583593304282811,0.232529545592677,-0.129535043179199,0.579487244808278,0.582620389814133,0.04,0.0884335168034429,276.392576713882,0.681256665292082,0.298105704431577
7417,0.249916582492753,0.249999859620558,0.249999995166215,0.249990494705449,0.135136113791467,0.249999793349111,0.249999954738613,-0.0682232316717282,0.581007694468704,0.582620389814133,0.04,0.0840275727606934,277.242463826212,0.70592918286442,0.28857140247455
7477,0.249635102904285,-0.058333387108294,0.0900296581026515,0.249985464519892,-0.102364078954959,0.162527909789393,-0.0359457008668821,0.128014427859171,0.592854283833309,0.582620389814133,0.04,0.0565838354817761,282.987384733094,0.679918073171541,0.305819494691914
7537,0.249460129106049,-0.249999999939743,-0.00941136223415799,0.249982337647788,-0.249999333905439,0.108153495684703,-0.0170565744463885,0.25,0.589934160574384,0.582620389814133,0.04,0.0462603186580639,281.404037766406,0.622419147131179,0.33220185776447
7597,0.24213545449092,-0.106176713867121,0.15055897568402,-0.0583401039016812,0.0582401435156218,0.0931807312375111,0.0583332179287986,0.249572787990107,0.58110271795146,0.582620389814133,0.04,0.0601092226830196,277.016525781053,0.608101961514032,0.334721762936693
7657,0.237582278378813,-0.016773049551708,0.249999996552077,-0.25,0.249848467317903,0.0838733371216891,0.249999811239645,0.249307223767742,0.579494634140117,0.582620389814133,0.04,0.0648404878000849,276.538815395208,0.646774926412863,0.314164854588674
7717,0.244856842930618,0.147724869389871,0.249999998678296,-0.249994430993589,0.249477905669764,0.185692655560225,0.249949003515355,0.249734435777634,0.581024372975037,0.582620389814133,0.04,0.0743859675440152,277.192305479844,0.653317400417055,0.311753703624086
7777,0.249378869543901,0.249980332515718,0.25,-0.249990969178792,0.249247556537138,0.248985745400396,0.249917420335391,0.25,0.581094348801496,0.582620389814133,0.04,0.0794366112286246,277.251740861489,0.66534205993232,0.306185048493705
7837,0.245690957303089,-0.058340872524298,-0.0578144854040587,-0.24998789843774,-0.0586216891124694,0.249611202403485,-0.000656745092964018,-0.000656745092964018,0.607577545670167,0.582620389814133,0.04,0.0347060440509335,289.905709044995,0.603436077404727,0.353004443817472
7897,0.243398471315557,-0.249999999981605,-0.249158624979555,-0.249985989598707,-0.249999868840604,0.25,-0.0209011076815342,-0.0209011076815342,0.593015536592194,0.582620389814133,0.04,0.0151437136473133,282.816632347887,0.492233007289077,0.422171479401164
7957,-0.0582530360414037,0.05829482711867,0.0579731008338484,0.0582405275627984,-0.249998651784022,0.249999269787141,-0.0611277666570295,0.140300771762089,0.56799038812852,0.582620389814133,0.04,0.043196661769916,270.844758464717,0.514723076448014,0.386635272822009
8017,-0.245766135209244,0.249937557478301,0.248892822285423,0.249840794987518,-0.249997895235336,0.249998815871039,-0.0727320197250424,0.249997382206278,0.575033532204606,0.582620389814133,0.04,0.045294088283271,274.440352493988,0.599352828600485,0.336449653567881
8077,-0.148155972891864,0.249974623915328,0.246895189756562,0.24993896662052,0.0583134134857939,0.249951642249273,-0.0683849151066005,0.09831169107334,0.578629530482934,0.582620389814133,0.04,0.056021956311864,276.06707924642,0.623043774710664,0.325574764999895
8137,-0.0874793855053844,0.249997665214022,0.245653418184568,0.249999992230225,0.249966389177307,0.249922318106013,-0.0412709191226063,0.0040205857744867,0.579278348508828,0.582620389814133,0.04,0.0637040468748658,276.38854066752,0.645389535156201,0.31466815226312
8197,0.120628858861462,0.249716579522905,0.248328563387398,0.249857465021135,0.249986616458764,0.249968721009885,0.0583366619774822,-0.0194946454822624,0.578196432777232,0.582620389814133,0.04,0.0726856838686506,275.663824151505,0.660999406212324,0.306431483390263
8257,0.249993443197609,0.249541850579778,0.249991491486454,0.249768867026295,0.249999190174264,0.249997566058237,0.249999661258949,-0.00920831097510763,0.577221442615008,0.582620389814133,0.04,0.0779637087350015,275.452009018815,0.71032028023375,0.284935398332925
8317,0.0331816022109718,-0.0584800166454395,0.249996738170276,0.249911399026747,-0.0583255551223139,0.249998550814752,-0.00437840127827026,0.0583700960347939,0.594875265698619,0.582620389814133,0.04,0.0508573059496379,283.645379098666,0.686096666426929,0.303770138986302
8377,-0.101593325969911,-0.249953069244899,0.249999999622381,0.25,-0.249986883279646,0.249999162960694,-0.00229845586092559,0.249999998252923,0.589661586197276,0.582620389814133,0.04,0.0439005738764172,281.263532039556,0.632822004486559,0.326577703291023
8437,0.115097072405632,0.00600608493324796,0.249894637033144,0.249995338747071,0.0581679126508076,0.249984747505668,0.0582677633326175,0.249966928913819,0.57438538894154,0.582620389814133,0.04,0.0733082141701076,273.811270667099,0.638574599253337,0.315060789857602
8497,0.249796509233672,0.165115829422366,0.249829141369565,0.249992441211467,0.249723596607576,0.249975786547138,0.249869271953212,0.249946372297619,0.574275071881045,0.582620389814133,0.04,0.0844297721023499,274.077470033593,0.714694153968693,0.281778454856914
8557,0.222911802725462,-0.0908619182768433,0.249912375034916,0.249597686473243,-0.058439287967096,-0.0583426151569305,-0.000241804740435768,0.249979418062589,0.598023797612127,0.582620389814133,0.04,0.0527993715434736,285.364026977629,0.687257710059895,0.305094431144233
8617,0.206199687869007,-0.249983220900676,0.249964114880945,0.249352298392725,-0.25,-0.25,-0.000590899107608264,0.249999960024596,0.592153370918165,0.582620389814133,0.04,0.0439705366555782,282.420295479219,0.60175897821559,0.344848229577856
8677,0.0656700167791332,-0.0257654857021564,-0.0583272956810019,-0.0585166613872646,0.0582784750886952,-0.249999430061814,0.0582147744019995,0.249950847980419,0.586981886987519,0.582620389814133,0.04,0.0341610190067951,279.919558104992,0.572092619744805,0.359518774718785
8737,-0.0216862652497075,0.113613106448275,-0.249967902246537,-0.249894663412664,0.249911040684371,-0.249999075775915,0.249807742273513,0.249920318871877,0.585437480156094,0.582620389814133,0.04,0.0297982414504734,279.333902749481,0.563611966914612,0.36416492996769
8797,0.145340301318253,-0.110614975861495,-0.0805201006387713,-0.249956949676035,0.224369192310484,-0.249928320108384,0.249926301204847,0.249969455567553,0.581404512397048,0.582620389814133,0.04,0.0319413771409328,277.37308459517,0.558503058491368,0.364916446187962
8857,0.249167626482121,-0.25,0.0248123165768667,-0.249995668164076,0.208491827105094,-0.249884336855594,0.25,0.25,0.581900838099623,0.582620389814133,0.04,0.0329068777391965,277.635591834033,0.568990195056807,0.358529614313012
8917,0.0702411335517164,-0.25,-0.144526731271317,-0.249995600768976,-0.0742447147003577,-0.249955662011066,0.220105312699297,-0.0583333333333333,0.608292553832049,0.582620389814133,0.04,0.000126773371572167,290.24153730715,0.49581888689588,0.43012152401723
8977,-0.0409834431347513,-0.25,-0.249791544798566,-0.249995558874724,-0.249999862309152,-0.249999999269874,0.201522128701562,-0.135963010696092,0.567462565766246,0.582620389814133,0.04,6.82326433997858e-09,270.653635658373,0.527330583114241,0.377125224858379
9037,-0.169876986534988,-0.220566140310462,-0.249820426751553,-0.249998221246507,0.0581924057649297,0.0583323014012783,0.230782669749575,-0.220353026779001,0.593498378447317,0.582620389814133,0.04,4.57127200218889e-07,283.585015130455,0.56315191271393,0.370009088220074
9097,-0.25,-0.202269416719668,-0.249838380398003,-0.249999876234373,0.249771383216386,0.249998326142805,0.248971654725368,-0.249997035307043,0.579242495963559,0.582620389814133,0.04,0.0170697133475132,276.465891821039,0.54890736173574,0.370081333230642
9157,0.0113918009067819,0.0766299524748363,0.0583448106214636,0.0583206263006067,0.249912284858283,0.249984844325913,0.249603212405691,-0.249827043535859,0.550567468332669,0.582620389814133,0.04,0.0547510992456249,262.523442839869,0.638653652601782,0.302035065993016
9217,0.173878596065052,0.249999830622771,0.249918145579511,0.249979317065594,0.249999872365408,0.249976463737035,0.249995802315081,-0.249721372975393,0.570892679062473,0.582620389814133,0.04,0.0729898778412632,272.55709120748,0.771399309134067,0.259616874027641
9277,-0.0874653327322406,0.249999935072062,0.249171050011901,0.249992071541811,0.249997559893668,0.18988968239307,-0.0583300561588682,-0.150406382280981,0.591054107484806,0.582620389814133,0.04,0.067380086874383,282.113820839121,0.762773934543344,0.27175853660047
9337,-0.249922369552179,0.25,0.248706639253657,0.25,0.249996122411236,0.152538439936011,-0.249992076291323,-0.0886700367141843,0.595690023298512,0.591278690958649,0.04,0.0652052145231394,284.224768788217,0.708711108038928,0.29467775897346
9397,0.0583326794831271,-0.0582885664036354,-0.0588027060802611,0.0255737619953396,0.0761626600520178,0.0140678880105502,0.0583363707549929,-0.188156847407104,0.610722484535127,0.605319179301109,0.04,0.0350316297143683,291.574373747597,0.6925028706753,0.309373029229769
9457,0.249950682937507,-0.249927404978868,-0.249957163990535,-0.113934440007557,-0.0318959787118201,-0.0720084010241956,0.25,-0.198925628425954,0.623811771766598,0.619359667643568,0.04,0.0219524019848608,297.65182026618,0.649048137519769,0.336966177250032
9517,0.11409094638272,0.0583611614247673,-0.249983579268785,-0.197841294983772,-0.166279627091206,-0.181769495449661,-0.0583333333333333,0.0583332002661647,0.638361388122944,0.633400155986027,0.04,0.013818460845258,304.69518124594,0.625103015517069,0.358153061799976
9577,0.0296375966324467,0.25,-0.249999999576887,-0.249999610239257,-0.249815408516229,-0.249999364957383,-0.25,0.249999784215402,0.648528307283143,0.647440644328487,0.04,0.0128577931411071,309.473820954772,0.600195581044241,0.378866145613517
9637,-0.142586049840155,-0.058331032044554,0.0580866099671055,0.0583322895061175,0.0584040934021123,0.0583335767663366,-0.249311670351056,-0.0583330196682581,0.64203115825966,0.661481132670946,0.04,0.0216322195498214,306.485574706222,0.665120030085822,0.338582640785845
9697,-0.249643992242042,-0.249996268180358,0.249599907791749,0.249998065023512,0.25,0.25,-0.248883789758469,-0.24999935721756,0.667966699770095,0.675521621013405,0.04,0.0293620500114745,318.812143775875,0.724936230269376,0.323139260517588
9757,-0.249862079774444,-0.00572273423488684,-0.0584867020131629,0.184087275153517,0.25,0.249968489060206,-0.0890852159657077,0.0582930976763875,0.673793496592805,0.689562109355864,0.04,0.0377840921700131,321.530552497368,0.793296999669311,0.297811258129681
9817,-0.249997647699991,0.146122976055541,-0.25,0.143115703072168,0.25,0.249948901178713,0.010249032608171,0.249934353421274,0.695799023315433,0.703602597698324,0.04,0.0413550763224798,332.146484260358,0.868050568034981,0.281150791515348
9877,0.058330686024001,-0.00377757055724692,-0.249991084791242,-0.0992861928203677,0.249213313005649,-0.0583529212148268,-0.0823736898501024,-0.0583584978551783,0.730574051364143,0.717643086040783,0.04,0.0300803491028611,348.818614702989,0.844671895389367,0.303435427320501
9937,0.249994244825402,-0.0969589914246557,-0.249985542904717,-0.249968452429241,0.248724291360512,-0.25,-0.139949976783624,-0.25,0.73772391378169,0.731683574383242,0.04,0.0291776529517219,351.993568829978,0.771385759818729,0.335287828154907
9997,0.249997790127145,-0.19084011400917,-0.24984218153126,0.05615504365852,0.249500824464169,-0.25,0.035814803903017,-0.237706465477318,0.737820962238384,0.745724062725702,0.04,0.0376850705855818,352.042020409817,0.786265263324605,0.328988026280157
10057,0.249999993963364,-0.249198649669815,-0.249753065001814,0.246448027713074,0.249983534231307,-0.25,0.145073991897415,-0.230064538611867,0.754360660149491,0.759764551068161,0.04,0.0374817642067798,360.060905413583,0.836781716626964,0.316168401174769
10117,0.249999997685956,0.0586404077872736,0.0584275421199028,-0.0596906291515452,-0.0579688217516783,-0.249997510743925,-0.09853416656932,0.0659752601987842,0.76918197297616,0.77380503941062,0.04,0.0426638841228352,367.089770054613,0.86212604597261,0.312864431343924
10177,0.25,0.24999982188222,0.24999927087124,-0.249993037472795,-0.24939866466002,-0.249995963368527,-0.249966265075669,0.25,0.786233614949006,0.78784552775308,0.04,0.0459552928108595,375.242109435508,0.879755224408748,0.313403895587558
10237,-0.0583097724095551,0.249576138029787,0.249219013793215,-0.246019593113673,-0.160114012988858,0.0583348807087315,0.058343053816759,0.249997459251895,0.79097449878356,0.801886016095539,0.04,0.0556071075674256,377.420674450782,0.916483139099927,0.302590914000081
10297,-0.249961793096576,0.249312766986383,0.248733989123092,-0.243549614187732,-0.104612743031108,0.25,0.249994792587728,0.249995879867937,0.811598692210387,0.815926504437998,0.04,0.0547355584296047,387.373676301359,0.96635847534782,0.294541518551409
10357,0.0583471461347085,-0.0415264733565813,-0.0588186375028148,-0.247527352105297,0.114048214842321,0.249978833186899,0.249998000862241,-0.0583333672430481,0.838015790623589,0.829966992780458,0.04,0.0468722027711617,400.008688038931,0.950018113273897,0.309379985447992
10417,0.249998648900101,-0.222318433569775,-0.25,-0.25,0.249972594060938,0.249965675438214,0.249999995195047,-0.249997493825553,0.846708031859065,0.844007481122917,0.04,0.0444525162103526,404.015022400027,0.909529346038001,0.326388970020174
10477,0.249997328129003,-0.239388732868414,0.0583332334620191,0.0583262184919291,-0.0583437041925413,0.249961961536592,0.249980621981282,-0.249998680532504,0.852197140277676,0.858047969465376,0.04,0.0482140068158338,406.659240355283,0.926126807916437,0.322637516281967
10537,0.249996507109131,-0.25,0.249999838046518,0.249988462419344,-0.249999781485245,0.249959652895042,0.249968579172725,-0.249999418215204,0.867199759276503,0.872088457807835,0.04,0.0479211165157621,413.877672634692,0.964246014541083,0.315383393639517
10597,-0.0583316705820981,-0.246393002898344,0.249999937917832,0.249993911778549,-0.249999916236011,-0.0582849210539878,0.249987955349544,-0.249999423333246,0.893482479819843,0.886128946150295,0.04,0.0325207469612885,426.508223814359,0.958121432633636,0.327085679802844
10657,-0.249995132390159,-0.244150815510828,0.25,0.249997299218053,-0.25,-0.24989641296825,0.25,-0.249999426514732,0.904168280051537,0.900169434492754,0.04,0.0263235382070336,431.412949471427,0.906229861517589,0.349791687420355
10717,-0.249945806946624,-0.247757812612484,-0.0581366638466652,0.132661121054947,-0.249999980218252,-0.249930335632827,0.249999154193281,0.0583335494937672,0.917823847205984,0.914209922835213,0.04,0.0217372006384341,438.049438073845,0.895496977046448,0.359429467699808
10777,-0.249915145184427,-0.25,-0.249681076508106,0.0597224157103134,-0.24999996792149,-0.249951422694592,0.249998628421536,0.249999994039591,0.928371834974221,0.928250411177673,0.04,0.019772708626119,443.021862424038,0.8763633334218,0.371445957445572
10837,0.0583635548974271,-0.249981607968439,0.0578947474630863,0.177057536602332,-0.24999530722394,-0.249968999467637,0.249738959713263,0.249994568071055,0.91545459451328,0.942290899520132,0.04,0.0304863352828061,436.759581370915,0.959284400271901,0.334541296169817
10897,0.249996260353715,-0.249970175083955,0.249090529931665,0.249995584724397,-0.249992410033572,-0.249979925569801,0.249577544029741,0.249991195171696,0.942130295447804,0.956331387862591,0.04,0.0352765777793927,449.730272659212,1.09836618401959,0.300856670435878
10957,-0.058334737030804,0.0583447662170937,0.049241581032704,0.2499982690845,-0.0436634470499274,-0.249600149529837,0.249838016224405,-0.0583366243447459,0.971628451149323,0.970371876205051,0.04,0.0351312613793349,463.781024219977,1.12640745877369,0.302532568134172
11017,-0.24999995162118,0.249999999998826,-0.0749888466612448,0.249999937740781,0.084595097507473,-0.249364072532022,0.24999993137244,-0.249999863503615,0.980943204867332,0.975754063402993,0.04,0.0408942675056802,467.98896591133,1.09173244676788,0.314973540277981
11077,0.0342389077114269,-0.0582477336870005,0.0789638726479586,-0.0583332955010225,-0.121738545941692,-0.0734613718001802,0.249998561872586,0.0583333302515751,0.974108749133278,0.975754063402993,0.04,0.0462536993416277,464.715515963277,1.08312262664497,0.315256624246359
11137,0.210927928377643,-0.249861189761974,0.174664211678004,-0.24999989994863,-0.24999999997766,0.03588355027637,0.249997710561867,0.24999991015345,0.978057142111931,0.975754063402993,0.04,0.0484854506959379,466.661463154781,1.08267458069177,0.31670773784411
11197,0.235004967571012,-0.249946333560993,-0.0872120521744969,0.0583333678531375,-0.249953452454164,-0.140398781231872,0.249996620425156,0.249869539822738,0.981974271208646,0.975754063402993,0.04,0.0480052201086165,468.520039902786,1.05408509880559,0.326593227008788
11257,0.249971775718241,-0.249999260787411,-0.2499999999747,0.249999993783966,-0.249924517507126,-0.249979690007265,0.249995942772606,0.24978849880635,0.980340256412026,0.975754063402993,0.04,0.0475741654033998,467.7009050183,1.0193605994239,0.337128170244952
11317,-0.0583437022537813,-0.249947671659767,-0.249383715979558,-0.0583333345502142,-0.249327537946716,0.0583410146244341,-0.0583304846492749,0.248177868817223,0.992747829879395,0.975754063402993,0.04,0.0347542353807007,473.781095126919,0.960426104126333,0.362466979011566
11377,-0.249999269641795,-0.249915602742584,-0.249000620523118,-0.249999998109299,-0.248956442544299,0.249999831017112,-0.249992858452066,0.24717666639155,0.985196774224267,0.975754063402993,0.04,0.0284328008613895,469.972578353248,0.862127106231503,0.400549224300992
11437,-0.249999720004412,-0.249539160230781,-0.249548659631957,-0.249994744092022,-0.249599909017579,-0.0581982971425073,0.0583360072411554,-0.0594087704217967,0.988654369333976,0.975754063402993,0.04,0.0182132590367722,471.712798352031,0.802898726661229,0.431689580749905
11497,-0.249999999959553,-0.249305155426146,-0.249889332591505,-0.249991478081282,-0.249999901690158,-0.249780917349838,0.249999896726131,-0.249988906819283,0.980018814655849,0.975754063402993,0.04,0.0113370905179887,467.569240392079,0.748770475142302,0.458830097026254
11557,0.0583332594712902,-0.249724221873225,-0.2499516032303,0.058321018758263,-0.249999962314561,-0.0575558881333952,0.249997488985355,-0.249995744916466,0.946551237195195,0.975754063402993,0.04,0.0213289363769475,451.52084797022,0.823432706104009,0.402906590279682
11617,0.249999880198571,-0.249984722637626,-0.249990312005767,0.249974733009872,-0.25,0.0619353462443937,0.24999599228163,-0.249999995625526,0.960341480155242,0.975754063402993,0.04,0.0251803058535321,458.310986969141,0.973760664286816,0.345830042408577
11677,-0.0583333792572146,0.0583391896555768,0.0583222854715805,-0.0583423021883666,0.0583333333333333,0.177905726334632,0.249996223763922,-0.249999126646151,0.956767772650196,0.975754063402993,0.04,0.0387400386851328,456.458948138377,1.06645810915976,0.314494171086844
11737,-0.25,0.25,0.249976062281824,-0.249998837581867,0.25,0.249995422066402,0.249996367658319,-0.249998586469783,0.969155569071881,0.975754063402993,0.04,0.0480955276630095,462.467055292104,1.13950809400543,0.298207156982256
11797,-0.24999729105637,0.213983961223584,0.249990823874699,-0.249956058743653,0.24998862879063,-0.0583350882078792,0.249996079055426,0.0582856774229164,0.967082155944472,0.964477845434962,0.04,0.0560440701337557,461.302047433418,1.14093414720107,0.297084148680205
11857,-0.249995607118438,0.191595612795001,0.25,-0.249929466492872,0.249981560201021,-0.25,0.249995899653627,0.249921841464324,0.955876014957884,0.946192086567885,0.04,0.0651837553781751,455.938267611395,1.09647378069064,0.305536057164331
11917,-0.249998316062068,0.0267764495976716,0.249992089481381,-0.249963210434436,-0.0583404019229418,0.058332289830542,0.249995613829051,0.24996976393032,0.941274692344308,0.927906327700807,0.04,0.0689944833631227,448.962733702493,1.02360494514026,0.322279435808614
11977,-0.25,-0.0756787059033708,0.24998717213197,-0.24998418639811,-0.25,0.249998307833312,0.249995436154315,0.249999553571345,0.92133892586633,0.909620568833729,0.04,0.0705368151321684,439.396065711579,0.943219029825751,0.342293211432854
12037,-0.214657670848912,-0.110341394483986,0.249995082650589,-0.24974828779,0.0583333333333334,0.249993962794742,0.247721314851877,0.205696121659621,0.896832833454588,0.891334809966652,0.04,0.0747876737208174,427.688392283587,0.8931490445472,0.351850523650975
12097,-0.192688114890128,-0.131888471169233,0.25,-0.249601648114689,0.25,0.24999126182482,0.24630767188009,0.178156150471251,0.879010519304826,0.873049051099574,0.04,0.0736730014783403,419.246906381562,0.863395104313858,0.35679187932125
