time,bias_percent_1,bias_percent_2,bias_percent_3,bias_percent_4,bias_percent_5,bias_percent_6,bias_percent_8,bias_percent_9,normalized_power,power_SP,SP,CV,total_power_MW,fuel_fraction,thermal_efficiency
11,0,0,0,0,0,0,0,0,0.99974658770948,1,0.04,0.0400258988551552,477.000381681477,0.998527684904415,0.351004991412489
71,0.00266313699183422,0.000119211304563123,-0.00143149318518454,-0.00563887738199242,0.00209272683095992,-0.000474024984008111,-0.00387703396066206,0.00221736510060845,0.997403859837397,0.991236621191981,0.04,0.0415204728170892,475.649323663931,0.989714322135743,0.353127634203737
131,0.0171893387654762,0.000769454783998526,-0.00923963783164595,-0.0363963903746785,0.0135076004543778,-0.00305961580587007,-0.0250244919279098,0.0143120838311999,0.959030623374161,0.943436373148243,0.04,0.0548507923476984,457.187742252933,0.902775222472664,0.372108527957097
191,0.0317155405391183,0.00141969826343382,-0.0170477824781074,-0.0671539033673646,0.0249224740777955,-0.00564520662773214,-0.0461719498951576,0.0264068025617913,0.911252155786452,0.895636125104505,0.04,0.0648086345628371,434.372672793314,0.805609164084893,0.396180206122443
251,0.0462417423127602,0.0020699417428691,-0.0248559271245688,-0.0979114163600507,0.0363373477012133,-0.00823079744959421,-0.0673194078624053,0.0385015212923827,0.86261637695837,0.847835877060767,0.04,0.0700167498458128,411.166594587164,0.712698538859584,0.423903137337912
311,0.0607679440864021,0.00272018522230451,-0.0326640717710303,-0.128668929352737,0.047752221324631,-0.0108163882714563,-0.0884668658296531,0.0505962400229742,0.813785715544398,0.800035629017029,0.04,0.0715104732426517,387.868388264828,0.625626834086048,0.455537038222503
371,0.0752941458600438,0.00337042870173991,-0.0404722164174918,-0.159426442345423,0.0591670949480488,-0.0134019790933182,-0.109614323796901,0.0626909587535656,0.764853410762292,0.752235380973291,0.04,0.0698062923307,364.522166277624,0.545169437165727,0.49130040033608
431,0.0898203476336859,0.0040206721811752,-0.0482803610639531,-0.190183955338109,0.0705819685714665,-0.0159875699151802,-0.130761781764149,0.074785677484157,0.715841392095304,0.704435132929553,0.04,0.06512313329856,341.137802712636,0.471812533547075,0.531269703767751
491,0.104346549407328,0.00467091566061055,-0.0560885057104146,-0.220941468330795,0.0819968421948842,-0.0185731607370423,-0.0719647498816411,0.0868803962147484,0.66473180105361,0.656634884885815,0.04,0.060207673747279,317.069908203085,0.415533702236887,0.560665005211241
551,0.11887275118097,0.00532115914004578,-0.0638966503568761,-0.251698981323481,0.093411715818302,-0.0211587515589044,-0.0339934439336921,0.0989751149453399,0.615608812610392,0.608834636842077,0.04,0.055304879952767,293.647223760329,0.370569721023881,0.582251538771593
611,0.133398952954612,0.00597140261948118,-0.0717047950033375,-0.282456494316167,0.10482658944172,-0.0237443423807664,-0.0160571006026898,0.111069833675931,0.567217083234658,0.561034388798339,0.04,0.0521501597890693,270.539143039887,0.331235989230458,0.600132669220779
