time,bias_percent_1,bias_percent_2,bias_percent_3,bias_percent_4,bias_percent_5,bias_percent_6,bias_percent_8,bias_percent_9,normalized_power,power_SP,SP,CV,total_power_MW,fuel_fraction,thermal_efficiency
48,0,0,0,0,0,0,0,0,0.999791661352074,1,0.04,0.0399196615402469,477.0041948439,0.999944717561722,0.35051038035186
108,0.0170977238659866,0.00787176464173058,0.0124768672491828,0.00432355747383963,0.0195323114853759,-0.0111931181049721,0.0215826340918394,0.0281511918985566,0.985836000325049,0.980753377706142,0.04,0.0467718651924391,470.165729518865,0.977407286379722,0.353451699420838
168,0.0384698786984694,0.0177114704438937,0.0280729513106612,0.00972800431613916,0.0439477008420955,-0.0251845157361873,0.0485609267066387,0.0633401817717525,0.962352153453934,0.956695099838819,0.04,0.0545588970053568,458.946278199381,0.942524794860951,0.357786331039936
228,0.0598420335309527,0.027551176246057,0.0436690353721397,0.0151324511584387,0.0683630901988153,-0.0391759133674024,0.075539219321438,0.0985291716449483,0.938095898754934,0.932636821971497,0.04,0.0601199416593661,447.37224560293,0.908098379741557,0.361985198773954
288,0.0812141883634357,0.0373908820482202,0.0592651194336181,0.0205368980007382,0.092778479555535,-0.0531673109986176,0.102517511936237,0.133718161518144,0.913797594290976,0.908578544104174,0.04,0.0640362450343966,435.779748896986,0.875104013896276,0.365899692683863
348,0.102586343195919,0.0472305878503832,0.0748612034950965,0.0259413448430378,0.117193868912255,-0.0671587086298326,0.129495804551037,0.16890715139134,0.889648637012874,0.884520266236851,0.04,0.0669075557896506,424.260295569721,0.843094237764527,0.36975235214261
408,0.123958498028402,0.0570702936525465,0.0904572875565749,0.0313457916853373,0.141609258268975,-0.0811501062610478,0.156474097165836,0.204096141264536,0.865638154745701,0.860461988369529,0.04,0.0692263369773236,412.805023830208,0.810938946698352,0.374034353049311
468,0.145330652860885,0.0669099994547097,0.106053371618053,0.0367502385276368,0.166024647625694,-0.0951415038922629,0.183452389780635,0.239285131137732,0.841607192861666,0.836403710502206,0.04,0.0710666913430281,401.339534005988,0.778550960065495,0.378773488465076
528,0.166702807693368,0.0767497052568729,0.121649455679532,0.0421546853699364,0.190440036982414,-0.109132901523478,0.210430682395434,0.274474121010928,0.817450201209756,0.812345432634884,0.04,0.0724841858379165,389.806675662188,0.746293023941764,0.383790805977713
588,0.188074962525851,0.086589411059036,0.13724553974101,0.0475591322122358,0.214855426339134,-0.123124299154693,0.237408975010234,0.309663110884123,0.79167853949347,0.788287154767561,0.04,0.0745490032442225,377.504701491844,0.720901438952581,0.384769951550324
648,0.209447117358334,0.0964291168611993,0.152841623802489,0.0529635790545354,0.239270815695853,-0.137115696785908,0.264387267625033,0.344852100757319,0.766317239718908,0.764228876900238,0.04,0.0770018626906705,365.411898812522,0.704952289940914,0.380870762807557
708,0.230819272190817,0.106268822663362,0.168437707863967,0.058368025896835,0.263686205052573,-0.151107094417124,0.291365560239832,0.380041090630515,0.741744666220352,0.740170599032916,0.04,0.0803026618491397,353.693194826535,0.693558125315704,0.37471278925491
768,0.2521914270233,0.116108528465526,0.184033791925446,0.0637724727391345,0.288101594409293,-0.165098492048339,0.318343852854632,0.415230080503711,0.717603981532524,0.716112321165593,0.04,0.0844712855793063,342.177806925971,0.683370126284621,0.367917567498391
828,0.273563581855783,0.125948234267689,0.199629875986924,0.0691769195814339,0.312516983766013,-0.179089889679554,0.345322145469431,0.450419070376907,0.693624393246034,0.69205404329827,0.04,0.0892095486589449,330.737738950937,0.672943319533192,0.361126985978052
888,0.294935736688267,0.135787940069852,0.215225960048402,0.0745813664237335,0.336932373122732,-0.193081287310769,0.37230043808423,0.485608060250103,0.669674042696289,0.667995765430948,0.04,0.0942142665912572,319.311003189749,0.661890149241394,0.354472577245146
948,0.299210167654763,0.137755881230285,0.218345176860698,0.0756622557921934,0.341815450994076,-0.195879566837012,0.37769609660719,0.492645858224742,0.657743763828224,0.663184109857483,0.04,0.0897774494017669,313.791403699154,0.681346224352755,0.338398059975072
1008,0.299210167654763,0.137755881230285,0.218345176860698,0.0756622557921934,0.341815450994076,-0.195879566837012,0.37769609660719,0.492645858224742,0.658063056055175,0.663184109857483,0.04,0.0831927273101447,313.975318457802,0.714654763291611,0.322815138727084
1068,0.299210167654763,0.137755881230285,0.218345176860698,0.0756622557921934,0.341815450994076,-0.195879566837012,0.37769609660719,0.492645858224742,0.65981924504429,0.663184109857483,0.04,0.080646542547903,314.812404782847,0.738375077523313,0.313277701444176
1128,0.299210167654763,0.137755881230285,0.218345176860698,0.0756622557921934,0.341815450994077,-0.195879566837012,0.37769609660719,0.492645858224742,0.661112862694307,0.663184109857483,0.04,0.0803193405017181,315.424893471868,0.753155179199213,0.307727404900756
1188,0.299210167654763,0.137755881230285,0.218345176860698,0.0756622557921934,0.341815450994076,-0.195879566837012,0.37769609660719,0.492645858224742,0.661889774361177,0.663184109857483,0.04,0.0806853790714014,315.792248138138,0.762305219505434,0.304387804333086
1248,0.299210167654763,0.137755881230285,0.218345176860698,0.0756622557921934,0.341815450994076,-0.195879566837012,0.37769609660719,0.492645858224742,0.66234517224738,0.663184109857483,0.04,0.0811259037661823,316.007644537397,0.768154686038401,0.302275940272869
1308,0.299210167654763,0.137755881230285,0.218345176860698,0.0756622557921934,0.341815450994076,-0.195879566837012,0.37769609660719,0.492645858224742,0.662622945892715,0.663184109857483,0.04,0.0814740131125203,316.139144852162,0.772026755435476,0.300885042614673
1368,0.299210167654763,0.137755881230285,0.218345176860698,0.0756622557921934,0.341815450994076,-0.195879566837012,0.37769609660719,0.492645858224742,0.662801779670609,0.663184109857483,0.04,0.0817183838546807,316.223876020582,0.774650290259556,0.29994639454533
1428,0.299210167654763,0.137755881230285,0.218345176860698,0.0756622557921935,0.341815450994077,-0.195879566837012,0.37769609660719,0.492645858224742,0.662921603174406,0.663184109857483,0.04,0.0818839942946762,316.280676002794,0.776447857348267,0.299305735257936
1488,0.299210167654763,0.137755881230285,0.218345176860698,0.0756622557921935,0.341815450994077,-0.195879566837012,0.37769609660719,0.492645858224742,0.663003509820898,0.663184109857483,0.04,0.0819957400066433,316.319509767646,0.777684032271527,0.298866662150419
1548,0.299210167654763,0.137755881230285,0.218345176860698,0.0756622557921935,0.341815450994076,-0.195879566837012,0.37769609660719,0.492645858224742,0.663059858834779,0.663184109857483,0.04,0.0820715051711977,316.346227097958,0.778534563402225,0.298565372816645
1608,0.299210167654763,0.137755881230285,0.218345176860698,0.0756622557921934,0.341815450994076,-0.195879566837012,0.37769609660719,0.492645858224742,0.663098633641419,0.663184109857483,0.04,0.0821231273740046,316.36461146288,0.779119667271688,0.298358493975723
1668,0.299210167654763,0.137755881230285,0.218345176860698,0.0756622557921934,0.341815450994076,-0.195879566837012,0.37769609660719,0.492645858224742,0.663125275440259,0.663184109857483,0.04,0.0821583833014035,316.377242851061,0.77952229271103,0.298216297291947
1728,0.299210167654763,0.137755881230285,0.218345176860698,0.0756622557921934,0.341815450994076,-0.195879566837012,0.37769609660719,0.492645858224742,0.663143556178989,0.663184109857483,0.04,0.082182459432493,316.385909954171,0.779799652238699,0.298118394252386
1788,0.299210167654763,0.137755881230285,0.218345176860698,0.0756622557921935,0.341815450994076,-0.195879566837012,0.37769609660719,0.492645858224742,0.663156090466242,0.663184109857483,0.04,0.0821988711477202,316.391852542258,0.779991103702506,0.298050818180697
1848,0.271889218553389,0.143855542568221,0.193487645757543,0.0831738146101056,0.334651547962401,-0.203721020455155,0.347661262076991,0.482162981534653,0.663592892600842,0.661582891681949,0.04,0.0809298798194321,316.595235821059,0.772633184041959,0.301082625611303
1908,0.237738032176672,0.151480119240641,0.1624157318786,0.0925632631324958,0.325696669172806,-0.213522837477833,0.310117718914242,0.469059385672042,0.66218164140249,0.659581368962532,0.04,0.0797288160153696,315.911638495798,0.757504003458713,0.306432884907107
1968,0.203586845799954,0.159104695913062,0.131343817999657,0.101952711654886,0.316741790383211,-0.223324654500511,0.272574175751493,0.455955789809432,0.660126919245858,0.657579846243114,0.04,0.0777507045286662,314.929735323632,0.74191653763996,0.311898504695529
2028,0.169435659423237,0.166729272585482,0.100271904120714,0.111342160177276,0.307786911593617,-0.23312647152319,0.235030632588744,0.442852193946821,0.658026441568023,0.655578323523697,0.04,0.0750151450370254,313.927908568239,0.726945842806224,0.317309113478738
2088,0.135284473046519,0.174353849257903,0.0691999902417705,0.120731608699666,0.298832032804022,-0.242928288545868,0.197487089425994,0.42974859808421,0.655972613172994,0.65357680080428,0.04,0.0717349994356022,312.948341736941,0.712383763271536,0.322784980595588
2148,0.101133286669801,0.181978425930323,0.0381280763628272,0.130121057222057,0.289877154014428,-0.252730105568546,0.159943546263245,0.416645002221599,0.653944395922478,0.651575278084862,0.04,0.0680262750424334,311.980849084961,0.698034707998403,0.32840184974354
2208,0.0669821002930839,0.189603002602744,0.00705616248388401,0.139510505744447,0.280922275224833,-0.262531922591225,0.122400003100496,0.403541406358989,0.651925854085184,0.649573755365445,0.04,0.0639514232948541,311.017374941514,0.683819152174283,0.334193553009694
2268,0.0328309139163665,0.197227579275164,-0.0240157513950593,0.148899954266837,0.271967396435238,-0.272333739613903,0.0848564599377473,0.390437810496378,0.649887909809002,0.647572232646027,0.04,0.0595197911965384,310.045020240476,0.669778743783025,0.340132456828234
2328,-0.00132027246035113,0.204852155947584,-0.0550876652740026,0.158289402789227,0.263012517645644,-0.282135556636581,0.0473129167749982,0.377334214633767,0.647855359734165,0.64557070992661,0.04,0.0547382033814039,309.07487396343,0.655944742426507,0.346219178589757
