time,bias_percent_1,bias_percent_2,bias_percent_3,bias_percent_4,bias_percent_5,bias_percent_6,bias_percent_8,bias_percent_9,normalized_power,power_SP,SP,CV,total_power_MW,fuel_fraction,thermal_efficiency
39,0,0,0,0,0,0,0,0,0.999715976878833,1,0.04,0.0399473494756385,476.969021830479,0.999796031052415,0.350536657607458
99,0.00935821142159614,0.0145514491650636,0.00639288986294014,0.0133505291546899,-0.00849796753651253,0.0196106596282953,0.0231912558162952,0.0150953705813874,0.988338485534291,0.983200338548358,0.04,0.0460289466346527,471.353482371418,0.980857965084533,0.353098012597773
159,0.0237554597625133,0.0369382940343922,0.0162281050366943,0.0338898047772899,-0.0215717637465319,0.0497809052102879,0.0588701109182878,0.038319017629676,0.963402002888932,0.957354705545832,0.04,0.0549862294048881,459.432862812756,0.943746702721186,0.357701931836524
219,0.0381527081034303,0.0593251389037208,0.0260633202104482,0.0544290803998898,-0.0346455599565513,0.0799511507922804,0.0945489660202803,0.0615426646779644,0.93729127507746,0.931509072543306,0.04,0.0614464691464989,446.973377074909,0.907138124738559,0.362045299069877
279,0.0525499564443475,0.0817119837730495,0.0358985353842023,0.0749683560224898,-0.0477193561665706,0.110121396374273,0.130227821122273,0.0847663117262528,0.911123769420813,0.90566343954078,0.04,0.0659999782444116,434.489459169489,0.872455247921339,0.365923888029444
339,0.0669472047852645,0.104098828642378,0.0457337505579563,0.0955076316450896,-0.06079315237659,0.140291641956266,0.165906676224266,0.107989958774541,0.885182899322539,0.879817806538254,0.04,0.0694002959598345,422.115309103895,0.838917963153111,0.369714331528736
399,0.0813444531261816,0.126485673511707,0.0555689657317105,0.11604690726769,-0.0738669485866094,0.170461887538258,0.201585531326258,0.13121360582283,0.859363684755037,0.853972173535728,0.04,0.0721760869361604,409.797150300488,0.805341492371594,0.373889729163177
459,0.0957417014670987,0.148872518381035,0.0654041809054645,0.136586182890289,-0.0869407447966287,0.200632133120251,0.237264386428251,0.154437252871118,0.833544677234694,0.828126540533202,0.04,0.0744187527679176,397.478804093803,0.771588786639196,0.37851469375487
519,0.110138949808016,0.171259363250364,0.0752393960792185,0.157125458512889,-0.100014541006648,0.230802378702243,0.272943241530243,0.177660899919407,0.807067865502636,0.802280907530676,0.04,0.076621984150712,384.831727836644,0.739138684718823,0.382560048805126
579,0.124536198148933,0.193646208119693,0.0850746112529725,0.177664734135489,-0.113088337216667,0.260972624284236,0.308622096632236,0.200884546967695,0.779398771892358,0.77643527452815,0.04,0.0794831289610122,371.633843026602,0.71655099484458,0.38108585522354
639,0.13893344648985,0.216033052989021,0.0949098264267266,0.198204009758089,-0.126162133426687,0.291142869866229,0.344300951734228,0.224108194015984,0.752508913457105,0.750589641525624,0.04,0.0829076637801437,358.811431324025,0.702031053657128,0.375547282611254
699,0.153330694830767,0.23841989785835,0.104745041600481,0.218743285380689,-0.139235929636706,0.321313115448221,0.379979806836221,0.247331841064272,0.726303506411059,0.724744008523098,0.04,0.087246671339649,346.312827242711,0.690895856721724,0.368307587567549
759,0.167727943171684,0.260806742727679,0.114580256774235,0.239282561003289,-0.152309725846726,0.351483361030214,0.415658661938214,0.270555488112561,0.700450430129803,0.698898375520572,0.04,0.092379055214333,333.980067962505,0.680385453588265,0.360678458651043
819,0.182125191512601,0.283193587597007,0.124415471947989,0.259821836625889,-0.165383522056745,0.381653606612207,0.451337517040206,0.293779135160849,0.674728832988106,0.673052742518046,0.04,0.0979932846309204,321.708764086903,0.669320115702064,0.353169907058128
879,0.196522439853518,0.305580432466336,0.134250687121743,0.280361112248489,-0.178457318266764,0.411823852194199,0.487016372142199,0.317002782209137,0.649026280240167,0.64720710951552,0.04,0.1038150854657,309.445996004816,0.657400834434806,0.345867132201048
939,0.201561476772839,0.313415828170601,0.137693012432557,0.287549858716399,-0.183033146940271,0.422383438147897,0.499503971427896,0.325131058676038,0.632939756268133,0.638161137964635,0.04,0.101513803539615,301.943738678465,0.670461989557482,0.330907448553025
999,0.201561476772839,0.313415828170601,0.137693012432557,0.287549858716399,-0.183033146940271,0.422383438147897,0.499503971427896,0.325131058676038,0.632478491026729,0.638161137964635,0.04,0.0937783008874604,301.767225854106,0.70627613166056,0.313944021431636
1059,0.201561476772839,0.313415828170601,0.137693012432557,0.287549858716399,-0.183033146940271,0.422383438147897,0.499503971427896,0.325131058676038,0.63418962206923,0.638161137964635,0.04,0.0901070635705574,302.585024126149,0.733677353598873,0.303037930871416
1119,0.201561476772839,0.313415828170601,0.137693012432557,0.287549858716399,-0.183033146940271,0.422383438147897,0.499503971427896,0.325131058676038,0.635601216366789,0.638161137964635,0.04,0.0891148903673072,303.25452952938,0.751677579396664,0.296435612086007
1179,0.201561476772839,0.313415828170601,0.137693012432557,0.287549858716399,-0.183033146940271,0.422383438147897,0.499503971427896,0.325131058676038,0.636541323735646,0.638161137964635,0.04,0.0891810535522194,303.699757856833,0.763115696719576,0.292421119330891
1239,0.201561476772839,0.313415828170601,0.137693012432557,0.287549858716399,-0.183033146940271,0.422383438147897,0.499503971427896,0.325131058676038,0.637134442406525,0.638161137964635,0.04,0.0895338449985378,303.980509122062,0.770351644803018,0.289942180141034
1299,0.201561476772839,0.313415828170601,0.137693012432557,0.287549858716399,-0.183033146940271,0.422383438147897,0.499503971427896,0.325131058676038,0.637502315490458,0.638161137964635,0.04,0.0898862541801973,304.154629218121,0.774971151124028,0.288378959950519
1359,0.201561476772839,0.313415828170601,0.137693012432557,0.287549858716399,-0.183033146940271,0.422383438147897,0.499503971427896,0.325131058676038,0.637731783124814,0.638161137964635,0.04,0.0901598895293493,304.263265327246,0.777964709545717,0.287371901273598
1419,0.201561476772839,0.313415828170601,0.137693012432557,0.287549858716399,-0.183033146940271,0.422383438147897,0.499503971427896,0.325131058676038,0.637877597919169,0.638161137964635,0.04,0.0903524810445958,304.332322334673,0.779932748154926,0.286711821798954
1479,0.201561476772839,0.313415828170601,0.137693012432557,0.287549858716399,-0.183033146940271,0.422383438147897,0.499503971427896,0.325131058676038,0.637972197934693,0.638161137964635,0.04,0.0904823163407796,304.377138666586,0.781240370916091,0.286274080774021
1539,0.201561476772839,0.313415828170601,0.137693012432557,0.287549858716399,-0.183033146940271,0.422383438147897,0.499503971427896,0.325131058676038,0.638034571033752,0.638161137964635,0.04,0.0905683669713352,304.406693953957,0.782114880575042,0.28598175422085
1599,0.201561476772839,0.313415828170601,0.137693012432557,0.287549858716399,-0.183033146940271,0.422383438147897,0.499503971427896,0.325131058676038,0.63807610295606,0.638161137964635,0.04,0.0906251436681489,304.426376034774,0.782701878085233,0.28578575537263
1659,0.201561476772839,0.313415828170601,0.137693012432557,0.287549858716399,-0.183033146940271,0.422383438147897,0.499503971427896,0.325131058676038,0.638103891232052,0.638161137964635,0.04,0.0906626237173868,304.439545579267,0.783096775668042,0.28565399714254
1719,0.201561476772839,0.3134158281706,0.137693012432557,0.287549858716399,-0.183033146940271,0.422383438147897,0.499503971427896,0.325131058676038,0.638122517250095,0.638161137964635,0.04,0.0906873996120242,304.448373050736,0.783362971707756,0.285565208477032
1779,0.201561476772839,0.313415828170601,0.137693012432557,0.287549858716399,-0.183033146940271,0.422383438147897,0.499503971427896,0.325131058676038,0.638135006374243,0.638161137964635,0.04,0.0907037802457322,304.454292053201,0.783542875087664,0.28550519260605
1839,0.212711804432221,0.305303337874766,0.147549133300554,0.266440441270551,-0.177381491745182,0.389571401102816,0.497018467896812,0.315937824713705,0.639684932505473,0.639613957042365,0.04,0.0890749287134141,305.215600813707,0.783739353307514,0.28614736462794
1899,0.229866154677425,0.292822583573481,0.162712396174395,0.233964414430785,-0.16868663759889,0.339091344110384,0.493194616310527,0.301794387848578,0.642287309622207,0.641849063315796,0.04,0.086898525029112,306.45543067539,0.781899389585564,0.287985833125626
1959,0.247020504922628,0.280341829272196,0.177875659048236,0.201488387591019,-0.159991783452598,0.288611287117952,0.489370764724243,0.287650950983451,0.644763132495294,0.644084169589226,0.04,0.0848863917147796,307.635739749412,0.778373462960523,0.290404568109351
2019,0.264174855167831,0.267861074970912,0.193038921922077,0.169012360751253,-0.151296929306306,0.23813123012552,0.485546913137959,0.273507514118323,0.647144090344852,0.646319275862657,0.04,0.0828751253182495,308.771103723815,0.773798105747985,0.293199796307826
2079,0.281329205413034,0.255380320669627,0.208202184795918,0.136536333911487,-0.142602075160015,0.187651173133088,0.481723061551675,0.259364077253195,0.649467853146658,0.648554382136087,0.04,0.0808039446813669,309.879438234091,0.768589878482892,0.296246191141034
2139,0.298483555658237,0.242899566368342,0.22336544766976,0.104060307071721,-0.133907221013723,0.137171116140656,0.477899209965391,0.245220640388068,0.651760178227818,0.650789488409518,0.04,0.0786607924870983,310.972925912946,0.762983474269801,0.299476069572787
2199,0.31563790590344,0.230418812067058,0.238528710543601,0.0715842802319547,-0.125212366867432,0.0866910591482244,0.474075358379107,0.23107720352294,0.654035286668119,0.653024594682948,0.04,0.0764498519584131,312.058279763049,0.757106753201425,0.302853966747397
2259,0.332792256148643,0.217938057765773,0.253691973417442,0.0391082533921888,-0.11651751272114,0.0362110021557927,0.470251506792823,0.216933766657813,0.656300513838945,0.655259700956379,0.04,0.0741778483863129,313.138959292889,0.75103160843051,0.306361060885345
2319,0.349946606393847,0.205457303464489,0.268855236291283,0.00663222655242259,-0.107822658574848,-0.0142690548366393,0.466427655206538,0.202790329792686,0.658582005838749,0.657494807229809,0.04,0.0718494560552304,314.216758209937,0.744776268475911,0.309997499040638
2379,0.367100956639049,0.192976549163204,0.284018499165124,-0.0258438002873435,-0.0991278044285565,-0.0647491118290712,0.462603803620254,0.188646892927558,0.660813547176396,0.65972991350324,0.04,0.0694691392827021,315.292084267618,0.738440148723209,0.313727394470022
2439,0.384255306884253,0.180495794861919,0.299181762038966,-0.0583198271271095,-0.0904329502822649,-0.115229168821503,0.45877995203397,0.17450345606243,0.663066729553016,0.66196501977667,0.04,0.0670361627029366,316.36705507484,0.731973115193444,0.317578284277356
2499,0.401409657129456,0.168015040560635,0.314345024912807,-0.0907958539668755,-0.0817380961359731,-0.165709225813935,0.454956100447686,0.160360019197303,0.665311419652397,0.6642001260501,0.04,0.0645536818368143,317.438670203694,0.725405675755494,0.321538926996068
2559,0.418564007374659,0.15553428625935,0.329508287786648,-0.123271880806642,-0.0730432419896815,-0.216189282806367,0.451132248861402,0.146216582332176,0.667567033491617,0.666435232323531,0.04,0.062016780049757,318.514042844102,0.718744200439541,0.325618377111969
2619,0.435718357619862,0.143053531958065,0.344671550660489,-0.155747907646408,-0.0643483878433898,-0.266669339798799,0.447308397275118,0.132073145467048,0.669804398586951,0.668670338596961,0.04,0.059432074275438,319.581309466314,0.711986909687233,0.329810166863461
2679,0.452872707865065,0.130572777656781,0.35983481353433,-0.188223934486174,-0.0556535336970982,-0.317149396791231,0.443484545688834,0.117929708601921,0.672059770292111,0.670905444870392,0.04,0.0567814874063247,320.657528126538,0.705177464677332,0.334116321651721
2739,0.458876730450886,0.126204513651331,0.365141955540175,-0.199590543880092,-0.0526103347458961,-0.334817416738582,0.442146197633634,0.112979505699126,0.673342117580304,0.673140551143822,0.04,0.0554980158023874,321.261078356937,0.701109809995649,0.336687308002389
2799,0.458876730450886,0.126204513651331,0.365141955540175,-0.199590543880092,-0.052610334745896,-0.334817416738582,0.442146197633634,0.112979505699126,0.675087468145629,0.675375657417253,0.04,0.0545469083750931,322.099679315057,0.702353286457931,0.336968535004061
2859,0.458876730450886,0.126204513651331,0.365141955540175,-0.199590543880092,-0.052610334745896,-0.334817416738582,0.442146197633634,0.112979505699126,0.677309925482259,0.677610763690683,0.04,0.0539166457036442,323.162621687228,0.704314408092282,0.337139180023183
2919,0.458876730450886,0.126204513651331,0.365141955540175,-0.199590543880092,-0.0526103347458961,-0.334817416738582,0.442146197633634,0.112979505699126,0.679574051657947,0.679845869964114,0.04,0.0536024719267367,324.242675129473,0.706105460064984,0.337407926042503
2979,0.458876730450887,0.126204513651331,0.365141955540175,-0.199590543880092,-0.052610334745896,-0.334817416738582,0.442146197633634,0.112979505699126,0.681811785894624,0.682080976237544,0.04,0.0534211105440178,325.310116403743,0.707826182546912,0.337695771157504
