time,bias_percent_1,bias_percent_2,bias_percent_3,bias_percent_4,bias_percent_5,bias_percent_6,bias_percent_8,bias_percent_9,normalized_power,power_SP,SP,CV,total_power_MW,fuel_fraction,thermal_efficiency
32,0,0,0,0,0,0,0,0,0.999620875550017,1,0.04,0.0399816325672792,476.926414708071,0.999656501683247,0.350554267144667
92,-0.00194180421971123,0.0159621056082908,-0.0156240591997893,-0.00399827553489536,-0.0183369068738569,-0.011729446293393,0.00802613472930756,0.00124317172384059,0.990837128317469,0.982151142734025,0.04,0.0437486836459559,472.526042496973,0.973785134021099,0.35654740912848
152,-0.0055826871316699,0.0458910536238362,-0.0449191701993941,-0.0114950421628242,-0.052718607262339,-0.0337221580935053,0.0230751373467594,0.0035741187060417,0.960326921406955,0.94868453536032,0.04,0.0518523829545291,457.907393796035,0.904580829738705,0.371950333660485
212,-0.00922357004362857,0.0758200016393815,-0.0742142811989991,-0.0189918087907531,-0.0871003076508208,-0.0557148698936174,0.0381241399642111,0.00590506568824276,0.92640728046818,0.915217927986616,0.04,0.056115153185011,441.717012332524,0.834477110757823,0.388941579547138
272,-0.0128644529555874,0.105748949654927,-0.103509392198604,-0.026488575418682,-0.121482008039303,-0.0777075816937296,0.0531731425816629,0.00823601267044393,0.892301526968086,0.881751320612913,0.04,0.0571071800463631,425.445922236435,0.768238411227775,0.40691436716532
332,-0.016505335867546,0.135677897670472,-0.132804503198209,-0.033985342046611,-0.155863708427785,-0.0997002934938419,0.0682221451991146,0.010566959652645,0.858151018651585,0.848284713239209,0.04,0.0559475436641919,409.151848850097,0.705909560537441,0.425882829142828
392,-0.0201462187795047,0.165606845686018,-0.162099614197814,-0.0414821086745399,-0.190245408816267,-0.121693005293954,0.0832711478165664,0.0128979066348461,0.823901388172738,0.814818105865504,0.04,0.0530354576021541,392.819452544366,0.648267925609564,0.445238927362027
452,-0.0237871016914634,0.195535793701563,-0.191394725197418,-0.0489788753024687,-0.224627109204749,-0.143685717094066,0.0983201504340182,0.0152288536170472,0.789670250752844,0.7813514984918,0.04,0.0490481372974004,376.50321815208,0.595531304595616,0.464535355515357
512,-0.0274279846034219,0.225464741717108,-0.220689836197023,-0.0564756419303975,-0.259008809593231,-0.165678428894178,0.11336915305147,0.0175598005992483,0.755461787248831,0.747884891118096,0.04,0.0440576221747374,360.339630482852,0.548494335396319,0.482719183678426
