time,bias_percent_1,bias_percent_2,bias_percent_3,bias_percent_4,bias_percent_5,bias_percent_6,bias_percent_8,bias_percent_9,normalized_power,power_SP,SP,CV,total_power_MW,fuel_fraction,thermal_efficiency
36,0,0,0,0,0,0,0,0,0.99968891199591,1,0.04,0.0399583843898292,476.957506092932,0.999748751079786,0.350544771527653
96,0,0,0,0,0,0,0,0,0.999963758010495,1,0.04,0.0398999906304471,477.083324181199,1.0002587193197,0.350458475204728
156,0,0,0,0,0,0,0,0,0.999996313472287,1,0.04,0.0399404431584031,477.098317566832,1.00031552248537,0.350449587630793
216,0,0,0,0,0,0,0,0,1.00000105817985,1,0.04,0.0399718120505979,477.10052293532,1.00031545348085,0.350451231745524
276,0,0,0,0,0,0,0,0,1.00000270435077,1,0.04,0.0399907312969064,477.10129984744,1.00030208969621,0.350456484369552
336,0,0,0,0,0,0,0,0,1.00000361260006,1,0.04,0.0400015148809513,477.101728456715,1.00028198012826,0.350463844754156
396,0,0,0,0,0,0,0,0,1.0000039733914,1,0.04,0.0400071900753902,477.101896641651,1.0002586304802,0.350472149391932
456,0,0,0,0,0,0,0,0,1.0000039037139,1,0.04,0.0400096341904497,477.101860558491,1.00023488602488,0.350480442701217
516,0,0,0,0,0,0,0,0,1.00000354823111,1,0.04,0.0400100724696431,477.101689255848,1.00021276047012,0.350488069783717
576,0,0,0,0,0,0,0,0,1.00000303868802,1,0.04,0.0400093382891114,477.101445378475,1.00019343495878,0.350494662674466
636,0,0,0,0,0,0,0,0,1.00000247531836,1,0.04,0.0400080006745738,477.101176550999,1.00017742057357,0.350500077142523
696,0,0,0,0,0,0,0,0,1.00000192669032,1,0.04,0.0400064395018088,477.100914994334,1.00016475507684,0.350504323515058
756,-0.149981432778861,-0.149831297562942,0.15,0.14994616976617,-0.149710681799551,0.15,-0.149999779679423,-0.149999878730166,1.00861634327718,1,0.04,0.0349120491363052,481.291039553325,0.975857937442883,0.362389706787026
816,-0.249969054631435,-0.249718829271571,0.25,0.249910282943617,-0.249517802999252,0.25,-0.249999632799038,-0.249999797883609,1.00333183282621,1,0.04,0.0330286832123651,478.617479120942,0.92881805168208,0.378627874892431
876,-0.24996042480621,-0.24899300925872,-0.0496357326870853,0.248779594248779,-0.249633768543331,0.249849527277421,-0.249999853119615,-0.248955156602203,1.00508355208631,1,0.04,0.0221738208943507,479.539629000719,0.912752074458497,0.386034705462235
936,-0.249954671589393,-0.248509129250153,-0.249392887811809,0.248025801785555,-0.249711078906051,0.249749212129034,-0.25,-0.248258729081265,1.00197737332493,1,0.04,0.0171048144579644,477.995666660117,0.883032949157503,0.397742250539581
996,-0.249977996920397,0.0505963482999387,-0.24975588798311,0.249210320714222,-0.249862197413062,0.249693631046024,-0.249999074225029,-0.209652124031438,0.989407479720797,1,0.04,0.023205913066536,471.968041733093,0.911890480266154,0.380298477491248
1056,-0.249993547141066,0.25,-0.24999788809731,0.25,-0.249962943084402,0.249656576990683,-0.249998457041714,-0.183914387331554,0.993489993822558,1,0.04,0.0271290618686729,474.047269155596,0.971917763386804,0.358382509104423
1116,-0.249997418856426,0.249864615492728,0.049786043389661,0.249779250506042,-0.249985177233761,0.249858491916323,-0.249999167633586,0.0760287587525532,0.983483524220123,1,0.04,0.0412370892759003,469.142490603723,1.03468046825741,0.333160261617938
1176,-0.25,0.249774359154546,0.249641997714309,0.249632084176737,-0.25,0.24999310186675,-0.2499996413615,0.249324189475291,0.992544245455147,1,0.04,0.0481374838938296,473.640855884188,1.11545772595897,0.311997215192909
1236,-0.0541626539647859,0.249780539291878,0.24738038923195,0.249038823828289,-0.249998811602906,0.249979494042422,-0.216586871990686,0.249574629220452,0.995631930942734,1,0.04,0.0573547120177767,475.007115161957,1.13872071057126,0.306505005827985
1296,0.0763955767253565,0.249784659383432,0.245872650243711,0.248643316929323,-0.249998019338177,0.249970422159537,-0.194311692410144,0.249741589050559,0.998693770515543,1,0.04,0.0626126599402189,476.512743853471,1.15776141527519,0.302419732173582
1356,-0.119441769001441,0.0333847956791262,-0.0516098065268978,0.249457157392533,-0.249999207735271,0.249988168863815,-0.227724676964057,-0.0501028669116139,1.02071470814783,1,0.04,0.0443909309222618,487.197203758368,1.10028339582548,0.325353066331638
1416,-0.249999999485973,-0.110881780123744,-0.249931444373971,0.24999971770134,-0.25,0.25,-0.25,-0.249999170886396,1.01342123442499,1,0.04,0.0360039051663262,483.350855465549,0.966900633521757,0.367312174386935
1476,-0.249994250361295,-0.194347806396768,-0.249972577749588,-0.0499999976205112,-0.249981022740215,0.249999348241773,-0.249999998663822,-0.249999668050821,1.01211820400534,1,0.04,0.0230208218743602,482.952022412653,0.909294324339365,0.390260130140656
1536,-0.249990417611509,-0.249991823912117,-0.25,-0.249999807835079,-0.249968371233692,0.249998913736288,-0.249999997773037,-0.249999999493771,1.00744633093895,1,0.04,0.01546186587222,480.601860478497,0.837953706587215,0.42142480799303
1596,-0.249819950946275,-0.24991290141708,-0.249999859727078,-0.249999920707168,-0.249987348493477,0.0425675082320548,-0.21398623764906,-0.249991974449299,1.00813443046106,1,0.04,0.00858140795602132,480.99596807345,0.798364019534097,0.442685356390632
1656,-0.249706306502786,-0.249860286420388,-0.249999766211798,-0.249999995955228,-0.25,-0.0957200954374341,-0.189977064233075,-0.249986624419651,1.00146226774266,1,0.04,0.00488384617992839,477.804475212925,0.768122991699774,0.457060957031621
1716,-0.249882522601114,-0.249944114568155,-0.249456436123173,-0.249999998382091,0.0499940761341096,-0.188288038174974,-0.225990641719259,-0.249981292648403,0.990182517415634,1,0.04,0.00610524506612609,472.381359783862,0.797029243517117,0.435484971337129
1776,-0.25,-0.25,-0.249094216064089,-0.25,0.249990126890183,-0.25,-0.249999693376714,-0.249977738134237,0.991187926658616,1,0.04,0.00748641122827502,472.869966982502,0.859879892436467,0.404071867397411
1836,-0.249999996996164,-0.24999935271569,0.0503618259402318,-0.249997492945407,0.249996050756073,0.05,-0.249999406751764,-0.249991095253695,0.971577310068893,1,0.04,0.0199470940028632,463.414885462804,0.971935998645736,0.350337791735878
1896,-0.249999994993607,-0.249998921192817,0.249999187276446,-0.249995821575678,0.25,0.25,-0.249999215668465,-0.25,0.984628728457524,1,0.04,0.028111998738223,469.888756727823,1.11396755363244,0.309939685806824
1956,-0.249999997992671,-0.249998491375982,0.24999738706113,0.0500016367720624,-0.0499999999999999,-0.0496717636766599,0.0499386351278747,-0.249935643973733,0.993909825247099,1,0.04,0.0360056861520239,474.246907532137,1.1660477199583,0.298842843317999
2016,-0.249999999992046,-0.249998204831424,0.249996186917586,0.249999942337223,-0.25,-0.2494529394611,0.249897202325435,-0.249892739956221,0.99843790506837,1,0.04,0.0435253683911625,476.38188787751,1.18221012672428,0.296084206562411
2076,-0.249999320404177,0.0497822255712933,-0.043014894184781,0.249999975138212,-0.249953775210171,0.050206326524208,0.179450864926335,-0.249957095982485,0.99628925130535,1,0.04,0.0518856045127771,475.330951373745,1.19456967575056,0.292374360440869
2136,-0.249998867345597,0.249635845839771,-0.238355614919693,0.249999997005537,-0.249922958683618,0.249979170514413,0.132486639993602,-0.249999999999995,1.00197527442172,1,0.04,0.0578051850060422,478.079963668924,1.19740139685646,0.293369836379724
2196,-0.249999546938239,0.249854338335909,-0.245309366614825,0.249999998802215,-0.249969182008195,0.249991668205765,-0.0969885027007713,-0.249999999999998,1.00970753927315,1,0.04,0.0578771002117468,481.78168276189,1.15877019352786,0.305497488984067
2256,-0.25,0.25,-0.249945201078247,0.25,-0.249999997557913,0.25,-0.249971931163687,-0.25,1.00679499402843,1,0.04,0.058351678926642,480.301226258764,1.10333116792603,0.319861879643163
2316,-0.249999999963028,0.00377325413196422,-0.249978080431299,-0.0499685587972676,-0.249999993616568,0.249939387133689,-0.249987845506812,-0.24999816720737,1.01287004819904,1,0.04,0.0451969090406514,483.351637035962,1.05225214796712,0.337518862831423
2376,-0.249999999938379,-0.160377909780059,-0.25,-0.249947597995446,-0.249999990989004,0.249898978556149,-0.249998455068896,-0.249996945345616,1.00959112148061,1,0.04,0.0386601697545939,481.591676812083,0.965601403611179,0.366467748896384
2436,-0.249999999975352,0.0858488360635066,0.0499999996518878,-0.249973727694284,-0.249990943714844,-0.0500404041588118,-0.249999363660024,-0.249903715765824,0.996326682110899,1,0.04,0.0407051370200718,475.278559062367,0.953809512407191,0.366135002659656
2496,-0.25,0.249999999959217,0.249999999419813,-0.249991147493509,-0.249984912198737,-0.249999992635452,-0.249999969387443,-0.249841562712628,0.999020708538526,1,0.04,0.0405021317972474,476.666430433135,0.97426162753191,0.359495655342124
2556,-0.25,-0.0499999880739383,0.249989306380567,0.0500035410025963,-0.249993964879495,0.0499892675205218,-0.249956711342331,-0.148443674739903,0.991404149864013,1,0.04,0.0455617059162428,472.966121614623,1.00204586388281,0.346814390907301
2616,-0.25,-0.249999980096042,0.249982177687736,0.25,-0.25,0.249982107624504,-0.24992787264559,-0.0808450827580865,0.996448835020807,1,0.04,0.0470426703606078,475.443855455456,1.04053323897356,0.335736035159348
2676,-0.25,-0.249999992038417,0.249992871075094,0.25,-0.25,0.249992843049802,-0.249970569442655,-0.182337255653728,1.00178318184896,1,0.04,0.0463170678907875,477.981656763093,1.04187394492032,0.337093772314323
2736,-0.25,-0.25,0.25,0.25,-0.25,0.25,-0.249999033974031,-0.249998704250823,1.00097348808855,1,0.04,0.0466444016222153,477.551209308027,1.03013096380767,0.340629442708326
2796,-0.25,-0.249994779807936,0.249999916805574,0.249982978792885,-0.197641545708218,0.249916743848839,-0.249962099459206,-0.249999481700329,0.99938587881547,1,0.04,0.0470237661264402,476.798011936465,1.0302198536062,0.340062855423441
2856,-0.25,-0.249991299679893,0.249999861342624,0.249971631321475,-0.162735909513697,0.249861239748064,-0.249937476449322,-0.25,0.999810570543404,1,0.04,0.0465590551362665,477.016084299098,1.03372891939099,0.339063494102943
2916,-0.25,-0.249994226210205,0.249999944537049,0.24998865252859,-0.215087100444737,0.249944495899226,-0.249915008331624,-0.249978166573696,0.997354016803198,0.993243967892193,0.04,0.0465942037841322,475.774614619951,1.02040268096059,0.342597627743475
2976,-0.25,-0.249996177230413,0.25,0.25,-0.249987894398763,0.25,-0.249900029586493,-0.249963610956161,0.986582887548344,0.981983914379181,0.04,0.0483462628726079,470.604205083457,0.990776464902908,0.34900753071504
3036,-0.25,0.0500015291078347,0.213154297191473,-0.0499999999999999,-0.249989241172865,0.249999999970341,-0.249952897084341,0.0500142342373082,0.966268158265729,0.970723860866168,0.04,0.0537129810837828,460.860255410826,0.989600594208706,0.34218737725286
3096,-0.25,0.25,0.188590495319121,-0.25,-0.249990139022266,0.249999999950568,-0.249988142082907,0.249999464366288,0.961085794519162,0.959463807353156,0.04,0.0560163598730742,458.501223844685,1.00243060815747,0.33607859784299
3156,-0.249999989834007,-0.0499999728022584,-0.0745637437119764,0.05,-0.249996014622793,0.249999780614697,-0.249994086461939,-0.049998183671581,0.965889460815642,0.948203753840144,0.04,0.0453073486720135,460.863130684031,0.940824057382804,0.35993015047097
3216,-0.249999983056679,-0.249999954670431,-0.249999903066042,0.25,-0.249999931689811,0.249999634390784,-0.249998049381295,-0.249996615696827,0.947011073884285,0.936943700327132,0.04,0.0400951966331986,451.628736370965,0.840217336544666,0.394952262067255
3276,-0.249999340701695,-0.249999972657582,-0.2499992111918,0.249999000021467,-0.249999268946822,0.135314677541979,-0.249999138301177,-0.249995239680446,0.931799262776535,0.92568364681412,0.04,0.0326560514845925,444.473759634559,0.802067545179989,0.407183207869916
3336,-0.249998912465039,-0.249999984649016,-0.249998749942306,0.249998333369112,-0.249998827118163,0.0588580396427764,-0.249999864247765,-0.249994322336192,0.918411465250088,0.914423593301108,0.04,0.0277907664322293,438.068277543379,0.769761871998772,0.418157687820693
3396,-0.249999564986016,-0.167064642179669,-0.249999499976923,-0.0500006666523553,-0.249999530847265,0.173543215857111,-0.249999899866337,-0.249997728934477,0.908650688218033,0.903163539788096,0.04,0.0241114006262649,433.419944863959,0.74330426396811,0.42844684063225
3456,-0.25,-0.111774413866772,-0.25,-0.25,-0.25,0.25,-0.249999923612052,-0.25,0.893548164146877,0.891903486275083,0.04,0.0223079648539073,426.209597518336,0.720138624933431,0.43487235095176
3516,-0.24999999994408,-0.194709733664622,-0.249999999853571,-0.249999941055813,-0.25,-0.0402128910513787,-0.249998156713054,-0.249999922616288,0.893489091568127,0.880643432762071,0.04,0.0133519427993827,426.281638754602,0.680688639070953,0.460153575355696
3576,-0.2499999999068,-0.249999946863189,-0.249999999755952,-0.249999901759688,-0.25,-0.233688151752298,-0.249996978780388,-0.249999871027146,0.873167828597253,0.869383379249059,0.04,0.00993920231467706,416.246147245321,0.623284553404734,0.490702803161428
3636,-0.24999999996272,-0.249999978745276,-0.249999999902381,-0.249999960703875,0.0499961187340933,0.0565247392990809,-0.249998236119676,-0.249999948410858,0.835542730326383,0.858123325736047,0.04,0.0192985165511372,398.326933534028,0.684327778633868,0.427691067299033
3696,-0.25,-0.25,-0.25,-0.25,0.249993531223489,0.25,-0.249999074345867,-0.25,0.835830711273475,0.846863272223035,0.04,0.0230481464463891,398.720544297384,0.793056883546205,0.369418763844419
3756,-0.12211996167925,-0.24994926274806,-0.25,-0.249982596458463,-0.0500025875106045,0.249892789920524,0.0499996921519746,-0.249998056535905,0.827272240823497,0.835603218710023,0.04,0.0314495310140429,394.592892825449,0.842069658038741,0.344314978661138
3816,-0.0368666027987507,-0.249915437913433,-0.25,-0.249970994097439,-0.25,0.249821316534207,0.249998869817203,-0.249996760893175,0.819612630023261,0.824343165197011,0.04,0.0387752312738604,390.987305507857,0.881150308236141,0.326037335937616
3876,-0.164746640436282,-0.249966175165373,-0.25,-0.249981163249452,-0.249996566526102,-0.0500714733697419,-0.0500004381001087,-0.249971106545244,0.829582641296816,0.813083111683998,0.04,0.031195092047456,395.860698159683,0.843874471339903,0.344682483634442
3936,-0.249999998861303,-0.25,-0.25,-0.249987942684127,-0.249994277543504,-0.249999999972374,-0.24999997671165,-0.249954003646624,0.810724072885709,0.801823058170986,0.04,0.0301899083718506,386.644903756119,0.744883964487748,0.38139793862598
3996,-0.249999898635621,-2.61340440206368e-05,-0.249998291918772,-0.249995177073651,-0.24999717169395,-0.249996696309111,-0.249912777057183,-0.24994784373365,0.786617833506219,0.790563004657974,0.04,0.0354714758468231,375.095348958106,0.732302652591593,0.376361983003005
4056,-0.249999831818501,0.166623109926632,-0.249997153197953,-0.25,-0.249999101127582,-0.249994493866936,-0.249854643954204,-0.249943737125001,0.779233265170001,0.779302951144962,0.04,0.0371757855115426,371.723801751826,0.753121823968122,0.362668481323826
4116,-0.249999695541975,0.216649243970653,0.0496224490456264,-0.25,0.0500003595489674,-0.249997789194405,-0.249941850644061,-0.249977494722046,0.750702543496619,0.76804289763195,0.04,0.0532748709137264,358.005476075798,0.799348101552979,0.329085235600606
4176,-0.249999604690957,0.25,0.249368850541346,-0.25,0.25,-0.249999986079385,-0.249999988437299,-0.249999999786743,0.752996828688748,0.756782844118938,0.04,0.0610759307918872,359.281838726134,0.871644871381368,0.302865888412537
4236,0.0500001581236171,-0.0499992384701675,0.249747540216538,-0.249999471635017,0.249998574567603,-0.249997544362855,-0.033532924173836,-0.24999979628813,0.746048612384652,0.745522790605926,0.04,0.0726599331050513,355.841341701282,0.864979005738559,0.302277284929029
4296,0.25,-0.249998730783613,0.25,-0.249999119391695,0.249997624279338,-0.249995916551835,0.110778452001806,-0.249999660622388,0.739920659608225,0.734262737092913,0.04,0.080385538393088,352.974127758497,0.847704957310937,0.305951669310036
4356,0.25,-0.249999492313445,0.249999816257008,0.0499995479156278,-0.0500009502882649,0.0500015362264105,-0.105688619199278,0.0500001357510449,0.72564295394812,0.723002683579901,0.04,0.0928586460168498,346.065575084481,0.815978975765417,0.31162630284559
4416,0.25,-0.25,0.249999693761679,0.249998659453843,-0.25,0.249999838078574,-0.25,0.25,0.716286265708639,0.711742630066889,0.04,0.094888941085831,341.685709660828,0.800559635493872,0.31360848387894
4476,0.25,-0.249998243728831,0.249999656173483,-0.0499717345438322,-0.24999997973297,0.249999553003693,-0.25,0.25,0.710330300626376,0.700482576553877,0.04,0.0859185000231802,338.852767031715,0.754390034350529,0.330042425434283
4536,0.25,-0.249997072881385,0.249999631114685,-0.249951997208949,-0.249999966221617,0.249999362953773,-0.25,0.25,0.698556293129485,0.689222523040865,0.04,0.0795309241313883,333.164386895157,0.689823165225716,0.354875055742371
4596,0.24999771626867,-0.249998829152554,0.249998215753798,-0.249968823563866,-0.249997712110265,0.249999745181509,-0.25,0.249999991109751,0.685072770901682,0.677962469527853,0.04,0.0739211590552392,326.746615593001,0.642974368281969,0.37339810859775
4656,0.249996193781117,-0.25,0.249997272179873,-0.24998004113381,-0.249996209369364,0.25,-0.25,0.249999985182918,0.676209273872535,0.673458448122648,0.04,0.0633496270139231,322.594997988245,0.615508140218959,0.385104421108466
4716,0.249998428033254,-0.145598413262954,-0.0304030105601335,-0.249988123399722,-0.249998305309311,0.249999155997964,-0.246651910610673,0.249999778613008,0.677371165477228,0.673458448122648,0.04,0.0437478054701598,323.196766088766,0.599487407612972,0.396133542551924
4776,0.249999917534679,-0.0759973554382565,-0.217336532386805,-0.249993511576996,-0.249999702602608,0.24999859332994,-0.211796681595923,0.249999640899734,0.675016129542805,0.673458448122648,0.04,0.0328296251285591,322.01674815106,0.580406789779556,0.407662395359098
4836,0.249999967013871,0.119601057824697,0.0630548775497041,-0.249962454298641,-0.249999881041043,0.249992218057445,-0.203472931560692,0.249998943716705,0.6654546039407,0.673458448122648,0.04,0.0474265889357898,317.484266494324,0.600333559631679,0.388583416526584
4896,0.25,0.25,0.249982484174043,-0.249941749446405,-0.25,0.249987967875782,-0.18609991065394,0.249998478928019,0.668441304498141,0.673458448122648,0.04,0.0531568218883645,318.959168043913,0.644557381814232,0.363603604297213
4956,-0.05,0.0773516421344016,0.151268065409508,0.0499574118237038,0.04997429748984,0.249986115412404,-0.159150964640842,0.249999391571208,0.66775770171407,0.673458448122648,0.04,0.0518530186148455,318.595970028414,0.673282717939831,0.347694232983105
5016,-0.25,-0.0377472631093308,0.0854584528998181,0.249890186003776,0.249957162483067,0.249984880436819,-0.132692222334208,0.25,0.672254956881298,0.673458448122648,0.04,0.0470664108289616,320.713497208518,0.685922966624755,0.343555234023345
5076,-0.249988613208615,0.134901094756268,0.184183381159927,0.249956062476819,0.249982830562713,0.24970832063388,-0.108806863435144,0.24996725013919,0.667821244509815,0.673458448122648,0.04,0.0565992607687289,318.582698535223,0.705950808298462,0.331590762238562
5136,-0.249981022014358,0.25,0.25,0.249999980125515,0.249999942615811,0.24952394743192,-0.0723057759229172,0.249945416898649,0.669793597392018,0.673458448122648,0.04,0.0608760336629275,319.593675859502,0.738342897765195,0.318049525122078
5196,-0.249986940813748,0.249999655263252,0.25,0.249987807361416,0.249999977046324,0.249809578972768,-0.0349903809293974,0.249966562015212,0.662034065994626,0.653010872750368,0.04,0.0695054346961886,315.651812447152,0.715033358037976,0.324366997262969
5256,-0.249990886680008,0.249999425438753,0.25,0.24997969218535,0.25,0.25,-0.0165279433855528,0.249980658759587,0.629915408907347,0.618931580463236,0.04,0.0862366827339957,300.248684557393,0.646590972193488,0.3411977456193
5316,-0.249996354672003,0.249999770175501,0.249988120142282,0.249983709632004,0.25,0.25,-0.00780694678398051,0.249987237363585,0.603687570453022,0.605299863548383,0.04,0.0866717604274071,287.94367575961,0.621802751327115,0.340258968640608
5376,-0.25,0.25,0.249980200237137,0.249986387929773,0.25,0.25,-0.00368745922563556,0.249991623099584,0.600574537679835,0.605299863548383,0.04,0.073622020725232,286.538378545444,0.648653904889534,0.324582004813469
5436,-0.25,0.25,0.249949280486494,0.24990244609111,0.25,0.249997871400673,0.0503744087800049,0.249996649239834,0.601518128169913,0.605299863548383,0.04,0.0690436652267733,286.844168213132,0.672690634491229,0.313317981302541
5496,-0.25,0.25,0.249928667319398,0.249846484865335,0.25,0.249996452334455,0.249995956938486,0.25,0.600970421903964,0.605299863548383,0.04,0.0692587009112786,286.772568108312,0.714585938844247,0.294874906126438
5556,0.0499999968489545,-0.0499961744488339,-0.046852709625182,0.249938585267371,-0.0499999999999999,0.249992147194055,0.0743949946368811,0.24994405650661,0.616690876999599,0.605299863548383,0.04,0.0465779237830709,294.366468357512,0.690797461808607,0.313106642056669
5616,0.249999994748258,-0.24999362408139,-0.244706960921569,0.249999985535395,-0.25,0.249989277100455,-0.00255290711560321,0.24990676084435,0.612995958715713,0.605299863548383,0.04,0.040506269684351,292.375917615117,0.614839331859422,0.349409438413911
5676,0.249997181298838,-0.249997449632556,-0.247858407530579,0.249999773627699,-0.25,-0.0500042891598182,0.132931074574324,-0.00757121387958199,0.617654784051737,0.605299863548383,0.04,0.023863174797958,294.648196450982,0.563318825753408,0.384329922267
5736,0.249995305665892,-0.25,-0.249959371936586,0.249999632355901,-0.25,-0.25,0.25,-0.0339096873503738,0.608853022161866,0.605299863548383,0.04,0.0160934514282911,290.471944662977,0.535389214923861,0.398647688452684
5796,0.249998122266357,-0.249990027804772,-0.249983748774635,0.249999852942361,-0.25,-0.249995859494229,0.249996937467741,-0.0801670000839419,0.607049227199375,0.605299863548383,0.04,0.0129320178434497,289.609229003318,0.521301996625036,0.408204403562223
5856,0.25,-0.249983379674619,-0.25,0.25,-0.25,-0.249993099157047,0.249994895779568,-0.139755929082863,0.605436089940066,0.605299863548383,0.04,0.0111199018344801,288.841995143761,0.517324073646866,0.41025352726603
5916,0.249995495315641,0.0499885285113543,-0.25,-0.0499999999999999,-0.249999051412781,-0.00390434449528374,0.249997883817179,0.05,0.590547734341861,0.605299863548383,0.04,0.0306568087480691,281.7670625428,0.556694490769277,0.371901540495515
5976,0.249992492192734,0.249969800635336,-0.25,-0.25,-0.249998419021301,0.160154825279225,0.249999875842253,0.25,0.598368865766702,0.605299863548383,0.04,0.0422448379678922,285.584552639618,0.63256099646985,0.331731703548433
6036,0.249996380326251,0.249987920254135,-0.25,-0.249991545420356,-0.24998466413516,0.21406193011169,0.249998328675739,0.113798778705157,0.605082425366671,0.605299863548383,0.04,0.0459161059048959,288.727306605747,0.646627310618526,0.328086599714847
6096,0.249998972415262,0.25,-0.25,-0.249985909033927,-0.249975494211065,0.25,0.249997297231397,0.0229979645085949,0.607421241033845,0.605299863548383,0.04,0.0523632017964932,289.801622138782,0.634008083504921,0.335861863458093
6156,-0.050000411033895,0.249999013062374,0.0499996999634376,0.0500021423725919,0.0500098023155738,0.25,0.0411076027768637,0.0157180519270231,0.606742272475145,0.612905171712142,0.04,0.0664792191829186,289.50924755264,0.645245348306508,0.329679721433779
6216,-0.25,0.249998355103957,0.249999499939063,0.249994176643604,0.25,0.25,-0.0981521935261582,0.0108647768726418,0.618934252676692,0.625580685318408,0.04,0.0616220925650194,295.404729485615,0.69042420263802,0.314380871404435
6276,-0.249999937343712,0.249999342041583,0.249998722689573,0.249997670657442,0.25,0.25,0.1107345659689,0.154343817456805,0.624691031719559,0.638256198924674,0.04,0.0621484724701553,298.089970232586,0.748816143456651,0.292500653909197
6336,-0.249999895572853,0.25,0.249998204523247,0.25,0.25,0.25,0.249992405632272,0.249996511179581,0.644323669897246,0.65093171253094,0.04,0.0596259020240758,307.584062381173,0.815999723645257,0.276967297322495
6396,-0.249994628332382,0.25,0.249999281809299,0.249987539908257,0.249997334289846,-0.0499993587993997,0.249996962252909,0.249998604471832,0.666396185410768,0.663607226137205,0.04,0.0542818860520221,318.099719875826,0.820991396539526,0.284694683425719
6456,-0.249991116838734,0.25,0.25,0.249979233180429,0.249995557149744,-0.249998931332333,0.25,0.25,0.678176480633042,0.676282739743471,0.04,0.0540976416111809,323.619266895446,0.79916126438845,0.29754634557156
6516,-0.249996424070169,-0.05,0.249999536626298,0.249991693272172,0.249997450415323,-0.249999572532933,0.24997028956607,-0.0084101059729828,0.700116456655076,0.688958253349737,0.04,0.0382343616431275,334.077963340949,0.769097434105569,0.319169323587027
6576,-0.24999996222446,-0.25,0.249999227710497,0.25,0.249998712592376,-0.25,0.249950482610116,-0.0104197940905804,0.704257419713213,0.701633766956003,0.04,0.0321200725825527,336.041654808437,0.73496651655702,0.335954325352783
6636,-0.24999888468067,-0.25,0.249986354677196,0.249999854511293,0.24999948503695,-0.25,-0.0255678035560694,-0.0255678035560694,0.721326356028488,0.714309280562269,0.04,0.0201549253379063,344.288096925934,0.714644993573376,0.353986197709012
6696,-0.249998166318144,-0.25,0.249977772654995,0.249999757518821,0.25,-0.25,-0.0591123865522858,-0.0591123865522858,0.726489957998523,0.726984794168535,0.04,0.0170278622647356,346.689727314669,0.708927383829983,0.359330347514756
6756,-0.249992984066954,-0.24999142473054,0.249990617164651,0.249999903007528,0.108448778483315,0.0499982661701475,-0.106874492762228,-0.106874492762228,0.735611820300586,0.7396603077748,0.04,0.0181220140224603,351.037801444179,0.724733120700991,0.355902019982085
6816,-0.249989529232827,-0.249985707884234,0.249999180171089,0.25,0.0140812974721918,0.249997110283579,-0.158887261266541,-0.158887261266541,0.748756136229621,0.752335821381066,0.04,0.0182760966444789,357.343506756137,0.75121657951896,0.349522716400011
6876,-0.249995811693131,-0.249993202025581,-0.0500003246059917,0.25,-0.1443217764895,0.249998844113432,-0.216136675763032,-0.187813522449012,0.770876689288045,0.765011334987332,0.04,0.00436492718564859,367.909384405257,0.745970092889646,0.362388264963876
6936,-0.25,-0.249998198119812,-0.249999994457379,0.25,-0.249923825797294,0.25,-0.25,-0.146365989125467,0.778842303942034,0.777686848593598,0.04,0.00220722744415272,371.626663597742,0.712034157891717,0.383495890452221
6996,-0.249999983878636,-0.249994922696785,-0.249993245925819,-0.0342262451948762,-0.249969530318918,0.25,-0.249999236364946,0.0914536043498133,0.791508847086998,0.790362362199864,0.04,0.00536857669345561,377.778086450621,0.715417807414418,0.387999970696332
7056,-0.24999997313106,-0.249992739081433,-0.249988746904779,-0.223710408658127,-0.25,0.25,-0.24999872727491,0.25,0.798736024287646,0.803037875806129,0.04,0.00807396470169642,381.083145084517,0.722729247613414,0.387434942475891
7116,-0.24999982747662,-0.249995062955573,-0.249972761133264,-0.239463389164724,-0.249987879960401,0.249999641877829,-0.249999487775922,0.25,0.810262607592937,0.815713389412395,0.04,0.00866118313685291,386.744348125642,0.757779408435824,0.375003958534123
7176,-0.24999973037366,-0.249996612204999,-0.249962103952253,-0.249965376169121,-0.249979799934002,0.249999403129715,-0.249999994776596,0.25,0.820986484260381,0.828388903018661,0.04,0.0109113463805808,391.715845647732,0.79969356899052,0.359916877758907
7236,-0.249998642424696,-0.249998324931448,-0.249984841580901,-0.249985857453213,-0.249991478408475,0.249999761251886,-0.249999997910639,0.249860546775027,0.832124267357666,0.841064416624927,0.04,0.0133219458219471,397.135891458727,0.851387624375149,0.342741333226793
7296,-0.249997917125387,-0.249999466749081,-0.25,-0.249999511642608,-0.249999264058124,0.25,-0.25,0.249767577958379,0.844800781490659,0.853739930231193,0.04,0.0161963777557749,403.133004549533,0.905328094733068,0.327187748904227
7356,-0.249999166850155,-0.2499982844045,0.0499999999999999,0.0500001953429569,-0.249406193456081,0.249957731003853,0.0493973666535434,-0.049963234568094,0.837388815668484,0.866415443837458,0.04,0.0268970438539975,399.565112756341,1.0258338983166,0.286197075652062
7416,-0.25,-0.249997496174779,0.25,0.25,-0.24901081305472,0.249929551673089,0.248995611089239,-0.249783776252409,0.865475499832304,0.879090957443724,0.04,0.0356778179259156,413.154112464873,1.16031717853107,0.261631501876673
7476,-0.249987720045184,-0.235731299965903,0.25,0.249761297861395,-0.249180226426242,0.249971192273124,0.249598244435695,-0.249650654181123,0.883504532687715,0.884161162886231,0.04,0.045762368773393,421.59464606108,1.18852778036221,0.260639615343594
7536,-0.24997953340864,-0.226220502493319,0.25,0.249602163102325,-0.249293168673924,0.249998952673146,0.25,-0.249561906133599,0.890760352138028,0.884161162886231,0.04,0.0567825765781464,425.014842571122,1.16135764724667,0.268901230291808
7596,-0.249978081151956,-0.0492101550081667,0.0280360188086399,0.249832581717306,-0.249663459640912,0.249078516239241,0.16881388888959,-0.249824762453439,0.894762076519972,0.884161162886231,0.04,0.0618067126729741,426.911444586687,1.10621715783457,0.283564646105866
7656,-0.249977112980834,0.0687967433152678,-0.119939968652267,0.249986194127294,-0.24991032028557,0.248464891949972,0.114689814815983,-0.25,0.893096787993646,0.884161162886231,0.04,0.0644776779032533,426.070585624925,1.04470483404428,0.299669556508459
7716,-0.249965248671633,-0.0361669829498519,0.100342114540684,0.246628637918611,-0.24996359962229,0.249004115315538,-0.104124074073607,-0.249999517119928,0.893965901063783,0.884161162886231,0.04,0.0632975247115395,426.522720273618,0.991608184160873,0.316050690964377
7776,-0.249957339132165,-0.106142800459932,0.247196836669319,0.244390267112822,-0.249999119180103,0.249363597559249,-0.25,-0.249999195199879,0.890389500935923,0.884161162886231,0.04,0.0610363522167662,424.771390070687,0.942158797555688,0.331272836412073
7836,-0.249964012167297,-0.192407671849429,0.248878689008528,-0.0522438931548711,-0.247556308381206,0.249745073299937,-0.228955545833151,-0.249977854397011,0.893132006911339,0.884161162886231,0.04,0.0482081217854591,426.156247174523,0.901870881410741,0.347199563445013
7896,-0.249968460857385,-0.249917586109094,0.249999923901334,-0.25,-0.245927767848609,0.249999390460396,-0.214925909721918,-0.249963627195099,0.890438555464285,0.884161162886231,0.04,0.0399051471371933,424.781918244162,0.848423993509965,0.367881336983064
7956,-0.249987384342954,-0.249864569765234,-0.0500000298579324,0.0499999977393987,-0.248313338954996,0.249950059125068,-0.235970363716475,-0.249955545101557,0.888056342395288,0.884161162886231,0.04,0.0335230472462994,423.68188056421,0.823455373718958,0.378054576171324
8016,-0.25,-0.249829225535995,-0.249999999030777,0.249999996232331,-0.249903719692587,0.249917171568184,-0.249999999712847,-0.249950157039195,0.885672290687522,0.884161162886231,0.04,0.0286508659427606,422.536374698056,0.807687836188176,0.384392792280932
8076,-0.249999985124154,-0.133837879744012,-0.249999999612311,0.249999994868973,-0.249956806665022,0.249965338461007,-0.249991469133724,-0.249980062815678,0.880466266814941,0.884161162886231,0.04,0.0288209971556838,420.038711288986,0.815020078263298,0.378682892551305
8136,-0.249999975206924,-0.0565103158826903,-0.25,0.249999993960067,-0.249992197979979,0.249997449722889,-0.249985782080975,-0.25,0.881329774862152,0.884161162886231,0.04,0.0289932654671665,420.491727716255,0.839464982599295,0.3680523101112
8196,-0.24999999008277,0.127395448046035,-0.249981251954929,-0.0493555619478859,0.0410355387982669,0.249998979889156,-0.249994312202031,-0.25,0.877394960700608,0.884161162886231,0.04,0.0338285245033367,418.586541928168,0.866212419082052,0.355071268268142
8256,-0.25,0.249999290665185,-0.249968753258215,-0.248925932553188,0.235054029983764,0.25,-0.249999998949402,-0.25,0.880527543908635,0.884161162886231,0.04,0.0375705479186302,420.129940533373,0.89978195272432,0.343084447075829
8316,-0.25,0.203242899626527,-0.249987501303286,-0.249570373021275,-0.0559783880064944,0.249964009380233,-0.249984938020068,-0.249944537006104,0.890278806121475,0.884161162886231,0.04,0.0330645899417356,424.835212543314,0.8910116321216,0.350341680348008
8376,-0.25,0.172071972267421,-0.25,-0.25,-0.25,0.249940015633721,-0.249974897400511,-0.249907561676839,0.886942671429136,0.884161162886231,0.04,0.032568322032736,423.125187680962,0.854038663560723,0.364037415719188
8436,-0.25,-0.0811705000942167,-0.249991319241178,-0.249987436041976,-0.24954203914637,0.249974992564572,-0.249989565651567,-0.249897165121164,0.892479316832286,0.884161162886231,0.04,0.0270788388093838,425.841140779371,0.827241118410548,0.378242373211285
8496,-0.25,-0.249998815001975,-0.249985532068629,-0.24997906006996,-0.249236731910617,0.249998310518473,-0.249999344485604,-0.249890234084048,0.887016854564071,0.884161162886231,0.04,0.0242933141858582,423.15797301904,0.785040098317184,0.39606399537694
8556,-0.24994832812308,-0.249986420315449,0.0495797227988727,0.0500083759720161,-0.249675166375666,0.249617495635068,0.0499768833307421,-0.0241274200417314,0.854038468448295,0.884161162886231,0.04,0.04434333886919,407.334375496043,0.87047258838109,0.343835440465966
8616,-0.249913880205133,-0.249978157191098,0.249289892710541,0.25,-0.249967456019033,0.249363619046131,0.249961035208306,0.126381122653146,0.869772998670157,0.884161162886231,0.04,0.0501476331725506,415.125077329276,1.02358984624255,0.297994107617285
8676,-0.249965552082053,-0.24998376454314,0.249712252416232,0.249974202825743,-0.249400193601696,0.0380767437670823,0.249984414083322,-0.0994475509387414,0.889333933413267,0.884161162886231,0.04,0.0479396208609132,424.419883927979,1.03619324780631,0.300960597619967
8736,-0.25,-0.249987502777836,0.249993825553359,0.249957004709572,-0.249022018656805,-0.102781173085617,0.25,-0.25,0.888659766395999,0.884161162886231,0.04,0.0513191624353212,423.951686529904,0.993650391378853,0.313499920925554
8796,-0.25,-0.249995001111134,0.249982969968299,0.249952395629169,0.0501903217411353,0.0142964142627497,0.25,0.0499999999999999,0.873437287519093,0.884161162886231,0.04,0.0654473939509793,416.617803248498,1.01416867474798,0.301843834143675
8856,-0.25,-0.25,0.249975732911592,0.249949322908901,0.249665215339762,0.0923481391616605,0.25,0.25,0.881060872123413,0.884161162886231,0.04,0.0686194260856692,420.445343965611,1.06711722513591,0.289502350052947
8916,-0.249999692537937,-0.25,0.249982619343009,0.249979729163561,0.249855509652404,-0.113060744335336,-0.0500000000000001,0.25,0.896338538140502,0.884161162886231,0.04,0.0626971808642633,427.746295226675,1.03144076944369,0.30471696872782
8976,-0.249999487563229,-0.25,0.249987210297287,0.25,0.249982372527499,-0.25,-0.25,0.25,0.892784894626932,0.884161162886231,0.04,0.0616874274367086,425.879944047397,0.956034366332977,0.327316848176826
9036,-0.249999698428908,-0.249947176355118,0.249994884118915,0.249987842584323,0.249978428663495,-0.25,-0.249673691451076,-0.04928401294174,0.896775702113604,0.884161162886231,0.04,0.053804660498724,427.901342318316,0.900479964638284,0.349159827914879
9096,-0.249999839006028,-0.249911960591864,0.25,0.249979737640538,0.249975799420826,-0.25,-0.249456152418461,-0.248806688236233,0.88961842138419,0.884161162886231,0.04,0.0479388171046144,424.363997073822,0.840210591294376,0.371112049822077
9156,-0.249975016029561,-0.249964784236745,0.203235201014322,0.249953452997369,-0.0500096802316694,-0.245129823366563,0.0498003802504443,-0.249522674705886,0.883161154773717,0.884161162886231,0.04,0.0374972829607377,421.35518399216,0.835931213823597,0.370367163606026
9216,-0.249958467378583,-0.25,0.172058668357204,0.249935929901924,-0.25,-0.241883038944271,0.249304735363047,-0.249999999018988,0.885580674500497,0.884161162886231,0.04,0.0324885145836202,422.504384204276,0.827249415259995,0.375274821698824
9276,-0.249983192076638,-0.249994125419024,-0.0810906055155103,0.249957373675364,-0.249999972108476,0.0523462296104285,-0.0502582311786226,-0.249999543734613,0.890339611977804,0.884161162886231,0.04,0.0236819941647461,424.81676529508,0.807130990449057,0.386733952127276
9336,-0.249999675208675,-0.249990209031707,-0.24985678809732,0.249971669524325,-0.249999953514127,0.248499075313562,-0.249966875539736,-0.249999240211697,0.88585495594336,0.884161162886231,0.04,0.0194575648079852,422.604402614105,0.77701684224656,0.399630163733678
9396,-0.249971999601425,0.0498046653483815,-0.249938073921727,-0.0500113321902701,-0.249936465225998,0.249399630125425,-0.249986247385043,-0.249999696084679,0.882189432734602,0.884161162886231,0.04,0.0187246231411471,420.854973786631,0.779402261201942,0.396757805070972
9456,-0.249953549196591,0.249667914935107,-0.249992264471333,-0.25,-0.249894139700578,0.25,-0.249999161948582,-0.25,0.88156240120271,0.884161162886231,0.04,0.0195842381465857,420.598184657286,0.79560191460126,0.388442061771266
9516,-0.249981118430184,0.249866976845873,0.0500029760265454,-0.24886023977861,-0.249739452284767,0.24851817144045,-0.249527551070395,-0.249999872562895,0.871612591265571,0.884161162886231,0.04,0.0278519349873812,415.814430392162,0.84045686985664,0.363528782389033
9576,-0.249999497919247,0.249999684786383,0.249999803025131,-0.248100399631016,-0.249636327340892,0.247530285734084,-0.24921314381827,-0.249999787604825,0.877864929556825,0.884161162886231,0.04,0.0333865501426406,418.886421781944,0.902690555804672,0.340966773860768
9636,-0.241720284084397,0.249999873914553,0.249999802593164,-0.249214436476185,-0.249854530936357,0.249012087741944,-0.249685257527308,-0.24999991504193,0.881919429272644,0.884161162886231,0.04,0.0386645073222847,420.783582508585,0.922062041951913,0.335315260569866
9696,-0.236200808194497,0.25,0.249999802305186,-0.249957127706297,-0.25,0.249999955747183,-0.25,-0.25,0.883934841207244,0.884161162886231,0.04,0.0433769414126747,421.737260671796,0.927167888295095,0.334224488504176
9756,-0.244450492128491,-0.0499999962241654,0.249707018906816,0.050017148917481,-0.249831390739283,0.205940987808399,-0.25,-0.249863753172216,0.87894342248689,0.871364480954189,0.04,0.0474828995757662,419.234031128525,0.903077162162065,0.341103633610586
9816,-0.249950281417821,-0.249999993706942,0.249511829974569,0.25,-0.249718984565472,0.176568342515877,-0.25,-0.249772921953693,0.858837749819106,0.850036677734119,0.04,0.0535679278018758,409.565286352323,0.84511640746073,0.356091234128087
9876,-0.249980108596866,-0.249999997482777,0.249791274226473,0.249994740204508,-0.24987840143574,0.220530634481258,0.05,-0.249909168781477,0.835848832014429,0.841505556446091,0.04,0.059394373061498,398.693650458802,0.838078111626105,0.349550153595381
9936,-0.249999993382896,-0.25,0.24997757039441,0.24999123367418,-0.249984679349252,0.249838829124846,0.25,-0.25,0.838743534162932,0.841505556446091,0.04,0.0555163861452054,400.209910268554,0.873040317706189,0.336828021872094
9996,-0.249992193206642,-0.244234068070573,0.148458937050345,0.249994004124994,-0.249902746667035,0.249935438524085,-0.0499790131864288,-0.249999954646527,0.850074065581447,0.841505556446091,0.04,0.0451428019418427,405.647613171915,0.852073132097014,0.349805577661331
10056,-0.24998699308914,-0.240390113450956,0.0807798481543026,0.249995851092203,-0.24984812487889,0.249999844790244,-0.249965021977381,-0.249999924410879,0.845413960593826,0.841505556446091,0.04,0.0406604735345872,403.28851299102,0.805161901904372,0.368033465604731
10116,-0.249994797235656,-0.0866858915635328,-0.117676203832441,-0.0497805738483411,-0.249939249808384,0.249965163187206,-0.249958257975959,-0.249981389846684,0.848972045191699,0.841505556446091,0.04,0.0277905047178334,405.137823959663,0.780230491736787,0.381535144683838
10176,-0.25,0.0157835896947493,-0.24998023849027,-0.249631523808704,-0.24999999976138,0.249942042118514,-0.249953748641678,-0.249969033470555,0.844978113794235,0.841505556446091,0.04,0.0223672407717803,403.109449040216,0.733617148846343,0.403745950854259
10236,-0.25,0.156141597971333,0.0500041392856372,-0.249852609517013,-0.249969582457931,0.249975893438674,-0.249965583298227,-0.249987613388222,0.827431432206591,0.841505556446091,0.04,0.0306096725432428,394.684046691944,0.76616219960546,0.378515377184371
10296,-0.25,0.249713603489055,0.249993724469575,-0.249999999989219,-0.249949304255633,0.249998460985447,-0.249973473069261,-0.25,0.834817098255199,0.841505556446091,0.04,0.0344892653712958,398.357415734705,0.837488999179705,0.349501039282561
10356,-0.249999977830835,0.0134390331072899,-0.049995726631333,0.0499999039289142,-0.249979721702253,0.249974435751725,-0.249989388931633,-0.191288547618396,0.843809653884059,0.841505556446091,0.04,0.0322753909099585,402.641184044286,0.846086441463731,0.349669808156056
10416,-0.249999963051392,-0.14407734714722,-0.249988694031938,0.249999839874336,-0.25,0.249958418929244,-0.249999999506548,-0.152147579363993,0.842180214909422,0.841505556446091,0.04,0.0322571412187045,401.783884209258,0.827103826138333,0.356933375728634
10476,-0.249999985220557,-0.207630938858888,-0.249995477492869,0.249999935949735,-0.25,0.249863662220427,-0.249998897044066,-0.210140935753563,0.844099326727832,0.841505556446091,0.04,0.0307168583007913,402.737158672258,0.820632746157263,0.360601505195262
10536,-0.25,-0.25,-0.249999999800157,0.25,-0.25,0.249800491081216,-0.249998162069078,-0.24880317334661,0.841953492729717,0.841505556446091,0.04,0.0302315354878125,401.67979905249,0.808791257064171,0.364920464877701
10596,-0.25,-0.249910642592594,-0.249970734409377,0.25,-0.25,0.1047680787603,-0.0964552399552577,-0.249521269338644,0.841316346548261,0.841505556446091,0.04,0.0307834382810606,401.390033150178,0.810184429746021,0.364030161279469
10656,-0.25,-0.249851070987657,-0.249951224148857,0.25,-0.25,0.00807980387969042,0.00590670812062217,-0.25,0.840343919906199,0.841505556446091,0.04,0.0312549649632376,400.923007477159,0.814169382878987,0.361826931584064
10716,-0.249999982894917,-0.249940257947841,-0.249980489659543,-0.05,-0.25,-0.146768078448124,-0.147637315430434,-0.249920267579459,0.857157406789538,0.841505556446091,0.04,0.0199944936713876,409.058952226781,0.773914746499342,0.388371592550605
10776,-0.249999971491528,-0.249999715921297,-0.25,-0.25,-0.25,-0.25,-0.249999997797806,-0.249867112632432,0.846005018812615,0.841505556446091,0.04,0.0153501966534404,403.528482042137,0.69461786207288,0.426857506412572
10836,-0.249999988596611,-0.249999698822937,-0.249999999262643,-0.25,0.049983802650056,0.0499999834553455,-0.249999999119122,-0.249863912137846,0.820867685437221,0.841505556446091,0.04,0.023498504998441,391.530737093705,0.745375628531876,0.385962712315039
10896,-0.25,-0.249999687424031,-0.249999998771072,-0.25,0.24997300441676,0.249999972425576,-0.25,-0.249861778474788,0.830883734950526,0.841505556446091,0.04,0.0258836149244963,396.464341554863,0.84787436440333,0.34357954819069
10956,-0.249999998303791,-0.249749250640937,-0.249999935138727,-0.247889191757916,-0.0500086463118831,-0.0499992833576234,0.05,-0.249939267001641,0.845315028017505,0.841505556446091,0.04,0.0255090096266837,403.380378902619,0.862874564279574,0.343496074891026
11016,-0.249999997172985,-0.249582292785541,-0.249999892717164,-0.246481986263194,-0.249996413464312,-0.24999878721309,0.25,-0.249990926019544,0.841008668630319,0.841505556446091,0.04,0.0281605449605452,401.222253478512,0.841517739321012,0.350329261590667
11076,-0.249999998869194,-0.222018227950376,-0.249999957086865,-0.247551530954005,-0.249312889629042,-0.249999514885236,-0.05,-0.248552682971548,0.845419559487087,0.841505556446091,0.04,0.0238518607157715,403.38773454299,0.83460698151421,0.355136534036696
11136,-0.25,-0.203642184726933,-0.25,-0.248264560747879,-0.248857207072196,-0.25,-0.25,-0.247593854272884,0.842203371655118,0.841505556446091,0.04,0.0228433016350272,401.803562322724,0.816628310481233,0.361529738741994
11196,0.0478341338135095,0.0685430425093985,-0.249990407862524,-0.249305824299151,-0.249542882828879,-0.238707730070293,-0.25,-0.249037274808736,0.806449764205359,0.819663732788471,0.04,0.0393207045985709,384.466502327824,0.845375607736264,0.334166931187718
11256,0.246390223022516,0.249999860666953,-0.249984013104207,-0.25,-0.25,-0.231179550117154,-0.25,-0.249999555165971,0.800233773727438,0.805102517016725,0.04,0.0511166747917893,381.871541335891,0.906639768022999,0.309483290534253
11316,0.248556089209006,0.0353373354879377,-0.249993605241683,-0.24999921331183,-0.25,-0.242454630850535,-0.249995936276467,-0.249849678,0.811012485160856,0.805102517016725,0.04,0.0498995378026844,386.994490450167,0.895487124957035,0.317541222413709
11376,0.25,-0.107771014631406,-0.25,-0.24999868885305,-0.25,-0.249971351339456,-0.249993227127445,-0.249749759889353,0.809376765664329,0.805102517016725,0.04,0.0503930288305031,386.133216165747,0.856931138475049,0.331089886128949
11436,0.248661723472684,0.105059099606622,-0.25,-0.249999207120378,0.05,-0.249836707554197,-0.249992953046564,-0.249899903955741,0.795654248219098,0.805102517016725,0.04,0.0613668130609653,379.540344017878,0.873696543679425,0.319192005557054
11496,0.24776953912114,0.246945842431974,-0.25,-0.24999955263193,0.25,-0.249746945030691,-0.249992770325978,-0.25,0.804186940093728,0.805102517016725,0.04,0.06580535502608,383.756077244869,0.91000723765606,0.309859699915947
11556,-0.0508913539814965,-0.0512211918739206,0.0499988738103795,0.0500000531134947,-0.0499999492155438,0.0501012218909308,-0.249997108130391,0.0499990633444992,0.800302410300689,0.805102517016725,0.04,0.0705014821895929,381.782327097193,0.919023871350404,0.305241588432864
11616,-0.249998616049921,-0.249999214744517,0.249998123017299,0.249999790277111,-0.24999991535924,0.249999999838679,-0.25,0.249998438907499,0.806750274879332,0.805102517016725,0.04,0.0704168524811962,384.924552422573,0.925087948819171,0.305736483643326
11676,-0.249999446419969,-0.249999672370145,0.249998846526533,0.249999784263168,-0.249997429312995,0.249999999935471,-0.249997252286472,0.249996482912265,0.808210062091205,0.805102517016725,0.04,0.0704107541159568,385.601295981808,0.908276590024091,0.311942853358189
11736,-0.25,-0.249999977453896,0.249999328866023,0.249999780253873,-0.249995771948832,0.25,-0.249995420477453,0.249995178915443,0.808387984960207,0.805102517016725,0.04,0.0689628506570584,385.681302243237,0.888626847922034,0.31890683748217
11796,-0.249999833512691,-0.178113488719476,-0.0500002684535908,0.249996348062195,-0.249998305875116,0.25,-0.249997252382272,0.249998071566177,0.811465977714428,0.805102517016725,0.04,0.0591762342901344,387.183358162265,0.860892068612499,0.330462855981097
11856,-0.249999722521151,-0.13018916289653,-0.25,0.249994059934409,-0.249999995159305,0.25,-0.249998473652151,0.25,0.809791543501341,0.805102517016725,0.04,0.0524861962674849,386.321441672664,0.822312729602866,0.345196573436321
11916,-0.24999979845411,-0.202075665158612,-0.25,-0.0500022751749578,-0.249999998063722,0.25,-0.24999938946086,0.249999965895384,0.817051877157175,0.805102517016725,0.04,0.0412962108664614,389.89944353527,0.779670633540764,0.367448192084516
11976,-0.249999849076083,-0.25,-0.25,-0.249999831914536,-0.25,0.25,-0.25,0.249999943158974,0.810902195890875,0.805102517016725,0.04,0.035138932813837,386.820757650525,0.713758875104001,0.398210700589495
12036,0.050000060369567,-0.249999256875673,-0.25,-0.249999932765814,-0.249996612677602,0.25,-0.249999857289188,0.24999997726359,0.797000020247682,0.805102517016725,0.04,0.0356150890022093,379.981719624923,0.717857719108257,0.38893677198518
12096,0.25,-0.249998761459455,-0.25,-0.25,-0.24999435446267,0.25,-0.249999762148647,0.25,0.800509097927559,0.805102517016725,0.04,0.0340364469756006,381.988070514898,0.772144468445985,0.363501252672912
12156,0.0733026091658705,-0.175945037771834,0.05,0.05,0.0499999793596878,-0.0499999977874891,-0.249999904859459,0.249999793487063,0.787531026680063,0.805102517016725,0.04,0.044505811051477,375.73243114932,0.835329008280458,0.330503296481555
12216,-0.0444956513902158,-0.126575888646753,0.25,0.25,0.249996201907927,-0.249999996312482,-0.25,0.249999655811771,0.800202790310988,0.805102517016725,0.04,0.0519256917023339,381.864472557352,0.90042616196779,0.311613185647986
12276,-0.167798203752565,0.099369644541299,0.249988299848709,0.181406448610239,0.249876823713408,-0.249999998432658,-0.249580127204086,0.0170227680119805,0.811612174140473,0.805102517016725,0.04,0.0550475894784336,387.2915239544,0.886999599377633,0.320825769775471
12336,-0.249999905327464,0.25,0.249980499747849,0.135677414350398,0.249797238250395,-0.249999999846109,-0.24930021200681,-0.13829515718788,0.809312582962729,0.805102517016725,0.04,0.0590024623555807,386.073931287766,0.845193536294345,0.335636348125675
12396,-0.249994326604119,0.25,0.249992195192671,0.204253014064451,0.249918895300158,-0.203212885389422,-0.249720084802724,-0.0744336876518021,0.803093317372793,0.805102517016725,0.04,0.0603664650271255,383.1193222073,0.843237326993849,0.333840413082617
12456,-0.249990607455222,0.25,0.249999992155886,0.249970080540486,0.25,-0.17202147575163,-0.25,-0.0318593746277502,0.804392493477362,0.805102517016725,0.04,0.057850066082945,383.801029456542,0.855940141810476,0.329471169291655
12516,-0.249996220626991,0.25,0.249997856554676,0.0971899667289841,0.249999991007169,0.081191407150888,-0.0472969715913376,0.137256194423526,0.793752782646639,0.805102517016725,0.04,0.0640913238031147,378.62202320078,0.888257756309242,0.313199845874958
12576,-0.249999962741503,0.25,0.249996432820537,-0.00466344247868369,0.249999985011948,0.249999995752567,0.0878383806811039,0.249999907124377,0.802113407159116,0.805102517016725,0.04,0.0639115727467291,382.775705709291,0.939225043946833,0.299453489228597
12636,-0.249999406766458,-0.05,0.249998572911807,-0.151847438746879,0.249998931526888,0.249999998301027,-0.114864647372597,0.249999683874594,0.818448688238186,0.805102517016725,0.04,0.0514679418057983,390.616855305836,0.902328605890767,0.318083345076189
12696,-0.249999036116429,-0.25,0.24999999963932,-0.249970102925675,0.249998229203515,0.25,-0.249999999408398,0.249999535041405,0.81427444202968,0.805102517016725,0.04,0.046790335773924,388.402691653542,0.815257543772498,0.350059671646202
12756,0.0499909628965413,-0.25,0.184498832315369,-0.249987776539734,0.249922013242653,-0.0499712569296374,-0.239814421041032,0.249999814016562,0.808083287815661,0.805102517016725,0.04,0.0408213478320571,385.50385564892,0.784547411612059,0.3610473888094
12816,0.249984295571855,-0.25,0.140831387432735,-0.249999558949107,0.249871202602077,-0.249952094882729,-0.227564806741099,0.25,0.80665827734197,0.805102517016725,0.04,0.0370744082816462,384.850553764634,0.772340696112463,0.366132155866045
12876,-0.0499980309753864,-0.25,0.206330433343567,-0.249999397126878,0.249948281334974,-0.249954967429413,-0.227941526156984,0.249989689884013,0.809661127480288,0.805102517016725,0.04,0.0271802288363241,386.357417380381,0.758466498646437,0.374289399898076
12936,-0.249986248673547,-0.25,0.249996463950789,-0.249999289245391,0.249999667156906,-0.249956882460535,-0.247657301570896,0.249982816473355,0.809318972098437,0.805102517016725,0.04,0.0228603105822988,385.989529344799,0.718615119155967,0.394669758455959
12996,-0.249971305728095,0.012463370879971,0.249998585580316,-0.249998885315451,0.249999098834698,-0.249982347042215,-0.25,0.249983227197345,0.797314722913701,0.805102517016725,0.04,0.028167843876779,380.32879786801,0.733158556427746,0.381167601686746
13056,-0.24996134376446,0.187438951466618,0.25,-0.249998616028825,0.249998719953226,-0.249999323430001,-0.25,0.249983501013339,0.810220849752626,0.819809802999921,0.04,0.0271180355418306,386.771166623808,0.793913633526127,0.357960830289167
13116,-0.249984228408054,0.224810160247997,0.249999882758894,-0.24999944641153,0.249989710226407,0.0496845179809906,-0.249998942035869,0.249949238483542,0.828750317490685,0.844321946305249,0.04,0.0327841111807906,395.56021767925,0.869194966149925,0.334387535911042
13176,-0.249999484837116,0.249724299435583,0.249999804598156,-0.25,0.249983703741861,0.249473745588319,-0.249998236726448,0.249926396797011,0.856570122687067,0.868834089610576,0.04,0.0355049033814498,408.906061334154,0.958448533604335,0.313479703476594
13236,-0.249999793934846,-0.0500603358004963,0.249999745989473,-0.249995425061421,0.249988027293207,-0.0501604589083388,-0.249984998373944,0.249970558718804,0.897197256569026,0.893346232915903,0.04,0.0236482409519476,428.431419200221,0.98523195480147,0.319519596856381
13296,-0.25,-0.249916759291216,0.249999706917017,-0.249992375102368,0.249990909660771,-0.249916595239444,-0.249976172805608,0.25,0.917270639985105,0.91785837622123,0.04,0.0213314036628542,437.744504035959,0.952539561548886,0.337669905487832
13356,-0.249980729889849,-0.135013118793406,-0.0500001172312446,0.0492777445053725,0.157507261165313,0.0500296441412953,-0.249987895804718,0.25,0.920464627844641,0.927663233543361,0.04,0.0291884525316834,439.139571936283,0.983712860767308,0.32801137234896
13416,-0.249967883149748,-0.0584106917948667,-0.249999999996753,0.2487911575772,0.095851495501674,0.249993803728455,-0.249995711137458,0.25,0.926247920590167,0.927663233543361,0.04,0.0357357837396957,441.953943035742,1.00925509503107,0.32175902607035
13476,-0.249987027913641,-0.173363679052743,-0.24999999966665,0.107943972286705,-0.111659399549141,0.249670570786656,-0.249983177307479,0.249998489218717,0.938509278760399,0.927663233543361,0.04,0.0313748219252983,447.876262411071,0.979446609212538,0.335994334567952
13536,-0.24999979108957,-0.249999003891327,-0.249999999446581,0.014045848759709,-0.249999996249684,0.24945508215879,-0.249974821420826,0.249997482031195,0.934155787129438,0.927663233543361,0.04,0.0308329130538872,445.622378410508,0.912183725487388,0.358954455971345
13596,0.0500000533994181,0.0500003984142903,-0.2499999973988,0.155617412012137,0.0499996989036792,-0.0501323732651502,-0.249989928555217,0.249998992812478,0.912751590775374,0.927663233543361,0.04,0.0454898050273904,435.433465690288,0.94200134678918,0.339644789702056
13656,0.24999994972541,0.249999999951368,-0.249999996033613,0.249998454180423,0.249999495672588,-0.249857343547777,-0.249999999978145,0.25,0.921632066709926,0.927663233543361,0.04,0.054624829413675,439.803033130039,1.00940753811809,0.320144726777963
13716,0.249999377844839,0.0278535000438121,-0.249999986205883,0.249999381672169,-0.0500002017309648,0.0456427551667699,-0.249999999487923,0.25,0.930238440717601,0.927663233543361,0.04,0.0502123139744326,443.876291657943,1.01123754770917,0.322525040602897
13776,0.249998996591125,-0.120244166561226,-0.249999979654062,0.25,-0.25,0.242642820976468,-0.249999999161109,0.25,0.931130839780437,0.927663233543361,0.04,0.0491203198903424,444.221558417933,0.984504894174941,0.331540377937132
13836,0.249999593246997,-0.198060970067425,-0.24999995413751,0.0325193573047231,-0.249996580378625,0.24701655300271,-0.249658909812874,0.2499997281141,0.934119929786425,0.927663233543361,0.04,0.0429144078287078,445.710183444262,0.958326600292827,0.341738327848911
13896,0.249999991017579,-0.249938839071557,-0.249999937126476,-0.112467737825461,-0.249994300631041,0.249932374353538,-0.249431516914051,0.249999546856833,0.932281958065351,0.927663233543361,0.04,0.0392826070618087,444.755277653002,0.918446519049133,0.355813084097987
13956,-0.0500000035929684,-0.249975535628623,0.0499681415989428,0.105012662644024,-0.249992958675906,0.249972949741415,-0.249763896906969,0.249999818742733,0.925756324827148,0.927663233543361,0.04,0.0429201456152092,441.658854841966,0.915320627144964,0.354542553974985
14016,-0.25,-0.25,0.249946860749222,0.249999596290348,-0.24999206403915,0.25,-0.249985483568915,0.25,0.927186235974093,0.927663233543361,0.04,0.0436742748262715,442.364332205629,0.922963371039153,0.352168342262317
14076,-0.25,0.0220555475284223,-0.0500112575783189,0.249999837868594,-0.249971049144776,0.25,-0.249994193427566,0.249979101473729,0.92743140735081,0.927663233543361,0.04,0.0409419999133161,442.479386642864,0.924322366070939,0.351742023633133
14136,-0.25,0.20342591254737,-0.249983336463346,0.249999998920757,-0.249957039215194,0.25,-0.25,0.249965169122881,0.927682174082427,0.927663233543361,0.04,0.0401308378237443,442.595771787517,0.923902162042499,0.351994561596108
14196,-0.249932998108687,0.221069415827405,-0.249984294911694,0.0164622315283441,-0.249977315085187,0.249999146158073,-0.249997197608309,0.249986067649153,0.931408019121123,0.927663233543361,0.04,0.0353962572697423,444.416786720434,0.913911165840372,0.357306690056802
14256,-0.249888330181144,0.232831751347428,-0.24998493387726,-0.139229613399931,-0.249990832331848,0.249998576930122,-0.249995329347181,0.25,0.929791791158859,0.927663233543361,0.04,0.0337379621457497,443.576048209791,0.890087998200648,0.366175951432312
14316,0.0500446679275424,-0.0568490839860616,-0.249987532361392,-0.205691845359973,-0.249962103972014,0.249999430772049,-0.24998725191215,0.249984187012808,0.929404460479593,0.927663233543361,0.04,0.0314982335411724,443.420289617735,0.879155897574217,0.370599085894534
14376,0.25,-0.249969640875055,-0.249989264684147,-0.25,-0.249942951732125,0.25,-0.249981866955463,0.249973645021347,0.927897242106156,0.927663233543361,0.04,0.0306879812359024,442.687579597186,0.874344566439807,0.372022663720573
14436,0.25,-0.249987176906875,-0.249954730942405,-0.249976424350783,-0.24997718069285,0.25,-0.249931570681988,0.249968689373429,0.927130711788202,0.927663233543361,0.04,0.0305527407804509,442.329357417216,0.876255788206137,0.370910852862801
14496,0.25,-0.249998867594756,-0.249931708447911,-0.249960707251306,-0.25,0.25,-0.249898039833004,0.24996538560815,0.926646577990812,0.927663233543361,0.04,0.0307873762983413,442.100097878793,0.881473172847783,0.368524349282736
14556,0.200121477258054,-0.249990685843595,-0.249969338424099,-0.249968139431269,0.0477637995746049,-0.05,0.0500407840667982,-0.0500138457567401,0.94627888988166,0.95501578793501,0.04,0.0246456277555065,451.792649962571,0.915861632370407,0.362463242980346
14616,0.166869128763424,-0.249985231342821,-0.24999442507489,-0.249973094217912,0.246272999291008,-0.25,0.25,-0.25,0.962736022521431,0.963927732346983,0.04,0.0240711652060342,459.235432369405,0.945625234033118,0.356837930638452
14676,-0.0832457204462654,-0.249993999653704,-0.249997770029956,-0.24992798192004,0.248508784572118,-0.249999763342912,-0.05,-0.25,0.96393168100513,0.948389245931773,0.04,0.0200840714696258,459.878473858039,0.900224138015191,0.37535923393296
14736,-0.249988953252725,-0.249999845194293,-0.25,-0.249897907054791,0.249999308092858,-0.24999960557152,-0.25,-0.25,0.94160944723007,0.932850759516564,0.04,0.019757477563991,449.071006662771,0.809677112742228,0.407528353386952
14796,-0.249994805337896,-0.249999938077717,-0.125501468957192,-0.249959080961472,0.249999723237143,-0.249999842228608,-0.249988279736687,-0.25,0.91792477846381,0.917312273101355,0.04,0.0236797625613905,437.791700941565,0.786171062857573,0.409171283515645
14856,-0.24999870672801,-0.25,-0.042502448261986,-0.249999863565925,0.25,-0.25,-0.249980466227812,-0.25,0.903288107995016,0.901773786686145,0.04,0.0257593386895211,430.829200425096,0.784102074537785,0.403726451216153
14916,-0.249999482691204,0.0499999999999999,0.132982239886042,-0.24999994542637,0.25,-0.25,-0.07376862696226,-0.249999977107523,0.868830194863693,0.886235300270936,0.04,0.042049926504,414.343524549618,0.827483604103645,0.367922065694812
14976,-0.25,0.25,0.249972031984727,-0.25,0.25,-0.25,0.0437059325481084,-0.249999961845871,0.865583786088963,0.870696813855726,0.04,0.0506345312575668,412.957908778924,0.904965054880631,0.335296218093058
15036,-0.25,-0.0499959585664507,0.249988812793891,-0.25,0.249999951598464,-0.249964179850346,-0.132517626980757,-0.249999984738349,0.86779739100148,0.855158327440517,0.04,0.0468173028145805,414.015616706022,0.871590523640033,0.349026899724693
15096,-0.25,-0.249993264277418,0.25,-0.25,0.249999919330773,-0.249940299750577,-0.25,-0.25,0.848346260133019,0.839619841025307,0.04,0.0477385383772011,404.568447715376,0.79197674207284,0.375348130868018
15156,-0.249999707646826,-0.249970989459411,0.249942914087714,0.0499921938273578,-0.0500000123566654,0.0499984425067699,-0.249999956751479,0.0499999443314914,0.817708231553475,0.824081354610098,0.04,0.0613380629768125,389.928087978332,0.789911722382837,0.362710925579237
15216,-0.249999512744709,-0.24995613958074,0.249904856812856,0.249986989712263,-0.249999966814958,0.249957604011668,-0.249999927919131,0.249999907219152,0.808620530373903,0.808542868194888,0.04,0.0644672483721642,385.738154970746,0.81681129842357,0.346996855101979
15276,-0.249996537910928,-0.249982210326788,0.249657970592547,0.249994551521551,-0.249987414133495,0.249983039994411,-0.249999846440075,0.249945985632736,0.797097673804494,0.793004381779679,0.04,0.0658228690897249,380.183706327391,0.796312223828933,0.350804207870733
15336,-0.249994554688407,-0.249999590824153,0.249493379779007,0.249999592727742,-0.249979045679187,0.249999997316239,-0.249999792120703,0.249910037908458,0.78232913884313,0.77746589536447,0.04,0.0665205737707258,373.128044029394,0.767346904346573,0.357289968124072
15396,-0.249997774042321,-0.249995997765718,0.028425029655534,0.249999837091097,-0.249990643978905,0.249999198584356,-0.249999916848281,0.249964015163383,0.770028228081436,0.76192740894926,0.04,0.0577483284808201,367.287741283785,0.728710183478671,0.370344816980213
15456,-0.249999920278263,-0.249993602393428,-0.118953870426782,0.25,-0.249998376178717,0.249998666096434,-0.25,0.25,0.752828269132938,0.746388922534051,0.04,0.0513407059953652,359.019250246344,0.6789338513686,0.388548242562532
15516,0.0500000318886947,-0.140954266390632,-0.147101081282517,0.25,-0.24999907754467,0.249920717878565,-0.249999674951842,0.24999970367438,0.728445781246957,0.730850436118841,0.04,0.0595742151717398,347.319031802118,0.662011528846495,0.38549407314455
15576,0.25,-0.0682613757221011,-0.165865888519673,0.25,-0.249999545121972,0.249868752399986,-0.249999458253069,0.249999506123966,0.716180305018127,0.715311949703632,0.04,0.0652863951896347,341.622898684629,0.674127454146583,0.372357096614992
15636,0.24999995267436,-0.17730455028884,-0.21634511288822,-0.0472698191636516,-0.24999977980627,0.249944752875886,-0.249999773165506,0.249999778616977,0.709477435685339,0.699773463288422,0.04,0.0490293560763262,338.435898059461,0.638328319396173,0.389571328719436
15696,0.249999921123934,-0.25,-0.249997929133917,-0.245449698606086,-0.249999936262469,0.24999541985982,-0.24999998310713,0.249999960278984,0.691982170313798,0.684234976873213,0.04,0.0398277752573111,329.94038526159,0.571252056998,0.424387297654153
15756,-0.0499687911942659,0.0499984982773241,0.0499867218658653,0.0518201205575656,0.0499912662066476,0.249998167943928,0.0499935146339709,0.227355955132404,0.660927184922523,0.685354740667715,0.04,0.0702120424233811,315.221030564911,0.62696073768846,0.369427751032516
15816,-0.249947932739732,0.249997497128873,0.249976489199054,0.25,0.249985401186059,0.25,0.249989179794705,0.21225995170135,0.682361820628802,0.697580004602024,0.04,0.0671887205549519,325.767922761147,0.766564683938537,0.312258441431437
15876,-0.249938054112126,0.249994615280495,0.249982830177817,0.25,0.24999408440097,0.202296210954579,0.249995671917882,0.234900743325553,0.70277902940241,0.709805268536333,0.04,0.0619698447227159,335.429623246558,0.821366218430424,0.300067702919704
15936,-0.249931468360388,0.249992694048242,0.249987057496993,0.25,0.249999873210911,0.170493684924298,0.25,0.249994604408355,0.718162557660532,0.722030532470642,0.04,0.0609508248944595,342.748667193714,0.850307160161286,0.296179240291934
15996,-0.249972587344155,0.249997077619297,0.249983832800624,0.24999077145723,0.249978709587856,-0.0818025260302809,0.25,0.249860540419745,0.736060729999587,0.734255796404952,0.04,0.0546830536538924,351.321556495435,0.856241282789417,0.301483335431544
16056,-0.25,0.25,0.249981683003045,0.249984619095383,0.249964600505819,-0.25,0.25,0.249771164427339,0.747135494635623,0.746481060339261,0.04,0.0522138860709923,356.521406068113,0.842782437697829,0.310831346624561
16116,-0.249991937925678,0.124402024477841,0.249992673201218,0.249993847638153,0.249985840202328,-0.249985092955612,0.25,-0.0150597110483345,0.76721565005919,0.75870632427357,0.04,0.0412656248496799,366.092465658039,0.821933327451664,0.32727201986279
16176,-0.249986563209463,0.0406700407964024,0.25,0.25,0.25,-0.249975154926021,0.25,-0.00784758405552478,0.770814340151197,0.77093158820788,0.04,0.0377666016755877,367.818196688268,0.810358365260046,0.333511464509546
16236,-0.249994625283785,-0.133731983681439,0.249365678078422,0.249999901966243,0.249997577708058,-0.249976869822089,-0.0113000888079408,-0.0113000888079408,0.791907372833859,0.783156852142189,0.04,0.0229145378507812,377.876578615318,0.79121017125215,0.350923772256532
16296,-0.25,-0.25,0.248942796797369,0.249999836610405,0.249995962846764,-0.249978013086135,-0.0374066014135407,-0.0374066014135407,0.796459264837541,0.795382116076498,0.04,0.0177995452347584,380.047460786248,0.771155701893045,0.362118270441134
16356,-0.24999994105041,-0.25,0.249577118718948,0.249999910560759,0.111864551444543,0.0499730063569064,-0.0806634730252236,-0.0806634730252236,0.803614941201993,0.807607380010807,0.04,0.0187150765920863,383.473294128155,0.784350962892906,0.359235598349725
16416,-0.249999901750684,-0.25,0.25,0.249999959860995,0.0197769438430623,0.249940352652267,-0.129954857934363,-0.129954857934363,0.816240697270443,0.819832643945117,0.04,0.0183611204550123,389.537816128036,0.811232219883805,0.352824804952001
16476,-0.249999960700274,-0.249999994508104,-0.0499999999999999,0.249999983944398,-0.142088933157521,0.249975875414554,-0.185594616597906,-0.123694379917391,0.836552690549892,0.832057907879426,0.04,0.00621469186528231,399.245162178528,0.807271170463922,0.363391609517719
16536,-0.25,-0.24999999084684,-0.25,0.25,-0.249999517824577,0.249999557256078,-0.249999348751835,-0.0397276123872974,0.845171513770805,0.844283171813735,0.04,0.00403638738746318,403.234674379559,0.7756205461974,0.381999893233684
16596,-0.249998343096024,-0.249999041703139,-0.249996259818898,0.0278556139097066,-0.24999964339991,0.249987341467744,-0.249999695167063,0.0780757882597069,0.858242484976992,0.856508435748045,0.04,0.0047840851002521,409.56577477831,0.776904573076758,0.387356328984191
16656,-0.249997238493373,-0.249998408940672,-0.24999376636483,-0.120240643483823,-0.249999727116799,0.249979197608854,-0.249999926110548,0.156611388691043,0.864821422417045,0.868733699682354,0.04,0.006307301793417,412.674680479583,0.781949497160082,0.387778561517575
16716,-0.249998895397349,-0.249999314266332,-0.249997506545932,-0.198089154069244,-0.24999989084672,0.249991635244175,-0.249996409772987,0.212644555476417,0.857016017979775,0.853945421022326,0.04,0.0121651342094762,408.665929846342,0.783593151152107,0.383206156067804
16776,-0.25,-0.249999917816771,-0.25,-0.249988161126192,-0.25,0.249999927001056,-0.249994065547946,0.25,0.828257129502325,0.82518410894972,0.04,0.0208847317545228,394.954138026168,0.759674720625219,0.382009065970544
16836,-0.249996228647353,-0.249988578902264,-0.249993557667888,-0.24995467886516,-0.25,0.249979788749446,-0.249994463164721,0.249999999091927,0.80275121271475,0.799113460199547,0.04,0.0272506185422098,382.791075939241,0.737879357741349,0.381180889936201
16896,-0.249993714412255,-0.249981019625926,-0.249989262779813,-0.249932357357805,-0.25,0.249966363248373,-0.249994728242572,0.249999998486545,0.777362887608058,0.773042811449374,0.04,0.0325953082989807,370.677521924558,0.71201171287234,0.382528492757362
16956,-0.249997485764902,-0.191849156730496,0.0494472018184267,0.0500270570568782,-0.249999912532457,0.249982433543596,-0.0941872908684126,-0.0497387445899195,0.745751938481781,0.762614551949305,0.04,0.0444120165669073,355.690200073704,0.747084711363508,0.349829739830856
17016,-0.25,-0.153094581466876,0.249071511550586,0.25,-0.249999854220761,0.249993147073746,0.0096843340476936,-0.249564573307563,0.755448240612113,0.762614551949305,0.04,0.0477358203158057,360.515040083071,0.82886134542554,0.319592204385188
17076,-0.249999910442349,-0.21052397794748,0.249220665716937,0.249993398536493,-0.249482258168625,0.249996945174657,0.153873733619077,-0.249792244265674,0.75943357977408,0.762614551949305,0.04,0.0526758175765905,362.336383564457,0.850371903238962,0.313081725884948
17136,-0.249999850737248,-0.248810242267883,0.249320101827839,0.249988997560822,-0.249137194133868,0.249999477241931,0.25,-0.249944024904414,0.762761310304492,0.762614551949305,0.04,0.0560445667129398,363.936380019739,0.857923532236161,0.311696242477176
17196,-0.249958049742615,-0.248872053559583,0.249728040731135,0.249995599024329,-0.154041113685689,0.249996085119659,0.25,-0.0836883488705048,0.758801871206121,0.762614551949305,0.04,0.0630753213671634,361.989999753799,0.865779601848967,0.307216049210405
17256,-0.24993018241286,-0.248913261087383,0.25,0.25,-0.0906437267202365,0.24999382370481,0.25,0.0271487684854345,0.762788348717033,0.762614551949305,0.04,0.0647799466525091,363.968305790446,0.880755558782034,0.303642704197316
17316,-0.249972072965144,-0.249552940379745,0.249953722143413,0.249900674122032,0.113741498631135,-0.0499997212695238,-0.0490498064047147,0.00520379229270122,0.77357667150941,0.762614551949305,0.04,0.0574859339623782,369.154432823611,0.844063082248179,0.321357069721006
17376,-0.25,-0.24997939324132,0.249922870239021,0.249834456870053,0.249998315532048,-0.24999541791908,-0.248416344007858,-0.00942619183578785,0.774193878624815,0.771566739049164,0.04,0.0518601973711521,369.396616982015,0.793587545286082,0.342020979755936
17436,-0.249999999661659,-0.249991662135623,0.249969148095609,0.249933782748021,0.249999171020854,-0.249998167167632,-0.249330875253436,0.0865760665479993,0.781313047805577,0.786487050882262,0.04,0.0442176338266394,372.851096243964,0.811211760392552,0.337719286034072
17496,-0.249999999436098,-0.249999841398491,0.25,0.25,0.249999741346724,-0.25,-0.249940562750488,0.150577572137191,0.797346344449386,0.80140736271536,0.04,0.0383013241082669,380.548547339689,0.843102998159132,0.331653138171255
17556,0.0499999996552369,-0.249995043277743,0.249999649603806,0.249999774723884,0.24999971844344,-0.249999669375496,-0.249975339839485,0.210230994979309,0.806187282671321,0.816327674548458,0.04,0.0444283428787604,384.679732174628,0.880348331042011,0.321069784132243
17616,0.24999999904946,-0.249991844530577,0.249999416006343,0.249999624539806,0.249999703174584,-0.24999944895916,-0.249998524565484,0.24999994354072,0.824020549633462,0.831247986381556,0.04,0.0470979457995379,393.318251204568,0.942821107312851,0.306527525362793
17676,0.249999999619784,-0.249994209703472,0.249999766402537,-0.0499965040730526,-0.0500001187301664,-0.249998297030256,-0.249999409826194,0.249997849923198,0.85215599876703,0.846168298214654,0.04,0.0342296584550416,406.815303909894,0.944144351863979,0.316601930792676
17736,0.25,-0.249995786485402,0.25,-0.249993923148292,-0.25,-0.249997529077654,-0.25,0.249996454178183,0.864910752904777,0.861088610047752,0.04,0.0306522026911293,412.695297225269,0.893339103056514,0.339443777654596
17796,0.249998041424273,-0.175366307119246,-0.0500000000000001,-0.249997569259317,-0.249999995914532,0.050000634344299,-0.25,0.155809535452593,0.876825214880141,0.87600892188085,0.04,0.0290351817362978,418.452308770588,0.88805220190043,0.346227969862026
17856,0.249996735707121,-0.125613320875143,-0.25,-0.25,-0.249999993190886,0.249999409958934,-0.25,0.0930182563021993,0.889575366732535,0.890929233713948,0.04,0.0275357813492136,424.514834155022,0.888973859153687,0.350879953330194
17916,0.249997790411987,0.0997546716499429,0.0499864095157791,-0.249999980605507,-0.24999989251102,0.249999170635344,-0.249999507414561,0.187204684592078,0.889067544146628,0.905849545547046,0.04,0.0408844198438407,424.216398618227,0.946043085078824,0.329481635670081
17976,0.249998493548564,0.25,0.249977349192965,-0.249999967675845,-0.24999982539111,0.249999011086283,-0.249999179024269,0.24999563678533,0.910534819102492,0.920769857380144,0.04,0.0462100637012042,434.617828434675,1.0368896124009,0.307985088503937
18036,0.249999203090965,0.25,0.249990939677186,-0.249999987070338,-0.249999930156444,0.249990215885756,0.0499814436279196,0.249998254714132,0.923860883114853,0.935690169213243,0.04,0.0526227850344586,440.858107262955,1.09405658588603,0.296083170941532
18096,0.249999676119233,0.25,0.25,-0.25,-0.25,0.249984352418738,0.249968525396045,0.25,0.944615494610663,0.950610481046341,0.04,0.0550570182406175,450.855509341262,1.15245800168251,0.287453068938957
18156,-0.0499916660014907,0.249994677529567,-0.0499763747545109,-0.137062038929568,-0.156956642296343,0.249993740967495,-0.0500125898415819,0.25,0.971608015955886,0.95657860577958,0.04,0.0459848271175806,463.723653866699,1.12179409802076,0.303739151006898
18216,-0.249985894081973,0.249991129215944,-0.249960624590851,-0.061770064882614,-0.094927737160572,0.25,-0.25,0.25,0.968616049465481,0.95657860577958,0.04,0.0448637274912606,462.026417711758,1.01762532283327,0.333605789625081
18276,0.0500056322466811,0.249992919808874,-0.249984141882842,-0.174705982315327,-0.18797109357041,-0.0499952874503285,-0.219828132547187,0.25,0.965147843511417,0.95657860577958,0.04,0.0415216303430999,460.46539336698,0.965254642481084,0.350517554651244
18336,0.249999983132451,0.249994113537494,-0.249999820077502,-0.249996593937136,-0.249999997843635,-0.249992145750548,-0.199713554245311,0.25,0.962147099985398,0.95657860577958,0.04,0.0385308016881553,459.017284991719,0.923358467998154,0.365269474434066
18396,0.249999626804553,0.249997645414998,-0.249999926466302,-0.249998637574854,-0.249999999137454,-0.249996692606522,0.0701145783018754,0.249997412545805,0.953668488347658,0.95657860577958,0.04,0.0418855863663112,454.946818892791,0.918022386846176,0.364134675017182
18456,0.249999389252621,0.25,-0.249999997392168,-0.25,-0.25,-0.249999723843838,0.25,0.249995687576341,0.956353704181222,0.95657860577958,0.04,0.0422601922362847,456.301412556904,0.931860707931812,0.35979530298583
18516,0.249999755701048,-0.0499989103766916,-0.249893116306076,-0.249999346028619,-0.249999919111847,0.0500001104624646,-0.05,0.249998275030537,0.963349626536396,0.95657860577958,0.04,0.0339976738626532,459.669324330135,0.911463581362023,0.370561996954824
18576,0.25,-0.249998183961153,-0.249821862248681,-0.249998910047699,-0.249999865186412,0.25,-0.25,0.25,0.959542008112082,0.95657860577958,0.04,0.0295118605187417,457.754717646355,0.874145360082426,0.384772343487416
18636,0.249999512421473,-0.24999857639717,0.0500469673770714,-0.249999259475063,-0.249992803949801,0.249999868954313,0.0499962333993432,0.25,0.942116710836897,0.95657860577958,0.04,0.0409964745124927,449.375013181767,0.912486951843912,0.361856962897383
18696,0.249999187369121,-0.249998838021182,0.249959520460906,-0.24999949242664,-0.249988096458726,0.249999781590521,0.249993722332239,0.25,0.949587257106937,0.95657860577958,0.04,0.0449010831485151,453.132111350129,0.988999910287054,0.336653600631257
18756,-0.0500003250523515,-0.249999535208473,-0.0500161918156374,-0.248297167663691,-0.243658128218897,0.249999912636208,-0.0500025110671044,0.249938840777722,0.976218909782797,0.95657860577958,0.04,0.0295373112179577,465.970089196223,0.948088825547398,0.361130100249363
18816,-0.25,-0.25,-0.25,-0.247162284488392,-0.239438149392345,0.25,-0.25,0.249898067962871,0.965659472181256,0.95657860577958,0.04,0.0230547975290641,460.706974439867,0.831396553452892,0.407165754235759
18876,-0.25,-0.207199014589965,-0.249980929056593,-0.248824669422835,0.0539731670626531,-0.0499994206254272,-0.25,0.249859306418141,0.957305327397198,0.95657860577958,0.04,0.0203294950897133,456.713285792778,0.811203122194559,0.413683984859892
18936,-0.25,-0.178665024316609,-0.249968215094322,-0.249932926045797,0.249580711365985,-0.249999034375712,-0.25,0.249833465388321,0.950923080955503,0.94988512017825,0.04,0.0190881198200813,453.58028417164,0.809501074761076,0.411709999689089
18996,-0.249813936046294,0.0785339902733564,0.050012713962271,-0.249972420152746,0.249832284546394,-0.249975190775705,-0.048977860660664,-0.0458721023280871,0.921943632944476,0.938729310842699,0.04,0.0286782924284653,439.823962416457,0.855462925280974,0.377774266160638
19056,-0.24968989341049,0.25,0.25,-0.249998749557379,0.25,-0.249959295042367,0.0850368988988935,-0.243009147472359,0.921713905780055,0.927573501507148,0.04,0.0363779009209068,439.754349393608,0.929328607464069,0.347692652830962
19116,-0.249875957364196,0.249988755440698,0.25,0.0500005001770485,0.249350850166569,0.0500161911173873,0.183840306631453,-0.247203658988944,0.90582770861909,0.916417692171598,0.04,0.0576040852763794,432.024006237861,0.967455171349272,0.328119246661261
19176,-0.25,0.24998125906783,0.25,0.25,0.248918083610949,0.249999848557224,0.249709245119826,-0.25,0.901822754967923,0.905261882836047,0.04,0.0667527033455943,430.256185617852,1.01704100684805,0.310844605640437
19236,-0.25,-0.0500045638333107,0.249727501137784,0.249606791876422,0.24956723344438,-0.0498543231443849,-0.0456293910894846,-0.249845959414684,0.913133477672981,0.894106073500496,0.04,0.0534547337759188,435.748807871176,0.963974159495322,0.332143296466049
19296,-0.25,-0.249995112434071,0.24954583522964,0.24934465312737,0.25,-0.24975710427879,-0.242521815229025,-0.249743265691141,0.895920981050529,0.882950264164946,0.04,0.04962359455833,427.231913771982,0.843119641716293,0.372330964973697
19356,-0.249999999809775,-0.249998044973628,-0.0501800643938265,0.249737861250948,-0.049999976780274,0.049642330188311,-0.247008716858376,-0.249895859740937,0.881875747457691,0.871794454829395,0.04,0.036083025903321,420.704248922703,0.789822807370595,0.391382951463899
19416,-0.249999999682958,-0.25,-0.249997330809471,0.25,-0.249999961300457,0.249241953166379,-0.249999984611277,-0.249997589107468,0.86714685746473,0.860638645493844,0.04,0.026719493179391,413.570100127815,0.73026826765092,0.41612267310954
19476,-0.249999999873183,-0.25,-0.249998932323788,0.249999999998541,-0.249996666090791,0.249696781266552,-0.249999993844511,-0.24999903564272,0.852189367636504,0.849482836158294,0.04,0.0222380913440843,406.47634155238,0.70814418893334,0.421762782458117
19536,-0.25,-0.25,-0.25,0.249999999997568,-0.249994469284347,0.25,-0.25,-0.249999999999555,0.839792905799766,0.838327026822743,0.04,0.0202356270439486,400.567070924266,0.696518100226376,0.422568883761826
19596,-0.249999999495273,-0.249999994055444,-0.249781005552572,-0.0500000000009727,-0.249997787713739,0.24999999999861,-0.249706609903802,-0.24999997958123,0.837483310656211,0.827171217487193,0.04,0.0139678760904064,399.569712644117,0.664119991364748,0.442079813144236
19656,-0.249999999158788,-0.249999990092406,-0.249635009254287,-0.25,-0.25,0.249999999997683,-0.249511016506337,-0.249999965969013,0.819705669889207,0.816015408151642,0.04,0.0126199585837026,390.768138168082,0.614234511387359,0.467454783050652
19716,-0.249999999663515,-0.122690413689402,-0.181880841946824,-0.249856575046288,-0.249996468485816,0.249970759576043,-0.2498022774382,-0.24999967172586,0.798319793310049,0.804859598816091,0.04,0.0158647195415506,380.599779390111,0.627974048855575,0.44532954778464
19776,-0.25,-0.0378173627540667,-0.136711397075182,-0.24976095841048,-0.249994114143026,0.249951265961616,-0.249996451392775,-0.249999475563758,0.78803092772976,0.793703789480541,0.04,0.0178976912931413,375.997118203787,0.679011063780339,0.406876251636002
19836,-0.25,0.134871506072292,0.0949908208011368,-0.0439372534098044,-0.249996540378124,0.249980506384646,-0.0380822560123183,0.049998221270966,0.747606506994409,0.78254798014499,0.04,0.0467410789262383,356.486617181261,0.795509124895836,0.329270438014354
19896,-0.25,0.249997418623198,0.249458966052016,0.0932785499239798,-0.24999815786819,0.25,0.103193874241319,0.249996685827448,0.758124391370744,0.771392170809439,0.04,0.0590014803597658,361.806877619157,0.952203492823709,0.279191199265312
19956,-0.24999033077131,-0.05000103148791,-0.050215635837754,0.187311419969592,-0.249999262975425,0.25,0.00747808629310612,-0.0498919070801628,0.780540587256459,0.760236361473889,0.04,0.0508999201596151,372.529479246273,0.912878080030487,0.299848957089341
20016,-0.24998388461885,-0.249999998228649,-0.249998703764268,0.25,-0.249999999713581,0.25,-0.0563324390057028,-0.249817635685237,0.763128948338448,0.749080552138338,0.04,0.0525643943747941,363.883623999606,0.780230860029967,0.342684186432443
20076,-0.24999355384754,-0.24999999929146,-0.0263150134332162,0.249994254789216,-0.249999988782017,0.24999994377711,0.127467024265306,-0.125441348593588,0.734222473900307,0.737924742802787,0.04,0.0664242806666468,350.111744650692,0.759245935284169,0.338827678611234
20136,-0.25,-0.25,0.122807446787485,0.249990424648693,-0.249999981494307,0.249999906295184,0.249999999779312,-0.0425238238658225,0.72800035119907,0.726768933467237,0.04,0.0687425477652324,347.306292866482,0.777869827613187,0.328065379844741
20196,-0.25,-0.249998608649546,0.199122978714994,0.249995378185931,-0.249964087570334,0.182586751160485,0.249928896819542,-0.167009529330966,0.723264244896662,0.715613124131686,0.04,0.067503818358487,345.008645862622,0.743814370726141,0.340816090251014
20256,-0.25,-0.249997681082577,0.25,0.249998680544089,-0.249940158287685,0.137644647737353,0.249881494846362,-0.249999999641062,0.710421369510985,0.704457314796135,0.04,0.0670520395663173,338.834673493434,0.699484523071813,0.355929850853924
20316,-0.25,-0.249998800180195,0.25,0.249999472217636,0.0500239205051976,-0.0949383230161002,-0.050047402061455,-0.249996307055809,0.703707459466727,0.693301505460585,0.04,0.0575959174956266,335.697012294155,0.652495120331607,0.378028796936074
20376,-0.25,-0.249999546245273,0.25,0.25,0.249999973033786,-0.249993636851736,-0.25,-0.249993845332307,0.688151648761335,0.682145696125034,0.04,0.05234104329968,328.168197562647,0.594146174132659,0.405842816324211
20436,-0.249999374662467,-0.249999331430379,-0.0500000000000001,-0.0498396789343053,0.249999989213514,-0.249997446144997,-0.249996389272685,-0.249997538132923,0.682260144509843,0.670989886789484,0.04,0.0170810231386467,325.652787794932,0.556301726461173,0.430129341195831
20496,-0.249998957770778,-0.249999188220449,-0.25,-0.249732798223842,0.25,-0.249999985673838,-0.249993982121142,-0.25,0.670824840553762,0.659834077453933,0.04,0.00225928166381135,320.210133936096,0.451035156501083,0.521650170549587
