time,bias_percent_1,bias_percent_2,bias_percent_3,bias_percent_4,bias_percent_5,bias_percent_6,bias_percent_8,bias_percent_9,normalized_power,power_SP,SP,CV,total_power_MW,fuel_fraction,thermal_efficiency
47,0,0,0,0,0,0,0,0,0.999783844525773,1,0.04,0.039922135298552,477.000601631074,0.999930918840599,0.350512576893781
107,0.00330983986130025,-0.0180117805826039,-0.0111210995474746,0.0278842554873928,0.00282726707253187,0.0251823101424153,-0.00969365716885613,-0.0215713715169759,0.997281959805995,0.995249190169593,0.04,0.0410792933098962,475.761914530699,0.991732344656756,0.352492492565158
167,0.00753516734381105,-0.0410055430284815,-0.0253182479059531,0.063481177386192,0.00643654418640222,0.0573299401114558,-0.0220685386610128,-0.049109292602477,0.9914365002494,0.989184326556309,0.04,0.0423072506015754,472.965149711966,0.977894198885112,0.355379152683008
227,0.011760494826322,-0.0639993054743589,-0.0395153962644314,0.0990780992849915,0.0100458213002727,0.0894775700804965,-0.0344434201531696,-0.0766472136879781,0.985170342800099,0.983119462943024,0.04,0.042629928068481,469.974626296781,0.964817028911659,0.357918484106971
287,0.0159858223088329,-0.0869930679202364,-0.0537125446229096,0.134675021183791,0.013655098414143,0.121625200049537,-0.0468183016453263,-0.104185134773479,0.97885753834707,0.977054599329739,0.04,0.0423747486733567,466.962725988504,0.953184323784707,0.359964772043121
347,0.0202111497913438,-0.109986830366114,-0.0679096929813879,0.17027194308259,0.0172643755280135,0.153772830018578,-0.0591931831374831,-0.13172305585898,0.972549062527774,0.970989735716454,0.04,0.0418342750015588,463.953055582549,0.943032224452366,0.361494906390308
407,0.0244364772738547,-0.132980592811991,-0.0821068413398663,0.205868864981389,0.0208736526418838,0.185920459987618,-0.0715680646296398,-0.159260976944481,0.966259003121982,0.964924872103169,0.04,0.0411926646620659,460.952253016662,0.934274147516167,0.362523602251944
467,0.0286618047563654,-0.155974355257869,-0.0963039896983447,0.241465786880189,0.0244829297557542,0.218068089956659,-0.0839429461217965,-0.186798898029983,0.95999528044143,0.958860008489884,0.04,0.0405590070772798,457.964059315826,0.926766011738098,0.36309140993381
527,0.0328871322388765,-0.178968117703746,-0.110501138056823,0.277062708778988,0.0280922068696246,0.2502157199257,-0.0963178276139533,-0.214336819115484,0.953746650354049,0.952795144876599,0.04,0.039989484748191,454.990086150759,0.920359357027292,0.363244609469
587,0.0371124597213874,-0.201961880149624,-0.124698286415301,0.312659630677787,0.031701483983495,0.28236334989474,-0.10869270910611,-0.241874740200985,0.947556814980763,0.946730281263314,0.04,0.0395191577475088,452.03011553636,0.914804629984014,0.363072781218334
647,0.0413377872038983,-0.224955642595501,-0.138895434773779,0.348256552576587,0.0353107610973655,0.314510979863781,-0.121067590598267,-0.269412661286486,0.9413780657076,0.940665417650029,0.04,0.0391417360170273,449.082450898261,0.910005669897264,0.362607399481619
707,0.045563114686409,-0.247949405041379,-0.153092583132258,0.383853474475386,0.0389200382112358,0.346658609832822,-0.133442472090423,-0.296950582371987,0.93522465139487,0.934600554036744,0.04,0.0388535290707726,446.146844738422,0.905788148779784,0.361914403921538
767,0.04978844216892,-0.270943167487256,-0.167289731490736,0.419450396374185,0.0425293153251063,0.378806239801862,-0.14581735358258,-0.324488503457488,0.929093465347827,0.928535690423459,0.04,0.0386428992932545,443.221822324377,0.902012655895327,0.361046534062985
827,0.0540137696514308,-0.293936929933134,-0.181486879849215,0.455047318272985,0.0461385924389766,0.410953869770903,-0.158192235074737,-0.352026424542989,0.922981363081735,0.922470826810174,0.04,0.0384963154778369,440.305875455493,0.898558041187546,0.360050171383346
887,0.0582390971339416,-0.316930692379011,-0.195684028207693,0.490644240171784,0.049747869552847,0.443101499739944,-0.170567116566894,-0.379564345628491,0.916884861786587,0.916405963196889,0.04,0.0384000800698209,437.397343446403,0.895323451033764,0.358963967993141
947,0.0591545847551525,-0.321912674242285,-0.198760077018696,0.49835690658319,0.0505298795941857,0.450066819566569,-0.173248340890194,-0.385530895197016,0.913481351767697,0.915091909414011,0.04,0.0371883407190863,435.815352879926,0.900846189642611,0.35547294795467
1007,0.0591545847551524,-0.321912674242285,-0.198760077018696,0.49835690658319,0.0505298795941856,0.450066819566569,-0.173248340890194,-0.385530895197016,0.913253435094734,0.915091909414011,0.04,0.0360459297808137,435.713977462278,0.911847478324437,0.3511025364675
1067,0.0591545847551524,-0.321912674242285,-0.198760077018696,0.49835690658319,0.0505298795941857,0.450066819566569,-0.173248340890194,-0.385530895197016,0.91344444762857,0.915091909414011,0.04,0.03581793813045,435.806359500943,0.92220031210372,0.347234584903605
1127,0.0591545847551525,-0.321912674242285,-0.198760077018696,0.49835690658319,0.0505298795941857,0.450066819566569,-0.173248340890194,-0.385530895197016,0.913723076697224,0.915091909414011,0.04,0.0361600214118518,435.939623852973,0.931005119072037,0.344055854680559
1187,0.0591545847551524,-0.321912674242285,-0.198760077018696,0.49835690658319,0.0505298795941857,0.450066819566569,-0.173248340890194,-0.385530895197016,0.914018955475278,0.915091909414011,0.04,0.0367786003588701,436.080760265715,0.938047679718031,0.341583346414848
1247,0.0591545847551525,-0.321912674242285,-0.198760077018696,0.49835690658319,0.0505298795941857,0.450066819566569,-0.173248340890194,-0.385530895197016,0.914297326816244,0.915091909414011,0.04,0.0374848280112148,436.213336136157,0.94337102177646,0.339759089096018
1307,0.0591545847551524,-0.321912674242285,-0.198760077018696,0.49835690658319,0.0505298795941856,0.450066819566569,-0.173248340890194,-0.385530895197016,0.914538670406766,0.915091909414011,0.04,0.0381662666901848,436.328140863533,0.947163759048682,0.338487649763044
1367,0.0591545847551524,-0.321912674242285,-0.198760077018696,0.49835690658319,0.0505298795941857,0.450066819566569,-0.173248340890194,-0.385530895197016,0.914734716772343,0.915091909414011,0.04,0.0387626344654201,436.421303985021,0.94968549445494,0.337660931533765
1427,0.0591545847551524,-0.321912674242285,-0.198760077018696,0.49835690658319,0.0505298795941857,0.450066819566569,-0.173248340890194,-0.385530895197016,0.914885032006516,0.915091909414011,0.04,0.0392483273645661,436.492669250156,0.95121280914591,0.337173893252376
1487,0.0591545847551524,-0.321912674242285,-0.198760077018696,0.49835690658319,0.0505298795941856,0.450066819566569,-0.173248340890194,-0.385530895197016,0.914993905320007,0.915091909414011,0.04,0.0396197705710115,436.544307381591,0.952004832421529,0.336933235716902
1547,0.0591545847551524,-0.321912674242285,-0.198760077018696,0.49835690658319,0.0505298795941857,0.450066819566569,-0.173248340890194,-0.385530895197016,0.915067920131569,0.915091909414011,0.04,0.0398862955414574,436.579372241919,0.952284882442625,0.336861205424074
1607,0.0591545847551524,-0.321912674242285,-0.198760077018696,0.49835690658319,0.0505298795941857,0.450066819566569,-0.173248340890194,-0.385530895197016,0.915114290564055,0.915091909414011,0.04,0.0400637510888354,436.601307033864,0.952233460384749,0.336896322069159
1667,0.0591545847551524,-0.321912674242285,-0.198760077018696,0.49835690658319,0.0505298795941857,0.450066819566569,-0.173248340890194,-0.385530895197016,0.915140003532768,0.915091909414011,0.04,0.0401702036825429,436.613433238143,0.951988811149488,0.336992259610115
1727,0.0591545847551524,-0.321912674242285,-0.198760077018696,0.49835690658319,0.0505298795941856,0.450066819566569,-0.173248340890194,-0.385530895197016,0.915150988298088,0.915091909414011,0.04,0.0402232959797783,436.618578529694,0.951650840503295,0.337115912236674
1787,0.0591545847551525,-0.321912674242285,-0.198760077018696,0.49835690658319,0.0505298795941857,0.450066819566569,-0.173248340890194,-0.385530895197016,0.915152197827601,0.915091909414011,0.04,0.0402386786976095,436.619094797115,0.951287759092756,0.337244979241287
1847,0.0756257330886057,-0.292658424172463,-0.192245743415309,0.471475290148531,0.0295764291593113,0.430365433613156,-0.138985742101553,-0.383028596647894,0.907932844633306,0.904646510466995,0.04,0.0433019076507613,433.079249226056,0.93692342738164,0.3396393124696
1907,0.0966527309610993,-0.255312573019498,-0.183929572857794,0.437158332997902,0.00282734349776945,0.405214728140714,-0.0952462542862659,-0.379834172968165,0.89516614589236,0.891311958619741,0.04,0.0469690466244186,426.979103000281,0.913751047985061,0.343347119891315
1967,0.117679728833593,-0.217966721866534,-0.175613402300278,0.402841375847272,-0.0239217421637723,0.380064022668272,-0.051506766470979,-0.376639749288435,0.881882612380213,0.877977406772487,0.04,0.0495749703350081,420.639759658934,0.889649868197564,0.347412850154576
2027,0.138706726706086,-0.180620870713569,-0.167297231742763,0.368524418696643,-0.0506708278253141,0.35491331719583,-0.00776727865569217,-0.373445325608705,0.86842380840521,0.864642854925233,0.04,0.051286944306999,414.217521937836,0.865976521684204,0.351460906497107
2087,0.15973372457858,-0.143275019560605,-0.158981061185247,0.334207461546014,-0.0774199134868558,0.329762611723388,0.0359722091595947,-0.370250901928976,0.854887239616833,0.851308303077979,0.04,0.0522738673083043,407.760072903359,0.843431432071467,0.355229964735521
2147,0.180760722451073,-0.105929168407641,-0.150664890627732,0.299890504395385,-0.104168999148397,0.304611906250946,0.0797116969748816,-0.367056478249246,0.841334108440302,0.837973751230725,0.04,0.0527488257613807,401.293062992729,0.822156893210598,0.3586423951001
2207,0.201787720323567,-0.0685833172546762,-0.142348720070216,0.265573547244755,-0.130918084809939,0.279461200778504,0.123451184790168,-0.357215658617298,0.82775275680151,0.824639199383471,0.04,0.0531824816971219,394.808523375229,0.801826828811248,0.361793377277374
2267,0.22281471819606,-0.0312374661017118,-0.134032549512701,0.231256590094126,-0.157667170471481,0.254310495306062,0.167190672605455,-0.324156451534324,0.814087338208524,0.811304647536217,0.04,0.0538908069592522,388.294741428679,0.784175950942006,0.363833484762199
2327,0.243841716068554,0.00610838505125253,-0.125716378955185,0.196939632943497,-0.184416256133023,0.22915978983362,0.210930160420742,-0.289211830363406,0.800787971367477,0.797970095688964,0.04,0.0547752393911197,381.950494415006,0.766726842440522,0.366033711084229
2387,0.264868713941047,0.043454236204217,-0.11740020839767,0.162622675792868,-0.211165341794565,0.204009084361178,0.254669648236029,-0.252107277786803,0.787534182596862,0.78463554384171,0.04,0.055821612420008,375.627179725468,0.748837872972019,0.368573311628468
2447,0.285895711813541,0.0808000873571814,-0.109084037840154,0.128305718642238,-0.237914427456106,0.178858378888736,0.298409136051316,-0.212537267596866,0.774277918518216,0.771300991994456,0.04,0.056887311006503,369.302545174156,0.730465449903931,0.371481591819852
2507,0.306922709686034,0.118145938510146,-0.100767867282639,0.0939887614916092,-0.264663513117648,0.153707673416294,0.342148623866603,-0.170372971233324,0.761011555260723,0.757966440147202,0.04,0.0578387444780119,362.973084817674,0.71166286278477,0.374761350561714
2567,0.327949707558528,0.15549178966311,-0.0924516967251233,0.05967180434098,-0.29141259877919,0.128556967943852,0.38588811168189,-0.125750857658153,0.747735300102584,0.744631888299948,0.04,0.0585463997257331,356.638891001525,0.69248934992738,0.378416686265527
2627,0.348976705431021,0.192837640816074,-0.0841355261676076,0.0253548471903508,-0.318161684440732,0.10340626247141,0.429627599497177,-0.0791072527009587,0.734435234563962,0.731297336452694,0.04,0.0588968959094206,350.293096478816,0.673045474634697,0.382421099807696
2687,0.370003703303515,0.230183491969039,-0.0758193556100922,-0.00896210996027855,-0.344910770102273,0.0782555569989679,0.473367087312464,-0.038350265374662,0.720877574933154,0.71796278460544,0.04,0.0590678946645877,343.820184381195,0.654094518760535,0.38622958312531
2747,0.374559552842555,0.238275093052181,-0.0740175186559638,-0.0163974506762482,-0.350706405328941,0.0728062374799389,0.482843976339109,-0.0181150328843248,0.707251128659235,0.704628232758186,0.04,0.0591173269876997,337.320882576013,0.637271549068361,0.388931729075039
2807,0.374559552842555,0.238275093052181,-0.0740175186559638,-0.0163974506762482,-0.350706405328941,0.0728062374799389,0.482843976339109,-0.00855663122059429,0.69358475575166,0.691293680910932,0.04,0.0591899038316726,330.800987634049,0.622204326407995,0.390650556392078
2867,0.374559552842555,0.238275093052181,-0.0740175186559638,-0.0163974506762481,-0.350706405328941,0.0728062374799389,0.482843976339109,-0.0040415833980742,0.680029783323825,0.677959129063678,0.04,0.0593902977219411,324.334907718213,0.608725304928856,0.391495715992333
2927,0.374559552842555,0.238275093052181,-0.0740175186559639,-0.0163974506762482,-0.350706405328941,0.0728062374799389,0.482843976339109,-0.00190883594162459,0.666577020595124,0.664624577216424,0.04,0.0597698237515861,317.917200956434,0.596139898448608,0.391850597330998
2987,0.374559552842555,0.238275093052181,-0.0740175186559639,-0.0163974506762482,-0.350706405328941,0.0728062374799388,0.482843976339109,-0.000901402157571931,0.653180686637042,0.65129002536917,0.04,0.0603181810333943,311.526121080049,0.584022046157894,0.391940283407803
3047,0.374559552842555,0.238275093052181,-0.0740175186559638,-0.0163974506762481,-0.350706405328941,0.0728062374799389,0.482843976339109,-0.000425526391799961,0.639812315057964,0.637955473521916,0.04,0.0609970475337512,305.148220929092,0.572154298466528,0.391879326985075
3107,0.374559552842555,0.238275093052181,-0.0740175186559639,-0.0163974506762482,-0.350706405328941,0.0728062374799389,0.482843976339109,-0.00020073966328079,0.626457093888751,0.624620921674662,0.04,0.0617691654479209,298.776513287035,0.560432456399318,0.39172190000597
3167,0.374559552842555,0.238275093052181,-0.0740175186559638,-0.0163974506762481,-0.350706405328941,0.0728062374799389,0.482843976339109,-9.45584350098123e-05,0.613107739411828,0.611286369827408,0.04,0.0626072607534768,292.407565019314,0.548809006243242,0.391491241858919
3227,0.374559552842555,0.238275093052181,-0.0740175186559638,-0.0163974506762482,-0.350706405328941,0.0728062374799389,0.482843976339109,-4.44022122143286e-05,0.599760803302705,0.597951817980154,0.04,0.063494005840763,286.039752290132,0.537263686187714,0.391195258340579
3287,0.374559552842555,0.238275093052181,-0.0740175186559639,-0.0163974506762482,-0.350706405328941,0.0728062374799388,0.482843976339109,-2.07102025615265e-05,0.58641471157733,0.5846172661329,0.04,0.0644195383285983,279.672336789576,0.525788831335697,0.390834443905427
3347,0.374559552842555,0.238275093052181,-0.0740175186559638,-0.0163974506762482,-0.350706405328941,0.0728062374799388,0.482843976339109,-9.51894273166961e-06,0.573068811934342,0.571282714285646,0.04,0.0653790175569606,273.305008452668,0.514382248422722,0.390405829827568
3407,0.374559552842555,0.238275093052181,-0.0740175186559638,-0.0163974506762482,-0.350706405328941,0.0728062374799389,0.482843976339109,-4.2325909863109e-06,0.559722800949519,0.557948162438392,0.04,0.0663707479819637,266.937623381077,0.503044121797025,0.389904625449932
3467,0.374559552842555,0.238275093052181,-0.0740175186559638,-0.0163974506762482,-0.350706405328941,0.0728062374799389,0.482843976339109,-1.73550708328881e-06,0.546376550141958,0.544613610591138,0.04,0.0673949316361647,260.570124584657,0.491775636897207,0.38932499562168
3527,0.374559552842555,0.238275093052181,-0.0740175186559638,-0.0163974506762482,-0.350706405328941,0.0728062374799389,0.482843976339109,-5.55973764453693e-07,0.533029958127822,0.531279058743885,0.04,0.0684528635241979,254.202463664777,0.480578641681853,0.388660107098459
3587,0.374559552842555,0.238275093052181,-0.0740175186559638,-0.0163974506762482,-0.350706405328941,0.0728062374799388,0.482843976339109,1.19567969603443e-09,0.51968289972322,0.517944506896631,0.04,0.0695463286793516,247.834578730017,0.469455664342011,0.387901977204458
3647,0.358465921247152,0.240779034895521,-0.0508746528057354,0.00591925671880904,-0.357608167596178,0.0448651953594418,0.473923430050899,2.64382640621178e-07,0.512786631729802,0.515055353996392,0.04,0.0645369176372904,244.643320509493,0.475965348525673,0.377670186621815
3707,0.337920859636,0.243975556397656,-0.0213305687416137,0.034408670414627,-0.366418927937331,0.00919577988646671,0.462535498619141,3.88702768238218e-07,0.513004821229849,0.515055353996392,0.04,0.0588507774480252,244.760167967702,0.48946383973521,0.367430163486377
3767,0.317375798024847,0.247172077899792,0.00821351532250776,0.0628980841104448,-0.375229688278485,-0.0264736355865084,0.451147567187383,4.47427158411639e-07,0.513701583615871,0.515055353996392,0.04,0.0562423526779149,245.092078495786,0.498975769279705,0.360914636484252
3827,0.296830736413695,0.250368599401927,0.0377575993866293,0.0913874978062626,-0.384040448619638,-0.0621430510594834,0.439759635755626,4.75166463132597e-07,0.51424402681572,0.515055353996392,0.04,0.055153481881976,245.349380208508,0.504860367716035,0.357082331889644
3887,0.276285674802542,0.253565120904063,0.0673016834507509,0.11987691150208,-0.392851208960792,-0.0978124665324585,0.428371704323868,4.76169533711038e-07,0.514606113926927,0.515055353996392,0.04,0.0545813421948045,245.520812879364,0.508213506606558,0.354974197983116
3947,0.25574061319139,0.256761642406198,0.0968457675148723,0.148366325197898,-0.401661969301946,-0.133481882005433,0.41698377289211,4.8874333819653e-07,0.514821059771709,0.515055353996392,0.04,0.0540639195951745,245.622351333065,0.509996154720476,0.353879707152802
4007,0.235195551580238,0.259958163908334,0.126389851578994,0.176855738893716,-0.410472729643099,-0.169151297478409,0.405595841460352,0.0398112192324258,0.51377781196134,0.515055353996392,0.04,0.0548602842061113,245.117299101215,0.514607604005229,0.349987424331892
4067,0.214650489969085,0.263154685410469,0.155933935643115,0.205345152589534,-0.419283489984253,-0.204820712951384,0.394207910028594,0.095451380298789,0.513643765971871,0.515055353996392,0.04,0.0556427097603545,245.061141629554,0.52327810984123,0.344109419724872
4127,0.194105428357933,0.266351206912605,0.185478019707237,0.233834566285352,-0.428094250325406,-0.240490128424359,0.382819978596837,0.151091541365152,0.513900654456528,0.515055353996392,0.04,0.0571937472888705,245.183928704495,0.530742969343327,0.339439536790119
4187,0.17356036674678,0.26954772841474,0.215022103771358,0.26232397998117,-0.43690501066656,-0.276159543897334,0.371432047165079,0.206731702431515,0.514088638524491,0.515055353996392,0.04,0.0591473500497582,245.272737097971,0.536872281004177,0.335685801406142
4247,0.153015305135627,0.272744249916876,0.24456618783548,0.290813393676987,-0.445715771007714,-0.311828959370309,0.360044115733321,0.262371863497878,0.514178245362808,0.515055353996392,0.04,0.0611384551841261,245.314873085803,0.542279778221762,0.332395508062093
4307,0.132470243524475,0.275940771419011,0.274110271899602,0.319302807372805,-0.454526531348867,-0.347498374843284,0.348656184301563,0.318012024564241,0.514212706368037,0.515055353996392,0.04,0.0630334018751455,245.331036719985,0.547388863034982,0.3293147727504
4367,0.111925181913322,0.279137292921147,0.303654355963723,0.347792221068623,-0.463337291690021,-0.383167790316259,0.337268252869805,0.373652185630605,0.514224818277696,0.515055353996392,0.04,0.064819108005137,245.33671562581,0.552390707113844,0.326340413471636
4427,0.09138012030217,0.282333814423282,0.333198440027845,0.376281634764441,-0.472148052031174,-0.418837205789234,0.325880321438048,0.429292346696968,0.514229181257927,0.515055353996392,0.04,0.0665155649500126,245.338761482268,0.557354499039567,0.323436727097915
4487,0.0708350586910174,0.285530335925418,0.362742524091966,0.404771048460259,-0.480958812372328,-0.454506621262209,0.31449239000629,0.484932507763331,0.514230415342601,0.515055353996392,0.04,0.0681417783354343,245.339332372699,0.56230552749149,0.320589653961199
4547,0.0663836286752679,0.286222915584214,0.369143742305859,0.410943754761019,-0.482867810446245,-0.462234994614687,0.312025004862742,0.496987875994376,0.51499506320009,0.515055353996392,0.04,0.0687903067137816,245.708482614413,0.564609698278112,0.319761735564951
4607,0.0663836286752678,0.286222915584214,0.369143742305859,0.410943754761019,-0.482867810446245,-0.462234994614687,0.312025004862742,0.496987875994376,0.515180460897321,0.515055353996392,0.04,0.0695291956758824,245.792299424237,0.563950521901397,0.320244696234994
4667,0.0663836286752678,0.286222915584214,0.369143742305859,0.410943754761019,-0.482867810446245,-0.462234994614687,0.312025004862742,0.496987875994376,0.515100539911305,0.515055353996392,0.04,0.0698611990600277,245.753812415839,0.563495711272817,0.320452987758427
4727,0.0663836286752678,0.286222915584214,0.369143742305859,0.410943754761019,-0.482867810446245,-0.462234994614687,0.312025004862742,0.496987875994376,0.515044847757691,0.515055353996392,0.04,0.0699318622806659,245.727671278419,0.563472412620239,0.320432149568947
4787,0.0663836286752678,0.286222915584214,0.369143742305859,0.410943754761019,-0.482867810446245,-0.462234994614687,0.312025004862742,0.496987875994376,0.515033796144496,0.515055353996392,0.04,0.0699297587006778,245.722634667756,0.563593992151026,0.320356458966873
4847,0.0663836286752679,0.286222915584214,0.369143742305859,0.410943754761019,-0.482867810446245,-0.462234994614687,0.312025004862742,0.496987875994376,0.515039108910995,0.515055353996392,0.04,0.0699254701050878,245.725214122139,0.56370507669752,0.320296691309229
4907,0.0663836286752678,0.286222915584214,0.369143742305859,0.410943754761019,-0.482867810446245,-0.462234994614687,0.312025004862742,0.496987875994376,0.515045218760353,0.515055353996392,0.04,0.0699279113280539,245.728112504802,0.563777320152816,0.32025942539176
4967,0.0663836286752678,0.286222915584214,0.369143742305859,0.410943754761019,-0.482867810446245,-0.462234994614687,0.312025004862742,0.496987875994376,0.515048870647873,0.515055353996392,0.04,0.0699324574563702,245.729836768423,0.563822561045345,0.320235974972305
5027,0.0663836286752678,0.286222915584214,0.369143742305859,0.410943754761019,-0.482867810446245,-0.462234994614687,0.312025004862742,0.496987875994376,0.515050809307226,0.515055353996392,0.04,0.0699361605658451,245.730752467566,0.563853223927279,0.320219753508646
5087,0.0663836286752678,0.286222915584214,0.369143742305859,0.410943754761019,-0.482867810446245,-0.462234994614687,0.312025004862742,0.496987875994376,0.515051956205503,0.515055353996392,0.04,0.0699385382641433,245.731295650769,0.563875712128033,0.320207690480858
5147,0.0663836286752678,0.286222915584214,0.369143742305859,0.410943754761019,-0.482867810446245,-0.462234994614687,0.312025004862742,0.496987875994376,0.515052740653533,0.515055353996392,0.04,0.0699399553188208,245.731667823517,0.563892869705034,0.320198432472886
5207,0.0663836286752678,0.286222915584214,0.369143742305859,0.410943754761019,-0.482867810446245,-0.462234994614687,0.312025004862742,0.496987875994376,0.515053308101292,0.515055353996392,0.04,0.069940785166788,245.731937105761,0.563906217281054,0.320191204301261
5267,0.0663836286752678,0.286222915584214,0.369143742305859,0.410943754761019,-0.482867810446245,-0.462234994614687,0.312025004862742,0.496987875994376,0.515053716016207,0.515055353996392,0.04,0.0699412504589688,245.732130622771,0.563916812204078,0.320185440668166
5327,0.0663836286752678,0.286222915584214,0.369143742305859,0.410943754761019,-0.482867810446245,-0.462234994614687,0.312025004862742,0.496987875994376,0.515054004254184,0.515055353996392,0.04,0.0699414726425213,245.732267334295,0.563925450707878,0.320180714031229
5387,0.0663836286752678,0.286222915584214,0.369143742305859,0.410943754761019,-0.482867810446245,-0.462234994614687,0.312025004862742,0.496987875994376,0.515054206313591,0.515055353996392,0.04,0.0699415254380061,245.732363167019,0.563932715170241,0.320176714395905
5447,0.0528773644957934,0.283310308036044,0.369913855892936,0.371338931751697,-0.465409356130883,-0.415024499670598,0.312446675300733,0.460935969345596,0.515509164328317,0.515055353996392,0.04,0.0692822073535846,245.951668119294,0.562373378053981,0.321351029130042
5507,0.0356353251177409,0.279592085634125,0.37089697962112,0.320779583229159,-0.443121967643187,-0.354755782720696,0.31298497798753,0.414912258730132,0.515538198803433,0.515055353996392,0.04,0.0684125356995477,245.962375553854,0.559341170213467,0.323107149943501
5567,0.0183932857396882,0.275873863232205,0.371880103349303,0.27022023470662,-0.420834579155492,-0.294487065770795,0.313523280674326,0.368888548114668,0.515417410480879,0.515055353996392,0.04,0.0671760059636277,245.904837386883,0.556929047708095,0.324430651374693
5627,0.00115124636163569,0.272155640830286,0.372863227077487,0.219660886184082,-0.398547190667796,-0.234218348820894,0.314061583361123,0.322864837499204,0.51534772686401,0.515055353996392,0.04,0.0657265046500296,245.872082597735,0.555063411453815,0.325477742853111
5687,-0.0160907930164169,0.268437418428367,0.37384635080567,0.169101537661543,-0.3762598021801,-0.173949631870993,0.314599886047919,0.27684112688374,0.515325694151502,0.515055353996392,0.04,0.0642123110464179,245.8618196758,0.553411872110929,0.326435435270832
5747,-0.0333328323944693,0.264719196026448,0.374829474533854,0.118542189139005,-0.353972413692405,-0.113680914921092,0.315138188734716,0.230817416268276,0.515323058343949,0.515055353996392,0.04,0.0626787306730524,245.860641255498,0.551805150766341,0.32738436607796
5807,-0.0505748717725218,0.261000973624529,0.375812598262037,0.0679828406164661,-0.331685025204709,-0.0534121979711906,0.315676491421512,0.184793705652812,0.515325445537085,0.515055353996392,0.04,0.0611234394450601,245.861789930116,0.550190065638033,0.328346938236118
5867,-0.0678169111505744,0.257282751222609,0.376795721990221,0.0174234920939274,-0.309397636717013,0.00685651897871071,0.316214794108309,0.138769995037348,0.515326109841081,0.515055353996392,0.04,0.0595328997592646,245.862070814316,0.548564618696468,0.329320236358461
5927,-0.0850589505286269,0.25356452882069,0.377778845718404,-0.0331358564286111,-0.287110248229318,0.0671252359286118,0.316753096795105,0.0927462844218845,0.515319641209113,0.515055353996392,0.04,0.0578914286531449,245.858907856722,0.546960893396772,0.330281575893518
5987,-0.102300989906679,0.249846306418771,0.378761969446588,-0.0836952049511497,-0.264822859741622,0.127393952878513,0.317291399481902,0.0467225738064206,0.515302595545463,0.515055353996392,0.04,0.0561838380944349,245.850689088481,0.545436961833347,0.331193299160268
6047,-0.119543029284732,0.246128084016852,0.379745093174771,-0.134254553473688,-0.242535471253926,0.187662669828414,0.317829702168698,0.000698863190956633,0.515275526978699,0.515055353996392,0.04,0.0543998948408323,245.83770710896,0.544056170441458,0.33201632082634
6107,-0.136785068662784,0.242409861614933,0.380728216902955,-0.184813901996227,-0.220248082766231,0.247931386778315,0.318368004855495,4.99999999999979e-07,0.5142537011446,0.515055353996392,0.04,0.0539783136860404,245.347878431544,0.547322387975925,0.329377379537581
6167,-0.154027108040837,0.238691639213014,0.381711340631138,-0.235373250518765,-0.197960694278535,0.308200103728216,0.318906307542291,5.00000000000037e-07,0.514175950302181,0.515055353996392,0.04,0.0534884913963684,245.313739960339,0.552616774726534,0.326176363159031
6227,-0.171269147418889,0.234973416811094,0.382694464359322,-0.285932599041304,-0.175673305790839,0.368468820678118,0.319444610229088,5.00000000000017e-07,0.514247154204167,0.515055353996392,0.04,0.0535229515093158,245.347927677888,0.557624222906363,0.323292358354098
6287,-0.188511186796942,0.231255194409175,0.383677588087505,-0.336491947563842,-0.153385917303144,0.428737537628019,0.319982912915884,5.00000000000008e-07,0.514316678649485,0.515055353996392,0.04,0.0538463253399669,245.380971551314,0.562190701983607,0.320709555123816
6347,-0.19224696199552,0.230449579555426,0.383890598228612,-0.347446473077059,-0.14855698313081,0.441795759633831,0.32009954516469,5.00000000000004e-07,0.510992227177049,0.508601332789787,0.04,0.0572442954464277,243.73813120369,0.553429747000239,0.323605321244331
6407,-0.19224696199552,0.230449579555426,0.383890598228612,-0.347446473077059,-0.14855698313081,0.441795759633831,0.32009954516469,5.00000000000002e-07,0.50299232176324,0.500362156781355,0.04,0.0615577042421743,239.909897576413,0.537030980502161,0.328249067793886
6467,-0.19224696199552,0.230449579555426,0.383890598228612,-0.347446473077059,-0.14855698313081,0.441795759633831,0.32009954516469,5.00000000000001e-07,0.494359361606767,0.492122980772923,0.04,0.0639124000996754,235.789897170095,0.522321543823864,0.331697295184199
6527,-0.19224696199552,0.230449579555426,0.383890598228612,-0.347446473077059,-0.14855698313081,0.441795759633831,0.32009954516469,5e-07,0.485720682761667,0.483883804764491,0.04,0.0650168020370838,231.669018246416,0.510110285898686,0.333701803456894
6587,-0.19224696199552,0.230449579555426,0.383890598228612,-0.347446473077059,-0.14855698313081,0.441795759633831,0.32009954516469,5e-07,0.477181456542339,0.47564462875606,0.04,0.0655388890009772,227.595793480576,0.499915324038303,0.334520284730033
6647,-0.19224696199552,0.230449579555426,0.383890598228612,-0.347446473077059,-0.14855698313081,0.441795759633831,0.32009954516469,5e-07,0.468740251718899,0.467405452747628,0.04,0.0658675670873514,223.569190600451,0.491124310852947,0.334483884629782
6707,-0.19224696199552,0.230449579555426,0.383890598228612,-0.347446473077059,-0.14855698313081,0.441795759633831,0.32009954516469,5e-07,0.460374583458994,0.459166276739196,0.04,0.0661930712731461,219.57843224685,0.483234871350968,0.333876682681537
6767,-0.19224696199552,0.230449579555426,0.383890598228612,-0.347446473077059,-0.14855698313081,0.441795759633831,0.32009954516469,5e-07,0.452061259963697,0.450927100730764,0.04,0.0665915669428527,215.612480244255,0.475886938828705,0.332908425191224
6827,-0.19224696199552,0.230449579555426,0.383890598228612,-0.347446473077059,-0.14855698313081,0.441795759633831,0.32009954516469,5e-07,0.443781478348091,0.442687924722332,0.04,0.0670808989721371,211.662399833883,0.468843322719991,0.331719236399617
6887,-0.19224696199552,0.230449579555426,0.383890598228612,-0.347446473077059,-0.14855698313081,0.441795759633831,0.32009954516469,5e-07,0.435521620333253,0.4344487487139,0.04,0.067653183101768,207.721739429317,0.461959075573274,0.330394739042957
6947,-0.19224696199552,0.230449579555426,0.383890598228612,-0.347446473077059,-0.14855698313081,0.441795759633831,0.32009954516469,5e-07,0.427272643835166,0.426209572705468,0.04,0.068292233237049,203.786212513593,0.455152388497085,0.328982387410344
7007,-0.19224696199552,0.230449579555426,0.383890598228612,-0.347446473077059,-0.14855698313081,0.441795759633831,0.32009954516469,5e-07,0.419028990818531,0.417970396697036,0.04,0.0689818847429934,199.853192329538,0.448381390419883,0.327505190015951
7067,-0.19224696199552,0.230449579555426,0.383890598228612,-0.347446473077059,-0.14855698313081,0.441795759633831,0.32009954516469,5e-07,0.410787522575641,0.409731220688604,0.04,0.0697092338521608,195.92119677755,0.441627511707546,0.325971762612372
7127,-0.19224696199552,0.230449579555426,0.383890598228612,-0.347446473077059,-0.14855698313081,0.441795759633831,0.32009954516469,5e-07,0.40254662834674,0.401492044680172,0.04,0.070465238752346,191.989467637356,0.434884583903672,0.324382986484246
7187,-0.19224696199552,0.230449579555426,0.383890598228612,-0.347446473077059,-0.14855698313081,0.441795759633831,0.32009954516469,5e-07,0.394305613319264,0.39325286867174,0.04,0.0712442296136529,188.057676884401,0.428152234233441,0.322736086550355
7247,-0.160010261350865,0.217262694094617,0.344396264026729,-0.308065203781836,-0.146421389973675,0.418395873555442,0.327587870793154,5e-07,0.386061705965685,0.385013692663309,0.04,0.0721903120044547,184.123707460458,0.421092342927289,0.321282479684539
7307,-0.118857026485349,0.200428372229755,0.293977965045601,-0.257791242979424,-0.143695100836907,0.388523678561753,0.337147435425234,5e-07,0.377933661136614,0.376774516654877,0.04,0.073974218856948,180.248294306719,0.414105755327996,0.319826594315627
7367,-0.0777037916198322,0.183594050364893,0.243559666064473,-0.207517282177011,-0.140968811700139,0.358651483568065,0.346707000057315,5e-07,0.369888476667222,0.368535340646445,0.04,0.0762355895194528,176.409571958411,0.405948095684025,0.319305437315389
7427,-0.0365505567543156,0.166759728500031,0.193141367083345,-0.157243321374599,-0.138242522563371,0.328779288574377,0.356266564689396,5e-07,0.361774838928425,0.360296164638013,0.04,0.078759241061182,172.537970927656,0.396884325206782,0.319429789799627
7487,0.0046026781112011,0.149925406635169,0.142723068102218,-0.106969360572187,-0.135516233426603,0.298907093580689,0.365826129321476,5e-07,0.353596769774669,0.352056988629581,0.04,0.0813468733448074,168.635790963303,0.387332373282152,0.319904709306169
7547,0.0457559129767176,0.133091084770307,0.0923047691210899,-0.0566953997697742,-0.132789944289835,0.269034898587,0.375385693953557,5e-07,0.345377284145672,0.343817812621149,0.04,0.0838996357778534,164.714036504689,0.37758885279886,0.320528109417406
7607,0.0869091478422342,0.116256762905444,0.0418864701399622,-0.00642143896736178,-0.130063655153068,0.239162703593312,0.384945258585637,5e-07,0.33713673888944,0.335578636612717,0.04,0.0863691925906928,160.782369877292,0.367819077858546,0.321187659537931
7667,0.128062382707751,0.0994224410405822,-0.00853182884116563,0.0438525218350507,-0.1273373660163,0.209290508599624,0.394504823217718,5e-07,0.328888704944632,0.327339460604285,0.04,0.0887183028106211,156.847202920903,0.358091734777414,0.321837879035279
7727,0.169215617573268,0.08258811917572,-0.0589501278222933,0.094126482637463,-0.124611076879532,0.179418313605935,0.404064387849799,5e-07,0.320636340383859,0.319100284595853,0.04,0.0909033075045565,152.909939945961,0.348432804481796,0.322456664649734
7787,0.210368852438784,0.0657537973108578,-0.109368426803421,0.144400443439875,-0.121884787742764,0.149546118612247,0.413623952481879,5e-07,0.312369674809296,0.310861108587421,0.04,0.0928753000586983,148.965742267908,0.338902232730647,0.32297332249097
7847,0.251522087304301,0.0489194754459956,-0.159786725784549,0.194674404242288,-0.119158498605996,0.119673923618559,0.42318351711396,5e-07,0.304080010214312,0.30262193257899,0.04,0.0946563332535734,145.010610323516,0.329629062473719,0.323242875463394
7907,0.292675322169817,0.0320851535811335,-0.210205024765676,0.2449483650447,-0.116432209469228,0.0898017286248706,0.432743081746041,5e-07,0.295791320260563,0.294382756570558,0.04,0.0966253086646619,141.055826873211,0.320661019771127,0.323220976515605
7967,0.333828557035334,0.0152508317162713,-0.260623323746804,0.295222325847113,-0.11370592033246,0.0599295336311822,0.442302646378121,5e-07,0.287388838878498,0.286143580562126,0.04,0.0984467243249106,137.046070805509,0.312382394088294,0.322355226363226
8027,0.374981791900851,-0.00158349014859095,-0.295128074872883,0.345496286649525,-0.110979631195693,0.030057338637494,0.451862211010202,5e-07,0.279034932488406,0.277904404553694,0.04,0.100657416578999,133.062083383552,0.305334172367412,0.320209035848902
8087,0.416135026766367,-0.0184178120134531,-0.288522278937447,0.395770247451937,-0.108253342058925,0.000185143643805702,0.461421775642283,5e-07,0.270270083248144,0.269665228545262,0.04,0.107529553492106,128.87807255221,0.30041383030442,0.315220015446729
8147,0.425051560987229,-0.0220652484175066,-0.286524628206902,0.406662938959127,-0.107662646079292,-0.00628716527149345,0.4634930146459,5e-07,0.264958531983949,0.267880073743435,0.04,0.101028243677494,126.406438087558,0.311454502063354,0.298214843982433
8207,0.425051560987229,-0.0220652484175066,-0.293673417089486,0.406662938959127,-0.107662646079292,-0.00628716527149345,0.4634930146459,5e-07,0.265585225366955,0.267880073743435,0.04,0.0909408777513273,126.720510871565,0.327424684968963,0.284374187429175
8267,0.425051560987229,-0.0220652484175066,-0.303016150369048,0.406662938959127,-0.107662646079292,-0.00628716527149345,0.4634930146459,5e-07,0.266781030512714,0.267880073743435,0.04,0.087950927903569,127.289067619218,0.336342347905546,0.278076462545419
8327,0.425051560987229,-0.0220652484175066,-0.310206759165779,0.406662938959127,-0.107662646079292,-0.00628716527149345,0.4634930146459,5e-07,0.267468502820718,0.267880073743435,0.04,0.0883808854228938,127.612512736974,0.339930440613595,0.275840403388877
8387,0.425051560987229,-0.0220652484175066,-0.314654355414401,0.406662938959127,-0.107662646079292,-0.00628716527149345,0.4634930146459,5e-07,0.267717052100854,0.267880073743435,0.04,0.0893862146266631,127.728805808817,0.341274181893983,0.275004685804241
8447,0.425051560987229,-0.0220652484175066,-0.317190336326272,0.406662938959127,-0.107662646079292,-0.00628716527149345,0.4634930146459,5e-07,0.267790424634488,0.267880073743435,0.04,0.0900726212960676,127.763128233352,0.341920176084159,0.274558873703135
8507,0.425051560987229,-0.0220652484175066,-0.318635034016579,0.406662938959127,-0.107662646079292,-0.00628716527149345,0.4634930146459,5e-07,0.267819514663471,0.267880073743435,0.04,0.0904303164321283,127.776871138177,0.342334932949136,0.274255728397939
8567,0.425051560987229,-0.0220652484175066,-0.319483504672308,0.406662938959127,-0.107662646079292,-0.00628716527149345,0.4634930146459,5e-07,0.267839554696819,0.267880073743435,0.04,0.0906092222708103,127.786391051666,0.342616600532194,0.274050677187038
8627,0.425051560987229,-0.0220652484175066,-0.319994135980768,0.406662938959127,-0.107662646079292,-0.00628716527149345,0.4634930146459,5e-07,0.267854602987849,0.267880073743435,0.04,0.0907066130140804,127.793529876944,0.342797704399744,0.273921194979462
8687,0.425051560987229,-0.0220652484175066,-0.320303968881783,0.406662938959127,-0.107662646079292,-0.00628716527149339,0.4634930146459,5e-07,0.267864656723382,0.267880073743435,0.04,0.0907645988128527,127.79828976404,0.342908493781895,0.27384289388182
8747,0.425051560987229,-0.0220652484175066,-0.320491862183279,0.406662938959127,-0.107662646079292,-0.00628716527149345,0.4634930146459,5e-07,0.26787075482364,0.267880073743435,0.04,0.0908000477540385,127.801173592182,0.342975296184857,0.273795734808805
8807,0.425051560987229,-0.0220652484175066,-0.32060582336175,0.406662938959127,-0.107662646079292,-0.00628716527149345,0.4634930146459,5e-07,0.267874303803253,0.267880073743435,0.04,0.0908212940176942,127.802851472728,0.343016226801888,0.273766658158655
8867,0.425051560987229,-0.0220652484175066,-0.320675351681681,0.406662938959127,-0.107662646079292,-0.00628716527149345,0.4634930146459,5e-07,0.267876370181203,0.267880073743435,0.04,0.0908335858912741,127.803828623057,0.343042136593606,0.273748073704225
8927,0.425051560987229,-0.0220652484175066,-0.320718338957604,0.406662938959127,-0.107662646079292,-0.00628716527149345,0.4634930146459,5e-07,0.267877593520569,0.267880073743435,0.04,0.0908404089351377,127.804407280793,0.34305921191083,0.273735687645158
8987,0.425051560987229,-0.0220652484175066,-0.320745495011118,0.406662938959127,-0.107662646079292,-0.00628716527149339,0.4634930146459,5e-07,0.267878327700266,0.267880073743435,0.04,0.0908439727114351,127.80475461301,0.34307100819242,0.273727019317109
9047,0.41898363553762,-0.0404749992012441,-0.32026527417052,0.381465358709791,-0.0926750828367636,-0.0174244415417078,0.415521270369539,5e-07,0.268988813203981,0.267880073743435,0.04,0.0852373431830946,128.343351545745,0.339800826385017,0.277525965221781
9107,0.411237347729609,-0.0639768087123984,-0.316516218550216,0.349298234987234,-0.073542023378217,-0.0316422410355985,0.354280745761417,5e-07,0.269399749104452,0.267880073743435,0.04,0.0793547251304152,128.530305207542,0.330953324369352,0.285360243710775
9167,0.403491059921598,-0.0874786182235527,-0.310352935664064,0.317131111264677,-0.0544089639196704,-0.0458600405294893,0.293040221153296,5e-07,0.269262514950737,0.267880073743435,0.04,0.0718144385793193,128.463937717459,0.322326101804432,0.292846764701191
9227,0.395744772113587,-0.110980427734707,-0.303423072107043,0.28496398754212,-0.035275904461124,-0.06007784002338,0.231799696545175,5e-07,0.269161181278196,0.267880073743435,0.04,0.062583688044424,128.416421877041,0.314485669623229,0.300036700333817
9287,0.387998484305576,-0.134482237245861,-0.296366216082299,0.252796863819563,-0.0161428450025774,-0.0742956395172707,0.170559171937054,6.0611910842336e-08,0.269149671593178,0.267880073743435,0.04,0.0522776884530956,128.411428333441,0.306875804734657,0.307465013620199
