time,bias_percent_1,bias_percent_2,bias_percent_3,bias_percent_4,bias_percent_5,bias_percent_6,bias_percent_8,bias_percent_9,normalized_power,power_SP,SP,CV,total_power_MW,fuel_fraction,thermal_efficiency
18,0,0,0,0,0,0,0,0,0.99926310486872,1,0.04,0.0401111691519695,476.759280870864,0.999338019377391,0.35054309923162
78,0,0,0,0,0,0,0,0,0.99993055612345,1,0.04,0.0398939907278319,477.068041192451,1.00019832481762,0.350468409433696
138,0,0,0,0,0,0,0,0,0.999992315090541,1,0.04,0.03992830557027,477.096472576769,1.00030944395129,0.350450361957417
198,0,0,0,0,0,0,0,0,1.00000025335496,1,0.04,0.0399639039294637,477.100145749571,1.00031743688152,0.350450259821987
258,0,0,0,0,0,0,0,0,1.00000230938174,1,0.04,0.039986088595979,477.10111314361,1.00030698685762,0.350454631510983
318,0,0,0,0,0,0,0,0,1.00000340161144,1,0.04,0.039998925982777,477.101629152896,1.00028850095106,0.350461487155682
378,0,0,0,0,0,0,0,0,1.00000391663224,1,0.04,0.0400058962660153,477.101870632952,1.0002657915141,0.350469621210403
438,0,0,0,0,0,0,0,0,1.00000396124559,1,0.04,0.0400091581624516,477.101888732883,1.00024191394161,0.350478000846423
498,0,0,0,0,0,0,0,0,1.00000367650409,1,0.04,0.0400100960874543,477.101750857614,1.00021914315836,0.350485878471314
558,0,0,0,0,0,0,0,0,1.00000320129876,1,0.04,0.0400096434747013,477.10152301279,1.00019889713068,0.350492805625524
618,0,0,0,0,0,0,0,0,1.00000264543424,1,0.04,0.040008439604428,477.101257648114,1.00018186770879,0.350498578282052
678,0,0,0,0,0,0,0,0,1.00000208682539,1,0.04,0.0400069148037348,477.100991292902,1.00016821433811,0.35050316728584
738,-0.075,-0.0505197313012839,-0.075,0.0749999999999999,0.0744011596360143,-0.0749930816791887,0.0458170813543638,0.075,0.99772874815297,1,0.04,0.0390369387656778,476.01193783344,1.0050614177921,0.348000540996908
798,-0.25,-0.168399104337613,-0.25,0.25,0.248003865453381,-0.249976938930629,0.152723604514546,0.25,1.00121593557858,1,0.04,0.0359572242461961,477.712762775966,1.00524172168449,0.34918133030027
858,-0.249904815627016,-0.0429320348652117,-0.249997459405482,0.1,0.0986027641281551,-0.24998385725144,0.130671060481039,0.25,1.00598400346977,1,0.04,0.0335333378588823,480.107276535962,0.991958714541001,0.355630800519091
918,-0.249682718756718,0.249824460570391,-0.249991531351605,-0.25,-0.249999805630706,-0.25,0.0792151244028542,0.25,1.0075481170677,1,0.04,0.0300759734784418,480.599498227706,0.929817798609714,0.379787034308801
978,-0.249768324483704,0.24938628068837,-0.249993625960261,-0.249998783062745,-0.249999863941494,-0.249994923849098,0.130450587081998,0.188693142917547,1.00226109543898,1,0.04,0.0286933299272068,478.171840028901,0.912389471979554,0.385086600806692
1038,-0.249968071180004,0.248363860963656,-0.249998513380458,-0.249995943542482,-0.25,-0.249983079496995,0.25,0.0456438097251561,0.99796849684353,0.995336628026924,0.04,0.0277898466514032,476.032842454337,0.899795750385746,0.388729639121346
1098,-0.249973452556858,0.0988547039824175,-0.249998190433426,-0.249997160479738,-0.25,-0.249988155647897,0.24995446469996,0.106950666807609,0.986332576219763,0.979792054783339,0.04,0.0278550584213158,470.465051728741,0.877180188845189,0.394088016834326
1158,-0.249986009102851,-0.249999995640473,-0.24999743689035,-0.25,-0.25,-0.25,0.249848215666533,0.25,0.97067262786031,0.964247481539753,0.04,0.0266330320142823,463.085834761855,0.818251640700478,0.415842897405454
1218,-0.0999902063719954,-0.249999009035703,-0.249948909938877,-0.25,-0.100045700275313,-0.25,0.249889572953281,0.2499977974648,0.939313614212158,0.948702908296167,0.04,0.0313893566266433,447.84781099162,0.81163683038772,0.405437005789408
1278,0.25,-0.249996706957908,-0.24983568038544,-0.25,0.249847665748956,-0.25,0.249986073289024,0.249992658216,0.920625050070591,0.933158335052581,0.04,0.0397019909470123,439.192588671565,0.920254107834851,0.350672665418332
1338,0.0999999999999999,-0.100039492487248,-0.099940329868429,-0.163473602603152,0.0998936349102346,-0.202160722916738,0.128441642180462,0.0999948607511996,0.918233370237454,0.917613761808996,0.04,0.0414206283562041,438.112261430456,0.937249341936946,0.343466939315818
1398,-0.25,0.249860674610957,0.249815488004597,0.0384213246561592,-0.249999103713448,-0.0905357430557936,-0.155162030406184,-0.25,0.912099946321483,0.90206918856541,0.04,0.0476209735628896,434.948605501352,0.882627655116633,0.362088797106225
1458,-0.25,0.24990247222767,0.249870071062394,0.101892455851966,-0.0999993725994138,-0.138374524476932,-0.183594369766476,-0.100151796228202,0.884373262607178,0.886524615321824,0.04,0.0586592231695606,421.641320022302,0.858146118644542,0.361024435875868
1518,-0.25,0.25,0.249997431530589,0.249991761975516,0.25,-0.249998347792921,-0.249936494940491,0.249494012572661,0.866387228133593,0.870980042078238,0.04,0.0669672614275642,413.367373363428,0.903507250811742,0.3361702130074
1578,-0.24991559362118,0.1,0.249998202071412,0.249992720315483,0.249978063268413,-0.249993381410957,-0.249955544386824,0.249398011430962,0.860604767028137,0.855435468834652,0.04,0.063765731927628,410.548399094677,0.887798245113001,0.339785433624616
1638,-0.249718645403935,-0.25,0.25,0.249994956442072,0.249926877561378,-0.249981793186375,-0.249999993094933,0.249174008766996,0.849649309376439,0.839890895591067,0.04,0.0569908564726744,405.200870739454,0.828630121298679,0.359305884650985
1698,-0.0998030517827541,-0.25,0.25,0.249994043143273,0.249948814292964,-0.100018300580443,-0.100000044819598,0.2494218061355,0.822245402188212,0.824346322347481,0.04,0.0680914849082322,391.885965831745,0.798136433898742,0.360775677479503
1758,0.25,-0.25,0.25,0.249991912112742,0.25,0.249896515500067,0.249999834489516,0.249999999995345,0.799818929097356,0.808801749103895,0.04,0.0819532635549206,381.660096177191,0.871394362245994,0.321822708708627
1818,0.249952277115098,-0.249989837413938,0.249983809765565,0.0999943384789195,0.1,0.249923232021333,0.249997627780202,0.249999828155632,0.800463943852985,0.793257175860309,0.04,0.0742850379517551,381.930508901686,0.859868984906169,0.326367378736381
1878,0.249840923716992,-0.249966124713127,0.249946032551883,-0.25,-0.25,0.249985570570955,0.249992478791803,0.249999427196303,0.791753428289016,0.777712602616724,0.04,0.0643074452692432,377.543888563405,0.769704669305316,0.360410968650395
1938,0.249837489057294,-0.0999762872991889,0.24996216485389,-0.249999963031135,-0.100001164974351,0.249802688493843,0.249994735154262,0.181996627776853,0.768585344323175,0.762168029373138,0.04,0.0708123985708052,366.481962391982,0.715184926280435,0.376520761324922
1998,0.249829474851332,0.25,0.249999806891907,-0.249999876770449,0.249996116752162,0.249375963647249,0.25,0.0233234291314686,0.748632861295437,0.746623456129552,0.04,0.0821421654868645,357.022215405895,0.694163047002756,0.377910036544438
2058,0.249880632395933,0.248984689320361,0.249999864824335,-0.0999999159292362,0.249997253913693,0.249546476082132,0.1,-0.0244759529003495,0.736850461509115,0.731078882885966,0.04,0.0757794797961725,351.419532145369,0.679451212618531,0.380033861420482
2118,0.25,0.24661563106787,0.25,0.24999999270026,0.249999907290597,0.249944338430194,-0.0115613028261883,-0.0115613028261883,0.712840682838959,0.715534309642381,0.04,0.0814618226606953,339.962750835412,0.675733887887882,0.369666683970995
2178,0.1,0.247598195667238,0.249934871118509,0.249994612560776,0.0999999351034179,0.0999622043493093,-0.00546270970068238,-0.00546270970068238,0.703919833484259,0.699989736398795,0.04,0.0660089103039201,335.911603665873,0.680302619296477,0.362808571995049
2238,-0.25,0.249890846399096,0.249782903728365,0.249982058901981,-0.25,-0.249996108506087,0.249060357821858,0.049771332355314,0.691089166431207,0.684445163155209,0.04,0.0405597214095966,329.509744447108,0.633901096638747,0.381945533311124
2298,-0.249991758260454,0.248885277428643,0.195986676418884,0.0999874412313868,-0.249383677558311,-0.249997129614782,0.131068810108285,0.108710455355325,0.676364434671502,0.668900589911623,0.04,0.0310059195823829,322.699474899425,0.601591728688791,0.394140513899132
2358,-0.249972527534848,0.246538949830918,0.070462146030095,-0.25,-0.247945591861036,-0.249999512201737,-0.0238454658669698,0.246235075688684,0.665062486925251,0.658019388641113,0.04,0.0124248481101945,317.098629275533,0.531924149186205,0.438025438828778
2418,-0.249980726396048,0.247577139429766,0.124201054049233,-0.249990795994341,-0.248561914302725,-0.100025010815691,-0.0745912201830506,0.244867268410938,0.648995539038738,0.658019388641113,0.04,0.0152208720000968,309.202453396449,0.528752696657417,0.429679874170122
2478,-0.249999857072182,0.249999581827077,0.249591839427223,-0.249969319981137,-0.25,0.249915492418418,-0.130041829430407,0.241675718096197,0.649276957547829,0.658019388641113,0.04,0.0213716454193394,309.994006096775,0.606893739330862,0.375314475910787
2538,-0.0999998999505271,0.249999707278954,0.0997146592326077,-0.0999785627070029,-0.10000004359014,0.0999408895357525,-0.0410672902804511,0.0941730027871148,0.653984322281121,0.658019388641113,0.04,0.027959435351685,311.910467108247,0.633136582004031,0.361982202344403
2598,0.25,0.25,-0.249998761221494,0.249999870932643,0.249999854699532,-0.249999850523799,0.25,-0.212834605309402,0.6522080625909,0.658019388641113,0.04,0.047726959323156,311.253015389765,0.673275438018754,0.339684298577852
2658,0.249999278431119,0.100000050794721,-0.0999995462689753,0.24999990965285,0.249999898289673,-0.0999999067229196,0.249999761401425,-0.216690567167746,0.653842363481226,0.658019388641113,0.04,0.0561740239769061,311.880122636108,0.690770634074153,0.3317481471554
2718,0.249997594770396,-0.249999830684264,0.249998621953568,0.25,0.25,0.2499999621458,0.249999204671415,-0.193523933532154,0.651692108604967,0.658019388641113,0.04,0.0617569989595661,310.982169309874,0.736005190154155,0.310462598500419
2778,0.0999983416448536,-0.249999881478985,0.249999035367498,0.25,0.100000074649449,0.249999961227659,0.249999443269991,-0.15299979377875,0.660347043883555,0.658019388641113,0.04,0.0543039251188931,315.242118530656,0.746318014718135,0.310366607348107
2838,-0.249999915648078,-0.25,0.25,0.25,-0.249999751168505,0.249999959085331,0.25,-0.121215195223613,0.670062795072509,0.658019388641113,0.04,0.0395906284161057,319.457660463843,0.676068278327556,0.347198167335484
2898,-0.249999796896535,-0.25,0.233419488573551,0.1,-0.249999825817953,0.249999969910287,0.249999533333345,-0.0999975128957715,0.663268662718015,0.658019388641113,0.04,0.034123786066918,316.510229381757,0.64616850951813,0.35991225757647
2958,-0.249999519809599,-0.25,0.194731628578505,-0.25,-0.25,0.249999995168517,0.249998444444482,0.249999959597096,0.661563244857676,0.658019388641113,0.04,0.0301149408358833,315.486968133558,0.628791063486225,0.368663158854157
3018,-0.249999663866719,-0.100000000121447,0.0613123040894585,-0.249999997098608,-0.249999999986404,0.249999944605889,0.249998492842661,0.249999882817182,0.659712312352975,0.658019388641113,0.04,0.0290596573484545,314.649255994965,0.615659579313132,0.37552663375001
3078,-0.25,0.249999999595175,-0.24999945305165,-0.249999990328694,-0.24999999995468,0.249999826626424,0.249998605771747,0.24999970366405,0.656090565041554,0.658019388641113,0.04,0.028223892748491,313.099962516489,0.625032721480977,0.36807382803191
3138,-0.100013370655202,0.249999999716623,-0.249924840648014,-0.249987218921219,-0.249681438438282,0.100003004357567,0.0999990240402228,0.100043617300781,0.670545139008762,0.658019388641113,0.04,0.0166738630476055,319.73393863537,0.605482133314481,0.388009252030129
3198,0.249955431149327,0.25,-0.249750745039532,-0.249957418970446,-0.248938128233351,-0.249989580936432,-0.227143009204235,-0.227143009204235,0.656190932884122,0.664153537003796,0.04,6.10657831447643e-09,313.029841986994,0.591962539695172,0.388549356030065
3258,0.10001028809699,0.170324079311238,-0.248029481571667,-0.249635620101739,-0.249256689763346,-0.185411928211365,-0.25,-0.249897742282793,0.668716681372069,0.68460069821274,0.04,9.11657355480842e-07,319.171308369267,0.689328024950337,0.340214316308842
3318,-0.249861712358461,-0.0155864022958729,-0.24401320014665,-0.248884756074758,-0.25,-0.0347307385195439,-0.25,-0.25,0.692061599115308,0.705047859421683,0.04,8.29703692552424e-07,330.445295189912,0.785263980740488,0.309199349717775
3378,-0.249559580923277,0.0431492585715577,-0.0958092439082484,-0.0992256229890899,-0.10032407657134,0.0506884830363192,-0.249924980456972,-0.100084079269598,0.760070020810792,0.725495020630627,0.04,0.00642914856972752,362.775431444705,0.760793095509519,0.350369247980955
3438,-0.248854607574514,0.180199133928896,0.24999998731469,0.249979020877469,0.248919744762202,0.25,-0.249749934856572,0.249719735768006,0.717150850378148,0.74594218183957,0.04,0.0472610138814503,342.631079553616,0.993972445808183,0.25328360887083
3498,-0.222996506067738,0.201139393750227,0.249997466495047,0.247350674829812,0.248895272259964,0.249952505803127,-0.249821662014055,0.249802425666106,0.759473932040251,0.768919693392416,0.04,0.0522680745415841,362.59921406866,1.07140067850481,0.248673563378006
3558,-0.16266093588526,0.25,0.249991584582546,0.241217867385278,0.248838169754743,0.249841686010425,-0.249989025381515,0.249995368761672,0.791498691901914,0.7978013557477,0.04,0.0592238346329775,377.888966967338,1.11794857003871,0.248368814132184
3618,-0.0388626574223219,0.1,0.164745462401599,0.243349561215993,0.0991867188283198,0.249675517869854,-0.249975037524214,0.190656791108857,0.826054612662543,0.818018519396399,0.04,0.0563127164659601,394.37960938229,1.1228341155422,0.258079512258961
3678,0.249999992324535,-0.25,-0.0341621560206107,0.248323513487663,-0.25,0.249287792208521,-0.24994239919051,0.0522001099189545,0.836917779693574,0.818018519396399,0.04,0.0554831033455813,399.174601125758,1.00405574243306,0.292118964139832
3738,0.191904116269435,-0.249998522868642,0.0510862556230715,0.09882708050358,-0.24999995236443,0.249500581832557,-0.24995964229131,0.111540076943268,0.827565816860393,0.818018519396399,0.04,0.0586173419176673,394.792514671344,0.931775941932825,0.311323635360064
3798,0.056347072140869,-0.249995076228807,0.249999216124996,-0.249997929792614,-0.249999841214765,0.249997090955308,-0.249999876193176,0.25,0.825930293914806,0.818018519396399,0.04,0.052136503441153,394.041250615762,0.883366930734269,0.327759454283627
3858,0.114442651663577,-0.207551271064702,0.249990209241997,-0.249996891001434,-0.100004856461994,0.249997534766074,-0.249999909344744,0.249999987710859,0.819651713479087,0.818018519396399,0.04,0.0559306557195834,390.928155659374,0.850238827701145,0.337839707902001
3918,0.249999003883229,-0.108515725681791,0.249969193181665,-0.249994467155346,0.249983441294474,0.249998570324528,-0.249999986698403,0.249999959036197,0.814475447509904,0.818018519396399,0.04,0.0639568254434845,388.655721380666,0.875882993388816,0.326042074436726
3978,0.249999302718261,-0.000961354357708615,0.0999784352271652,-0.249837015570022,0.24998785751096,0.249998263235369,-0.249999813806591,0.24999764984183,0.82019362175224,0.818018519396399,0.04,0.0587755880220881,391.355118757287,0.873110368619159,0.329349151680275
4038,0.25,0.249998845398484,-0.25,-0.2494696285376,0.249998162016093,0.249997546693996,-0.249999410392364,0.249992261721639,0.822215008135487,0.818018519396399,0.04,0.0561851394335504,392.266361557522,0.847978592860295,0.339899757556707
4098,0.24999893468678,0.249998995755442,-0.249999452769928,-0.0996287399763196,0.249998713411265,0.249990084262527,-0.205032866413944,0.249994583205147,0.818239669958768,0.818018519396399,0.04,0.0593061069479699,390.324399783469,0.835039453550257,0.343457798242973
4158,0.249996448955933,0.249999346588344,-0.249998175899761,0.25,0.25,0.249972671922433,-0.150486373839627,0.25,0.815210034344156,0.818018519396399,0.04,0.0637809909674751,388.976678921921,0.853270824193528,0.3349587631118
4218,0.249996954503245,0.249999542611841,-0.24999653866607,0.249998881634222,0.249999983767313,0.0999808703457032,-0.0994198278691718,0.100008533657624,0.825373042641054,0.818018519396399,0.04,0.0535920733641993,394.000680505995,0.84682260790886,0.341868592692906
4278,0.24999813411364,0.25,-0.249992718454124,0.249996272114074,0.249999945891044,-0.25,-0.0582452250010949,-0.0582452250010949,0.825503897884109,0.818018519396399,0.04,0.0467404159107834,393.727510196262,0.773051124086612,0.37423312036825
4338,0.0999986938795475,0.249997498108856,-0.249994902917887,0.249996835073729,0.249991542668982,-0.249999959246259,0.0484626889066541,-0.0310978273698934,0.816646733785256,0.818018519396399,0.04,0.0400081466364954,389.601897217706,0.767224824774053,0.37312392107659
4398,-0.25,0.249991660362854,-0.25,0.249998148646257,0.249971935150838,-0.249999864154197,0.249993778197262,-0.0241148772835883,0.818268813427576,0.818018519396399,0.04,0.0250572059327188,390.356172346864,0.776131390347229,0.369556187819851
4458,-0.249999181299687,0.249969469289325,-0.25,0.249996798124683,0.249979417507225,-0.249994744294201,0.249995644738083,0.0408179088287495,0.813191503500984,0.814276035838302,0.04,0.028054117912054,387.824607485806,0.776130016029636,0.367160166598571
4518,-0.249997270998958,0.249917690117757,-0.25,0.249993646907677,0.249996876338794,-0.249982797954211,0.25,0.249997163387269,0.801168712654937,0.801801090644644,0.04,0.0348130993202767,382.201176472927,0.790856361405191,0.355098700939592
4578,-0.249998089699271,0.249940290525033,-0.100013821070277,0.249995273114376,0.249997606998082,-0.249987784112184,0.140817470074638,0.24999425265877,0.793655056877658,0.789326145450987,0.04,0.0424038944439299,378.578260705486,0.772813391509734,0.359944638407235
4638,-0.25,0.249993024808679,0.249953929765744,0.249999067596672,0.249999311869755,-0.249999418480789,-0.0765365529849363,0.249987460958938,0.779685771208159,0.776851200257329,0.04,0.0549101189365837,371.85982500553,0.745590596615122,0.366465853978289
4698,-0.1,0.148761984387024,0.249967668082184,0.249999332945146,0.249997500875044,-0.249999403954765,-0.056492599809932,0.249990358925866,0.766338704752784,0.764376255063672,0.04,0.0542702437652589,365.459088490995,0.732674001081996,0.366507327728988
4758,0.25,-0.0874437765968372,0.249999724153879,0.249999952091584,0.249993275220719,-0.24999937006071,-0.0291761173489373,0.249997120848698,0.752216384120245,0.751901309870014,0.04,0.057565335232886,358.810719697428,0.730687495434963,0.360818179140875
4818,0.25,0.0137882911274395,0.249999058706029,0.100001689165787,0.249993331795418,-0.249999184743062,-0.0137814927687321,0.249997984594089,0.742247330101043,0.739426364676357,0.04,0.0561847646722051,354.062600908879,0.719641734849876,0.361508397294943
4878,0.25,0.249996449150751,0.24999750599438,-0.249994257661075,0.249993463803049,-0.249998752335217,0.25,0.25,0.726538754307077,0.726951419482699,0.04,0.0599989873369175,346.584106630642,0.718453475375921,0.354457907755997
4938,0.249968077229485,0.214557429784277,0.249998254196066,-0.0999959803627523,0.104278339115592,-0.100000301643433,0.249244515429852,0.128324306315976,0.719472458734352,0.714476474289041,0.04,0.0620347401980408,343.209416291477,0.700600134842995,0.359951223708824
4998,0.249893590764951,0.131866384595838,0.25,0.25,-0.235723618488476,0.249996083304062,0.247481718099508,-0.00145209067498227,0.701863079530867,0.702001529095384,0.04,0.0693878154256772,334.76205861426,0.685764177709445,0.358687391771991
5058,0.249925388424921,0.136981493913763,0.249850981178139,0.249990608547963,-0.239992493392196,0.249167174827602,0.0982784787031472,-0.000685651994215537,0.694822498021859,0.689526583901726,0.04,0.0636180998010036,331.522790859166,0.675065342312595,0.360846297935187
5118,0.249999582964852,0.148916748988921,0.249503270593797,0.249968695159877,-0.249953201500876,0.247233055049195,-0.000323613714394436,0.249925697754843,0.676073650448004,0.680794122266166,0.04,0.0673128780264279,322.551965489289,0.679161056242927,0.348964777384384
5178,0.099999708075396,0.179222429812983,0.127850885324856,0.0999780866119136,-0.249839087106637,0.132430734671098,-0.000216013301771506,0.248418821810946,0.682786854194856,0.680794122266166,0.04,0.0465323861142919,326.006970630453,0.694980399900267,0.344674382211159
5238,-0.25,0.249935685069128,-0.156004680302671,-0.25,-0.249572820186745,-0.135441346211128,0.249515479846246,0.244902777941852,0.694333763595498,0.680794122266166,0.04,0.0178108361357816,330.466171011386,0.607201735656705,0.399897492028124
5298,-0.25,0.249954820549393,-0.18420327621187,-0.249989421106928,-0.249699703443413,-0.169805214313422,0.249660835892372,0.246431944559297,0.686502983362953,0.680794122266166,0.04,0.0137167337766715,327.650645619107,0.580487694687216,0.414736908853395
5358,-0.25,0.249999470003347,-0.25,-0.249964737023094,-0.24999576437564,-0.249987573218776,0.25,0.25,0.682887856569794,0.680794122266166,0.04,0.0103643852930426,325.606994335473,0.550678173509878,0.434460740782862
5418,-0.25,0.249999629002343,-0.249996056942041,-0.249975263381525,-0.249997034960621,-0.100184620036934,0.249999945426328,0.24999998257373,0.670088696861031,0.680794122266166,0.04,0.0145074915707717,319.402989988529,0.567707162192163,0.413398865351725
5478,-0.25,0.25,-0.249986856473469,-0.249999824884531,-0.24999999965891,0.24935560405403,0.249999818087761,0.249999941912432,0.671788146191411,0.680794122266166,0.04,0.0196681559831397,320.590505185181,0.64520433187814,0.365096826159971
5538,-0.1,0.249990332077577,-0.0999928310746749,-0.249999876836689,-0.249994897528026,0.107693516180933,0.249998492347447,0.209503239845472,0.671790348298941,0.680794122266166,0.04,0.0273590995140705,319.716493950098,0.687911727586614,0.341497087949793
5598,0.25,0.249967773591922,0.249993228189178,-0.24999999805839,-0.249982992555962,-0.222851355522962,0.249995398953382,0.115010935022564,0.670858036701212,0.680794122266166,0.04,0.0397256919582159,320.276139294603,0.776715374032518,0.30298237076499
5658,0.100006020747397,0.24997742868606,0.249995259732425,-0.249999998640873,-0.249909634170312,-0.230994702643278,0.0999967792673676,0.00550771925428489,0.69068200929443,0.680794122266166,0.04,0.0373035241259461,329.81031920109,0.775344698111443,0.312553304333345
5718,-0.24997993084201,0.249999957239049,0.25,-0.25,-0.249738464603797,-0.249995845924017,-0.25,-0.249999784205034,0.698776020605974,0.680794122266166,0.04,0.0229783779432378,333.086484571219,0.646425416188805,0.378611031315206
5778,-0.0999859515894072,0.249999970067334,0.249997779529485,-0.0999999999999999,-0.0998169252226575,-0.249988233746001,-0.25,-0.0999998489435237,0.672363885267742,0.680794122266166,0.04,0.0453544502802092,320.348039403704,0.62983984945804,0.373720233923397
5838,0.25,0.25,0.249992598431616,0.25,0.25,-0.249970471997297,-0.25,0.25,0.663483513600139,0.680794122266166,0.04,0.0745053579904888,316.751717331174,0.752385249596436,0.30933807725884
5898,0.249991299142981,0.24995553878551,0.0999948189021311,0.249998094125281,0.25,-0.0999810647594015,-0.25,0.249999465320952,0.67743709643529,0.680794122266166,0.04,0.0704610421366545,323.235356514737,0.788415419263338,0.301244014247028
5958,0.24997099714327,0.2498517959517,-0.25,0.24999364708427,0.25,0.249994218795687,-0.25,0.249998217736505,0.68221915578059,0.680794122266166,0.04,0.0690747659046971,325.524429735551,0.791079164870062,0.30235580883849
6018,0.249979616552326,0.0998962571661898,-0.249998723664859,0.249995552958989,0.100041151736324,0.249920520859652,-0.219564179651881,0.100000985162037,0.691671035706411,0.680794122266166,0.04,0.0590077932279725,330.215949607573,0.760276580505689,0.319139903693753
6078,0.249999728506788,-0.25,-0.249995745549531,0.25,-0.249862827545588,0.249748559008904,-0.17119213868183,-0.17119213868183,0.695788088382121,0.680794122266166,0.04,0.0371585061674121,331.723043256653,0.641200562877778,0.380133743336958
6138,0.249999809954752,-0.0999999999999999,-0.121651021804009,0.25,-0.158404314320387,0.249823991306233,-0.0345899335928746,-0.0345861695050537,0.669101387788956,0.680794122266166,0.04,0.0542548056758424,318.805434719312,0.631958360217445,0.370673833067982
6198,0.25,0.25,0.177820000268874,0.25,0.0549988832050843,0.25,0.249987453040597,0.25,0.662357360130482,0.680794122266166,0.04,0.0762646100892366,316.251201424422,0.771603382440362,0.301156844206172
6258,0.249954270901487,0.100000007714415,0.0494740084630527,0.25,0.113499218243559,0.249999418185635,0.249942526387026,0.1,0.684893534662508,0.680794122266166,0.04,0.0621265315110715,326.994075729228,0.794691705203665,0.30234018937063
6318,0.249847569671625,-0.249999974285283,-0.249999972417197,0.25,0.25,0.249998060618782,0.249837697528693,-0.0263372516707613,0.690022186831439,0.684540177508681,0.04,0.0471337284023795,329.161431843626,0.73562197165269,0.328782676659248
6378,0.24989329539872,-0.189227719196127,-0.249999980692038,0.100000001283024,0.100089672097369,0.249998501604656,0.249886388270085,-0.0127175764403484,0.699034602080496,0.697027028317064,0.04,0.0367683997104242,333.706061551895,0.735092079675279,0.33356235261771
6438,0.249999988761943,-0.0474257906547634,-0.25,-0.249999995723255,-0.249701093008771,0.249999530571695,0.25,-0.0194776636733281,0.714974656024661,0.709513879125446,0.04,0.0207031240358651,341.124239294831,0.692622131026044,0.361885258406114
6498,0.249999253125374,-0.108198042357095,-0.249997898671278,-0.249999997006278,-0.249790471626622,0.249999671400186,0.25,-0.0498935103476194,0.723367601618802,0.722000729933829,0.04,0.0158719374866822,345.277794670928,0.684853220622207,0.370446778986225
6558,0.249997536640048,-0.249999962995868,-0.249992995570928,-0.25,-0.249999021734941,0.25,0.25,0.25,0.731086371450797,0.734487580742212,0.04,0.0191420665446001,348.789595981704,0.703976818632629,0.364048997770951
6618,0.249991656984334,-0.249999974097107,-0.24999509689965,-0.248755540036557,-0.249937431452589,0.100249148133032,0.25,0.249927027418305,0.748765738396181,0.746974431550594,0.04,0.0147204511527317,357.381531688963,0.719866067619088,0.364783410525707
6678,0.249977937787667,-0.25,-0.25,-0.245851800121857,-0.249793720793766,-0.249169506223226,0.25,0.249756758061016,0.758967997222959,0.759461282358977,0.04,0.0101671769801755,362.168839460848,0.697532215043347,0.38150610117476
6738,0.249984556451367,-0.1,-0.206944952925936,-0.140936739791236,-0.0999739459257277,-0.249418654356258,0.25,0.0998297306427111,0.748886108574647,0.771948133167359,0.04,0.0177975022235814,357.051520945532,0.743702818575971,0.352765525288663
6798,0.25,0.25,-0.106483176419786,0.10386506764688,0.249605528766361,-0.25,0.25,-0.25,0.766519770494881,0.784434983975742,0.04,0.0317081453117402,365.992766323746,0.888829827779104,0.302557942176427
6858,0.249913693568366,0.25,-0.149535351423129,0.147705499196014,0.249712233227142,-0.249997717479837,0.213230069446102,-0.100010675944542,0.787847955516825,0.796921834784125,0.04,0.041138992400109,375.937949320417,0.944465298385377,0.292472366190433
6918,0.249712311894553,0.25,-0.24999042643093,0.249999839477327,0.249961210302299,-0.249992391599458,0.127433564820341,0.249964413518193,0.802800615974569,0.809408685592507,0.04,0.0497063205494238,383.211470274635,1.00101816929626,0.281288006901976
6978,0.249798242967036,0.25,-0.249993152732897,0.249999580553885,0.249972847211609,-0.24999467411962,0.0142086126492627,0.249975089462735,0.824648499066463,0.82189553640089,0.04,0.052895392926714,393.639219020456,1.00662894141007,0.287331754808995
7038,0.24999874880283,0.25,-0.249999514104155,0.249998976399188,0.25,-0.25,-0.249982942416588,0.25,0.84008305586551,0.834382387209273,0.04,0.0541651074241256,400.836585025215,0.966791750088107,0.304641520232516
7098,0.249999124161981,0.249981156747032,-0.249999659872908,0.249998874083494,0.25,-0.209792796464245,-0.0999880596916115,0.25,0.843039970053421,0.846869238017655,0.04,0.0577656687772849,402.16966278186,0.962692790234002,0.306956096886782
7158,0.25,0.249937189156773,-0.25,0.249998635346875,0.25,-0.115975988214151,0.25,0.25,0.851930020921252,0.859356088826038,0.04,0.0585362187163688,406.656071861596,1.01875362605604,0.293300477460374
7218,0.249989745945844,0.249956031472129,-0.24995503495819,0.249999044742813,0.100000254997551,-0.156183191749906,0.25,0.249999176235036,0.873915384223629,0.87184293963442,0.04,0.052902569502299,417.15424464763,1.02877625857315,0.297941095263198
7278,0.24996581981948,0.249999996874626,-0.249850116527301,0.25,-0.249999150008162,-0.25,0.25,0.249997254116786,0.890809843679565,0.884329790442803,0.04,0.046545536536009,425.04111596362,0.986827085753626,0.316478752668657
7338,0.216786051262743,0.207712095995577,-0.0998950815691109,0.25,-0.249999169159198,-0.25,0.249999941685393,0.100003989083447,0.902684195313898,0.896816641251186,0.04,0.0447947083845064,430.841656876331,0.962161756853844,0.329021496005929
7398,0.139366591297023,0.109040327277797,0.25,0.25,-0.249999213844948,-0.25,0.249999805617976,-0.159832479402085,0.910828716900264,0.909303492059568,0.04,0.0432204825711509,434.579306399945,0.929374477129685,0.343584036202889
7458,0.0225569149355277,0.142210547312182,0.249997544559929,0.249999853057523,-0.249999417596445,-0.249999694929239,0.249993845073077,-0.099989952114149,0.918594727785898,0.921790342867951,0.04,0.0369184208619828,438.118431192706,0.942541274071774,0.341543341492515
7518,-0.249998996574627,0.219607727392415,0.249991815199764,0.249999510191741,-0.249999893016606,-0.249998983097464,0.249979937134978,0.249987516939641,0.928372198976122,0.934277193676334,0.04,0.0321109618245643,443.106556699058,0.993650508689269,0.327664350680143
7578,-0.249999020521969,0.07872543154359,0.249992954239671,0.099999657134219,-0.249999250853422,-0.0999997178981853,0.0999862142326913,0.249991251970162,0.949743563812296,0.943017989242201,0.04,0.0271137027864579,453.346097800919,0.995665507295541,0.334557750957617
7638,-0.2499990763991,-0.249999925437001,0.249995611999453,-0.25,-0.249997752472661,0.249998567566798,-0.186606659433442,0.249999967041377,0.954659202967099,0.943017989242201,0.04,0.0213803254899641,455.37357500356,0.905245025041017,0.369620759218158
7698,-0.249998779983113,-0.249991410553779,0.249996928399617,-0.249999964217946,-0.249998426730863,0.249998440266243,-0.224337239942328,0.249999660554581,0.946921306839529,0.943017989242201,0.04,0.0216979370564609,451.752963926237,0.87241991432387,0.380478496206369
7758,-0.249998088345808,-0.249971542492929,0.25,-0.249999880726487,-0.25,0.249998143231615,-0.249994986978326,0.249998945418725,0.944682970753735,0.943017989242201,0.04,0.0206601678444722,450.689918845321,0.85782307738923,0.386042211143005
7818,-0.249998661842066,-0.249980050236674,0.100000381100514,-0.249997634325707,-0.249999823973091,0.249995621132285,-0.249996490673391,0.0999992617931075,0.954897735073271,0.943017989242201,0.04,0.0134720493867572,455.595595753922,0.833948562901929,0.40141623085313
7878,-0.25,-0.249999901638745,-0.249998729664952,-0.249992392723888,-0.249999413243637,0.249989736233849,-0.249999999295209,-0.25,0.954447936722125,0.943017989242201,0.04,0.000568165682505475,455.174400573896,0.733816331098005,0.45576936730122
7938,-0.100000125267282,-0.100003980026715,-0.100007806807588,-0.0999946749067217,-0.23197084803265,0.100003145431337,-0.100001682555645,-0.100060853865499,0.907627127978915,0.943017989242201,0.04,0.0178098922488916,432.389268667025,0.770132788881583,0.412538009650035
7998,0.249999582442393,0.24998650373469,0.249971013192929,0.25,-0.189904195873681,-0.249965566441194,0.24999438983667,0.249797153781669,0.90807986593218,0.943017989242201,0.04,0.0448951726847879,433.655165258525,1.04852681826176,0.303892272627407
8058,0.249999125618714,0.249987672596802,0.24997970923505,0.249999962964554,-0.207494964734127,-0.0999758981223973,0.139877919268059,0.249858007647168,0.935686586719216,0.943017989242201,0.04,0.0511875610604048,446.545439639778,1.13012062225732,0.290332420501871
8118,0.249998059696795,0.249990399941729,0.25,0.249999876548514,-0.248540092075168,0.24999999462146,-0.117060512058703,0.25,0.943431928952897,0.943017989242201,0.04,0.0627325594762643,450.1245220684,1.13535052863562,0.291311334706407
8178,0.249987581932369,0.0999933149932044,0.249981659908383,0.249999497446287,-0.151778344532392,0.249999996235023,-0.156942358441092,0.249994797140786,0.945695237249079,0.943017989242201,0.04,0.0653166416938295,451.230004574061,1.1256242995112,0.294550108307627
8238,0.249963133815374,-0.24999988322002,0.249938866361277,0.249998612874424,0.0739990664007548,0.25,-0.25,0.249982657135954,0.948314619878084,0.943017989242201,0.04,0.0617583382966184,452.425475626758,1.09562369772794,0.303417279932352
8298,0.249974193670762,-0.249993531611295,0.099957206452894,0.249909766100674,0.00275086886746954,0.225908945918862,-0.249998786136747,0.249987853449496,0.951118294066674,0.943017989242201,0.04,0.0569431811621519,453.89115567167,1.06258277874275,0.313865530927928
8358,0.25,-0.249978711190937,-0.25,0.249702456961924,-0.163494925376862,0.169696486396206,-0.249995953789158,0.249999978181092,0.954528101540776,0.943017989242201,0.04,0.0460630371560939,455.30784600853,0.984804969032519,0.339710976180961
8418,0.249974213440216,-0.099985097833656,-0.25,0.249789718307831,-0.0394465357244856,0.193787464401192,-0.249993970915846,0.249998368399385,0.942673647724605,0.943017989242201,0.04,0.0512157151883398,449.591339007977,0.955433015036167,0.345758104230623
8478,0.249914044800718,0.25,-0.25,0.249993328114949,0.249999706797727,0.249999746412825,-0.249989344211453,0.249994612242069,0.936732098509057,0.943017989242201,0.04,0.0604143328422378,446.998265033139,0.998600649083541,0.328903632330331
8538,0.249939531143821,0.1,-0.249997307843833,0.249995329680464,0.249998878444177,0.099999831405428,-0.182232115745559,0.171736252658444,0.947645352157912,0.943017989242201,0.04,0.0492838807524422,452.290326365317,1.00159880557955,0.331801371940996
8598,0.249998999277729,-0.25,-0.249991026146111,0.25,0.249996945619226,-0.249999970278498,-0.0241319159918069,-0.0108665863700166,0.953356737291192,0.943017989242201,0.04,0.0344553943669738,454.735590497388,0.930278388749954,0.359170525812746
8658,0.249998858346092,-0.1,-0.249984691818751,0.100000622772149,0.099999526821098,-0.249999964650111,-0.000747241202760222,0.0673933451234808,0.945054294793238,0.943017989242201,0.04,0.0323339540461455,450.852749184906,0.905594449288962,0.365810061635967
8718,0.249998529505605,0.25,-0.249969911721577,-0.249997924092838,-0.249994450374534,-0.249999951517206,0.0538169999716822,0.249999851941641,0.945933946056767,0.943017989242201,0.04,0.0286496974221865,451.315570050943,0.892330074978757,0.371628884928061
8778,0.249998910867548,0.249998688397668,-0.249978937461774,-0.249998452929501,-0.181711087171766,-0.249999966062044,-0.0373280902914899,0.145282962618218,0.949130879664212,0.943017989242201,0.04,0.0257435795170058,452.9166350503,0.870921474897848,0.382114879130545
8838,0.249999800712082,0.249995627992227,-0.249999997522234,-0.249999686881714,-0.0223832396986407,-0.25,-0.249999967572225,-0.0990564458031032,0.949550162314701,0.943017989242201,0.04,0.022569024731092,452.921000280998,0.813867374542585,0.408906010963352
8898,0.249999854844348,0.249996939594559,-0.24999988130862,-0.2499997808172,0.0593201833232637,-0.25,-0.0999999773005572,-0.144339512062172,0.937340359769979,0.943017989242201,0.04,0.025698163768453,447.084103316375,0.817554406395013,0.401816013748101
8958,0.249999981152968,0.25,-0.249999610143519,-0.25,0.249961503707708,-0.25,0.25,-0.25,0.934504583210683,0.943017989242201,0.04,0.031845842537643,445.933646496723,0.881232796447486,0.37182130126991
9018,0.249996855527297,0.100000054882464,-0.249999727100463,-0.25,0.249955436282493,-0.249994833708348,0.249993678655272,-0.25,0.942992181460794,0.943017989242201,0.04,0.0290910873772401,449.99965308214,0.901770488786664,0.366666165387132
9078,0.249989562400729,-0.249999817058452,-0.25,-0.25,0.249941278956993,-0.249982779027826,0.249978928850906,-0.25,0.945967781405773,0.943017989242201,0.04,0.0243439739507158,451.312106633979,0.871503372591844,0.380506945064284
9138,0.0999929785132463,-0.100000042148902,-0.249999995496356,-0.100006047854845,0.249958893183761,-0.249987943087852,0.249985247388865,-0.249997836801445,0.936226957760441,0.943017989242201,0.04,0.0290384770102691,446.658687142504,0.883981579075331,0.371267767315437
9198,-0.249999050557548,0.24999943264005,-0.249999984987853,0.249979840483851,0.24999999304622,-0.249999992561245,0.249999990644103,-0.24999278933815,0.936685635270901,0.943017989242201,0.04,0.0349618343817131,446.941815211587,0.938011599981559,0.350104308721464
9258,-0.249999329999713,0.107999051753013,-0.249998731670335,0.0999860480187714,0.11055411340286,-0.24999853194714,0.24997299964597,-0.134724700916621,0.948766889209049,0.943017989242201,0.04,0.0300840866722117,452.932442314402,0.94549089440705,0.351990347947383
9318,-0.249999982031432,-0.223335170316741,-0.249995807262795,-0.249999467733081,-0.214819605764979,-0.24999512384756,0.249910020650325,0.134234172066947,0.954327038833738,0.943017989242201,0.04,0.0232503677305666,455.402403106647,0.837669094433792,0.399463866868116
9378,-0.249999984695049,-0.0813346259631664,-0.249997059068215,-0.249999289892486,-0.225373723927299,-0.24999647713286,0.0999372908222316,0.168962902758729,0.941797075459794,0.943017989242201,0.04,0.0219476426901503,449.24253897174,0.815935786363807,0.404556858258147
9438,-0.249999990910155,0.249999977528508,-0.249999979947528,-0.249998874931096,-0.249999999639378,-0.249999634798561,-0.249999078776654,0.249996607706221,0.940374660421057,0.943017989242201,0.04,0.0195821606507283,448.633094847695,0.837791454972072,0.393468579435622
9498,-0.100011675246782,0.163050266895796,-0.24999995715551,-0.249998973209703,-0.249999738938936,-0.249999687146969,-0.100001400186577,0.249984488987835,0.928398522826315,0.936383748015083,0.04,0.0254601372477167,442.618180047133,0.860860006258678,0.377790812863755
9558,0.249961061301089,-0.0398323912471976,-0.249999903974134,-0.24999920252645,-0.249999130637905,-0.249999809293254,0.249993183190269,0.249956211978269,0.908168323129014,0.914269610591355,0.04,0.0386373024984953,433.212422550408,0.921197722790309,0.345543495533699
9618,0.249970008560032,-0.10287718039536,-0.24999987617116,-0.249999396271289,-0.100001534904292,-0.249999836479756,0.249995225901731,0.243860494182035,0.891404495672407,0.892155473167626,0.04,0.0467960704101307,425.103314424579,0.923931015276098,0.338072325683148
9678,0.249990885497564,-0.249981688407738,-0.249999811297553,-0.249999848342578,0.249992855140805,-0.249999899914927,0.249999992228478,0.229637152657487,0.87227923145792,0.870041335743898,0.04,0.0541249645294244,416.047626482329,0.92301744724712,0.331198083241715
9738,0.0999986720763708,-0.0999871818854169,-0.24999868531011,-0.249999893835105,0.100011883375914,-0.249999794516662,0.249999657605162,0.0857461134832553,0.862588553317012,0.847927198320169,0.04,0.0552678838248195,411.535230063796,0.874880065922127,0.345631387317615
9798,-0.249983159239747,0.25,-0.249996058006075,-0.249999999984335,-0.249943717408832,-0.249999548587376,0.249998876817424,-0.249999644589953,0.843598549925048,0.825813060896441,0.04,0.0520187672707199,402.128610688986,0.743279713479098,0.397527676270784
9858,-0.100050618452507,0.249998941630065,-0.249997228637985,-0.100006503084427,-0.249959379203412,-0.249999533875305,0.112396181032879,-0.100001195265104,0.803555426916163,0.803698923472713,0.04,0.059300747982982,382.816097399601,0.689047217868534,0.408221509515634
9918,0.249791976717718,0.249996472100216,-0.249999960112442,0.249978323015359,-0.249995923390767,-0.24999949954714,-0.208676775797724,0.249995186492876,0.780192867250286,0.781584786048984,0.04,0.0729134098102973,372.19053040995,0.715558895358994,0.382185855999507
9978,0.249853703446674,0.249997530470151,-0.249994972751298,0.09998488329061,-0.249997146373537,-0.249999649682998,-0.0710739354104318,0.249980607522649,0.763138738629577,0.759470648625256,0.04,0.0713879960145836,363.901411932826,0.690495147337058,0.387237837467581
10038,0.249997732480906,0.25,-0.249983335575294,-0.249999809400471,-0.25,-0.25,0.249999358826584,0.249946589925452,0.744027087777095,0.737356511201528,0.04,0.0685245799444311,354.779797452243,0.658232641623086,0.396035523260256
10098,0.24999487726465,0.1,-0.249988334902706,-0.249999863858762,-0.24998979696818,-0.100445124953086,0.249999550616443,0.0999626131619671,0.72660747640489,0.715242373777799,0.04,0.0624952730617021,346.637473342836,0.608060444698257,0.418874028850277
10158,0.249988215093387,-0.25,-0.25,-0.249999990928107,-0.249965989893933,0.24851625015638,0.249999998126113,-0.249999999286163,0.705854269837539,0.693128236354071,0.04,0.0504736104842478,336.323100512893,0.514099566356935,0.480688947844536
10218,0.24999175056444,-0.1564081129159,-0.249993801952648,-0.249999884099334,-0.0999777740175678,0.248961375109466,0.249999998594876,-0.248951277125997,0.672106350194516,0.671014098930343,0.04,0.0520098387027526,320.109659792813,0.479896674894232,0.490123713451522
10278,0.249999999996894,0.0619729569469996,-0.249979339842159,-0.249999634832195,0.24999472969395,0.25,0.249999999688654,-0.207889539871411,0.644769385010044,0.648899961506614,0.04,0.0630087863024473,307.680645542851,0.518364888798704,0.436133329825425
10338,0.0999999999978261,0.0210212917658744,-0.249985537889511,-0.0999997443825368,0.249996179369531,0.249999999258573,0.100001833067916,-0.046045401873736,0.627340377412591,0.626785824082886,0.04,0.0573715801907458,299.274027585124,0.5146030522181,0.427318157214366
10398,-0.25,-0.074532593656751,-0.25,0.25,0.249999561945887,0.249999997528578,-0.114452337395455,0.249768791091948,0.613180612648597,0.604671686659158,0.04,0.0441993614744266,292.448965200499,0.493243781750236,0.435655445010394
10458,-0.10104293872157,0.00706630052431848,-0.100114473956843,0.249999998182887,0.249999693342284,0.249999807803464,-0.0849878311034659,0.249838153764364,0.584577886721241,0.582557549235429,0.04,0.0606548560128459,278.665575211579,0.474144491561137,0.431844396367211
10518,0.246523537594766,0.197463720280147,0.249618420143857,0.249999993942956,0.249999999933877,0.249999365111532,0.249094138080782,0.25,0.550372362898705,0.560443411811701,0.04,0.106295542337416,262.580301520448,0.556583723604981,0.346646098859944
10578,0.247345836835068,0.213086763914484,0.0997331458826873,0.122345953231118,0.249960437243586,0.249998956061356,0.249353373689005,0.100001375822561,0.547271458703255,0.548611996627532,0.04,0.0906102511370288,261.283963762877,0.572586566863546,0.335294382269273
10638,0.249264535062439,0.249540532394604,-0.24999916072671,-0.175513475096503,0.249868124299576,0.249998001610947,0.249958256774859,-0.00966011191075875,0.559560424149058,0.560773600002333,0.04,0.0578220980151468,266.959772787725,0.570477161626997,0.343844623290996
10698,0.249485141091771,0.242933641949462,-0.249954045658238,-0.197848810238824,0.099907687009703,0.249998584912179,0.249970715420929,-0.00457627534822616,0.571608636811429,0.572935203377135,0.04,0.0453843770899163,272.926457702387,0.590762057989471,0.339459306854877
10758,0.249999888493545,0.227517564244131,-0.249848777165136,-0.249964592237575,-0.25,0.249999945948386,0.249999785595094,-0.00754365762572147,0.587319764045513,0.585096806751937,0.04,0.0294139019748252,280.191050056955,0.572639422422196,0.359523838656622
10818,0.249999780015172,0.234253462986507,-0.249876535357103,-0.249957953899328,-0.249978226313343,0.0999999621638705,0.249369476460591,-0.0244852067769534,0.597695106962554,0.597258410126739,0.04,0.0202450995249029,285.342888323277,0.577638147120378,0.362965931145238
10878,0.249999526898968,0.249970560052051,-0.249941304471694,-0.249942464443418,-0.249927421044477,-0.25,0.24789875514675,0.249051517603537,0.608322157456329,0.609420013501541,0.04,0.0205148403367691,290.223255038646,0.57680248421269,0.369708778553527
10938,0.249999631250888,0.249979392036436,-0.249958655731725,-0.249959725110393,-0.249949176756266,-0.249999987664109,0.248529128602725,0.249336062322476,0.618431022368424,0.621581616876343,0.04,0.0213127430275567,295.143571214587,0.593723509096619,0.365261382509066
10998,0.249999874738703,0.25,-0.24999914200513,-0.25,-0.249999940083772,-0.249999958880363,0.25,0.25,0.629778254484552,0.633743220251144,0.04,0.0229821774746534,300.559540867606,0.616781890834911,0.358058164381131
11058,0.125167602647097,0.25,-0.249999399403591,-0.249997663622916,-0.249999957849986,-0.249999971216254,0.249998576170475,0.1,0.650408389614017,0.645904823625946,0.04,0.0148799906015084,310.774773970276,0.62993287675728,0.362498455395624
11118,-0.166107698899984,0.25,-0.25,-0.249992212076386,-0.249999999304486,-0.25,0.249995253901583,-0.25,0.662463992652964,0.658066427000748,0.04,4.26525585348861e-05,316.042666713495,0.57461111747306,0.404134912070615
11178,-0.041275583385895,0.100006259747272,-0.1,-0.0999945619190683,-0.0999999995131404,-0.247800051584193,0.0999977146730919,-0.1,0.648823044186741,0.67022803037555,0.04,0.016665363740453,308.494085783818,0.602981191747882,0.375922008996482
11238,0.249999352813645,-0.24997913417576,0.25,0.249999955114672,0.25,-0.242666838613977,-0.249996543526721,0.25,0.657780750931196,0.682389633750352,0.04,0.0323305315276098,314.224310548643,0.803897797245939,0.287206073504495
11298,0.249999546969552,-0.249985393923032,0.10000230702585,0.249999897105192,0.233196794649909,-0.0948699310378589,-0.249996495630335,0.25,0.688617081487252,0.694551237125154,0.04,0.0395288330905555,328.721978323844,0.8667017145984,0.278685108260801
11358,0.25,-0.25,-0.249992309913832,0.249999761749738,0.193989315499696,0.249989519973083,-0.249996383872102,0.25,0.70647205975109,0.706712840499956,0.04,0.0463195612560266,337.152878603784,0.874501754690539,0.283283228347333
11418,0.249997881067416,-0.25,-0.249992725588923,0.249999833224816,0.0607927147647014,0.249992663981158,-0.249997468710472,0.1,0.725755373432433,0.718874443874758,0.04,0.0455517020380492,346.528321147951,0.864631368638532,0.294484487991558
11478,0.249992936891387,-0.25,-0.24999369549747,0.25,-0.249999353616952,0.25,-0.25,-0.25,0.741561806653792,0.731036047249559,0.04,0.039306082735232,353.749927862911,0.782138389260939,0.332328382371217
