time,bias_percent_1,bias_percent_2,bias_percent_3,bias_percent_4,bias_percent_5,bias_percent_6,bias_percent_8,bias_percent_9,normalized_power,power_SP,SP,CV,total_power_MW,fuel_fraction,thermal_efficiency
26,0,0,0,0,0,0,0,0,0.999591301184298,1,0.04,0.0400178202922531,476.906514534763,0.999466946650461,0.350606121951542
86,0,0,0,0,0,0,0,0,0.999947965809695,1,0.04,0.0398956250778775,477.076055286822,1.00023005028479,0.350463180422936
146,0,0,0,0,0,0,0,0,0.999994390218004,1,0.04,0.03993382602927,477.097429577635,1.00031275344805,0.350449905466653
206,0,0,0,0,0,0,0,0,1.00000064314229,1,0.04,0.0399675672328357,477.100328148037,1.00031670405061,0.350450650540956
266,0,0,0,0,0,0,0,0,1.00000249279412,1,0.04,0.0399882475949368,477.101199829244,1.00030489084411,0.350455429519801
326,0,0,0,0,0,0,0,0,1.00000350167492,1,0.04,0.0400001364400154,477.101676272254,1.00028564391283,0.350462522763885
386,0,0,0,0,0,0,0,0,1.00000394686899,1,0.04,0.040006509255715,477.101884601223,1.00026261684404,0.350470743804545
446,0,0,0,0,0,0,0,0,1.00000393908566,1,0.04,0.0400093934367538,477.101877825811,1.00023877449415,0.350479092878695
506,0,0,0,0,0,0,0,0,1.00000362138389,1,0.04,0.0400100995944062,477.101724369229,1.00021627615587,0.350486863639115
566,0,0,0,0,0,0,0,0,1.00000312965654,1,0.04,0.0400095151827743,477.101488865439,1.00019643288113,0.350493644071927
626,0,0,0,0,0,0,0,0,1.00000256972204,1,0.04,0.0400082475522217,477.10122157312,1.00017985354611,0.350499257614006
686,0,0,0,0,0,0,0,0,1.00000201507189,1,0.04,0.0400067036586437,477.100957136425,1.00016664181169,0.350503693276338
746,0.108331847257253,0.108329531762861,0.108333333333333,0.108326009804668,0.0865402414561904,0.108332760682479,-0.0561652619932708,0.108332628772151,0.987627525384569,1,0.04,0.0550009996686457,471.015847398011,1.02720804358972,0.33692387278322
806,0.249996570593662,0.249991227145064,0.25,0.249983099549233,0.199708249514285,0.249998678498028,-0.129612143061394,0.24999837408958,0.987382290631354,1,0.04,0.0658560662171103,471.208961376418,1.12923426423408,0.306608485581372
866,0.249986748156068,0.100794523133475,0.0333376313919584,0.0612265279442988,0.221501341391428,0.249999251148882,0.034884923844663,0.249968835267441,0.999333205514838,1,0.04,0.0564462258249787,476.895229953974,1.15799500559928,0.302601424752134
926,0.249973903429983,-0.0943088590355253,-0.249990081403173,-0.185608988769845,0.25,0.25,0.249996472875661,0.249930207576951,1.00637074949133,1,0.04,0.0492986227182546,480.105661736162,1.12032207782648,0.314882561185576
986,0.0333265318484302,-0.0665711375285645,-0.249994357140346,0.00315490636375443,0.25,0.249812791653161,0.249998001296208,0.0333712610433506,1.01063305930022,1,0.04,0.0476676980605944,482.258528623577,1.0783362292259,0.328609713271599
1046,-0.249981569450524,-0.0302987324810005,-0.249999948488958,0.25,0.25,0.249567980738063,0.25,-0.249821207500589,1.00833605924277,1,0.04,0.0440802583219978,480.972585925964,1.00597006900538,0.351309537705084
1106,-0.249716417092166,0.0338699626653397,-0.0333585888279381,0.0341690803312481,0.0333659149078366,0.033088522418236,0.249971825641838,-0.0332517614807631,1.00197819615932,1,0.04,0.0379495931358753,478.037277982087,0.985586296680803,0.356386943144389
1166,-0.249369679392775,0.117782871702861,0.24994165072878,-0.248071353081735,-0.249924811751146,-0.25,0.249934982250396,0.249954437160547,1.00338873232986,1,0.04,0.0318059933769091,478.709012733154,0.967088741490974,0.363713945407893
1226,-0.249526297668016,-0.0415897060350453,0.249965581270063,-0.032439365089837,-0.24995739332565,-0.0333413588340672,0.0333008392723348,0.249942706044159,1.00114985683042,1,0.04,0.032014372705214,477.674985998045,0.955223323796305,0.367436467950491
1286,-0.249731106181792,-0.25,0.249996875054817,0.249540926899568,-0.25,0.249981479613691,-0.249989963083592,0.249927365353499,1.00054629852839,1,0.04,0.0335428267859923,477.326838545192,0.944641352532697,0.371281728282453
1346,-0.0693271122294548,-0.249999993015325,0.0333315950815015,0.0331875412044532,-0.25,0.249983874991896,-0.249994193645899,0.144512751703385,1.00164423461524,0.989132825981269,0.04,0.0253431790458774,477.82361911739,0.915929809149622,0.383318779091307
1406,0.166585802938986,-0.24999998388152,-0.249999924883604,-0.249736117012236,-0.25,0.249987007409549,-0.249999725919686,0.00666287231477406,0.976230477233775,0.96405473209189,0.04,0.0231228383683325,465.462587753844,0.816874678088903,0.418681741710129
1466,-0.0139313011435739,-0.0336104446180566,-0.033375807944573,-0.249850336288049,-0.249999970147133,0.249992637515608,-0.249999835419525,0.112108950521239,0.93559736956554,0.938976638202511,0.04,0.0351371270486391,446.035580902081,0.791636510753602,0.413998115991526
1526,-0.249992129559229,0.249360491341857,0.249901883437237,-0.24999969995642,-0.249999931108769,0.249999999961993,-0.249999978611622,0.249999975868154,0.913018770172893,0.913898544313132,0.04,0.0448457428468504,435.499980894677,0.821953829082391,0.38930985141843
1586,-0.213943926506803,0.246418466225752,0.249944400614434,-0.0339072995846926,-0.0333332965105926,0.249999999955227,-0.0333564447093465,0.0333787876038958,0.885893801098848,0.888820450423753,0.04,0.0606154761408357,422.355557294235,0.816280096022402,0.380183865752437
1646,-0.166803968669016,0.242571202612383,0.25,0.248675070132181,0.249999994887022,0.24999999994638,0.249946638085937,-0.249895073972442,0.862038719964733,0.863742356534374,0.04,0.0735459201868099,411.160975262066,0.842979569799984,0.358384744398858
1706,0.0138110844208911,0.0543861719741889,0.0333333333333333,0.246837658170109,0.249999974723289,0.0993657863087229,0.249958154431212,-0.249939324858237,0.84855101926902,0.838664262644996,0.04,0.0635554372318315,404.751107809206,0.81284260455825,0.365877972346517
1766,0.25,-0.191701945014218,-0.25,0.244434888681246,0.249999948355331,-0.0976174161405205,0.249973214267341,-0.218524566199049,0.824269630545661,0.813586168755617,0.04,0.0553985105865937,392.986966252717,0.73292292212814,0.393980311019081
1826,0.249999967416363,-0.000299036463294783,-0.25,0.0301844877510458,0.0333333040680209,0.0530167923757332,0.249984821392504,-0.0333318560396121,0.796081480588572,0.799375248884969,0.04,0.0548644345098066,379.691710909129,0.7095400958105,0.393195781828515
1886,0.249999924806993,0.249997074718682,-0.25,-0.249989113465369,-0.25,0.249999988127757,0.249999999940794,0.249999736356309,0.796364523207424,0.799375248884969,0.04,0.047508103674487,380.003015449266,0.743286427719406,0.375651836562701
1946,0.249999957390629,0.0987586880320056,-0.0878645224648593,-0.0333271657100048,-0.0333402142654677,0.249999717058972,0.249999953596322,0.249999850601909,0.790731744671146,0.799375248884969,0.04,0.0564973702869121,377.129700017976,0.765364755753811,0.362057003218094
2006,0.25,-0.0990145868659563,0.124158794311863,0.249999996739318,0.249984120925844,0.249999362584407,0.249999892992012,0.25,0.790781224948092,0.799375248884969,0.04,0.0615643021671424,377.369991784274,0.835526887450967,0.331865119492948
2066,0.24999150499746,0.0522250674426248,0.178689983443389,0.249993829320004,0.249990236948383,0.249999638797831,0.249999934740955,0.249988466940209,0.793702262444476,0.799375248884969,0.04,0.0666013468190518,378.649837159653,0.866866283272269,0.320952186926713
2126,0.249980396147983,0.25,0.25,0.249985764233208,0.249998234824011,0.25,0.249999989335728,0.249973385246635,0.793893319545846,0.799375248884969,0.04,0.0730575232423541,378.790709456154,0.904217628288278,0.307808795356564
2186,0.249988891150524,0.249993856359512,0.168391396784314,0.249991819703762,0.249998999733606,0.249967651830101,0.0333333272902458,0.0348985613365494,0.809574524383072,0.799375248884969,0.04,0.0624097716885088,386.469314044647,0.898354083279198,0.316098290012573
2246,0.25,0.249985822368105,0.0616724541176483,0.249999738396024,0.25,0.249925350377157,-0.00296845544467689,-0.00296845544467689,0.801397101858636,0.799375248884969,0.04,0.0639605391449345,382.291516769068,0.861552393488647,0.326037567216379
2306,0.25,0.249860615971204,-0.0730945101982659,0.249993630894749,0.033335680425513,0.249957698547055,-0.00140492780194349,-0.00140492780194349,0.803531408219076,0.799375248884969,0.04,0.0530496401922754,383.456044859946,0.853870639648032,0.329972832005573
2366,0.25,0.249696884529102,-0.249328232765231,0.249985644162312,-0.249994583633431,0.25,0.249995729522151,-0.000666428246597045,0.802255016533292,0.799375248884969,0.04,0.0469865711367673,382.746800202143,0.833876682984191,0.337259673115443
2426,0.24838392402659,0.249828234566491,-0.249619319382647,0.249450464663096,-0.249996930725611,0.249999733431345,0.243696241678473,-0.000314533102088993,0.801615420264328,0.799375248884969,0.04,0.0471464026379411,382.447962187988,0.819624834048784,0.342856130014644
2486,0.246270593907515,0.25,-0.249999971113115,0.248750614548738,-0.25,0.249999384841566,0.235458449882893,-0.000148310394396532,0.80092790539381,0.799375248884969,0.04,0.0466276371286246,382.115539157121,0.808449929474046,0.347293174414113
2546,0.247886652656523,0.249995145238796,-0.0333333169640983,0.0791192445479119,-0.0333352071314907,0.249997346042466,0.241759788266973,0.108268107108283,0.791597415242307,0.799375248884969,0.04,0.0561593516461798,377.543023091468,0.820744417172969,0.337997266514466
2606,0.249999960251379,0.249988796704914,0.25,-0.142706393145476,0.249995675850406,0.249994679920566,0.25,0.249976046182659,0.79166294054622,0.799375248884969,0.04,0.0620473610191645,377.793194859205,0.886106132840389,0.313273071151557
2666,0.249999977475782,0.249986854098688,0.160031553891659,0.0274645585146898,0.249997440888941,0.249996954406867,0.249994490478103,0.249981855420777,0.796547064144531,0.799375248884969,0.04,0.0649761393831293,380.034803056881,0.9067447649691,0.30795906324336
2726,0.25,0.249984313767469,0.0423805089807519,0.249995802993368,0.249999749016256,0.249999928735108,0.2499872857187,0.249989452116778,0.797382084210703,0.799375248884969,0.04,0.0684928410387351,380.443929386589,0.921755641158152,0.303270055477384
2786,0.249999969275417,0.24998758685464,-0.0843171957778532,0.249997621647899,0.24999774968948,0.033333292960757,0.249992701127486,0.249994022866174,0.804236974213786,0.799375248884969,0.04,0.0619361165350228,383.803745851647,0.916744547923886,0.307620695367355
2846,0.249999929097117,0.249991867045558,-0.249998809692952,0.24999999988844,0.249995135185235,-0.249999999974933,0.249999782815899,0.25,0.806222935307197,0.799375248884969,0.04,0.0568342043904633,384.585294237759,0.864860133885555,0.32673937305389
2906,0.249999803552601,0.0333287252821373,-0.249997183807835,0.249999999936783,0.249997196626831,-0.249999707355012,0.0333363042452355,0.249998785806649,0.810107057265282,0.799375248884969,0.04,0.0455077378668255,386.622415643908,0.826491511514919,0.34371881731274
2966,0.249999639379004,-0.249999998562335,-0.249995057650375,0.25,0.249999892358148,-0.249999324698193,-0.00201191891019553,0.249997198015344,0.804901980690592,0.799375248884969,0.04,0.0351726949981669,383.957278656033,0.77523123711813,0.363920329759771
3026,0.0333331289814357,-0.0333378615662288,-0.249995145110722,0.249999967970026,0.033333272336284,-0.249999617328976,-0.0114360306500116,0.249998412208695,0.80463902905079,0.799375248884969,0.04,0.0256632309898367,383.949709590846,0.753400662323376,0.374457921258421
3086,-0.25,0.249989548351757,-0.249995259481945,0.249999926084676,-0.25,-0.25,0.25,0.25,0.801521434228361,0.799375248884969,0.04,0.0229506700884083,382.419232546196,0.738849971978038,0.380310346464827
3146,-0.0333333333333333,0.24999377386074,-0.0333306632715096,0.249999940373694,-0.0333333333333333,-0.0333333633146597,0.0333414518707175,0.25,0.788989582374186,0.799375248884969,0.04,0.0426526214650551,376.272453174247,0.757212742200483,0.365122997061298
3206,0.25,0.249999299526332,0.249999962542136,0.249999959059334,0.25,0.249999930812324,-0.0672593473213216,0.25,0.785135206941175,0.799375248884969,0.04,0.0650551096163077,374.721502340802,0.860048389024587,0.320140341706771
3266,0.249992979019977,0.249998883181762,0.249999978773877,0.24998439466049,0.25,0.249999572710156,-0.0364192372290061,0.249988876964627,0.794658821378551,0.799375248884969,0.04,0.0632177704064241,379.167678772826,0.901978866907465,0.308879882832384
3326,0.249983797738409,0.24999833873117,0.25,0.249964041215849,0.25,0.249999104422707,-0.0172028841045325,0.249974331456832,0.797192276239305,0.799375248884969,0.04,0.0653121360070864,380.350550918873,0.918685136755881,0.304208984163756
3386,0.249987206211972,0.24999905861433,0.249993595019054,0.172984801932525,0.249999189742647,0.2499994925062,-0.00812576468955616,0.0333290109630496,0.805883113939576,0.799375248884969,0.04,0.0609770925166793,384.611593850735,0.910925134790049,0.310237550204269
3446,0.249991663446631,0.25,0.24998521927474,0.0723196428697173,0.249998130175338,0.25,-0.0038380574258768,-0.0038380574258768,0.801396529566265,0.799375248884969,0.04,0.0617582677917032,382.308118288306,0.883940272725908,0.317793694279898
3506,0.249982144992942,0.0333333333333333,0.236660795509117,-0.0673413735460293,0.249998940432691,0.249978039782637,-0.00181870439355746,-0.00181870439355746,0.802435306748731,0.799375248884969,0.04,0.0516879158897808,382.911829406434,0.876394262219537,0.321036146708656
3566,0.249969697784271,-0.25,0.21923654904638,-0.24997501039739,0.25,0.249949322575316,-0.00190590693298923,-0.00190590693298923,0.805675780223001,0.799375248884969,0.04,0.0390889237352469,384.337197227724,0.834035915684419,0.338596404550303
3626,0.249911489969888,-0.0333333333333333,0.0159007111262823,-0.033319172558521,0.25,0.0333149739797917,-0.0031941647306989,-0.0031941647306989,0.804446020994008,0.799375248884969,0.04,0.0403081939829975,383.81954839762,0.806847245463629,0.349534819900624
3686,0.249835372058771,0.25,-0.25,0.25,0.25,-0.24997609726051,0.249982663767068,-0.00185275023964615,0.798578214944564,0.799375248884969,0.04,0.0468029492657163,381.025094965803,0.809039917775613,0.346049563831878
3746,0.249906710833304,0.0333333333333333,-0.143589868417458,0.0333347074598947,0.0578847127260068,-0.0333198096863297,0.169811304452971,0.10762547128823,0.800966438520419,0.799375248884969,0.04,0.0360870890907038,382.210746842587,0.80635944601966,0.348280286197889
3806,0.25,-0.25,-0.00443815788644258,-0.249996828938704,-0.193342970632292,0.249999950987598,0.0649718345806897,0.249950212804345,0.804189812336229,0.799375248884969,0.04,0.0255658378024081,383.625199837807,0.772193292382749,0.36503606913935
3866,0.25,-0.249999574715319,-0.110848289468984,-0.0333315363985992,-0.21784359279755,0.249999972226306,0.145150396466712,0.0333115771351616,0.80455734332263,0.799375248884969,0.04,0.02525806194044,383.891303267563,0.750916870194767,0.37563935709535
3926,0.25,-0.249999018573813,-0.25,0.25,-0.249882867936733,0.25,0.249999285086895,-0.0675601408548376,0.798227019740191,0.799375248884969,0.04,0.0283382067581459,380.841130071174,0.749106825942289,0.373555183423274
3986,0.249999938778796,-0.249999443858494,-0.0333351104150564,0.25,-0.0332669584974823,0.249999913365722,0.0333360924439468,-0.0973136947792984,0.7957703003177,0.799375248884969,0.04,0.0340796285515719,379.606438721484,0.759699040392235,0.367152651201484
4046,0.249999858720299,-0.25,0.249995899042177,0.25,0.25,0.249999800074743,-0.113879913697085,-0.113879913697085,0.792252634665216,0.799375248884969,0.04,0.0443222615222168,378.047229459148,0.806434539755464,0.344454303866451
4106,0.249999802406999,-0.249998878579105,0.2499976761239,0.0333333333686084,0.25,0.249999886709021,-0.11661864262301,-0.0333282709367946,0.796586377916105,0.799375248884969,0.04,0.0404205230248961,379.91447666811,0.827337051464917,0.337410073732415
4166,0.249999728766529,-0.249997412105627,0.25,-0.249999999918596,0.25,0.25,-0.11791674079232,0.25,0.797791587179915,0.799375248884969,0.04,0.0393958424060609,380.672977438803,0.851303472753724,0.328565772704465
4226,0.249999846301033,-0.0333321890254309,0.249996337489118,-0.249999999953871,0.25,0.0334263066629748,-0.117819057558318,0.249998435359073,0.801827356506111,0.799375248884969,0.04,0.0446826655889606,382.58100214073,0.84455725456713,0.332850320858156
4286,0.25,0.249999256540979,0.24999154805181,-0.25,0.25,-0.249785446162366,-0.109302949393398,0.249996389290167,0.80288876870609,0.799375248884969,0.04,0.0504870623097752,383.024668216765,0.818554223703823,0.343822241686247
4346,0.25,0.249999357811503,0.0334799738125804,-0.0333334283511482,0.0333342121120355,-0.0332132489537616,-0.0916993730785842,0.0333350476092064,0.806564712132503,0.799375248884969,0.04,0.0453318686467123,384.899963756993,0.795247287365153,0.355631605258776
4406,0.25,0.249999490242187,-0.249650546346413,0.24999978072812,-0.249997972049149,0.249996547395952,-0.0765845301991411,-0.0765845301991411,0.801896111520199,0.799375248884969,0.04,0.0430978385126783,382.547629353698,0.762292129079239,0.36873873012236
4466,0.25,0.249998545272371,-0.249801976262967,0.0333333327895938,-0.0496156575285071,0.148794614075825,-0.0667427614141314,-0.0667427614141314,0.801221870312964,0.799375248884969,0.04,0.0360851052129426,382.282712338803,0.754502195410457,0.372287819480618
4526,0.25,0.249997309542613,-0.25,-0.249999714514632,0.212422753767717,0.0164536243495065,-0.0704709055894899,-0.0704709055894899,0.801521360671937,0.799375248884969,0.04,0.0292750735252546,382.391359874464,0.73928429991752,0.380059212272053
4586,0.0333333333333333,0.0333325759208431,-0.24998067823987,-0.249989121588016,0.0120395671118105,0.117657053798054,-0.0891951606440712,-0.0891951606440712,0.809792886005149,0.799375248884969,0.04,0.00973745116285138,386.456010405758,0.713500002280881,0.397979556348279
4646,-0.25,-0.249998229584548,-0.249955411322777,-0.249975269299364,-0.24999998466899,0.25,-0.143706463447468,-0.143706463447468,0.788081762072355,0.799375248884969,0.04,6.053451738527e-10,375.887257154416,0.714145602428253,0.386745717262683
4706,-0.25,-0.249998986975598,-0.24997462289788,-0.24998597450421,-0.0333777976785566,0.249983848695252,-0.0332276310442461,-0.224430702069798,0.803427992265009,0.799375248884969,0.04,1.24089966268157e-07,383.885280784516,0.771088768610993,0.365806787313264
4766,-0.25,-0.249999977410047,-0.249999745726861,-0.24999997361824,0.249897369924318,0.249962727758275,0.249999987351236,-0.249958330226983,0.797077249529177,0.799375248884969,0.04,0.0157570580553304,380.321345830592,0.732906951640247,0.381290984359791
4826,-0.0333800058055311,-0.249974421594956,-0.249994121268943,-0.249999245351677,0.249941842957114,0.249978879063022,0.249915905618257,-0.249975238781495,0.788640298618085,0.799375248884969,0.04,0.022258830114852,376.248716945633,0.760523524353524,0.363510576849839
4886,0.249892294294928,-0.249941002452143,-0.249986766208588,-0.249998293003095,0.25,0.25,0.249805952582823,-0.249997349968163,0.789835989342654,0.799375248884969,0.04,0.0294094486292379,376.937076766873,0.841282769349853,0.329216459766955
4946,0.24990090826565,-0.196109032018609,-0.249992500851533,-0.0336470189874243,0.0860991036239939,0.249999945964163,0.102990641516026,-0.033333788130113,0.79087601363021,0.799375248884969,0.04,0.0385399086662254,377.278471351075,0.879498771475319,0.315196555539203
5006,0.249912172688902,-0.125713378374756,-0.25,0.249273877802299,-0.128232837790783,0.249999875301914,-0.0889986114174779,0.249995485042722,0.796299906746865,0.799375248884969,0.04,0.0475360204539272,379.995063557819,0.920114172692821,0.303452633484214
5066,0.249950231190378,0.000486991543408976,-0.0333337738319415,0.249588530754636,-0.180997821317024,0.249999929337751,0.0308726408266832,0.24977414512917,0.794210622196963,0.799375248884969,0.04,0.0650187359084966,378.823082385747,0.929806255243671,0.299363361097927
5126,0.25,0.165518244513317,0.24999898346475,0.25,-0.249998184389801,0.25,0.187627355299817,0.249484700626833,0.795735000706495,0.799375248884969,0.04,0.077299080791408,379.732951286278,0.9709245884052,0.287373992236186
5186,0.249999999999914,0.202125850216821,0.0333373352992562,0.249999937869823,-0.249969723426973,0.0333888775716002,0.214648595128435,0.249701057977949,0.807067530989721,0.799375248884969,0.04,0.0701015879380095,385.164307259526,0.953633828002186,0.296769361789164
5246,0.249999999999801,0.249997334598325,-0.249989435378698,0.249999856622668,-0.249932505244812,-0.249871820988615,0.24998406259663,0.249983986821716,0.810098346028251,0.799375248884969,0.04,0.0638006199033929,386.441640926445,0.880818760802537,0.322368083715604
5306,0.249363193705604,0.249991347308604,-0.249933780693104,0.174699941909678,-0.15486771975219,-0.0338540271894524,0.249988974446277,0.249990899910753,0.801581832329115,0.799375248884969,0.04,0.0688397910062115,382.348279395667,0.844724491680075,0.332581992066974
5366,0.248530447013193,0.249983517775892,-0.249861001488867,0.0762308226696133,-0.0305522310310682,0.248630780086375,0.249995397634279,0.249999940104108,0.799819226231836,0.799375248884969,0.04,0.0683229362485392,381.634886054377,0.850042680523636,0.329884577157584
5426,0.0325384899421477,0.0333239934346742,-0.249904435926782,-0.00332765166238744,0.0910142319283586,0.249165983029223,0.0333308348606028,0.0333332993923278,0.819125780267114,0.799375248884969,0.04,0.0424129433123544,391.092670888578,0.800386655197927,0.359033121171692
5486,-0.249912530843065,-0.249999999934611,-0.249961234807131,-0.107365656558081,0.249985760413763,0.249865863800639,-0.0683700156678804,-0.0683700156678804,0.811897224244483,0.799375248884969,0.04,0.0230571017792051,387.223201142365,0.672499371980882,0.423081625330502
5546,-0.0334171031240672,-0.249468029921998,-0.0346901623033198,-0.0455140921399601,0.249968396917746,0.249900537059401,0.0676436985952413,-0.080044436770727,0.784324851706218,0.799375248884969,0.04,0.031970622978698,373.977119714441,0.678165062695472,0.405195204138494
5606,0.249692302354622,-0.248772376828581,0.246818163278588,0.0353687228683515,0.249945690807569,0.249945879013168,0.25,-0.090429558137139,0.784786924847447,0.799375248884969,0.04,0.0420157251391742,374.608797838319,0.805496656156534,0.341718827178172
5666,0.2497948554553,-0.0326376802028624,0.2481969591912,0.110836313225178,0.249969224790956,0.249949387383149,0.249980990213329,-0.0911639848944171,0.791440198114665,0.799375248884969,0.04,0.0515694359776593,377.568766032401,0.850321532356471,0.326262800878797
5726,0.249928963356187,0.25,0.25,0.209524700614874,0.25,0.249953975251585,0.249956131261528,0.0235948671203561,0.792086496006216,0.799375248884969,0.04,0.0643516757629157,377.987564535701,0.908362143670224,0.305754714257734
5786,0.249941518077374,0.25,0.25,0.226884938195324,0.25,0.249973794715401,0.249975141048199,0.121700551522216,0.794587424692927,0.799375248884969,0.04,0.0677115972150899,379.068112912268,0.932330990442992,0.29874580060755
5846,0.249957935789696,0.25,0.25,0.249586787338989,0.25,0.249999712475777,0.25,0.249992600355418,0.795996260860591,0.799375248884969,0.04,0.0703621042243224,379.811866841085,0.962548156764169,0.289935062870977
5906,0.249976163614161,0.25,0.0333427942359095,0.24976584615876,0.0333432048369635,0.249991971281245,0.25,0.0338215921176195,0.811296421757055,0.799375248884969,0.04,0.0589128886030453,387.291396902771,0.943006406925023,0.301771264560521
5966,0.25,0.25,-0.249978167147901,0.25,-0.249977219607007,0.249981848180703,0.25,-0.00359602610948796,0.809710403303617,0.799375248884969,0.04,0.0535451345443104,386.214033178178,0.857289456856278,0.331020769181838
6026,0.25,0.249962908092776,-0.249987628050477,0.249941513497622,-0.249979278739854,0.249989574858803,0.249993069090141,-0.00169837057982641,0.803156922730078,0.799375248884969,0.04,0.0534652447053283,383.161763561108,0.825605416913381,0.341007794607868
6086,0.25,0.24991440329102,-0.25,0.249865031148357,-0.249981971452037,0.249999678976318,0.249984005592634,-0.000801985831919871,0.801275217018234,0.799375248884969,0.04,0.0507920278045713,382.279475968644,0.811294568685017,0.34622393635942
6146,0.249999928336658,0.200549407343622,-0.0333333374505972,0.249922808293694,-0.249987144194921,0.249999784283312,0.249987042230761,-0.00037856566755661,0.797662012498168,0.799375248884969,0.04,0.0534650644196987,380.513249278899,0.809192523141515,0.345519528411846
6206,0.249999834623058,0.135995181873946,0.249999990498622,0.24999836302221,-0.249993908551,0.249999921992457,0.249991013219082,-0.000178557109450973,0.796163256238211,0.799375248884969,0.04,0.0556507798059165,379.87025594535,0.831133576095106,0.33582972852973
6266,0.249999906286399,-0.0312023988022299,0.249999976423745,0.0333366967575324,-0.0333305196486602,0.170671442004634,0.249994905802657,-8.58401909456966e-05,0.800099710904383,0.799375248884969,0.04,0.0471404657894283,381.785302484155,0.838752520296176,0.334456810265261
6326,0.25,-0.249845388917229,0.249999958018138,-0.249990097588584,0.249998527377476,0.0669341989436358,0.249999996104255,0.249867971662363,0.798952132648504,0.799375248884969,0.04,0.0418724320548648,381.21896076432,0.849119701850654,0.329883240137312
6386,0.249999934128292,-0.0332457203864298,0.249916975949521,-0.0333277821765042,0.0333327568563153,0.146261248435069,0.0342248202588138,0.249925142613819,0.80395894485876,0.799375248884969,0.04,0.0486587874630411,383.601125452966,0.834206062662784,0.337879005456919
6446,0.249999847988367,0.25,0.249808460936715,0.249999861054678,-0.249999404594433,0.249996620846944,-1.59025128601418e-05,0.249999904627262,0.797404869531924,0.799375248884969,0.04,0.0605290287139498,380.438176052662,0.836458460453237,0.334190722238918
6506,0.249999746895693,0.249270560529835,0.0332247945308052,0.249999921264317,-0.249999660126526,0.249998085091062,-7.24796373361767e-06,0.0333353533376232,0.807332965496992,0.799375248884969,0.04,0.0481740011201596,385.347030754999,0.827121970728506,0.342323832865917
6566,0.249999614697581,0.248316678145773,-0.25,0.25,-0.249999994283879,0.249999999871832,-3.1598619333302e-06,-3.1598619333302e-06,0.804157851366891,0.799375248884969,0.04,0.0426115482385547,383.60494365354,0.781790214287629,0.36053600463107
6626,0.033333114995296,0.0327938672151433,-0.249685656936286,0.25,-0.0333333371430809,0.249785528998869,-0.000585968755380278,-0.000585968755380278,0.802276098090415,0.799375248884969,0.04,0.0330029967824486,382.793771873176,0.767496930384936,0.366473766891261
6686,-0.25,-0.249043654771065,-0.249274592929891,0.25,0.249999983733347,0.249505067088072,-0.0135030000087505,0.25,0.801555680150744,0.799375248884969,0.04,0.024514492591134,382.428281164791,0.76178829706086,0.368867490634923
6746,-0.0333333333333333,-0.249458071036937,-0.0329222693269383,0.249999908888434,0.24999999078223,0.249718666558568,-0.0402427623843067,0.0759026005401302,0.795260239602687,0.799375248884969,0.04,0.0316808077019043,379.343562103271,0.762766337128747,0.365422997744928
6806,0.25,-0.25,0.25,0.249999789742539,0.25,0.249997988943063,-0.0577968128807236,-0.0577968128807236,0.791684909258917,0.799375248884969,0.04,0.0439602482880705,377.792573580454,0.815320296969417,0.340470774654511
6866,0.249991209397907,-0.0340847295370477,0.25,0.106072298016827,0.0885516294532299,0.249998860401069,-0.0611199650559767,-0.0611199650559767,0.799151632146135,0.799375248884969,0.04,0.0424392945474705,381.329161226652,0.83242703616896,0.336595664170136
6926,0.249979713995171,0.248266008760659,0.25,-0.0821405757783348,-0.122573162800239,0.25,-0.0590376293720539,-0.0590376293720539,0.801462677439294,0.799375248884969,0.04,0.04445371245062,382.352369949632,0.81698266089921,0.343878974763554
6986,0.249966635621809,0.249017351872596,0.25,-0.154868571803342,0.0388732836912432,0.172202784210353,-0.0330070317843135,-0.0330532606868267,0.799601656866415,0.799375248884969,0.04,0.0468253554278537,381.463513117916,0.812616040924028,0.34492310694968
7046,0.249949533133567,0.249999877480514,0.25,-0.249974412759121,0.249995559872412,0.0704679635623534,0.249985757178478,0.249995768323681,0.791296128916895,0.799375248884969,0.04,0.0539641195129982,377.67486051126,0.888133330321645,0.312460112626439
7106,0.249971402109021,0.249999656397131,0.249999982048786,-0.116630607801315,0.249997483883808,0.148253740820558,0.24999116649057,0.249996993293023,0.796838932249319,0.799375248884969,0.04,0.0616507727973019,380.138733918553,0.901221700765517,0.309931101343804
7166,0.25,0.249999367288091,0.249999958574121,0.0577420602204306,0.24999999989871,0.24997360338898,0.249998240206383,0.249998595176009,0.796321772014584,0.799375248884969,0.04,0.0686402385964438,379.955649906721,0.924825862183894,0.301875325982676
7226,0.25,0.249999262232095,0.0344044633181046,0.141051915484643,0.249999999942602,0.24998504141921,0.249999002772855,0.249978979324975,0.799737725091512,0.799375248884969,0.04,0.0665839483656855,381.595720618648,0.930947876319069,0.301184630804296
7286,0.25,0.249999124851176,-0.247528107401302,0.249995572368613,0.25,0.249999998843357,0.249999999975165,0.24995332782747,0.801804273397296,0.799375248884969,0.04,0.0643507843407418,382.524746050834,0.915492348317435,0.307014928180293
7346,0.249990327842804,0.0333328404237087,-0.031932594194071,0.166435059499713,0.033333450478716,0.0333333326779023,0.175031489056532,0.249973552414337,0.810638538394606,0.799375248884969,0.04,0.0522234565958485,386.913078409262,0.884783282220104,0.32131513157312
7406,0.24997767963724,-0.249999993058365,0.25,0.057163619594229,-0.249999729664502,-0.25,0.0769957440090893,0.249999999951009,0.811080978834924,0.799375248884969,0.04,0.0378627734349563,386.834870218672,0.788976056182753,0.360260351438136
7466,0.249987324232669,-0.249999996066407,0.249999975510424,0.140726051103396,-0.249984184125667,-0.0333333333333333,-0.00645300247043864,0.249990235304371,0.800042079037975,0.799375248884969,0.04,0.042180905680222,381.514782167971,0.761685663329719,0.368035968551522
7526,0.249999936395921,-0.25,0.249999943485595,0.25,-0.249963855344114,0.25,-0.00423213632606163,0.249977466151076,0.795407269841344,0.799375248884969,0.04,0.0448509312274867,379.538886156437,0.793045330826347,0.35165187913511
7586,0.249999963944348,-0.0333333333333334,0.19537624624569,0.249999998113182,-0.249979493864299,0.249998946918177,-0.0019995114422787,0.249987217802276,0.796262250142325,0.799375248884969,0.04,0.0475345685226348,379.869869018066,0.807285354572977,0.345750207589127
7646,0.249999999969215,0.25,0.123945257547353,0.249999995645806,-0.249999944236848,0.249997569811179,-0.000944234028105584,0.249999969961538,0.796590325655711,0.799375248884969,0.04,0.0535376431188384,380.07649085939,0.828544928792418,0.337061865799267
7706,0.24999998453984,0.195360835458619,-0.038097654251661,0.0335621992444959,-0.0333333088930468,0.249998621245479,-0.000445758638821252,0.249999916649951,0.800192260163745,0.799375248884969,0.04,0.0473384433052736,381.829145475012,0.834240886232828,0.336304192142083
7766,0.249999964362966,0.123909620289121,-0.249999923527295,-0.24947184220337,0.249999983479616,0.249999996198026,-0.000583606923352602,0.249999846934798,0.802921280860399,0.799375248884969,0.04,0.0405944143294822,383.045316061601,0.811377469942794,0.346882098767515
7826,0.24999997980568,0.178525706247315,-0.249853233607071,-0.249657899643813,0.033333324674454,0.249999997821052,-0.000517995514256913,0.249999897008236,0.804900617542767,0.799375248884969,0.04,0.0378970947047125,384.069464921832,0.789969420769656,0.357235143226772
7886,0.25,0.249946741731108,-0.249661408326777,-0.249901205527467,-0.24999999837845,0.249999999943471,-0.00538826596576122,0.249999962488885,0.804182951843307,0.799375248884969,0.04,0.0347118032880082,383.62487622049,0.750346785403147,0.375663855386071
7946,0.0333335987695043,0.249963589258357,-0.158922207717188,-0.0333791801938918,-0.0483468629425137,0.033379236630538,0.102327924996047,0.0339411935836757,0.80289542858398,0.799375248884969,0.04,0.0333429847190851,383.070982071978,0.732025378497288,0.384510136793689
8006,-0.24999938745499,0.249985620640143,-0.04026325307388,0.249765006780784,0.215353391089095,-0.249894069240221,0.249988329517421,-0.0270923992220903,0.796514028681713,0.799375248884969,0.04,0.0333580724680759,380.032478311358,0.745822009652689,0.374403754033282
8066,-0.0334334631685127,0.24997122890182,0.0855101903629844,0.120627961812666,0.230366337216262,-0.0332984367799316,0.246585712385382,-0.0410040541862921,0.79041051550457,0.799375248884969,0.04,0.0445051004218034,376.967293519266,0.772071967610627,0.358757148475843
8126,0.249768130129189,0.249952408936321,0.249983154857346,-0.0482435585302583,0.249998651382558,0.249942005668139,0.242136136135792,0.135253463819098,0.787171006055164,0.799375248884969,0.04,0.0584358906059148,375.710623344228,0.870302347853941,0.317203518665511
8186,0.248691178368819,0.249972750259372,0.249990446947927,0.0809953019786899,0.249998721167777,0.249967136058692,0.0288776809066366,0.184973089495721,0.799605180343706,0.799375248884969,0.04,0.0592377901582169,381.55819299468,0.891769520776895,0.314385737027322
8246,0.247282856836027,0.249999350451054,0.249999982758688,0.249999965721161,0.249998812425372,0.249999998877107,-0.00746349400933119,0.249991061534383,0.796039873441581,0.799375248884969,0.04,0.0664650894410743,379.805030142001,0.907964270225851,0.307359492063768
8306,0.245497482815355,0.249723055509553,0.0333349372887956,0.0333538382760997,0.249965752326589,0.249993863701662,-0.00352522467082408,0.249113197038563,0.802596487277475,0.799375248884969,0.04,0.0567910112746121,383.032272584687,0.911655874068998,0.308715978961218
8366,0.243162762942168,0.249361746739897,-0.249996276017986,-0.249952636075134,0.249922519889719,0.249985840779926,-0.00167777978627142,0.247965220390183,0.8073471762597,0.799375248884969,0.04,0.0478449058762358,385.125536362785,0.857634780632117,0.329954919042052
8426,0.0784939513345772,0.249608341728488,-0.249995914711469,-0.249754593220744,0.24992652541239,0.0333254758038647,-0.00085375103638033,0.248846901646866,0.809424389133562,0.799375248884969,0.04,0.0396993613339322,386.265996279064,0.815718619910694,0.347937131391424
8486,-0.136842186921502,0.249930812098183,-0.249995442233714,-0.249495614103466,0.249931763403575,-0.249999616857139,-0.0100732093373096,0.249999869444067,0.808276003814149,0.799375248884969,0.04,0.0254095945618245,385.533360029071,0.743425245339136,0.381047691387751
8546,-0.00250985953413488,0.249850026742827,-0.249997417265771,-0.249658374084176,0.249960608371619,-0.249999774809755,0.0691267358078567,0.24999310415522,0.797023693221695,0.799375248884969,0.04,0.0290848774284906,380.160225308633,0.729067366740467,0.383136646026647
8606,0.17315549166473,0.249744384355054,-0.25,-0.249871214058951,0.249998328714447,-0.249999981363176,0.189486168429599,0.249984257239036,0.795871218573288,0.799375248884969,0.04,0.0340822460904814,379.77130946028,0.762109906328542,0.36615015427587
8666,0.206454511872236,0.0337456502309805,-0.25,-0.249870846003407,0.129304002113579,-0.0333426122215619,0.215708828776773,0.249991079102121,0.800117279925458,0.799375248884969,0.04,0.0325064429983569,381.777949596433,0.765820341260323,0.366301434820445
8726,0.249999384451282,-0.248714232854347,-0.25,-0.249870364700003,-0.0285270403644782,0.24997856280978,0.25,0.25,0.800316378061251,0.799375248884969,0.04,0.030917521410711,381.804929726682,0.7531010084405,0.37251432545336
8786,0.0333333333672495,-0.249221814172244,-0.25,-0.249926539996669,-0.124498656206538,0.249970222807089,0.0333399258996335,0.0333333333333333,0.819191916982799,0.799375248884969,0.04,0.0108093612355397,391.110829824684,0.712498986060036,0.403339046544707
8846,-0.249999194973409,-0.249885574357186,-0.25,-0.25,-0.25,0.249959316649724,-0.179402560480609,-0.179402560480609,0.791179623782837,0.799375248884969,0.04,8.39218997766825e-10,377.290573057926,0.673295086120177,0.411742014939334
8906,-0.0333620097533134,-0.249935158802405,-0.0334319364725726,-0.249942885256248,-0.0333516737299058,0.249963975652725,-0.115712921907834,-0.24997423776595,0.808719459547774,0.79261756378884,0.04,1.12788870886846e-05,386.119845643956,0.706429132775663,0.401613404038514
8966,0.249932770919119,-0.25,0.249772454294063,-0.249868196745188,0.24995767600791,0.249970068195112,0.0598733624090636,-0.249940548690653,0.767070905089788,0.777022905874698,0.04,0.0403928809343121,366.040039954123,0.78090234409127,0.344418557812116
9026,0.249948036346782,-0.249961678403345,0.249866220171079,-0.24992316388022,0.24993103351902,0.249983036924985,0.142261113661863,-0.249904103420261,0.760421774024074,0.761428247960555,0.04,0.0500427237711043,362.680142407824,0.791449950932424,0.336709211211141
9086,0.249967998829111,-0.249911565546181,0.249988837087178,-0.249995043979878,0.249896193341241,0.24999999603328,0.249998942223216,-0.249856444220516,0.748495545013234,0.745833590046412,0.04,0.0590296791715266,357.025045970691,0.786184385534312,0.333679054325188
9146,0.249981865908347,-0.24994988605719,0.249993674349401,-0.249992940644067,0.249941082595986,0.249983349537937,0.0523732435870642,-0.0332519856134184,0.734308068021645,0.73023893213227,0.04,0.064963089058706,350.208349639353,0.759877915134424,0.338639294026853
9206,0.249999999781194,-0.249999997494664,0.25,-0.249990190128007,0.249999783929114,0.249961581044027,-0.20606036232175,0.24999999871894,0.723145649675291,0.721401959314255,0.04,0.0647842222822706,344.996894268715,0.741799098836521,0.34173035707043
9266,0.249999999873341,-0.249999714891386,0.033334752956921,-0.0333281626204773,0.249999877559831,0.249978229258282,-0.0084342053156584,0.249999999274066,0.717636112937143,0.721401959314255,0.04,0.0626982655630502,342.321345136768,0.745959995545199,0.337188782815009
9326,0.24999999999384,-0.249999345333253,-0.249996723945567,0.249999104120139,0.25,0.25,0.25,0.25,0.71908145933482,0.721401959314255,0.04,0.0576997547103547,343.1248747854,0.773509984838374,0.325942472340875
9386,0.249994648249816,-0.249999628880182,-0.249998143569154,0.249999492334745,0.249999971056211,0.0333333659058286,0.0333333355027306,0.249999601194224,0.731231947885889,0.721401959314255,0.04,0.0458433084674894,349.02217566824,0.753536310675887,0.340332569914638
9446,0.249987649815322,-0.249999999672321,-0.25,0.25,0.249999933206641,-0.249999924832703,-0.0835545627520674,0.249999079678978,0.727635563423285,0.721401959314255,0.04,0.0396604689270948,347.066677019233,0.688751204274238,0.370258658025373
9506,0.249991805468402,-0.0333333331476484,-0.25,0.0333333333333334,0.24999996215043,-0.249999957405198,-0.0723225270375669,0.242851777635689,0.722849603341577,0.721401959314255,0.04,0.0364422798473731,344.862627726358,0.675251726164727,0.375262447074742
9566,0.249997239783968,0.25,-0.25,-0.25,0.25,-0.25,-0.072048749167124,0.233505305732925,0.722423985681959,0.721401959314255,0.04,0.0354792697582937,344.666506078849,0.668665742559108,0.378743060468562
9626,0.249998435877582,0.249997844571966,-0.0334022697210813,-0.25,0.115028551415504,-0.249999392144592,-0.0785135214179068,0.240652874764266,0.724783445200728,0.728750140728188,0.04,0.0351411609754336,345.87786604332,0.67529613876294,0.376342426413893
9686,0.25,0.249995025935306,0.249840916028274,-0.25,-0.0614725736565284,-0.24999859725675,-0.0887209927483153,0.249999695805251,0.738839450493223,0.745707482452647,0.04,0.032297337470725,352.631738931126,0.713663744367431,0.363063375279232
9746,0.0333364025567078,0.249996794741467,0.249909852416022,-0.0333333409366816,-0.143167791738699,-0.249999205112159,0.053244887619356,0.033351793524879,0.759677836469092,0.762664824177105,0.04,0.0248810902379081,362.638912162974,0.747302299574949,0.356560114787128
9806,-0.249992917176828,0.249999107795677,0.25,0.249999982453812,-0.25,-0.25,0.249999996968545,-0.135662608528688,0.774653086262762,0.779622165901564,0.04,0.0213938705629261,369.723093548507,0.77093028316504,0.352383973856976
9866,-0.0333310329845345,0.0333331928784588,0.0506461874540278,0.249999877064357,-0.249286156382216,-0.090888853641315,0.0333333316155089,-0.0333089676667416,0.792721069152814,0.796579507626023,0.04,0.0170851651218618,378.330116605252,0.796128552785812,0.349174395995816
9926,0.249996046343849,-0.249999157397903,-0.210047259721474,0.249999739247378,-0.248352668574345,0.117179568520042,-0.226604895079837,0.25,0.808013671110218,0.813536849350482,0.04,0.0173679526979345,385.658567235498,0.831531735291782,0.340783713499634
9986,0.249996215233951,-0.249999339649034,-0.0106954776443049,0.249989166237951,-0.0324003888528466,-0.0419315778386427,-0.249999526880947,0.0333424907817057,0.825631310148523,0.830494191074941,0.04,0.0214012817985297,394.062067109052,0.862679889282938,0.335636847683945
10046,0.249996436090238,-0.249999577977435,0.249995314302763,0.249975339994855,0.249998746167574,-0.25,-0.2499989081868,-0.249978867426833,0.842235605352511,0.8474515327994,0.04,0.0289606142449165,401.937719512326,0.887060989106732,0.332935388640164
10106,0.0333313137844684,-0.24999976085388,0.249997344760132,0.0333193593304179,0.033332622828292,-0.249919209353061,-0.249976461155208,-0.249988024875205,0.869847867752492,0.864408874523859,0.04,0.0122808247367438,415.405624542048,0.901980611633011,0.338399604252591
10166,-0.25,-0.25,0.249999999973614,-0.25,-0.25,-0.249813560045526,-0.249947107344665,-0.25,0.891701076702916,0.881366216248318,0.04,0.000137937485897939,425.495122026136,0.812834650490949,0.384633452263457
10226,-0.24994894371364,-0.0333333333333334,0.24999104215688,-0.25,-0.0333333755926594,-0.24989054546934,-0.249969288770109,-0.0333333611230947,0.877274204363595,0.898323557972777,0.04,0.0162802840766336,418.232266539852,0.841600987930848,0.365145518789672
10286,-0.249882177800707,0.25,0.249979328088844,-0.25,0.249999902478478,-0.249991218715866,-0.249998295249535,0.249999935869781,0.896413026228682,0.915280899697236,0.04,0.0274913848821409,428.014292137391,1.01429083073012,0.310063359272489
10346,-0.0332669696341421,0.25,0.0333216192749014,-0.249991846697109,0.249945627470599,-0.0333291652956346,-0.0333323773174334,0.249999963659543,0.912959001878281,0.932238241421695,0.04,0.0397431400670229,435.607947293037,1.10439983385398,0.289817187876573
10406,0.249999071814442,0.25,-0.249999999943331,-0.249981184685636,0.249874652460296,0.249998135330821,0.249999976901468,0.25,0.936109463587431,0.949195583146153,0.04,0.050866606103842,446.883571629116,1.21687708372544,0.269837530197088
10466,0.249999474028184,0.033333333333333,-0.093265361038497,-0.249709568820481,0.0333007870855274,0.249998930348024,0.24999992670214,0.249999985454791,0.967122519964493,0.966152924870612,0.04,0.0510361973786764,461.66314426104,1.24367642918974,0.272754847617527
10526,0.25,-0.25,0.111695320606286,-0.249354378842971,-0.249911190712246,0.249999969985906,0.249999861056865,0.249999966434133,0.980744353850724,0.968661380896102,0.04,0.0541548428954363,467.825911232765,1.19107695793456,0.288601859786937
10586,0.0333333333333335,-0.150989100095301,-0.0450208862634913,-0.249377580795669,-0.24994967473694,0.249433881521705,0.119183179461612,0.151708046705397,0.976746617499464,0.952275140238325,0.04,0.0555715904491562,466.032472037927,1.08486454399879,0.315642401527597
10646,-0.25,-0.021513307912232,-0.249957464477816,-0.249407921810735,-0.25,0.248693611991595,-0.0518847887783337,0.0231724593678196,0.957367659405347,0.935888899580548,0.04,0.0514643230632122,456.460007873388,0.918709801353629,0.365072449659521
10706,-0.249999828545211,0.0961421396367936,-0.0333094866383406,-0.249657984981015,-0.24988834702157,0.0325930467952372,0.0789319526495963,-0.0858038703024761,0.927949905837821,0.919502658922771,0.04,0.0534465338620037,442.509734615936,0.842605527666343,0.385880827745383
10766,-0.249999604335103,0.24999926335475,0.249999407459435,-0.249984990665229,-0.249742339280547,-0.25,0.249999999132274,-0.228311378332863,0.908081448147168,0.903116418264994,0.04,0.0532495088516583,433.125652465764,0.810745689711991,0.392540014353953
10826,-0.249999723870442,0.24999946293852,0.0333335730861726,-0.105831028772318,-0.0331881716601744,-0.0333927003520725,0.249990294056206,-0.0210432682381175,0.878053800356836,0.886730177607217,0.04,0.0604021048010476,418.619018413202,0.810332010030784,0.379586393418464
10886,-0.249999880185885,0.249999723932681,-0.249998671863479,0.0826779983184123,0.249998047535697,0.249862999187525,0.249977602802887,0.249999644962703,0.865869016508262,0.87034393694944,0.04,0.0624708024250084,413.102720314573,0.872972888037856,0.347705832034365
10946,-0.249883454911012,0.0573355030857306,-0.0734958602440406,-0.0614824675454853,0.203996576681387,0.249922366206264,0.249985117767217,0.249999798812198,0.859974861920368,0.853957696291663,0.04,0.0592133343014541,410.253418192844,0.857983987207198,0.351340084940088
11006,-0.249731206474639,-0.194610016483358,0.157315508796763,-0.249999999829044,0.143840807102674,0.25,0.249994945028264,0.25,0.84527013217431,0.837571455633886,0.04,0.0576435713042346,403.094803307975,0.802123305507846,0.36925020126547
11066,-0.0333372241159786,-0.101398280101287,0.197478788318166,-0.0333389907183422,-0.0268093807623056,0.249989776016116,0.249933918482851,0.25,0.819264608656321,0.821185214976109,0.04,0.0670736592682909,390.638933065677,0.780561943018763,0.36772472202138
11126,0.249639522045346,0.02049399055219,0.25,0.249986944272575,-0.249967318739586,0.249976406191037,0.24985411453885,0.25,0.804105835027194,0.804798974318332,0.04,0.0786598562546311,383.582184335888,0.79900745544118,0.352746141991803
11186,0.249795724849188,-0.0967200720204257,0.249998846021475,0.249992601754459,-0.249844616100943,0.249985101508263,0.033261331351186,0.249997480612695,0.799221629984022,0.788412733660555,0.04,0.067998398413534,381.29834062327,0.765655560424871,0.365920002895628
11246,0.249999990054213,-0.25,0.249997336972634,0.25,-0.249684158804255,0.249996472307712,-0.0506704796402181,0.249994186029296,0.778066838645975,0.772026493002777,0.04,0.0630749579823362,371.026785637361,0.70593992313281,0.386182150692821
11306,0.03343771676479,-0.0861196080729978,0.249998489120627,0.0804373973800707,-0.24981595923266,0.249997915805088,-0.0239374583644833,0.247567132838701,0.761015129100381,0.755640252345,0.04,0.0538745406148956,362.999344477995,0.680550488679143,0.391922473048202
11366,-0.249759102152148,0.128185519831544,0.249999995775695,-0.141298313738298,-0.249988313639036,0.249999803455503,-0.011331497966254,0.244393294050999,0.745297064872294,0.739254011687223,0.04,0.042367483000384,355.39846801216,0.635888233610529,0.410666653083357
11426,-0.249803446471449,0.180971794571208,0.249904804150478,-0.188402377785036,-0.249993377728787,0.0333332219581187,-0.00641319485189325,0.246822308263655,0.72910225350532,0.722867771029446,0.04,0.0308984867716527,347.760478855763,0.607164945620102,0.420850852891772
11486,-0.249861435196689,0.25,0.249780322794424,-0.25,-0.25,-0.25,-0.0227459584578561,0.24999871146482,0.711782057869476,0.706481530371669,0.04,0.0180749336753391,339.499199531501,0.56306221235905,0.443033991552714
11546,-0.0332584829529345,0.0333333342927843,0.249873940388522,-0.0333333334332821,-0.0333333333333333,-0.149278020120107,0.0842900916180694,0.183909688548534,0.680210179512895,0.690095289713892,0.04,0.0410825899946516,324.252181569596,0.566368310155809,0.420667187190812
11606,0.249991531519668,-0.249999997785882,0.249996363396188,0.249999999769349,0.25,-0.0175646618156311,0.249999792151211,0.097485581658007,0.665762313562667,0.673709049056115,0.04,0.0603813570969131,317.635312497494,0.641535179450704,0.36380023736494
11666,0.135339980917116,-0.186565868459781,0.24999793925784,0.24999999984716,0.249964413982405,0.0980779833535009,0.24999988221902,0.0967413351287494,0.656484296995615,0.657322808398338,0.04,0.0644536999750143,313.086600772053,0.651531181233399,0.353088808616262
11726,-0.0145889698708361,-0.103613545494879,0.25,0.249999999948912,0.249917878420934,0.249302980882366,0.25,0.0957680896674125,0.64200110988153,0.640936567740561,0.04,0.0691951549236594,306.181416008685,0.649929729299501,0.34615220341535
11786,-0.116597096281357,0.0494425065896555,0.249994534935655,0.0712616108921409,0.24995344177074,0.249341128369766,0.249999330704602,-0.00855350864803339,0.630927748413682,0.624550327082784,0.04,0.0678273790044147,300.823694958959,0.629214788430842,0.351291625179083
11846,-0.2499923385105,0.249592728546354,0.24998738831305,-0.162473205566713,0.249999947689719,0.249391013545596,0.249998455472159,-0.0040401084063681,0.612500372554801,0.608164086425007,0.04,0.0676638352354081,292.064592467917,0.598753623765693,0.358414384558552
11906,-0.249995658489283,0.249750846518153,0.249992737564601,0.016265183512196,0.249999970357507,0.249654757701958,0.0333329969669596,-0.00190813920829219,0.598814602804926,0.59177784576723,0.04,0.0685618226601132,285.617384750731,0.570651346221921,0.367763368259889
11966,-0.25,0.249957616173582,0.249999732739705,0.25,0.25,0.24999965390643,-0.000901073132433499,-0.000901073132433499,0.57535453482378,0.575391605109453,0.04,0.0774266007558757,274.361474009592,0.557526531081576,0.361586547598776
12026,-0.25,0.249945322155142,0.2499998485525,0.0333335081992485,0.249999808826558,0.249999803880311,-0.00042537097205059,-0.00042537097205059,0.560980682892637,0.559005364451676,0.04,0.065607134718087,267.556734210062,0.553800917560811,0.354990631360135
12086,-0.25,0.249929245361798,0.25,-0.249999596463273,0.249999558830519,0.25,0.249999080800262,0.119212291258607,0.541943995959722,0.542619123793898,0.04,0.0638353540440455,258.504891498734,0.566241639006065,0.335445244382598
