time,bias_percent_1,bias_percent_2,bias_percent_3,bias_percent_4,bias_percent_5,bias_percent_6,bias_percent_8,bias_percent_9,normalized_power,power_SP,SP,CV,total_power_MW,fuel_fraction,thermal_efficiency
15,0,0,0,0,0,0,0,0,0.999470485079707,1,0.04,0.0402002798448959,476.783786971899,0.998904838424164,0.350713140531217
75,0.00359931208522926,0.0055967112173322,0.00245880379343862,0.00513481890565004,-0.00326844905250482,0.00754256139549818,0.00891971377549817,0.00580591176207213,0.996702654188133,0.993538591749368,0.04,0.0420439645935727,475.388485347378,0.993609472566916,0.351550412057139
135,0.0179965604261464,0.0279835560866609,0.0122940189671926,0.0256740945282498,-0.0163422452625242,0.0377128069774908,0.0445985688774907,0.0290295588103606,0.973684553168306,0.967692958746842,0.04,0.0517013959711138,464.342777649696,0.958804755843363,0.355846904028164
195,0.0323938087670634,0.0503704009559894,0.0221292341409466,0.0462133701508498,-0.0294160414725435,0.0678830525594833,0.0802774239794834,0.052253205858649,0.947769451665033,0.941847325744316,0.04,0.0591318831965729,451.972816095524,0.921568229474364,0.360362421828422
255,0.0467910571079806,0.072757245825318,0.0319644493147007,0.0667526457734498,-0.0424898376825628,0.098053298141476,0.115956279081476,0.0754768529069374,0.921583167142267,0.91600169274179,0.04,0.064360658958087,439.479300164351,0.886104817890714,0.364424865909517
315,0.0611883054488977,0.0951440906946466,0.0417996644884548,0.0872919213960497,-0.0555636338925823,0.128223543723469,0.151635134183469,0.0987004999552259,0.895527698946874,0.890156059739264,0.04,0.068129284230907,427.050371485449,0.85230827654644,0.368160401108331
375,0.0755855537898148,0.117530935563975,0.0516348796622088,0.10783119701865,-0.0686374301026017,0.158393789305461,0.187313989285461,0.121924147003514,0.869689177942472,0.864310426736738,0.04,0.0711307343326083,414.723437599087,0.818794780853134,0.372167281574216
435,0.0899828021307319,0.139917780433304,0.0614700948359629,0.12837047264125,-0.081711226312621,0.188564034887454,0.222992844387454,0.145147794051803,0.843873814801357,0.838464793734212,0.04,0.0735856970584741,402.40688464942,0.785107439396788,0.376609252917709
495,0.104380050471649,0.162304625302633,0.071305310009717,0.148909748263849,-0.0947850225226402,0.218734280469447,0.258671699489446,0.168371441100091,0.817989948710492,0.812619160731686,0.04,0.0755859134542057,390.048652226619,0.751370890709075,0.381433727541161
555,0.118777298812566,0.184691470171961,0.081140525183471,0.169449023886449,-0.10785881873266,0.248904526051439,0.294350554591439,0.19159508814838,0.790404163919521,0.78677352772916,0.04,0.0783037492086715,376.881811078681,0.72431985585142,0.382322153502525
615,0.133174547153483,0.20707831504129,0.0909757403572251,0.189988299509049,-0.120932614942679,0.279074771633432,0.330029409693432,0.214818735196668,0.763162899267681,0.760927894726634,0.04,0.0814358853825,363.89202649888,0.707208732563944,0.378076427987853
675,0.1475717954944,0.229465159910618,0.100810955530979,0.210527575131649,-0.134006411152698,0.309245017215424,0.365708264795424,0.238042382244957,0.736726711170532,0.735082261724108,0.04,0.0854011872725527,351.284468535954,0.695163991411294,0.371301203362053
735,0.161969043835317,0.251852004779947,0.110646170704733,0.231066850754249,-0.147080207362718,0.339415262797417,0.401387119897417,0.261266029293245,0.710766299923185,0.709236628721582,0.04,0.0902501228327058,338.901275300592,0.6846167047784,0.363731059453751
795,0.176366292176235,0.274238849649275,0.120481385878487,0.251606126376849,-0.160154003572737,0.369585508379409,0.437065974999409,0.284489676341534,0.685010926121614,0.683390995719056,0.04,0.0957094962143554,326.614262697812,0.673844712029949,0.356147579764386
855,0.190763540517152,0.296625694518604,0.130316601052241,0.272145401999449,-0.173227799782757,0.399755753961402,0.472744830101402,0.307713323389822,0.659308736030161,0.65754536271653,0.04,0.101474704826261,314.351818566042,0.662270437420584,0.348766918412939
915,0.201561476772839,0.313415828170601,0.137693012432557,0.287549858716399,-0.183033146940271,0.422383438147897,0.499503971427896,0.325131058676038,0.635788055320186,0.638161137964635,0.04,0.104795880214164,303.252071878219,0.658103798177573,0.338582147884453
975,0.201561476772839,0.313415828170601,0.137693012432557,0.287549858716399,-0.183033146940271,0.422383438147897,0.499503971427896,0.325131058676038,0.632069481551983,0.638161137964635,0.04,0.0964321201792976,301.563878624604,0.692452258338132,0.319995713467744
1035,0.201561476772839,0.313415828170601,0.137693012432557,0.287549858716399,-0.183033146940271,0.422383438147897,0.499503971427896,0.325131058676038,0.633498166117874,0.638161137964635,0.04,0.0911342206642753,302.256107878215,0.723982643423859,0.30676203300371
1095,0.201561476772839,0.313415828170601,0.137693012432557,0.287549858716399,-0.183033146940271,0.422383438147897,0.499503971427896,0.325131058676038,0.635097594943187,0.638161137964635,0.04,0.0893158218790207,303.015848099684,0.745423929332441,0.298687253397625
1155,0.201561476772839,0.313415828170601,0.137693012432557,0.287549858716399,-0.183033146940271,0.422383438147897,0.499503971427896,0.325131058676038,0.636214652715467,0.638161137964635,0.04,0.0890919557376846,303.545087442177,0.759158407748349,0.293795729459858
1215,0.201561476772839,0.313415828170601,0.137693012432557,0.287549858716399,-0.183033146940271,0.422383438147897,0.499503971427896,0.325131058676038,0.636930324364724,0.638161137964635,0.04,0.0893834993021436,303.883897841477,0.767844341517513,0.290796500921804
1275,0.201561476772839,0.313415828170601,0.137693012432557,0.287549858716399,-0.183033146940271,0.422383438147897,0.499503971427896,0.325131058676038,0.637375829145081,0.638161137964635,0.04,0.0897529985071832,304.094758565907,0.773363153069663,0.288921682105687
1335,0.201561476772839,0.313415828170601,0.137693012432557,0.287549858716399,-0.183033146940271,0.422383438147897,0.499503971427896,0.325131058676038,0.637652489723898,0.638161137964635,0.04,0.0900608583516855,304.22572137404,0.776917327281073,0.287723807255831
1395,0.201561476772839,0.313415828170601,0.137693012432557,0.287549858716399,-0.183033146940271,0.422383438147897,0.499503971427896,0.325131058676038,0.637826851035196,0.638161137964635,0.04,0.090284127110222,304.308286129425,0.779241329487955,0.286943555773645
1455,0.201561476772839,0.313415828170601,0.137693012432557,0.287549858716399,-0.183033146940271,0.422383438147897,0.499503971427896,0.325131058676038,0.637939069334534,0.638161137964635,0.04,0.0904366170357667,304.361442882472,0.780779738879448,0.286428201237201
1515,0.201561476772839,0.313415828170601,0.137693012432557,0.287549858716399,-0.183033146940271,0.422383438147897,0.499503971427896,0.325131058676038,0.638012638055447,0.638161137964635,0.04,0.0905381610247525,304.39630054836,0.781806350104212,0.286084845306397
1575,0.201561476772839,0.313415828170601,0.137693012432557,0.287549858716399,-0.183033146940271,0.422383438147897,0.499503971427896,0.325131058676038,0.638061466507396,0.638161137964635,0.04,0.0906052180624454,304.419439642457,0.782494604896581,0.285854943112975
1635,0.201561476772839,0.313415828170601,0.137693012432557,0.287549858716399,-0.183033146940271,0.422383438147897,0.499503971427896,0.325131058676038,0.638094089292267,0.638161137964635,0.04,0.0906494636439106,304.434900155642,0.782957246107165,0.28570054353243
1695,0.201561476772839,0.3134158281706,0.137693012432557,0.287549858716399,-0.183033146940271,0.422383438147897,0.499503971427896,0.325131058676038,0.638115945540212,0.638161137964635,0.04,0.0906786974333417,304.445258502406,0.783268848697065,0.285596602248603
1755,0.201561476772839,0.313415828170601,0.137693012432557,0.287549858716399,-0.183033146940271,0.422383438147897,0.499503971427896,0.325131058676038,0.638130599958169,0.638161137964635,0.04,0.0906980286405399,304.452203710226,0.783479198325306,0.285526438330315
1815,0.20585006433414,0.310295639595279,0.141483828151017,0.279430852006457,-0.180859433403698,0.409763423899789,0.498548008531325,0.321595199459756,0.638643810522181,0.638719914532993,0.04,0.0900472050448001,304.717177914633,0.78385383583478,0.285638356700743
1875,0.223004414579343,0.297814885293995,0.156647091024858,0.246954825166691,-0.172164579257406,0.359283366907357,0.494724156945041,0.307451762594629,0.641262769774849,0.640955020806424,0.04,0.0877355069425079,305.967026696998,0.782877914165675,0.287167482665146
1935,0.240158764824546,0.28533413099271,0.1718103538987,0.214478798326925,-0.163469725111115,0.308803309914925,0.490900305358757,0.293308325729501,0.643786448444457,0.643190127079854,0.04,0.0856849413192267,307.170091703228,0.779940920787502,0.28938225516831
1995,0.25731311506975,0.272853376691426,0.186973616772541,0.182002771487159,-0.154774870964823,0.258323252922493,0.487076453772473,0.279164888864374,0.64620047988342,0.645425233353284,0.04,0.0836850085270702,308.321105906964,0.775722575336422,0.292046160333126
2055,0.274467465314953,0.260372622390141,0.202136879646382,0.149526744647393,-0.146080016818532,0.207843195930061,0.483252602186189,0.265021451999246,0.648543258772214,0.647660339626715,0.04,0.0816409855852927,309.438423400013,0.770730971516023,0.295002777299467
2115,0.291621815560156,0.247891868088856,0.217300142520223,0.117050717807627,-0.13738516267224,0.157363138937629,0.479428750599905,0.250878015134119,0.650845908658858,0.649895445900145,0.04,0.0795265621468069,310.536787296328,0.765263970438505,0.298164864491917
2175,0.308776165805359,0.235411113787571,0.232463405394064,0.0845746909678611,-0.128690308525948,0.106883081945197,0.47560489901362,0.236734578268992,0.65312673287779,0.652130552173576,0.04,0.0773419150565452,311.624842235299,0.759484425226249,0.301486503962322
2235,0.325930516050562,0.222930359486287,0.247626668267906,0.0520986641280953,-0.119995454379657,0.0564030249527655,0.471781047427336,0.222591141403864,0.655395312751685,0.654365658447006,0.04,0.075093599744694,312.70710842944,0.75348227515558,0.304943506240853
2295,0.343084866295765,0.210449605185002,0.262789931141747,0.019622637288329,-0.111300600233365,0.00592296796033349,0.467957195841052,0.208447704538737,0.65765658430738,0.656600764720437,0.04,0.0727875666245754,313.785915776961,0.74730990731926,0.308522884339272
2355,0.360239216540968,0.197968850883718,0.277953194015588,-0.012853389551437,-0.102605746087073,-0.0445570890320985,0.464133344254768,0.194304267673609,0.659911694416585,0.658835870993867,0.04,0.0704330769498252,314.860951007424,0.740991644224002,0.312219603919626
2415,0.377393566786171,0.185488096582433,0.293116456889429,-0.045329416391203,-0.0939108919407815,-0.0950371460245303,0.460309492668484,0.180160830808482,0.662165159572259,0.661070977267298,0.04,0.0680159162928039,315.936872400923,0.734570590116529,0.316025010376965
2475,0.394547917031375,0.173007342281148,0.30827971976327,-0.077805443230969,-0.0852160377944898,-0.145517203016962,0.4564856410822,0.166017393943354,0.664417204494641,0.663306083540728,0.04,0.0655521242901678,317.011362536091,0.72804328749543,0.319942771821644
2535,0.411702267276578,0.160526587979864,0.323442982637112,-0.110281470070735,-0.0765211836481982,-0.195997260009394,0.452661789495916,0.151873957078227,0.666667721915996,0.665541189814159,0.04,0.0630369201565857,318.085072703657,0.721421712662305,0.323972954025822
2595,0.428856617521781,0.148045833678579,0.338606245510953,-0.142757496910501,-0.0678263295019065,-0.246477317001826,0.448837937909632,0.137730520213099,0.668913817781801,0.667776296087589,0.04,0.0604691564963086,319.157187120869,0.71470933692827,0.328117844075352
2655,0.446010967766984,0.135565079377294,0.353769508384794,-0.175233523750267,-0.0591314753556148,-0.296957373994258,0.445014086323347,0.123587083347972,0.671160349336735,0.67001140236102,0.04,0.0578463051471036,320.228597538748,0.707914348973954,0.332379380721477
2715,0.458876730450886,0.126204513651331,0.365141955540175,-0.199590543880092,-0.052610334745896,-0.334817416738582,0.442146197633634,0.112979505699126,0.673015704778938,0.67224650863445,0.04,0.0558003676053775,321.09901843008,0.701630265278348,0.336267844406003
2775,0.458876730450887,0.126204513651331,0.365141955540175,-0.199590543880092,-0.052610334745896,-0.334817416738582,0.442146197633634,0.112979505699126,0.674288493802111,0.674481614907881,0.04,0.054900718211488,321.718085243853,0.701649519775141,0.336906910573095
2835,0.458876730450886,0.126204513651331,0.365141955540175,-0.199590543880092,-0.052610334745896,-0.334817416738582,0.442146197633634,0.112979505699126,0.676404635826259,0.676716721181311,0.04,0.0541181491732221,322.730520239399,0.703543253176134,0.337057435186848
2895,0.458876730450886,0.126204513651331,0.365141955540175,-0.199590543880092,-0.052610334745896,-0.334817416738582,0.442146197633634,0.112979505699126,0.678671274948247,0.678951827454742,0.04,0.0537039580149843,323.812058038099,0.705407196107809,0.337293372204333
2955,0.458876730450886,0.126204513651331,0.365141955540175,-0.199590543880092,-0.052610334745896,-0.334817416738582,0.442146197633634,0.112979505699126,0.68091939670756,0.681186933728172,0.04,0.053485421743297,324.884412445109,0.707136394058927,0.337582839351068
