time,bias_percent_1,bias_percent_2,bias_percent_3,bias_percent_4,bias_percent_5,bias_percent_6,bias_percent_8,bias_percent_9,normalized_power,power_SP,SP,CV,total_power_MW,fuel_fraction,thermal_efficiency
15,0,0,0,0,0,0,0,0,0.999470485079707,1,0.04,0.0402002798448959,476.783786971899,0.998904838424164,0.350713140531217
75,-0.00520645091755955,0.00401267445603867,-0.0030261819031914,-0.00326179097244585,6.73264640757907e-05,0.000895590930988305,0.00641140793591296,0.0018508013807251,0.999629101091037,0.999666461991166,0.04,0.0399973409716994,476.915974900854,1.00008118837524,0.350397733206594
135,-0.0260322545877975,0.0200633722801937,-0.0151309095159567,-0.0163089548622288,0.00033663232037884,0.00447795465494187,0.032057039679565,0.00925400690362562,0.998464287067855,0.998332309955829,0.04,0.0402984605221951,476.357393996825,0.999467564967618,0.350202209782298
195,-0.0468580582580355,0.0361140701043485,-0.027235637128722,-0.029356118752012,0.000605938176681889,0.00806031837889532,0.057702671423217,0.0166572124265261,0.99719756536582,0.996998157920493,0.04,0.040587627852084,475.752791711066,0.998327700105041,0.350157070533319
255,-0.0676838619282735,0.0521647679285032,-0.0393403647414873,-0.042403282641795,0.000875244032984938,0.0116426821028488,0.0833483031668691,0.0240604179494266,0.99591317943628,0.995664005885156,0.04,0.0408258369458782,475.139921891287,0.996862429364997,0.350220021217491
315,-0.0885096655985116,0.0682154657526581,-0.0514450923542527,-0.055450446531578,0.00114454988928787,0.0152250458268023,0.108993934910521,0.031463623472327,0.994618548694232,0.99432985384982,0.04,0.0410141656247323,474.522175878052,0.99513967426851,0.350370189766519
375,-0.10933546926875,0.084266163576813,-0.063549819967018,-0.0684976104213612,0.00141385574559104,0.0188074095507558,0.134639566654173,0.0388668289952275,0.993314412473398,0.992995701814483,0.04,0.041157418280063,473.899899890429,0.993217658428757,0.350587849906697
435,-0.130161272938988,0.100316861400968,-0.0756545475797833,-0.0815447743111442,0.00168316160189408,0.0223897732747092,0.160285198397825,0.0462700345181279,0.992001631907454,0.991661549779147,0.04,0.0412610693277609,473.273507745693,0.991150217440003,0.350854774208572
495,-0.150987076609226,0.116367559225123,-0.0877592751925486,-0.0945919382009273,0.00195246745819702,0.0259721369986627,0.185930830141477,0.0536732400410284,0.990681306421896,0.990327397743811,0.04,0.0413307924140204,472.643525156991,0.988984905717087,0.351154894233042
555,-0.171812880279464,0.132418257049277,-0.0998640028053139,-0.10763910209071,0.00222177331450007,0.0295545007226162,0.211576461885129,0.0610764455639289,0.989354491460215,0.988993245708474,0.04,0.0413720230579237,472.010453801874,0.986762758820645,0.351474274371894
615,-0.192638683949702,0.148468954873432,-0.111968730418079,-0.120686265980493,0.00249107917080323,0.0331368644465697,0.237222093628781,0.0684796510868294,0.988022096981657,0.987659093673138,0.04,0.0413896377559225,471.374727378143,0.984519054544333,0.351800817692779
675,-0.21346448761994,0.164519652697587,-0.124073458030845,-0.133733429870277,0.00276038502710628,0.0367192281705233,0.262867725372433,0.0758828566097299,0.986684937134476,0.986324941637801,0.04,0.0413878452940832,470.736733729061,0.982284017504502,0.352124049812997
735,-0.234290291290178,0.180570350521742,-0.13617818564361,-0.14678059376006,0.00302969088340922,0.0403015918944765,0.288513357116085,0.0832860621326303,0.985343722762181,0.984990789602465,0.04,0.0413701936286383,470.096810287366,0.980083350780702,0.352434949495066
795,-0.255116094960415,0.196621048345897,-0.148282913256375,-0.159827757649843,0.00329899673971238,0.04388395561843,0.314158988859737,0.0906892676555307,0.983998849773861,0.983656637567128,0.04,0.0413395233924981,469.455142879698,0.977939561790455,0.352725422112386
855,-0.275941898630654,0.212671746170052,-0.160387640869141,-0.172874921539626,0.00356830259601531,0.0474663193423835,0.339804620603389,0.0980924731784313,0.982650021397086,0.982322485531792,0.04,0.0412977020204081,468.811581369837,0.975875359409448,0.352986954913042
915,-0.291561251383332,0.224709769538168,-0.169466186578715,-0.182660294456963,0.00377028198824269,0.0501530921353487,0.359038844411128,0.103644877320606,0.981528866186135,0.981321871505289,0.04,0.0411235006195017,468.278571422282,0.974075528547595,0.353237114319604
975,-0.291561251383332,0.224709769538168,-0.169466186578715,-0.182660294456963,0.00377028198824269,0.0501530921353486,0.359038844411128,0.103644877320607,0.981272633352998,0.981321871505289,0.04,0.0406643550907553,468.164377796966,0.974068214740258,0.353153626150594
1035,-0.291561251383332,0.224709769538168,-0.169466186578715,-0.182660294456963,0.00377028198824269,0.0501530921353487,0.359038844411128,0.103644877320607,0.981206634552195,0.981321871505289,0.04,0.0403054034660526,468.133576420318,0.974651993844286,0.352918879998823
1095,-0.291561251383332,0.224709769538168,-0.169466186578715,-0.182660294456963,0.00377028198824269,0.0501530921353487,0.359038844411128,0.103644877320607,0.981177216690228,0.981321871505289,0.04,0.0400669848139166,468.119561152809,0.975473153251795,0.352611233670669
