time,bias_percent_1,bias_percent_2,bias_percent_3,bias_percent_4,bias_percent_5,bias_percent_6,bias_percent_8,bias_percent_9,normalized_power,power_SP,SP,CV,total_power_MW,fuel_fraction,thermal_efficiency
51,0,0,0,0,0,0,0,0,0.999817140128718,1,0.04,0.039913981795565,477.015807317111,0.999989322806322,0.350503278235772
111,0,0,0,0,0,0,0,0,0.999978989400627,1,0.04,0.0399092406181577,477.090335287871,1.00028617499862,0.350454005997853
171,0,0,0,0,0,0,0,0,0.99999826415545,1,0.04,0.0399496537330927,477.09922024987,1.00031762518904,0.350449514031931
231,0,0,0,0,0,0,0,0,1.00000157557688,1,0.04,0.0399775302044265,477.100766558497,1.00031297374485,0.350452279452501
291,0,0,0,0,0,0,0,0,1.00000298763011,1,0.04,0.0399940459216062,477.101433750009,1.00029754666707,0.350458174389042
351,0,0,0,0,0,0,0,0,1.00000375041271,1,0.04,0.0400033243994711,477.10179314242,1.00027632276027,0.35046587442572
411,0,0,0,0,0,0,0,0,1.00000399078677,1,0.04,0.0400080477050601,477.101904117772,1.00025263760192,0.350474254690255
471,0,0,0,0,0,0,0,0,1.00000383603227,1,0.04,0.0400098938362652,477.101827742584,1.00022914344562,0.350482430795056
531,0,0,0,0,0,0,0,0,1.00000343081004,1,0.04,0.0400099727903869,477.101633012743,1.00020763669749,0.350489823914617
591,0,0,0,0,0,0,0,0,1.00000289976923,1,0.04,0.0400090425674519,477.101378974737,1.00018911282282,0.350496128491005
651,0,0,0,0,0,0,0,0,1.00000233504028,1,0.04,0.0400076199275142,477.10110957245,1.00017394620909,0.350501245490112
711,0,0,0,0,0,0,0,0,1.0000017967754,1,0.04,0.0400060445892893,477.100853131645,1.00016208644751,0.350505213281767
771,0.13409952760702,-0.212139024830136,-0.212499341368575,0.212495858860161,-0.2125,0.2125,0.112063404922714,0.0405310623444895,0.988963533855421,0.985693175968354,0.04,0.0428854773748614,471.709882759549,0.984905511542323,0.351912816335331
831,0.157764150125907,-0.249575323329572,-0.2499992251395,0.249995128070777,-0.25,0.25,0.131839299909076,0.047683602758223,0.974005634686194,0.968861618284065,0.04,0.0460634708909534,464.568355825524,0.955911884009102,0.357097195845279
891,0.236160508604922,-0.249933154358695,0.17491207450298,0.249984909417901,0.141229893645345,0.249999577116674,-0.192723960192147,-0.0366976498528942,0.953175132984787,0.952030060599776,0.04,0.0616254652787851,454.617328782508,0.938733006937079,0.355843120204039
951,0.249995160101219,-0.249996301010893,0.249896421498712,0.249983106126217,0.21027046311217,0.249999502490205,-0.249999829621774,-0.051588459137209,0.937564323961981,0.935198502915487,0.04,0.0629005818058073,447.191486847136,0.928316920625722,0.353958166751456
1011,0.249960536366698,0.174759737639376,0.249984436589426,0.249994265785305,0.244032410143756,0.249999925373531,-0.249999974443266,0.204705740851172,0.911976624091985,0.918366945231198,0.04,0.0763387174531034,434.938659799573,0.946935751266269,0.337490983573449
1071,0.2499544262959,0.249716685636482,0.249999968664258,0.249996235136909,0.249990400796388,0.25,-0.24559891643558,0.249934129084415,0.902800817188014,0.901535387546909,0.04,0.0750664206131451,430.624764154724,0.957356083072743,0.330506630472123
1131,0.249988261389509,-0.175025920073297,0.24999811246666,0.249999435270537,0.24991481461616,0.249995395061479,0.017367484851549,0.249820780725276,0.886547951527529,0.88470382986262,0.04,0.0681711399622675,422.857882289584,0.946895213738022,0.328130942096053
1191,0.249994232288382,-0.249980497551493,0.249997784902378,0.25,0.249901475878473,0.249994582425269,0.064549982178293,0.249800778073664,0.874175885856435,0.867872272178331,0.04,0.0671822628777207,416.942584517033,0.914979353602995,0.334826355777381
1251,0.249931701718039,-0.249880833955221,-0.174926650100261,-0.175,0.249489586758719,0.249143565844638,0.222182360268202,0.249948795840763,0.863920951373632,0.851040714494041,0.04,0.0505866567148526,412.144302404159,0.85436652414285,0.354453895145333
1311,0.249920666911508,-0.249863246261761,-0.249913315100727,-0.25,0.249416900443468,0.248993386448055,0.249999838754657,0.249974916623192,0.842783781160053,0.834209156809752,0.04,0.0499360830184061,401.92372752311,0.785926032349642,0.37576527819262
1371,-0.175011899963274,-0.178696335594874,0.175013002734891,0.175,-0.175074671080702,0.24982306239295,0.249999975813198,0.249946578875627,0.822787071112997,0.817377599125463,0.04,0.0524149381441932,392.414573389383,0.75086266216064,0.384007136167868
1431,-0.25,-0.1661374690066,0.25,0.25,-0.249984948408497,0.24996947579499,0.25,0.249941578096645,0.804318860573489,0.800546041441174,0.04,0.0506971774781554,383.589486168637,0.721068970804451,0.39088100299621
1491,0.175,-0.235597660243251,0.249999503360218,0.249993953454373,-0.249997735551448,0.249995421369249,-0.00207193706791465,0.249986781156278,0.784050218763249,0.783714483756885,0.04,0.053359539391219,373.873568476596,0.696312513103776,0.394525646077755
1551,0.25,-0.247855341049719,0.249999415717904,0.24999288641691,-0.249999992106087,0.25,-0.00097844530887763,0.249994758166802,0.776938484156762,0.781189750104242,0.04,0.0475848379150366,370.679382285434,0.720877481374967,0.377825832177152
1611,-0.174860270322041,-0.249678169786305,-0.174944582241314,-0.175001067037464,0.17499859979898,0.249997263076399,-0.00504434943639319,-0.00999585437120851,0.797029985200794,0.781189750104242,0.04,0.0110882226096287,380.302202237928,0.666289114565976,0.419392634042801
1671,-0.249835612143578,-0.249999845445703,-0.249934699528234,-0.25,0.249998351311639,0.249996780089881,0.0381831178011967,-0.0547247415404354,0.783833742072345,0.781189750104242,0.04,0.00564790948599864,373.944286668907,0.61461073465045,0.44705549481948
1731,-0.249975315602096,-0.249923907826623,0.168055314300207,0.174997717051342,0.249999752696746,0.18846163651596,-0.117985452748163,0.175009360464721,0.756919479475579,0.781189750104242,0.04,0.0277033377805385,360.980902562822,0.688183238180934,0.3854205016082
1791,-0.249999969153599,-0.249910507070315,0.24181825791699,0.24999731417805,0.25,0.177602493532326,-0.166420317341771,0.25,0.773166512568694,0.781189750104242,0.04,0.0280190876132049,368.949825143045,0.77751616514595,0.348668375282014
1851,-0.24999999537304,0.175006391152184,-0.175766846416041,0.249907520667568,-0.174983149645939,-0.18585952389075,-0.210994052947979,0.25,0.793466192487157,0.781189750104242,0.04,0.013131023414699,378.715562342614,0.749954198283362,0.371050556529231
1911,-0.25,0.249991726132625,-0.249458335415988,0.249891674753953,-0.249980176054046,-0.249999879906587,-0.249845667718278,0.25,0.781904017614458,0.781189750104242,0.04,0.0173900702254392,373.017841586478,0.716330426012623,0.382622832961211
1971,0.174995733109374,0.249967664695502,0.175081249687602,0.249971503254799,-0.249961841939625,0.175000018014012,0.175017588689969,0.25,0.752903576368361,0.781189750104242,0.04,0.0626895802639234,359.150338799021,0.83734743424823,0.315155770031477
2031,0.249994980128675,0.249963418559539,0.25,0.249985590637301,-0.249958606507668,0.25,0.249993457467895,0.25,0.773480951544607,0.781189750104242,0.04,0.065213160350631,369.144340865162,0.934068527512156,0.290383644730446
2091,-0.175000752980699,0.249994512783931,0.25,-0.175002161404405,-0.249992824838272,-0.174982607573527,0.249994369088838,0.249999820027156,0.797369607307441,0.781189750104242,0.04,0.0423006515896843,380.585050809104,0.887250180177308,0.315181200572709
2151,-0.25,0.25,0.25,-0.25,-0.249998863367202,-0.249979538321797,0.249994529963122,0.249999788267242,0.789021695925134,0.781189750104242,0.04,0.0454763153116324,376.386059369905,0.808134384546824,0.34221939591314
2211,-0.249991930726922,0.25,0.249988613565184,-0.25,-0.249997669707522,-0.24999693074827,0.249999179494468,0.231912963741895,0.785727981453864,0.781189750104242,0.04,0.044185397130365,374.857322427544,0.776583699583701,0.354676492139389
2271,-0.249990506737555,0.25,0.249986604194335,-0.25,-0.249997459061696,-0.25,0.25,0.228721171178599,0.784054954622371,0.781189750104242,0.04,0.0414838342236607,374.063090536591,0.756350379942547,0.363392955913567
2331,-0.249998576010633,-0.0490966262752499,0.249988679158883,-0.25,-0.177568285700238,-0.249991308195753,0.25,0.24680817567679,0.787588566624816,0.781189750104242,0.04,0.0326643437587279,375.784584027258,0.727961388142552,0.379302138875358
2391,-0.25,-0.101878383853235,0.249989045329098,-0.25,-0.164786666871746,-0.249989774347945,0.25,0.25,0.783299866695906,0.781189750104242,0.04,0.0301116316922587,373.681244422165,0.70359543866531,0.390241059008081
2451,-0.25,0.197218242422015,-0.174824409105812,-0.249980984395592,0.187781999969238,-0.249833801548006,-0.174821755690924,0.248793275606226,0.784124601262192,0.781189750104242,0.04,0.0197756366001462,374.124326796661,0.688946025175862,0.399011511980313
2511,-0.25,0.25,-0.249791489300208,-0.249977628700696,0.25,-0.249806276936252,-0.249790300812852,0.248580324242619,0.780763058244766,0.781189750104242,0.04,0.0187506646748195,372.482826025854,0.684999440896584,0.39954961166762
2571,0.0483558703523249,-0.174598226055001,0.053130570344314,-0.249896852056595,0.249998735785261,-0.249856320245814,0.175031454878072,-0.0671494490691709,0.773176891053737,0.781189750104242,0.04,0.0258404054000756,368.85717254051,0.718287005300174,0.377324408200679
2631,0.101006906296853,-0.24952732477059,0.10658740439923,-0.249882597354695,0.249998512688543,-0.249865151418089,0.25,-0.122866467888898,0.776991624195982,0.781189750104242,0.04,0.0283755672153739,370.723527132812,0.753586499536388,0.361469547316529
2691,-0.197314672042339,0.128203112882082,0.209863298951256,-0.249982389603204,-0.175000223096719,-0.249745691692948,-0.174987009663013,0.0679199422998395,0.787285301604049,0.781189750104242,0.04,0.0204916751104982,375.695749274228,0.739706424905588,0.373191348141803
2751,-0.249959656455137,0.194861425409024,0.228088456813379,-0.25,-0.25,-0.249724610564982,-0.249984717250603,0.101588132333146,0.781333022605222,0.781189750104242,0.04,0.023273179539101,372.749514571421,0.721967122901079,0.379362450350677
2811,-0.249986688019217,-0.183270786188646,0.246327429221636,0.174827563868603,-0.249900444229625,-0.249846019092535,-0.240102120985643,0.227738219849972,0.776326222397877,0.781189750104242,0.04,0.0295148451123687,370.374084957153,0.744249620619891,0.365659318804558
2871,-0.249991458295231,-0.25,0.249546071411328,0.249797133963063,-0.249882875564265,-0.249867444126809,-0.238358133409474,0.25,0.778950695919734,0.781189750104242,0.04,0.0310786970919234,371.631425045348,0.760255023192424,0.359176412753655
2931,-0.249981982134839,-0.102991275419772,0.249787265416454,0.249911556944716,-0.248030180196132,-0.249980116619021,0.176647815743568,0.246500936687703,0.769178690566749,0.781189750104242,0.04,0.0456010856114279,366.949340966006,0.814391585488222,0.331075855974568
2991,-0.249980309871241,-0.0770485593173784,0.249829829064417,0.249931749235596,-0.247703233954697,-0.25,0.249884159711751,0.24588345492671,0.777570468887586,0.781189750104242,0.04,0.0480797372969045,371.014770360526,0.854541903332197,0.319016034416914
3051,0.0719058805557518,0.200867370400235,0.249974474359662,0.249987326964595,0.175344514906795,-0.2499992922919,-0.175017376043237,0.249338646366271,0.776355953775727,0.781189750104242,0.04,0.0667438084694852,370.489087360496,0.890302025175144,0.305768494902722
3111,0.128709325925221,0.249911357997461,0.25,0.249997134799124,0.25,-0.249999167402236,-0.25,0.249948386032076,0.781173754398527,0.781189750104242,0.04,0.0725140945327862,372.722059286764,0.898004398907717,0.304972941868163
3171,0.0604392347664765,0.249981297294515,0.25,0.172169399126476,-0.174790970568047,-0.249848655159984,-0.24989491641803,0.249937267090607,0.789468901271122,0.781189750104242,0.04,0.059712632590179,376.709612747374,0.867028511351933,0.319247863676886
3231,0.0483915716208157,0.249993639523407,0.25,0.158435092831303,-0.249754083021232,-0.249822094176057,-0.249876372256506,0.249935304924466,0.786920148566833,0.781189750104242,0.04,0.0586921990224304,375.412726127948,0.822494647388475,0.335374923517414
3291,0.219709272331668,0.249986729365184,0.249973831216084,-0.188734083218472,-0.249963112453185,-0.249970538257776,-0.249981455838476,0.249989951020303,0.787437331487071,0.781189750104242,0.04,0.0505269010846235,375.69406459403,0.787860954760244,0.350380099952935
3351,0.24994180775123,0.249985509925497,0.249969213195394,-0.249999231933138,-0.25,-0.249996734272197,-0.25,0.249999594448981,0.785082425405043,0.781189750104242,0.04,0.0472418965728612,374.544991489512,0.758421073859084,0.362867671773096
3411,0.249990688437524,0.249403089079965,-0.174310351228248,-0.249999884789971,0.175,-0.249999510140829,0.174860481445184,0.249474244510112,0.7727327845318,0.781189750104242,0.04,0.0526047534020531,368.652907984977,0.786945664873367,0.344213257267989
3471,0.249999314440988,0.249300308930753,-0.249183215538303,-0.25,0.25,-0.25,0.249835860523745,0.249381535697371,0.781846863654325,0.781189750104242,0.04,0.0500379031085713,373.052566263787,0.801505461294623,0.34199379170441
3531,0.249048439018742,0.249895046339613,-0.249370812637848,-0.249999905479237,0.24999690396776,0.0319543365224694,0.249916014379591,0.249907108703855,0.779792078601258,0.781189750104242,0.04,0.0586694708532859,372.021459221936,0.803129395632487,0.340358927288663
3591,0.24888063747364,0.25,-0.249403918008356,-0.249999888799103,0.24999635760913,0.0817109841440815,0.249930159177682,0.24999985688147,0.782221158635543,0.781189750104242,0.04,0.0585132189961791,373.21069274771,0.803212078477616,0.341411797203646
3651,-0.175038858845998,0.249999801246969,0.175060441125919,0.174657954186193,-0.17500054635863,0.224753954661057,-0.106090812512192,0.141406460258787,0.790922394627157,0.781189750104242,0.04,0.054119231798756,377.127934017164,0.757065991594292,0.366024065668657
3711,-0.249848181725934,0.249999766172905,0.249965916267262,0.249597573536539,-0.25,0.249996831811112,-0.068190630073461,0.122242919678314,0.780911449588861,0.781189750104242,0.04,0.049532897697956,372.544934150336,0.745984735068804,0.366947047658714
3771,-0.0450376330018532,0.249999964925936,0.24998864094272,0.184187733710403,0.174531615071907,0.249951628872444,0.203029047015443,0.207752598178006,0.764844016953471,0.781189750104242,0.04,0.0642413750327944,364.836874638361,0.810037715569738,0.330939161937714
3831,-0.00889459499172119,0.25,0.249992651179565,0.172644820799909,0.249448958908126,0.249943651883267,0.25,0.222842541442657,0.775033306586881,0.781189750104242,0.04,0.0611382391261771,369.829922052322,0.874434451751257,0.310763112287195
3891,0.211165775596166,0.249994431478905,0.249998848781037,-0.186306186821952,0.249917343836219,0.24999154778249,0.25,-0.00791464629549215,0.778736527413921,0.769542358876767,0.04,0.0615783195655704,371.411449044788,0.835708594496963,0.326554065407459
3951,0.249999958641087,0.249993448798712,0.249999942475415,-0.249650482284633,0.25,0.25,0.25,-0.00373833263098095,0.76166137877449,0.755839545667974,0.04,0.0681159067884455,363.258158919712,0.792939719039041,0.336612222421725
4011,0.249990990583828,0.24994533100122,0.248800418734299,-0.249947572342695,-0.174999655294105,0.249997727043037,0.249930239505312,-0.00176559125305425,0.752044612347947,0.742136732459181,0.04,0.0597016959657254,358.720049603754,0.743934822023311,0.354303497639943
4071,0.249989407985489,0.249936839625193,0.248588738074102,-0.25,-0.249999594463653,0.249997325932985,0.249917928829779,-0.000833738478945255,0.73413379026266,0.728433919250388,0.04,0.0601157298878972,350.116876870027,0.697136572260007,0.369019958230669
4131,0.249998411197823,0.249990360040148,0.249788310711115,0.172275457461423,-0.249997668287358,0.24834470738345,0.249592739532858,0.159705048328084,0.708135018111681,0.714731106041595,0.04,0.0758293312530133,337.588970005061,0.698472905102058,0.355134906073683
4191,0.25,0.249999804819258,0.25,0.246794655836968,-0.249997328373893,0.248053068815885,0.249535353186342,0.232005096016605,0.699652058561828,0.701028292832802,0.04,0.074232896646502,333.743274670843,0.727458494446191,0.337100176364684
4251,0.249995522597275,0.249992089445237,0.25,0.245628407987753,0.174911789547381,0.249707950947201,0.249930302977951,0.247300764402491,0.683394793049439,0.687325479624008,0.04,0.0869056646958375,325.911522632413,0.740738770025948,0.323287799724743
4311,0.249994732467383,0.249990727908645,0.25,0.245422599543774,0.249895751533489,0.249999988970374,0.25,0.25,0.67307471531618,0.673622666415215,0.04,0.0885927041136521,321.039610140265,0.753197608669578,0.313187458912735
4371,-0.175000790129893,-0.175001389561487,-0.174989827174569,-0.175686610068434,-0.174527027901874,0.156115553439799,0.249996320891756,0.249873303618536,0.687718101825253,0.659919853206422,0.04,0.025862229267026,328.145877658571,0.667179703529009,0.361392223450247
4431,-0.25,-0.249999998526805,-0.249988031970081,-0.25,-0.249425165449291,0.13954771187558,0.249995671637361,0.249850945433572,0.666894709329771,0.657864431225103,0.04,0.0182662884696387,318.200503398997,0.527108579260653,0.443563144667885
4491,0.175,-0.249999944335107,0.175001795204488,0.174995039292538,-0.249913774817394,0.231646777665053,0.249999346878459,0.0564467775884643,0.637573501451492,0.657864431225103,0.04,0.0450707355391062,304.197155430933,0.592731185017401,0.377096105996504
4551,0.25,-0.249999934771866,0.25,0.249994163873574,-0.25,0.247899553980843,0.249999995450418,0.0223166303216805,0.650769047264997,0.657864431225103,0.04,0.0432361624703039,310.551360436491,0.669802868964979,0.340675662356492
4611,-0.174972980024911,-0.24999999021578,-0.17478572904805,-0.175000327679648,-0.25,-0.174621198892787,-0.0904503349303173,-0.0904503349303173,0.648422359883969,0.657864431225103,0.04,4.47712449699664e-10,309.006457706706,0.632450157608776,0.359001221837475
4671,-0.249968211794013,-0.25,-0.249747916527118,-0.249999355600805,-0.25,-0.249183684694016,-0.154447418494699,-0.154447418494699,0.631608734532012,0.657864431225103,0.04,1.65982919014918e-10,301.511845306428,0.826222458124333,0.268140280456675
4731,-0.249995231769102,-0.25,-0.249962129552792,-0.249999876451543,-0.249999876371633,-0.245323014631532,0.17504818752443,-0.239553868654662,0.679127427451247,0.657864431225103,0.04,3.04842871453777e-08,324.432111363944,0.821447779505726,0.290200762485642
4791,-0.25,-0.25,-0.24999993185144,-0.249999968366379,-0.249999854554862,-0.244641719914623,0.249999536134464,-0.249971333043033,0.691379071751461,0.657864431225103,0.04,0.00571395795907714,328.841680593345,0.601892511840459,0.401441803488548
4851,-0.249795250569118,-0.249981962562529,-0.24999773094955,0.175000004745043,-0.249997099450576,0.175500502504517,0.249847533142299,0.157903740618738,0.637481274879717,0.657864431225103,0.04,0.0373344983407526,304.064155965594,0.663073796992486,0.336944240649202
4911,-0.249759118316609,-0.249978779485328,-0.249997342555099,0.25,-0.249996613255701,0.249643247637306,0.249820709084858,0.229881694794345,0.653916269185222,0.657864431225103,0.04,0.0366374915768939,312.033324575329,0.722365071523637,0.317394148797607
4971,0.0791998151442895,-0.249919624735154,-0.0484561652507521,0.249999910372613,-0.249990576507047,0.249946482395109,0.249970800988584,-0.178010922900443,0.651633460052082,0.657864431225103,0.04,0.0442404982634378,310.942939242148,0.747408209082799,0.305687381775195
5031,0.137251391637389,-0.249909185661594,-0.0128900751382201,0.249999894556016,-0.249989511198461,0.249999994411192,0.249997287795124,-0.249991973081877,0.658331841411458,0.657864431225103,0.04,0.0505402907086972,314.1224625877,0.758154071390924,0.304436133983217
5091,-0.191912245420696,-0.249986372001592,-0.214427308803511,-0.00877125830905777,-0.249910125511559,-0.174377143005112,0.249956769901375,-0.249837265559335,0.684824550220453,0.657864431225103,0.04,0.0249149272309687,326.893945593251,0.664797389012298,0.361303566229555
5151,-0.249999946078005,-0.249999993120415,-0.249992702979739,-0.0544367558734824,-0.249896116272694,-0.249267226078577,0.249949619684832,-0.249809964231827,0.665682627625839,0.657864431225103,0.04,0.0231263514342923,317.570839277586,0.56405236861653,0.413690802843438
5211,-0.249999052864972,-0.249994519061516,0.17490402181137,-0.220662039169647,0.174763758670559,0.0207568331109559,0.249918858516636,-0.249965937901756,0.638225309176627,0.657864431225103,0.04,0.0424576116223528,304.472374369809,0.628053229251837,0.356210008150132
5271,-0.249998895239143,-0.249993553051122,0.249885796774507,-0.249995912692499,0.249703736601721,0.0684081376738148,0.24991343007519,-0.249993462667037,0.639053371304166,0.637907361078402,0.04,0.047026256526723,304.770666111613,0.660736057076135,0.338922056667991
5331,0.174846166357352,-0.182636946253902,0.249917625786859,0.175000143341793,0.249403304862708,-0.0949043311842088,0.249884192114311,0.174515837872581,0.602562905039849,0.614428455023459,0.04,0.0855184926421628,287.323552017822,0.702952814910773,0.300330700217839
5391,0.249818824286145,-0.170750486230863,0.249923242671392,0.249999447347844,0.249350287497,-0.123724178629742,0.249879032474156,0.249429243850161,0.597435104545107,0.590949548968517,0.04,0.0975303368157119,284.941821140642,0.702808864569447,0.297902152553024
5451,0.249965543518375,0.186704409177573,0.196392524523372,0.249995790387026,0.2498976591417,0.1938334045191,0.249630566264579,-0.174842617522373,0.58347775802045,0.567470642913574,0.04,0.113286088109891,278.20140410846,0.619073986792237,0.330195719006955
5511,0.249991435147592,0.249784684837885,0.186945927203133,0.249995145040999,0.249994254137824,0.249872978015954,0.249586719286418,-0.167526434905698,0.551949542179463,0.543991736858631,0.04,0.116865875019986,263.089475891871,0.549706536062407,0.351663465242175
5571,0.249996045169819,0.249967702725683,-0.184449421163073,-0.17500072824385,-0.175000861731372,0.249980946702393,0.249938007892963,-0.0791647927856039,0.551656959859742,0.551068612022427,0.04,0.0656462406709456,263.395155221675,0.544309726045344,0.355562838149742
5631,0.249996858703153,0.25,-0.249989776757109,-0.25,-0.249999999825935,0.25,0.25,-0.0374666884339487,0.562552333646251,0.563537683871882,0.04,0.0427329923511081,268.459606348318,0.531652863584923,0.371026959929604
5691,0.249990045122208,0.0295742540688614,-0.20003176581579,-0.249934059168634,-0.249999961900374,0.0596163829691382,0.25,-0.0257961615909265,0.579396007858088,0.576006755721338,0.04,0.0144084617969226,276.640182924425,0.529000161918903,0.384250228486358
5751,0.24998884272557,-0.00932440697781016,-0.191215646237911,-0.249922422551335,-0.249999955207628,0.0260192740813391,0.25,-0.0562076095702764,0.587279966031971,0.588475827570793,0.04,0.00917676653958679,280.259095824527,0.5202121123027,0.395852993056564
5811,-0.175001673591165,0.210982998206985,0.183498791422028,-0.249786373898776,-0.249883578571316,0.216397005113148,0.24999993619517,-0.108551257297857,0.587349140226496,0.600944899420249,0.04,0.0209957895644785,280.299461365989,0.577563041028042,0.356596884946535
5871,-0.25,0.249860775592537,0.249624868656134,-0.249762365313031,-0.249863041517849,0.249993075295232,0.249999924935494,-0.161409913575597,0.606768189396833,0.613413971269704,0.04,0.0195234528603867,289.579321572271,0.627153324344456,0.339272371046513
5931,0.175,0.240189916646111,0.0969610485390145,0.175027819996336,-0.249979456227677,0.249998961294285,0.249999988740324,0.0122012112261043,0.605141818170887,0.625883043119159,0.04,0.0503116382933968,288.768983086856,0.715043827781565,0.296737584799219
5991,0.25,0.238483294479095,0.0700203744006993,0.24999079387446,-0.25,0.25,0.25,0.0584713519842222,0.630744842178061,0.638352114968615,0.04,0.0544453521195583,301.10890136293,0.795422085244759,0.278150999829327
6051,0.25,0.248272068053333,-0.20199324432254,0.249958374170839,0.174997850645745,-0.119910433478994,0.249990406011444,-0.197641135251426,0.658017830373904,0.65082118681807,0.04,0.0488369762292408,314.120585473018,0.782326987706026,0.295027678741808
6111,0.25,0.249999498684081,-0.249995647626641,0.249952653046671,0.249997471347935,-0.185188745269404,0.24998871295464,-0.175167325650017,0.664748246195925,0.663290258667526,0.04,0.0545582294686985,317.220279804026,0.761624080727208,0.306037716767273
6171,-0.175,0.203869145012344,0.17409184866728,-0.173623643953749,0.117297399895943,-0.240266207829208,0.249998306943196,0.186851122174456,0.672931321919088,0.675759330516981,0.04,0.0413940663688052,321.167423941974,0.775141347768988,0.304442486844057
6231,-0.25,0.195728494364391,0.248930818601502,-0.248372402247941,0.0938797402279449,-0.249985760045644,0.25,0.25,0.689469728513555,0.688228402366436,0.04,0.0377907252071615,329.039142189206,0.769056604452844,0.314372055328018
6291,0.171786244586377,0.241858973915299,0.0151907225831997,0.172068042150395,-0.198413893847966,-0.249997864006847,0.25,-0.132710174700631,0.70853472563561,0.700697474215892,0.04,0.0426808098525977,338.0339854539,0.732857108281979,0.338918860440122
6351,0.246219111278091,0.249999646777225,-0.0260575296553241,0.246263414691278,-0.249995123390774,-0.25,0.25,-0.125812557636387,0.711767410511566,0.713166546065347,0.04,0.0438019992027673,339.666822184388,0.734612497678074,0.339742197749174
6411,-0.175567133308286,-0.175000052983416,-0.216253535971461,-0.175560487796308,-0.249999268508616,0.171648609284217,0.246317343483299,-0.129455566353261,0.744564059395453,0.725635617914803,0.04,0.00648440937906521,355.614571175372,0.69194245986581,0.377628047274051
6471,-0.25,-0.25,-0.249817537086073,-0.25,-0.25,0.246057187393196,0.245667462921529,-0.177187652422873,0.742381011637306,0.738104689764258,0.04,0.00190928935177774,354.298551591962,0.610086509077164,0.42670981427006
6531,-0.249990731285161,-0.249905765919922,-0.249972630562911,-0.249999370246438,-0.247689218165196,-0.174976951650796,0.248800271411029,0.175260293852936,0.754051105344335,0.750573761613713,0.04,0.000357602310108144,359.90694604344,0.599386183810456,0.441202715453735
6591,-0.249989095629601,-0.249889136376378,-0.25,-0.249999259113456,-0.247281433135524,-0.24927709383503,0.249353119967999,0.249950030493136,0.760579454550227,0.763042833463169,0.04,0.000693841959284829,362.948726108453,0.603756233354569,0.441711112342402
6651,0.173209804945842,-0.24600506060812,-0.25,0.174385242177379,-0.247882002999002,0.175105232330324,0.249807988232944,-0.17500749542603,0.735283085321179,0.775511905312624,0.04,0.00940078116551916,351.074262597572,0.764957033712376,0.33722256414363
6711,0.24789196387092,-0.245319635472545,-0.25,0.249276624758114,-0.247987985916086,0.249996231065386,0.249888259103228,-0.25,0.771033862374714,0.78798097716208,0.04,0.0152131708693381,368.126195392565,0.917966256877035,0.294662372451969
6771,0.249679563939391,0.175697021162315,0.174995766536001,0.24989115644193,0.175301802112587,0.249988349919002,0.249983238865484,0.174987873068377,0.761331657242846,0.800450049011535,0.04,0.0548934428254087,363.400247217583,1.12384005844107,0.237593954823902
6831,0.249995022775004,0.249994078215526,0.249995019454118,0.249999603209662,0.25,0.249986959128463,0.25,0.249985733021619,0.804636154378315,0.81291912086099,0.04,0.0658586644414956,384.150418075715,1.23879102809725,0.227854670535001
6891,-0.175000455509601,-0.175000398662508,0.249988633243911,-0.17499942079398,-0.174991660483224,0.24999804386927,0.249784641987037,0.249873064873464,0.850532256039592,0.825388192710446,0.04,0.0482601841825289,406.13280238067,1.16253101449598,0.256695464992284
6951,-0.249999657559825,-0.249999423993926,0.24998750626564,-0.249999248559328,-0.249990188803793,0.25,0.249746637631808,0.249853182259083,0.851078543058022,0.837857264559901,0.04,0.0558134430523711,406.05871558589,1.03965119394633,0.286982791832925
7011,-0.249999948633974,-0.249967094370527,0.0642005531356451,0.174996396610929,-0.249978432183782,-0.175,0.249955390168071,-0.175021415757056,0.8693779541588,0.850326336409357,0.04,0.0445481198376608,414.907581382419,0.942252715454604,0.323547947488324
7071,-0.25,-0.249961389142869,0.0314146202303518,0.249995628111563,-0.249976357486133,-0.25,0.24999222885094,-0.249999285995198,0.869024835042836,0.862795408258812,0.04,0.0395319662097345,414.651250666348,0.877324214468381,0.347278214304335
7131,-0.2499965353885,0.175005791628569,-0.207787806965447,0.249961304532383,-0.249995220365114,-0.249994356501839,0.249998834327641,0.149033871161133,0.865840515185616,0.875264480108268,0.04,0.0434254765841314,413.141947825031,0.906249811514916,0.334970097577646
7191,-0.24999592398647,0.25,-0.25,0.249955247430174,-0.249998549108463,-0.249993360590399,0.25,0.219451487129897,0.885019395374586,0.887733551957723,0.04,0.0396707778591258,422.359578929909,0.937847247857531,0.33090620903452
7251,-0.249997496096216,0.249998414700628,-0.249890964501426,-0.00206968194637977,-0.24999978236627,-0.24999900408856,0.25,-0.179582276930515,0.911799319521107,0.900202623807178,0.04,0.0267033774120434,435.175166156725,0.896394903028045,0.356713381653697
7311,-0.249997773527348,0.249998134941915,-0.249871722942854,-0.0465446694834187,-0.25,-0.25,0.25,-0.25,0.913624450542825,0.912671695656634,0.04,0.0247775854287306,435.950608287275,0.868717248858654,0.368734284335366
7371,0.175000333970898,0.249999123129727,0.050372570212901,0.205518196300766,-0.212226347526376,-0.25,-0.175,-0.143373206252987,0.910661039749029,0.925140767506089,0.04,0.0374511139018275,434.595858850486,0.931962965441091,0.342642796090522
7431,0.25,0.249999297515812,0.103356857240387,0.249999878497975,-0.20556040885456,-0.25,-0.25,-0.124556713238808,0.930248479062679,0.937609839355544,0.04,0.0383027049283567,443.959949786843,0.993135115829033,0.328465780616943
7491,0.249466799836129,-0.175000105372628,-0.196810711528461,0.249999153093286,-0.155975835726255,-0.249999222590118,-0.249427391767141,-0.231173917840242,0.958292298360342,0.950078911205,0.04,0.0208311826328166,457.412997136954,0.980224404377926,0.342876457046916
7551,0.249372705689564,-0.25,-0.249781458958258,0.249999025080693,-0.147225616938908,-0.249999085400139,-0.24932634325546,-0.24998871865226,0.962942488475343,0.962547983054455,0.04,0.0216245316994835,459.477773509173,0.954849777414914,0.353577102904991
7611,-0.175092465712056,-0.249730689886378,-0.249966873933453,0.249960589189765,0.190416005225274,0.132243097907408,-0.249898932300042,-0.249993220451455,0.968717235655684,0.975017054903911,0.04,0.0273002682403247,462.268985591208,0.987097717552128,0.344103654851233
7671,-0.249998084194695,-0.249683164572209,-0.249999594223193,0.249953806385484,0.249999820901306,0.199697600844034,-0.249999977425556,-0.249994014886607,0.982865245851663,0.987486126753366,0.04,0.0274213159762599,469.020469918836,1.01430285793492,0.339765145082583
7731,-0.127506931008271,-0.249952474685831,-0.249975609979708,0.249965461531772,0.249989995135748,-0.182233460350228,-0.249951025543491,0.134662035507811,0.983972989197692,0.989356487530784,0.04,0.0313251772009927,469.466426983369,1.04580565014974,0.329843729536787
7791,-0.105890845151843,-0.25,-0.249971377466152,0.249967518322293,0.249988261177121,-0.24963305938451,-0.249942386976068,0.202542514989179,0.988394682848482,0.989356487530784,0.04,0.0350419240187942,471.583135895225,1.06041373041789,0.326766555316001
7851,0.19506454626885,-0.249952312330438,0.174971168919583,0.249994621800116,0.242685572844321,0.175046503483939,0.147803526119513,-0.182118622751623,0.973635083195586,0.989356487530784,0.04,0.0598429506732561,464.471698731926,1.12595190036571,0.303105693838414
7911,0.248174321225443,-0.249943896859339,0.249961030046478,0.24999940476679,0.241396863138533,0.249989955754841,0.217993981371675,-0.25,0.985329242978004,0.989356487530784,0.04,0.0628126166686281,470.168592781928,1.17970408593367,0.292843242955623
7971,0.249695447784452,-0.246083839423046,0.168846302903139,0.171342824269784,0.248709430459659,-0.175001506636774,0.245199097205751,0.174999991997232,0.988428832453932,0.989356487530784,0.04,0.0620005823455663,471.602280659504,1.19008576444926,0.291173812303228
8031,0.2499638818831,-0.245402652816642,0.154531939289608,0.157462251240901,0.249999883516327,-0.25,0.25,0.249999990584979,0.99342816556273,0.989356487530784,0.04,0.0641796885628277,473.981008901571,1.17407039694314,0.296634376592891
8091,0.212399416435689,-0.249307642015133,0.235679790893441,-0.0814510830190959,-0.175000017472551,-0.249991066565852,0.25,0.249990817932689,1.00255651569994,0.989356487530784,0.04,0.0565148385391046,478.372692677124,1.11488108724444,0.315277159157282
8151,0.20577039312144,-0.249996757756043,0.25,-0.123612259653213,-0.25,-0.249989490077473,0.25,0.249989199229344,0.996951978857213,0.989356487530784,0.04,0.0564050860519624,475.609359781829,1.05365477435411,0.331670411540146
8211,-0.181044740325789,-0.249999445458792,-0.174998970698655,0.193958161052018,-0.25,-0.24998946530573,0.249998017866034,0.249998379884402,1.00350938776043,0.989356487530784,0.04,0.0419092993224027,478.845217559051,0.990583785261051,0.355188270728367
8271,-0.249306234463535,-0.249999919759277,-0.249998789057241,0.25,-0.25,-0.249989460934246,0.249997668077687,0.25,0.996118698088017,0.989356487530784,0.04,0.0377459814740587,475.204686073194,0.927133257671197,0.376611199532789
8331,-0.249895655238884,-0.249999133971839,-0.249977912715912,-0.175,-0.249998762477229,-0.249881125160858,0.249999650211653,0.249060024743669,0.993301588292392,0.975947671593343,0.04,0.0296990689848235,473.816617572203,0.843665156342877,0.412662354172278
8391,-0.249999670669828,-0.249998995303468,-0.249974228655678,-0.25,-0.249998544090858,-0.249862007083202,0.25,0.248894146757258,0.968210269545255,0.960172594019883,0.04,0.0275577548189243,461.789129486828,0.774185047512006,0.438281967442871
8451,-0.249772839121462,-0.249999325433047,-0.249810040945089,-0.249999355804546,-0.249999385818823,0.175017202519306,0.249568805582561,0.24983373587492,0.938954231332243,0.944397516446422,0.04,0.0315788124881181,447.808925770411,0.781165781038985,0.421215371152968
8511,-0.249732810024691,-0.249999383691208,-0.24978106664322,-0.249999242122996,-0.249999534359052,0.249995886566807,0.249492712450071,0.249999545719214,0.92810254393113,0.928622438872962,0.04,0.0298010891868098,442.670307324759,0.792994195332914,0.410171102497306
8571,0.175040016141388,-0.186345280738266,0.17502968802083,-0.249999701098816,0.175000038093858,0.249999382985021,-0.175076039193289,0.249999918149199,0.888715239479563,0.912847361299501,0.04,0.0461056551298483,423.985210555454,0.892569020727043,0.349030657040192
8631,0.249999926641285,-0.175112203746571,0.249996291785074,-0.249999782094549,0.249999962644371,0.25,-0.249999936542117,0.249999983872137,0.894451918341756,0.897072283726041,0.04,0.0525459371586229,426.711458993183,0.950516657858507,0.329859692376543
8691,0.249996231996237,0.186233169438014,0.249999443767761,0.110064067511587,0.249999994396656,0.24999621413092,-0.249999315598133,-0.174874532482369,0.888152414249752,0.881297206152581,0.04,0.0714640909460752,423.655931570628,0.923619351677277,0.33703495390918
8751,0.249995580000052,0.25,0.25,0.173604746853846,0.25,0.249995546036377,-0.249999206019782,-0.249852388309635,0.869384157906645,0.86552212857912,0.04,0.0761990604728561,414.648452952103,0.892409151364725,0.341405655027943
8811,0.249999337000008,0.25,0.25,-0.186459287971923,0.25,0.249912044624588,0.174994881107365,0.175020877424289,0.83843996702043,0.84974705100566,0.04,0.079893813815002,399.860035539406,0.93095731676927,0.315597029585212
8871,0.25,0.25,0.25,-0.25,0.25,0.249897309081331,0.249993837659214,0.249998512553805,0.838035233368154,0.833971973432199,0.04,0.0776173056375849,399.774207406801,0.939462392443145,0.312672760288674
8931,0.249999994134363,0.25,0.249995555002286,0.175,0.249987646537907,0.249983143102571,0.249800609022313,0.249999776883071,0.822108587346689,0.818196895858739,0.04,0.088761592369933,392.077394639727,0.909048559697466,0.316912520006506
8991,0.24999999309925,0.25,0.249994770590924,0.25,0.249985466515184,0.24999829028279,0.249766509851096,0.25,0.806656783108203,0.802421818285279,0.04,0.0891091365389276,384.724416706943,0.884172753763556,0.319718155197432
9051,0.249999674690473,0.249999971646861,-0.175000784411361,0.249990332731035,0.249997819977278,0.249999743542419,0.249959832990679,0.108976970451704,0.797016621270136,0.786646740711818,0.04,0.0784706115504615,380.178437440036,0.83675905755169,0.333842585780926
9111,0.249999618500689,0.249999966643366,-0.25,0.249988626742394,0.25,0.25,0.24999394883884,0.0840905534725933,0.776823560443945,0.770871663138358,0.04,0.0787774817927502,370.46516506447,0.786906501087273,0.345922587185563
9171,0.24999982081387,-0.175000005003495,0.0451322238386426,0.249998294011359,0.25,-0.056301933609149,0.249999092325826,0.225113391370567,0.760204390920582,0.755096585564897,0.04,0.0683986689771953,362.563439527792,0.755589359064377,0.352576085246311
9231,0.249999856516196,-0.25,0.0972143809866384,0.25,0.25,-0.110355216010764,0.25,0.249999774529033,0.743045398471792,0.739321507991437,0.04,0.065271675741915,354.371908120199,0.728954211155661,0.357201862027865
9291,0.249997456020728,0.174942331318381,-0.197917842852004,0.25,0.249999490217755,-0.229053282401615,0.249981330734956,0.249992067810858,0.728588362654741,0.723546430417977,0.04,0.0683852396201954,347.489056119484,0.700895537628643,0.364286026549722
9351,0.249997032403881,0.249932154492212,-0.25,0.25,0.249999400256182,-0.25,0.249978036158771,0.249990707801768,0.711282411942662,0.707771352844516,0.04,0.0704830852900822,339.219093325395,0.675571387217655,0.368946774490274
9411,0.249988830741797,-0.175008886009973,-0.249999927158359,0.249999675400186,0.249980782659847,-0.249996833126678,0.249996700130719,0.249998606170265,0.697790561507534,0.691996275271056,0.04,0.0523078383116585,332.807318248352,0.64688140699566,0.378027048340222
9471,0.249987383389665,-0.249998481392711,-0.249999914303952,0.249999618117866,0.249977497201671,-0.24999627426668,0.249999993772828,0.25,0.68046775902434,0.676221197697595,0.04,0.0486122374644342,324.510135879483,0.614315770083581,0.38814257108507
9531,-0.175000695067983,0.174997895188409,-0.249999987145593,0.249999591800925,0.24996519660268,-0.249999441140002,-0.000387025560367513,0.25,0.675770207772649,0.673854936061576,0.04,0.0397628313609912,322.31690494708,0.589948060412915,0.401443086198231
9591,-0.249998591266391,0.249997255761548,-0.25,0.249999587156759,0.249963025908741,-0.25,-0.00544105726083911,0.25,0.671194205438373,0.673854936061576,0.04,0.0291630951011037,320.215087297618,0.599783381157296,0.39228530384991
9651,-0.249983967274717,0.24999474061228,-0.249999503604977,0.249936210997931,0.249994453886311,-0.249891739666694,0.174936840665701,0.249999999510819,0.665169526514293,0.673854936061576,0.04,0.0309797153192824,317.275937848627,0.628474818899402,0.370940225222405
9711,-0.249981386570304,0.249994296762409,-0.249999416005856,0.249925026969902,0.25,-0.249872634901993,0.249881927415191,0.249999999424493,0.670222322783004,0.673854936061576,0.04,0.0310182387550837,319.787519029564,0.664582799477598,0.353563227052278
9771,0.175001989626094,-0.175000855485639,0.175000081224658,0.249988754045485,0.249999368096279,0.175019104764701,-0.0627387759760105,0.249973650980428,0.66585502451761,0.673854936061576,0.04,0.0547508608872046,317.515733622188,0.687725300698298,0.339238336433834
9831,0.249999056013694,-0.25,0.249999992500631,0.25,0.249999256583858,0.25,-0.0505220227067088,0.249969001255004,0.669154798695733,0.673854936061576,0.04,0.0567186466949145,319.297332544934,0.734488696664532,0.319422018698312
9891,0.249999858402054,0.174998810307921,-0.174993436917834,-0.0997473940076818,0.249900558241435,0.249936372924404,-0.0259607965002279,0.249969878550155,0.677594312469424,0.673854936061576,0.04,0.0505581183308753,323.330364698387,0.729695193527958,0.325581472356486
9951,0.25,0.24999860036226,-0.249992277403445,-0.161467522361978,0.249883140886889,0.249925144616946,-0.0122626899493446,0.249970033366946,0.676575198863778,0.673854936061576,0.04,0.054762358556812,322.78054068573,0.707639118069689,0.335158461709649
10011,0.25,-0.174911418566511,-0.249998841610517,-0.236719440516965,0.249982241428951,0.0117611939319291,-0.00928965527804399,-0.00928965527804399,0.689498299595347,0.673854936061576,0.04,0.0244948253804953,328.958563613858,0.632190754388767,0.382338236621104
10071,0.25,-0.249895539553941,-0.25,-0.24999919077961,0.249999729759903,-0.0302677385418974,-0.0330025599697552,-0.0330025599697552,0.68576762715435,0.684314696069504,0.04,0.0130690102833244,327.226407247764,0.593839338417794,0.404887208709544
10131,0.249952465329659,-0.249984330933091,0.174988201511763,0.1747225447859,0.249990122546073,-0.215662651679619,-0.0769369847169586,-0.0769369847169586,0.68496948902241,0.696620296078832,0.04,0.027746809300339,326.871557677969,0.641386256150254,0.374465799781617
10191,0.249944076858422,-0.25,0.249986119425604,0.249673439297461,0.249988427155397,-0.248379401056864,-0.115809097466124,-0.115809097466124,0.700880539269777,0.708925896088159,0.04,0.0238459676436886,334.521818675771,0.702289318005143,0.349995985339416
10251,-0.175006498371658,0.174999971299864,-0.17500199963953,0.249951015846249,0.236664586919824,0.175242752855905,0.174998040876372,0.175000278780111,0.698500444028854,0.721231496097486,0.04,0.0374515584068904,333.297205120012,0.794471645832913,0.308253450045755
10311,-0.249997776353437,0.249999966235134,-0.249999903003966,0.249999999943094,0.2343133209959,0.249999603546394,0.249997695148673,0.249999680263508,0.725756511413305,0.733537096106813,0.04,0.0387306148683873,346.411695738522,0.869118883638789,0.292865380319341
10371,0.0173117840897982,-0.174785316511261,-0.249996657139217,0.249999999991464,-0.177353001850615,-0.175000059468041,0.248814802672837,0.249999947642961,0.760870507795668,0.74584269611614,0.04,0.0229568665776997,363.253542737062,0.830810520627188,0.321264358824812
10431,0.0644840594621338,-0.249747425231213,-0.249996084339555,0.25,-0.25,-0.25,0.248606056941807,0.249999994827571,0.760284961260493,0.758148296125467,0.04,0.0262575412470237,362.78937832094,0.787067859706205,0.338685856979925
10491,-0.20282739108068,-0.249826229561938,0.171903213465258,0.129098134841278,-0.249999822353717,-0.249889615771242,-0.175208556077112,0.249999999224136,0.777048457375653,0.770453896134795,0.04,0.0178748802782003,370.857619449093,0.760692135886229,0.358222578815874
10551,-0.25,-0.249840136208537,0.246356030724931,0.107762511577974,-0.249999791004373,-0.249870136201461,-0.249999370139274,0.25,0.783156225852554,0.782759496144122,0.04,0.016892464590371,373.709157844637,0.743226790870732,0.369459689250032
10611,-0.249974498594208,0.104928060064649,-0.165108267664778,-0.196286097274135,-0.249973282430527,-0.0539448617325598,-0.249898191142861,0.249989967637906,0.797758122562359,0.795065096153449,0.04,0.012684657645791,380.721420818668,0.733318848549422,0.381477687221746
10671,-0.249969998346127,0.167534212348153,-0.237719614439432,-0.249941734130389,-0.249968604446907,-0.0193698132968714,-0.249880336025847,0.249988197221066,0.804311760969395,0.807370696162776,0.04,0.0126251532071613,383.79048069379,0.740138675077229,0.381009475506662
10731,0.175004500248081,0.237112135820051,-0.247954565482715,-0.249967907559903,-0.0356535820108845,0.209594528005469,0.167166656350154,0.249998228758625,0.783858521797388,0.819676296172103,0.04,0.0391525095047187,374.011203123339,0.895289394490163,0.306955802631099
10791,0.25,0.249390592903328,-0.249760733313883,-0.249972526400406,0.00216671606606064,0.25,0.240763184416507,0.249999999029959,0.8189268329607,0.83198189618143,0.04,0.0421273057470917,390.910104044569,1.02531654552952,0.280139021032355
10851,-0.174998739812687,0.249908588935499,-0.249782269246621,-0.249060280564737,-0.212174662249144,0.24999989939244,-0.176380631808242,0.23772621622359,0.859585561381153,0.844287496190758,0.04,0.030287523214067,410.337839444398,0.99071836432915,0.304330886018676
10911,-0.249998517426691,0.25,-0.249786069705339,-0.248899296005501,-0.249999611363592,0.249999881638165,-0.249994246436139,0.235560254551878,0.860270439719413,0.856593096200085,0.04,0.034910242661309,410.48530053318,0.937482589849568,0.321728159727452
10971,0.17500016606332,-0.174999928023564,-0.0320864396353345,-0.249834862010567,0.175000058295461,-0.174986547784153,-0.0735194108685103,-0.176884884036019,0.869726715421373,0.868898696209412,0.04,0.035017811236699,415.041414536811,0.926755618349621,0.329064386972653
11031,0.249999933738028,-0.24999991532184,0.00633114214172531,-0.249999961893814,0.25,-0.249984152976326,-0.0423767928271642,-0.249669320257412,0.880776143875431,0.881204296218739,0.04,0.0349792556350742,420.312601412969,0.929162871988408,0.332380272384689
11091,0.249999990060704,-0.248572417476475,0.213449671321259,-0.249999994284072,0.249999765639903,0.17499231435361,-0.218856518924075,-0.249950398038612,0.879998922798525,0.883050136220138,0.04,0.0481911998871804,419.823259296244,0.939775846596146,0.328244073299335
11151,0.25,-0.248320506091999,0.25,-0.25,0.249999724282238,0.249988161529482,-0.25,-0.25,0.88327415736842,0.883050136220138,0.04,0.0502719677258183,421.428861416493,0.947342063608393,0.326867792422923
11211,0.249995644580068,0.175212228480545,0.25,0.175,0.249790071192505,-0.175001775770578,-0.25,-0.22219468077795,0.88213555947714,0.883050136220138,0.04,0.0631690822818139,420.868675770766,0.949922853717095,0.325546434738577
11271,0.24999487597655,0.249953299287464,0.25,0.25,0.249753073588435,-0.25,-0.25,-0.217287859738765,0.882229373893244,0.883050136220138,0.04,0.0630054086398844,420.919395281618,0.956099711590255,0.323482228903323
11331,0.249999231396483,-0.17500700510688,-0.174997247429664,0.25,0.249757146998307,-0.249966800828696,-0.24999981149613,-0.244623301740085,0.892934122570837,0.883050136220138,0.04,0.0381087437273152,426.109853467807,0.924734390428454,0.338578396770485
11391,0.25,-0.25,-0.249996761681958,0.25,0.249757865835343,-0.249960942151407,-0.249999778230742,-0.24944720326973,0.888343818972958,0.883050136220138,0.04,0.0353182698611684,423.784826533382,0.874785646836074,0.355957731601035
11451,-0.174996061334498,-0.25,-0.249998713718273,-0.174987050244111,-0.175034351145282,-0.249993800564845,0.174998732518246,-0.249852643705886,0.906384601630984,0.883050136220138,0.04,0.0146730180207671,432.630909095526,0.798928799343152,0.397891025612385
11511,-0.24999536627588,-0.25,-0.24999905819527,-0.249984764993071,-0.249997683553627,-0.249999599108393,0.249998469709244,-0.249924192018149,0.890724564719129,0.883050136220138,0.04,0.0127275172230971,424.833299608552,0.707747765307769,0.441057000997711
11571,0.174995088882358,0.174913187436988,0.00280409340912104,0.0259562029700327,0.175000294872959,-0.249993914437858,0.249999769795678,-0.249985346462515,0.840956533432497,0.883050136220138,0.04,0.0444059218627077,401.268651943905,0.871132089775382,0.338458867660518
11631,0.249993404498518,0.249897867572927,0.0474164142804841,0.074651667904698,0.249999938124709,-0.249992911260705,0.249999999222696,-0.249996138423285,0.872669443167049,0.883050136220138,0.04,0.047185190993549,416.491125769543,0.99635316182462,0.307147599335138
11691,0.249999010111621,0.249984459731991,0.219603957279838,-0.201302248929741,0.249999986907013,-0.249998404782474,0.249999998711542,-0.249827355754968,0.883276023988988,0.883050136220138,0.04,0.0535590517699808,421.456985577609,1.01084529013472,0.306353778336118
11751,0.249999999337462,0.249999740701238,0.249989994279724,-0.249999998959348,0.249999995515654,-0.249999374227492,0.249999998621339,-0.249797570578206,0.885709874450945,0.883050136220138,0.04,0.0594947166221913,422.580118553745,0.997614917724909,0.311243866787748
11811,0.124841121490512,0.0440311373458952,0.249998494592214,-0.249999951638226,-0.174995966822263,-0.249999599248535,0.249974590980187,0.173631642698278,0.885556354310281,0.883050136220138,0.04,0.0521813772720574,422.551262614339,0.987040225147702,0.314556908634217
11871,0.102754260693991,0.00768373675377597,0.24999999464736,-0.249999943287439,-0.249995254293661,-0.249999638958131,0.249970107278807,0.248354445041187,0.887980731816759,0.883050136220138,0.04,0.0526161487702871,423.651521527959,0.955738000317606,0.325705125387245
11931,0.224103375466452,-0.211347387739473,-0.174758447305318,-0.249988858197025,-0.249998337910336,-0.249999945835791,0.249995355571226,-0.175246759846123,0.906352206532128,0.883050136220138,0.04,0.0326256370764642,432.509835035787,0.855515922867869,0.371468991531922
11991,0.24551792513218,-0.249999939120635,-0.249715819414614,-0.249986902004599,-0.249998882077984,-0.249999999990673,0.249999811152241,-0.249999913649766,0.891133915488712,0.883050136220138,0.04,0.0290098767317697,425.112113706515,0.772954632906096,0.404114238150965
12051,-0.175197965815598,-0.249991879505278,-0.249879879315834,-0.249998035296214,-0.249880423092041,-0.249999997767777,0.121945319304812,-0.249998791111717,0.90021897755289,0.883050136220138,0.04,0.0106914925283501,429.560887028161,0.693623576722578,0.455046271358554
12111,-0.249441946571088,-0.249990457220215,-0.249908831063108,-0.249999999994735,-0.24985951856511,-0.249999997375501,0.0993474678023247,-0.249998593016767,0.888497887820308,0.883050136220138,0.04,0.00416589801794245,423.995002291488,0.629974802648346,0.494529535429495
