time,bias_percent_1,bias_percent_2,bias_percent_3,bias_percent_4,bias_percent_5,bias_percent_6,bias_percent_8,bias_percent_9,normalized_power,power_SP,SP,CV,total_power_MW,fuel_fraction,thermal_efficiency
55,0,0,0,0,0,0,0,0,0.999838042475392,1,0.04,0.0399063598158726,477.025422217799,1.00002945907389,0.350496275342325
115,-0.0069945117499243,-0.02148633593855,-0.0259286466739366,-0.0310044939892559,0.0255021267214161,-0.00356836333021806,0.0145165132982573,-0.00623227767958468,0.970480620846056,0.955032793907267,0.04,0.0505469800386193,462.661341834238,0.925735967598485,0.367223741935535
175,-0.0146248882043872,-0.044925975144241,-0.0542144430455038,-0.0648275783411716,0.0533226285993244,-0.00746112332681957,0.0303527096236289,-0.0130311260573135,0.922464120193268,0.905977659987923,0.04,0.0608096540426761,439.716141092832,0.824376011914253,0.391923891146148
235,-0.0222552646588499,-0.0683656143499318,-0.0825002394170708,-0.0986506626930873,0.0811431304772329,-0.0113538833234211,0.0461889059490005,-0.0198299744350423,0.872131773832337,0.856922526068578,0.04,0.065410617234105,415.693951496282,0.727983465912249,0.419572355566991
295,-0.0298856411133129,-0.0918052535556227,-0.110786035788638,-0.132473747045003,0.108963632355141,-0.0152466433200227,0.0620251022743721,-0.026628822812771,0.821800365659701,0.807867392149233,0.04,0.0653637192136117,391.680480757114,0.639290941277585,0.450181926063359
355,-0.0375160175677756,-0.115244892761314,-0.139071832160205,-0.166296831396918,0.13678413423305,-0.0191394033166241,0.0778612985997437,-0.0334276711904998,0.77141740520286,0.758812258229888,0.04,0.0616286181175676,367.642685850267,0.558475290395508,0.483700619802927
415,-0.0451463940222385,-0.138684531967004,-0.167357628531772,-0.200119915748834,0.164604636110958,-0.0230321633132256,0.0936974949251153,-0.0402265195682286,0.721488988635581,0.709757124310544,0.04,0.0546232389374408,344.098456947919,0.485814426789846,0.520435596869457
475,-0.0527767704767014,-0.162124171172695,-0.195643424903339,-0.23394300010075,0.192425137988867,-0.0269249233098272,0.109533691250487,-0.0470253679459573,0.671190089038326,0.660701990391199,0.04,0.0465692729751767,320.139853288517,0.418344447035329,0.562290063799297
