time,bias_percent_1,bias_percent_2,bias_percent_3,bias_percent_4,bias_percent_5,bias_percent_6,bias_percent_8,bias_percent_9,normalized_power,power_SP,SP,CV,total_power_MW,fuel_fraction,thermal_efficiency
32,0,0,0,0,0,0,0,0,0.999620875550017,1,0.04,0.0399816325672792,476.926414708071,0.999656501683247,0.350554267144667
92,0.00774730761260901,0.000346796522365366,-0.0041643438114462,-0.0164040069294326,0.00608793259915603,-0.00137898177165982,-0.0112786442491988,0.00645051665631536,0.986524790138079,0.974506534376673,0.04,0.0459688556626881,470.377261804067,0.963461408741212,0.358729153036596
152,0.0222735093862509,0.000997040001800883,-0.0119724884579075,-0.0471615199221187,0.017502806222574,-0.00396457259352178,-0.0324261022164465,0.0185452353869069,0.942613779637662,0.926706286332935,0.04,0.0588429009890821,449.349756353472,0.868607880184287,0.380115362191559
212,0.0367997111598929,0.00164728348123629,-0.0197806331043689,-0.0779190329148047,0.0289176798459918,-0.00655016341538385,-0.0535735601836943,0.0306399541174983,0.894258515133456,0.878906038289197,0.04,0.0671048546761063,426.264266845041,0.772500226441758,0.405447837810192
272,0.0513259129335347,0.00229752696067158,-0.0275887777508303,-0.108676545907491,0.0403325534694094,-0.00913575423724592,-0.074721018150942,0.0427346728480898,0.845541880334683,0.831105790245459,0.04,0.0709273726290707,403.019869578082,0.681508095701251,0.434520344507073
332,0.0658521147071766,0.00294777044010686,-0.0353969223972919,-0.139434058900177,0.051747427092827,-0.011721345059108,-0.0958684761181898,0.0548293915786812,0.796668264565801,0.783305542201721,0.04,0.0712619107948608,379.701415076287,0.596688056653808,0.467573131360977
392,0.0803783164808186,0.00359801391954215,-0.0432050670437533,-0.170191571892863,0.063162300716245,-0.0143069358809699,-0.117015934085438,0.0669241103092726,0.747709243047451,0.735505294157983,0.04,0.0685004453723538,356.342461877444,0.518661560935307,0.504821903013196
452,0.0949045182544604,0.00424825739897744,-0.0510132116902147,-0.200949084885549,0.0745771743396628,-0.016892526702832,-0.113977214266031,0.079018829039864,0.697366611796293,0.687705046114245,0.04,0.0639467769378848,332.569400147793,0.449851250039645,0.543210344522013
512,0.109430720028102,0.00489850087841285,-0.0588213563366761,-0.231706597878235,0.0859920479630805,-0.019478117524694,-0.0553498500277005,0.0911135477704554,0.647679036745478,0.639904798070507,0.04,0.058439642512156,308.850609720212,0.398527697110926,0.569435619389421
572,0.123956921801744,0.00554874435784819,-0.0666295009831376,-0.262464110870921,0.0974069215864981,-0.0220637083465561,-0.0261451291272054,0.103208266501047,0.598794011166228,0.592104550026769,0.04,0.0540684250999534,285.508280748905,0.356078805632874,0.589151870093874
632,0.138483123575386,0.00619898783728354,-0.0744376456295989,-0.293221623863607,0.108821795209916,-0.0246492991684181,-0.0123498197966258,0.115302985231638,0.550092097180127,0.544304301983031,0.04,0.0518318865777398,262.410824658543,0.31820773410511,0.605934514980402
