time,bias_percent_1,bias_percent_2,bias_percent_3,bias_percent_4,bias_percent_5,bias_percent_6,bias_percent_8,bias_percent_9,normalized_power,power_SP,SP,CV,total_power_MW,fuel_fraction,thermal_efficiency
51,0,0,0,0,0,0,0,0,0.999817140128718,1,0.04,0.039913981795565,477.015807317111,0.999989322806322,0.350503278235772
111,0,0,0,0,0,0,0,0,0.999978989400627,1,0.04,0.0399092406181577,477.090335287871,1.00028617499862,0.350454005997853
171,0,0,0,0,0,0,0,0,0.99999826415545,1,0.04,0.0399496537330927,477.09922024987,1.00031762518904,0.350449514031931
231,0,0,0,0,0,0,0,0,1.00000157557688,1,0.04,0.0399775302044265,477.100766558497,1.00031297374485,0.350452279452501
291,0,0,0,0,0,0,0,0,1.00000298763011,1,0.04,0.0399940459216062,477.101433750009,1.00029754666707,0.350458174389042
351,0,0,0,0,0,0,0,0,1.00000375041271,1,0.04,0.0400033243994711,477.10179314242,1.00027632276027,0.35046587442572
411,0,0,0,0,0,0,0,0,1.00000399078677,1,0.04,0.0400080477050601,477.101904117772,1.00025263760192,0.350474254690255
471,0,0,0,0,0,0,0,0,1.00000383603227,1,0.04,0.0400098938362652,477.101827742584,1.00022914344562,0.350482430795056
531,0,0,0,0,0,0,0,0,1.00000343081004,1,0.04,0.0400099727903869,477.101633012743,1.00020763669749,0.350489823914617
591,0,0,0,0,0,0,0,0,1.00000289976923,1,0.04,0.0400090425674519,477.101378974737,1.00018911282282,0.350496128491005
651,0,0,0,0,0,0,0,0,1.00000233504028,1,0.04,0.0400076199275142,477.10110957245,1.00017394620909,0.350501245490112
711,0,0,0,0,0,0,0,0,1.0000017967754,1,0.04,0.0400060445892893,477.100853131645,1.00016208644751,0.350505213281767
771,0.212497085004613,0.212492543073305,0.2125,0.212485634616848,0.169752012087142,0.212498876723324,-0.110170321602185,0.212498617976143,0.981124644431732,1,0.04,0.0660312963243579,468.014197092257,1.07350423938772,0.320339091762633
831,0.249996570593662,0.249991227145064,0.25,0.249983099549233,0.199708249514286,0.249998678498028,-0.129612143061394,0.24999837408958,0.992630298747642,1,0.04,0.0646312138970048,473.658497248001,1.14863369908641,0.302997088526674
891,0.249977303504535,-0.0426638461084368,-0.174991569192697,-0.120270175521984,0.242456237427143,0.249999801774704,0.193055180485103,0.249940432553845,1.00512617106132,1,0.04,0.0493430327183525,479.587183912641,1.14669664029433,0.307307885996871
951,0.249973903429983,-0.0943088590355252,-0.249990081403173,-0.185608988769845,0.25,0.25,0.249996472875661,0.249930207576951,1.0050529893511,1,0.04,0.0507844851261413,479.493275775773,1.10748318849942,0.318126652095041
1011,-0.174988248518447,-0.0399002514641791,-0.24999846842609,0.184658651684523,0.25,0.249632783627354,0.249999470931349,-0.174858495238958,1.01372792485019,1,0.04,0.044844982448841,483.687697787121,1.04442087131039,0.340286073716275
1071,-0.249981569450523,-0.0302987324810003,-0.249999948488958,0.25,0.25,0.249567980738064,0.25,-0.249821207500589,1.00453185958416,1,0.04,0.0428546649032138,479.213892391139,0.994093466962674,0.354206768921002
1131,-0.249461462901437,0.095570631075282,0.174950410846119,-0.173360650119475,-0.174936089988474,-0.17506480288929,0.249944734912837,0.174988090461377,1.0021595056485,1,0.04,0.0333875628173439,478.140886269161,0.980803293846127,0.358202524926226
1191,-0.249369679392775,0.117782871702861,0.24994165072878,-0.248071353081735,-0.249924811751146,-0.25,0.249934982250396,0.249954437160547,1.00280612243604,1,0.04,0.0315967034965359,478.427211299759,0.959857079008988,0.366238483438201
1251,-0.249676892163439,-0.194832569244571,0.249988591405912,0.174899084902373,-0.249988721762672,0.174984257671637,-0.175001221283494,0.249931426124556,1.00236750990576,1,0.04,0.0333245800980282,478.24270566965,0.949523660115557,0.370081384461114
1311,-0.249731106181792,-0.25,0.249996875054817,0.249540926899568,-0.25,0.249981479613691,-0.249989963083592,0.249927365353499,0.999383283972532,1,0.04,0.0327830226886835,476.791691559787,0.946037929656566,0.370317986299332
1371,0.104138266570869,-0.249999986299292,-0.175000404892841,-0.174844560425465,-0.25,0.24998617824017,-0.249998261494272,0.0431525462705827,0.996913441539354,0.978683620194028,0.04,0.0206112359064793,475.524924490306,0.871063266268059,0.401123644145115
1431,0.166585802938986,-0.24999998388152,-0.249999924883604,-0.249736117012235,-0.25,0.249987007409549,-0.249999725919686,0.00666287231477406,0.962328192769887,0.953605526304649,0.04,0.0241263406756647,458.883347903588,0.794020559155848,0.424644229597007
1491,-0.187505439684497,0.17445642005835,0.174916612189111,-0.249960162514792,-0.249999941442453,0.249998051079127,-0.249999940707832,0.213499410335147,0.920889596123059,0.92852743241527,0.04,0.0438316229089146,439.112222191051,0.809839693683923,0.398410836182569
1551,-0.249992129559229,0.249360491341857,0.249901883437237,-0.24999969995642,-0.249999931108769,0.249999999961993,-0.249999978611622,0.249999975868154,0.905761226515908,0.903449338525891,0.04,0.0459940094698386,431.977866136271,0.816049006286117,0.388955512401463
1611,-0.179282192802548,0.243589595921804,0.249985282515585,0.173873854618891,0.175000005987654,0.249999999948722,0.174954645581303,-0.174910816496353,0.872385714586588,0.878371244636512,0.04,0.0712797665074591,415.991899883377,0.830667808503279,0.36796979449242
1671,-0.166803968669016,0.242571202612383,0.25,0.248675070132181,0.249999994887022,0.24999999994638,0.249946638085937,-0.249895073972442,0.854832441920782,0.853293150747133,0.04,0.0735731691986797,407.686699481472,0.83919459794747,0.356959167290087
1731,0.187479404699648,-0.126560972870228,-0.175,0.245070915898886,0.249999955335085,-0.0454748037274853,0.24996922784013,-0.249542929456624,0.842423399259869,0.828215056857754,0.04,0.0551287830949517,401.782847886018,0.777610458324605,0.379650499959512
1791,0.25,-0.191701945014218,-0.25,0.244434888681246,0.249999948355331,-0.0976174161405204,0.249973214267341,-0.198012331122504,0.81122363021964,0.803136962968375,0.04,0.0562205053599479,386.801757366103,0.711805884718142,0.399283662674256
1851,0.249999936085944,0.183742221758747,-0.25,-0.175825513143377,-0.1750000077467,0.197857377487515,0.249995982089776,0.175000197192683,0.792392788512194,0.799375248884969,0.04,0.0528281772457779,378.021659999546,0.726986049619862,0.382072063607966
1911,0.249999924806993,0.249997074718682,-0.25,-0.249989113465369,-0.25,0.249999988127757,0.249999999940794,0.249999736356309,0.798238455700433,0.799375248884969,0.04,0.0455911510491494,380.859666153924,0.746294981414499,0.374980891735129
1971,0.249999988721049,-0.0466628376282605,0.0680349751650836,0.175001630208615,0.174986502786967,0.249999456415909,0.249999909034329,0.249999960453446,0.786344418438233,0.799375248884969,0.04,0.063629360176832,375.114542346738,0.797444269854038,0.345635415212417
2031,0.25,-0.0990145868659563,0.124158794311863,0.249999996739318,0.249984120925844,0.249999362584407,0.249999892992012,0.25,0.794005531348133,0.799375248884969,0.04,0.06027408822218,378.860911223026,0.849413526007812,0.327729324904209
2091,0.249983336725786,0.197647811970106,0.231123819146779,0.249987899109125,0.249996117739286,0.249999904387661,0.24999997488417,0.24997737745964,0.7928492951393,0.799375248884969,0.04,0.0719825648672274,378.259758279942,0.883102759921742,0.314726690474699
2151,0.249980396147984,0.25,0.25,0.249985764233208,0.249998234824011,0.25,0.249999989335728,0.249973385246635,0.794954788015091,0.799375248884969,0.04,0.0726528417350464,379.289783388951,0.915508162896846,0.304413283796527
2211,0.249997059422198,0.249987949012889,0.089921586000001,0.249997642271602,0.249999735223602,0.249936547820583,-0.00459792087475582,-0.00459792087475582,0.807547976638075,0.799375248884969,0.04,0.0634110030859392,385.162999119785,0.872476462671126,0.324373611708987
2271,0.25,0.249985822368105,0.0616724541176483,0.249999738396024,0.25,0.249925350377157,-0.00217162991090279,-0.00217162991090279,0.799326394782807,0.799375248884969,0.04,0.0632863423215716,381.332675898468,0.861371328293951,0.325288182231724
2331,0.25,0.249740225204952,-0.202678129732799,0.249987758297369,-0.174995396088417,0.249988802556574,0.174996370093829,-0.00103111209448378,0.80246126889338,0.799375248884969,0.04,0.048694638177523,382.823005477484,0.844121591111811,0.333232764395753
2391,0.25,0.249696884529102,-0.249328232765231,0.249985644162312,-0.249994583633431,0.25,0.249995729522151,-0.000487434164007883,0.801871777344137,0.799375248884969,0.04,0.0472771985005125,382.566176665307,0.827537097433795,0.339682970879612
2451,0.246830004821387,0.249954532679365,-0.249899210360932,0.248935868990774,-0.249999187545015,0.249999477115331,0.237639041828782,-0.000229982685483462,0.801436056528214,0.799375248884969,0.04,0.0468951925789933,382.361297010277,0.814407613755057,0.344974327928753
2511,0.246270593907515,0.25,-0.249999971113115,0.248750614548738,-0.25,0.249999384841566,0.235458449882893,-0.000108371795062185,0.80061266027892,0.799375248884969,0.04,0.0463645867333339,381.967236106114,0.805284170347203,0.348523146543545
2571,0.2494405552998,0.249990477199177,0.175000004333033,-0.0839878419913437,0.174996324472845,0.249995385658716,0.247818767482434,0.212465121133559,0.787098062159313,0.799375248884969,0.04,0.0626309571803776,375.470160272674,0.850864055506998,0.324242490770531
2631,0.249999960251379,0.249988796704914,0.25,-0.142706393145476,0.249995675850406,0.249994679920566,0.25,0.249976046182659,0.795248216484359,0.799375248884969,0.04,0.0618798583393367,379.461805356795,0.897042678868717,0.310820488598963
2691,0.249999994037707,0.249984986208085,0.0735234326336391,0.191090473572541,0.249999138041378,0.249999141412927,0.249989192860895,0.24998744122666,0.796589800060862,0.799375248884969,0.04,0.0673343679487107,380.052517412155,0.913691678279209,0.305631857150287
2751,0.25,0.249984313767468,0.0423805089807519,0.249995802993368,0.249999749016256,0.249999928735108,0.2499872857187,0.249989452116778,0.797932313075574,0.799375248884969,0.04,0.068974698496,380.701800700583,0.925477101665854,0.302255303188863
2811,0.249999939732549,0.249990734053844,-0.206141911891896,0.249999370354179,0.249995827259889,-0.175000010668427,0.249997908251319,0.249998417817517,0.808542393189413,0.799375248884969,0.04,0.0561160449281189,385.819293279711,0.894696613608921,0.316856648271026
2871,0.249999929097117,0.249991867045557,-0.249998809692952,0.24999999988844,0.249995135185235,-0.249999999974933,0.249999782815899,0.25,0.803652623004242,0.799375248884969,0.04,0.0576997240157496,383.386246205708,0.853688749078716,0.329983061265495
2931,0.249999682836721,-0.175001218721151,-0.249995620456762,0.249999999983266,0.249999178782211,-0.249999425989704,-9.27633646961225e-05,0.249997618313043,0.809281361312062,0.799375248884969,0.04,0.0389174689638877,386.056833074969,0.799101404803495,0.354980115074242
2991,0.249999639379004,-0.249999998562335,-0.249995057650375,0.25,0.249999892358148,-0.249999324698193,-0.00476579477981397,0.249997198015344,0.802507488684412,0.799375248884969,0.04,0.0337663918860667,382.843969648778,0.767005557717845,0.366756632232367
3051,-0.175000054093149,0.174991116314643,-0.249995229207209,0.249999937171974,-0.175000016146278,-0.249999898704729,0.175001070994078,0.249999579702302,0.800866941512913,0.799375248884969,0.04,0.0249136702786662,382.032289041276,0.746963507492679,0.375798776512321
3111,-0.25,0.249989548351757,-0.249995259481945,0.249999926084676,-0.25,-0.25,0.25,0.25,0.800601431846881,0.799375248884969,0.04,0.0228463723895688,381.949136914868,0.73545461607195,0.381596454676514
3171,0.175,0.249997836850146,0.175000679238524,0.249999954113135,0.175,0.174999941190475,-0.0741449945149661,0.25,0.781606121323928,0.799375248884969,0.04,0.0632831837573882,372.732846176184,0.798180260960072,0.343124207253949
3231,0.25,0.249999299526332,0.249999962542137,0.249999959059334,0.25,0.249999930812324,-0.0555000222573208,0.25,0.790563816299391,0.799375248884969,0.04,0.0630872122592239,377.256151683959,0.883110924144253,0.313888749245938
3291,0.249986228077647,0.249998482850444,0.24999999438132,0.249969428892372,0.25,0.249999228381149,-0.0266446962843435,0.249978181738308,0.796112252007132,0.799375248884969,0.04,0.0640530384066589,379.845667435875,0.910403117123642,0.306568915404238
3351,0.249983797738409,0.24999833873117,0.25,0.249964041215849,0.25,0.249999104422707,-0.0125857398000544,0.249974331456832,0.797624562982741,0.799375248884969,0.04,0.0660844675440475,380.553274219126,0.923152969846089,0.302898043411988
3411,0.249990483590398,0.249999750809675,0.249987436383529,0.0989663026216369,0.249998410649037,0.249999865663406,-0.00594479049866616,-0.00594479049866616,0.805095252843057,0.799375248884969,0.04,0.0612087251184011,384.05196230535,0.893785819911551,0.315726623082128
3471,0.249991663446631,0.25,0.24998521927474,0.0723196428697172,0.249998130175338,0.25,-0.00280784305360653,-0.00280784305360653,0.799907817592919,0.799375248884969,0.04,0.0615754793878897,381.616381840133,0.882365160927524,0.317784955938334
3531,0.249972992633625,-0.175,0.223848849580634,-0.201630812407324,0.249999719526301,0.249956924189019,-0.00137166394638156,-0.00137166394638156,0.806147188899417,0.799375248884969,0.04,0.0415615797202195,384.683861905995,0.8605931177267,0.328443578285851
3591,0.249969697784271,-0.25,0.21923654904638,-0.24997501039739,0.25,0.249949322575316,-0.00245467769371645,-0.00245467769371645,0.803728462224957,0.799375248884969,0.04,0.0395956420867535,383.431199969201,0.822803504452961,0.342409647247397
3651,0.249855520917596,0.175,-0.179614517643043,0.175003748440391,0.25,-0.174987284285136,0.174985264202008,-0.00286987806628145,0.79949010762078,0.799375248884969,0.04,0.046635350271397,381.331972275603,0.803342499700932,0.348784480724873
3711,0.249835372058771,0.25,-0.25,0.25,0.25,-0.24997609726051,0.249982663767068,-0.00135536415928086,0.799414689900676,0.799375248884969,0.04,0.0458676269417269,381.41090649257,0.809052880971394,0.346394410209514
3771,0.249975305808816,-0.175,-0.0412724342034761,-0.174997304597899,-0.126841525037448,0.175003543750382,0.0927234589586465,0.212276016520667,0.804771822859833,0.799375248884969,0.04,0.0273892412618011,384.019838692711,0.793909836813973,0.355416146709664
3831,0.25,-0.25,-0.00443815788644258,-0.249996828938704,-0.193342970632292,0.249999950987598,0.0649718345806897,0.249950212804345,0.802076204159767,0.799375248884969,0.04,0.0262381730293984,382.642903177041,0.765148068550021,0.367453893028097
3891,0.25,-0.249999165787741,-0.213165723682966,0.175000475659194,-0.241401883341067,0.24999999264814,0.222245167510964,-0.0505598399808908,0.800384468978852,0.799375248884969,0.04,0.0289674975628256,381.754245606298,0.743601085987456,0.37722332308629
3951,0.25,-0.249999018573813,-0.25,0.25,-0.249882867936733,0.25,0.249999285086895,-0.0799609663286797,0.798321734605079,0.799375248884969,0.04,0.0273127005714123,380.879426110811,0.751708497467758,0.372299738134566
4011,0.249999879912255,-0.249999852786072,0.174996514185851,0.25,0.17501756980949,0.249999830063532,-0.107092863769219,-0.107092863769219,0.792505044940677,0.799375248884969,0.04,0.0430615529204142,377.880873601417,0.774782203746519,0.358368600171161
4071,0.2499998587203,-0.25,0.249995899042177,0.25,0.25,0.249999800074743,-0.115794562594424,-0.115794562594424,0.794646572086983,0.799375248884969,0.04,0.04344165985642,379.158857442524,0.818660271020954,0.340308006742166
4131,0.249999748259595,-0.249997800289783,0.249999384856327,-0.174999999930807,0.25,0.249999970011212,-0.117024663009717,0.175001340046143,0.79393397210883,0.799375248884969,0.04,0.0394623587438499,378.771053031815,0.841082158930514,0.330897157773674
4191,0.249999728766529,-0.249997412105627,0.25,-0.249999999918596,0.25,0.25,-0.118401504426719,0.25,0.799497486959212,0.799375248884969,0.04,0.0411528669184673,381.461223222698,0.851235989948348,0.329272223382768
4251,0.249999959314979,0.174999756243989,0.249992815844039,-0.249999999987789,0.25,-0.174817629238011,-0.115644483595835,0.249996930896642,0.80387515782036,0.799375248884969,0.04,0.0474643086187327,383.575419975923,0.834122171471272,0.337890343504901
4311,0.25,0.249999256540979,0.24999154805181,-0.25,0.25,-0.249785446162366,-0.102562277251272,0.249996389290167,0.801526525087328,0.799375248884969,0.04,0.0507232502950987,382.389273681993,0.81292544267294,0.345628591552941
4371,0.25,0.249999455187005,-0.174704232186679,0.174999813618901,-0.174998276241777,0.175029248362204,-0.0848885038664244,-0.0848885038664244,0.806826732063972,0.799375248884969,0.04,0.0441242850207894,384.758704196258,0.773162664921388,0.365655622216972
4431,0.25,0.249999490242187,-0.249650546346413,0.24999978072812,-0.249997972049149,0.249996547395952,-0.0715971534998916,-0.0715971534998916,0.800517520422667,0.799375248884969,0.04,0.0417786668093785,381.909652325588,0.759244629569718,0.369601378567686
4491,0.25,0.249997636647549,-0.249947581951962,-0.174999790228219,0.143059644895187,0.0514850628064733,-0.0661888651489786,-0.0661888651489786,0.802009195858824,0.799375248884969,0.04,0.031373676452073,382.650329345859,0.7480689352148,0.375850513051882
4551,0.25,0.249997309542613,-0.25,-0.249999714514632,0.212422753767717,0.0164536243495065,-0.0762872235136558,-0.0762872235136558,0.800947613575184,0.799375248884969,0.04,0.0288576273749723,382.123909779235,0.735251819656106,0.381876365870693
4611,-0.175,-0.174998898715474,-0.249962099624361,-0.249978936081654,-0.180636573903484,0.214968043652426,-0.107252759280361,-0.107252759280361,0.809058307263681,0.799375248884969,0.04,6.33603988038621e-08,385.716100909884,0.678875604634837,0.417476699775131
4671,-0.25,-0.249998229584548,-0.249955411322777,-0.249975269299364,-0.24999998466899,0.25,-0.175199981738353,-0.175199981738353,0.784224920025886,0.799375248884969,0.04,4.61255145653596e-10,374.115339212436,0.751612465584878,0.365734742181935
4731,-0.25,-0.249999715236222,-0.249993095566249,-0.249996267970408,0.174912766735322,0.249968318594533,0.175027970717138,-0.249964383628971,0.821410118312762,0.799375248884969,0.04,0.0099932082112168,389.944202322612,0.709262964784548,0.403970694372903
4791,-0.25,-0.249999977410047,-0.249999745726861,-0.24999997361824,0.249897369924318,0.249962727758275,0.249999987351236,-0.249958330226983,0.796855872460824,0.799375248884969,0.04,0.0167594113915526,380.171725332114,0.738942816402538,0.378027730096961
4851,0.174908450150689,-0.249949848695829,-0.249988713136329,-0.249998545095367,0.249984605488648,0.249994409163741,0.249835057798085,-0.249991497006986,0.784343065551622,0.799375248884969,0.04,0.0271124298107015,374.156293479598,0.797481955384896,0.34473618074719
4911,0.249892294294928,-0.249941002452143,-0.249986766208588,-0.249998293003095,0.25,0.25,0.249805952582823,-0.249997349968163,0.793886800669113,0.799375248884969,0.04,0.0313792064305639,378.809752310724,0.855321433783717,0.325421672055579
4971,0.249909190929806,-0.144347521986364,-0.249998014931288,0.17438305218149,-0.0714979121221658,0.249999894006627,-0.0381779268174328,0.174996559791089,0.790374777745821,0.799375248884969,0.04,0.0437126813728607,377.105604250928,0.902503467943962,0.307021495982238
5031,0.249912172688902,-0.125713378374756,-0.25,0.249273877802299,-0.128232837790783,0.249999875301914,-0.0889986114174779,0.249995485042722,0.79935553023623,0.799375248884969,0.04,0.0502596231315764,381.413043965164,0.920654535264373,0.304406219010744
5091,0.249986825903335,0.121833501080106,0.174999135945038,0.249891081670345,-0.231733382399948,0.249999981295287,0.146133460292222,0.249561318289217,0.79096529780903,0.799375248884969,0.04,0.0753791529818245,377.336590297878,0.95051086787636,0.291693337887388
5151,0.25,0.165518244513317,0.24999898346475,0.25,-0.249998184389801,0.25,0.187627355299817,0.249484700626833,0.799269963478951,0.799375248884969,0.04,0.0773081721578742,381.381195219894,0.971829065330513,0.288352730345007
5211,0.249999999999831,0.237325471085574,-0.174991172552181,0.249999878129268,-0.249942357116561,-0.174891047840323,0.240630556502107,0.249909093892484,0.811767371136972,0.799375248884969,0.04,0.0637123881958413,387.36247068522,0.923579694103259,0.308175310694706
5271,0.249999999999801,0.249997334598325,-0.249989435378698,0.249999856622668,-0.249932505244812,-0.249871820988615,0.249984062596629,0.249983986821716,0.807763820696552,0.799375248884969,0.04,0.0643576226236539,385.349377026303,0.859376015971131,0.329477762920967
5331,0.248750879961184,0.249985590299257,-0.249880266572342,0.102296177762571,-0.06345927216313,0.173855389925127,0.249993697378631,0.249997547111749,0.798064709150638,0.799375248884969,0.04,0.0712676806365392,380.706245902849,0.847335420362533,0.330133287788756
5391,0.248530447013193,0.249983517775892,-0.249861001488867,0.0762308226696132,-0.0305522310310683,0.248630780086375,0.249995397634279,0.249999940104108,0.801291253338523,0.799375248884969,0.04,0.066267906393813,382.313584468873,0.845442407208326,0.332269423455561
5451,-0.175146084164627,-0.175002472278035,-0.249946199809392,-0.0798261846739267,0.207905061697038,0.249680601243499,-0.0781134759645642,-0.0781134759645642,0.823182944312895,0.799375248884969,0.04,0.0281722506890215,392.662492217388,0.73394041562689,0.393109275757712
5511,-0.249912530843065,-0.249999999934611,-0.249961234807131,-0.107365656558081,0.249985760413763,0.249865863800638,-0.0697709747147983,-0.0697709747147983,0.80532128013452,0.799375248884969,0.04,0.0193795429045719,384.142712378893,0.656617046829044,0.42986800445488
5571,0.174751577374969,-0.248956520294485,0.17230125356573,0.0139585659543866,0.249951701248498,0.249933876731288,0.201729214334034,-0.0866659414750279,0.775367428295654,0.799375248884969,0.04,0.0433789774416229,369.852159365757,0.737694828404595,0.368388526917757
5631,0.249692302354622,-0.248772376828581,0.246818163278588,0.0353687228683514,0.249945690807569,0.249945879013168,0.25,-0.0916763646554079,0.79146643616601,0.799375248884969,0.04,0.0411242449804282,377.690690994687,0.82611450388092,0.33593148524508
5691,0.249893464205953,0.175184143475713,0.249522724491788,0.183401303952896,0.249991853621135,0.249952760815822,0.249962711572299,-0.0174381294452455,0.788509095980379,0.799375248884969,0.04,0.0621510546060905,376.136958227886,0.875532086789581,0.315666589090494
5751,0.249928963356187,0.25,0.25,0.209524700614874,0.25,0.249953975251585,0.249956131261528,0.023594867120356,0.795548328260893,0.799375248884969,0.04,0.0643617322309551,379.606328082182,0.91861714864319,0.303636216580715
5811,0.24995358992467,0.25,0.25,0.243577474330372,0.25,0.249992851892148,0.249993419689229,0.216032940370158,0.793460626960347,0.799375248884969,0.04,0.0698559659243788,378.545966172604,0.946949680126932,0.293728709527524
5871,0.249957935789696,0.25,0.25,0.249586787338989,0.25,0.249999712475777,0.25,0.249992600355418,0.797649355547973,0.799375248884969,0.04,0.0710349834213438,380.580642651863,0.967139610771626,0.289142678963915
5931,0.249993690368455,0.25,-0.174981442075716,0.249938018100848,-0.174980636665956,0.249984527824964,0.25,-0.00556588284681099,0.815079439340569,0.799375248884969,0.04,0.0526238386858271,388.892963541723,0.902090323799909,0.316763211311166
5991,0.25,0.25,-0.249978167147901,0.25,-0.249977219607007,0.249981848180703,0.25,-0.00263076950989278,0.805864523821058,0.799375248884969,0.04,0.0543380869801186,384.425098742495,0.840399290983211,0.336109458001742
6051,0.25,0.249927242797367,-0.249996725072185,0.249885276476104,-0.249981258675283,0.249997004356976,0.249986404753739,-0.00124241781064922,0.802135427927079,0.799375248884969,0.04,0.0523699504187045,382.683636513224,0.818499660779503,0.343539013958719
6111,0.25,0.24991440329102,-0.25,0.249865031148357,-0.249981971452037,0.249999678976318,0.249984005592634,-0.000586610015990697,0.800869993400535,0.799375248884969,0.04,0.0497692318173355,382.088440983619,0.807461287826642,0.347693735315979
6171,0.249999859429599,0.153083065086507,0.174999991923828,0.249978363241132,-0.249992117986155,0.249999885540036,0.249989962075114,-0.000276829818531605,0.795715829446082,0.799375248884969,0.04,0.0563597891350718,379.609252287195,0.81801412779229,0.340981377530993
6231,0.249999834623058,0.135995181873946,0.249999990498622,0.24999836302221,-0.249993908551,0.249999921992457,0.249991013219082,-0.000130500720774582,0.797020328657167,0.799375248884969,0.04,0.05470492113636,380.271232220112,0.837195111981739,0.333750145912404
6291,0.249999975193459,-0.191969303298553,0.24999996289021,-0.174991828496965,0.174999661988205,0.0943940574009591,0.249998648671479,0.17488779595541,0.796541951104346,0.799375248884969,0.04,0.0442218157558568,379.954633817802,0.842908653794401,0.331211882533133
6351,0.25,-0.249845388917229,0.249999958018138,-0.249990097588584,0.249998527377476,0.0669341989436358,0.249999996104255,0.249867971662363,0.800325099058529,0.799375248884969,0.04,0.0429926801772062,381.850655595834,0.846909757202087,0.331292100510772
6411,0.249999870790112,0.175023191662416,0.249837185498929,0.175001367258188,-0.174999714798647,0.222537257561448,-2.49047792027253e-05,0.249980114682527,0.80014333026302,0.799375248884969,0.04,0.0581947898646808,381.658238755058,0.829366648576949,0.338129257674277
6471,0.249999847988367,0.25,0.249808460936715,0.249999861054678,-0.249999404594433,0.249996620846944,-1.15003110392056e-05,0.249999904627262,0.797349033982708,0.799375248884969,0.04,0.0594751121745078,380.416772094347,0.841568637050468,0.332142760092482
6531,0.249999649691199,0.248569176423907,-0.175028730859493,0.249999979158202,-0.249999905830462,0.249999493018099,-5.16852073956564e-06,-5.16852073956564e-06,0.807931841338812,0.799375248884969,0.04,0.0437767952763347,385.440257415891,0.803317963691566,0.352552882838273
6591,0.249999614697581,0.248316678145773,-0.25,0.25,-0.249999994283879,0.249999999871832,-2.17760689688218e-06,-2.17760689688218e-06,0.802019848414187,0.799375248884969,0.04,0.0421730910129865,382.616269149467,0.77486917141904,0.362818752984367
6651,-0.175000057795363,-0.174439604833539,-0.249383403990408,0.25,0.174999987030763,0.249579307005636,-0.00376848291487296,0.175000717939984,0.797542661539224,0.799375248884969,0.04,0.0283549264571893,380.495298622026,0.769800154013978,0.363183389648958
6711,-0.25,-0.249043654771065,-0.249274592929891,0.25,0.249999983733347,0.249505067088073,-0.0236079208445097,0.25,0.800220219568669,0.799375248884969,0.04,0.0243905964282366,381.765966116344,0.75932696031768,0.369422263807435
6771,0.175,-0.24985654821566,0.175108811060516,0.249999821281158,0.249999997560002,0.249924050664814,-0.0503667607388041,-0.0503667607388041,0.791837321031531,0.799375248884969,0.04,0.0415500874471189,377.570153434573,0.780643538065908,0.355385384871906
6831,0.25,-0.25,0.25,0.249999789742539,0.25,0.249997988943063,-0.0601338855965603,-0.0601338855965603,0.794697875833616,0.799375248884969,0.04,0.0430853766651221,379.19055376065,0.827488603285645,0.336705464706518
6891,0.249982756895895,0.17352610744656,0.25,-0.0323195209502038,-0.0666871883802032,0.249999698341459,-0.0607765873737094,-0.0607765873737094,0.801855197332643,0.799375248884969,0.04,0.0423737076372433,382.617071892487,0.827027117395819,0.339937651889169
6951,0.249979713995171,0.248266008760659,0.25,-0.0821405757783348,-0.122573162800239,0.25,-0.0565730751576907,-0.0565730751576907,0.800475594857086,0.799375248884969,0.04,0.0451999847743208,381.893457960755,0.814061664630105,0.344698657028409
7011,0.249954060262808,0.249739797172536,0.25,-0.224799337212003,0.194110251471515,0.0973977690280003,0.175075901276562,0.175071025350311,0.785075846618154,0.799375248884969,0.04,0.0563438490832853,374.380530683324,0.845382077523271,0.325398012135686
7071,0.249949533133567,0.249999877480514,0.25,-0.249974412759121,0.249995559872412,0.0704679635623534,0.249985757178478,0.249995768323681,0.796852231053031,0.799375248884969,0.04,0.0542596066844953,380.248723015341,0.895270237585124,0.312081693145692
7131,0.249992429970035,0.249999443816955,0.249999964788003,0.0115845892734978,0.249999333894765,0.223047757414986,0.249996367752197,0.24999817114816,0.795175242724406,0.799375248884969,0.04,0.0671136740202155,379.347861867512,0.911252040989225,0.30588191665547
7191,0.25,0.249999367288091,0.249999958574121,0.0577420602204305,0.24999999989871,0.24997360338898,0.249998240206383,0.249998595176009,0.797545124459811,0.799375248884969,0.04,0.0689245177699058,380.525721676328,0.929619295787034,0.300769341460137
7251,0.25,0.249999161216714,-0.172898897504988,0.221157545546386,0.249999999984806,0.249996039525201,0.249999736009848,0.249960117929751,0.801738484495563,0.799375248884969,0.04,0.0639136440732705,382.543698277686,0.925568643914445,0.303687624952134
7311,0.25,0.249999124851176,-0.247528107401302,0.249995572368613,0.25,0.249999998843357,0.249999999975165,0.24995332782747,0.80113907855869,0.799375248884969,0.04,0.0652269737663638,382.213542161576,0.910948220712707,0.308295407120206
7371,0.249981027691655,-0.175000125371933,0.175370783889805,0.0860884125103865,-0.174999770214826,-0.175000000173496,0.102946382404001,0.249992999132478,0.817030133058167,0.799375248884969,0.04,0.0399323087273426,389.895184429762,0.841833051130733,0.340311460621195
7431,0.249977679637241,-0.249999993058365,0.25,0.0571636195942291,-0.249999729664502,-0.25,0.0769957440090893,0.249999999951009,0.806074243971142,0.799375248884969,0.04,0.037442580982612,384.510933661693,0.771409090008737,0.366250830141551
7491,0.249996597882119,-0.249999998958755,0.249999951962756,0.221074542939134,-0.249969236492172,0.175,-0.0064536212161421,0.249980846221066,0.794046270459694,0.799375248884969,0.04,0.0473111447111157,378.759436047298,0.77410083781717,0.35951796765035
7551,0.249999936395921,-0.25,0.249999943485595,0.25,-0.249963855344114,0.25,-0.00309694205832174,0.249977466151076,0.797143294488052,0.799375248884969,0.04,0.0430754566713006,380.338547966233,0.798854777443371,0.349830107591667
7611,0.249999990433221,0.175,0.14285346043809,0.249999996298935,-0.249994530902938,0.249997934339502,-0.00146273673658916,0.249996594389969,0.795509941172207,0.799375248884969,0.04,0.0521604843422563,379.533192421944,0.816964384080916,0.341351107394285
7671,0.249999999969215,0.25,0.123945257547353,0.249999995645806,-0.249999944236848,0.249997569811179,-0.000690680813773949,0.249999969961538,0.797506107759395,0.799375248884969,0.04,0.0534203086789406,380.503099102276,0.833383193762326,0.335481160385291
7731,0.249999969703903,0.142823177245753,-0.193908146366098,-0.174551066525994,0.174999994322146,0.249999632239999,-0.000332705518193543,0.249999865388809,0.802824182715141,0.799375248884969,0.04,0.0413389328641665,383.070863585448,0.826254135202071,0.340659222592098
7791,0.249999964362966,0.123909620289121,-0.249999923527295,-0.249471842203371,0.249999983479616,0.249999996198026,-0.000480563552955938,0.249999846934798,0.801935884533508,0.799375248884969,0.04,0.0415387397113633,382.59070683662,0.80484154794863,0.349284010815783
7851,0.249999994654445,0.23104117351481,-0.249712185606855,-0.249836801028853,-0.17500000109974,0.249999999381654,-0.00159335922090292,0.249999945155772,0.806802537135087,0.799375248884969,0.04,0.0347647674028733,384.950683267368,0.771704430529568,0.366529367524363
7911,0.25,0.249946741731108,-0.249661408326777,-0.249901205527468,-0.24999999837845,0.249999999943471,-0.00908127924581184,0.249999962488884,0.802353815048622,0.799375248884969,0.04,0.0343586750945836,382.778947290055,0.742628474014112,0.378731234064686
7971,-0.174999479336742,0.249979788803788,-0.0716729763618146,0.174815074934547,0.145550382668963,-0.174909958862667,0.210901751849998,-0.0205422562592912,0.797215915630945,0.799375248884969,0.04,0.0372407576924548,380.236976073421,0.733023186582836,0.381145951884063
8031,-0.24999938745499,0.249985620640143,-0.04026325307388,0.249765006780784,0.215353391089095,-0.249894069240221,0.249988329517421,-0.0327631327781976,0.796904663194331,0.799375248884969,0.04,0.0317381741162464,380.209625422531,0.752066652164673,0.371468037853405
8091,0.174803002491562,0.249957390691895,0.206446193667662,-0.00354227373360186,0.244801862338539,0.174966594431885,0.243313965143036,0.0776758647677627,0.781228162830653,0.799375248884969,0.04,0.0583898453403099,372.587300686606,0.813954515181013,0.336343150531724
8151,0.249768130129189,0.249952408936321,0.249983154857346,-0.0482435585302583,0.249998651382558,0.249942005668139,0.242136136135792,0.135253463819098,0.79304691602184,0.799375248884969,0.04,0.0579221611801123,378.440206756245,0.887078867638193,0.313465474430509
8211,0.247655647830001,0.249992309223844,0.249997458573487,0.205263437083448,0.24999878826895,0.249991299895762,-0.0115599920657193,0.23278042187709,0.797101980899765,0.799375248884969,0.04,0.0647846990452904,380.213190054388,0.89441641822716,0.312350418804418
8271,0.247282856836027,0.249999350451054,0.249999982758688,0.24999996572116,0.249998812425372,0.249999998877107,-0.00546026387627195,0.249991061534383,0.796691091428886,0.799375248884969,0.04,0.0665904633934308,380.11189811842,0.91482815558836,0.305299868918751
8331,0.243780777026247,0.249457387296571,-0.174996837201485,-0.174959745805689,0.249933963770067,0.249987964494503,-0.00258965610365072,0.248269096561813,0.80811622268414,0.799375248884969,0.04,0.047728783229517,385.649703970219,0.891287266118037,0.317928877599026
8391,0.243162762942168,0.249361746739897,-0.249996276017987,-0.249952636075134,0.249922519889719,0.249985840779926,-0.00122735329405561,0.247965220390183,0.805035170584971,0.799375248884969,0.04,0.04954912116306,384.049400341049,0.843064361099111,0.334719517550037
8451,-0.0798414444419518,0.24984545229444,-0.249995567301355,-0.249564167399216,0.249930376876496,-0.175001798211579,-0.00214465352256201,0.249694672085984,0.812589602494507,0.799375248884969,0.04,0.0294372973291947,387.722798668952,0.783059278717668,0.363815648577989
8511,-0.136842186921502,0.249930812098183,-0.249995442233714,-0.249495614103466,0.249931763403575,-0.249999616857139,-0.0190806304014853,0.249999869444067,0.804494678038627,0.799375248884969,0.04,0.0242317793893096,383.77550693831,0.730059782061395,0.386254458844785
8571,0.126655839876795,0.249772348516523,-0.249999316335057,-0.249814874065628,0.249988343917816,-0.249999926687271,0.157626318617961,0.249986599069791,0.793227846808998,0.799375248884969,0.04,0.0339524728950224,378.405052637435,0.743988621926332,0.37371911279476
8631,0.17315549166473,0.249744384355054,-0.25,-0.249871214058951,0.249998328714447,-0.249999981363176,0.189486168429599,0.249984257239036,0.798046186217205,0.799375248884969,0.04,0.0340223202481536,380.772149170784,0.765650867910195,0.365417273091439
8691,0.238472800533299,-0.173945440272936,-0.25,-0.249870492103845,0.0132517649973606,0.174981781183836,0.24092292526444,0.249997638585855,0.801755017205299,0.799375248884969,0.04,0.0310445061914761,382.534993326973,0.760042590249082,0.369817889973482
8751,0.249999384451282,-0.248714232854347,-0.25,-0.249870364700003,-0.0285270403644782,0.24997856280978,0.25,0.25,0.798922651864489,0.799375248884969,0.04,0.0310213703201876,381.150468566697,0.754165038432778,0.37135112057578
8811,-0.174999408059705,-0.24970987313176,-0.25,-0.249980554705,-0.216779056054672,0.249962203573732,-0.141899845189237,-0.141899845189237,0.815502326805405,0.799375248884969,0.04,1.08618147345124e-07,388.986536406437,0.654528211752313,0.436677560688062
8871,-0.249999194973409,-0.249885574357186,-0.25,-0.25,-0.25,0.249959316649724,-0.211409077591511,-0.211409077591511,0.783784273291688,0.799375248884969,0.04,5.14704358149554e-10,373.847065587666,0.710982722834733,0.386357729390651
8931,0.17494297603524,-0.249982836153578,0.174806586149954,-0.24988796723341,0.174964024606723,0.249968455463304,0.0133946400898849,-0.249949466387055,0.773503876285558,0.786119789657947,0.04,0.033317890442135,368.38099133277,0.725051385427304,0.373321585670919
8991,0.249932770919119,-0.25,0.249772454294063,-0.249868196745188,0.24995767600791,0.249970068195112,0.0598733624090636,-0.249940548690653,0.767545009652422,0.770525131743805,0.04,0.0427703818075105,366.156755987157,0.788849757375478,0.341057364487882
9051,0.249962714642613,-0.249924830714254,0.24995637966821,-0.249976016894674,0.249905415741241,0.249995506857555,0.221480105251093,-0.249869059891037,0.754489961092083,0.754930473829662,0.04,0.0549283561065528,359.855555903919,0.792444141301838,0.333667747548707
9111,0.249967998829111,-0.249911565546181,0.249988837087178,-0.249995043979878,0.249896193341241,0.24999999603328,0.249998942223216,-0.249856444220516,0.743593293332456,0.739335815915519,0.04,0.0616773537952021,354.665885130791,0.775481211637373,0.336049158582702
9171,0.249995199638382,-0.249986732702391,0.249998325563077,-0.249990918205788,0.249984245340933,0.249967343292415,-0.137651466640005,0.175021532278022,0.727678330717795,0.723741158001377,0.04,0.0662938149942998,347.051446064921,0.749734595060582,0.340126902180662
9231,0.249999999781194,-0.249999997494664,0.25,-0.249990190128007,0.249999783929114,0.249961581044027,-0.20606036232175,0.24999999871894,0.722600446866959,0.721401959314255,0.04,0.062605295078947,344.747180403756,0.738758541397063,0.342888471796176
9291,0.249999999961943,-0.249999443157464,-0.174997215353732,0.175000709982917,0.249999967589367,0.249994237156604,0.181590945651737,0.249999999807841,0.715546293584982,0.721401959314255,0.04,0.0613640322068488,341.36356026157,0.760381911986776,0.329867902033001
9351,0.24999999999384,-0.249999345333253,-0.249996723945567,0.249999104120139,0.25,0.25,0.25,0.25,0.720876579868732,0.721401959314255,0.04,0.0567446942380964,343.952465365066,0.775068311720057,0.326071710469905
9411,0.2499895023421,-0.24999990152146,-0.249999508591835,0.249999865618021,0.249999943225645,-0.174999936107798,-0.0971532918665751,0.249999217727132,0.735411899239455,0.721401959314255,0.04,0.0398519761762832,350.723734869398,0.717241681635691,0.35929759769153
9471,0.249987649815322,-0.249999999672321,-0.25,0.25,0.249999933206641,-0.249999924832703,-0.0771516001817456,0.249999079678978,0.724287342416655,0.721401959314255,0.04,0.0382134135135554,345.514103521431,0.681028659885526,0.372782114130144
9531,0.249995801288671,0.175000000049152,-0.25,-0.175,0.249999989980996,-0.249999988724905,-0.0712294796534244,0.235979371824833,0.722598572618911,0.721401959314255,0.04,0.0360957165176225,344.753124872204,0.672316609492208,0.376781045655271
9591,0.249997239783968,0.25,-0.25,-0.25,0.25,-0.25,-0.0740649145567817,0.233505305732925,0.722356518657009,0.721401959314255,0.04,0.0347458148245957,344.633937068157,0.666241827940851,0.380085080575537
9651,0.249999585967595,0.24999577204501,0.174864778624033,-0.25,-0.0147516876080491,-0.249998807668238,-0.0823688121741288,0.247525537294402,0.730124047173928,0.735815699780046,0.04,0.0349558021028798,348.458129912687,0.689728145133763,0.371216549493887
9711,0.25,0.249995025935306,0.249840916028274,-0.25,-0.0614725736565283,-0.24999859725675,-0.0946962885140393,0.249999695805251,0.746012749427273,0.752773041504504,0.04,0.0300151032487759,356.063228591858,0.7310444866336,0.357880467212731
9771,-0.174993979600304,0.249998495516621,0.249976137404241,0.17499998508574,-0.221720886048479,-0.249999789588513,0.197917762140819,-0.116879516093534,0.767588769050491,0.769730383228963,0.04,0.0235679462412356,366.108438660089,0.751375453787796,0.358020102310186
9831,-0.249992917176828,0.249999107795677,0.25,0.249999982453812,-0.25,-0.25,0.249999996968545,-0.151261425897975,0.781182846954898,0.786687724953422,0.04,0.0211364899164672,372.831664574469,0.784941346152304,0.34900388413746
9891,0.174997701815748,-0.174999417618866,-0.141040170763253,0.249999775728343,-0.248599768288193,0.0621026332420358,-0.175000000454718,0.175006449735274,0.798145841373501,0.803645066677881,0.04,0.016139303482475,380.923741750035,0.810047521747076,0.345527183644459
9951,0.249996046343849,-0.249999157397903,-0.210047259721474,0.249999739247378,-0.248352668574345,0.117179568520042,-0.24909717715354,0.25,0.815507458687401,0.82060240840234,0.04,0.0180446019530253,389.218632401446,0.844685960159822,0.338573546682184
10011,0.24999637762828,-0.249999514890506,0.180988928199127,0.249978999882734,0.175246033956286,-0.194923064721994,-0.24999907195878,-0.174982037312808,0.834317928628456,0.837559750126799,0.04,0.0255560007078283,398.222623075988,0.871733134755478,0.335658037522877
10071,0.249996436090238,-0.249999577977436,0.249995314302763,0.249975339994855,0.249998746167574,-0.25,-0.2499989081868,-0.249978867426833,0.848422869492399,0.854517091851258,0.04,0.0291351635252361,404.910350227816,0.902615320368999,0.329617949871791
10131,-0.175000534586464,-0.249999936696615,0.249999297122986,-0.175003699000772,-0.175000188074864,-0.249841526038697,-0.249954877470986,-0.249996830114025,0.89292465858381,0.871474433575717,0.04,0.000715372429657234,426.240153716923,0.853039923895845,0.367146741915898
10191,-0.25,-0.25,0.249999999973614,-0.25,-0.25,-0.249813560045526,-0.249947107344665,-0.25,0.894211252843159,0.888431775300176,0.04,0.000541657091567668,426.660735882458,0.796989559409812,0.393355042809215
10251,-0.249899851130601,0.175,0.24998242887156,-0.25,0.174999917106706,-0.249964569915315,-0.249990617063804,0.174999945489314,0.871979187542877,0.905389117024635,0.04,0.0267003277169033,416.079610525906,0.925890811370811,0.33019564149944
10311,-0.249882177800707,0.25,0.249979328088844,-0.25,0.249999902478478,-0.249991218715866,-0.249998295249535,0.249999935869781,0.909409764624189,0.922346458749093,0.04,0.0288959794809129,434.088724526025,1.04775013577843,0.30442159399938
10371,0.17501688437217,0.25,-0.175003100738505,-0.24998400698279,0.249893439963023,0.174999732223818,0.175000236078818,0.249999990380467,0.91766208138412,0.939303800473552,0.04,0.0477196376836883,437.938780364329,1.15899027120103,0.277643998579513
10431,0.249999071814442,0.25,-0.249999999943331,-0.249981184685636,0.249874652460296,0.249998135330821,0.249999976901468,0.25,0.948448525226618,0.956261142198011,0.04,0.0527622854265794,452.714461151796,1.23772525183807,0.268753910601932
10491,0.249999860772166,-0.175,0.0574410225238439,-0.249448399719371,-0.174943314236365,0.249999694787643,0.249999878433556,0.249999971469013,0.978989547580428,0.97321848392247,0.04,0.0491309210481166,467.282875616681,1.23057666512474,0.279013917348739
10551,0.25,-0.25,0.111695320606286,-0.249354378842971,-0.249911190712246,0.249999969985906,0.249999861056865,0.249999966434133,0.975402962734422,0.961833780622029,0.04,0.0593024592437988,465.24954757885,1.15696046593006,0.295475935732943
10611,-0.175,-0.0557863117253972,-0.195709546715201,-0.24939989036557,-0.249986678606837,0.248889565690742,-0.00660209130305395,0.0571965854277665,0.975747992293703,0.945447539964251,0.04,0.0504875509788218,465.47031338956,1.00957087540894,0.338773827494372
10671,-0.25,-0.0215133079122319,-0.249957464477816,-0.249407921810735,-0.25,0.248693611991595,-0.0518847887783337,0.0231724593678196,0.944291377821224,0.929061299306474,0.04,0.0511061026326228,450.309739389649,0.879342635815341,0.376277184265517
10731,-0.249999663684838,0.209272377664702,0.175005876668847,-0.249898430337055,-0.249780988388465,-0.175195958201261,0.204717280945683,-0.19058880267776,0.91834095807245,0.912675058648697,0.04,0.0556145239002607,437.978317523683,0.827776741997118,0.388771184089135
10791,-0.249999604335103,0.24999926335475,0.249999407459435,-0.249984990665229,-0.249742339280547,-0.25,0.249999999132274,-0.228311378332863,0.901428608023153,0.89628881799092,0.04,0.0504918461989115,429.940570213296,0.797499582827972,0.396125353573154
10851,-0.249999838808268,0.249999654845991,-0.174998959965042,0.032778549970866,0.17503698951326,0.174883549309396,0.249980962252295,0.178252991468368,0.865874213667408,0.879902577333143,0.04,0.0651916340045137,412.926646587196,0.844668672486999,0.359204028274733
10911,-0.249999880185885,0.24999972393268,-0.249998671863479,0.0826779983184123,0.249998047535697,0.249862999187525,0.249977602802887,0.249999644962703,0.863572128604825,0.863516336675366,0.04,0.0623749659511725,411.935642369259,0.873098051635251,0.346673805436346
10971,-0.249771507531326,-0.127918555420952,0.0962183816977265,-0.200098300106925,0.159764393167627,0.249979449878129,0.249992343694457,0.249999946744405,0.856636083421369,0.847130096017589,0.04,0.0570066870015488,408.618042739955,0.834472772854802,0.35979907657575
11031,-0.249731206474639,-0.194610016483358,0.157315508796763,-0.249999999829044,0.143840807102674,0.25,0.249994945028264,0.25,0.836755368041755,0.830743855359812,0.04,0.0577859012300022,399.067370745324,0.786625851719986,0.372762899310977
11091,0.174733912767348,-0.0117716105031421,0.236097326319514,0.174988902657332,-0.190896099863247,0.249979945262382,0.249875239112262,0.25,0.810096872223857,0.814357614702035,0.04,0.0771206276235241,386.360805967174,0.791400693270974,0.358716466747617
11151,0.249639522045346,0.02049399055219,0.25,0.249986944272575,-0.249967318739586,0.249976406191037,0.24985411453885,0.25,0.800092220346623,0.797971374044258,0.04,0.0772402289914374,381.631886950836,0.793831312771465,0.353240999757987
11211,0.249945919852883,-0.209425901417171,0.249997736426739,0.249998041640886,-0.249726632794555,0.249993462390211,-0.0784804657349234,0.249995058124902,0.793914843224291,0.781585133386481,0.04,0.0639953752164317,378.477891967931,0.731523701215901,0.380160325373054
11271,0.249999990054213,-0.25,0.249997336972634,0.25,-0.249684158804255,0.249996472307712,-0.0370711073523562,0.249994186029296,0.769017532142689,0.765198892728704,0.04,0.0620377853960115,366.7394185046,0.695719513895335,0.387327277727745
11331,-0.174795238321194,0.0714576918568121,0.249999596955236,-0.0826035666775535,-0.249942690413819,0.249999303783335,-0.0175198717004697,0.245233427847743,0.756141652114236,0.748812652070927,0.04,0.0466659571671438,360.647242021572,0.662137704263135,0.400210955448714
11391,-0.249759102152148,0.128185519831544,0.249999995775695,-0.141298313738298,-0.249988313639036,0.249999803455503,-0.00829073886239487,0.244393294050999,0.736340738416725,0.73242641141315,0.04,0.0413484242219955,351.151715284015,0.625392344644924,0.412569301359634
11451,-0.249846085240008,0.231727827974731,0.249813273741615,-0.233694747060745,-0.249998247045855,-0.175000029481674,-0.0095769831944025,0.249157898852747,0.723776966855074,0.716040170755372,0.04,0.0213541858043542,345.208967470535,0.587730536536125,0.431577196262596
11511,-0.249861435196689,0.25,0.249780322794424,-0.25,-0.25,-0.25,-0.0366869456269814,0.24999871146482,0.703950451890977,0.699653930097595,0.04,0.0176386161682461,335.734239079426,0.551557760239612,0.447259229149083
11571,0.175013586512214,-0.174999998118,0.249963957305924,0.174999999803947,0.175,-0.0524299625432864,0.206135459657144,0.120362551129029,0.66863699243484,0.683267689439818,0.04,0.0587703273645238,318.840967213209,0.602551785179743,0.388807305678799
11631,0.249991531519668,-0.249999997785882,0.249996363396188,0.249999999769349,0.25,-0.0175646618156311,0.249999792151211,0.097485581658007,0.664130574519271,0.666881448782041,0.04,0.0601377685313824,316.796183850159,0.648925671922125,0.358706843401673
11691,0.0250981053377395,-0.125571513338529,0.249999454509428,0.249999999921977,0.249930196657794,0.209272834477666,0.249999968822682,0.0960257134660017,0.649919380468432,0.650495208124264,0.04,0.0675293039187131,309.947646867461,0.652632934141055,0.348958702771578
11751,-0.0145889698708361,-0.103613545494879,0.25,0.249999999948912,0.249917878420934,0.249302980882366,0.25,0.0957680896674125,0.635570559025251,0.634108967466487,0.04,0.0707279566899603,303.105131769837,0.645963670745918,0.344778258608231
11811,-0.21468183321455,0.196611787440169,0.249989280066093,-0.100602224739369,0.249987637299401,0.249377808646111,0.249998687151335,-0.00625773404522257,0.622935892443033,0.61772272680871,0.04,0.0674342050858328,297.06591598777,0.616148403440184,0.354260045817238
11871,-0.2499923385105,0.249592728546354,0.24998738831305,-0.162473205566713,0.249999947689719,0.249391013545596,0.249998455472159,-0.00295566641655111,0.60455709473796,0.601336486150933,0.04,0.0685826143055817,288.289030087788,0.590169026188845,0.358927207917008
11931,-0.249998850776575,0.249902883029498,0.249997881075707,0.188129019164993,0.249999992153458,0.249908357852305,-0.00139588764864632,-0.00139588764864632,0.588327487333903,0.584950245493156,0.04,0.0769238722199137,280.464100331666,0.558049862860845,0.369282689033031
11991,-0.25,0.249957616173582,0.249999732739705,0.25,0.25,0.24999965390643,-0.000659103690363804,-0.000659103690363804,0.568328146928471,0.568564004835379,0.04,0.0754254364739901,271.019559441843,0.557818103294969,0.356995471090119
12051,-0.25,0.249933500983566,0.249999959910956,-0.174999656993782,0.249999625005941,0.249999948085965,0.174999405210785,0.0638900288943988,0.549675526619241,0.552177764177602,0.04,0.0672233949166188,261.888892082811,0.554557770673482,0.346996392308729
12111,-0.25,0.249929245361798,0.25,-0.249999596463273,0.249999558830519,0.25,0.249999080800262,0.119212291258607,0.537927101160673,0.535791523519825,0.04,0.0658021822048403,256.546822095576,0.56088334365117,0.336084723595644
