time,bias_percent_1,bias_percent_2,bias_percent_3,bias_percent_4,bias_percent_5,bias_percent_6,bias_percent_8,bias_percent_9,normalized_power,power_SP,SP,CV,total_power_MW,fuel_fraction,thermal_efficiency
26,0,0,0,0,0,0,0,0,0.99958414179075,1,0.04,0.0400197234982025,476.902770193328,0.999450516730717,0.350609132785982
86,0.0133925658840556,-0.0130916180261087,0.00396698712530065,0.00493170050584445,0.0135696213221336,-0.00790270232330704,0.011975552880941,0.0152328604357429,0.997918022550282,0.99821315638271,0.04,0.04107370844484,476.06882876143,1.00038319934718,0.349669725977003
146,0.044298487154953,-0.0433030442402056,0.0131215727990713,0.0163125478270239,0.0448841320655185,-0.0261397076847848,0.0396114441446509,0.0503856152874573,0.993457058528186,0.994089671112041,0.04,0.0434375663998107,473.944927896514,1.00359765755374,0.346994760513031
206,0.0752044084258507,-0.0735144704543026,0.0222761584728421,0.0276933951482034,0.0761986428089036,-0.0443767130462624,0.0672473354083608,0.0855383701391718,0.989356030018554,0.989966185841371,0.04,0.0456442453275593,471.989748473903,1.00718648555863,0.344331974106365
266,0.106110329696748,-0.1037258966684,0.0314307441466127,0.039074242469383,0.107513153552289,-0.06261371840774,0.0948832266720707,0.120691124990886,0.985366583319454,0.985842700570702,0.04,0.0477329784734733,470.086884877679,1.010143213609,0.341939963197168
326,0.137016250967646,-0.133937322882496,0.0405853298203835,0.0504550897905626,0.138827664295674,-0.0808507237692177,0.122519117935781,0.155843879842601,0.981414346767974,0.981719215300033,0.04,0.0496550056235641,468.201389499329,1.01212671448029,0.339901034647525
386,0.167922172238543,-0.164148749096593,0.0497399154941543,0.0618359371117419,0.170142175039059,-0.0990877291306953,0.150155009199491,0.190996634694315,0.977463157130763,0.977595730029363,0.04,0.0513715201666981,466.316204281382,1.01306460811291,0.338219030416718
446,0.198828093509441,-0.19436017531069,0.058894501167925,0.0732167844329215,0.201456685782444,-0.117324734492173,0.1777909004632,0.226149389546029,0.973537294593566,0.973472244758694,0.04,0.0528617955321321,464.437975791444,1.01307030585117,0.336854857187155
506,0.229734014780338,-0.224571601524787,0.0680490868416956,0.084597631754101,0.232771196525829,-0.135561739853651,0.20542679172691,0.261302144397744,0.969507796974875,0.969348759488025,0.04,0.0541400323214883,462.520251664653,1.01214900303584,0.335769294288058
566,0.260639936051236,-0.254783027738884,0.0772036725154664,0.0959784790752805,0.264085707269214,-0.153798745215128,0.23306268299062,0.296454899249458,0.965485313717567,0.965225274217355,0.04,0.0551989960640916,460.600971192937,1.01057981335254,0.334895187587878
626,0.291545857322133,-0.284994453952981,0.0863582581892372,0.10735932639646,0.295400218012599,-0.172035750576606,0.26069857425433,0.331607654101173,0.961440428538999,0.961101788946686,0.04,0.0560666257732379,458.670970867688,1.00849121074117,0.334182584430403
686,0.322451778593031,-0.315205880167078,0.0955128438630078,0.11874017371764,0.326714728755984,-0.190272755938084,0.28833446551804,0.366760408952887,0.957373182967792,0.956978303676017,0.04,0.0567670755073508,456.730321551581,1.00602057243981,0.333585879625509
746,0.353357699863928,-0.345417306381175,0.104667429536778,0.130121021038819,0.358029239499369,-0.208509761299561,0.31597035678175,0.401913163804602,0.953286725121789,0.952854818405347,0.04,0.0573239634597947,454.780534775714,1.00329015843657,0.333065762865219
806,0.384263621134826,-0.375628732595272,0.113822015210549,0.141501868359999,0.389343750242754,-0.226746766661039,0.34360624804546,0.437065918656316,0.949184649592425,0.948731333134678,0.04,0.0577600360280017,452.823324161705,1.0004010515128,0.332590105791425
866,0.415169542405724,-0.405840158809369,0.12297660088432,0.152882715681178,0.420658260986139,-0.244983772022517,0.37124213930917,0.472218673508031,0.945070396588579,0.944607847864009,0.04,0.05809634811543,450.860330697943,0.997433237019184,0.332133640354482
926,0.432682897792566,-0.422959966997357,0.12816419943279,0.159331862496513,0.438403150407391,-0.255318075060687,0.386902477691939,0.492138567924002,0.942359905374117,0.942271206210629,0.04,0.0573840209899624,449.596870769982,0.99575870643831,0.331759863574942
986,0.432682897792566,-0.422959966997357,0.12816419943279,0.159331862496513,0.438403150407391,-0.255318075060687,0.386902477691939,0.492138567924002,0.941930019457207,0.942271206210629,0.04,0.0557864269862261,449.391952212113,0.996956020559974,0.331210401113802
1046,0.432682897792566,-0.422959966997357,0.12816419943279,0.159331862496513,0.438403150407391,-0.255318075060687,0.386902477691939,0.492138567924002,0.94173030544625,0.942271206210629,0.04,0.0547142262998243,449.298986436535,0.999932848986789,0.330156064801059
1106,0.432682897792566,-0.422959966997357,0.12816419943279,0.159331862496513,0.438403150407391,-0.255318075060687,0.386902477691939,0.492138567924002,0.941740414490635,0.942271206210629,0.04,0.0540968888228906,449.304895252229,1.00320658044841,0.32908300501012
1166,0.432682897792566,-0.422959966997357,0.12816419943279,0.159331862496513,0.438403150407391,-0.255318075060687,0.386902477691939,0.492138567924002,0.941832453005721,0.942271206210629,0.04,0.0538057611898358,449.349100408106,1.00604604678669,0.328186486156038
1226,0.432682897792566,-0.422959966997357,0.12816419943279,0.159331862496513,0.438403150407391,-0.255318075060687,0.386902477691939,0.492138567924002,0.94193674055839,0.942271206210629,0.04,0.0537073497367143,449.398807578073,1.00826345204956,0.327500952202834
1286,0.432682897792566,-0.422959966997357,0.12816419943279,0.159331862496513,0.438403150407391,-0.255318075060687,0.386902477691939,0.492138567924002,0.942026917691136,0.942271206210629,0.04,0.0537054457069233,449.44167872574,1.00990438484269,0.327000007370624
1346,0.432682897792566,-0.422959966997357,0.12816419943279,0.159331862496513,0.438403150407391,-0.255318075060687,0.386902477691939,0.492138567924002,0.942096976741932,0.942271206210629,0.04,0.0537429388653832,449.474945826058,1.0110833928897,0.326642873832671
1406,0.432682897792566,-0.422959966997357,0.12816419943279,0.159331862496513,0.438403150407391,-0.255318075060687,0.386902477691939,0.492138567924002,0.942148608472302,0.942271206210629,0.04,0.0537903593816989,449.499447161002,1.01191650556375,0.326391739143534
1466,0.432682897792566,-0.422959966997357,0.12816419943279,0.159331862496513,0.438403150407391,-0.255318075060687,0.386902477691939,0.492138567924002,0.942185595838074,0.942271206210629,0.04,0.0538345921707784,449.516993251961,1.01249965595455,0.326216486706499
1526,0.432682897792566,-0.422959966997357,0.12816419943279,0.159331862496513,0.438403150407391,-0.255318075060687,0.386902477691939,0.492138567924002,0.942211677969082,0.942271206210629,0.04,0.0538710952846572,449.529363719895,1.01290567699992,0.326094697240023
1586,0.432682897792565,-0.422959966997357,0.12816419943279,0.159331862496513,0.438403150407391,-0.255318075060687,0.386902477691939,0.492138567924002,0.942229907287575,0.942271206210629,0.04,0.0538993290582519,449.538008727556,1.01318755525632,0.326010244105684
1646,0.432682897792566,-0.422959966997357,0.12816419943279,0.159331862496513,0.438403150407391,-0.255318075060687,0.386902477691939,0.492138567924002,0.942242584536333,0.942271206210629,0.04,0.0539203383641306,449.544020335584,1.01338296588305,0.325951738401788
1706,0.432682897792566,-0.422959966997357,0.12816419943279,0.159331862496513,0.438403150407391,-0.255318075060687,0.386902477691939,0.492138567924002,0.942251375777284,0.942271206210629,0.04,0.0539355920187953,449.548189055174,1.01351836126263,0.325911216899833
1766,0.432682897792566,-0.422959966997357,0.12816419943279,0.159331862496513,0.438403150407391,-0.255318075060687,0.386902477691939,0.492138567924002,0.94225746261288,0.942271206210629,0.04,0.0539464880134206,449.551075325096,1.01361218323616,0.325883142184903
1826,0.407464998684282,-0.396913693379605,0.122103754606123,0.15051044293668,0.4249543415256,-0.234751978518061,0.366707665473035,0.488750596745309,0.941457145971785,0.938849623670102,0.04,0.0542978888966625,449.136978293453,1.0071937527279,0.32765776592248
1886,0.349269846895935,-0.33680690810787,0.10811811269843,0.130153320875528,0.393918628721467,-0.187291755727386,0.32010425266018,0.480932201717557,0.935031998678237,0.930953663961195,0.04,0.0557555878461263,446.041696135691,0.98352465379531,0.333230606941384
1946,0.291074695107588,-0.276700122836135,0.0941324707907362,0.109796198814375,0.362882915917333,-0.139831532936711,0.273500839847324,0.473113806689804,0.926882592712473,0.923057704252287,0.04,0.0560040726289251,442.149681120592,0.959426262600276,0.338619832133298
2006,0.232879543319241,-0.216593337564399,0.0801468288830428,0.0894390767532221,0.3318472031132,-0.0923713101460358,0.226897427034469,0.465295411662051,0.918605355637935,0.915161744543379,0.04,0.0551895847994316,438.201189154436,0.937626938978851,0.343398308410123
2066,0.174684391530893,-0.156486552292664,0.0661611869753494,0.0690819546920695,0.300811490309066,-0.0449110873553607,0.180294014221613,0.457477016634298,0.910433569470112,0.907265784834471,0.04,0.0538263004688442,434.30330371682,0.917715393144477,0.347728104340607
2126,0.116489239742546,-0.0963797670209288,0.0521755450676561,0.0487248326309167,0.269775777504933,0.0025491354353145,0.133690601408758,0.449658621606545,0.902360719053931,0.899369825125563,0.04,0.0522139884675734,430.450316457599,0.899089018114254,0.351783134828083
2186,0.0582940879541994,-0.0362729817491935,0.0381899031599627,0.028367710569764,0.2387400647008,0.0500093582259898,0.0870871885959025,0.441840226578793,0.894341540860819,0.891473865416656,0.04,0.050475836225761,426.626599225242,0.881280255400468,0.355703849665602
2246,9.89361658523649e-05,0.0238338035225418,0.0242042612522692,0.00801058850861136,0.207704351896666,0.097469581016665,0.0404837757830472,0.43402183155104,0.886403001721135,0.883577905707748,0.04,0.0486466624182002,422.839068724141,0.864072486308146,0.359566818439409
2306,-0.0580962156224946,0.083940588794277,0.0102186193445759,-0.0123465335525414,0.176668639092533,0.14492980380734,4.37480676646088e-07,0.426203436523287,0.878249919852677,0.87568194599884,0.04,0.046950377784471,418.930123415085,0.84749295062433,0.363211985740493
2366,-0.116291367410842,0.144047374066012,-0.00376702256311751,-0.0327036556136941,0.1456329262884,0.192390026598015,4.7046808716692e-07,0.418385041495535,0.869531080274671,0.867785986289932,0.04,0.0457435714691408,414.785578731102,0.835922582338792,0.364596308293141
2426,-0.174486519199189,0.204154159337747,-0.0177526644708108,-0.0530607776748468,0.114597213484266,0.239850249388691,4.84409855842408e-07,0.410566646467782,0.861535677796691,0.859890026581024,0.04,0.0446628464226953,410.97847460601,0.825861839851048,0.365650652531677
2486,-0.232681670987536,0.264260944609483,-0.0317383063785041,-0.0734178997359994,0.0835615006801332,0.287310472179366,4.92635768296844e-07,0.402748251440029,0.85359389732424,0.851994066872116,0.04,0.0438979646251166,407.181598040731,0.815947251048009,0.366674522552482
2546,-0.290876822775883,0.324367729881218,-0.0457239482861976,-0.0937750217971522,0.0525257878759998,0.334770694970041,4.92487505281048e-07,0.394929856412276,0.845546133599499,0.844098107163209,0.04,0.0432300964928631,403.405020391854,0.806367515818015,0.367589375938099
