time,bias_percent_1,bias_percent_2,bias_percent_3,bias_percent_4,bias_percent_5,bias_percent_6,bias_percent_8,bias_percent_9,normalized_power,power_SP,SP,CV,total_power_MW,fuel_fraction,thermal_efficiency
43,0,0,0,0,0,0,0,0,0.999751093897334,1,0.04,0.0399338398347917,476.98519229203,0.99986905743589,0.350522939045959
103,-0.0130015792723735,0.020300809611686,-0.0173599245591953,-0.013706103860015,0.0224156378333182,-0.00665490077800905,-0.0170163232731987,-0.011191989830829,0.979556759634979,0.965080626039262,0.04,0.048420014633605,467.019157060582,0.944443539987447,0.363340133599611
163,-0.0311433177919646,0.0486275206977596,-0.0415830751069094,-0.0328308999437567,0.0536932720193437,-0.0159408088403472,-0.040760030166034,-0.0268087198273344,0.933554078993592,0.91635591818707,0.04,0.0605166109166097,445.006990263688,0.842102233789796,0.388290432758656
223,-0.0492850563115557,0.0769542317838331,-0.0658062256546235,-0.0519556960274983,0.0849709062053689,-0.0252267169026856,-0.0645037370588693,-0.0424254498238398,0.883657543866888,0.867631210334877,0.04,0.0674209049294265,421.197197546479,0.741641672708394,0.417297732112699
283,-0.0674267948311467,0.105280942869907,-0.0900293762023377,-0.0710804921112402,0.116248540391394,-0.0345126249650237,-0.0882474439517046,-0.0580421798203453,0.833780509152773,0.818906502482685,0.04,0.0696444327364246,397.399416837604,0.64750727052591,0.450959201168731
343,-0.0855685333507378,0.13360765395598,-0.114252526750052,-0.090205288194982,0.14752617457742,-0.0437985330273619,-0.11199115084454,-0.0736589098168507,0.78377252338498,0.770181794630493,0.04,0.0680233919225716,373.539888036878,0.560851406103172,0.489377330430748
403,-0.103710271870329,0.161934365042054,-0.138475677297766,-0.109330084278724,0.178803808763445,-0.0530844410897001,-0.135734857737375,-0.0892756398133562,0.733638598426455,0.7214570867783,0.04,0.062470505453713,349.967886112477,0.483605525125404,0.531730554461835
463,-0.12185201038992,0.190261076128127,-0.16269882784548,-0.128454880362465,0.210081442949471,-0.0623703491520383,-0.124187270909052,-0.104892369809862,0.682660449625174,0.672732378926108,0.04,0.055695750032664,325.484167272954,0.416048245080787,0.574831884776742
523,-0.139993748909511,0.218587787214201,-0.186921978393195,-0.147579676446207,0.241359077135496,-0.0716562572143766,-0.0762013207352138,-0.0762013207352138,0.630285001577217,0.624007671073915,0.04,0.0484318164263097,300.651973942208,0.370979040981572,0.595482991792273
583,-0.158135487429102,0.246914498300274,-0.211145128940909,-0.166704472529949,0.272636711321521,-0.0809421652767148,-0.044247828308135,-0.044247828308135,0.580969824843891,0.575282963221723,0.04,0.0417867892532881,277.156155607514,0.335468569056783,0.607054060991688
