time,bias_percent_1,bias_percent_2,bias_percent_3,bias_percent_4,bias_percent_5,bias_percent_6,bias_percent_8,bias_percent_9,normalized_power,power_SP,SP,CV,total_power_MW,fuel_fraction,thermal_efficiency
12,0,0,0,0,0,0,0,0,0.999806821796218,1,0.04,0.0401053790766637,476.991446710209,0.998489794038291,0.35101173628365
72,0.00531346079580544,-0.00329512885833617,-0.00140235693446243,-0.00210760068897275,-0.00137286501202868,-0.00630816925709018,-0.00137652946074388,0.00427293554674526,0.998184857143391,0.994225999508713,0.04,0.0408779796371058,476.104503074213,0.99319012957382,0.352228562671493
132,0.0318807647748326,-0.0197707731500168,-0.00841414160677448,-0.0126456041338364,-0.00823719007217233,-0.0378490155425416,-0.00825917676446358,0.0256376132804714,0.974914555878861,0.965355997052276,0.04,0.0482113453454721,464.911721149519,0.939915552432703,0.363443022943614
192,0.0584480687538598,-0.0362464174416976,-0.0154259262790865,-0.0231836075787002,-0.015101515132316,-0.0693898618279929,-0.0151418240681831,0.0470022910141976,0.946261006497479,0.936485994595839,0.04,0.0530272400196205,451.247763787119,0.879944946295517,0.376802900869556
252,0.0850153727328869,-0.0527220617333783,-0.0224377109513986,-0.0337216110235638,-0.0219658401924596,-0.100930708113444,-0.0220244713719027,0.0683669687479238,0.916621780760862,0.907615992139402,0.04,0.0547970047249256,437.08556708626,0.823077777454959,0.390193711677683
312,0.111582676711914,-0.0691977060250591,-0.0294494956237105,-0.0442596144684276,-0.0288301652526033,-0.132471554398895,-0.0289071186756223,0.08973164648165,0.887202278610876,0.878745989682965,0.04,0.0544451747966343,423.050448330701,0.769823702015362,0.403789998344422
372,0.138149980690941,-0.0856733503167399,-0.0364612802960226,-0.0547976179132912,-0.0356944903127468,-0.164012400684347,-0.0357897659793419,0.111096324215376,0.857774499860962,0.849875987226529,0.04,0.0528807890231155,409.009948654496,0.719812818056568,0.417512009278542
432,0.164717284669969,-0.102148994608421,-0.0434730649683347,-0.065335621358155,-0.0425588153728905,-0.195553246969798,-0.0426724132830615,0.132461001949102,0.828319171280334,0.821005984770092,0.04,0.0504810484951184,394.958426025129,0.673498503796328,0.430892985727972
492,0.191284588648996,-0.118624638900101,-0.0504848496406466,-0.0758736248030187,-0.0494231404330342,-0.227094093255249,-0.0495550605867811,0.153825679682829,0.798981182602523,0.792135982313655,0.04,0.0475700425657625,380.941239863518,0.630887259624717,0.443670864679217
552,0.217851892628023,-0.135100283191782,-0.0574966343129587,-0.0864116282478824,-0.0562874654931778,-0.258634939540701,-0.0564377078905006,0.175190357416555,0.769653450752539,0.763265979857218,0.04,0.0442898246932419,366.968206548026,0.592174634587983,0.455337391172392
612,0.24441919660705,-0.151575927483463,-0.0645084189852708,-0.0969496316927462,-0.0631517905533215,-0.290175785826152,-0.0633203551942202,0.196555035150281,0.739930306283381,0.734395977400782,0.04,0.0411712057181918,352.963204735571,0.557472267093442,0.465222641754121
