time,bias_percent_1,bias_percent_2,bias_percent_3,bias_percent_4,bias_percent_5,bias_percent_6,bias_percent_8,bias_percent_9,normalized_power,power_SP,SP,CV,total_power_MW,fuel_fraction,thermal_efficiency
53,0,0,0,0,0,0,0,0,0.999829664786671,1,0.04,0.0399104334556631,477.021552267664,1.0000127308936,0.350499294924161
113,0,0,0,0,0,0,0,0,0.999980469920056,1,0.04,0.0399106075083883,477.091016937691,1.00028882125955,0.350453579587865
173,0,0,0,0,0,0,0,0,0.999998464355626,1,0.04,0.0399508123971052,477.099313105052,1.00031776200868,0.350449534304826
233,0,0,0,0,0,0,0,0,1.00000163738016,1,0.04,0.0399782374021437,477.100795708481,1.00031259371347,0.350452434005745
293,0,0,0,0,0,0,0,0,1.00000302235138,1,0.04,0.0399944531599669,477.101450194833,1.00029691266927,0.350458408592469
353,0,0,0,0,0,0,0,0,1.00000376623957,1,0.04,0.0400035438257206,477.10180056201,1.0002755560501,0.350466148507681
413,0,0,0,0,0,0,0,0,1.00000399116543,1,0.04,0.0400081482159786,477.101904209763,1.00025183904214,0.350474534562011
473,0,0,0,0,0,0,0,0,1.00000382578331,1,0.04,0.0400099199292018,477.10182279189,1.00022838699712,0.350482692219611
533,0,0,0,0,0,0,0,0,1.0000034146374,1,0.04,0.0400099546816304,477.101625201352,1.0002069675102,0.350490052670987
593,0,0,0,0,0,0,0,0,1.00000288102452,1,0.04,0.0400090008845733,477.101370149394,1.00018855255797,0.350496318341224
653,0,0,0,0,0,0,0,0,1.00000231630382,1,0.04,0.0400075684460414,477.101100701894,1.00017349887551,0.350501395737154
713,0,0,0,0,0,0,0,0,1.00000177969394,1,0.04,0.0400059923361197,477.100845118542,1.00016174503532,0.350505327042287
773,0.220833242952164,0.043519147051251,0.219081737475672,0.220833333333333,-0.0235326804102626,0.220832550004681,0.049209482247862,0.207418403486658,0.982238357087864,1,0.04,0.0615507161935454,468.554934286183,1.07172203063515,0.321242527127408
833,0.249999897681695,0.0492669589259445,0.248017061293213,0.25,-0.0266407702757692,0.249999113212846,0.0557088478277683,0.234813286966028,0.994658413856437,1,0.04,0.060330787511859,474.61727722795,1.1328795451709,0.307832510656251
893,0.249999945684029,-0.215068268314554,0.249768657150875,0.249829500407839,0.217725243467827,0.249980030713057,0.136486160172113,0.248169286154666,0.996677532578697,1,0.04,0.0605632235298142,475.529367430856,1.15528323154935,0.302443008492156
953,0.249999952023959,-0.249980468138771,0.25,0.24980698159378,0.25,0.249977510382896,0.147154861802498,0.249933286047505,1.0008116252417,1,0.04,0.0613506086626578,477.504141296454,1.15753268193421,0.303108808219256
1013,-0.191666615198467,-0.14697185080247,0.249992828791438,0.249954061161509,0.249259716747443,-0.191652249028375,0.238001400543625,0.249990869374318,1.01150316915766,1,0.04,0.0506634455889355,482.646399845116,1.11174152201217,0.318992095151116
1073,-0.249999935397656,-0.133366939078807,0.249991881650685,0.249973486764794,0.249161943487672,-0.249980707818543,0.25,0.249998474719368,1.00597354326363,1,0.04,0.0504549368349391,479.912647494156,1.05943783860807,0.3328445051036
1133,0.191465631487602,-0.236382552972853,0.249999035730203,0.249936668165058,0.249764823493507,0.191668895271075,0.25,0.249999822050593,0.9915721255644,1,0.04,0.0615466734267886,473.014896739144,1.08053714705157,0.321654619333864
1193,0.249772404472447,-0.249988388770179,0.24999998060863,0.24993180533113,0.249844449154655,0.249999974924421,0.25,0.25,0.998060216547786,1,0.04,0.0584813118133492,476.21162084829,1.10933983966025,0.315420601340846
1253,0.249928338817137,-0.00295429660057152,0.24998216250119,0.249985876721544,0.24997757976818,0.249999997074516,-0.0879968408008642,0.249999999349889,1.00415563552892,1,0.04,0.0594956451628317,478.98325362891,1.08504099830232,0.324361169553517
1313,0.249948933919266,0.0296728476482447,0.249979809166246,0.249993018225939,0.249995163056759,0.25,-0.0440071904298267,0.249999999264026,0.998874299687548,1,0.04,0.0584113084369611,476.550181044086,1.08675234062978,0.322205337838569
1373,0.249990926047075,-0.217371501107705,0.24975002522977,-0.191667481206974,-0.191667230976711,0.25,0.216128920938524,0.249769138838743,1.00973831871363,1,0.04,0.0381990176239362,481.83955469039,1.05665853565921,0.335059903800975
1433,0.249996472177163,-0.25,0.249719676407972,-0.25,-0.25,0.25,0.249999553497686,0.249738647839178,1.00524152705851,1,0.04,0.037707845925055,479.567037454095,1.01011944547229,0.348844009353111
1493,0.249999588420669,0.191624218142695,0.24996729558093,0.191575788830834,-0.10061195457987,0.25,0.249999880836754,0.249969508914571,0.989312716609888,1,0.04,0.0580066015998872,471.931680442832,1.0433893598589,0.332343665019806
1553,0.25,0.249951945067203,0.25,0.249897119431133,-0.0808814580149475,0.25,0.249999924070216,0.25,0.985015090967552,0.984387347981121,0.04,0.0600771136474688,469.861315664364,1.06316853646692,0.324729879326165
1613,0.25,0.249994084752908,0.24999997477475,-0.185010843415655,-0.228445900175731,0.142248080230146,0.249999249504473,0.25,0.980415581097393,0.96671264758239,0.04,0.0512728373022597,467.684611377961,1.00582964665524,0.341651494046069
1673,0.25,0.249999650371774,0.249999971443113,-0.24245151775391,-0.247935543479986,0.128016694600166,0.249999160410885,0.25,0.957713480178055,0.949037947183659,0.04,0.0549917969537795,456.749821800598,0.938518373421866,0.357594049715384
1733,0.248758779836288,0.249999622527171,-0.191666669998303,0.190986221314763,0.191660555464792,0.2350517339665,0.249999902047937,-0.000416529110432735,0.93364855453934,0.931363246784928,0.04,0.0640631570314042,445.192186684448,0.903456585585063,0.362071984199457
1793,0.248594845097684,0.249999618849582,-0.25,0.248232715154022,0.249720417589574,0.249188437279035,0.25,-0.000196489713945271,0.915747097289761,0.913688546386197,0.04,0.0626588733761313,436.769571276459,0.894964631459417,0.358592480327529
1853,-0.191829913929979,-0.191654173565194,-0.25,-0.188761080895708,0.249967382052117,0.249905317682554,-0.00226387121738749,0.204601301411648,0.914121337246199,0.896013845987466,0.04,0.0276840752907795,436.121622193263,0.808608547508944,0.396299904157411
1913,-0.249999221726086,-0.249985806525636,-0.25,-0.246477242638125,0.25,0.25,-0.0212940520470628,0.249767289104237,0.887089988144425,0.878339145588735,0.04,0.0242296300833366,423.027989554069,0.721997289141428,0.430514925579186
1973,-0.0488115460271953,0.191642067897067,0.191666653142208,-0.0912178181188441,0.25,0.249999082493168,0.217957938832728,0.205017081288283,0.8415974155295,0.860664445190004,0.04,0.0590353807209069,401.37572037171,0.789723796275199,0.373448354144067
2033,-0.0222395888594173,0.249970277726481,0.249999984689293,-0.0707118563898824,0.25,0.249998961313021,0.249969344510729,0.199106676482402,0.840461993720922,0.842989744791273,0.04,0.0594141944928903,400.918703950788,0.839862196643462,0.350754264983359
2093,0.217790933924148,0.248946223889189,0.249997742617494,0.212583494712785,0.249997840106265,0.249986249727894,0.249996406671926,-0.0120535794377323,0.825757729808728,0.825315044392542,0.04,0.0734569377069744,393.749655489626,0.82426224247109,0.351001891489184
2153,0.249493078442733,0.248810971495585,0.249997446494804,0.249999861839553,0.249997554837281,0.249984570839292,0.249999980919631,-0.00569341693548475,0.807328896374634,0.807640343993811,0.04,0.0759143191339543,385.045939219933,0.82884342282131,0.341345929507872
2213,0.249940859151652,0.249861280007818,0.249999702091061,0.24999989610178,-0.00705816658486015,0.249998199931251,0.249999944819184,-0.00268910315348154,0.794291206420725,0.78996564359508,0.04,0.0714909708211769,378.843091513914,0.811860603531663,0.342872442320985
2273,0.25,0.25,0.25,0.24999990062698,-0.0410089222443883,0.25,0.249999940051201,-0.00126997254204526,0.775371136398786,0.772290943196349,0.04,0.073406577360545,369.780359667432,0.788383590971119,0.344636237489121
2333,0.249997844658766,0.25,0.249999847157932,0.249999988406481,-0.225617692784403,0.249999947955501,0.249958265727723,0.094847516435524,0.756435098010724,0.754616242797618,0.04,0.072990934712161,360.654220149237,0.767163023118009,0.345428393488092
2393,0.249997559991056,0.25,0.249999826971244,0.25,-0.249999983233084,0.249999941081699,0.249952761571792,0.13990712437728,0.739800169129557,0.736941542398887,0.04,0.0736583208661977,352.829712871173,0.755551091970675,0.343127866538006
2453,0.249671356048053,0.249999998517236,-0.191646385994548,0.25,0.191666668435648,0.249999992674871,0.249802015421549,0.237060491211509,0.718882234380775,0.719266842000156,0.04,0.0775952994925829,342.848648066489,0.752461451116492,0.334790296346649
2513,0.24962827250841,0.249999998321399,-0.24997701789569,0.25,0.249999999788122,0.249999999489064,0.249782105552649,0.2498920679632,0.705206474561535,0.701592141601425,0.04,0.0798246832434185,336.325696431835,0.736509078495797,0.33553406776986
2573,0.249956631792648,0.2499803453978,0.191669347912169,0.0153244461988139,0.249533958155586,0.249999999940391,0.249963888986254,0.249951280797248,0.686961508306749,0.683917441202693,0.04,0.0883266467326402,327.609734558829,0.716262683946996,0.336077275937507
2633,0.25,0.249977749728646,0.25,-0.0156704382654938,0.249472405487138,0.25,0.249987898118994,0.249959101360235,0.668585370095143,0.666242740803962,0.04,0.0902428845911688,318.839351599858,0.700117490885906,0.334622905532767
2693,0.249998000537553,0.249997404135009,-0.191666666666667,0.218970728072385,0.249929761495972,0.24999985133249,0.249909775221184,0.249969301560393,0.651946530698309,0.648568040405231,0.04,0.0879386168306434,310.935710071249,0.683811893378893,0.334109349290654
2753,0.249997736457607,0.25,-0.25,0.249961070796256,0.249990167006572,0.249999831697159,0.249899457102606,0.24997064875664,0.650757477671079,0.65680333432347,0.04,0.0779942889356233,310.542515004424,0.704298336121334,0.323980655531045
2813,0.249999735920054,0.249876579798798,-0.249862560719472,0.249989043954336,0.249998852817433,-0.191665819706742,0.249918495534626,0.249996575688275,0.668348764203977,0.668460702962818,0.04,0.0580410547101337,319.002637961954,0.720408445575131,0.325364491872871
2873,0.25,0.249860279017507,-0.249844408361666,0.249992738522384,0.25,-0.249999018948766,0.249921010044515,0.25,0.677257775295606,0.680118071602166,0.04,0.054446686836383,323.199278307653,0.730411755584953,0.325130194844329
2933,-0.191638624701332,0.249983699218709,-0.249960194283078,0.249991459737426,0.249999998209723,-0.249944310693059,0.0822424909885816,0.25,0.695529942052126,0.691775440241514,0.04,0.0325566985866092,331.964049215044,0.72484203978254,0.3365133947626
2993,-0.249968254378867,0.25,-0.249975486763264,0.249991290841299,0.249999997973272,-0.249937085074381,0.0600962714906282,0.25,0.702479018893624,0.703432808880862,0.04,0.0284094781555442,335.210805292497,0.715328326183296,0.344323974501879
3053,-0.249957784842889,0.249927040784487,-0.249877727079289,0.249998983931485,0.249097587254191,0.191672064259244,0.227829645945767,0.249991682017976,0.7030621429373,0.71509017752021,0.04,0.0417541654180678,335.484960888112,0.767746639397956,0.321077452527409
3113,-0.249956402073986,0.249917404661683,-0.249864815422915,0.25,0.248978400932803,0.249997800963685,0.249983110496446,0.249990583416577,0.721281414041137,0.726747546159558,0.04,0.0406322821179882,344.247500205938,0.816016263246893,0.309974991802849
3173,0.191668055334072,-0.191640572536604,0.19168243820066,0.249982232271752,0.24988081344216,0.249998698380484,-0.0411276449643555,-0.0411276449643555,0.738776454181117,0.738404914798905,0.04,0.0454518299977096,352.395047150044,0.800875456267533,0.323310260656108
3233,0.249995813859664,-0.249959550657133,0.25,0.249979885590662,0.25,0.249998816907231,-0.0356568094048091,-0.0356568094048091,0.745682599706914,0.750062283438253,0.04,0.0453184317861906,355.861364592162,0.828896669712411,0.315453333641643
3293,-0.191654051783641,0.12149845303495,0.249992500820599,0.249997653318911,-0.191649500505944,-0.19165387502086,-0.0341530040101954,-0.0341530040101954,0.772953039561322,0.761719652077601,0.04,0.0201755116676025,368.950536268231,0.796543249752143,0.3403403652704
3353,-0.249985166113889,0.170558944088622,0.249991510362942,0.25,-0.249980566610503,-0.249985362634004,-0.060732632994466,-0.060732632994466,0.776219180075356,0.773377020716949,0.04,0.0177083034288115,370.374712284729,0.755587065530962,0.360173278045893
3413,-0.249967413896888,0.240731641536736,0.24977767129561,-0.191631545282202,-0.249997732771225,-0.249994095076413,-0.109938585862549,-0.109938585862549,0.790875133019561,0.785034389356297,0.04,0.000209129873000556,377.331570241539,0.731774384643139,0.378879071135859
3473,-0.249965069264454,0.249999733652525,0.249749428399925,-0.249960239942116,-0.25,-0.249995248417863,-0.186413725404364,-0.186413725404364,0.787618382931066,0.796691757995645,0.04,1.18035135835207e-08,375.819199566309,0.767350899458457,0.359865019232513
3533,-0.249925554183799,0.249999968926128,-0.191695900020009,-0.249970253947062,-0.25,0.19164828564195,0.191667746641393,-0.182484962989686,0.814017172172611,0.818992216497301,0.04,0.0106952461319367,388.536508137591,0.785123314952496,0.363620730296931
3593,-0.249920335210882,0.25,-0.25,-0.249971576551489,-0.25,0.249978563725321,0.249999999990576,-0.173567980872868,0.818639732098942,0.821757933952448,0.04,0.0175381490916623,390.577462769245,0.809352247373207,0.354588200106577
3653,-0.249990705774603,0.249978389973382,-0.249205448026791,-0.249995960885083,-0.25,0.249995908311304,0.249895780911472,-0.241078609846818,0.820659161364447,0.821757933952448,0.04,0.0214745192968435,391.545726349075,0.819474202860692,0.351076595230469
3713,-0.25,0.249975535818924,-0.24910050720014,-0.249999181457444,-0.25,0.249998199105679,0.249882016127439,-0.249995108013188,0.820289880782925,0.821757933952448,0.04,0.0261399924142009,391.362437753376,0.827819646379802,0.3473746223645
3773,0.191664802194657,0.249997145845541,0.191725614620039,0.191634592300805,0.191665057059509,0.249998822744308,0.249986235214868,-0.249843410714896,0.795402668235962,0.821757933952448,0.04,0.0673505713862768,379.487973866018,0.953356359409211,0.292480843042525
3833,0.249997889276971,0.25,0.249947932596289,0.249963581287743,0.249998177803218,0.249998905111675,0.25,-0.249823375222669,0.815138102563204,0.821757933952448,0.04,0.0700534380642544,389.008296021233,1.03616808761022,0.275856566863528
3893,-0.191666909934513,0.248196038928102,-0.19167202065269,-0.191659702028741,-0.191636744792403,0.249999511639094,0.210149784885966,-0.249382079939175,0.847173298858793,0.821757933952448,0.04,0.038227032243771,404.402695336508,0.953957980149756,0.311486674697837
3953,-0.249999996622822,0.247957779918606,-0.249999184289348,-0.249987305485636,-0.249965885512579,0.249999591746489,0.204886548927509,-0.249323795656449,0.832782446527643,0.821757933952448,0.04,0.0421524966272872,397.232287096909,0.842878908729822,0.346285279656287
4013,-0.0699242114568617,0.249228432909089,-0.249910449692271,0.191445163940898,0.191670646690199,0.249953063468457,0.244736764041543,0.191304778629985,0.802351537225554,0.821757933952448,0.04,0.0690659244696826,382.703484200972,0.904870910565196,0.310763830178932
4073,-0.0461406171896594,0.249396255002172,-0.249898730028506,0.249747565563271,0.25,0.249946918224189,0.25,0.249501005422532,0.818662467538422,0.821757933952448,0.04,0.0646407310589446,390.663879001905,0.961490530497458,0.298547145369894
4133,-0.214255073584505,-0.0955766593701875,0.191654263866959,-0.191694213963366,0.249948881480593,-0.191672369997219,-0.191370027562118,0.249941464961176,0.844024854642935,0.821757933952448,0.04,0.0392882539500585,402.813587641788,0.8787079761854,0.336832678926186
4193,-0.236458869712126,-0.14113911975899,0.249972583815416,-0.249997845221601,0.24994212997803,-0.249999445800046,-0.249664182145793,0.249999638862507,0.829949219989164,0.821757933952448,0.04,0.0396127955254475,395.893560058615,0.793168670735569,0.366747837513687
4253,0.193246465200252,0.0390210760922828,-0.191655746535943,0.19166691805748,-0.191551122914252,-0.249670138709064,-0.249926525320505,0.248527031417325,0.824393566496431,0.821757933952448,0.04,0.0400906211605994,393.293414400054,0.766942523986572,0.376797950785722
4313,0.25,0.0628158189405641,-0.249984016582349,0.25,-0.249861552541535,-0.249626645319689,-0.249961174419052,0.248332536094376,0.822705436843265,0.821757933952448,0.04,0.0367512703008686,392.508911955782,0.760752614314985,0.379106075738121
4373,-0.191659172241874,0.228161567790049,-0.247212786352065,-0.191665327237923,-0.249978959078153,-0.249956441953923,-0.204343059889855,-0.191816615519122,0.84595157497838,0.821757933952448,0.04,0.00233682830463569,403.713101782868,0.669177936865445,0.443287930215969
4433,-0.249991515745518,0.249999685562622,-0.246846774812216,-0.249998483665573,-0.249994465601857,-0.249999999999954,-0.198318025895433,-0.249949522335999,0.819767460423245,0.821757933952448,0.04,1.45823330615944e-05,390.977368064151,0.633371562601228,0.453573564445723
4493,0.191667222446511,0.249703439456411,-0.249632114401513,-0.249999691183877,-0.249969366186938,0.191666664304238,0.197487260581033,-0.249993443061887,0.795362060965473,0.821757933952448,0.04,0.0308362151163963,379.524096914354,0.721327265912358,0.386599851731256
4553,0.249999508622817,0.249664312612194,-0.249999989441609,-0.249999850667427,-0.249966051169874,0.249999997325546,0.249763430493019,-0.249999243912476,0.812879480937081,0.821757933952448,0.04,0.0328259851158811,387.873598600209,0.811836190558072,0.351056071130595
4613,0.249864703279024,0.249950293968435,0.1916371744142,-0.249998692810442,0.191669281098523,0.249909262353507,-0.10772597276264,-0.163305937719973,0.80968203128188,0.821757933952448,0.04,0.0534364041980673,386.329523069255,0.884300617888995,0.32100562729671
4673,0.249846898799655,0.249988065090958,0.249966611149873,-0.249998539885935,0.249998475926425,0.249897278489276,-0.154941554324708,-0.15185587841153,0.81859810382749,0.821757933952448,0.04,0.0588286919040906,390.600031887617,0.92140766421427,0.311483560459216
4733,0.240307933923866,0.248770407899205,-0.191529046570885,0.191666327388012,0.249994188332534,0.249987926168328,0.202755956145575,-0.23854973699354,0.817313797426877,0.821757933952448,0.04,0.0650582594174074,389.942578456181,0.944996845838167,0.303197053473309
4793,0.239048070638384,0.248609585251237,-0.249839793817023,0.249999423065702,0.249993622046548,0.249999898503297,0.249999023566179,-0.249999869259089,0.822437976944711,0.821757933952448,0.04,0.0661674132287039,392.409398260653,0.950887718753988,0.303224883766117
4853,0.248689696742048,0.245377692784702,-0.249981308046188,0.249560422911281,0.249996148880861,0.249896070024989,0.249921834170443,-0.247150832186275,0.824079694405913,0.821757933952448,0.04,0.0674550497588945,393.174967128989,0.939252011801739,0.307580218752691
4913,0.249963119057626,0.244950839062707,-0.249999998604757,0.24950244175881,0.249996482613695,0.249882356829741,0.249911639344591,-0.246774544270998,0.824666645275628,0.821757933952448,0.04,0.0669366368916407,393.450492944346,0.922703595390886,0.313315988277358
4973,0.249991740159106,0.249410931223982,0.191666666829445,-0.191724526923819,0.249999589638264,-0.191680390334869,-0.0189707419383359,-0.0223072079119356,0.832985203312313,0.821757933952448,0.04,0.0561496038787285,397.476018644719,0.874277500578236,0.334053714531689
5033,0.249995520304585,0.25,0.25,-0.249999786938506,0.25,-0.24999999845095,-0.0544835092775903,0.00733942141850665,0.826984735363505,0.821757933952448,0.04,0.0538940959358571,394.513636441536,0.826449666927764,0.350752105407735
5093,-0.150102029356712,-0.0843936143308314,0.249999867418792,0.191666691523841,0.249960319394991,-0.249999999819277,0.214476923917614,0.221671890127201,0.813550541231211,0.821757933952448,0.04,0.0476280996702419,388.156501888381,0.857796439459264,0.33248901574855
5153,-0.202945101953487,-0.128558808676413,0.249999849908066,0.25,0.249955078560367,-0.25,0.25,0.249979952032123,0.82303672462063,0.821757933952448,0.04,0.0434075593673661,392.68720935211,0.860647408714083,0.335255696886283
5213,0.197156315264657,-0.235830494081871,0.249999277945904,0.249999998941626,0.249994759165376,-0.25,0.249999753587467,0.249996954448789,0.819445947976868,0.821757933952448,0.04,0.0511877092963301,390.943892613271,0.863758705030668,0.332565100244879
5273,0.249999898670827,-0.249998452531649,0.249999202403731,0.24999999880184,0.25,-0.25,0.249999721042415,0.24999920005099,0.821832881422144,0.821757933952448,0.04,0.0514543061254477,392.11169482846,0.870106365395888,0.331125117869683
5333,0.249999988178263,-0.249999819462026,0.249975073281342,-0.191666651614105,-0.191666666666667,-0.249995130698945,0.249999967454948,0.249689196378946,0.834738287977576,0.821757933952448,0.04,0.0290301451487359,398.34647701494,0.821960221200373,0.356094164350333
5393,0.25,-0.25,0.249971886416121,-0.249999982801117,-0.25,-0.249994487583712,0.25,0.249648252497733,0.818035698867167,0.808897820287818,0.04,0.0328092430667814,390.133255909054,0.750115973442196,0.382154726032602
5453,-0.191606966631874,-0.249982949421434,0.24920514892569,-0.249916850013751,-0.25,-0.249999226146351,-0.0488920026371391,0.249958332491207,0.812774761130322,0.79433920104484,0.04,0.0123561030818248,387.692558306392,0.652510859675702,0.436570511064387
5513,-0.249932415054952,-0.249980697458227,0.249103881709973,-0.249905870211646,-0.25,-0.249999851994247,-0.0970177097873335,0.249999286452609,0.788657980097532,0.779780581801862,0.04,0.00801543701321065,376.279018273992,0.571779865777215,0.483543801151476
5573,-0.249991855113876,0.191668168977626,-0.136856732556471,0.191677530200482,0.191647844352376,0.191665215893697,-0.151024364171967,0.249996916676069,0.745989464065545,0.765221962558884,0.04,0.0423210541715171,355.756893830041,0.656260451692655,0.398319683096702
5633,-0.249999705687696,0.249999151337079,-0.187832662742605,0.249999866103971,0.249978691719671,0.249998338067577,-0.174842215700809,0.249996603686715,0.746644728816428,0.750663343315907,0.04,0.0431436947028113,356.170500381289,0.712365604321435,0.367375069102918
5693,0.191666503801902,0.0171252007239239,0.198919522680029,-0.19166668228787,0.249997514033961,0.249978617965323,-0.178116346234894,0.249994863864561,0.733333896817231,0.736104724072929,0.04,0.05584170002568,349.772478235555,0.724542469402764,0.354712475728355
5753,0.249999776753358,-0.0136317361495118,0.25,-0.25,0.25,0.249976013423515,-0.156001329150817,0.249994634076729,0.723601764367719,0.721546104829951,0.04,0.0621475459476881,345.14057493919,0.722309766819859,0.351097071655583
5813,0.249997982120036,0.2192426592069,0.249999953488223,0.191666625379327,0.249981687380944,0.249997201565958,0.191661195322595,0.249999373975618,0.698870394281036,0.706987485586974,0.04,0.0907265750129782,333.245336169715,0.741068948178752,0.330415293149964
5873,0.249997745092993,0.249999654820011,0.249999947345158,0.249999953259616,0.249979268733145,0.249999999999866,0.249993070568184,0.25,0.691978155030256,0.692428866343996,0.04,0.0900889064516716,330.066529790522,0.762489022449801,0.31806989677157
5933,0.249999736927516,0.249998705571618,0.249999754423582,0.249999994546955,0.24998420832931,0.249999999999984,0.249995229340251,0.25,0.679579359221224,0.677870247101018,0.04,0.0917666996671769,324.115527053676,0.753758763130206,0.315952749346283
5993,0.25,0.249998580199189,0.249999728943374,0.25,0.249984860728803,0.25,0.249995514461091,0.25,0.665113413529706,0.66331162785804,0.04,0.0934553498890169,317.209242221712,0.742137740573639,0.314062433174914
6053,0.25,0.249999789323972,-0.19166669828994,-0.191666666666667,0.249994579489227,0.25,0.249993900365768,0.25,0.658037316759182,0.648753008615063,0.04,0.0742251699951473,313.904926767123,0.705160402430577,0.32708821094905
6113,0.25,0.249999949019698,-0.25,-0.25,0.249995863099094,0.25,0.249993687183367,0.25,0.641738113281964,0.634194389372085,0.04,0.0779629414255138,306.031010792286,0.649251812099435,0.34634342115209
6173,0.165710989151273,-0.191655688275591,-0.249999963390607,0.191666666666667,0.249999504035272,-0.191666492545759,-0.00119171347431902,-0.00119171347431902,0.64004362391551,0.619635770129107,0.04,0.0508627784477972,305.134426617288,0.529903026331899,0.423106294078197
6233,0.15457847828446,-0.249987564899497,-0.249999958555404,0.25,0.249999984913635,-0.249999802881991,-0.000608008395704887,-0.000608008395704887,0.609409791486152,0.605077150886129,0.04,0.0397162032478959,290.57358800674,0.474394463911525,0.450060812750229
6293,-0.0718138738091517,-0.249790661567886,-0.249987771627142,0.25,0.249999998239924,0.191665077707278,0.195276198588175,-0.00311934318177357,0.582317373626904,0.590518531643152,0.04,0.0398685643868729,277.706378191666,0.494529920464731,0.412617798883199
6353,-0.101714750500761,-0.249764655467484,-0.249986162032843,0.25,0.25,0.249998175143597,0.25,-0.00793972005340423,0.576611544677892,0.575959912400174,0.04,0.0352607670645501,274.98620976238,0.498500037466036,0.405322204448661
6413,0.208845840574656,-0.249781072807375,0.191668281096168,0.249999239488705,0.249999880000745,0.249999735990073,0.25,-0.00863580778505347,0.551501666414264,0.561401293157196,0.04,0.0674317399699022,262.997027292193,0.532626866708292,0.362812671401168
6473,0.249863277131786,-0.249783241135285,0.25,0.249999139043817,0.249999864151786,0.249999942139607,0.25,-0.00407898358157846,0.544671220407302,0.546842673914218,0.04,0.0712320028325235,259.792599942063,0.565366592693703,0.337637992903124
6533,0.249983185826425,-0.249965967621598,0.249959722459019,0.249999899555112,0.249999745118131,0.249993849957304,-0.00192650263864419,0.205235614411882,0.531144108640733,0.532284054671241,0.04,0.0781680349659473,253.191827276067,0.552525964065135,0.336706630223833
6593,0.24999902282383,-0.249990101308469,0.249954402783795,0.25,0.249999729396705,0.249993045329453,-0.000909747274838042,0.249999105542718,0.518736924346799,0.517725435428263,0.04,0.0804499477440544,247.393229369671,0.555655230868232,0.327142583396879
6653,0.249999758763984,0.191667821514012,0.249971852593911,0.249997129668425,0.249896895001571,-0.191243980257115,-0.000429468327356117,0.249977009260558,0.51836543674304,0.516026929849916,0.04,0.0805369016753358,247.328683435912,0.547445651677921,0.331961831051993
6713,0.249999855963628,0.25,0.249974157285813,0.249996750568029,0.249883313100327,-0.249520568542133,-0.000202601692957353,0.249974090883669,0.513101402780003,0.516026929849916,0.04,0.0788844498578602,244.780776163671,0.553416918617854,0.324997149529858
6773,-0.191662696192918,0.249975305637707,-0.191669542404595,-0.0672435139141314,0.24993653926007,-0.249935170846717,0.220803611623518,-0.00139080323807164,0.520466620545223,0.516026929849916,0.04,0.0275294575631675,248.326017017438,0.538794766128992,0.338651911079471
6833,-0.249995486100386,0.249972044118159,-0.249999842363706,-0.109143171487247,0.249943569130225,-0.249989929641662,0.249990864073919,-0.0257625551419013,0.519379177110203,0.516026929849916,0.04,0.0192455478772596,247.725270799391,0.49706131541004,0.366197203390976
6893,0.191665225272958,0.249994129763242,-0.249994834219421,-0.233566703340179,0.249895433441936,0.191667841541806,0.249998450913587,0.191665428251509,0.49963747495458,0.516026929849916,0.04,0.0617407773061429,238.28790132211,0.538261983766776,0.325284194077187
6953,0.249997772058116,0.249997046735234,-0.249994172766402,-0.25,0.249889075898199,0.25,0.249999452949014,0.249998151137893,0.513865488679779,0.516026929849916,0.04,0.0614364755357916,245.23480558681,0.587722479012111,0.306594587055502
7013,-0.105557358144322,0.249917968444826,0.191664691068396,-0.249995800328222,0.249985498357801,0.25,-0.0197230726982006,-0.0197230726982006,0.526211907429512,0.516026929849916,0.04,0.0597459235327823,250.854972570332,0.534115702105015,0.345097684122487
7073,-0.152517469680493,0.249907524142319,0.249996993839029,-0.249995245654591,0.249998233399635,0.25,-0.00931621183968357,-0.00931621183968357,0.515491422010549,0.516026929849916,0.04,0.0587573335480934,245.908983049097,0.523824464386409,0.344939788293714
7133,-0.238627037415055,0.039934731331706,0.249998722082433,-0.24905587388926,-0.191574348981425,0.249999999829876,0.205270867253231,-0.00655437888336983,0.518827920122299,0.516026929849916,0.04,0.0287162835594303,247.562329259727,0.515309304300571,0.352997193423566
7193,-0.249999999191317,0.0122024756774742,0.249998950340996,-0.248931805920254,-0.249895256088358,0.249999999807406,0.249999989384729,-0.0234163238215441,0.517257060680034,0.516026929849916,0.04,0.0237850075518692,246.757035972585,0.496558722833786,0.365135119040995
7253,-0.249999919429118,-0.219409711170961,0.249975358379795,0.19172921205925,-0.24998483972489,0.249999885698526,0.249987037195885,-0.0508494481682267,0.513811622003748,0.516026929849916,0.04,0.0320364536119542,245.138082786775,0.505898175512583,0.356042915213466
7313,-0.249999908894488,-0.25,0.249972242460391,0.249929723867864,-0.249996671525942,0.249999870627542,0.249985326529434,-0.0752616506074112,0.515742514843302,0.516026929849916,0.04,0.032511392472886,246.061256942758,0.509481476440785,0.354870187313436
7373,0.191649193406759,0.191484931578681,0.230856490099601,0.123251648958358,-0.249999611678027,0.178708483319382,0.249946682642044,0.211742564548504,0.499276365874157,0.516026929849916,0.04,0.0693357336270954,238.222422993192,0.568676084607868,0.307802646281075
7433,0.249980206918245,0.249794262164544,0.228331768089685,0.106520582460876,-0.25,0.169292639712644,0.249941578732389,0.24999965386014,0.514249264401924,0.516026929849916,0.04,0.0705428815563333,245.425604861121,0.61211318839943,0.294606828947242
7493,0.245461919053399,0.249973896650152,0.247471697596445,0.109604912916461,-0.249969117181873,-0.0814587436872896,0.249993184185445,0.249954891281189,0.521584822724261,0.516026929849916,0.04,0.0684001744253221,248.870899230153,0.590249705938588,0.30980827520666
7553,0.244865164052382,0.249997621959571,0.249999612814319,0.110012277316256,-0.249965038319102,-0.11457685092879,0.25,0.249948979242459,0.51856055782881,0.516026929849916,0.04,0.0719869448536157,247.378101162728,0.565990840758334,0.321148963514365
7613,-0.15932464113475,0.24999972256195,0.0262401145069854,-0.207760038301614,-0.249995920821401,0.195062177009926,0.0338925811353256,-0.00602022912521487,0.528903919733722,0.516026929849916,0.04,0.0338282982880777,252.349608998658,0.507199044900817,0.365577017477713
7673,-0.212708200310409,0.25,-0.0033130267788888,-0.249729966779446,-0.249999999642459,0.235957897681077,0.00535009185131195,-0.0180437534848077,0.519164351798622,0.516026929849916,0.04,0.022792629258574,247.630513507963,0.459165370427002,0.396268643060144
7733,-0.243844591817884,0.249963608459069,0.220279564393527,-0.249968205552432,-0.249963500472353,-0.0794908792782775,0.221449615897417,-0.0496835684576173,0.51382880401556,0.516026929849916,0.04,0.0158872884550372,245.217395942929,0.469064207375021,0.384125959182039
7793,-0.247956945413211,0.249958802029135,0.249810661340827,-0.249999671050751,-0.249958679827244,-0.121153925291777,0.249991062469544,-0.0977688365565849,0.515086328415739,0.516026929849916,0.04,0.0142559032896215,245.74752621522,0.473827484331446,0.381086516276929
7853,-0.249219818322148,-0.191661083063683,-0.191680015320257,-0.249640289993275,-0.249452313695139,-0.234967957950707,-0.165092363585193,-0.165092363585193,0.470171378142967,0.516026929849916,0.04,1.46102393603034e-10,224.034620181097,0.584721378411792,0.281527509798785
7913,-0.249386612857291,-0.249988237698583,-0.249990104690589,-0.24959282457059,-0.24938543514939,-0.25,-0.249065994126594,-0.25,0.487946306945716,0.516026929849916,0.04,1.55044719017503e-09,233.003570269082,0.849221621656826,0.201602637228004
7973,-0.157171503996884,0.191668038016984,-0.249998841932203,0.063941718794013,-0.249928300767429,-0.25,0.19177559813839,-0.249181750665652,0.584647129495951,0.516026929849916,0.04,0.0159677308438228,277.882809269251,0.662813097064993,0.308052881580351
8033,-0.144992149996453,0.249999998960549,-0.249999995907511,0.105351941502546,-0.25,-0.25,0.249999959380935,-0.249073679998852,0.52526050532435,0.516026929849916,0.04,0.0467634435203059,250.565169046796,0.620061006258511,0.296921027863614
8093,0.203917582500414,0.248667777178488,-0.249999999522543,0.233124393127886,-0.249899683117131,-0.249705733821384,-0.116478529279803,-0.248918574484696,0.525441973440209,0.516026929849916,0.04,0.0595126032074046,250.698061200082,0.564091175082644,0.326555006271648
8153,0.25,0.248491823358215,-0.25,0.249999999946328,-0.249886433717506,-0.249666868477039,-0.164881348536881,-0.24889808885075,0.520772572529505,0.516026929849916,0.04,0.0611796589959774,248.437517804757,0.525139300171918,0.347614062055435
8213,-0.191661816928599,0.249824046058458,-0.249999701206867,0.0620594395323424,-0.249978989665659,-0.249961134655655,0.201597175970381,0.191795222967412,0.514905435111143,0.516026929849916,0.04,0.0532786648616386,245.734738200126,0.545698976103172,0.330878152436938
8273,-0.249994509730489,0.25,-0.249999661743623,0.0372371013644575,-0.24999121403617,-0.25,0.249999999961906,0.25,0.518007042165756,0.516026929849916,0.04,0.0466759499660873,247.092139593953,0.525143331071783,0.34572895353814
8333,-0.249091205290947,0.25,-0.249999960421401,0.225177540982153,-0.249998974970886,-0.158910265308265,-0.191603041826729,0.216672595670309,0.518193775096669,0.516026929849916,0.04,0.0327524395025887,247.239683511086,0.512693947280592,0.354335499629694
8393,-0.248971900931007,0.25,-0.24999999986941,0.24999986319581,-0.25,-0.146879545631999,-0.249927971874285,0.212270863022991,0.51674801537619,0.516026929849916,0.04,0.0299975876688103,246.546506111687,0.506199987131767,0.357875031194894
8453,-0.249880052785134,-0.191666666666667,-0.249991131501505,0.249780157400408,0.191666666666667,0.203625087279022,-0.248251904279735,-0.196068260474553,0.520271278019796,0.516026929849916,0.04,0.0253178314580523,248.298412476516,0.502856241862448,0.3628146155901
8513,-0.249999997369641,-0.25,-0.249989960207631,0.249751139653846,0.25,0.24991815200312,-0.248030536861586,-0.249999842823285,0.516001451227015,0.516026929849916,0.04,0.026910879077711,246.152166375638,0.485015618287507,0.37290878516717
8573,-0.249999999693125,0.191666664825419,-0.249998812374252,0.0845151561736907,0.249999997727782,0.249990102000945,0.191896426955011,-0.249998203833626,0.5000302494818,0.516026929849916,0.04,0.0492711740673416,238.50820207748,0.543203996228676,0.322622787037332
8633,-0.25,0.249999997915569,-0.249999981528334,0.0626915357140475,0.249999997427677,0.249999604830847,0.249999988213807,-0.249997987363293,0.511543981668191,0.516026929849916,0.04,0.048462322767752,244.113190937616,0.59886438972757,0.299514211982469
8693,-0.0142034898114121,0.249999962787451,0.191623823457408,-0.213519297913482,0.249934547336636,0.24985869227707,0.249996318643648,0.191666901474282,0.501703924913963,0.516026929849916,0.04,0.0817882282928901,239.358891882277,0.660647541208091,0.266216162572201
8753,0.0169394454965145,0.249999958147888,0.249951495814015,-0.249999974052967,0.249925902984989,0.249840081185062,0.249995833983438,0.25,0.516746637084376,0.516026929849916,0.04,0.0857435183075375,246.619583419751,0.69015749375671,0.262563303654046
8813,-0.147291258072332,0.249989441624176,-0.191667216590764,-0.249998967323453,0.249984470547014,0.249560397757727,0.249995170873949,-0.191666662704968,0.536644057161331,0.516026929849916,0.04,0.0599831262576308,256.138113379114,0.607422821767525,0.309840209518013
8873,-0.168982105713501,0.249988052649346,-0.249994216342339,-0.249998834359177,0.249992205885395,0.249523458437135,0.24999508329345,-0.135113144417429,0.522454845639632,0.516026929849916,0.04,0.0630229622050082,249.202668176589,0.536056397852906,0.341583497128685
8933,0.201116223921454,-0.191668055237535,0.179885520867151,0.191657071574028,0.145578498834367,0.24991076172107,-0.0718837402968436,-0.0718837402968436,0.523316938362886,0.526321135319323,0.04,0.0680406471797255,249.532401899187,0.530644517196695,0.34552377978292
8993,0.249997135382674,-0.249999994015047,0.236662089932556,0.249988983678414,0.131788009223854,0.249961914984986,-0.0339577472540392,-0.0339577472540392,0.530087279658879,0.537974952831859,0.04,0.0548375808889889,253.011443280837,0.582462847172047,0.319173342353121
9053,0.249987597807416,0.191474464332217,-0.193222756173791,0.2469274259636,-0.205458065525083,0.249974647236219,-0.0162923257008055,-0.0162923257008055,0.550204346766156,0.549628770344396,0.04,0.0376201190934956,262.652270522755,0.599185682037817,0.322087899165147
9113,0.249986338127665,0.2497824116611,-0.249999999999157,0.246523069284285,-0.249999999925886,0.249976328854306,-0.010773355316194,-0.010773355316194,0.560311146776718,0.561282587856932,0.04,0.0384799153789701,267.406303251869,0.599257988515303,0.327878156242261
9173,0.249983699282131,0.249974409161587,0.191660762200079,-0.192069966185849,-0.249999882556757,0.249978027773173,0.219604960210104,-0.00750658859091467,0.567077666861081,0.572936405369468,0.04,0.0449281341085542,270.638771368169,0.626810189702079,0.31725512137841
9233,0.249983350755362,0.249999767322028,0.249993315698092,-0.249997348229074,-0.249999867055174,0.249978252158684,0.25,-0.00354558073441321,0.581976833174165,0.584590222882005,0.04,0.0443235839088328,277.769439035646,0.650327178672639,0.313839232807059
9293,0.249912849036273,0.249999244367195,-0.191667446501889,-0.249999690626725,0.191666682176896,0.249995962569476,0.24995639916322,-0.00167454198497075,0.593157774343549,0.596244040394541,0.04,0.0442323395801794,283.105338407796,0.670059999338244,0.31044812590936
9353,0.249903537488468,0.249999175297689,-0.25,-0.25,0.25,0.249998301680335,0.249950640562136,-0.000790976538433532,0.606888901350701,0.607897857907077,0.04,0.0450924487316864,289.643195774824,0.678932526792049,0.313466685070689
9413,0.249968688385156,0.249968786108431,-0.249942776386109,-0.249999987796525,-0.191663275178028,0.249999801862706,0.249862144627489,-0.00189191960439886,0.625735897603703,0.619551675419614,0.04,0.0326643590882907,298.666577157579,0.657986555224142,0.333521842547035
9473,0.249977293220567,0.249964772441925,-0.249935218550312,-0.249999986184745,-0.249996160578899,0.25,0.249850456485178,-0.0117922203994812,0.632327838400785,0.63120549293215,0.04,0.0328092669655813,301.748743650611,0.638769770797418,0.347100941341206
9533,0.249995022406466,0.249991339962234,-0.249992442164203,0.191521875661452,-0.249999075824579,0.25,0.249451322909922,0.0500609742843276,0.633836175387157,0.642859310444687,0.04,0.0482491523220068,302.326454323229,0.666312491047344,0.333390232640463
9593,0.249997363997057,0.249994848880011,-0.25,0.249836083829818,-0.249999460857027,0.25,0.2493986071547,0.0896914056015631,0.650121704888237,0.654513127957223,0.04,0.0446644548507675,310.297050301663,0.709605031333458,0.321303633859527
9653,0.249431599146549,0.249997983641931,-0.249995336736983,-0.177015261421229,0.191662944869305,0.249996807707994,0.249929779739275,0.16934741382308,0.66059622225229,0.666166945469759,0.04,0.0461257569105328,315.261946679485,0.740401754398464,0.312866302778178
9713,0.249356875487048,0.24999839766709,-0.24999472083432,-0.233391854190235,0.249995715436934,0.249996386084521,0.249999934608936,0.179868018682525,0.675827184130866,0.677820762982296,0.04,0.0469458492465919,322.542875261977,0.75955747513529,0.312019320830568
9773,0.24992496541154,0.24999981306116,0.191667282569329,-0.203358716744515,0.0115836250368258,0.249939598791016,0.249940147080797,-0.00211663564105113,0.690820215586594,0.689474580494832,0.04,0.0528881005529996,329.618016499608,0.75756188618018,0.319703581309535
9833,0.249999996156285,0.25,0.25,-0.199392075949798,-0.0199047642613017,0.249932098582441,0.249932250614816,-0.000999559319637378,0.698345008349794,0.701128398007368,0.04,0.0533017576848166,333.264340578475,0.770664243951261,0.317744698359916
9893,0.249999999551566,0.25,0.249537917117551,0.197570924472524,-0.223155532371136,0.24976146965704,-0.000471892379295091,0.215082599691168,0.706123483736715,0.712782215519905,0.04,0.0569467949134392,336.871839385866,0.787750469612863,0.314217749244244
9953,0.25,0.25,0.249476887302889,0.25,-0.249999973442246,0.249738933761233,-0.000222641301051895,0.25,0.719473410215641,0.724436033032441,0.04,0.0541990531169613,343.376216913095,0.827772369366068,0.304799297750542
10013,0.24939530817575,0.25,-0.191725877801852,0.25,-0.247412346841102,0.249504638122767,-0.000252890989807073,0.0369247424159024,0.744024274349106,0.736089850544977,0.04,0.0378603074811203,355.144541963152,0.809149721213554,0.322500900818365
10073,0.24931544321783,0.25,-0.249997941117572,0.25,-0.247070584837177,0.249473693415799,-0.00295412889720772,0.00878272726328574,0.74927396100449,0.747743668057514,0.04,0.0387182645731109,357.535374213677,0.783052666287627,0.335492426369908
10133,0.247338181297771,0.24999774113947,-0.24999975967672,0.242961949630013,0.0585001881635351,0.249524721248817,-0.00268364722863543,0.221857830661211,0.742482821555388,0.749103280100643,0.04,0.0513195405975476,354.201671169601,0.806430983232985,0.322729063026945
10193,0.247077033497008,0.2499974427994,-0.249999999863777,0.242032395807562,0.0988585921447612,0.249531460773932,-0.00126739535786204,0.249999825449616,0.748985446586064,0.749103280100643,0.04,0.0522698468285468,357.36917635824,0.821728902293936,0.319553225084673
10253,-0.192007651050171,0.249913786169918,-0.249724095256883,0.249070446177549,-0.201901738287147,0.249945337090292,0.192178010361285,-0.00191542507282006,0.758442812335201,0.749103280100643,0.04,0.0365742525219211,361.733134402645,0.761302924104487,0.349128634582316
10313,-0.249999967877157,0.249902737181119,-0.249687655025784,0.25,-0.241624800797022,0.25,0.25,-0.00916008838303644,0.752105060142271,0.749103280100643,0.04,0.0332714771195568,358.798489782612,0.731193147825283,0.360556367583574
10373,0.191666670414332,0.249974610417835,0.191703106913659,-0.191641911505065,0.192640180100487,0.25,0.249999600094295,-0.0139664702371384,0.737811299676619,0.749103280100643,0.04,0.0567113263316663,351.995517804968,0.770161400534181,0.33582270931646
10433,0.25,0.249984103109477,0.25,-0.249971975288753,0.249995932294497,0.25,0.249999547276561,-0.00663016049443269,0.745719656580264,0.749103280100643,0.04,0.0565189653231013,355.825867201229,0.80885461973243,0.32323748756976
10493,0.249999691855581,0.249998145362772,0.25,0.191669936216312,0.249999404491791,0.2499999105066,0.249954543893936,-0.00313158737984882,0.743416196593586,0.749103280100643,0.04,0.068813067443918,354.655183574947,0.834392546867046,0.312313366657794
10553,0.249999651157261,0.25,0.25,0.25,0.249999863083886,0.249999898686717,0.249948600050947,-0.00147898629902357,0.745575587046459,0.749103280100643,0.04,0.0690126620880445,355.732515535663,0.862364190196107,0.303101109188975
10613,0.249978280754123,0.25,0.249956072776299,0.249927359637048,-0.191654912709101,0.249984558957274,0.24997632710666,0.19190937769674,0.747193209732939,0.749103280100643,0.04,0.0644305694872212,356.425897649385,0.866034172240373,0.302404952562111
10673,0.249975458248048,0.25,0.249950271067509,0.249917765626847,-0.249986675549684,0.249982532955272,0.249979989170622,0.25,0.749673130077995,0.749103280100643,0.04,0.0653251803554931,357.682191298323,0.869701468021603,0.30219118427523
10733,0.249997136795606,0.25,0.249994198291209,0.249979616787377,-0.106542145595048,0.249968472222908,0.249984089621302,0.25,0.748283461331552,0.749103280100643,0.04,0.0704317418457196,356.99330513643,0.870521708800341,0.301324983915612
10793,0.25,0.25,0.25,0.24998778580858,-0.0875966416387748,0.249966615145048,0.24998463119026,0.25,0.748942746022699,0.749103280100643,0.04,0.0711125541123176,357.324979252839,0.873581326795942,0.300548601336724
10853,0.249946524711114,0.249981840755909,0.190418082585583,0.249998575011001,0.210613725142143,0.249958649244517,0.249993601886854,0.249999502557702,0.745782320545646,0.749103280100643,0.04,0.0764593076707535,355.793718082151,0.886248029615097,0.294983462834319
10913,0.24993946193711,0.24997944236518,0.182548772738396,0.25,0.25,0.249957597144447,0.249994786695838,0.249999436857776,0.747630921770252,0.749103280100643,0.04,0.0760824074170778,356.707206761115,0.900144433440884,0.291175184874803
10973,0.249990596972298,0.249997157148406,0.242130683047231,-0.191664522636316,-0.191665731078351,0.249995053000186,-9.41067111228792e-06,-9.41067111228792e-06,0.768598915232778,0.749103280100643,0.04,0.0510504589980588,366.648687070617,0.806628932302606,0.333988116907619
11033,0.249997350656191,0.249999496836757,0.249999991955945,-0.249997572795829,-0.249998940843417,0.25,-5.79677763633081e-06,-5.79677763633081e-06,0.754859127119054,0.749103280100643,0.04,0.0507125275709602,360.076230167908,0.744394377270436,0.355423423135785
11093,0.249947954017777,0.249999941297622,-0.19166631048639,-0.24999971682618,0.191666789568639,0.249999974359126,0.194108619082085,0.191665868251847,0.736188692599068,0.749103280100643,0.04,0.0557624855395345,351.058012856773,0.766055997178038,0.336723207450546
11153,0.249941429933458,0.25,-0.249999595714623,-0.25,0.249999999245703,0.249999970972595,0.249999865686144,0.249999096134166,0.747820203541684,0.749103280100643,0.04,0.0503357603945177,356.835374038847,0.802275576616157,0.32681276065346
11213,0.24999316682557,-0.191657732680781,-0.249994366341829,-0.24998576855833,0.249999820219108,0.24999999661347,0.249999940840462,-0.000865863827056563,0.762774945309394,0.749103280100643,0.04,0.0343952462686322,363.841338208412,0.74841690318058,0.357209605767437
11273,0.25,-0.249989886053715,-0.249993675669951,-0.249983888933959,0.249999796574086,0.25,0.249999950766504,-0.00855256020366263,0.752376985589891,0.749103280100643,0.04,0.033771559776067,358.92233794379,0.710603132875395,0.371131696128664
11333,0.249996088274124,-0.249998819975436,-0.249987406404878,-0.249998120373262,0.249992948529386,-0.191666213340516,-0.0307486324105086,-0.0307486324105086,0.760254719080682,0.749103280100643,0.04,0.00831917063245306,362.704424697243,0.648861125807096,0.410729384337497
11393,0.249995571631084,-0.249999999927362,-0.249986578388737,-0.249999999997321,0.249992044070652,-0.249999486800585,-0.0866007165722278,-0.0866007165722278,0.753102039389615,0.749103280100643,0.04,0.000983131992357807,359.283653708369,0.612517915370839,0.430996098776681
11453,0.249994965084994,0.191288043120372,-0.249991946008122,-0.249999999999688,0.249960635426403,-0.249999940126735,-0.160269545055178,0.191668025951666,0.73255928914956,0.749103280100643,0.04,0.0236087201050789,349.418968779645,0.660956860301091,0.388443661636922
11513,0.249994884975134,0.249571369560639,-0.249992654938984,-0.25,0.249956487114899,-0.25,-0.218897439367676,0.25,0.745296041220714,0.749103280100643,0.04,0.025454755668292,355.624970501749,0.711112838258328,0.367458590335007
