time,bias_percent_1,bias_percent_2,bias_percent_3,bias_percent_4,bias_percent_5,bias_percent_6,bias_percent_8,bias_percent_9,normalized_power,power_SP,SP,CV,total_power_MW,fuel_fraction,thermal_efficiency
43,0,0,0,0,0,0,0,0,0.999755628426559,1,0.04,0.0399340317022644,476.987364266985,0.999877875603907,0.350521443807202
103,0,0,0,0,0,0,0,0,0.999971884882008,1,0.04,0.0399040308679913,477.087064959226,1.00027340732325,0.350456076957205
163,0,0,0,0,0,0,0,0,0.999997335157132,1,0.04,0.0399448540659432,477.09879009888,1.00031676202819,0.350449500466114
223,0,0,0,0,0,0,0,0,1.00000131262421,1,0.04,0.0399745737439209,477.100642600962,1.00031438054982,0.350451695537104
283,0,0,0,0,0,0,0,0,1.00000284149482,1,0.04,0.0399923367661424,477.101364663405,1.00030001785911,0.350457257851424
343,0,0,0,0,0,0,0,0,1.00000368109155,1,0.04,0.0400023962291441,477.101760631932,1.00027936184454,0.350464785746621
403,0,0,0,0,0,0,0,0,1.00000398474671,1,0.04,0.0400076136798808,477.101901666953,1.00025583402368,0.350473132912909
463,0,0,0,0,0,0,0,0,1.00000387419074,1,0.04,0.0400097698004779,477.101846219404,1.00023219159111,0.350481376294777
523,0,0,0,0,0,0,0,0,1.00000349451501,1,0.04,0.0400100342682236,477.101663484207,1.0002103464318,0.350488896765022
583,0,0,0,0,0,0,0,0,1.00000297411867,1,0.04,0.0400092043779527,477.10141458323,1.00019139179154,0.350495356033382
643,0,0,0,0,0,0,0,0,1.00000240970266,1,0.04,0.0400078244422242,477.101145153601,1.00017577309669,0.35050063141583
703,0,0,0,0,0,0,0,0,1.00000186551568,1,0.04,0.0400062548716253,477.100885910718,1.00016348603011,0.350504746882281
763,0.179166593338548,0.0353079872302603,0.17774556059347,0.179166666666667,-0.0190925520309679,0.179166031135873,0.0399246742765673,0.168282855658987,0.984006672404693,1,0.04,0.0583099355214423,469.372951214936,1.05311951954727,0.327487759849269
823,0.249999897681695,0.0492669589259445,0.248017061293213,0.25,-0.0266407702757692,0.249999113212847,0.0557088478277683,0.234813286966028,0.993083328619305,1,0.04,0.0603169718526339,473.883653497984,1.1282780057934,0.308610204327844
883,0.249999936626984,-0.165193697137102,0.249438167366411,0.249861670142209,0.171618448421865,0.249983631184715,0.121245157842991,0.245649286307753,0.996389851473401,1,0.04,0.060634274207885,475.390672048585,1.15208777759047,0.303193413760398
943,0.249999952023959,-0.249980468138771,0.25,0.24980698159378,0.25,0.249977510382896,0.147154861802498,0.249933286047505,1.00040597877325,1,0.04,0.0611249319687714,477.315222639137,1.15853493082213,0.302726771167074
1003,-0.108333300628198,-0.166407438979131,0.249994181849658,0.249926310299673,0.249399392832831,-0.108325879328135,0.220860544177374,0.249980004595674,1.01011218402397,1,0.04,0.0525228114512642,481.997809843085,1.12389680044137,0.315118068830531
1063,-0.249999935397656,-0.133366939078808,0.249991881650685,0.249973486764794,0.249161943487671,-0.249980707818543,0.25,0.249998474719368,1.006865897295,1,0.04,0.0505846456818375,480.328439840324,1.06499237851065,0.331395401729256
1123,0.108170241509251,-0.216945644690957,0.249997685903879,0.249943615070668,0.24965107254901,0.108338781480581,0.25,0.249999567837154,0.993145542185657,1,0.04,0.0597984784368714,473.744591373154,1.07136427933523,0.324909027840662
1183,0.249772404472447,-0.249988388770179,0.24999998060863,0.24993180533113,0.249844449154655,0.249999974924421,0.25,0.25,0.997160327627927,1,0.04,0.0588743184996199,475.793372927275,1.10782442233491,0.315574665025238
1243,0.249898917242668,-0.0495645026703088,0.249985524408254,0.24997567457241,0.249952460784496,0.249999992895253,-0.0957248213727731,0.249999999472552,1.00661562312273,1,0.04,0.0576329798907391,480.298191749764,1.08834936555818,0.324262927628752
1303,0.249948933919266,0.0296728476482444,0.249979809166245,0.249993018225939,0.249995163056759,0.25,-0.0498667857663026,0.249999999264026,0.999191074700451,1,0.04,0.0588918769213839,476.696852852942,1.08547630544576,0.322683391757348
1363,0.249983003004092,-0.170759359832997,0.249793380689483,-0.108335311502651,-0.108334703800585,0.25,0.167742302996864,0.249812697409551,1.00766359769025,1,0.04,0.0416011906757969,480.859427688541,1.06734708153339,0.331029840337941
1423,0.249996472177163,-0.25,0.249719676407972,-0.25,-0.25,0.25,0.249999553497686,0.249738647839178,1.00603863316003,1,0.04,0.037682649542932,479.939160644757,1.01498790405952,0.347440144737683
1483,0.249999000450196,0.108298893964828,0.249920574982259,0.108259602258978,-0.128798378244046,0.25,0.249999819074665,0.2499259502211,0.990980686065295,1,0.04,0.0548561030854016,472.707521600745,1.03191626919874,0.336591178327697
1543,0.25,0.249951945067203,0.25,0.249897119431133,-0.0808814580149475,0.25,0.249999924070216,0.25,0.986704181426128,0.98733313138091,0.04,0.0595808986830633,470.683875942414,1.06453829334008,0.324879799878027
1603,0.25,0.249986133868812,0.249999979534231,-0.102952737218148,-0.200603552598225,0.162578631130119,0.249999376781029,0.25,0.98176548731895,0.969658430982179,0.04,0.0528327858668966,468.342284239374,1.02042183740152,0.337239395354222
1663,0.25,0.249999650371774,0.249999971443113,-0.24245151775391,-0.247935543479986,0.128016694600166,0.249999160410885,0.25,0.961469467556614,0.951983730583447,0.04,0.0545212782619952,458.534414369132,0.946963714755026,0.355789620615332
1723,0.248992972320007,0.24999962778087,-0.108333341424451,0.109205515830108,0.108717895286532,0.214856443520022,0.249999762116417,-0.000472056265046481,0.940142717005631,0.934309030184716,0.04,0.0619460167798076,448.227864118461,0.904099198970237,0.364281773956017
1783,0.248594845097684,0.249999618849582,-0.25,0.248232715154022,0.249720417589574,0.249188437279035,0.25,-0.000222718766138321,0.91851549896819,0.916634329785985,0.04,0.0628732696300474,438.092826770991,0.897254611787868,0.358760911908269
1843,-0.108730902792684,-0.108323269335991,-0.25,-0.106309421263684,0.249920784983713,0.24977005722906,-0.00107557084519753,0.140078461850807,0.915516082419634,0.898959629387254,0.04,0.032449236942964,436.763769810892,0.827369200170321,0.387884059691281
1903,-0.249999221726086,-0.249985806525636,-0.25,-0.246477242638125,0.25,0.25,-0.0171319746851398,0.249767289104237,0.891594120976236,0.881284928988523,0.04,0.0247767019974493,425.154907391871,0.730155964408787,0.427844777803441
1963,-0.0867714848383066,0.108316053855048,0.10833332236066,-0.120512049160218,0.25,0.249999255607665,0.172227359292727,0.213460516725255,0.845182796605627,0.863610228589792,0.04,0.0526948409401466,403.046112689104,0.770444101916541,0.384386634393345
2023,-0.0222395888594173,0.249970277726481,0.249999984689293,-0.0707118563898824,0.25,0.249998961313021,0.249969344510729,0.199106676482402,0.841530308012684,0.845935528191061,0.04,0.0591602053420148,401.456839968739,0.83837697373162,0.351847278591351
2083,0.172502156040457,0.249139441594339,0.249998165649909,0.159131541674546,0.249998247633385,0.249988648140182,0.249991300603775,-0.0136585722689933,0.830518289923292,0.82826082779233,0.04,0.0704153874403974,396.013108320041,0.824028817433118,0.353119611541911
2143,0.249493078442732,0.248810971495585,0.249997446494804,0.249999861839552,0.249997554837281,0.249984570839292,0.249999980919631,-0.0064515582693193,0.810061854693263,0.810586127393599,0.04,0.0758444308940088,386.350366276379,0.828775950760673,0.342530196951343
2203,0.249856372225441,0.249663108590416,0.249999276506861,0.249999889637209,0.0414429129287514,0.249995628404466,0.249999951630589,-0.0030472220627309,0.796611861152578,0.792911426994868,0.04,0.07216799045376,379.954992365621,0.816622985804612,0.341873337307296
2263,0.25,0.25,0.25,0.24999990062698,-0.0410089222443883,0.25,0.249999940051201,-0.00143913513407921,0.778527863259595,0.775236726596137,0.04,0.0731130158755924,371.283790082547,0.791511528101336,0.344669949411258
2323,0.249998251326924,0.25,0.249999875996058,0.249999971844311,-0.190785849286287,0.249999957775218,0.249966128807624,0.0304766479473015,0.76174757680736,0.757562026197406,0.04,0.0718756973400406,363.333988735828,0.76808463109085,0.347577477999112
2383,0.249997559991056,0.25,0.249999826971244,0.25,-0.249999983233084,0.249999941081699,0.249952761571792,0.13990712437728,0.742455805747507,0.739887325798675,0.04,0.0733611634888276,354.100954203969,0.758694989116628,0.342937168409736
2443,0.249732903961827,0.249999998797003,-0.108316911850059,0.25,0.108333337932114,0.249999982940311,0.249830458091406,0.218729667280523,0.721720868276676,0.722212625399944,0.04,0.0776841147669917,344.191875581771,0.752252499045417,0.336195311042453
2503,0.24962827250841,0.249999998321399,-0.24997701789569,0.25,0.249999999788122,0.249999999489064,0.249782105552649,0.2498920679632,0.707833913162296,0.704537925001213,0.04,0.0790822990997578,337.584865239106,0.740423798168913,0.335009617573533
2563,0.249894677210716,0.249984053496593,0.108339844929554,0.0596028525763961,0.249621890539083,0.249999999855235,0.249929590225196,0.249940108564409,0.689862869110969,0.686863224602482,0.04,0.0875522331264955,328.995468077591,0.719476338098243,0.33599133416467
2623,0.25,0.249977749728646,0.25,-0.0156704382654938,0.249472405487138,0.25,0.249987898118994,0.249959101360235,0.671590716003262,0.669188524203751,0.04,0.0900720129560388,320.271955734955,0.702578426136146,0.3349490714524
2683,0.249998377794619,0.24999369575645,-0.108333333333333,0.174698809895427,0.249843467909399,0.249999879382964,0.249924515390582,0.249967376994325,0.654292006072594,0.65151382380502,0.04,0.0890305037066201,312.046897377173,0.687593687377419,0.33345916951967
2743,0.249997736457607,0.25,-0.25,0.249961070796256,0.249990167006572,0.249999831697159,0.249899457102606,0.24997064875664,0.649534752671382,0.654860439550246,0.04,0.0800222125165779,309.94435601601,0.697805357151097,0.326365399337979
2803,0.249999358662989,0.249899866629213,-0.249888492659194,0.249983765999981,0.249997213985195,-0.108332677932421,0.249914903377641,0.249991683814381,0.665481503685021,0.666517808189593,0.04,0.0609349845221814,317.640987644595,0.720626386293793,0.323877705507872
2863,0.25,0.249860279017507,-0.249844408361666,0.249992738522384,0.25,-0.249999018948766,0.249921010044515,0.25,0.675660429510201,0.678175176828941,0.04,0.0549838550514536,322.430765946276,0.727287561998019,0.325750424897098
2923,-0.108310582304855,0.249960412388294,-0.249938347882811,0.249991701017607,0.249999998547511,-0.249954633005457,0.113879947414229,0.25,0.692724414372359,0.689832545468289,0.04,0.0363932967257186,330.639440060757,0.728912670337075,0.33329886416573
2983,-0.249968254378867,0.25,-0.249975486763264,0.249991290841299,0.249999997973272,-0.249937085074381,0.0600962714906282,0.25,0.701393323429657,0.701489914107637,0.04,0.0287136424366881,334.680878371822,0.713870888890665,0.344481500570647
3043,-0.249959760227035,0.249940806674206,-0.249896172302681,0.249997532405035,0.249267853427603,0.1083495832529,0.196181839444798,0.249993251448547,0.702106718519663,0.713147282746985,0.04,0.0397897738338258,335.013028098738,0.755148767257459,0.32597467039463
3103,-0.249956402073986,0.249917404661683,-0.249864815422915,0.25,0.248978400932803,0.249997800963685,0.249983110496446,0.249990583416577,0.71857889581278,0.724804651386333,0.04,0.0405459493337005,342.967393265084,0.810811160310504,0.310804852731374
3163,0.108342686011797,-0.108327746650135,0.108371635630174,0.249985584673308,0.249710546930961,0.24999852905656,-0.0408348817128378,-0.0408348817128378,0.742085380501245,0.736462020025681,0.04,0.0416206391259078,353.895330007457,0.798562979622668,0.325626945231217
3223,0.249995813859665,-0.249959550657133,0.25,0.249979885590663,0.25,0.249998816907231,-0.0370517707161409,-0.0370517707161409,0.743686004051268,0.748119388665029,0.04,0.0458117210937156,354.906999843061,0.824440888753006,0.316307666701163
3283,-0.108323888454715,0.0514120372439913,0.249993915760109,0.249994300917354,-0.10831940607086,-0.108323178430654,-0.0325745921201229,-0.0325745921201229,0.769035242242229,0.759776757304377,0.04,0.0247343719005064,367.104329428255,0.808608274750799,0.333584606309418
3343,-0.249985166113889,0.170558944088622,0.249991510362942,0.25,-0.249980566610503,-0.249985362634004,-0.0548551376434208,-0.0548551376434208,0.775557454697827,0.771434125943724,0.04,0.018180809119116,370.042142050734,0.757726047625207,0.358834049097706
3403,-0.249970763371793,0.227491509942753,0.249818018289447,-0.108304838625183,-0.249994493872976,-0.249992447445769,-0.0996035116643675,-0.0996035116643675,0.78806048210983,0.783091494583072,0.04,0.00296424466227389,376.001667097463,0.73802142408278,0.374347965859358
3463,-0.249965069264453,0.249999733652525,0.249749428399925,-0.249960239942116,-0.25,-0.249995248417863,-0.172360992476598,-0.172360992476598,0.786869566215697,0.79474886322242,0.04,2.22998170258763e-08,375.442683232449,0.757609866811018,0.364126845878468
3523,-0.249933009859394,0.249999924534882,-0.108404328620021,-0.249968364512166,-0.25,0.108319316951419,0.108335956142559,-0.195223508870853,0.816176395056554,0.815041191561377,0.04,0.00793242326941126,388.69815082762,0.77532148143306,0.368370915918917
3583,-0.249920335210882,0.25,-0.25,-0.249971576551489,-0.25,0.249978563725321,0.249999999990576,-0.173567980872868,0.818510986290676,0.821757933952448,0.04,0.0165526963555606,390.531242897471,0.806325989735782,0.355876902234277
3643,-0.24997742830975,0.249982467336895,-0.249355363493434,-0.249991360067423,-0.25,0.249992635747911,0.249915444888661,-0.228340755323431,0.820446375487848,0.821757933952448,0.04,0.0208541575080728,391.446374696023,0.818475447427333,0.351415809431422
3703,-0.25,0.249975535818924,-0.24910050720014,-0.249999181457444,-0.25,0.249998199105679,0.249882016127439,-0.249995108013188,0.820258272207746,0.821757933952448,0.04,0.0254372742761486,391.345639803228,0.826362419348648,0.347972254778075
3763,0.108331820648495,0.249993068482028,0.108550874653967,0.108307465176607,0.10833202742564,0.249998705076643,0.249966571236108,-0.24987203284665,0.795767599002223,0.821757933952448,0.04,0.0605188269096931,379.626836261853,0.926775930114455,0.300979444269801
3823,0.249997889276971,0.25,0.249947932596289,0.249963581287743,0.249998177803218,0.249998905111675,0.25,-0.249823375222669,0.812630344003851,0.821757933952448,0.04,0.0695674967919296,387.837715284148,1.03072193116793,0.276479667948824
3883,-0.108333928951214,0.248536408941667,-0.108347501171751,-0.108334554233178,-0.108309400906437,0.249999397199958,0.217668693398048,-0.249465343200212,0.84247394577646,0.821757933952448,0.04,0.0439530593199109,402.1797553319,0.981524377188279,0.301074373717006
3943,-0.249999996622822,0.247957779918606,-0.249999184289348,-0.249987305485636,-0.249965885512579,0.249999591746488,0.204886548927509,-0.249323795656449,0.834949452275207,0.821757933952448,0.04,0.0418964883124648,398.236301566761,0.852875703395524,0.343091358694857
4003,-0.103900774695722,0.248988687061828,-0.249927192069078,0.108156018766081,0.108342999104769,0.24996184238884,0.237217855529461,0.108167311783488,0.804895953847211,0.821757933952448,0.04,0.0655214620795859,383.87339057519,0.884242483188711,0.31898576906991
4063,-0.0461406171896594,0.249396255002172,-0.249898730028506,0.249747565563271,0.25,0.249946918224189,0.25,0.249501005422532,0.816701209153395,0.821757933952448,0.04,0.0647396888277531,389.753900531594,0.959322693047737,0.298524808550633
4123,-0.182535364830761,-0.0304874302433273,0.108342378226305,-0.108403312165887,0.249958526484255,-0.108347975993179,-0.108092663871152,0.249858359387847,0.840966646745184,0.821757933952448,0.04,0.0438478462823945,401.384694032621,0.902403269659081,0.326824664193784
4183,-0.236458869712126,-0.14113911975899,0.249972583815417,-0.249997845221601,0.24994212997803,-0.249999445800046,-0.249664182145793,0.249999638862507,0.831791191809757,0.821757933952448,0.04,0.040030573646259,396.748008610074,0.800488193026074,0.364178666457188
4243,0.112169986914898,0.00502858630902392,-0.108329646469649,0.10833394385388,-0.108250509160991,-0.249732272122457,-0.249877026608295,0.24880488187868,0.824979095228141,0.821757933952448,0.04,0.0395903387602143,393.567218133436,0.76930500613098,0.375902344822056
4303,0.25,0.062815818940564,-0.249984016582349,0.25,-0.249861552541535,-0.24962664531969,-0.249961174419052,0.248332536094376,0.822772983110405,0.821757933952448,0.04,0.0374904825057873,392.542053051097,0.761671368300282,0.378680755887572
4363,-0.108327252950954,0.196964256686372,-0.24773565998042,-0.108332246626994,-0.249956806901432,-0.249894216173879,-0.212950251310458,-0.108769605780726,0.842993026558424,0.821757933952448,0.04,0.00814004736280521,402.358164928782,0.694794789982326,0.425511147199335
4423,-0.249991515745518,0.249999685562622,-0.246846774812216,-0.249998483665573,-0.249994465601857,-0.249999999999954,-0.198318025895433,-0.249949522335999,0.822880483600465,0.821757933952448,0.04,2.01102847564421e-05,392.436101753714,0.629934533197461,0.457749851564821
4483,0.108335385051789,0.249759334948149,-0.249106578629948,-0.249999463350235,-0.249974101925602,0.108333331416655,0.122807017849624,-0.249985156132474,0.798114364219821,0.821757933952448,0.04,0.0266755234488936,380.209363172534,0.692288547064409,0.403543482128011
4543,0.249999508622817,0.249664312612194,-0.249999989441609,-0.249999850667427,-0.249966051169874,0.249999997325547,0.249763430493019,-0.249999243912476,0.81131492029043,0.821757933952448,0.04,0.0321248418919513,387.165260815628,0.803737916953363,0.35394566835455
4603,0.249890138249551,0.249896335221975,0.108309407648953,-0.249998911274024,0.108341859915807,0.249926382159552,-0.0402751419596855,-0.179663165303464,0.80907006109449,0.821757933952448,0.04,0.0497760517246451,386.034775288103,0.87249564839916,0.325100648503917
4663,0.249846898799655,0.249988065090958,0.249966611149872,-0.249998539885935,0.249998475926425,0.249897278489275,-0.154941554324708,-0.15185587841153,0.817506524211115,0.821757933952448,0.04,0.0581186045101142,390.089065890079,0.918756226551135,0.311973825369818
4723,0.242107738617411,0.249000154539158,-0.108227979076403,0.108333333562739,0.249994997312513,0.249970822832657,0.135265859830427,-0.222192405185614,0.817312138190385,0.821757933952448,0.04,0.064512920722102,389.937669543452,0.940546186618491,0.304627945259044
4783,0.239048070638385,0.248609585251237,-0.249839793817023,0.249999423065702,0.249993622046548,0.249999898503297,0.249999023566179,-0.249999869259089,0.821864458937113,0.821757933952448,0.04,0.0658715982922808,392.141661907503,0.951836146787265,0.30271606394586
4843,0.246870522005508,0.245987483816124,-0.249954607248233,0.249643253129096,0.24999567211967,0.249915660303915,0.249936398207374,-0.247688386350957,0.823926711144117,0.821757933952448,0.04,0.0673508144228703,393.10338299288,0.941645055560667,0.306742693839532
4903,0.249963119057627,0.244950839062707,-0.249999998604757,0.24950244175881,0.249996482613695,0.249882356829741,0.249911639344591,-0.246774544270998,0.824615189763364,0.821757933952448,0.04,0.0671294686290408,393.42672372814,0.925636819416191,0.312304262076778
4963,0.24998633995128,0.2485694044011,0.108333333728652,-0.108474155474267,0.249999003407214,-0.108366664454754,0.0317617828320277,-0.064659535526853,0.8316671630395,0.821757933952448,0.04,0.0583729210548847,396.85408879814,0.886109438854485,0.329077487485993
5023,0.249995520304585,0.25,0.25,-0.249999786938506,0.25,-0.24999999845095,-0.0544835092775904,0.00733942141850662,0.827941587599858,0.821757933952448,0.04,0.054523755537348,394.961041436957,0.831229992438854,0.349130451938119
5083,-0.0746119256470335,-0.0213004795514291,0.249999892434114,0.108333393700756,0.249967806301596,-0.249999999561102,0.163729672371349,0.181231801691598,0.813604452040562,0.821757933952448,0.04,0.049609199848555,388.140356078702,0.849426713198252,0.335751190645947
5143,-0.202945101953487,-0.128558808676413,0.249999849908066,0.25,0.249955078560367,-0.25,0.25,0.249979952032123,0.822596131375801,0.821757933952448,0.04,0.0432761196635354,392.485850355542,0.862139859609756,0.334503723388682
5203,0.121665481827272,-0.215590553439332,0.249999385863293,0.249999999141319,0.249987272258771,-0.25,0.249999800080398,0.249993746445645,0.819911676255539,0.821757933952448,0.04,0.0497824686470768,391.150568446318,0.861209924694876,0.333725671786191
5263,0.249999898670827,-0.249998452531649,0.249999202403731,0.24999999880184,0.25,-0.25,0.249999721042415,0.24999920005099,0.821461199873159,0.821757933952448,0.04,0.0515585273523242,391.939122144403,0.870356887187687,0.330884117604322
5323,0.249999971290068,-0.249999561550634,0.249979625945944,-0.108333321346945,-0.108333333333333,-0.249996049434993,0.249999920962018,0.249747687637822,0.832732973820524,0.821757933952448,0.04,0.0330944477430588,397.396755114628,0.835856610044241,0.349339111744276
5383,0.25,-0.25,0.249971886416121,-0.249999982801117,-0.25,-0.249994487583712,0.25,0.249648252497733,0.821309021315591,0.811324256828314,0.04,0.0321448546855235,391.685724404637,0.758977129915943,0.379195984726034
5443,-0.108284897456049,-0.249986166511729,0.249349816376715,-0.249932535445329,-0.25,-0.249998332077929,-0.0434572105254677,0.249899826832061,0.817364433963292,0.796765637585336,0.04,0.0140715030958902,389.752228668865,0.669882162473856,0.427508614020948
5503,-0.249932415054952,-0.249980697458227,0.249103881709973,-0.249905870211646,-0.25,-0.249999851994247,-0.0875054995650472,0.249999286452609,0.792360701375482,0.782207018342358,0.04,0.00973354882369728,377.670032745548,0.579451669650102,0.478905675193104
5563,-0.249980640008418,0.108338194178409,-0.0640339751477078,0.108359907481213,0.108318062399097,0.108332184216726,-0.143944409145245,0.249997363803718,0.748508635684025,0.767648399099381,0.04,0.0361372034747756,357.020498377656,0.637240253196265,0.411665646535208
5623,-0.249999705687696,0.249999151337079,-0.187832662742605,0.249999866103971,0.249978691719671,0.249998338067577,-0.172345947736296,0.249996603686715,0.747528339407185,0.753089779856403,0.04,0.0426500183706679,356.61354813726,0.709200255992055,0.369473786203008
5683,0.108333256728393,0.061063681971689,0.125947412222929,-0.108333371270542,0.249993962653907,0.249982338739333,-0.179311338401601,0.249995192132892,0.735608272907711,0.738531160613425,0.04,0.0535676549900852,350.844628278532,0.721939503785085,0.357082610580799
5743,0.249999776753358,-0.0136317361495117,0.25,-0.25,0.25,0.249976013423515,-0.161245045767808,0.249994634076729,0.725404243380399,0.723972541370447,0.04,0.06126630134379,346.007687961392,0.724780083247523,0.350779475392896
5803,0.249998320730096,0.175304094045313,0.24999996226403,0.108333299836058,0.249985142592087,0.249993203803233,0.108329944971754,0.249998479655073,0.703004195098712,0.70941392212747,0.04,0.0864413459019497,335.195740731559,0.732266882152983,0.336344069733884
5863,0.249997745092993,0.249999654820011,0.249999947345158,0.249999953259616,0.249979268733145,0.249999999999866,0.249993070568184,0.25,0.693422425396755,0.694855302884492,0.04,0.0900827047131757,330.769495024785,0.762625941741558,0.318690085138737
5923,0.249999361109681,0.249998884675088,0.249999790823879,0.249999986756891,0.249983276330033,0.249999999999962,0.249994822024767,0.25,0.681895245720358,0.680296683641514,0.04,0.0914370997931986,325.22291616865,0.755643303134788,0.31624158511243
5983,0.25,0.249998580199189,0.249999728943374,0.25,0.249984860728803,0.25,0.249995514461091,0.25,0.667551717484734,0.665738064398537,0.04,0.0932116363551702,318.372646720068,0.744055683241927,0.314401772561608
6043,0.25,0.24999956118722,-0.108333410132711,-0.108333333333333,0.249992745760845,0.25,0.249994204912055,0.25,0.658987168733251,0.651179445155559,0.04,0.0783226052587311,314.357314210894,0.715229368371792,0.322948228770686
6103,0.25,0.249999949019698,-0.25,-0.25,0.249995863099094,0.25,0.249993687183367,0.25,0.644760907497665,0.636620825912581,0.04,0.0770155984835311,307.469562055723,0.656642131836934,0.344055148283338
6163,0.181614576103863,-0.108324435955725,-0.24999997029804,0.108333333333333,0.249998817066182,-0.108333192065427,-0.00134856604526891,-0.00134856604526891,0.646452529455157,0.622062206669603,0.04,0.0539613783297348,308.027602495379,0.548313820963338,0.412776646943642
6223,0.15457847828446,-0.249987564899497,-0.249999958555404,0.25,0.249999984913635,-0.249999802881991,-0.000649054165705617,-0.000649054165705617,0.613359970349281,0.607503587426626,0.04,0.0423179432119972,292.43403473739,0.47812005909375,0.449412997031662
6283,-0.0290983356782816,-0.249827813139888,-0.249990071047569,0.25,0.24999999572553,0.10833208136968,0.117099339428426,-0.00257430144682131,0.586884452956736,0.592944968183648,0.04,0.0385842213155848,279.696241273863,0.485139477202835,0.423618278028976
6343,-0.101714750500761,-0.249764655467484,-0.249986162032843,0.25,0.25,0.249998175143597,0.25,-0.00678651297039622,0.578808536876552,0.57838634894067,0.04,0.0353015123342489,276.059576994853,0.499424730719113,0.406150928435681
6403,0.150249502635898,-0.249777975196075,0.108337254090694,0.249999382981402,0.249999902642114,0.249999441490738,0.25,-0.00978572654534229,0.554345590201365,0.563827729697692,0.04,0.0613994264815914,264.331832120612,0.522619260601645,0.371636816548072
6463,0.249863277131786,-0.249783241135285,0.25,0.249999139043817,0.249999864151786,0.249999942139607,0.25,-0.00462216416516683,0.54598204636236,0.549269110454715,0.04,0.0707413687440973,260.432796175391,0.563844571278276,0.339383673935677
6523,0.249960561544417,-0.249931490926067,0.249967321995053,0.249999756062415,0.249999767577311,0.249994999425663,-0.00218308178571407,0.141287769939259,0.536560230755034,0.534710491211737,0.04,0.0754763345475778,255.684785363855,0.549989292893491,0.341590140869592
6583,0.24999902282383,-0.249990101308469,0.249954402783795,0.25,0.249999729396705,0.249993045329453,-0.00103094610701038,0.249999105542718,0.520685756411237,0.520151871968759,0.04,0.0797490299038869,248.32900950569,0.55701340217466,0.327579328116567
6643,0.249999619907352,0.1083361379626,0.249968560176908,0.249997671240421,0.249916297717634,-0.107991711278517,-0.00048671833028122,0.249981178370399,0.517902160466595,0.516026929849916,0.04,0.081022377846031,247.117307450686,0.550009245226242,0.330132172522305
6703,0.249999855963628,0.25,0.249974157285813,0.249996750568029,0.249883313100327,-0.249520568542133,-0.000229644551177631,0.249974090883669,0.513637926950741,0.516026929849916,0.04,0.0797472055632856,245.026040177252,0.550231228838201,0.327206319104466
6763,-0.108330139182249,0.249979964951347,-0.108340542463009,-0.00738686023825221,0.249926496588421,-0.249856943996796,0.179107536694373,-0.000517322722825035,0.521123788110162,0.516026929849916,0.04,0.0373860653765994,248.562199741352,0.54279922418122,0.33647324899455
6823,-0.249995486100386,0.249972044118159,-0.249999842363706,-0.109143171487247,0.249943569130225,-0.249989929641662,0.249990864073919,-0.0202133506548264,0.520541549006141,0.516026929849916,0.04,0.018841729888111,248.335300202504,0.500005613652104,0.364937299310512
6883,0.108333015579874,0.249989962660396,-0.249995779152305,-0.21009056525472,0.249904515647273,0.108336186601529,0.249997019434404,0.108332966985247,0.502459898028463,0.516026929849916,0.04,0.0544691339342771,239.523035852277,0.520397041363897,0.338194970790245
6943,0.249997772058116,0.249997046735234,-0.249994172766402,-0.25,0.249889075898199,0.25,0.249999452949014,0.249998151137893,0.512118601117507,0.516026929849916,0.04,0.060862609754973,244.42929728159,0.58639693235993,0.306278312631593
7003,-0.0384714845212206,0.249932888876978,0.108332829967491,-0.249996592719123,0.249967305440895,0.25,-0.0223492535650868,-0.0223492535650868,0.529221886057298,0.516026929849916,0.04,0.0551927630898568,252.373157458261,0.543127913847131,0.341425311066095
7063,-0.152517469680493,0.249907524142319,0.249996993839029,-0.249995245654591,0.249998233399635,0.25,-0.0105567259569841,-0.0105567259569841,0.516314021503243,0.516026929849916,0.04,0.0597546308853247,246.287808143991,0.522894890696934,0.346085330862191
7123,-0.222379949163251,0.0795522394091802,0.249998395998772,-0.249233113844983,-0.108258767400093,0.249999999861975,0.141372121351091,-0.00602815628335549,0.51824796326425,0.516026929849916,0.04,0.0331627780269183,247.2753287238,0.518352136967636,0.350518198418633
7183,-0.249999999191317,0.0122024756774742,0.249998950340996,-0.248931805920254,-0.249895256088358,0.249999999807407,0.249999989384729,-0.0194119145821643,0.517834983243921,0.516026929849916,0.04,0.023971319471281,247.035574218356,0.497536523491237,0.364828877651532
7243,-0.24999993447859,-0.175709298558049,0.249979809693229,0.10858562376123,-0.24996793715196,0.249999907228503,0.249989481005101,-0.0463667860420358,0.513907755271021,0.516026929849916,0.04,0.0304867709883301,245.17715018523,0.503626809348999,0.357705673396118
7303,-0.249999908894488,-0.25,0.249972242460391,0.249929723867864,-0.249996671525942,0.249999870627542,0.249985326529434,-0.0713963152432883,0.515709612314611,0.516026929849916,0.04,0.0323230437106152,246.048320957487,0.509217125049621,0.355035746125781
7363,0.108319174104637,0.10818588788459,0.234463235828052,0.147153172526189,-0.24999905693235,0.192159688471865,0.249953973941552,0.157089579817595,0.499356447650489,0.516026929849916,0.04,0.0639387136891407,238.21583467091,0.55181690726729,0.317197897483731
7423,0.249980206918245,0.249794262164544,0.228331768089685,0.106520582460876,-0.25,0.169292639712644,0.249941578732389,0.24999965386014,0.512341506662037,0.516026929849916,0.04,0.0701236334457011,244.539845712272,0.61123557034462,0.293965043877283
7483,0.24631442619771,0.249940003350981,0.243860390142339,0.109022963773898,-0.24997494412869,-0.0341471619137173,0.24998344730751,0.249963337050802,0.520982094663224,0.516026929849916,0.04,0.0687519440142366,248.594497480848,0.596098289760489,0.306427904991246
7543,0.244865164052382,0.249997621959571,0.249999612814319,0.110012277316256,-0.249965038319102,-0.11457685092879,0.25,0.249948979242459,0.519172572307822,0.516026929849916,0.04,0.0717416897134413,247.666367217974,0.568242622781753,0.320249089758046
7603,-0.0830624137409519,0.249999326221879,0.06845888777252,-0.147802997618997,-0.249990093934175,0.136639718908282,0.0746675658267736,-0.00642676299028536,0.52961581952127,0.516026929849916,0.04,0.0403825313758195,252.612734763135,0.519607634243088,0.357218871008449
7663,-0.212708200310409,0.25,-0.00331302677888874,-0.249729966779446,-0.249999999642459,0.235957897681078,0.00535009185131195,-0.0146635953952542,0.52067270045749,0.516026929849916,0.04,0.0243815860839655,248.334462710826,0.461597959890132,0.395300886861254
7723,-0.237969800967418,0.249970474787547,0.178092283040241,-0.249923254840548,-0.249970387108222,-0.0199722421161351,0.180676120794378,-0.0430797093405314,0.512842826487655,0.516026929849916,0.04,0.0165863228278189,244.689347070561,0.467191618283934,0.384835117234674
7783,-0.247956945413211,0.249958802029135,0.249810661340827,-0.249999671050751,-0.249958679827244,-0.121153925291777,0.249991062469544,-0.0888877530102638,0.515081741209032,0.516026929849916,0.04,0.0144549363521464,245.739852036085,0.472876491136652,0.381840987880747
7843,-0.248981540414801,-0.108336576442397,-0.108379887648355,-0.249708097739969,-0.249547854474782,-0.213493612166004,-0.107666494757688,-0.152090200360094,0.484967140937459,0.516026929849916,0.04,4.83228414014092e-10,231.178578542103,0.531848237459017,0.319385018724838
7903,-0.249386612857291,-0.249988237698583,-0.249990104690589,-0.24959282457059,-0.24938543514939,-0.25,-0.236642719273745,-0.236642719273745,0.480368832492999,0.516026929849916,0.04,1.02208239181662e-10,229.533905647705,0.824519474773207,0.204550527993025
7963,-0.174570581140357,0.108336665240461,-0.24999719339605,0.00478425778182384,-0.249825873292327,-0.25,0.108597939220468,-0.24933613733251,0.567948118867176,0.516026929849916,0.04,5.45042904562073e-06,272.100288381904,0.742932345270869,0.269112835112616
8023,-0.144992149996453,0.249999998960549,-0.249999995907511,0.105351941502545,-0.25,-0.25,0.249999959380935,-0.249073679998852,0.526155925158646,0.516026929849916,0.04,0.0450455022688603,250.979649038758,0.628869006454472,0.293246604894716
8083,0.138085557501005,0.248919139778877,-0.249999998840461,0.209016383387256,-0.24991861083088,-0.249761255741878,-0.0473316446268332,-0.248947839676046,0.525193373699186,0.516026929849916,0.04,0.0572792871215418,250.574870850316,0.573593344298266,0.320987476222125
8143,0.25,0.248491823358215,-0.25,0.249999999946328,-0.249886433717506,-0.249666868477039,-0.164881348536881,-0.24889808885075,0.521328930584471,0.516026929849916,0.04,0.0622472543852567,248.6964546586,0.529623253353507,0.345030291968825
8203,-0.108329398640184,0.249572683284828,-0.24999975758293,0.0975199226293207,-0.249961526279215,-0.249905612735161,0.132450284553917,0.108645541492287,0.510357838086702,0.516026929849916,0.04,0.0535670030559393,243.761364831781,0.546971790351428,0.327457257805137
8263,-0.249994509730489,0.25,-0.249999661743623,0.0372371013644575,-0.24999121403617,-0.25,0.249999999961906,0.25,0.518937702079417,0.516026929849916,0.04,0.0470115198199343,247.581156987619,0.526802167903276,0.345322368434189
8323,-0.249261640090861,0.25,-0.249999904067103,0.189717080676927,-0.249997510643581,-0.176097007702932,-0.108281713187364,0.222960785166477,0.518168777993453,0.516026929849916,0.04,0.0350485576629803,247.219249128659,0.514858720650229,0.352816498967892
8383,-0.248971900931007,0.25,-0.24999999986941,0.249999863195811,-0.25,-0.146879545631999,-0.249927971874285,0.212270863022991,0.516680080531968,0.516026929849916,0.04,0.0303567929344651,246.49498327218,0.50691010865225,0.357299007009772
8443,-0.249708703378695,-0.108333333333333,-0.249992804778468,0.249821611324069,0.108333333333333,0.137492137673169,-0.248568143448518,-0.119023142833507,0.518239026964953,0.516026929849916,0.04,0.0247011327337815,247.351246469793,0.508049152277812,0.357736330987771
8503,-0.249999997369641,-0.25,-0.249989960207631,0.249751139653846,0.25,0.24991815200312,-0.248030536861586,-0.249999842823285,0.516753033740952,0.516026929849916,0.04,0.027172364220632,246.505509070345,0.484644300981363,0.373730202122824
8563,-0.249999999254732,0.108333331839491,-0.249997142154135,0.115691756830324,0.249999998156502,0.249976526529657,0.108891339442446,-0.249998513076958,0.501567939259359,0.516026929849916,0.04,0.0458242643055433,239.216090352345,0.526472805281122,0.333863638163639
8623,-0.25,0.249999997915569,-0.249999981528334,0.0626915357140475,0.249999997427677,0.249999604830847,0.249999988213807,-0.249997987363293,0.510154500304651,0.516026929849916,0.04,0.0479125537573783,243.471987831254,0.595045569217139,0.300644630739454
8683,-0.0586933973941645,0.249999969415398,0.108298577233683,-0.161404046285646,0.249946896410418,0.249885279551368,0.249997011015376,0.1083339035804,0.502231714063097,0.516026929849916,0.04,0.0766141801301229,239.569807486088,0.64601503136254,0.272485964426364
8743,0.0169394454965146,0.249999958147889,0.249951495814015,-0.249999974052967,0.249925902984989,0.249840081185062,0.249995833983438,0.25,0.514832964947598,0.516026929849916,0.04,0.084752559076962,245.728376149259,0.691776483809822,0.261002214654894
8803,-0.116304332870663,0.249991425873933,-0.108342931231372,-0.249999157272418,0.249973420063613,0.249613168215715,0.249995295988947,-0.108333330119125,0.534199780327601,0.516026929849916,0.04,0.0648702946776784,254.993993857396,0.629178591651623,0.297790398206303
8863,-0.168982105713501,0.249988052649346,-0.249994216342339,-0.249998834359177,0.249992205885395,0.249523458437135,0.24999508329345,-0.146653620949261,0.524009965207312,0.516026929849916,0.04,0.063830481569095,249.917813470911,0.541736827902579,0.338971767897417
8923,0.131286350405425,-0.108336714126802,0.0987761364880022,0.108325768567763,0.165279198277957,0.249837685629762,-0.0814550801025201,-0.0814550801025201,0.524702791492124,0.524378832400567,0.04,0.0628436972933731,250.399742503813,0.526529107412016,0.349434812535465
8983,0.249997135382674,-0.249999994015047,0.236662089932556,0.249988983678414,0.131788009223854,0.249961914984986,-0.0384777942411821,-0.0384777942411821,0.527872181954976,0.536032649913103,0.04,0.0572705164736676,251.952657038851,0.574597365144811,0.322188465787225
9043,0.249989397349918,0.108177396719525,-0.112112407851839,0.247505078362622,-0.141826730666793,0.249972244924665,-0.0182534769266981,-0.0182534769266981,0.546959644195407,0.547686467425639,0.04,0.0396352590918006,261.113434121493,0.60026614035811,0.319624488751833
9103,0.249986338127665,0.2497824116611,-0.249999999999157,0.246523069284285,-0.249999999925886,0.249976328854306,-0.0112378710003719,-0.0112378710003719,0.558635686986663,0.559340284938176,0.04,0.0384901944573462,266.603158691015,0.598062863298108,0.327546626701802
9163,0.249984197177515,0.249938183218099,0.108328542917204,-0.109316563266956,-0.249999904701876,0.249977707222444,0.176183474795967,-0.00839466489379668,0.565344601896539,0.570994102450712,0.04,0.0442603786349064,269.804865762891,0.620747636251528,0.3193665151769
9223,0.249983350755362,0.249999767322028,0.249993315698092,-0.249997348229074,-0.249999867055174,0.249978252158684,0.25,-0.00401773907603326,0.57965184277858,0.582647919963249,0.04,0.0442350484403367,276.665146846767,0.647797551645215,0.313812201743098
9283,0.249926151247422,0.249999343037918,-0.108335227218874,-0.249999248664904,0.108333371001034,0.249992620982534,0.249964625736197,-0.00189757273498554,0.590890587431995,0.594301737475785,0.04,0.0447301632240154,282.02014746348,0.667016534155887,0.310669209373982
9343,0.249903537488468,0.249999175297689,-0.25,-0.25,0.25,0.249998301680335,0.249950640562136,-0.00089636112435993,0.604842399611466,0.605955554988321,0.04,0.0447648480087384,288.668934451982,0.677877132926257,0.312898687522587
9403,0.249956395763139,0.249974519917725,-0.24995357329439,-0.249999990099068,-0.108330581748211,0.249999518809428,0.249878841973649,-0.001169921971572,0.622940143179052,0.617609372500858,0.04,0.0348906300083327,297.34276982227,0.664475215167373,0.328801108099929
9463,0.249977293220567,0.249964772441925,-0.249935218550312,-0.249999986184745,-0.249996160578899,0.25,0.249850456485178,-0.00974404347081955,0.631049005028056,0.629263190013394,0.04,0.0330301342650474,301.130800150085,0.639482953318392,0.346003811112725
9523,0.249991677277051,0.249986327222553,-0.249981645255922,0.108215863992358,-0.249998525778224,0.25,0.249526631131668,-0.00655392759743739,0.635180607541632,0.640917007525931,0.04,0.0440105701299729,303.087751774274,0.65601037532594,0.339478562390274
9583,0.249997363997057,0.249994848880011,-0.25,0.249836083829817,-0.249999460857028,0.25,0.2493986071547,0.0896914056015631,0.647410205650935,0.652570825038467,0.04,0.0449428673838549,309.013414002495,0.705480235147939,0.321845289685638
9643,0.249538347231551,0.249997392177417,-0.24999621659793,-0.09647727175122,0.108330415486978,0.24999741002724,0.249829558496902,0.154317978309586,0.658740030111057,0.664224642551003,0.04,0.0459373461936544,314.371259174773,0.734686524006341,0.314409338609945
9703,0.249356875487048,0.24999839766709,-0.24999472083432,-0.233391854190235,0.249995715436934,0.249996386084521,0.249999934608936,0.179868018682525,0.673557890448713,0.67587846006354,0.04,0.0465872465485107,321.465089133553,0.757622555910596,0.311770913923242
9763,0.249817778633334,0.249999546005675,0.108334829096943,-0.209025346451255,0.056567038319865,0.249950313374697,0.249951427746483,0.0156366700629361,0.68857127678945,0.687532277576076,0.04,0.0515011498053637,328.632301449963,0.759016019951091,0.318136854090352
9823,0.249999996156285,0.25,0.25,-0.199392075949798,-0.0199047642613018,0.24993209858244,0.249932250614816,-0.00113271656712508,0.696634467272973,0.699186095088612,0.04,0.0536769246200108,332.443838996884,0.767671743585982,0.318197973677165
9883,0.249999998910947,0.25,0.24962510256707,0.122672245147557,-0.184806330840979,0.249793663793908,-0.000534791117117274,0.165200599249979,0.706826997579412,0.710839912601149,0.04,0.0551359558455917,337.172713601364,0.7797508778722,0.317724880555153
9943,0.25,0.25,0.249476887302889,0.25,-0.249999973442246,0.249738933761233,-0.000252352420047259,0.25,0.717001672553566,0.722493730113685,0.04,0.0545091952709298,342.201583343892,0.822958948711139,0.305533277555626
10003,0.249509400972778,0.25,-0.108480073065109,0.25,-0.24790057827528,0.249548844847006,-0.000141672702649215,0.0771276212053548,0.740278414314783,0.734147547626221,0.04,0.0405557799392937,353.37256926674,0.817825047212026,0.317487845012255
10063,0.24931544321783,0.25,-0.249997941117572,0.25,-0.247070584837177,0.249473693415799,-0.00247834649327709,0.00878272726328573,0.74821088983207,0.745801365138758,0.04,0.0388560731780285,357.016562602206,0.78406975181237,0.334571035692294
10123,0.247711249584574,0.24999816733957,-0.249999416552352,0.244289883662086,0.000845325333211918,0.249515093355795,-0.00304103968504252,0.181654980963489,0.743372487719339,0.749103280100643,0.04,0.0494003487906805,354.6154397144,0.799391433557145,0.325951382104673
10183,0.247077033497008,0.2499974427994,-0.249999999863777,0.242032395807562,0.0988585921447612,0.249531460773932,-0.00143621479950019,0.249999825449616,0.74827467616003,0.749103280100643,0.04,0.0518285662382433,357.040912056135,0.82194989485763,0.319173859553658
10243,-0.109161484154477,0.249929570439632,-0.249776152729882,0.247742512145476,-0.145154506130184,0.249867247219281,0.109575168020264,-0.00148225133827818,0.761010380297062,0.749103280100643,0.04,0.0377571129410708,362.912018285427,0.769422249981588,0.346570255039402
10303,-0.249999967877157,0.249902737181119,-0.249687655025784,0.25,-0.241624800797022,0.25,0.25,-0.00750219443741193,0.752850117699534,0.749103280100643,0.04,0.0336418425116151,359.14530318437,0.733844782261298,0.359600806269775
10363,0.108333342434806,0.249961049429775,0.108421831076028,-0.10831324895694,0.1107033912519,0.25,0.249999675548202,-0.0148700302864751,0.738644029845617,0.749103280100643,0.04,0.0531757446770476,352.345626942764,0.758411932085263,0.3413645392535
10423,0.25,0.249984103109477,0.25,-0.249971975288753,0.249995932294497,0.25,0.249999547276561,-0.0075130286234372,0.744682169755892,0.749103280100643,0.04,0.0565377560391789,355.343128753325,0.805959277121628,0.323958589610067
10483,0.249999749996037,0.249995495881018,0.25,0.108341273668187,0.249998749360226,0.249999927392147,0.249963035098205,-0.00354862277583218,0.744027722847403,0.749103280100643,0.04,0.0668321134547974,354.946066003772,0.828428771220659,0.314819677651458
10543,0.249999651157261,0.25,0.25,0.25,0.249999863083886,0.249999898686717,0.249948600050948,-0.00167597893675366,0.745157839788833,0.749103280100643,0.04,0.0690578240642116,355.536063006808,0.859029454763226,0.304109704989204
10603,0.249982312905659,0.25,0.249964360931715,0.249941065365907,-0.108323822936839,0.249987453245849,0.249971095586714,0.108922774406369,0.748689531217428,0.749103280100643,0.04,0.0643851286353292,357.120801545156,0.863424859040444,0.303910199474162
10663,0.249975458248048,0.25,0.249950271067509,0.249917765626847,-0.249986675549684,0.249982532955273,0.249979989170622,0.25,0.749338743322969,0.749103280100643,0.04,0.0649244498392552,357.527957386677,0.870431059169364,0.301807692312898
10723,0.249993046503614,0.25,0.249985910135794,0.249967946757089,-0.133607151246866,0.249971125191279,0.249983315951362,0.25,0.748563053644716,0.749103280100643,0.04,0.0696804403170257,357.125580874076,0.869574143940933,0.301765105027811
10783,0.25,0.25,0.25,0.24998778580858,-0.0875966416387747,0.249966615145049,0.24998463119026,0.25,0.748835194576283,0.749103280100643,0.04,0.0710408889340569,357.27505128163,0.873471611227226,0.300544352784137
10843,0.249956614388262,0.249985267028379,0.201659953795851,0.249996539312431,0.154347618202347,0.249960152244618,0.249991909302591,0.249999596414739,0.746224244835019,0.749103280100643,0.04,0.0756626341958869,356.000711249651,0.88272148517899,0.296334246542464
10903,0.24993946193711,0.24997944236518,0.182548772738396,0.25,0.25,0.249957597144447,0.249994786695838,0.249999436857776,0.747338403531883,0.749103280100643,0.04,0.076093624355867,356.570385773383,0.898808492346366,0.291496121076238
10963,0.249980948852452,0.249993814736476,0.230888813177639,-0.108331593837011,-0.108332574271115,0.249987985857593,-9.62239789435838e-06,-9.62239789435838e-06,0.769697520657974,0.749103280100643,0.04,0.0535127256923758,367.161949147248,0.825625919245183,0.326760103167144
11023,0.249997350656191,0.249999496836757,0.249999991955945,-0.249997572795829,-0.249998940843417,0.25,-6.63518948009464e-06,-6.63518948009464e-06,0.756467773586682,0.749103280100643,0.04,0.0512049905173274,360.825505940485,0.749394535306275,0.353786603362901
11083,0.249957274138233,0.249999857437081,-0.108333045874629,-0.249999312292152,0.108333632887119,0.249999979197027,0.114263981076287,0.108332685562819,0.740880513090432,0.749103280100643,0.04,0.0542025853399332,353.178917648474,0.750840055280338,0.345622505810259
11143,0.249941429933458,0.25,-0.249999595714623,-0.25,0.249999999245703,0.249999970972595,0.249999865686144,0.249999096134166,0.746539819515032,0.749103280100643,0.04,0.0501089452704329,356.24529411201,0.801605134394554,0.32654521345338
11203,0.249983405147813,-0.108326085005162,-0.249995353015941,-0.249988453736004,0.249999853997711,0.249999991775569,0.249999926660402,0.0221746645470186,0.761494427545899,0.749103280100643,0.04,0.0362602390515862,363.396364172297,0.762837633328994,0.350028288120364
11263,0.25,-0.249989886053715,-0.24999367566995,-0.249983888933959,0.249999796574086,0.25,0.249999950766504,-0.00691682273039306,0.753286540838405,0.749103280100643,0.04,0.0341913309116156,359.34457616064,0.713447576600663,0.370086892074111
11323,0.24999682633561,-0.249997134329829,-0.249988589285081,-0.249995435196035,0.249994240613291,-0.108332965540419,-0.0247268808994655,-0.0247268808994655,0.761863689882869,0.749103280100643,0.04,0.0120005388796538,363.332157913027,0.659003302232277,0.405108097055591
11383,0.249995571631084,-0.249999999927362,-0.249986578388737,-0.249999999997321,0.249992044070652,-0.249999486800585,-0.0752933402505602,-0.0752933402505602,0.753606898558105,0.749103280100643,0.04,0.00211220579573116,359.517355381038,0.616276790836103,0.428645949597311
11443,0.249995079527653,0.108026148205705,-0.249990933249747,-0.249999999999241,0.249966561585695,-0.249999854593499,-0.148724601061914,0.108336634454045,0.735002378050559,0.749103280100643,0.04,0.0189927553487787,350.540477726072,0.643239001414353,0.40042435198673
11503,0.249994884975134,0.249571369560639,-0.249992654938984,-0.25,0.249956487114899,-0.25,-0.210010318530767,0.25,0.744240328224434,0.749103280100643,0.04,0.024682589227245,355.129382823529,0.707790812922369,0.368668779898795
