time,bias_percent_1,bias_percent_2,bias_percent_3,bias_percent_4,bias_percent_5,bias_percent_6,bias_percent_8,bias_percent_9,normalized_power,power_SP,SP,CV,total_power_MW,fuel_fraction,thermal_efficiency
30,0,0,0,0,0,0,0,0,0.999604741012712,1,0.04,0.0399944712256548,476.916267486395,0.999615517681238,0.350561180989667
90,0,0,0,0,0,0,0,0,0.99995496907149,1,0.04,0.0398971218041343,477.079278736681,1.00024277880563,0.350461088564933
150,0,0,0,0,0,0,0,0,0.999995236143051,1,0.04,0.0399365146733386,477.097819945776,1.00031402105829,0.350449748115131
210,0,0,0,0,0,0,0,0,1.0000008174706,1,0.04,0.0399693086714429,477.100409918248,1.00031624593784,0.35045087109987
270,0,0,0,0,0,0,0,0,1.00000257975555,1,0.04,0.0399892688646489,477.10124092292,1.00030379361816,0.350455844117265
330,0,0,0,0,0,0,0,0,1.00000354786312,1,0.04,0.0400007052470014,477.101698035229,1.00028419004245,0.350463048132562
390,0,0,0,0,0,0,0,0,1.00000395897985,1,0.04,0.0400067926246072,477.101890129506,1.00026102409977,0.350471305930133
450,0,0,0,0,0,0,0,0,1.00000392591053,1,0.04,0.040009496617716,477.101871391795,1.00023721396746,0.350479634954529
510,0,0,0,0,0,0,0,0,1.0000035926725,1,0.04,0.040010092787892,477.10171058024,1.00021486059724,0.350487349537609
570,0,0,0,0,0,0,0,0,1.00000309341401,1,0.04,0.0400094462968593,477.10147158736,1.00019522264698,0.350494055475479
630,0,0,0,0,0,0,0,0,1.00000253209549,1,0.04,0.0400081494991513,477.101203537784,1.00017886889692,0.350499589421544
690,0,0,0,0,0,0,0,0,1.00000197941233,1,0.04,0.0400065979303389,477.100940155255,1.00016587679275,0.350503948898552
750,-0.124999817502975,-0.125,0.124999932575201,0.124998795646426,-0.124999682186194,0.125,-0.124999996657631,0.124990219665074,0.999650657626416,1,0.04,0.0397460404060577,476.937438546935,1.00235520127187,0.349618530383431
810,-0.249999635005949,-0.25,0.249999865150401,0.249997591292851,-0.249999364372388,0.25,-0.249999993315262,0.249980439330148,1.00057795333145,1,0.04,0.0395461274501016,477.361820052116,0.997928848038519,0.351481749645409
870,-0.249998414506636,-2.73352414992587e-05,0.249999142287589,0.249998745279435,-0.249999682186194,0.249999999982637,-0.249999141127606,0.214969217393759,0.995965120459384,1,0.04,0.0443612203303358,475.123329718997,1.0066890785488,0.346789288848191
930,-0.249997194007323,0.249945329517001,0.249998419424777,0.249999899266018,-0.25,0.249999999965275,-0.249998288939949,0.17995799545737,0.996660422520264,1,0.04,0.048148112891094,475.540338639874,1.03561592776529,0.337398632271015
990,-2.51331313055516e-05,-2.69281378010646e-05,-7.90287611380336e-07,0.24999992439788,-0.25,-1.73627086041961e-11,-0.249998977501676,-0.0350206286380212,1.01495684175575,1,0.04,0.0326825070711296,484.428023094819,1.00439577726425,0.354388039628012
1050,0.249946927744712,-0.249999185792603,-0.25,0.249999949529742,-0.25,-0.25,-0.249999666063402,-0.249999252733413,1.01010538471676,1,0.04,0.0226064837228896,481.772509911878,0.898724016133565,0.393885818217787
1110,-2.65295316221454e-05,-0.242625711071242,-0.249997340264464,2.31267515334821e-06,-1.6601207853455e-06,-0.249999995705877,-0.249999833031701,-0.249999626366706,1.00655340570588,1,0.04,0.0125802993951812,480.243482011397,0.870675735678233,0.405284238118441
1170,-0.249999986807956,-0.235252236349881,-0.249994680528928,-0.249995324179435,0.249996679758429,-0.249999991411755,-0.25,-0.25,1.00612771590205,1,0.04,0.00813689341627815,479.78414495206,0.807853124601245,0.43638333729525
1230,-0.249999993403978,-0.242625840773199,-0.249996295477004,2.33791028222186e-06,-1.65953372277272e-06,-0.249999995705877,-0.0560579471786604,-0.25,0.994361307346401,1,0.04,0.0107782805504615,474.348812715052,0.813376037175696,0.428510157147469
1290,-0.25,-0.249999445196516,-0.24999791042508,0.25,-0.249999998825875,-0.25,0.137884105642679,-0.25,0.994037217344978,1,0.04,0.0131089862252901,474.258321711676,0.857792878221894,0.40624422489822
1350,-0.122025432842147,-0.00122763133037961,-2.40434578245186e-06,0.249999904144569,5.87062572776631e-10,-0.00107563804537176,-0.0560579302767837,-6.20230916105129e-05,0.954449232390687,1,0.04,0.0349311288093205,455.169521210141,0.99301969746463,0.336798374248496
1410,0.00594913431570603,0.247544182535757,0.249993101733515,0.249999808289139,0.25,0.247848723909256,-0.249999966196247,0.249875953816779,0.973505643540929,0.994217968080547,0.04,0.0518982627060481,464.693461362807,1.22087740847686,0.279672123810111
1470,-0.12193010216308,-0.00122550079509347,0.249995658565093,3.19399416821398e-06,0.249988394903505,0.189204628209423,-2.65068585940753e-05,0.249937976908389,0.987754046238232,0.98265390424164,0.04,0.0552547233784729,471.338818906183,1.23603022932323,0.28019397547133
1530,-0.249809338641867,-0.249995184125944,0.249998215396671,-0.249993420300803,0.249976789807009,0.13056053250959,0.249946952479059,0.25,0.98294887457695,0.971089840402734,0.04,0.0601631138247565,468.824361297783,1.1561436957529,0.297956614853509
1590,-0.153506671590829,-0.108039793734704,-8.92301664634942e-07,-0.249996710150401,0.00101311163922446,-0.0595193746995908,0.249973476239529,0,0.983273051781612,0.959525776563827,0.04,0.0547574182709864,469.189905650665,1.06003549156659,0.325224256785673
1650,-0.0572040045397916,0.0339155966565372,-0.25,-0.25,-0.24795056652856,-0.249599281908771,0.25,-0.25,0.965821037492459,0.947961712724921,0.04,0.050734735169516,460.55821625778,0.90578281111559,0.373607112801025
1710,-0.0252243387659119,0.141931602498659,0,-6.19563317161464e-06,0.00102471673572029,0.000194823460411499,0.25,-0.248879926360907,0.926441665115168,0.936397648886015,0.04,0.0727181933610893,441.847407990498,0.888193581846432,0.365526911842798
1770,0.00675532700796782,0.249947608340781,0.25,0.249987608733657,0.25,0.249988928829594,0.25,-0.247759852721813,0.91564993085467,0.924833585047108,0.04,0.0815325895655027,436.89914861114,0.976200587683806,0.32884921531859
1830,0.128352100518617,0.249960428827507,0.249560908638261,0.249993590247147,0.249988527831882,0.249815681632405,0.25,0.00112007363909345,0.905157823815058,0.913269521208202,0.04,0.0828443483633972,431.700517955113,1.00811281152509,0.314650272375766
1890,0.249948874029265,0.249973249314232,0.249121817276522,0.249999571760638,0.249977055663764,0.249642434435216,0.25,0.25,0.899041533862805,0.901705457369296,0.04,0.0836955062791694,428.936213078722,1.05015316375641,0.300119866385243
1950,0.0982239070264169,0.057755429149915,-0.000439078729398261,-2.01407000645304e-07,4.42724640449796e-05,0.249815588161324,0.138377120241639,0.249999420584068,0.910328613714503,0.890141393530389,0.04,0.0593853884038756,434.528020880683,0.998034822831224,0.319909228965143
2010,-0.0535010599764317,-0.134462391014402,-0.249999974735318,-0.249999974574639,-0.249888510735674,0.249988741887432,0.0267542404832783,0.249998841168135,0.900047290373331,0.878577329691483,0.04,0.0399049519260413,429.111143907311,0.818365338380729,0.385280689800825
2070,-0.151711995031804,0.0577424240662717,1.11738346504353e-08,-0.249992407198786,-0.249944228917396,0.213616009552717,0.138377118358665,0.249999411651191,0.866750251033054,0.867013265852576,0.04,0.0481751293745944,413.294660495298,0.770330563325024,0.394218809147524
2130,-0.249922930087176,0.249947239146946,0.249999997082988,-0.249984839822932,-0.249999947099118,0.177243277218002,0.249999996234051,0.249999982134247,0.85503983587428,0.85544920201367,0.04,0.0497280301163886,407.906071809364,0.790184346874962,0.379303127780718
2190,-0.249948519718347,0.0444646873509098,0.248849646167334,7.58008853370029e-06,-0.249999639238113,0.213608979548221,0.24999997446004,0.24984415851871,0.844863604966526,0.843885138174763,0.04,0.0473983632070569,403.002378911736,0.781844588430595,0.378740590133749
2250,-0.249974109349519,-0.161017864445126,0.247699295251681,0.25,-0.249999331377108,0.24997468187844,0.249999952686029,0.249688334903173,0.834241767475294,0.832321074335857,0.04,0.046770896869171,397.917884559697,0.770670984918084,0.379384101097681
2310,-0.24998674006347,0.044491067770652,-0.00115035237415952,3.18644689741632e-07,-4.54657119136073e-05,0.00190895359376464,0.249995693687702,-0.000155832079336086,0.834185052287503,0.820757010496951,0.04,0.0298707001802594,398.027460881,0.73048663235887,0.400364387105626
2370,-0.249999370777421,0.24999999998643,-0.25,-0.24999936271062,0.249908399953281,-0.246156774690911,0.249991434689375,-0.0683001874457156,0.81542976453947,0.809192946658044,0.04,0.0215788937335018,388.86792199388,0.664836988478646,0.429775468114669
2430,-0.0592408056279349,8.19734843798869e-06,-0.25,-0.249975558436831,-4.58000233596749e-05,-0.247012267941782,0.249995715360931,-0.101113670092292,0.809997416059116,0.797628882819138,0.04,0.00726958732264549,386.472462204469,0.617604136567042,0.459793718869138
2490,0.131517759521551,-0.249983605289554,-0.25,-0.249951754163042,-0.25,-0.247867761192653,0.249999996032486,-0.164857531646167,0.786373001936531,0.786064818980231,0.04,3.02386934382062e-06,374.939504083443,0.565697442839544,0.487003027814139
2550,0.190498157747975,8.19735522316023e-06,0,-0.247214396982022,-0.000685355883074408,0.0010658687889528,0.249999910342181,0.0221916248550549,0.737114834454533,0.774500755141325,0.04,0.0326837444894533,352.481867642633,0.651196918883332,0.397721547170829
2610,0.249478555974399,0.25,0.25,-0.244477039801003,0.248629288233851,0.249999498770558,0.249999824651876,0.24999929706801,0.752924360622847,0.780109450796189,0.04,0.0549092001998501,359.608772132772,0.871865146324697,0.303064897280828
2670,0.249708510513604,0.164724504128161,3.28020960330377e-06,-0.247192917347899,0.141010132820827,0.249976291405734,0.249999912325938,0.0148455001722073,0.80429599371709,0.802890905944824,0.04,0.0378549533975452,384.154978101696,0.937371067638288,0.301126930315261
2730,0.249938465052808,0.0794490082563224,-0.249993439580793,-0.249908794894795,0.0333909774078026,0.249953084040911,0.25,-0.220308296723596,0.821498625913661,0.814281633519142,0.04,0.0356593620574177,391.860284510223,0.875622228746893,0.32882827000256
2790,0.249888586966538,-0.0189152617082669,-0.249978446179989,-0.187573078832423,-0.108304511296099,0.125155280111481,0,-0.23250256210963,0.830392756446307,0.814281633519142,0.04,0.0276476397786022,396.319028350053,0.820787706466592,0.354787865564854
2850,0.249838708880269,-0.117279531672856,-0.249963452779185,-0.125237362770052,-0.25,0.000357476182052437,-0.25,-0.244696827495664,0.824453111758765,0.814281633519142,0.04,0.0187612214123899,393.19932154863,0.718548021440021,0.402079228756533
2910,0.249664036340729,0.0663602340492297,1.82736104072774e-05,0.0617678319471568,-0.25,-0.124351737930169,-0.0676932044228138,0.00264129756378782,0.794313457670385,0.814281633519142,0.04,0.0439911513343712,378.714320768243,0.750054860618265,0.370999542802309
2970,0.24948936380119,0.249999999771316,0.25,0.248773026664365,-0.25,-0.249060952042391,0.114613591154372,0.24997942262324,0.801174177340683,0.814281633519142,0.04,0.0556698195700981,382.426452345553,0.881399263699785,0.318808518832621
3030,0.237853440062403,0.249999999885658,0.246435402811213,0.249386513332183,-0.012303362169041,0.000469426459263786,0.182284509291419,0.246410668736392,0.80405294741446,0.814281633519142,0.04,0.0703456492021695,383.537968843077,0.925610322800012,0.304463230288453
3090,0.226217516323615,0.25,0.242870805622425,0.25,0.225393275661918,0.249999804960919,0.249955427428466,0.242841914849543,0.807706382311625,0.814281633519142,0.04,0.077456516795595,385.452830511684,0.989967148360107,0.286091617087838
3150,0.238104009833707,0.0317952047600381,-0.00333126296568526,0.214931300876113,0.015165959792608,0.249982198769398,0.249945475921366,-0.00357897438406673,0.833694815619334,0.821402990007748,0.04,0.0560420608468656,398.100776150472,0.971832247136582,0.300992999542894
3210,0.249990503343799,-0.186409590479924,-0.249533331553796,0.179862601752226,-0.195061356076702,0.249964592577877,0.249935524414265,-0.160848514896221,0.844824465137675,0.835645702984962,0.04,0.0407001778899893,403.022171947901,0.871046289200978,0.339971397530529
3270,-3.8789551881564e-06,0.0317536438667298,0.000233324515876348,0.21491318107817,-0.22243629575665,0.195843286594896,0.249887002230745,6.8191161744835e-08,0.841450112903315,0.849888415962175,0.04,0.0441511531301007,401.394414486355,0.877956170717614,0.335933384560686
3330,-0.249998261254175,0.249916878213383,0.249999980585549,0.249963760404114,-0.249811235436598,0.141721980611915,0.249838480047224,0.25,0.856004005580565,0.864131128939388,0.04,0.0431064352880882,408.591443113795,0.952787853900109,0.315099512570202
3390,-0.249999130627088,0.249958439106692,0.249996073511178,4.25554119183289e-05,9.43737573892349e-05,-0.0538778502594951,0.249918066929494,0.223696675720532,0.878355346766462,0.878373841916602,0.04,0.0369165482345566,419.234047093667,0.97144361759118,0.317098087420498
3450,-0.25,0.25,0.249992166436808,-0.249878649580278,0.249999982951377,-0.249477681130905,0.249997653811764,0.197393351441064,0.893397946477014,0.892616554893815,0.04,0.0342980610503827,426.326862955867,0.961253736062581,0.32588122038562
3510,-0.25,0,-3.91358266460884e-06,-0.249838711614517,0.000511647805058146,-0.249738840541862,0.0796415891194922,-0.0263027420146004,0.926292515794146,0.891930393704053,0.04,0.0100602052328362,442.248074105999,0.878433652681838,0.36992327849748
3570,-0.25,-0.25,-0.249999993602137,-0.249798773648757,-0.24897668734126,-0.249999999952818,-0.0907144755727799,-0.170991692940834,0.884624851021999,0.876315358347317,0.04,6.44950419226848e-08,421.786371231027,0.743819445933027,0.416657967405868
3630,-1.77851234184345e-10,-0.25,-0.249999996801068,-0.249898319741289,-0.249475497829515,-0.248760870664712,-0.17035723778639,-0.249930363684611,0.856916965202291,0.86070032299058,0.04,2.47758867153111e-08,408.69059616682,0.748347403977309,0.401278660133515
3690,0.249999999644298,-0.25,-0.25,-0.24999786583382,-0.249974308317769,-0.247521741376605,-0.25,-0.249985077157503,0.856138103272016,0.845085287633843,0.04,6.49657331776186e-06,408.455012732323,0.718284209936684,0.417832855701057
3750,0.249999999822149,-0.249999903095044,-8.18830169578177e-07,1.06708308987891e-06,1.2845841115336e-05,-0.0318208696043406,-0.25,7.4614212487063e-06,0.805343080988914,0.829470252277106,0.04,0.0391582565933951,383.624907555779,0.722263796085535,0.390270412047778
3810,0.25,-0.249999806190089,0.249998362339661,0.25,0.25,0.183880002167924,-0.25,0.25,0.8005345734658,0.81385521692037,0.04,0.0593874958691662,382.034278528312,0.870303207865192,0.322542111191373
3870,0.249997823162563,-0.249997374934941,0.165180090522089,0.25,0.249999987998782,-0.0330599450469615,-0.249999998208148,0.25,0.80404977420735,0.798240181563633,0.04,0.0591252982396784,383.599829344686,0.870954620534593,0.323621639755465
3930,0.249995646325125,-0.249994943679793,0.0803618187045163,0.25,0.249999975997564,-0.249999892261847,-0.249999996416295,0.25,0.791588553355138,0.782625146206896,0.04,0.0629402573981229,377.509325607004,0.810185069991679,0.342371909454952
3990,-2.17683743733232e-06,-0.249997447483777,-0.0848190906477419,1.3475857940648e-10,6.86371432232136e-06,-0.249999856505295,-0.249999998208148,0.230469570877346,0.785070911849259,0.767010110850159,0.04,0.0383451707266588,374.667250868261,0.7425905235582,0.370724260220642
4050,-0.25,-0.249999951287762,-0.25,-0.249999999730483,-0.24998624856892,-0.249999820748743,-0.25,0.210939141754692,0.77356412860898,0.751395075493423,0.04,0.0176417160947769,369.549824207634,0.54546794466787,0.497804069576282
4110,0,-0.249848384740465,-0.249999999995392,-0.0225511615474376,-0.24999312428446,-0.249999887499994,0,-0.0195297685722164,0.71994255915091,0.735780040136686,0.04,0.0219427291678287,343.620175092382,0.519703007184057,0.485823033322702
4170,0.25,-0.249696818193167,-0.249999999990784,0.204897676635607,-0.25,-0.249999954251244,0.25,-0.249998678899124,0.715043377534864,0.720165004779949,0.04,0.0266247536821414,340.906964246587,0.589347436180501,0.425029575256863
4230,0.139527371003242,-0.0067704065751318,4.60806859337026e-12,0.227438836690066,-0.18524050070723,2.28743778052376e-08,0.2499999999154,-0.24998967186253,0.683518606269202,0.704549969423212,0.04,0.0499416086393496,325.906828232035,0.651010608834832,0.367840945373592
4290,0.0290547420064834,0.236156005042904,0.25,0.249979996744524,-0.120481001414461,0.25,0.249999999830799,-0.249980664825936,0.681749377830686,0.688934934066475,0.04,0.0706714141139849,325.284624965615,0.738508585104883,0.3236403515094
4350,0.139527371003242,-0.00692199744353422,0,0.249989998372262,0.0647593662430218,0,3.2675762895451e-09,-0.249990255635684,0.687981359189439,0.673319898709739,0.04,0.0559080662871467,328.306329301378,0.707400630964076,0.341011078982304
4410,0.25,-0.249999999929972,-0.25,0.25,0.249999733900504,-0.25,-0.249999993295647,-0.249999846445431,0.672087582066738,0.657704863353002,0.04,0.0473322824486858,320.389453396479,0.58834729791091,0.400128166981544
4470,0.25,-0.249999999964986,-0.25,0.25,0.0519153592635082,-0.109093007582414,-0.0904079063266761,-0.0928419008398974,0.63772285460018,0.642089827996265,0.04,0.0516979231507758,304.026914229791,0.567224992625188,0.39383231629569
4530,0.25,-0.25,-0.25,0.25,-0.146169015373488,0.0318139848351716,0.0691841806422943,0.0643160447656364,0.627151629716087,0.626474792639528,0.04,0.0479373535074112,299.161499326987,0.588014603545596,0.373828377112359
4590,0.00072984086760016,-1.36428348014306e-08,-0.000561136317486216,0.249020967824243,-0.197899037302812,0.140906903359278,0.15959208511889,0.0843341938223572,0.607350118072006,0.610859757282792,0.04,0.0684936682149653,289.562890772585,0.583830950817392,0.364426932338639
4650,-0.248540318264799,0.24999997271433,0.248877727365028,0.248041935648485,-0.249629059232136,0.249999821883384,0.249999989595485,0.104352342879078,0.595340771582951,0.595244721926055,0.04,0.0785545598691803,283.983659524466,0.606680794542915,0.343944034111209
4710,-0.2492701591324,0.249999986357165,0.248714253110447,-0.000979032175757538,0.000185409867568865,0.249999910941628,0.249999994797016,-0.0728232404407944,0.587805209425067,0.579629686569318,0.04,0.0737050054343937,280.377805902537,0.576521118271254,0.357341197761929
4770,-0.25,0.25,0.248550778855867,-0.25,0.249999878967274,0.249999999999871,0.249999999998547,-0.0717261580725574,0.567702937057774,0.564014651212581,0.04,0.074499669238805,270.705759134103,0.541480093706343,0.367341230263753
4830,0,0.2466557520666,0.249275389427934,-0.25,0.000551161770019689,0.24999095126605,0.249999040245136,-0.0338882728046729,0.560318598481701,0.5635364587127,0.04,0.0634396819403832,267.395709074021,0.540642011610207,0.363412046837024
4890,0.25,0.2433115041332,0.25,-0.25,-0.248897555427235,0.249981902532229,0.249998080491725,-0.0160107733614213,0.57155728946945,0.578195109069674,0.04,0.0517918973935071,272.796022490305,0.574308419147451,0.349017760210777
4950,1.03099523585115e-10,0.163643782208519,0.249999804828573,-0.0980019559325833,-0.01311212186876,0.249990327392855,0.249999032733469,-0.00756373292518178,0.582435532846273,0.592853759426649,0.04,0.0472376784375365,277.974109855374,0.624946193381546,0.326825848526493
5010,-0.249999999793801,0.0839760602838376,0.249999609657147,0.0539960881348335,0.222673311689715,0.249998752253481,0.249999984975214,-0.00408612401300161,0.601676765050888,0.607512409783623,0.04,0.0393253740996434,287.186727665448,0.673736942958461,0.313204995129947
5070,-1.86492681937125e-05,0.166987927190875,0.249999804788694,-0.0980013153013188,0.15254678283934,0.249994312459101,0.249999992487607,8.83831363339138e-05,0.615225709737996,0.622171060140597,0.04,0.0430191098337138,293.630984524536,0.70797128176661,0.304748036611158
5130,0.249962701257414,0.249999794097912,0.249999999920241,-0.249998718737471,0.0824202539889651,0.249989872664721,0.25,0.249821630238601,0.628617992911551,0.636829710497572,0.04,0.053800279473546,300.116955876345,0.776551586951672,0.283971592803372
5190,0.249973658246937,0.249999895041382,0.227381102466831,5.26906232380497e-07,0.166195146736557,-5.06333142607218e-06,0.249999996412953,-8.91608209902528e-05,0.656680701916187,0.651488360854546,0.04,0.0525085378341897,313.542965753784,0.781635237500655,0.294745788469749
5250,0.249984615236461,0.249999995984851,0.204762205013422,0.249999772549936,0.249970039484149,-0.249999999327573,0.249999992825906,-0.000390223862097394,0.664479773589963,0.66614701121152,0.04,0.0596097507947134,317.095135223724,0.775059297113844,0.300614085134919
5310,-7.69238176951603e-06,1.54126102188457e-06,0.0373049639467994,6.13392171885607e-07,-1.07400186925588e-05,-0.249999999655595,-3.5870470762589e-09,-0.00247495472757196,0.696568282237774,0.680805661568494,0.04,0.0115320393426886,332.84556316892,0.755055929850457,0.323905502460476
5370,-0.25,-0.249996913462807,-0.130152277119823,-0.249998545765592,-0.249991519521534,-0.249999999983616,-0.0464217717089387,-0.0464217717089387,0.674975897768129,0.695464311925469,0.04,3.1032705425143e-10,322.111964811353,0.804078122370602,0.294349489794733
5430,-0.249937471647345,-0.249998456731404,-0.190073192557442,-0.249999272882796,-0.249995759760767,-0.249994726700962,-0.122148856699207,-0.122148856699207,0.692762907564778,0.710122962282443,0.04,2.63439201210156e-10,330.695287935995,0.92072121281448,0.263909202230631
5490,-0.24987494329469,-0.25,-0.249994107995061,-0.25,-0.25,-0.249989453418308,-0.212796150286318,-0.212796150286318,0.719051693824434,0.724781612639417,0.04,2.93639620489125e-10,343.29067758894,0.983861363035319,0.256379195439553
5550,-0.0448122759955543,-0.249999999131502,-0.244808200086085,-0.0408935995856986,-6.9455607058444e-07,1.48835872164454e-06,-0.191462504375796,-0.16021296239213,0.80058135880909,0.739440262996391,0.04,0.00755713702661924,381.800022567125,0.85140446581716,0.329499456204413
5610,0.160250391303582,-0.249999998263003,-0.239622292177109,0.168212800828603,0.249998610887859,0.249992430135751,-0.132927086130117,-0.0704260178340367,0.745399388667779,0.746769588174878,0.04,0.0428197135459403,355.739451576288,0.897309050996397,0.29130279998387
5670,0.111525516636616,-0.248459347722642,-0.244811144031658,0.209106370113862,0.249999305397944,0.078807255603664,-0.129169967529206,-0.160212995891152,0.756960546601947,0.746769588174878,0.04,0.041514773470053,361.225630859682,0.862612336758852,0.307692966942572
5730,0.0628006419696504,-0.246918697182281,-0.249999995886206,0.24999993939912,0.249999999908028,-0.0923779189284231,-0.125412848928296,-0.249999973948267,0.755290094318592,0.746769588174878,0.04,0.0412952173139817,360.281607036625,0.794206177156549,0.333321637682181
5790,-0.0916115712176277,0.00150939781465308,-0.249999995887868,0.249413724501297,0.249996910459498,-0.17108899263322,0.0118516427731769,-0.234507013396215,0.746470982363712,0.746769588174878,0.04,0.0454156192050997,356.079027153369,0.774759241559051,0.337702523301834
5850,-0.246023784404906,0.249937492811587,-0.249999995889529,0.248827509603473,0.249993821010967,-0.249800066338017,0.149116134474649,-0.219014052844163,0.746945671160358,0.746769588174878,0.04,0.0455248471570147,356.396859569642,0.783765431234994,0.334119975017093
5910,0.00198321814211647,0.249911196182596,-7.54562084591726e-06,4.88398816522704e-05,-3.00385493687827e-06,-0.247560801854786,0.199556731431673,-0.233279368824903,0.748191148858939,0.746769588174878,0.04,0.0483751692189456,356.937306616809,0.773466199239093,0.339082423794766
5970,0.249990220689139,0.249884899553606,0.249984904647837,-0.248729829840168,-0.249999828720841,-0.245321537371556,0.249997328388696,-0.247544684805642,0.749203299641652,0.746769588174878,0.04,0.0511266631747243,357.450163194325,0.761075225844909,0.345098117897601
6030,1.88076399349484e-05,0.249294430770567,0.249849153228635,0.000634868440430296,-0.0081508702329437,0.00230853299375167,0.0148832805348039,0.00120099160347877,0.738148009666021,0.746769588174878,0.04,0.0656672630102842,352.042796206709,0.772919449360204,0.334669320799846
6090,-0.249952605409269,0.248703961987527,0.249713401809433,0.249999566721029,0.233698088254954,0.249938603359059,-0.220230767319088,0.2499466680126,0.741422967017209,0.746769588174878,0.04,0.065116319590013,353.814294841067,0.832286214485509,0.312361392569499
6150,-0.126201062194149,0.0956642857937943,-0.000126210187013498,0.00906418088944088,-0.00814549722653828,0.0304395866132761,0.0148838565360385,0.249973331640355,0.755730963304909,0.746769588174878,0.04,0.0430933516720794,360.718210768078,0.81883690999566,0.32368705675528
6210,-0.00244951897903036,-0.0573753903999387,-0.24996582218346,-0.231871204942147,-0.24998908270803,-0.189059430132507,0.249998480391165,0.249999995268111,0.759046396205452,0.746769588174878,0.04,0.0311532633989266,361.837540720101,0.706185864309265,0.376486388412678
6270,0.123759241797787,-0.153686459912412,1.70889082698977e-05,-0.240932505091901,-0.249994282478011,0.0304702849337464,0.249746750170177,8.02826030303549e-06,0.743325171996799,0.746769588174878,0.04,0.0340955266472009,354.517488717122,0.690481378813521,0.37725966059165
6330,0.249968002574604,-0.249997529424886,0.25,-0.249993805241655,-0.249999482247991,0.25,0.24949501994919,-0.245317818394976,0.744276691125568,0.746769588174878,0.04,0.0379346341058762,355.126385830906,0.713422990946547,0.365755206403792
6390,0.12137411302872,-0.249992173026231,0.164523171549113,-8.95062031622729e-06,-0.249999741123996,0.000379376045385925,0.249744797371438,-0.249991969373387,0.749454127605926,0.746769588174878,0.04,0.0284774312486378,357.630179096623,0.712880479309166,0.368614244493938
6450,-0.00721977651716293,-0.249986816627575,0.0790463430982255,0.249975904001023,-0.25,-0.249241247909228,0.249994574793685,-0.249999999999269,0.749223046332382,0.746769588174878,0.04,0.0237120725958253,357.405611107864,0.684332950350272,0.383750179062465
6510,-0.128609535372412,-0.249993408313788,0.162371184797001,0.249987952000511,-0.249897972018147,-0.249620609506208,0.249997098031076,-1.28810370370047e-10,0.740294398457882,0.746769588174878,0.04,0.0308327320647021,353.102235136429,0.701415435953026,0.3698961608734
6570,-0.249999294227662,-0.25,0.245696026495777,0.25,-0.249795944036294,-0.249999971103188,0.249999621268467,0.249999999741648,0.743809014249418,0.746769588174878,0.04,0.0344848635534685,354.925503185958,0.734397384340869,0.355108249591439
6630,3.4140180025588e-07,-0.249971496546211,-0.00211451899018891,0.249998475387652,-0.249897531641448,-0.249999985551594,0.249999758761855,0.249999998202595,0.744711779202743,0.746769588174878,0.04,0.0347804538962566,355.313429158767,0.744337026550586,0.350749188676589
6690,0.249999977031262,-0.249942993092421,-0.249925064476155,0.249996950775304,-0.249999119246602,-0.25,0.249999896255244,0.249999996663542,0.744370852553945,0.746769588174878,0.04,0.0363007328802638,355.156010915442,0.76236574556711,0.342302815428192
6750,0.249999988515631,-7.70814407536591e-05,-0.249962532238077,0.249998475387652,4.40376699089029e-07,-3.41700102808318e-08,0.249999926879029,0.123228131100573,0.733112640108653,0.746769588174878,0.04,0.0540969789376854,349.777112260342,0.803835980112791,0.319726491994151
6810,0.25,0.249788830210914,-0.25,0.25,0.25,0.24999993165998,0.249999957502813,-0.00354373446239697,0.740775216735748,0.746769588174878,0.04,0.0695126069768901,353.518840406564,0.865685777801058,0.300059207335494
6870,0.247958495002797,-0.000104358236128405,-0.15152109883091,0.249955538526628,0.25,0.196871344457401,0.249991606038537,0.123227962901427,0.74589977208589,0.746769588174878,0.04,0.0674333350259403,355.883015040418,0.875418488536507,0.298707565979873
6930,0.245916990005594,-0.249997546683171,-0.0530421976618206,0.249911077053257,0.25,0.143742757254822,0.249983254574262,0.249999660265251,0.749366785044644,0.746769588174878,0.04,0.0638696429253904,357.541965293321,0.868442001342557,0.302510796974431
6990,0.246101647790716,-0.00364181238757612,0.098475649855255,-4.43083831615922e-05,0.25,-0.0531254066517163,0.249937223579462,0.249999782803046,0.752127592661491,0.746769588174878,0.04,0.0678609381939755,358.868265408837,0.843174762443222,0.312731863605068
7050,0.246286305575839,0.242713921908018,0.249993497372331,-0.24999969381958,0.25,-0.249993570558255,0.249891192584662,0.24999990534084,0.752906344188716,0.746769588174878,0.04,0.06849185071144,359.177399681698,0.800320543356251,0.329761320372518
7110,0.24814315278792,0.246221099725686,0.24999632929051,-5.33699754989812e-05,0.249999607198034,-0.249996763695412,0.248380788672973,0.249999781847527,0.747098045275339,0.746769588174878,0.04,0.0719079810049963,356.372332017706,0.782438296015266,0.334663660243138
7170,0.25,0.249728277543353,0.24999916120869,0.249892953868582,0.249999214396068,-0.249999956832569,0.246870384761284,0.249999658354213,0.74329544031735,0.746769588174878,0.04,0.072472624209306,354.635717870462,0.802363516303437,0.324762576074833
7230,0.2499559883473,0.249108046865272,0.249953315858149,0.217646466683575,0.249951790540487,-0.249999978416284,0.248435192380642,0.249721025921838,0.744707189060775,0.746769588174878,0.04,0.0677741138871194,355.312831246991,0.818079105663919,0.319131936051284
7290,0.2499119766946,0.24848781618719,0.249907470507608,0.185399979498567,0.249904366684907,-0.25,0.25,0.249442393489463,0.74570749693018,0.746769588174878,0.04,0.065871472568137,355.779806143222,0.825634431459462,0.316627166446712
7350,0.2499559883473,0.00695583791925037,-4.5693634504687e-05,-0.0322889994853336,0.249554297883528,-0.25,0.25,0.249716969029191,0.752365922914909,0.746769588174878,0.04,0.0454756999383314,359.096714387062,0.817502537935785,0.322757987009643
7410,0.25,-0.23457614034869,-0.249998857776617,-0.249977978469235,0.24920422908215,-0.25,0.25,0.249991544568918,0.756872619933814,0.746769588174878,0.04,0.028082608237731,360.970020003865,0.737837273769476,0.359472124883525
7470,0.249723570991526,-0.242270081066729,3.44787836297655e-07,-0.193610931468231,-0.000397885458925089,-1.8773143788394e-05,0.165061441326463,0.188166252761106,0.749371881120424,0.746769588174878,0.04,0.034682582536347,357.49428374469,0.709897203339312,0.370022653254722
7530,0.249447141983052,-0.249964021784768,0.24999954735229,-0.137243884467227,-0.25,0.249962453712423,0.080122882652926,0.126340960953295,0.746397486675076,0.746769588174878,0.04,0.0389380778819472,356.10062423207,0.707195887560933,0.369988039287069
7590,0.249723499447372,-0.24974288918086,0.249997400468861,0.0562600612083204,-0.000220829205792029,0.249324816683655,-0.0532584724991365,-0.0532584724991365,0.747783922902974,0.746769588174878,0.04,0.0406840605238277,356.776933921271,0.705885880115644,0.371378664761353
7650,0.249999856911691,-0.249521756576951,0.249995253585431,0.249764006883868,0.249558341588416,0.248687179654887,-0.0490186390950918,-0.0490186390950918,0.740321348041213,0.746769588174878,0.04,0.049192631072056,353.246608335656,0.748672873956989,0.346689412501943
7710,4.66942017720839e-05,-0.249209552235704,3.94989073827219e-05,0.249859755755072,-0.000220829205792029,0.0322085522652926,-0.0391105244638342,-0.00211432915446073,0.760172784107919,0.746769588174878,0.04,0.019015790357537,362.838603913602,0.736750860702241,0.361865776542251
7770,-0.249906468508147,-0.248897347894456,-0.249916255770666,0.249955504626276,-0.25,-0.184270075124302,-0.0704906189237519,0.245770637067847,0.758069367881128,0.746769588174878,0.04,0.00322594829954057,361.709378509258,0.620262239534575,0.428488433129086
7830,-0.249951595407946,-0.249448673947228,-0.249560704200441,-2.22452333422325e-05,0,0.032864962437849,-8.30355326030485e-06,0.247335376464501,0.737830887662563,0.746769588174878,0.04,0.0121931416294743,351.542389142371,0.61386412850521,0.420784874530086
7890,-0.249996722307746,-0.25,-0.249205152630217,-0.249999995092961,0.25,0.25,0.249983392893479,0.248900115861156,0.739879877496477,0.746769588174878,0.04,0.019634140973162,353.110413576052,0.683235197954096,0.379747540862188
7950,1.62821191156581e-06,0,0.000375210215985248,-7.57290422776578e-05,0.249999960390772,0.249800398335377,0.249955967312438,0.249450052086991,0.710796149528511,0.746769588174878,0.04,0.0449612503955542,338.873128360759,0.783152115455244,0.3179403755065
8010,0.249999978731569,0.25,0.249955573062187,0.249848537008405,0.249999920781544,0.249600796670755,0.249928541731397,0.249999988312826,0.730119306065499,0.746769588174878,0.04,0.066893963398849,348.568869842427,0.952706232467622,0.268834045990213
8070,2.59093041694314e-05,0.25,0.000343063637163823,-7.54979423895747e-05,0.249999753161891,0.249597992631948,0.24992979610936,0.249996303803475,0.748755753106774,0.733256355469447,0.04,0.0609092699255254,357.285792098041,0.938824677055346,0.27963139292838
8130,-0.24994816012323,0.25,-0.24926944578786,-0.249999532893185,0.249999585542237,0.249595188593141,0.249931050487323,0.249992619294125,0.728771000409469,0.706229890058583,0.04,0.0654048794507163,347.355165691884,0.781220663037673,0.326704199078343
8190,-0.160100831498299,0.249989146556213,0.000365277106070153,-0.10371343976507,0.249999792771118,-0.000181569969881366,0.24996371012127,-2.37875764875639e-06,0.700825782542499,0.67920342464772,0.04,0.0790489995842137,334.219909906361,0.66399241448541,0.369848512301339
8250,-0.0702535028733683,0.249978293112426,0.25,0.0425726533630443,0.25,-0.249958328532904,0.249996369755218,-0.0630242736005051,0.662609818074151,0.652176959236856,0.04,0.0890501850986266,315.813123671001,0.560971033022955,0.413660843728167
8310,0.0897058366357892,0.249989146556213,0.25,0.0117666852275097,0.242646746054312,-5.19237760590841e-06,0.248989164248398,-0.00013332002031477,0.630121158097107,0.638663726531424,0.04,0.0876758196546716,300.445832552325,0.56043349803419,0.393909790089667
8370,0.249665176144947,0.25,0.25,-0.019039282908025,0.235293492108624,0.249947943777692,0.247981958741578,0.249730736768793,0.623963798467496,0.638663726531424,0.04,0.0809532898254784,297.82239137779,0.674354884155152,0.324506586026961
8430,0.249199081063992,0.249974932286767,0.249996911212693,0.115480358545987,0.242646746054312,0.249944985926332,0.248990979370789,0.247270370393207,0.632269704531733,0.638663726531424,0.04,0.0796003942304936,301.671079703944,0.721759672316176,0.307111261102049
8490,0.248732985983037,0.249949864573535,0.249993822425387,0.25,0.25,0.249942028074971,0.25,0.244810004017622,0.634175994047688,0.638663726531424,0.04,0.0830534344493218,302.587346033802,0.75398883853072,0.294876743369263
8550,0.206676128208191,0.24997438065586,0.249996911212693,0,0,-1.67505168698199e-05,0.09549190623752,-0.00152063928484563,0.658687862114393,0.638663726531424,0.04,0.0522342268329047,314.607882125042,0.720229372740501,0.320961873533705
8610,0.164619270433344,0.249998896738185,0.25,-0.25,-0.25,-0.249975529108711,-0.00494831049240383,-0.00494831049240383,0.653061722402878,0.638663726531424,0.04,0.0366648069252648,311.390840351104,0.586253316588169,0.390279012239477
8670,0.18154400906048,-4.67892725282582e-07,0.25,-0.24999999991521,-0.249999999901052,-0.24922806257204,0.0939518326949022,-3.17883119276274e-08,0.637446283537309,0.638663726531424,0.04,0.0239073289971725,304.115753524625,0.563938697585635,0.396243085643421
8730,0.198468747687616,-0.249999832523635,0.25,-0.249999999830421,-0.249999999802105,-0.24848059603537,0.246919852914764,0.249999936423376,0.637962942151433,0.638663726531424,0.04,0.0195599391811618,304.463140097538,0.587247073522121,0.38095049065394
8790,0.224234273850561,-0.249999916261818,0.24987845718256,8.47896899358602e-11,-0.249887567327458,0.000477717607115892,0.248459926457382,1.33548487454505e-07,0.63052817584695,0.638663726531424,0.04,0.0291288848026764,300.913833292301,0.608150728545372,0.363567955568861
8850,0.249999800013505,-0.25,0.249756914365121,0.25,-0.249775134852812,0.249436031249601,0.25,-0.103168756975497,0.632456689962327,0.638663726531424,0.04,0.0444326067449234,301.810811428669,0.655716599179499,0.338199757189642
8910,0.249999900006753,-0.249712002009459,0.0495500627101511,0.249995621296612,-0.000704149969051514,0.249717041865251,0.24999999990638,-7.74074098608821e-05,0.631693405418075,0.638663726531424,0.04,0.0494052181890619,301.213725393625,0.682193124984343,0.324430813390937
8970,0.25,-0.249424004018917,-0.150656788944819,0.249991242593225,0.248366834914709,0.249998052480901,0.24999999981276,0.24984485450668,0.634402063204143,0.638663726531424,0.04,0.0515580873301284,302.752934004631,0.73257968806014,0.303660402895471
9030,0.000411693847342463,0.000287385845858921,0.0191346355187293,0.00131769687968824,0.249183417457354,0.24999902624045,0.24999999990638,-5.68309795943662e-05,0.646906279910161,0.638663726531424,0.04,0.0509153358739621,308.746553436345,0.716824085471134,0.316478495403025
9090,-0.249176612305315,0.249998775710635,0.188926059982277,-0.247355848833848,0.25,0.25,0.25,-0.045493295777716,0.642486592693565,0.638663726531424,0.04,0.0548417515873115,306.487933013787,0.678445484438078,0.331935040055866
9150,0.000407132977209812,0.249980933474603,-0.0182568609434998,-0.248668639999803,3.7904816849732e-07,0.249998767878215,5.34066231056691e-05,0.10931787770936,0.647289099891598,0.638663726531424,0.04,0.0421258675328914,308.893088348395,0.648854923896013,0.349796341131728
9210,0.249990878259735,0.249963091238571,-0.225439781869277,-0.249981431165757,-0.249999241903663,0.24999753575643,-0.0102226109861634,0.249998533905719,0.642257821303724,0.638663726531424,0.04,0.0412311323400505,306.40614783553,0.618704907878494,0.363888717285487
9270,0.011581020868809,-1.84543807143882e-05,-0.0903779595231951,-0.249990678524406,-0.249900946358543,0.249965704346987,-0.0065586691783052,0.24999926695286,0.644749295103694,0.638663726531424,0.04,0.0247967582336307,307.661252578808,0.595713544815622,0.379480972874599
9330,-0.226828836522117,-0.25,0.0446838628228867,-0.249999925883055,-0.249802650813422,0.249933872937543,-0.0325607247144684,0.25,0.642139308789132,0.638663726531424,0.04,0.0113451442985425,306.317577505342,0.52698911276932,0.427095457083225
9390,0.0115855817389418,-0.24926846237443,0.147341915337274,-4.03062015977866e-05,-0.143167461147844,0.249966936468772,-0.0836249507467295,0.249597534200095,0.616062217774083,0.638663726531424,0.04,0.0270736024448127,294.168135653829,0.554978662437521,0.38947000708853
9450,0.25,-0.248536924748859,0.24999996785166,0.249919313479859,-0.0365322714822662,0.25,-0.115276066398225,0.24919506840019,0.625984786158724,0.638663726531424,0.04,0.0434222005448088,298.808723953621,0.670017152488896,0.327689124732587
9510,0.249984700990219,0.000731537625570354,0.24999998392583,0.249884094818944,0.106733860969467,0.249998619606795,1.24850719765845e-06,-0.000402465799904846,0.634319056757211,0.638663726531424,0.04,0.0586720842353717,302.583830936587,0.700115848929421,0.317563430074208
9570,0.249969401980439,0.25,0.25,0.249848876158028,0.2499999934212,0.249997239213589,0.249940580879843,-0.0921601246961561,0.632207912890201,0.638663726531424,0.04,0.0757683619015275,301.692210758355,0.746681506712223,0.296881666100325
9630,0.249981261571127,0.25,0.249999999533342,0.249924100146789,0.249990539976834,0.249998619606795,0.249970288442945,-5.71124818848219e-05,0.636497280847595,0.638663726531424,0.04,0.077790840076677,303.516869703076,0.763869673519873,0.29195656302018
9690,0.249993121161816,0.25,0.249999999066685,0.249999324135549,0.249981086532468,0.25,0.249999996006047,0.24988577503623,0.634736823810148,0.638663726531424,0.04,0.0814273352006131,302.894462800145,0.802280561871156,0.277408484887163
9750,0.249996479378767,0.0665463990955381,0.000294553148519299,0.249944974306971,-8.98446829000932e-06,0,0.249999998003023,0.249942823292003,0.64979005774628,0.638663726531424,0.04,0.0592953209556661,310.215613632628,0.78230880911918,0.291366829626517
9810,0.249999837595717,-0.116907201808924,-0.249410892769646,0.249890624478394,-0.249999055469048,-0.25,0.25,0.249999871547775,0.653068400830465,0.638663726531424,0.04,0.0412166905515258,311.443375749293,0.669966634797337,0.341570691969865
9870,-8.12021413594266e-08,0.0664066765149294,-0.249657370691903,-5.4687760802949e-05,4.17666422094953e-07,-0.249998954365256,0.249999999760778,0.249999935773887,0.64382725722708,0.638663726531424,0.04,0.0390676954287528,307.134602906162,0.626262920972983,0.36035182460707
9930,-0.25,0.249720554838783,-0.24990384861416,-0.25,0.249999890801892,-0.249997908730513,0.249999999521556,0.25,0.647016932209869,0.64608397387261,0.04,0.0273360620203786,308.786443164326,0.608784726011982,0.372691213066897
9990,-0.25,0.23556939914476,-0.249946583062675,-9.36944149384544e-06,0.249999945400946,1.04563474349106e-06,0.24747830220713,0,0.654881555293239,0.660924468554982,0.04,0.0268730331083834,312.561097288936,0.627519308113943,0.365984342626008
10050,-0.25,0.221418243450738,-0.249989317511191,0.249981261117013,0.25,0.25,0.244956604892704,-0.051022542754432,0.665574480739283,0.675764963237353,0.04,0.0328274098468282,317.722307003967,0.699141461399978,0.333916074048893
10110,-0.000131442539577506,-0.0142898289649743,-0.249980830598657,0.00542695054095202,0.24993646918022,0.249996115057941,0.247478302446352,-0.0729259617238771,0.688625221833725,0.690605457919724,0.04,0.0238098153525711,328.724459226517,0.731302725945637,0.330285496689334
10170,0.249737114920845,-0.249997901380687,-0.249972343686124,-0.239127360035109,0.24987293836044,0.249992230115882,0.25,-0.107259911850152,0.703164263692319,0.705445952602096,0.04,0.021015727449069,335.558755381528,0.735897370425483,0.335047205575388
10230,-0.000131400957312962,-0.249998915809879,-0.249983085490224,-0.244517549325488,-6.35308197799986e-05,1.00659378471164e-05,0.00117552912650697,-0.153392590707634,0.736862395074243,0.720286447284468,0.04,2.88105964325369e-06,350.838103271154,0.702723459200734,0.36684024832546
10290,-0.249999916835471,-0.249999930239072,-0.249993827294325,-0.249907738615868,-0.25,-0.249972098240188,-0.227262109384041,-0.227262109384041,0.693118046972154,0.735126941966839,0.04,1.92206243860716e-10,330.948285313387,0.927086662470711,0.26229769758642
10350,-5.45971531809073e-05,-0.249999906458927,-5.79585297563199e-05,-6.23326650855915e-05,-3.3648229582468e-06,1.39508799060195e-05,-0.166891987955291,2.13289535295189e-05,0.818808957706202,0.749967436649211,0.04,0.00511023721354124,391.223590971542,0.900635366527951,0.319176357619134
10410,0.249890722529109,-0.249999882678781,0.249877910234813,0.249783073285697,0.249993270354084,0.25,-0.0861350341635958,0.249998548012363,0.752347341964205,0.764807931331582,0.04,0.0533869078210769,359.231311073727,1.03122104784715,0.255962940652096
10470,0.249943713390091,-0.0206443520942494,0.137910330709093,0.249432934843916,-3.36482295813312e-06,0.0225799135491128,0.0817427497629049,0.249997593807784,0.781356067062891,0.779648426013954,0.04,0.0556328880584321,372.982952217641,1.04729614692079,0.261682182149771
10530,0.249996704251073,0.208711178490282,0.025942751183374,0.249082796402134,-0.25,-0.204840172901774,0.249620533689406,0.249996639603205,0.79920105674134,0.794488920696325,0.04,0.0596592354365727,381.404720227825,1.0186021081578,0.275128872964309
10590,-1.64787446374248e-06,0.0905007731850996,-0.111989889757108,-0.000458601798932818,-0.249708092899628,-0.227420086450887,0.000402252293104027,2.62311703906448e-05,0.836813635190274,0.809329415378697,0.04,0.0327025967331889,399.701602328736,0.940212962415532,0.312366413503157
10650,-0.25,-0.027709632120083,-0.249922530697591,-0.25,-0.249416185799256,-0.25,-0.248816029103198,-0.249944177262423,0.845670943524877,0.824169910061068,0.04,0.00563577601205824,403.195445926148,0.729274107375943,0.406237022175599
10710,-9.66262595770786e-05,0.111144394268094,-0.249961265348795,-0.25,-0.249707761463777,-0.249999699883856,0.000591985448401147,-0.249968394788658,0.827906894370278,0.83901040474344,0.04,0.0150098584643711,394.824233482552,0.714751293681811,0.405885491014708
10770,0.249806747480846,0.249998420656272,-0.25,-0.25,-0.249999337128298,-0.249999399767711,0.25,-0.249992612314893,0.843463157619395,0.853850899425811,0.04,0.0218155482444833,402.694854873235,0.81944116674173,0.361087936132873
10830,-9.61769247198845e-05,0.249861192427321,-0.249999804941501,-8.80899591060142e-05,-0.122814594978476,-1.78225926098321e-05,0.249999779817138,2.61996562892364e-06,0.843684054363439,0.868691394108183,0.04,0.0353157087755527,402.544240033898,0.909659344298006,0.325154304673347
10890,-0.249999101330286,0.249723964198371,-0.249999609883001,0.249823820081788,0.00437014717134548,0.249963754582492,0.249999559634276,0.249997852246151,0.868544232887593,0.883531888790555,0.04,0.0406224915024107,414.603234092914,1.04620294317403,0.291186626028586
10950,-0.249999550665143,0.00534534785448875,-0.249994337335078,-8.69813175572744e-05,0.127185040138084,0.249981877291246,0.249999779817109,-1.07387692480643e-06,0.907495691822177,0.898372383472926,0.04,0.0343524297010066,433.298702814299,1.06187986587264,0.299824196755447
11010,-0.25,-0.239033268489394,-0.249989064787155,-0.249997782716903,0.249999933104823,0.25,0.249999999999942,-0.25,0.909692708408874,0.896415878366428,0.04,0.0356289890915709,433.807568586215,0.961922796783875,0.331368776175988
11070,0,0.00212139171339891,-0.249993593707868,-0.249983347133881,8.97325589414777e-06,1.68911265882343e-05,0.249999999999971,-9.98896475027777e-06,0.878477806293941,0.87766237347106,0.04,0.0484406502412028,418.889393828145,0.917818318254283,0.335349234453619
11130,0.25,0.243276051916191,-0.249998122628581,-0.249968911550861,-0.249981986593035,-0.249966217746824,0.25,0.2499800220705,0.864742506375664,0.858908868575693,0.04,0.059333155114382,412.492386983615,0.905580034367348,0.334690800247548
11190,0.25,-0.0033619740419042,-3.76082551235868e-06,-0.24998445577543,-0.249990690157373,-0.249978342953257,0.249999988789609,0.113721631490068,0.852909766802524,0.840155363680325,0.04,0.0616299925987585,406.811950553613,0.843123390673727,0.35453346934686
11250,0.25,-0.25,0.249990600977557,-0.25,-0.24999939372171,-0.249990468159691,0.249999977579218,-0.0225367590903639,0.831731313020457,0.821401858784957,0.04,0.0616544929669134,396.628140240217,0.767594646656156,0.379669982818708
11310,9.80696456248324e-05,-0.249999986564354,-4.69951122170187e-06,-0.25,3.03139144875786e-07,-0.249987370244807,0.249999988789609,-0.136268379545182,0.815982076056438,0.80264835388959,0.04,0.0465544545082639,389.267390075277,0.705632187944721,0.405344529622421
11370,-0.24980386070875,-0.249999973128709,-0.25,-0.25,0.25,-0.249984272329922,0.25,-0.25,0.796637964422042,0.783894848994222,0.04,0.0328235882675079,380.063803380767,0.596745623548123,0.467974235802878
11430,-0.249895720324398,-0.249999986564355,-0.249998180231461,-0.249999921859054,2.40822011302271e-05,-0.249992136164961,0,-0.249998236808808,0.784989636623146,0.765141344098854,0.04,0.0104755338999813,374.337928147883,0.510941883728468,0.538328042739653
11490,-0.249987579940047,-0.25,-0.249996360462922,-0.249999843718108,-0.24995183559774,-0.25,-0.25,-0.249996473617617,0.728666921255442,0.746387839203487,0.04,5.9648910971821e-07,347.401547631917,0.511665773016932,0.498884554716224
11550,6.20601043533497e-06,0,1.33444959806184e-06,3.39672999416507e-08,2.40374023258028e-05,-3.07226366658142e-09,-8.82033305060759e-10,-0.0947698115758226,0.674027608273084,0.727634334308119,0.04,0.0520174357640442,321.135385884524,0.600107624826521,0.393200167817348
11610,0.249999991960917,0.25,0.249999029362118,0.249999911652708,0.249999910402391,0.249999993855473,0.249999998235933,0.0604568504659715,0.685777475834723,0.708880829412752,0.04,0.07876527226425,327.416737181033,0.850400735961607,0.282899334108344
11670,1.13390679700842e-06,0.249999995590623,0.249999511620556,0.249999955826354,0.249999955201196,0.249999989777925,0.249999962934257,-0.0947715747670143,0.698332789845384,0.690127324517384,0.04,0.0809919333276419,333.198105271825,0.85669777585258,0.285778505034419
11730,-0.249997724147323,0.249999991181246,0.249999993878994,0.25,0.25,0.249999985700378,0.249999927632581,-0.25,0.684809319156668,0.671373819622016,0.04,0.0879715350024035,326.513700630579,0.76698429662278,0.312802066271866
11790,-0.249998675600229,0.221018982694927,-3.06050310427963e-09,9.2689807743227e-06,0.0601900363638216,6.46915441393503e-09,0.2499970026227,0,0.666373298573076,0.652620314726648,0.04,0.0714646718787265,317.854620873785,0.695339319383788,0.335881757980259
11850,-0.249999627053134,0.192037974208607,-0.25,-0.249981462038451,-0.129619927272357,-0.249999972762069,0.249994077612819,0.25,0.663761148942985,0.654667945397417,0.04,0.0410823113644382,316.786467314543,0.602993851748058,0.386018761601372
11910,-0.249999813526567,-0.0289807157731375,-4.75051548392003e-08,9.2689807743227e-06,-0.189809930845652,1.36189654540431e-08,0.24999703880641,0.249994772108475,0.663841214871696,0.677516711634321,0.04,0.037145655917761,316.773785412631,0.630377157578133,0.369235494585889
11970,-0.25,-0.249999405754882,0.24999990498969,0.25,-0.249999934418946,0.25,0.25,0.249989544216951,0.68931913493917,0.700365477871226,0.04,0.033876988079222,329.146658989021,0.727644939738324,0.332372140462404
12030,-0.24999990868259,-2.25392318509421e-06,0.249997824282738,0.249998626913892,-0.249997004821067,0.249996800065319,0.24999994272403,0.249994556634676,0.708381886464117,0.72321424410813,0.04,0.0371477264260164,338.081944780971,0.79511403156355,0.312426048946918
12090,-0.24999981736518,0.249994897908511,0.249995743575786,0.249997253827784,-0.249994075223188,0.249993600130638,0.249999885448059,0.249999569052402,0.734652992127204,0.746063010345034,0.04,0.0415223747939438,350.754092311171,0.883013109065497,0.291870546920449
