time,bias_percent_1,bias_percent_2,bias_percent_3,bias_percent_4,bias_percent_5,bias_percent_6,bias_percent_8,bias_percent_9,normalized_power,power_SP,SP,CV,total_power_MW,fuel_fraction,thermal_efficiency
53,0,0,0,0,0,0,0,0,0.999829664786671,1,0.04,0.0399104334556631,477.021552267664,1.0000127308936,0.350499294924161
113,0,0,0,0,0,0,0,0,0.999980469920056,1,0.04,0.0399106075083883,477.091016937691,1.00028882125955,0.350453579587865
173,0,0,0,0,0,0,0,0,0.999998464355626,1,0.04,0.0399508123971052,477.099313105052,1.00031776200868,0.350449534304826
233,0,0,0,0,0,0,0,0,1.00000163738016,1,0.04,0.0399782374021437,477.100795708481,1.00031259371347,0.350452434005745
293,0,0,0,0,0,0,0,0,1.00000302235138,1,0.04,0.0399944531599669,477.101450194833,1.00029691266927,0.350458408592469
353,0,0,0,0,0,0,0,0,1.00000376623957,1,0.04,0.0400035438257206,477.10180056201,1.0002755560501,0.350466148507681
413,0,0,0,0,0,0,0,0,1.00000399116543,1,0.04,0.0400081482159786,477.101904209763,1.00025183904214,0.350474534562011
473,0,0,0,0,0,0,0,0,1.00000382578331,1,0.04,0.0400099199292018,477.10182279189,1.00022838699712,0.350482692219611
533,0,0,0,0,0,0,0,0,1.0000034146374,1,0.04,0.0400099546816304,477.101625201352,1.0002069675102,0.350490052670987
593,0,0,0,0,0,0,0,0,1.00000288102452,1,0.04,0.0400090008845733,477.101370149394,1.00018855255797,0.350496318341224
653,0,0,0,0,0,0,0,0,1.00000231630382,1,0.04,0.0400075684460414,477.101100701894,1.00017349887551,0.350501395737154
713,0,0,0,0,0,0,0,0,1.00000177969394,1,0.04,0.0400059923361197,477.100845118542,1.00016174503532,0.350505327042287
773,-0.220833333333333,-0.148752542164891,-0.220833333333333,0.220833333333333,0.219070081150487,-0.220812962722055,0.134905850654516,0.220833333333333,0.999366032556488,1,0.04,0.0364728639275239,476.803605249998,1.00964290256201,0.346997551383826
833,-0.25,-0.168399104337613,-0.25,0.25,0.248003865453381,-0.249976938930629,0.152723604514546,0.25,1.00037902993654,1,0.04,0.0365440802408105,477.274829698167,1.0033819122934,0.349507854239125
893,-0.249719734901768,0.201031711331124,-0.249992519360585,-0.191666666666667,-0.191899377337562,-0.249997309541907,0.0877911137492181,0.25,1.01224257149539,1,0.04,0.029495021779623,483.004586653112,0.952916807292915,0.372435391582554
953,-0.249682718756718,0.249824460570391,-0.249991531351605,-0.25,-0.249999805630706,-0.25,0.0792151244028542,0.25,1.00292966112001,1,0.04,0.0296604445694033,478.4671971414,0.918006601065818,0.382966725013649
1013,-0.249934780063954,0.248534264251108,-0.249997698810425,-0.249996416795859,-0.249999977323582,-0.249985053555679,0.230075097847,0.0694853652572212,1.0015631272074,1,0.04,0.027473301636575,477.83543182522,0.906273041000648,0.387412799433372
1073,-0.249968071180004,0.248363860963656,-0.249998513380458,-0.249995943542482,-0.25,-0.249983079496995,0.25,0.0456438097251561,0.98906398690506,0.986268960301499,0.04,0.0290213793799146,471.756688950543,0.889473810724447,0.389708230028554
1133,-0.249983916345185,-0.191857545703324,-0.249997562480862,-0.249999526746623,-0.25,-0.249998025941316,0.249865923838771,0.226158444467935,0.981525430083097,0.970724387057913,0.04,0.0262987813785104,468.190702935311,0.841713786431914,0.408707889505966
1193,-0.249986009102851,-0.249999995640473,-0.24999743689035,-0.25,-0.25,-0.25,0.249848215666533,0.25,0.958954057037551,0.955179813814328,0.04,0.0267333637860087,457.399168632477,0.801133313337514,0.419512838178439
1253,0.191668298938001,-0.249997090637541,-0.24985455197768,-0.25,0.191532104744911,-0.25,0.249969989899734,0.249993514757466,0.918645883055391,0.939635240570742,0.04,0.0393083937439632,438.108574120292,0.879595794591717,0.365976571835523
1313,0.25,-0.249996706957908,-0.24983568038544,-0.25,0.249847665748956,-0.25,0.249986073289024,0.249992658215999,0.920117535144393,0.924090667327156,0.04,0.0411982573763017,438.926376725291,0.937828727204164,0.343892595184155
1373,-0.191666666666667,0.191543980094589,0.191522851692426,0.00477217011294067,-0.191683647276168,-0.109139906365951,-0.107894751641743,-0.191667523208133,0.918311580621086,0.908546094083571,0.04,0.0428407873221042,438.181429282216,0.912274342745586,0.35292561744728
1433,-0.25,0.249860674610957,0.249815488004597,0.0384213246561592,-0.249999103713448,-0.0905357430557937,-0.155162030406184,-0.25,0.899156160196161,0.893001520839985,0.04,0.0509414380411201,428.836489553218,0.858816757350055,0.366898468257642
1493,-0.25,0.249983745371278,0.24997620478589,0.225308544288258,0.191666771233431,-0.231394377240256,-0.238879474078155,0.191219711105851,0.868081072331938,0.877456947596399,0.04,0.0676264329341333,413.99797489862,0.887743391508013,0.342661605185967
1553,-0.25,0.25,0.249997431530589,0.249991761975516,0.25,-0.249998347792921,-0.249936494940491,0.249494012572661,0.863931015866484,0.861912374352813,0.04,0.0671125059636907,412.110295898372,0.899416562678635,0.336672202604945
1613,-0.249751470106809,-0.191666666666667,0.249999700345235,0.249994583754307,0.24993540851255,-0.249983724557139,-0.249992584976915,0.249211342544323,0.856369292564869,0.846367801109227,0.04,0.0573407586349581,408.494060178276,0.855361879571304,0.350905787268067
1673,-0.249718645403935,-0.25,0.25,0.249994956442072,0.249926877561378,-0.249981793186375,-0.249999993094933,0.249174008766996,0.838007409556777,0.830823227865642,0.04,0.0578717273218809,399.666893772765,0.801509866840918,0.366390309278737
1733,0.191699491369541,-0.25,0.25,0.249992267284498,0.249991469048827,0.191577379486648,0.191666521271331,0.249903634352037,0.800817283803801,0.815278654622056,0.04,0.0829399530928904,381.867311020816,0.842622198992489,0.332992354984859
1793,0.25,-0.25,0.25,0.249991912112742,0.25,0.249896515500067,0.249999834489517,0.249999999995345,0.800151976584685,0.79973408137847,0.04,0.0801127982899793,381.704157426536,0.874400081677287,0.320753480032445
1853,0.249859482616676,-0.249970076829929,0.249952328754163,-0.191667610253513,-0.191666666666667,0.249975180812685,0.249993336956536,0.249999494022858,0.800077338416509,0.784189508134884,0.04,0.0641071781845877,381.675661074445,0.809153178772066,0.346591891466622
1913,0.249840923716992,-0.249966124713127,0.249946032551883,-0.25,-0.25,0.249985570570955,0.249992478791803,0.249999427196303,0.778173912604052,0.768644934891299,0.04,0.0652388320500328,371.106728527915,0.733473176058592,0.371765657906225
1973,0.249830810552326,0.191670618783468,0.249993533218904,-0.24999989114723,0.19166323646441,0.249447084455015,0.24999912252571,0.0497689622390326,0.757122782703878,0.753100361647713,0.04,0.0808537165639435,361.073012980174,0.699954890935598,0.379035296092927
2033,0.249829474851332,0.25,0.249999806891907,-0.249999876770449,0.249996116752162,0.249375963647249,0.25,0.0233234291314686,0.738309006493019,0.737555788404127,0.04,0.0788711560859927,352.114140953019,0.690439019970444,0.374725127114358
2093,0.249980105399322,0.247010474109952,0.249999977470722,0.191666674595344,0.249999465061113,0.24987802803885,-0.0158026420121377,-0.0158026420121377,0.722357846491729,0.722011215160541,0.04,0.0817254288721421,344.389075834248,0.668370484719879,0.378605379204189
2153,0.25,0.24661563106787,0.25,0.24999999270026,0.249999907290597,0.249944338430194,-0.00746434029740789,-0.00746434029740789,0.703905123223481,0.706466641916956,0.04,0.0785296908520655,335.717479720711,0.684681682634753,0.360279806756727
2213,-0.191666666666667,0.249508737943786,0.249808231626722,0.249984151178447,-0.191666677482764,-0.191669723030188,0.190836649409308,0.0154150718824689,0.698760549966682,0.69092206867337,0.04,0.0470931901751045,333.191186590157,0.6485297142752,0.377501170081596
2273,-0.25,0.249890846399096,0.249782903728365,0.249982058901981,-0.25,-0.249996108506087,0.249060357821858,0.049771332355314,0.6798852222236,0.675377495429784,0.04,0.0420392927595829,324.232849470374,0.616914983982265,0.386176969890117
2333,-0.249975732655782,0.246930004430538,0.0913829010948932,-0.191668759794769,-0.248185272810582,-0.249999115103911,-0.0101857281076862,0.223314305633124,0.671376490335012,0.659832922186198,0.04,0.0130964482049893,320.30230958954,0.560331478693781,0.420019762720784
2393,-0.249972527534848,0.246538949830918,0.0704621460300951,-0.25,-0.247945591861036,-0.249999512201737,-0.0509081134606116,0.246235075688684,0.661347776034466,0.658019388641113,0.04,0.00804541306910738,315.536030007645,0.518132786945062,0.447468593051061
2453,-0.249996668626159,0.249595841427525,0.228693375197558,-0.249972899316671,-0.249760319050454,0.191592075212733,-0.107911319524696,0.242207643148654,0.643126456793962,0.658019388641113,0.04,0.0222264897792226,306.869394174794,0.578410532124507,0.389827129436602
2513,-0.249999857072182,0.249999581827077,0.249591839427223,-0.249969319981137,-0.25,0.249915492418418,-0.159994774034522,0.241675718096197,0.653042023773015,0.658019388641113,0.04,0.0226691113415668,311.585074512626,0.625375720988779,0.366092056571005
2573,0.191666683341579,0.249999951213159,-0.19171319114581,0.191670131992702,0.19166653831792,-0.191676393847207,0.201488784953258,-0.1926378325361,0.651815343796395,0.658019388641113,0.04,0.0415946969038409,311.02176008509,0.657141308938684,0.347765649592813
2633,0.25,0.25,-0.249998761221494,0.249999870932643,0.249999854699532,-0.249999850523799,0.25,-0.217988016439188,0.655821958556974,0.658019388641113,0.04,0.0495336992526625,312.924002957734,0.682989753874963,0.336650578373483
2693,0.249997875380516,-0.191666517104433,0.191665593916478,0.249999984942142,0.249999983048279,0.19166665066768,0.24999929745975,-0.206350903518961,0.64960980497113,0.658019388641113,0.04,0.0627365862897545,309.885309280519,0.717412137532646,0.317385399603605
2753,0.249997594770396,-0.249999830684264,0.249998621953568,0.25,0.25,0.2499999621458,0.249999204671415,-0.171022157116763,0.655265190451218,0.658019388641113,0.04,0.0617310629316044,312.659146397632,0.747741936167921,0.30723739626933
2813,-0.191666872765923,-0.249999980246497,0.249999839227916,0.25,-0.191666446865512,0.249999959442386,0.249999907211665,-0.131487351496788,0.669996456614012,0.658019388641113,0.04,0.0410081319573641,319.73571322118,0.709914997758305,0.330932540274557
2873,-0.249999915648078,-0.25,0.25,0.25,-0.249999751168505,0.249999959085331,0.25,-0.111089743225729,0.662630210028768,0.658019388641113,0.04,0.0410020394547684,316.089703924776,0.656885928872055,0.353569721952728
2933,-0.249999565990755,-0.25,0.201179605244346,-0.191666666666667,-0.249999970969659,0.249999990958812,0.249998625925959,0.191667047514951,0.659794339239616,0.658019388641113,0.04,0.030432189055086,314.881195646762,0.640728416740348,0.361099940142722
2993,-0.249999519809599,-0.25,0.194731628578505,-0.25,-0.25,0.249999995168517,0.249998444444482,0.249999959597096,0.660115900643409,0.658019388641113,0.04,0.0293967115056413,314.931551821658,0.620906086293551,0.372687590805253
3053,-0.249999943977787,0.191666666309072,-0.198114160194798,-0.249999991457013,-0.249999999959968,0.249999846289668,0.249998586950233,0.249999733522905,0.656563699678111,0.658019388641113,0.04,0.0283183743480125,313.247328239698,0.620428186298474,0.370980030000206
3113,-0.25,0.249999999595175,-0.24999945305165,-0.249999990328694,-0.24999999995468,0.249999826626424,0.249998605771747,0.24999970366405,0.656806266550067,0.658019388641113,0.04,0.0280648724123484,313.354578734775,0.628685934725952,0.366232580508074
3173,0.191627297515239,0.249999999952771,-0.249779760974279,-0.249962385628908,-0.249062013267506,-0.191657483387432,-0.19166682932663,-0.19153766173891,0.667620337008687,0.658019388641113,0.04,6.20060138244297e-06,318.477585575942,0.570144172903692,0.410439224531505
3233,0.249955431149327,0.25,-0.249750745039531,-0.249957418970445,-0.248938128233351,-0.249989580936432,-0.25,-0.249853917546848,0.658990060031028,0.676081047709013,0.04,6.66704362607656e-07,314.597449755104,0.650073425988222,0.355588298425512
3293,-0.191549712282553,0.0153986779719789,-0.244682580384153,-0.249009900079255,-0.249876114960558,-0.0598442701348475,-0.25,-0.249982957047132,0.679433007319863,0.696528208917957,0.04,6.75854647000727e-07,324.368613004692,0.750361559278392,0.317631029958725
3353,-0.249861712358461,-0.015586402295873,-0.24401320014665,-0.248884756074758,-0.25,-0.0347307385195439,-0.25,-0.25,0.711724247540121,0.7169753701269,0.04,2.2497257863638e-06,339.834467585691,0.810617194602572,0.308039414724959
3413,-0.248972103132641,0.157357488036006,0.1923651154442,0.191778246899709,0.190712441206611,0.216781413839387,-0.249779109123305,0.191419099928406,0.698574758383166,0.737422531335844,0.04,0.0453087097659559,333.305621908303,0.910319233409534,0.269031787150326
3473,-0.248854607574514,0.180199133928896,0.24999998731469,0.249979020877469,0.248919744762202,0.25,-0.249749934856572,0.249719735768006,0.745166634156767,0.757869692544787,0.04,0.0485770664272324,355.817918148067,1.04778225766455,0.249523498235804
3533,-0.172716864249007,0.241856565625038,0.249992564901296,0.242240001959367,0.248847686838946,0.249860155975876,-0.249961131486939,0.249963211579078,0.777971265867796,0.785767329766332,0.04,0.0572653196430216,371.421170452605,1.10080856457555,0.247918839718155
3593,-0.16266093588526,0.25,0.249991584582546,0.241217867385278,0.248838169754743,0.249841686010425,-0.249989025381515,0.249995368761672,0.810283725257773,0.814648992121616,0.04,0.0605786009372405,386.834269724903,1.13523931518053,0.250375710431904
3653,0.201856217366725,-0.191666666666667,-0.0010108862835757,0.247494521442385,-0.191802213528613,0.249352413152076,-0.249947838912794,0.0752762234506048,0.839253459278599,0.818018519396399,0.04,0.0517264595232344,400.516523174725,1.05569649662025,0.278763580087628
3713,0.249999992324535,-0.25,-0.0341621560206107,0.248323513487663,-0.25,0.249287792208521,-0.24994239919051,0.0522001099189545,0.830595326271497,0.818018519396399,0.04,0.0594365648361418,396.216432290568,0.956223749944897,0.304458170384712
3773,0.0789399128289633,-0.24999565066878,0.216847056041342,-0.191860428076582,-0.249999859739709,0.24991433943485,-0.249993170542865,0.226923346157211,0.82593264570625,0.818018519396399,0.04,0.0542882105091324,394.040373710066,0.903301447840377,0.320525578158926
3833,0.056347072140869,-0.249995076228807,0.249999216124996,-0.249997929792614,-0.249999841214765,0.249997090955308,-0.249999876193176,0.25,0.824796968879187,0.818018519396399,0.04,0.050704183469376,393.493622382051,0.858608680988096,0.336741854274134
3893,0.227406278513287,-0.125021649912276,0.249972695858387,-0.249994871129694,0.191652058335063,0.249998397731453,-0.249999973806126,0.249999963815308,0.81302266528815,0.818018519396399,0.04,0.0648097139841478,387.842247742681,0.864268994137563,0.329731819085804
3953,0.249999003883229,-0.108515725681791,0.249969193181664,-0.249994467155346,0.249983441294474,0.249998570324528,-0.249999986698403,0.249999959036197,0.818085376189959,0.818018519396399,0.04,0.0609064365683741,390.336842503827,0.877534166941279,0.326836225384086
4013,0.249999883786377,0.208172145439118,-0.191670260795472,-0.24953085970967,0.249996444598571,0.249997666117558,-0.249999477628069,0.249993159741671,0.822375438079706,0.818018519396399,0.04,0.0564739817945326,392.374960130449,0.859120235956109,0.335584591809864
4073,0.25,0.249998845398484,-0.25,-0.2494696285376,0.249998162016093,0.249997546693996,-0.223817620778135,0.249992261721639,0.820754894551223,0.818018519396399,0.04,0.0560291705693186,391.568629593488,0.837421478325775,0.343572560782628
4133,0.249996863244408,0.249999288116194,-0.249998388711456,0.19172854333728,0.249999785568544,0.249975573979116,-0.162096228104113,0.249999097200858,0.814518424218712,0.818018519396399,0.04,0.0649093793117402,388.564549708991,0.844531060383145,0.338066568311571
4193,0.249996448955933,0.249999346588344,-0.249998175899761,0.25,0.25,0.249972671922433,-0.12195161519146,0.25,0.816610159002569,0.818018519396399,0.04,0.0616060355323213,389.615341227024,0.858661216729403,0.333402519781084
4253,0.249997937511907,0.24999992376864,-0.249993355156114,0.249996707034099,0.249999952203755,-0.191669854942383,-0.0731818040015856,-0.0731818040015856,0.831803476133926,0.818018519396399,0.04,0.046562071366686,396.777662899443,0.795059993849636,0.366692468684146
4313,0.24999813411364,0.25,-0.249992718454123,0.249996272114074,0.249999945891044,-0.25,-0.0408861246047361,-0.0408861246047361,0.819622140704372,0.818018519396399,0.04,0.0446554476543847,390.997423762046,0.764475837046059,0.375806951353064
4373,-0.191666884353409,0.249992633320521,-0.249999150486314,0.249997929717503,0.249975203070529,-0.249999880002874,0.216405263315494,-0.0235826897314606,0.815456676546428,0.818018519396399,0.04,0.0298093163975618,389.049765347734,0.775708619776512,0.368520130754549
4433,-0.25,0.249991660362854,-0.25,0.249998148646257,0.249971935150838,-0.249999864154197,0.249993778197262,-0.0318579247971375,0.818084731322811,0.818018519396399,0.04,0.0247360147312649,390.304958571374,0.775793877569744,0.369668459016629
4493,-0.249997589382413,0.249926319979685,-0.25,0.249994172110511,0.249993966533532,-0.249984789010876,0.249999274123014,0.215133954294183,0.803466334467582,0.806998984475335,0.04,0.0334100211769549,383.220026895455,0.786994972062912,0.35779223871201
4553,-0.249997270998958,0.249917690117757,-0.25,0.249993646907677,0.249996876338794,-0.249982797954211,0.25,0.249997163387269,0.796952419681019,0.794524039281677,0.04,0.0378631868582384,380.147623885313,0.783401187058878,0.356551880463401
4613,-0.249999681616545,0.249984235761405,0.191625971293074,0.249998435182956,0.249999027724476,-0.249997479419355,-0.071481893669122,0.24998859290891,0.787631212454903,0.78204909408802,0.04,0.051179404415223,375.685493759293,0.753439037163709,0.366379346997406
4673,-0.25,0.249993024808679,0.249953929765744,0.249999067596672,0.249999311869755,-0.249999418480789,-0.0662790372860572,0.249987460958938,0.771426726734722,0.769574148894362,0.04,0.0543952315239596,367.943485507523,0.738413470321464,0.366130731898117
4733,0.191666666666667,-0.0480761497661937,0.249994381475263,0.249999848900511,0.249993979496439,-0.249999375709719,-0.0398792864243243,0.249995993861559,0.757268745744372,0.757099203700705,0.04,0.0569054960673629,361.186578513603,0.731114470066193,0.362995215355041
4793,0.25,-0.0874437765968372,0.249999724153879,0.249999952091584,0.249993275220719,-0.24999937006071,-0.0188372878614786,0.249997120848698,0.746022594501104,0.744624258507047,0.04,0.0574009448459163,355.836002271363,0.725962311856949,0.360155861843708
4853,0.25,0.210628422813533,0.249997764779655,-0.191661599856598,0.249993441801777,-0.249998824403191,0.191692317023261,0.249999664099015,0.731217459852948,0.73214931331339,0.04,0.0599766561567032,348.683765840614,0.715265048764218,0.358194901768708
4913,0.25,0.249996449150751,0.249997505994381,-0.249994257661075,0.249993463803049,-0.249998752335217,0.25,0.25,0.721872576181217,0.719674368119732,0.04,0.0607699179838363,344.325501825905,0.711724956197644,0.355477134795356
4973,0.249906005175706,0.145648225460578,0.249999709032678,0.191667336606208,-0.179056625554464,0.191663352479479,0.247775517654565,-0.00198495997254324,0.709495586831661,0.707199422926075,0.04,0.068720164495258,338.278755321397,0.684281159726507,0.363240962252046
5033,0.249893590764951,0.131866384595838,0.25,0.25,-0.235723618488476,0.249996083304062,0.247481718099508,-0.000937360433163115,0.695071722992388,0.694724477732417,0.04,0.0684789226300705,331.525831555096,0.684591933820682,0.355828124510997
5093,0.249987217208196,0.146927539809728,0.249561222357854,0.249972347391224,-0.248293083482763,0.247555408345596,-0.000442511797871319,0.202616041028546,0.680990639304288,0.68224953253876,0.04,0.0692276604570428,324.663138311795,0.665950737338822,0.358216473868228
5153,0.249999582964852,0.148916748988921,0.249503270593796,0.249968695159877,-0.249953201500876,0.247233055049195,-0.000208762962928259,0.249925697754843,0.676737337220098,0.680794122266166,0.04,0.0635758485656659,322.883787805614,0.694118040902336,0.341796478024339
5213,-0.191666715320767,0.238150142526437,-0.10869541936475,-0.191670318898014,-0.249617198006727,-0.0907959993974234,0.191254725654986,0.245488785253368,0.692252038060321,0.680794122266166,0.04,0.0178390349588085,330.563272955319,0.657163335435709,0.369603394282694
5273,-0.25,0.249935685069128,-0.156004680302671,-0.25,-0.249572820186745,-0.135441346211128,0.249515479846246,0.244902777941852,0.685124328681449,0.680794122266166,0.04,0.0167424902308251,326.904265856935,0.591261928434117,0.406251847101764
5333,-0.25,0.249992028427688,-0.239033879368645,-0.249968851037066,-0.249946420886936,-0.23662384673455,0.249943472648729,0.249405324093216,0.686529092110079,0.680794122266166,0.04,0.010430045210335,327.506345292991,0.560117037197032,0.429631001727256
5393,-0.25,0.249999470003347,-0.25,-0.249964737023094,-0.24999576437564,-0.249987573218776,0.25,0.25,0.680117168941976,0.680794122266166,0.04,0.00909889011048429,324.509061289379,0.551185965077376,0.432596851123332
5453,-0.25,0.249999938167057,-0.249988389884898,-0.249995731300697,-0.249999505542529,0.19109890003887,0.249999839310856,0.249999948689315,0.666367557692497,0.680794122266166,0.04,0.0194954625311613,317.925824440604,0.61575091166271,0.379380861969259
5513,-0.25,0.25,-0.249986856473469,-0.249999824884531,-0.24999999965891,0.24935560405403,0.249999818087761,0.249999941912432,0.673305197871853,0.680794122266166,0.04,0.0216292722916357,321.266472900473,0.673057079474923,0.350726179871949
5573,0.191666666666667,0.249971533339531,0.19166221831187,-0.249999977854773,-0.249984976717973,-0.167760543572312,0.24999591451906,0.130759652493049,0.6654227641411,0.680794122266166,0.04,0.0356859400896887,317.523552774523,0.746858167235632,0.312386665218632
5633,0.25,0.249967773591922,0.249993228189178,-0.24999999805839,-0.249982992555962,-0.222851355522961,0.249995398953382,0.115010935022564,0.677975367806413,0.680794122266166,0.04,0.0450336410536814,323.523936392839,0.790503811141458,0.300716408790813
5693,-0.191648938910442,0.249996202480217,0.249999209955404,-0.249999999773479,-0.249766992864883,-0.24682898871056,-0.191667203455439,-0.207415200295147,0.704367413411753,0.680794122266166,0.04,0.0216862694843234,336.159635056439,0.700001306059466,0.352859154813334
5753,-0.24997993084201,0.249999957239049,0.25,-0.25,-0.249738464603796,-0.249995845924016,-0.25,-0.249999784205034,0.686535693699865,0.680794122266166,0.04,0.0246486317713051,327.454613999512,0.620350059157583,0.387854614238859
5813,0.191669008068432,0.249999995011222,0.249993461947927,0.191666666666667,0.191697179129557,-0.249973432288747,-0.25,0.191666691842746,0.658698309715301,0.680794122266166,0.04,0.0748880032657712,314.185913241928,0.702557645017084,0.328593842914427
5873,0.25,0.25,0.249992598431616,0.25,0.25,-0.249970471997297,-0.25,0.25,0.674734871270639,0.680794122266166,0.04,0.0701916368031207,322.020549184658,0.780382437699352,0.303201102024027
5933,0.249974380809889,0.249869086424001,-0.191667530182978,0.249994388257771,0.25,0.191665004869839,-0.25,0.249998425667247,0.679821150934907,0.680794122266166,0.04,0.069084009045564,324.373948751747,0.793767559363731,0.300266788028444
5993,0.24997099714327,0.2498517959517,-0.25,0.24999364708427,0.25,0.249994218795687,-0.249170114504146,0.249998217736506,0.683993780339783,0.680794122266166,0.04,0.0707107282377747,326.346741127395,0.780763453838862,0.307124512357243
6053,0.249996376514378,-0.191683957138968,-0.249996241902086,0.249999258826498,-0.19154549766527,0.249777219317362,-0.186233574015271,-0.186233574015271,0.70422481532922,0.680794122266166,0.04,0.0368381804128814,336.107406929795,0.686047443994809,0.359980195885038
6113,0.249999728506788,-0.25,-0.249995745549531,0.25,-0.249862827545588,0.249748559008904,-0.158167088833988,-0.158167088833988,0.686326341763414,0.680794122266166,0.04,0.034908017690178,327.377584733441,0.617325328428073,0.389663314611494
6173,0.249999968325792,0.191666666666667,0.127908163256727,0.25,0.0194316836175059,0.249970665217706,0.202557888601685,0.202568971749158,0.654883595143119,0.680794122266166,0.04,0.0792039036228609,312.375120238441,0.717451887709645,0.319917745027807
6233,0.25,0.25,0.177820000268874,0.25,0.0549988832050843,0.25,0.249987453040597,0.25,0.674955698702404,0.680794122266166,0.04,0.0720308518703487,322.125075112934,0.799058682739407,0.296210557893018
6293,0.249865353209935,-0.191666643952,-0.200087642270489,0.25,0.22724986970726,0.249998286879924,0.249855169005082,-0.0359899918037596,0.691892389169085,0.680794122266166,0.04,0.0491151416643324,330.082387957674,0.753243287592956,0.321989536246722
6353,0.249847569671625,-0.249999974285283,-0.249999972417197,0.25,0.25,0.249998060618782,0.249837697528693,-0.0170043834921607,0.690931125868954,0.691824173813571,0.04,0.0454345838829538,329.696008059037,0.73596777053702,0.329161906352158
6413,0.249982206534739,-0.0710594454116575,-0.249999996782006,-0.191666662888875,-0.191402632157748,0.249999359077188,0.249981064711681,-0.0129310201323934,0.712495483653559,0.704311024621953,0.04,0.0226240678837078,340.096282306461,0.710886910905798,0.351524859164224
6473,0.249999988761943,-0.0474257906547635,-0.25,-0.249999995723255,-0.249701093008771,0.249999530571695,0.25,-0.0350290912107903,0.717975893344493,0.716797875430336,0.04,0.0195410296758393,342.61125450127,0.686434576180113,0.366739045445964
6533,0.249997822720936,-0.226366309556072,-0.24999381275432,-0.249999999501046,-0.249964263383555,0.249999945233364,0.25,0.192029280679567,0.725019023785214,0.729284726238719,0.04,0.0194916311849037,345.922925470664,0.694265140836297,0.366107530140099
6593,0.249997536640048,-0.249999962995868,-0.249992995570928,-0.25,-0.249999021734941,0.25,0.25,0.25,0.737686161507427,0.741771577047101,0.04,0.0186263378551363,352.03562209217,0.718499440522388,0.360010239671997
6653,0.249980224320445,-0.249999995682851,-0.249999182816608,-0.246335756774307,-0.249817672570236,-0.190933063830516,0.25,0.249785136287231,0.760091188931289,0.754258427855484,0.04,0.00956751355319232,362.784484761999,0.702811848566752,0.379283811794386
6713,0.249977937787667,-0.25,-0.25,-0.245851800121857,-0.249793720793766,-0.249169506223226,0.25,0.249756758061016,0.76331986187802,0.766745278663867,0.04,0.0106653729640013,364.222799593157,0.706943893284298,0.378561860372296
6773,0.249997426075228,0.191666666666667,-0.123226805837477,0.0630647664071944,0.191342282984346,-0.249903109059376,0.25,-0.191695044892881,0.75154770050066,0.779232129472249,0.04,0.0286752175684378,358.71935920052,0.838660481430547,0.314284752893109
6833,0.25,0.25,-0.106483176419786,0.10386506764688,0.249605528766361,-0.25,0.25,-0.25,0.783311175208658,0.791718980280632,0.04,0.0350673601992702,373.896575454196,0.923773388164258,0.297399830508296
6893,0.249745875506855,0.25,-0.23324791392963,0.232950782763775,0.249919714123106,-0.249993279246187,0.141732982257968,0.191635231941071,0.793699454274945,0.804205831089015,0.04,0.0478662265974122,378.772061409793,0.981391741209811,0.283589544408241
6953,0.249712311894553,0.25,-0.24999042643093,0.249999839477327,0.249961210302299,-0.249992391599458,0.127433564820341,0.249964413518193,0.814780844155613,0.816692681897397,0.04,0.0529437563558731,388.870819782823,1.01063407438247,0.282726225456344
7013,0.249965331163531,0.25,-0.249998453875612,0.249999077091637,0.249995474535268,-0.24999911235327,-0.205951016572279,0.249995848243789,0.836731750904832,0.82917953270578,0.04,0.0525304734314687,399.342044775366,0.983077285877123,0.298477811589753
7073,0.24999874880283,0.25,-0.249999514104155,0.249998976399188,0.25,-0.25,-0.249982942416588,0.25,0.844058989804634,0.841666383514162,0.04,0.0545373367470925,402.771484030688,0.956949068951429,0.309260580852079
7133,0.249999854026997,0.249944517088483,-0.249999943312151,0.249998675136312,0.25,-0.1316121229225,0.191668656718065,0.25,0.843655968483201,0.854153234322545,0.04,0.0606770834790957,402.557992673992,0.996491547417839,0.296831174789706
7193,0.25,0.249937189156773,-0.25,0.249998635346876,0.25,-0.115975988214151,0.25,0.25,0.863997539542414,0.866640085130928,0.04,0.0570145314014721,412.350901925616,1.03087199353863,0.293911706335237
7253,0.249969807507207,0.249992669307543,-0.24986760293245,0.249999840790469,-0.191665915840543,-0.234363865291651,0.25,0.249997574469828,0.886940338237072,0.87912693593931,0.04,0.0465699277634975,423.311378011935,1.005167748837,0.309439729302162
7313,0.249965819819479,0.249999996874626,-0.249850116527301,0.25,-0.249999150008162,-0.25,0.25,0.249997254116786,0.894835810364512,0.891613786747693,0.04,0.0467559464557942,426.996192134771,0.974066984138064,0.322099354982839
7373,0.152269834624643,0.125485622064093,0.191684153071815,0.25,-0.249999206397323,-0.25,0.249999828295879,-0.166629605322224,0.912694084725773,0.904100637556076,0.04,0.0433200290726158,435.484942292383,0.933342915369549,0.342836130008469
7433,0.139366591297023,0.109040327277797,0.25,0.25,-0.249999213844948,-0.25,0.249999805617976,-0.152371314796717,0.914593618656765,0.916587488364458,0.04,0.0396827380347844,436.426093827455,0.934979541219043,0.342975641758537
7493,-0.204573011322935,0.206708197379043,0.249992770093125,0.249999567336038,-0.249999813779912,-0.249999101736093,0.249982255124661,0.19165793876401,0.919080921134562,0.929074339172841,0.04,0.0346379491115451,438.564362838771,0.976059909226596,0.330150181203175
7553,-0.249998996574628,0.219607727392415,0.249991815199765,0.249999510191741,-0.249999893016606,-0.249998983097464,0.249979937134977,0.249987516939641,0.938579541320333,0.941561189981223,0.04,0.0324449359550651,447.91385837597,1.00556746364242,0.32729393919485
7613,-0.249999067086245,-0.195212365940236,0.24999516903949,-0.191666723810964,-0.249998002202788,0.191665519989301,-0.173360227353535,0.249998514529507,0.960883860861948,0.943017989242201,0.04,0.0193997980370333,458.524996236329,0.93906112514346,0.358776368837884
7673,-0.2499990763991,-0.249999925437001,0.249995611999453,-0.25,-0.249997752472661,0.249998567566798,-0.20784217371199,0.249999967041377,0.948641811478463,0.943017989242201,0.04,0.022237893068971,452.552293789175,0.882457585852535,0.376816235030134
7733,-0.249998203618692,-0.249974853836404,0.249999488066603,-0.24999989464173,-0.249999737788477,0.249998192737386,-0.249059864378132,0.249999064608034,0.945711217311529,0.943017989242201,0.04,0.0207460175391131,451.187516581632,0.862278635190515,0.384471476699552
7793,-0.249998088345808,-0.249971542492929,0.25,-0.249999880726487,-0.25,0.249998143231615,-0.249994986978326,0.249998945418725,0.943709826739106,0.943017989242201,0.04,0.0206956818671744,450.232226190496,0.854725001627712,0.387048016120186
7853,-0.249999776973678,-0.249996593071733,-0.191665544537374,-0.249993266324191,-0.249999481698546,0.249990717050255,-0.249999414524906,-0.191666789701149,0.963437754057714,0.943017989242201,0.04,0.00177222252710194,459.663148866482,0.766705641418404,0.440520075810034
7913,-0.25,-0.249999901638745,-0.249998729664952,-0.249992392723888,-0.249999413243637,0.24998973623385,-0.249999999295209,-0.25,0.945205550013356,0.943017989242201,0.04,0.000415821838159036,450.876753631761,0.72146142218045,0.45919738603645
7973,0.191666297824114,0.191654756441123,0.191641209859509,0.191667554182213,-0.196915304566842,-0.191637447795772,0.191661711104618,0.191487485840474,0.890506209133686,0.943017989242201,0.04,0.0440298879889074,424.833354355044,0.945670214335051,0.330090915758991
8033,0.249999582442393,0.24998650373469,0.249971013192929,0.25,-0.189904195873681,-0.249965566441194,0.24999438983667,0.249797153781669,0.928241166793045,0.943017989242201,0.04,0.0466107709120948,443.021254996513,1.10976501548642,0.293324412454562
8093,0.249998237350448,0.249989945384242,0.249996618205842,0.249999890951188,-0.241699237518328,0.191670679164151,-0.074237440170909,0.249976334607861,0.942183699622015,0.943017989242201,0.04,0.0587834544384405,449.565902584086,1.13648434943277,0.290659539747856
8153,0.249998059696795,0.249990399941729,0.25,0.249999876548514,-0.248540092075168,0.249999994621461,-0.117060512058702,0.25,0.944339899382149,0.943017989242201,0.04,0.0660015632666719,450.555553482792,1.13139914543284,0.292608661163191
8213,0.24996720850154,-0.191667683517815,0.249945998619128,0.249998760303067,0.0363694979118968,0.249999999372504,-0.234490393073515,0.249984680470093,0.948084613207488,0.943017989242201,0.04,0.0619668265929912,452.357864774451,1.10954028005597,0.299566847071469
8273,0.249963133815374,-0.24999988322002,0.249938866361277,0.249998612874424,0.0739990664007546,0.25,-0.25,0.249982657135954,0.947446468179426,0.943017989242201,0.04,0.0623973803751197,452.017844245082,1.07958105251285,0.307648641908129
8333,0.249995698945127,-0.249981181260997,-0.191673798924518,0.249737008485049,-0.135787293002807,0.179065229649982,-0.249996425847089,0.249997957392492,0.957008215012171,0.943017989242201,0.04,0.0472256342624184,456.642682874386,1.01709266798017,0.32989114304676
8393,0.25,-0.249978711190937,-0.25,0.249702456961924,-0.163494925376862,0.169696486396206,-0.249995953789158,0.249999978181092,0.949530107338834,0.943017989242201,0.04,0.0452972450744097,452.97774319351,0.95927980570891,0.346965455646451
8453,0.249924072907301,0.191669150361057,-0.25,0.249959393147096,0.201758666377358,0.24063103274422,-0.249990115328852,0.249995238268289,0.934944571212799,0.943017989242201,0.04,0.0612151030966095,446.002541454662,0.979834219531617,0.334456320153559
8513,0.249914044800718,0.25,-0.25,0.249993328114948,0.249999706797727,0.249999746412825,-0.249989344211453,0.249994612242069,0.940808514852369,0.943017989242201,0.04,0.0574681565466301,448.893324644023,1.00849339435821,0.327057991633033
8573,0.249989087922077,-0.191666666666667,-0.249992073095732,0.249999221613411,0.249997267756718,-0.191666669997844,-0.050481949284099,0.0195672201347268,0.956140155299019,0.943017989242201,0.04,0.0359087301121927,456.249040668561,0.960437688337762,0.349049842837646
8633,0.249998999277729,-0.25,-0.249991026146111,0.25,0.249996945619226,-0.249999970278498,-0.0241319159918069,-0.0108665863700166,0.947501137972534,0.943017989242201,0.04,0.0343395965541451,452.00366639694,0.911412378272501,0.364402804940122
8693,0.249998584312353,0.191666666666667,-0.249972375071106,-0.191664832948673,-0.191662120841929,-0.249999953706023,0.0447229597759418,0.219565434138615,0.944919851702339,0.943017989242201,0.04,0.0289010852971426,450.857649932736,0.900199180076144,0.36800651410622
8753,0.249998529505605,0.25,-0.249969911721577,-0.249997924092838,-0.249994450374534,-0.249999951517206,0.0538169999716822,0.249999851941641,0.945373559748416,0.943017989242201,0.04,0.0290562498967309,451.029035628032,0.883611453999854,0.375057487964396
8813,0.24999965240466,0.249996138059801,-0.249996487512158,-0.249999481223012,-0.0489378809441616,-0.249999994343674,-0.214554654692102,-0.0583332110662164,0.95422657212955,0.943017989242201,0.04,0.0216865184269883,455.304444800733,0.834589527855874,0.400851612784024
8873,0.249999800712082,0.249995627992227,-0.249999997522235,-0.249999686881714,-0.0223832396986407,-0.25,-0.249999967572225,-0.0990564458031032,0.944018018066122,0.943017989242201,0.04,0.0212789241109099,450.350796388588,0.807737485286931,0.409671142808531
8933,0.249999960101532,0.249999489932426,-0.249999655337703,-0.249999963469533,0.2181879503103,-0.25,0.191666670449907,-0.232389918677029,0.931095846509627,0.943017989242201,0.04,0.032226567655185,444.181291008215,0.856299535580355,0.381144124955964
8993,0.249999981152968,0.25,-0.249999610143519,-0.25,0.249961503707707,-0.25,0.25,-0.25,0.938656983970246,0.943017989242201,0.04,0.0322087159834693,447.862418342828,0.898355341628032,0.366311997242041
9053,0.249990777921824,-0.1916665050683,-0.249999954516744,-0.25,0.249943638511243,-0.249984788141246,0.249981387151634,-0.25,0.949192482169156,0.943017989242201,0.04,0.0239757413275085,452.914099343991,0.883756085778887,0.376563393783678
9113,0.249989562400729,-0.249999817058453,-0.25,-0.25,0.249941278956993,-0.249982779027826,0.249978928850906,-0.25,0.942700752985103,0.943017989242201,0.04,0.0253620255984396,449.74344263074,0.870926252109669,0.379435651658948
9173,-0.191667045712415,0.191666186841891,-0.24999998673927,0.191648859094069,0.249993143069143,-0.24999798431568,0.249997533434896,-0.249993630582033,0.932624195817032,0.943017989242201,0.04,0.0346770172502784,444.95157367929,0.919865099705227,0.355421161364484
9233,-0.249999050557548,0.24999943264005,-0.249999984987853,0.249979840483851,0.24999999304622,-0.249999992561245,0.249999990644103,-0.24999278933815,0.939644552784748,0.943017989242201,0.04,0.0360383471688628,448.327370972151,0.95116352699431,0.346333691193779
9293,-0.249999873359479,-0.168112799971782,-0.249996294664052,-0.191668548441106,-0.16059065257034,-0.249995691864157,0.249920517149599,0.0894076932363521,0.964060714677933,0.943017989242201,0.04,0.0226219952895128,460.093561036469,0.88033867989899,0.384017527941172
9353,-0.249999982031432,-0.223335170316741,-0.249995807262795,-0.249999467733081,-0.214819605764979,-0.24999512384756,0.249910020650325,0.134234172066947,0.946937080261504,0.943017989242201,0.04,0.0230890919998254,451.76704272716,0.818826568470499,0.405393980364725
9413,-0.249999989874304,0.194777543613229,-0.249999493134309,-0.249998944091328,-0.245895620354032,-0.249999108520944,-0.191676350510173,0.236490990214972,0.938860571525963,0.943017989242201,0.04,0.0202008638321458,447.930922957785,0.827537045383428,0.397720774888222
9473,-0.249999990910155,0.249999977528507,-0.249999979947528,-0.249998874931096,-0.249999999639378,-0.249999634798561,-0.249999078776654,0.249996607706221,0.940248582469221,0.943017989242201,0.04,0.0194478153730235,448.568876602598,0.848371430613642,0.388506043182758
9533,0.191632271876444,-0.00601861489003204,-0.249999912837697,-0.249999164306993,-0.24999923202141,-0.24999978893554,0.191660752627461,0.249960924813197,0.911392322708341,0.923483834517908,0.04,0.0357210826126817,434.647901194102,0.901045751227111,0.354442197120936
9593,0.249961061301089,-0.0398323912471976,-0.249999903974134,-0.249999202526451,-0.249999130637905,-0.249999809293254,0.249993183190269,0.249956211978269,0.901328441019111,0.90136969709418,0.04,0.0424884805177471,429.896338146699,0.923810397437319,0.341928716605573
9653,0.249987406007975,-0.225464270405675,-0.249999822109821,-0.249999772997363,0.191660456799955,-0.249999889342398,0.249999197840687,0.232007709578245,0.878295500105312,0.879255559670451,0.04,0.0518124918250326,418.869437930036,0.927344289328682,0.3318886101208
9713,0.249990885497564,-0.249981688407738,-0.249999811297553,-0.249999848342578,0.249992855140805,-0.249999899914927,0.249999992228478,0.229637152657487,0.86244251714517,0.857141422246723,0.04,0.0579051183246293,411.321846082935,0.905323543471029,0.333835592563789
9773,-0.191652854020394,0.191668803019097,-0.249996495890081,-0.249999982292797,-0.191617783944707,-0.24999958957559,0.249999006948713,-0.194042018244418,0.8587775796627,0.835027284822995,0.04,0.0504157065463759,409.616785009948,0.795506126348934,0.378345778238904
9833,-0.249983159239747,0.25,-0.249996058006075,-0.249999999984335,-0.249943717408832,-0.249999548587376,0.249998876817424,-0.249999644589953,0.824122231441302,0.812913147399266,0.04,0.0521186685705849,392.972901126625,0.700679335635381,0.412095592687834
9893,0.19148487752268,0.249996883688524,-0.249999504866699,0.191647518665395,-0.249989832692874,-0.249999505268501,-0.155164616325957,0.191662456199879,0.785168035600399,0.790799009975538,0.04,0.071837142208381,374.426284418062,0.708369421124916,0.388383882816891
9953,0.249791976717718,0.249996472100216,-0.249999960112442,0.249978323015359,-0.249995923390767,-0.24999949954714,-0.208676775797724,0.249995186492876,0.77330928343436,0.76868487255181,0.04,0.071530054070978,368.813482102184,0.701681026402643,0.386208414267808
10013,0.249973727641867,0.249999588411692,-0.249985275104628,-0.191669027285291,-0.24999952439559,-0.249999941613833,0.196487143120415,0.249952259524985,0.750898210303379,0.746570735128081,0.04,0.0685712777817721,358.147074922882,0.676860356472013,0.388791719260982
10073,0.249997732480906,0.25,-0.249983335575294,-0.249999809400471,-0.25,-0.25,0.249999358826584,0.249946589925452,0.731555178823756,0.724456597704353,0.04,0.0686595469629211,348.847896527283,0.632699439855056,0.405129002721038
10133,0.249989325455265,-0.191666666666667,-0.249998055817118,-0.249999969749883,-0.24996995773964,0.190356020971469,0.249999923541168,-0.191672897211475,0.718893275976875,0.702342460280624,0.04,0.0519001577468903,342.84793004489,0.552084603852739,0.456300108472549
10193,0.249988215093387,-0.25,-0.25,-0.249999990928107,-0.249965989893933,0.24851625015638,0.249999998126113,-0.249999999286163,0.68674923845508,0.680228322856896,0.04,0.0449060479116469,327.441397306123,0.488746616986537,0.492271277637392
10253,0.249998625091485,0.0255761119698496,-0.249981750193907,-0.249999676376718,0.191665979075363,0.249826895851578,0.249999999506358,-0.227236310263984,0.650694595848923,0.658114185433168,0.04,0.064627781285834,310.233044135014,0.503373185737023,0.452848207785586
10313,0.249999999996894,0.0619729569469995,-0.249979339842159,-0.249999634832195,0.24999472969395,0.25,0.249999999688654,-0.178788365533819,0.636669788683021,0.636000048009439,0.04,0.0612618388149044,303.599725304747,0.516594674559862,0.431823353451566
10373,-0.191666666667029,-0.0586069460863135,-0.249997589648252,0.191666709269577,0.249998998183161,0.24999999781691,-0.130497998921842,0.200466425597668,0.616720734050492,0.613885910585711,0.04,0.0498842425743912,293.965794873032,0.502541616311332,0.429812898138452
10433,-0.25,-0.074532593656751,-0.25,0.25,0.249999561945887,0.249999997528578,-0.0963183458096757,0.249768791091948,0.594326419264629,0.591771773161983,0.04,0.0462865301312117,283.348557230535,0.483296566308906,0.430786388298549
10493,0.188595791542043,0.165730816987509,0.191329604460407,0.249999994649611,0.249999948835278,0.249999438893521,0.190867201582524,0.249973025627394,0.554289177347209,0.569657635738254,0.04,0.103911393086193,264.380495182844,0.52755351641264,0.368228641568576
10553,0.246523537594766,0.197463720280147,0.249618420143857,0.249999993942956,0.249999999933877,0.249999365111532,0.249094138080782,0.25,0.545516498951286,0.547543498314526,0.04,0.104334992960315,260.156870244783,0.567386316409754,0.336907840359488
10613,0.248944752024544,0.243464904314584,-0.191710442958477,-0.125870237041899,0.249883509790244,0.249998160686015,0.249857442927216,-0.0131928163949697,0.555654894226866,0.555706265262833,0.04,0.0648039102531484,265.192057968386,0.569392185322861,0.342218660864087
10673,0.249264535062439,0.249540532394604,-0.24999916072671,-0.175513475096503,0.249868124299576,0.249998001610947,0.249958256774858,-0.00623684258177827,0.563851087779431,0.567867868637634,0.04,0.0547585813161777,269.095114712771,0.583942720488297,0.338602562824485
10733,0.249914097259916,0.230086910528353,-0.249866321913986,-0.241278628571116,-0.19168205216505,0.249999719109018,0.249994940566066,-0.0041703265390382,0.583672906214653,0.580029472012436,0.04,0.0311264643516081,278.611163579581,0.581179572095079,0.352243387832981
10793,0.249999888493545,0.227517564244131,-0.249848777165136,-0.249964592237575,-0.25,0.249999945948386,0.249999785595094,-0.0158993529998587,0.590914550409455,0.592191075387238,0.04,0.0285533015491545,281.998850861855,0.575996284505135,0.359734700827384
10853,0.249999569085002,0.247351043874461,-0.249930509619262,-0.249945046019403,-0.249935888589288,-0.191666672972688,0.248143875365724,0.190854559448408,0.603963420782849,0.60435267876204,0.04,0.0191837845211243,288.283455990261,0.57545876773285,0.368095225819921
10913,0.249999526898968,0.249970560052051,-0.249941304471694,-0.249942464443418,-0.249927421044477,-0.25,0.24789875514675,0.249051517603537,0.613902124611113,0.616514282136842,0.04,0.0208012866853835,292.988298354965,0.585786971232349,0.367506685204773
10973,0.2499998341574,0.249996565339406,-0.249992394292895,-0.249993287518399,-0.249991479529188,-0.249999963677654,0.249754854767121,0.249889343720413,0.624968267459415,0.628675885511644,0.04,0.0222271775702592,298.262437289676,0.60665747142031,0.361251524153437
11033,0.249999874738703,0.25,-0.24999914200513,-0.25,-0.249999940083772,-0.249999958880363,0.25,0.25,0.636621680420359,0.640837488886446,0.04,0.024211490470349,303.826540058215,0.631735350697503,0.353382634713468
11093,-0.117561815308804,0.25,-0.249999899900598,-0.249993120667474,-0.249999992395403,-0.249999995202709,0.249995807613065,-0.191666666666667,0.665590618981555,0.652999092261248,0.04,0.00112027756978196,317.661026041018,0.588870746344174,0.39636804119305
11153,-0.166107698899984,0.25,-0.25,-0.249992212076386,-0.249999999304486,-0.25,0.249995253901583,-0.25,0.665084206495189,0.665160695636049,0.04,0.000620111307829877,317.335815368523,0.57184999633016,0.407747816562189
11213,0.201453530113722,-0.191648235188588,0.191666666666667,0.191667535609049,0.19166666674781,-0.243522374109013,-0.191664167160085,0.191666666666667,0.640940500533514,0.677322299010851,0.04,0.0315371247630123,305.85198782692,0.730644097176113,0.307581424346791
11273,0.249999352813645,-0.24997913417576,0.25,0.249999955114672,0.25,-0.242666838613977,-0.249996543526721,0.25,0.678450452907206,0.689483902385653,0.04,0.0359117973559398,323.900527543929,0.85007892000302,0.279967155494617
11333,0.249999924494925,-0.249997565653839,-0.191659873757218,0.24999978430898,0.200523895358065,0.192512944804593,-0.249996402498475,0.25,0.700339574223918,0.701645505760455,0.04,0.0432258286328882,334.272439163836,0.874411044652266,0.280892156373358
11393,0.25,-0.25,-0.249992309913832,0.249999761749738,0.193989315499696,0.249989519973083,-0.249996383872102,0.25,0.713524524008878,0.713807109135257,0.04,0.0501129600165477,340.52233069586,0.875974169329956,0.28563338957163
11453,0.249993760920725,-0.25,-0.249993533846045,0.249999972204136,-0.198200675553343,0.249998777330193,-0.249999578118412,-0.191666666666667,0.741809730506151,0.725968712510058,0.04,0.0380401427603392,354.086694345743,0.814349209507297,0.319487303999523
11513,0.249992936891387,-0.25,-0.24999369549747,0.25,-0.249999353616952,0.25,-0.25,-0.25,0.741002633168204,0.73813031588486,0.04,0.0384371391027754,353.569699724435,0.768494640808559,0.338056174597102
