time,bias_percent_1,bias_percent_2,bias_percent_3,bias_percent_4,bias_percent_5,bias_percent_6,bias_percent_8,bias_percent_9,normalized_power,power_SP,SP,CV,total_power_MW,fuel_fraction,thermal_efficiency
32,0,0,0,0,0,0,0,0,0.999620875550017,1,0.04,0.0399816325672792,476.926414708071,0.999656501683247,0.350554267144667
92,-0.00108352654583484,-0.0125686214691273,-0.00834017903884512,-0.0115505461097396,0.00474361909383344,-0.0122339441957668,-0.00262486179974269,0.0126656362947299,0.993246327557936,0.98686703560427,0.04,0.0422887443887228,473.72993291848,0.980863541674761,0.354876229973941
152,-0.00311513881927499,-0.0361347867237406,-0.0239780147366796,-0.0332078200655011,0.0136379048947714,-0.0351725895628294,-0.00754647767426025,0.0364137043473486,0.970939576451755,0.962242727362276,0.04,0.04723518040911,463.041852875526,0.929475144321139,0.36604724541713
212,-0.00514675109271536,-0.0597009519783542,-0.0396158504345141,-0.0548650940212627,0.0225321906957092,-0.0581112349298923,-0.0124680935487778,0.0601617723999672,0.946096118238686,0.937618419120282,0.04,0.0493445634498277,451.182599082141,0.876540937028983,0.37821157339624
272,-0.00717836336615551,-0.0832671172329677,-0.0552536861323488,-0.0765223679770243,0.0314264764966471,-0.0810498802969548,-0.0173897094232954,0.0839098404525858,0.920883415445645,0.912994110878288,0.04,0.0489763901309103,439.152379066834,0.826736837145955,0.39030366293766
332,-0.00920997563959577,-0.106833282487581,-0.0708915218301831,-0.0981796419327858,0.040320762297585,-0.103988525664018,-0.022311325297813,0.107657908505204,0.895375744787369,0.888369802636294,0.04,0.0470029440664745,427.09009684662,0.781191144631488,0.40171390618114
392,-0.0112415879130361,-0.130399447742195,-0.0865293575280177,-0.119836915888547,0.0492150480985227,-0.12692717103108,-0.0272329411723305,0.131405976557823,0.870421319593902,0.8637454943943,0.04,0.0439806270350039,415.187694411998,0.739251421915522,0.412673879619912
452,-0.0132732001864764,-0.153965612996808,-0.102167193225852,-0.141494189844309,0.0581093338994606,-0.149865816398143,-0.0321545570468481,0.155154044610442,0.845324964255727,0.839121186152306,0.04,0.0408061161563806,403.268839044849,0.700695202877636,0.42288297105491
