time,bias_percent_1,bias_percent_2,bias_percent_3,bias_percent_4,bias_percent_5,bias_percent_6,bias_percent_8,bias_percent_9,normalized_power,power_SP,SP,CV,total_power_MW,fuel_fraction,thermal_efficiency
21,0,0,0,0,0,0,0,0,0.999405733607438,1,0.04,0.0400364793011294,476.847559890121,0.999406645960142,0.350583932146893
81,0,0,0,0,0,0,0,0,0.999937674611226,1,0.04,0.0398943590443039,477.071318037013,1.00021131065402,0.350466266506244
141,0,0,0,0,0,0,0,0,0.999993160165789,1,0.04,0.0399303958165543,477.096862183781,1.00031081791442,0.350450166785898
201,0,0,0,0,0,0,0,0,1.00000040665143,1,0.04,0.0399653063831407,477.100217417145,1.00031719204614,0.350450398240282
261,0,0,0,0,0,0,0,0,1.0000023797289,1,0.04,0.0399869168517882,477.101146373671,1.00030621660378,0.350454925776532
321,0,0,0,0,0,0,0,0,1.00000344030697,1,0.04,0.0399993915772282,477.101647388086,1.00028743786349,0.350461873014795
381,0,0,0,0,0,0,0,0,1.00000392894116,1,0.04,0.0400061335335018,477.101876335928,1.00026460296133,0.350470041841149
441,0,0,0,0,0,0,0,0,1.00000395359649,1,0.04,0.0400092510201377,477.101884957746,1.00024073396624,0.350478411529088
501,0,0,0,0,0,0,0,0,1.00000365621561,1,0.04,0.0400101001594716,477.101741104026,1.00021806251444,0.350486249974042
561,0,0,0,0,0,0,0,0,1.0000031743789,1,0.04,0.0400095969171676,477.101510152607,1.00019796636936,0.350493122338624
621,0,0,0,0,0,0,0,0,1.00000261706472,1,0.04,0.0400083681970312,477.101244066204,1.00018110526993,0.350498835489554
681,0,0,0,0,0,0,0,0,1.00000205985869,1,0.04,0.0400068356156374,477.100978488069,1.00016761796908,0.350503366872942
741,-0.0875,-0.0589396865181645,-0.0875,0.0875,0.0868013529086834,-0.0874919286257201,0.0534532615800912,0.0874999999999999,0.997681822861136,1,0.04,0.0387297941083088,475.994196559687,1.00579718907761,0.347733007281461
801,-0.25,-0.168399104337613,-0.25,0.25,0.248003865453381,-0.249976938930629,0.152723604514546,0.25,1.00134790341715,1,0.04,0.0360487452573949,477.731029224708,1.00472638367624,0.349373788818043
861,-0.249888951564851,-0.0220208566198115,-0.249997035973062,0.0750000000000001,0.0737025805739507,-0.249985010304909,0.126995636475454,0.25,1.00688448137734,1,0.04,0.0331491661602505,480.501797121043,0.989168747843313,0.356926921286446
921,-0.249682718756718,0.249824460570391,-0.249991531351605,-0.25,-0.249999805630706,-0.25,0.0792151244028542,0.25,1.00678969859962,1,0.04,0.0301938045138087,480.19662033876,0.928380157063364,0.380056291260007
981,-0.249782592104869,0.249313250708034,-0.249993975061704,-0.249998580239869,-0.249999873659959,-0.249994077823948,0.138989830861855,0.178475333403805,1.00222675962451,1,0.04,0.0285756394158601,478.157987159376,0.911749462522247,0.385345751293489
1041,-0.249968071180004,0.248363860963656,-0.249998513380458,-0.249995943542482,-0.25,-0.249983079496995,0.25,0.0456438097251561,0.997307263683991,0.994559399364745,0.04,0.0279071763600151,475.69573088664,0.898836660188403,0.388868847351071
1101,-0.249974349453001,0.0739365111522111,-0.24999813660892,-0.249997363302614,-0.25,-0.249989001673047,0.249946875483287,0.117168476321351,0.985572050895861,0.979014826121159,0.04,0.0276772261592761,470.114234003592,0.875159244251185,0.394703513700512
1161,-0.249986009102851,-0.249999995640473,-0.24999743689035,-0.25,-0.25,-0.25,0.249848215666533,0.25,0.97073996417066,0.963470252877573,0.04,0.026507559026002,463.178944679179,0.815366507327247,0.417398243495162
1221,-0.0749909059168531,-0.249998844601575,-0.249940822113631,-0.25,-0.0750533169878654,-0.25,0.249896465834405,0.2499974303756,0.937811096143402,0.947925679633988,0.04,0.0321372330254969,447.181561676049,0.815232847784783,0.403048115037528
1281,0.25,-0.249996706957908,-0.24983568038544,-0.25,0.249847665748956,-0.25,0.249986073289024,0.249992658215999,0.920440700032478,0.932381106390402,0.04,0.0396373479460026,439.164265304597,0.923328100192764,0.349482648121157
1341,0.075,-0.0750466234088053,-0.0749577714489271,-0.149052536370344,0.0749012964371144,-0.194187510069528,0.108184236995701,0.0749952278403997,0.918276896313831,0.916836533146816,0.04,0.041468299320573,438.076292099052,0.936114510685923,0.343855083744995
1401,-0.25,0.249860674610957,0.249815488004597,0.0384213246561592,-0.249999103713449,-0.0905357430557937,-0.155162030406184,-0.25,0.910785848148487,0.901291959903231,0.04,0.0480673204269139,434.335191534847,0.880172261768208,0.36258682332153
1461,-0.25,0.249909438497122,0.249879168238694,0.112470977717934,-0.0749994174137415,-0.146347654713788,-0.188333092993192,-0.0751770955995686,0.882527362288053,0.885747386659645,0.04,0.059630843415333,420.763333636992,0.859928155830047,0.359526075972238
1521,-0.25,0.25,0.24999743153059,0.249991761975516,0.25,-0.249998347792921,-0.249936494940491,0.249494012572661,0.866463673860404,0.870202813416059,0.04,0.0668111374119411,413.396319819396,0.903906335294336,0.336045320456037
1581,-0.249901525891377,0.0750000000000001,0.249998330494883,0.249992880038811,0.249974407146482,-0.24999255368063,-0.249958719294546,0.249382011240678,0.860319827656194,0.854658240172473,0.04,0.0631244720890831,410.414951124276,0.885667433711125,0.34049220498264
1641,-0.249718645403935,-0.25,0.25,0.249994956442072,0.249926877561378,-0.249981793186375,-0.249999993094933,0.249174008766996,0.848609411431194,0.839113666928887,0.04,0.0571624777491446,404.705425199499,0.825953111131889,0.360029683915123
1701,-0.0748171195125575,-0.25,0.25,0.249993890926806,0.249952470414896,-0.0750243851461206,-0.0750000534403759,0.249463105696918,0.819785487533536,0.823569093685302,0.04,0.0696639634686688,390.751053839965,0.800585182495009,0.358630553493397
1761,0.25,-0.25,0.25,0.249991912112742,0.25,0.249896515500066,0.249999834489517,0.249999999995345,0.800223346840972,0.808024520441716,0.04,0.0815192430778384,381.845921841836,0.872749625556023,0.321479409379594
1821,0.249944323300947,-0.249988143649594,0.249981111393159,0.0749947428732824,0.075,0.249927684774877,0.249997259995317,0.24999979951568,0.800646091276615,0.79247994719813,0.04,0.0733401419071318,382.015602643183,0.8566126593121,0.327681021762797
1881,0.249840923716992,-0.249966124713127,0.249946032551883,-0.25,-0.25,0.249985570570955,0.249992478791803,0.249999427196303,0.79047804761284,0.776935373954544,0.04,0.0645767556812553,376.929672085644,0.766000915670751,0.361564442736089
1941,0.249836916614011,-0.0749779810635326,0.249964853570891,-0.249999956869657,-0.0750013591367432,0.249772208147658,0.249995111214672,0.170662827873611,0.767277458682339,0.761390800710959,0.04,0.0718118837006563,365.873416363066,0.713805952992713,0.37662172342755
2001,0.249829474851332,0.25,0.249999806891907,-0.249999876770449,0.249996116752162,0.249375963647249,0.25,0.0233234291314686,0.747686298002048,0.745846227467373,0.04,0.0818492916800465,356.571844293697,0.693707678638435,0.377681073544697
2061,0.249889158653366,0.248815470873755,0.249999874479739,-0.0749999224557007,0.249997443440614,0.24957489482128,0.075,-0.0235750772069096,0.736012010929345,0.730301654223787,0.04,0.0759614862723495,351.022973973778,0.677747913275299,0.380559027466049
2121,0.25,0.246615631067871,0.25,0.24999999270026,0.249999907290597,0.249944338430194,-0.0111357612991586,-0.0111357612991586,0.712008521107251,0.714757080980201,0.04,0.0811667650350985,339.569949622835,0.67656407627321,0.368786481013256
2181,0.075,0.247761956433799,0.249924016304928,0.249993715870862,0.074999939738888,0.0749651820024953,-0.00527003722868487,-0.00527003722868487,0.704338904363473,0.699212507736616,0.04,0.0638334608719668,336.099964917059,0.677766910411411,0.364370141524066
2241,-0.25,0.249890846399096,0.249782903728365,0.249982058901981,-0.25,-0.249996108506088,0.249060357821858,0.049771332355314,0.68981128350715,0.68366793449303,0.04,0.0408298967445718,328.923247455811,0.632422417547101,0.382157150169212
2301,-0.249990384637197,0.248717682600234,0.187020638533971,0.0749883382862878,-0.249280957151363,-0.249997299799565,0.111403552156022,0.118533642521994,0.676346291327055,0.668123361249444,0.04,0.0291022859541424,322.667369482096,0.598475101714146,0.396153628027675
2361,-0.249972527534848,0.246538949830918,0.070462146030095,-0.25,-0.247945591861036,-0.249999512201737,-0.0258095274473197,0.246235075688684,0.663520261813922,0.658019388641113,0.04,0.0117001819011528,316.429525947782,0.53150341644842,0.437447175188072
2421,-0.249982092872915,0.247750171029574,0.13315753871909,-0.249989261993398,-0.248664634709673,-0.0750292605846827,-0.0774812825342947,0.244639300531314,0.646886933435369,0.658019388641113,0.04,0.0153197737423974,308.486830874119,0.533820541449099,0.424615676353762
2481,-0.249999857072182,0.249999581827077,0.249591839427223,-0.249969319981137,-0.25,0.249915492418418,-0.132660349491463,0.241675718096197,0.650415614968603,0.658019388641113,0.04,0.0215387865123035,310.41181288838,0.608245982886131,0.374984802742193
2541,-0.074999907096918,0.2499997281876,0.0747351292001718,-0.0749801031613139,-0.0750000508551636,0.0749451223886418,-0.0202767695461332,0.0695892169022679,0.652696716254863,0.658019388641113,0.04,0.0293172392618467,311.230173843252,0.63573778239402,0.359714835010768
2601,0.25,0.25,-0.249998761221494,0.249999870932643,0.249999854699532,-0.249999850523799,0.25,-0.213609385193178,0.652688577013428,0.658019388641113,0.04,0.0478188440983921,311.46132673719,0.674486974976785,0.339301076938832
2661,0.249999158169639,0.0750000592605077,-0.0749996771102222,0.249999916106218,0.249999905554696,-0.0749999160894396,0.249999721634995,-0.216197974170897,0.653419419578638,0.658019388641113,0.04,0.0569380671535645,311.679173079091,0.692489246114266,0.330711597954944
2721,0.249997594770396,-0.249999830684264,0.249998621953568,0.25,0.25,0.2499999621458,0.249999204671415,-0.191777371215925,0.652074890916108,0.658019388641113,0.04,0.0616487956833341,311.168311456781,0.737482774259571,0.310026029783006
2781,0.0749984661239299,-0.249999889944771,0.249999104269819,0.25,0.0750000870910235,0.249999961074636,0.24999948303642,-0.150906837089195,0.661492012395844,0.658019388641113,0.04,0.0530155167140801,315.766673505971,0.74435683560587,0.311702142420065
2841,-0.249999915648078,-0.25,0.25,0.25,-0.249999751168505,0.249999959085331,0.25,-0.1201967355401,0.668734044361497,0.658019388641113,0.04,0.0399934708510804,318.880096105705,0.673924585795673,0.347672858385508
2901,-0.249999777104611,-0.25,0.230656070002477,0.0749999999999999,-0.249999838259528,0.249999971714446,0.249999455555569,-0.0749976934319953,0.663616067771638,0.658019388641113,0.04,0.0341555835130116,316.618052623799,0.644188771635877,0.361141334896279
2961,-0.249999519809599,-0.25,0.194731628578505,-0.25,-0.25,0.249999995168517,0.249998444444482,0.249999959597096,0.660859188550937,0.658019388641113,0.04,0.0299420621906149,315.249228156291,0.6285162204813,0.368546437882387
3021,-0.249999687876239,-0.0750000001416887,0.0390757500079508,-0.249999996615043,-0.249999999984138,0.249999936178785,0.249998500909025,0.24999987002053,0.658751896634238,0.658019388641113,0.04,0.0290666509614695,314.146380809963,0.616193383864982,0.374601667311258
3081,-0.25,0.249999999595175,-0.24999945305165,-0.249999990328694,-0.24999999995468,0.249999826626424,0.249998605771747,0.24999970366405,0.656582567179124,0.658019388641113,0.04,0.0281197241333912,313.32183491286,0.625069390375894,0.368313048742851
3141,-0.0750155990977357,0.249999999736864,-0.249912405247408,-0.249985090353307,-0.249628344852215,0.0750035339794246,0.0749990937516355,0.0750509362402358,0.667787322642487,0.658019388641113,0.04,0.0156115025192287,318.41693207285,0.604838328533507,0.386822320033857
3201,0.249955431149327,0.25,-0.249750745039532,-0.249957418970446,-0.248938128233351,-0.249989580936432,-0.230702617199524,-0.230702617199524,0.655962404944046,0.665175895064244,0.04,4.55243468421812e-09,312.929138957662,0.595779514277059,0.385935843650439
3261,0.0750194309216009,0.157044759196444,-0.247742604327023,-0.249581986956955,-0.249309783351678,-0.174648986090521,-0.25,-0.249905046405451,0.669522212825245,0.685623056273187,0.04,8.7847520350795e-07,319.559412898807,0.694383469600709,0.338148073372026
3321,-0.249861712358461,-0.015586402295873,-0.24401320014665,-0.248884756074758,-0.25,-0.0347307385195441,-0.25,-0.25,0.693715567843961,0.706070217482131,0.04,8.97921654758043e-07,331.235467718595,0.788516344452088,0.308660325612105
3381,-0.24950922568408,0.052938535382796,-0.0711085845351813,-0.0742824341414786,-0.0753780893332295,0.0649250199622963,-0.2499124771998,-0.0750980924811979,0.747601925067009,0.726517378691074,0.04,0.0167020742412616,354.739522774938,0.764430342595493,0.340977982271588
3441,-0.248854607574514,0.180199133928896,0.24999998731469,0.249979020877469,0.248919744762202,0.25,-0.249749934856572,0.249719735768006,0.72014988424686,0.746964539900017,0.04,0.0470042149135264,344.054485712057,1.00048592560821,0.252680028490131
3501,-0.218686822483275,0.204629437053782,0.24999704635844,0.246912617155202,0.248891193509591,0.249944590103649,-0.249833616540302,0.249816207315789,0.761069774399169,0.77036377651018,0.04,0.0527461256945923,363.359151664822,1.07413948683152,0.248559345729037
3561,-0.16266093588526,0.25,0.249991584582546,0.241217867385278,0.248838169754743,0.249841686010425,-0.249989025381515,0.249995368761672,0.793163062172056,0.799245438865464,0.04,0.059358343083448,378.682005073989,1.11966914439418,0.248507576526693
3621,-0.018229611011832,0.0750000000000001,0.150537775371441,0.243704843521113,0.0742448103405828,0.249647823179759,-0.249972706214664,0.180767028166721,0.82769996395809,0.818018519396399,0.04,0.055818742085139,395.142827679684,1.11861033482474,0.259555330364835
3681,0.249999992324535,-0.25,-0.0341621560206108,0.248323513487663,-0.25,0.249287792208521,-0.24994239919051,0.0522001099189544,0.836174827932004,0.818018519396399,0.04,0.0560567627937361,398.82535296039,0.999203636270611,0.293280662499508
3741,0.182221470260252,-0.249998276680083,0.0652943242303518,0.0739110083395661,-0.249999944425168,0.249536046769896,-0.249962516141443,0.12143007144732,0.827329677469452,0.818018519396399,0.04,0.058294055275355,394.685220658296,0.929172205853566,0.312111183204617
3801,0.0563470721408689,-0.249995076228807,0.249999216124996,-0.249997929792614,-0.249999841214765,0.249997090955308,-0.249999876193176,0.25,0.825870932999008,0.818018519396399,0.04,0.0520282253080147,394.01263253381,0.881058874897424,0.328594199017003
3861,0.124125248250695,-0.200477303537352,0.24998870809483,-0.24999671786957,-0.0750056923365317,0.249997608734535,-0.249999914870006,0.249999985662669,0.818857996196808,0.818018519396399,0.04,0.0568335538405825,390.551076837741,0.850622426620538,0.337361630649629
3921,0.249999003883229,-0.108515725681791,0.249969193181664,-0.249994467155346,0.249983441294474,0.249998570324528,-0.249999986698403,0.249999959036197,0.814914562017523,0.818018519396399,0.04,0.0635643007694411,388.866139410887,0.876463049746657,0.326002697121812
3981,0.249999352524099,0.0169643741963051,0.074979975568082,-0.249810773639135,0.24998859354704,0.249998212053842,-0.249999784991289,0.249997264976102,0.82045076196938,0.818018519396399,0.04,0.0585396978181415,391.477529861956,0.872175023228873,0.329805481984154
4041,0.25,0.249998845398483,-0.25,-0.2494696285376,0.249998162016093,0.249997546693996,-0.248277033152663,0.249992261721639,0.822130763495856,0.818018519396399,0.04,0.056203882684179,392.223238296752,0.84681192329764,0.340330626295425
4101,0.249998757134577,0.249999020814935,-0.249999361564917,-0.0746552585494396,0.24999880531046,0.249988840523949,-0.202727304565286,0.249994970119065,0.817873740797934,0.818018519396399,0.04,0.0598477230793463,390.148629694494,0.835375432879859,0.343165060069267
4161,0.249996448955933,0.249999346588344,-0.249998175899761,0.25,0.25,0.249972671922433,-0.150486373839627,0.25,0.815465516489489,0.818018519396399,0.04,0.06346673931907,389.099710885232,0.853832590666623,0.334844258547605
4221,0.24999703876113,0.249999575282424,-0.249996265793788,0.249998695239926,0.249999981061865,0.0749822367495816,-0.0968918926951499,0.0750099559338951,0.826720334201601,0.818018519396399,0.04,0.0525655628923516,394.637697061227,0.843133738498756,0.34391948056848
4281,0.24999813411364,0.25,-0.249992718454124,0.249996272114074,0.249999945891044,-0.25,-0.0566016702619882,-0.0566016702619882,0.824755061807186,0.818018519396399,0.04,0.0467268481691855,393.374345390527,0.771629770864164,0.37458616610286
4341,0.0749987871738658,0.249997081126999,-0.24999526699518,0.249996928900339,0.249990142131972,-0.249999952453969,0.0628577667131261,-0.0301273767379267,0.816492182665252,0.818018519396399,0.04,0.0391079931098945,389.518829966429,0.767804680935504,0.37276263910748
4401,-0.25,0.249991660362854,-0.25,0.249998148646257,0.249971935150838,-0.249999864154197,0.249993778197262,-0.024499106962414,0.81811263682464,0.818018519396399,0.04,0.0249721013188026,390.322479868018,0.776234307573116,0.369475297158914
4461,-0.249999044849635,0.24996577077707,-0.25,0.249996573037754,0.249980664566623,-0.249993890984202,0.24999595582822,0.0557592841543581,0.812277028052729,0.813652288578619,0.04,0.0285406620997435,387.394329738404,0.77674530822985,0.366462295192386
4521,-0.249997270998958,0.249917690117757,-0.25,0.249993646907677,0.249996876338794,-0.249982797954211,0.25,0.249997163387269,0.800941701959372,0.801177343384961,0.04,0.0350142666605789,382.093731501985,0.790578623599077,0.35512358954602
4581,-0.249998226149323,0.249944057259579,-0.0750161245819896,0.249995544148825,0.24999772877463,-0.249988615138513,0.122620381753744,0.249993767537353,0.793202946226617,0.788702398191304,0.04,0.0431684476580108,378.367218323802,0.771295722251559,0.360451847414392
4641,-0.25,0.249993024808679,0.249953929765744,0.249999067596672,0.249999311869755,-0.249999418480789,-0.0758745923713447,0.249987460958938,0.778885534357399,0.776227452997646,0.04,0.0549074102048158,371.482559783043,0.744903663433401,0.366431664733942
4701,-0.0750000000000001,0.131890144316748,0.249969957801591,0.249999377169891,0.249997199042592,-0.249999401533761,-0.0552079025484088,0.249990841920354,0.76538181612337,0.763752507803989,0.04,0.0545548901335605,365.02633912419,0.732424195830546,0.366198192414625
4761,0.25,-0.0874437765968372,0.249999724153879,0.249999952091584,0.249993275220719,-0.24999937006071,-0.0281022482918951,0.249997120848698,0.751745027929707,0.751277562610331,0.04,0.0575169510769297,358.577992212969,0.730392862318167,0.360729605612786
4821,0.25,0.0306603024148188,0.249998947798054,0.0750019786781537,0.249993341224534,-0.249999153856787,-0.0132742353507938,0.249998128551654,0.74185289451351,0.738802617416674,0.04,0.0560141085266458,353.876726014272,0.718512374150572,0.36188653560487
4881,0.25,0.249996449150751,0.249997505994381,-0.249994257661075,0.249993463803049,-0.249998752335217,0.25,0.25,0.72623897019711,0.726327672223016,0.04,0.0599849925501595,346.440427380843,0.718189667433867,0.354441111101532
4941,0.249962756767733,0.208650926556532,0.249998378896347,-0.0749962674796986,0.0799924850010153,-0.0750005598614691,0.249118601334828,0.108045024035305,0.719142230225742,0.713852727029359,0.04,0.0623278612436632,343.046566683654,0.698746588970571,0.360734809931703
5001,0.249893590764951,0.131866384595838,0.25,0.25,-0.235723618488476,0.249996083304062,0.247481718099508,-0.00139862689746086,0.701259359876575,0.701377781835701,0.04,0.0692773023813773,334.477051915072,0.685752865030337,0.358387927869617
5061,0.249930688034916,0.137834012133417,0.249826144707829,0.249989043305957,-0.240703972542816,0.249029023414859,0.0734112721370871,-0.000660397613754785,0.694955899701242,0.688902836642044,0.04,0.0630377131520647,331.581844313355,0.67261182077367,0.362227087222261
5121,0.249999582964852,0.148916748988921,0.249503270593797,0.249968695159877,-0.249953201500876,0.247233055049195,-0.000311684446353066,0.249925697754843,0.676067652296872,0.680794122266166,0.04,0.0669187025565131,322.555112448745,0.680584593000707,0.348238266846084
5181,0.0749997289271536,0.184273376616993,0.107575487780033,0.0749796518539199,-0.24982006804093,0.113297014608082,-0.000258989466434652,0.248167675820296,0.684326737330087,0.680794122266166,0.04,0.0433701228591077,326.730800862713,0.692686937945463,0.346583398019291
5241,-0.25,0.249935685069128,-0.156004680302671,-0.25,-0.249572820186744,-0.135441346211128,0.249515479846246,0.244902777941853,0.690073163689333,0.680794122266166,0.04,0.0175623514792138,328.827942513955,0.607879310251795,0.397471532556415
5301,-0.25,0.249958009796104,-0.188903042196736,-0.249987657958083,-0.249720850652858,-0.175532525663805,0.24968506190006,0.246686805662204,0.687034410497344,0.680794122266166,0.04,0.013592268878528,327.797847794446,0.578175481497296,0.416582578099934
5361,-0.25,0.249999470003347,-0.25,-0.249964737023094,-0.24999576437564,-0.249987573218776,0.25,0.25,0.681845324926085,0.680794122266166,0.04,0.0101191021622425,325.215391245967,0.551210994649608,0.43351875988231
5421,-0.25,0.249999655502176,-0.249995399765714,-0.249977017774597,-0.249997246724785,-0.0752174611732937,0.249999936330716,0.249999979669351,0.668726079062283,0.680794122266166,0.04,0.0145277013309552,318.987465171828,0.572451084364826,0.409439663304775
5481,-0.25,0.25,-0.249986856473469,-0.249999824884531,-0.24999999965891,0.24935560405403,0.249999818087761,0.249999941912432,0.671975336158872,0.680794122266166,0.04,0.0200288382871137,320.55130103101,0.6476797522729,0.363656956565674
5541,-0.0749999999999999,0.249988720757173,-0.0749938268415424,-0.249999885495382,-0.249994047172878,0.0840831682020832,0.249998271390729,0.202753789500978,0.667464551218004,0.680794122266166,0.04,0.0280513135451518,318.017607181508,0.695418048408308,0.336015943029629
5601,0.25,0.249967773591922,0.249993228189178,-0.24999999805839,-0.249982992555962,-0.222851355522962,0.249995398953382,0.115010935022564,0.671935883084159,0.680794122266166,0.04,0.040212216149858,320.690885283755,0.778494960123024,0.30268122814159
5661,0.0750070242052964,0.249979037868417,0.249995598322966,-0.249999998737954,-0.249897407772704,-0.232351927163331,0.0749970093196986,-0.012742816707095,0.692375103114141,0.680794122266166,0.04,0.0360071501806638,330.580184587196,0.770509405196807,0.315248878196582
5721,-0.24997993084201,0.249999957239049,0.25,-0.25,-0.249738464603796,-0.249995845924016,-0.25,-0.249999784205034,0.697015437721541,0.680794122266166,0.04,0.023560744789071,332.301688162165,0.642975596208595,0.379745585594772
5781,-0.0749869550473068,0.249999972205382,0.249997409451066,-0.075,-0.0748300019924676,-0.249986965049664,-0.25,-0.074999859733272,0.6698797189161,0.680794122266166,0.04,0.0485451082159553,319.277908247797,0.635118679025068,0.369375988219787
5841,0.25,0.25,0.249992598431616,0.25,0.25,-0.249970471997297,-0.25,0.25,0.664745325627675,0.680794122266166,0.04,0.0737532284934381,317.345849353025,0.756189225626364,0.30835927335213
5901,0.249989849000145,0.249948128583095,0.0749951889805503,0.249997776479494,0.25,-0.0749828302197524,-0.25,0.249999376207777,0.67762564306408,0.680794122266166,0.04,0.0703800591971861,323.325321527413,0.789215085196418,0.301022540417615
5961,0.24997099714327,0.2498517959517,-0.25,0.249993647084269,0.25,0.249994218795687,-0.25,0.249998217736505,0.682454651826667,0.680794122266166,0.04,0.0692226900573932,325.635175052958,0.790392479087037,0.302721445393374
6021,0.249981053120502,0.0749036673686049,-0.249998510942336,0.249995870604775,0.075048010359044,0.249908237870313,-0.216222690304865,0.0750014463996255,0.693039500004688,0.680794122266166,0.04,0.0570483536379003,330.863871536469,0.75550739789139,0.32178463444725
6081,0.249999728506788,-0.25,-0.249995745549531,0.25,-0.249862827545588,0.249748559008904,-0.169742789469156,-0.169742789469156,0.694414802740987,0.680794122266166,0.04,0.0372312407793608,331.119098693283,0.638220780261249,0.381213232227984
6141,0.249999823529412,-0.0749999999999999,-0.100260234513089,0.25,-0.143161228782853,0.249836563355788,-0.0142629774047695,-0.0142585859689785,0.666764888469344,0.680794122266166,0.04,0.0567187374019492,317.820588573188,0.638056997744579,0.365996749054829
6201,0.25,0.25,0.177820000268874,0.25,0.0549988832050843,0.25,0.249987453040597,0.25,0.663851074981597,0.680794122266166,0.04,0.0754500222930843,316.955739708197,0.775490143659312,0.300314993065458
6261,0.249946649385069,0.075000009000151,0.0280830098287491,0.25,0.123249274083305,0.249999321216574,0.249935038611431,0.075,0.686327910950351,0.680794122266166,0.04,0.0605182276950415,327.66924393805,0.791882738932033,0.304039128364014
6321,0.249847569671625,-0.249999974285283,-0.249999972417197,0.25,0.25,0.249998060618782,0.249837697528693,-0.0253678693665509,0.689787719087453,0.6851645200491,0.04,0.0471434472945395,329.076504217585,0.734957627950239,0.328994963673566
6381,0.249900916353236,-0.179099010014601,-0.249999982071178,0.0750000014968608,0.0751046174469301,0.249998575102301,0.24989450339365,-0.0123928175722123,0.700263615455471,0.697651370857483,0.04,0.0355296245261725,334.291937241448,0.733855516871953,0.334711022744752
6441,0.249999988761943,-0.0474257906547635,-0.25,-0.249999995723255,-0.249701093008771,0.249999530571695,0.25,-0.0205483386703168,0.715116799644893,0.710138221665865,0.04,0.0206383907183131,341.220223266069,0.691550515685999,0.362548013267572
6501,0.24999913051928,-0.11832675097415,-0.249997548449825,-0.249999997220116,-0.249805368062931,0.249999694871601,0.25,-0.0519078971864115,0.724311718162099,0.722625072474248,0.04,0.0154067622977943,345.702878728167,0.684118894475694,0.371300972778878
6561,0.249997536640048,-0.249999962995868,-0.249992995570928,-0.25,-0.249999021734941,0.25,0.25,0.25,0.731142556077651,0.735111923282631,0.04,0.0190119304962771,348.887286599013,0.705662452295425,0.363281105742589
6621,0.249990677041715,-0.249999975947314,-0.249995447121103,-0.24854813004265,-0.24992716640553,0.0752906728218709,0.25,0.249914865321356,0.749548946305413,0.747598774091013,0.04,0.0143393225243726,357.714961553706,0.719177199431817,0.365473482163103
6681,0.249977937787667,-0.25,-0.25,-0.245851800121857,-0.249793720793766,-0.249169506223226,0.25,0.249756758061016,0.759635066174834,0.760085624899396,0.04,0.0100400860675643,362.578810762926,0.697680507403819,0.381856780937279
6741,0.249985659561984,-0.075,-0.199769111746925,-0.123450896402799,-0.0750039834477213,-0.249460179045097,0.25,0.0748418927396604,0.748631138145571,0.772572475707779,0.04,0.0177600996289289,357.429879053993,0.751701106754232,0.349381850536189
6801,0.25,0.25,-0.106483176419786,0.10386506764688,0.249605528766361,-0.25,0.25,-0.25,0.768288667708911,0.785059326516161,0.04,0.0317975360430333,366.826666746705,0.89297476817585,0.301839719169045
6861,0.249899309163094,0.25,-0.156710713923686,0.155012237787537,0.249730017303939,-0.24999733705981,0.20710174768712,-0.0750124552686324,0.788201075955581,0.797546177324544,0.04,0.041824009523017,376.109423258906,0.947517277463024,0.291663278367924
6921,0.249712311894553,0.25,-0.24999042643093,0.249999839477327,0.249961210302299,-0.249992391599458,0.127433564820341,0.249964413518193,0.804016156657316,0.810033028132926,0.04,0.049941508986153,383.784533230648,1.0023806166459,0.2813257495807
6981,0.24981256481245,0.25,-0.249993607116559,0.249999537399978,0.249974786696494,-0.249995054539648,-0.00466221271258382,0.249976868786826,0.825888270195689,0.822519878941309,0.04,0.0528515998197061,394.223306993765,1.00515632325155,0.288179686102636
7041,0.24999874880283,0.25,-0.249999514104155,0.249998976399188,0.25,-0.25,-0.249982942416588,0.25,0.840297132971987,0.835006729749692,0.04,0.0543184003396785,400.942813339682,0.965564550284213,0.305109546920431
7101,0.24999918672184,0.249978016204871,-0.249999684167701,0.249998857030878,0.25,-0.203091595874953,-0.0749889125707822,0.25,0.842778016607314,0.847493580558074,0.04,0.0581376911836376,402.055264325715,0.964849048239151,0.30618298763501
7161,0.25,0.249937189156773,-0.25,0.249998635346875,0.25,-0.115975988214151,0.25,0.25,0.853174689623877,0.859980431366457,0.04,0.0582827620242948,407.241857212153,1.02032928108543,0.293269389810587
7221,0.249988036936818,0.249959171858022,-0.249947540784555,0.249999112975469,0.0750002974971434,-0.162884392339198,0.25,0.249999038940875,0.875219629693999,0.872467282174839,0.04,0.0523002640604296,417.770164738758,1.02743705282155,0.298769922127771
7281,0.24996581981948,0.249999996874626,-0.249850116527301,0.25,-0.249999150008162,-0.25,0.25,0.249997254116786,0.891034414361212,0.884954132983222,0.04,0.0466683375016058,425.150040785423,0.985354097865269,0.317033075894089
7341,0.21125608983662,0.200664112515736,-0.0749025757427458,0.25,-0.249999172351037,-0.25,0.249999931966292,0.0750051115778902,0.903744155261743,0.897440983791605,0.04,0.0445994659220671,431.33912829763,0.959952461677846,0.330159505925893
7401,0.139366591297023,0.109040327277797,0.25,0.25,-0.249999213844948,-0.25,0.249999805617976,-0.159084258899147,0.910990121562161,0.909927834599987,0.04,0.0429543801333145,434.663495000359,0.929458465589315,0.343619543575792
7461,0.00308863554194522,0.147738917317913,0.249997135319918,0.24999982856711,-0.249999451555028,-0.249999644084113,0.249992851648927,-0.0749915614674497,0.917787592900879,0.92241468540837,0.04,0.036838468294921,437.789497645021,0.945112373158207,0.340358472769767
7521,-0.249998996574627,0.219607727392415,0.249991815199765,0.249999510191742,-0.249999893016606,-0.249998983097464,0.249979937134977,0.249987516939642,0.92950556136811,0.934901536216753,0.04,0.0320482623116219,443.639105850484,0.99489297134473,0.327648462898947
7581,-0.249999024513193,0.0552450489021193,0.249993144079656,0.074999681624632,-0.249999143826225,-0.0749998403649723,0.0749872604156436,0.249991874475249,0.95114962042265,0.943017989242201,0.04,0.0263048692575314,454.01394555323,0.992101146879663,0.336254354762866
7641,-0.2499990763991,-0.249999925437001,0.249995611999453,-0.25,-0.249997752472661,0.249998567566798,-0.188327519106416,0.249999967041377,0.954066686321356,0.943017989242201,0.04,0.021598836925926,455.079038933428,0.902403917956374,0.370544640695417
7701,-0.249998730580448,-0.249989991406576,0.249997147799645,-0.24999995825427,-0.24999853910723,0.249998419049484,-0.226383640335042,0.249999609473449,0.946778767989951,0.943017989242201,0.04,0.0216160269834254,451.686505866831,0.871405930252972,0.380865190131551
7761,-0.249998088345808,-0.249971542492929,0.25,-0.249999880726487,-0.25,0.249998143231615,-0.249994986978326,0.249998945418725,0.944571113247126,0.943017989242201,0.04,0.0206539139995137,450.63864693707,0.857446872127693,0.386167650714452
7821,-0.249998757424775,-0.249981468193965,0.0750004446172668,-0.249997259925577,-0.249999794635273,0.249995200782397,-0.249996741289235,0.0749993145221713,0.955128875698709,0.943017989242201,0.04,0.0123540040283834,455.812372977869,0.83014161969711,0.40344895797925
7881,-0.25,-0.249999901638745,-0.249998729664952,-0.249992392723888,-0.249999413243637,0.249989736233849,-0.249999999295209,-0.25,0.953237806515546,0.943017989242201,0.04,0.000633746175831056,454.600620808624,0.731718691982467,0.456499757730511
7941,-0.0750001461451623,-0.0750046597580428,-0.0750093196646935,-0.0749950552705272,-0.228966087164152,0.0750053802975846,-0.075001963099051,-0.0750709961764158,0.906022287371297,0.943017989242201,0.04,0.0191893672111247,432.382127120805,0.782660462689217,0.405928005314722
8001,0.249999582442393,0.24998650373469,0.249971013192929,0.25,-0.189904195873681,-0.249965566441194,0.24999438983667,0.249797153781669,0.910794279852713,0.943017989242201,0.04,0.0445365915860271,434.99392852752,1.05603084496897,0.302664348969078
8061,0.249999049481434,0.249987867407154,0.249981158575404,0.24999995679198,-0.210426759544201,-0.0749776200692646,0.12152517417329,0.249868149958085,0.936485089774916,0.943017989242201,0.04,0.051847917588426,446.919430216971,1.13144069579997,0.290236559509744
8121,0.249998059696795,0.249990399941729,0.25,0.249999876548514,-0.248540092075168,0.249999994621461,-0.117060512058702,0.25,0.943515556999954,0.943017989242201,0.04,0.0630853600537665,450.164657652919,1.13513441669289,0.291392775725144
8181,0.249985835638298,0.0749938008351173,0.249978603226447,0.249999434262583,-0.135651386608595,0.249999996503949,-0.163589332838157,0.249993929997584,0.945938529526882,0.943017989242201,0.04,0.0650564311882637,451.345184310337,1.12455343528758,0.294905853451099
8241,0.249963133815374,-0.24999988322002,0.249938866361277,0.249998612874424,0.0739990664007548,0.25,-0.25,0.249982657135954,0.948215075943014,0.943017989242201,0.04,0.061867778710497,452.377727842264,1.09414407472255,0.30379552928196
8301,0.249976036979993,-0.249992473009841,0.07496026313483,0.249894958305049,-0.0091238307214112,0.221893770238672,-0.249998583826205,0.249988719501753,0.951815847174109,0.943017989242201,0.04,0.0560624125773716,454.217267136745,1.05938459939725,0.315039247233537
8361,0.25,-0.249978711190937,-0.25,0.249702456961924,-0.163494925376862,0.169696486396206,-0.249995953789158,0.249999978181092,0.95390567305098,0.943017989242201,0.04,0.0461273996979755,455.010145897588,0.982036115236234,0.340446048203549
8421,0.249969915680251,-0.0749861622741092,-0.25,0.249804261865483,-0.018771804115756,0.197802627402023,-0.249993640436961,0.249998100102434,0.941670316266843,0.943017989242201,0.04,0.0522241827460565,449.112420861964,0.956639551187809,0.344954178677615
8481,0.249914044800718,0.25,-0.25,0.249993328114949,0.249999706797727,0.249999746412825,-0.249989344211453,0.249994612242069,0.937255216382529,0.943017989242201,0.04,0.0600262431930977,447.244867516547,0.999910813767698,0.32865388960008
8541,0.249943778867672,0.0749999999999999,-0.249996859151139,0.249995663274717,0.249998740385252,0.0749998455708619,-0.170939244334577,0.158693192727839,0.948693137798632,0.943017989242201,0.04,0.0480433756558671,452.781348109488,0.999057048350052,0.333006657758454
8601,0.249998999277729,-0.25,-0.249991026146111,0.25,0.249996945619226,-0.249999970278498,-0.0241319159918069,-0.0108665863700166,0.952647109822074,0.943017989242201,0.04,0.0346011913879135,454.393700631334,0.927956606970012,0.359798468192473
8661,0.249998834857486,-0.0750000000000001,-0.249983636097524,0.0750007265675067,0.0749999570214101,-0.249999963712046,0.00315020459541424,0.0804366670390637,0.944865518691374,0.943017989242201,0.04,0.0320202556946189,450.769355256209,0.905192260184685,0.365904902265778
8721,0.249998529505605,0.25,-0.249969911721577,-0.249997924092838,-0.249994450374534,-0.249999951517206,0.0538169999716822,0.249999851941641,0.945940303566688,0.943017989242201,0.04,0.0287143525472544,451.293817277108,0.891444407399923,0.371980175761819
8781,0.249998974427872,0.249998469797279,-0.249980441751807,-0.249998541068944,-0.170330526637972,-0.249999968486184,-0.0525189386686852,0.127830147730981,0.949723518725523,0.943017989242201,0.04,0.0252750362641636,453.215475011297,0.868438782566343,0.38346011380925
8841,0.249999800712082,0.249995627992227,-0.249999997522234,-0.249999686881714,-0.0223832396986407,-0.25,-0.249999967572225,-0.0990564458031032,0.948839514964041,0.943017989242201,0.04,0.022595223019388,452.573906058764,0.812687981051153,0.409185607508494
8901,0.249999863866392,0.249997158194948,-0.249999861939684,-0.249999796473114,0.0729374204935812,-0.25,-0.074999978921946,-0.151886689772017,0.936565933194127,0.943017989242201,0.04,0.0263590743033202,446.70759828917,0.820108582201112,0.400227254107433
8961,0.249999981152968,0.25,-0.249999610143519,-0.25,0.249961503707708,-0.25,0.25,-0.25,0.935047070722422,0.943017989242201,0.04,0.0317310377434348,446.204062162001,0.883192021475425,0.371221446678198
9021,0.249996334589685,0.0750000640295416,-0.249999746593287,-0.25,0.249954425044957,-0.249993972659739,0.249992625097817,-0.25,0.943617580588339,0.943017989242201,0.04,0.0285529823413008,450.306960480709,0.901091100881213,0.367193204784056
9081,0.249989562400729,-0.249999817058452,-0.25,-0.25,0.249941278956993,-0.249982779027826,0.249978928850906,-0.25,0.945924498918464,0.943017989242201,0.04,0.0244865284972521,451.271060454426,0.870665874311648,0.380838316940517
9141,0.0749935478653324,-0.0750000796639767,-0.249999994745748,-0.075007055830652,0.249961828888222,-0.249988803764523,0.249986300478525,-0.249997476268353,0.935900496186727,0.943017989242201,0.04,0.0296467597922213,446.396481922048,0.886362460921875,0.370053132545839
9201,-0.249999050557548,0.24999943264005,-0.249999984987852,0.249979840483851,0.24999999304622,-0.249999992561245,0.249999990644103,-0.24999278933815,0.937086772210297,0.943017989242201,0.04,0.0349455166259242,447.163634665544,0.939475754855471,0.349732165614524
9261,-0.249999376573407,0.0843323216051731,-0.249998522784082,0.0749870826079249,0.0873131334623,-0.249998288511455,0.249968501146281,-0.115513352846366,0.950479240864012,0.943017989242201,0.04,0.0292543110327253,453.750682428723,0.941881704199733,0.353977458335607
9321,-0.249999982031432,-0.223335170316741,-0.249995807262795,-0.249999467733081,-0.214819605764979,-0.24999512384756,0.249910020650325,0.134234172066947,0.955055428027206,0.943017989242201,0.04,0.0232679900076107,455.712496358864,0.833480608189497,0.401744661192688
9381,-0.249999985138985,-0.057667868570904,-0.249997267702452,-0.249999260252387,-0.227132743621019,-0.24999670268041,0.0749418358508826,0.174751024540693,0.94174063571404,0.943017989242201,0.04,0.0215172515831295,449.402338172618,0.81639597618,0.404472638825414
9441,-0.249999990910155,0.249999977528508,-0.249999979947528,-0.249998874931096,-0.249999999639378,-0.249999634798561,-0.249999078776654,0.249996607706221,0.939920820310157,0.943017989242201,0.04,0.0197115618918908,448.308670470626,0.839063315585522,0.392588054373836
9501,-0.0750136226362196,0.148558648457011,-0.24999995335684,-0.24999898958947,-0.249999695488863,-0.249999695871704,-0.075001787088231,0.249982469201438,0.926748176415851,0.935278041143896,0.04,0.0262284941487264,441.964346646625,0.863822468679649,0.375939029750706
9561,0.249961061301089,-0.0398323912471976,-0.249999903974134,-0.249999202526451,-0.249999130637905,-0.249999809293254,0.249993183190269,0.249956211978269,0.907680649147568,0.913163903720168,0.04,0.0388796570502693,432.984897778447,0.922292366535067,0.344952114018051
9621,0.249971499769855,-0.113384645253387,-0.249999871537331,-0.249999428562095,-0.0750019356153565,-0.24999984101084,0.249995566353642,0.242844541215995,0.890159183447365,0.89104976629644,0.04,0.0473215360259131,424.481057493587,0.924249705527787,0.337461062830065
9681,0.249990885497564,-0.249981688407738,-0.249999811297553,-0.249999848342578,0.249992855140805,-0.249999899914927,0.249999992228478,0.229637152657487,0.871601524298677,0.868935628872711,0.04,0.0543949119304426,415.742121185473,0.921823466359941,0.331383548653951
9741,0.0749999698395053,-0.07498809746503,-0.249998497645536,-0.249999901417193,0.0750150547484322,-0.249999776950284,0.249999601834609,0.0617642736208834,0.862587597764795,0.846821491448983,0.04,0.0547930085081919,411.553328945451,0.869213655393826,0.347899860592137
9801,-0.249983159239747,0.25,-0.249996058006075,-0.249999999984335,-0.249943717408832,-0.249999548587376,0.249998876817424,-0.249999644589953,0.841519901961073,0.824707354025255,0.04,0.0521710650491303,401.189429444296,0.738967672828323,0.398913485358366
9861,-0.0750618616546343,0.249998765235076,-0.249997423743304,-0.0750075869344422,-0.249961989502509,-0.249999531423293,0.0894623984021219,-0.0750014537109625,0.800606105490487,0.802593216601526,0.04,0.0600024507825725,381.655462826569,0.691100466294995,0.405774707463643
9921,0.249791976717718,0.249996472100216,-0.249999960112442,0.249978323015359,-0.249995923390767,-0.24999949954714,-0.208676775797724,0.249995186492876,0.779882851325874,0.780479079177798,0.04,0.0726245156392153,372.019345703258,0.715042040522266,0.382286202934354
9981,0.249863991234834,0.24999770686514,-0.24999414152444,0.0749859766698185,-0.249997350203998,-0.249999674705641,-0.0481401286792163,0.249978177694278,0.761925264406976,0.75836494175407,0.04,0.0711515131267263,363.320181642175,0.689457598101543,0.387201148533515
10041,0.249997732480906,0.25,-0.249983335575294,-0.249999809400471,-0.25,-0.25,0.249999358826584,0.249946589925452,0.742921035049147,0.736250804330341,0.04,0.0684377494519957,354.302965980994,0.656184553477559,0.396737690916808
10101,0.249994401395274,0.0749999999999999,-0.249989168123941,-0.249999872935144,-0.249988096462876,-0.075519312445267,0.249999582581419,0.0749652837013864,0.726311742957688,0.714136666906613,0.04,0.0616568875710617,346.441441149507,0.603696385781221,0.4216634298214
10161,0.249988215093387,-0.25,-0.25,-0.249999990928107,-0.249965989893933,0.24851625015638,0.249999998126113,-0.249999999286163,0.703241350606512,0.692022529482885,0.04,0.0501838955784227,335.154232441128,0.511894866659357,0.481081448630826
10221,0.249992339809615,-0.14080946506855,-0.249992768944756,-0.249999866294538,-0.0749797380381738,0.249035562601647,0.249999998673003,-0.247254681355137,0.668781798824688,0.669908392059156,0.04,0.0534172154437507,318.605665900457,0.481964822278031,0.485727654100871
10281,0.249999999996894,0.0619729569469996,-0.249979339842159,-0.249999634832195,0.24999472969395,0.25,0.249999999688654,-0.205461164689186,0.644980674481282,0.647794254635428,0.04,0.0627065371937317,307.695870895542,0.518088351426214,0.436387715744542
10341,0.0749999999979815,0.0141960142356869,-0.249986570897403,-0.0749997626409271,0.249996420982128,0.249999999135002,0.0750021386311269,-0.0249158166619014,0.62719789254344,0.6256801172117,0.04,0.0561534026567727,299.213596630351,0.513324424228982,0.428296052959081
10401,-0.25,-0.074532593656751,-0.25,0.25,0.249999561945887,0.249999997528578,-0.112763295066374,0.249768791091948,0.611962880078781,0.603565979787971,0.04,0.0452844669937165,291.616702798808,0.490720580675195,0.436649330881415
10461,-0.076216761841832,0.0206661162211633,-0.0751335529496499,0.249999997880035,0.249999715241684,0.249999776182612,-0.0753130795523664,0.249849714209766,0.579331659333329,0.581451842364243,0.04,0.0653179277853457,275.839200935479,0.478136112021146,0.423895802966786
10521,0.246523537594766,0.197463720280147,0.249618420143857,0.249999993942956,0.249999999933877,0.249999365111532,0.249094138080781,0.25,0.550304047200042,0.559337704940514,0.04,0.10581268842246,262.52447652387,0.558405129869283,0.345441951224749
10581,0.247482886708451,0.215690604520207,0.0747522668391589,0.101070279779145,0.249953843461871,0.249998887886327,0.249396579623708,0.0750016051263213,0.548394456612767,0.549220076796272,0.04,0.0879778904132365,261.816368875996,0.572451935498598,0.336056611121809
10641,0.249264535062439,0.249540532394604,-0.24999916072671,-0.175513475096503,0.249868124299576,0.249998001610947,0.249958256774859,-0.0093045452568191,0.559598082660954,0.561381680171074,0.04,0.0576065353163769,267.013231896028,0.571504173697995,0.343295454712295
10701,0.249521908763326,0.241832493541938,-0.249946526480159,-0.201571366095878,0.0749142807947242,0.249998682129051,0.249972791861941,-0.00441384196701159,0.572882601055146,0.573543283545875,0.04,0.0440988371269714,273.508843682196,0.590454114864582,0.340361082462842
10761,0.249999888493545,0.227517564244131,-0.249848777165136,-0.249964592237575,-0.25,0.249999945948386,0.249999785595094,-0.00811104817761847,0.587281127503028,0.585704886920677,0.04,0.0294256825658566,280.209793827985,0.572719755847677,0.359497456962396
10821,0.249999761935443,0.235376112776903,-0.249881161722431,-0.24995684750962,-0.249974597365567,0.0749999648664511,0.249264424938174,-0.0257898073332037,0.598811239597606,0.597866490295479,0.04,0.019042884845749,285.862786512543,0.576976646065378,0.364044156426594
10881,0.249999526898968,0.249970560052051,-0.249941304471694,-0.249942464443418,-0.249927421044477,-0.25,0.24789875514675,0.249051517603537,0.608360570065085,0.610028093670281,0.04,0.0205054387963055,290.286043115166,0.577794681435613,0.369153756341715
10941,0.249999648642875,0.249980864033833,-0.249961547608397,-0.249962601888222,-0.24995280270823,-0.249999985608127,0.248634190845388,0.249383486442299,0.618995976794841,0.622189697045083,0.04,0.0213825537298389,295.412054926218,0.594746402500136,0.364964872601142
11001,0.249999874738703,0.25,-0.24999914200513,-0.25,-0.249999940083772,-0.249999958880363,0.25,0.25,0.630358504317185,0.634351300419885,0.04,0.0230807833104693,300.836285202391,0.618032377591349,0.357662712556711
11061,0.104362223965163,0.25,-0.249999442303334,-0.249997274226735,-0.249999960811022,-0.249999973272236,0.249998338865554,0.075,0.653013037137252,0.646512903794687,0.04,0.0138101901950735,311.863038605986,0.626394537510186,0.365822674551486
11121,-0.166107698899984,0.25,-0.25,-0.249992212076386,-0.249999999304486,-0.25,0.249995253901583,-0.25,0.662423994639197,0.658674507169488,0.04,5.37325753784289e-05,316.064938254231,0.5740406414988,0.404565045100713
11181,-0.0204702308002136,0.0750073030384839,-0.0750000000000001,-0.0749949535595154,-0.0749999995479162,-0.247433393514892,0.0749981248016767,-0.075,0.643179724039454,0.67083611054429,0.04,0.0176648170214861,306.323696675423,0.616379309264336,0.365163380453321
11241,0.249999352813645,-0.24997913417576,0.25,0.249999955114672,0.25,-0.242666838613977,-0.249996543526721,0.25,0.660116285342878,0.682997713919092,0.04,0.0323939660030876,315.278932438315,0.809400535715494,0.286210880727978
11301,0.249999579328869,-0.249986437214244,0.0750026915301589,0.249999887436945,0.230396260424894,-0.0702371131085058,-0.249996487647605,0.25,0.689748636289825,0.695159317293894,0.04,0.0398833010083725,329.255474826518,0.867935445658548,0.278740616644615
11361,0.25,-0.25,-0.249992309913832,0.249999761749738,0.193989315499696,0.249989519973083,-0.249996383872102,0.25,0.707074985380284,0.707320920668696,0.04,0.0467207132643896,337.440587700611,0.874610303688693,0.283489779183306
11421,0.249997527911986,-0.25,-0.249992794868105,0.249999845137329,0.0385932813088691,0.249993187982504,-0.249997649516867,0.075,0.727454646106137,0.719482524043498,0.04,0.0448526022453883,347.337045712703,0.861397069340608,0.296280038541914
11481,0.249992936891387,-0.25,-0.24999369549747,0.25,-0.249999353616952,0.25,-0.25,-0.25,0.741251570078022,0.731644127418299,0.04,0.0394695812751032,353.600146837862,0.780021067718746,0.333089375423472
