time,bias_percent_1,bias_percent_2,bias_percent_3,bias_percent_4,bias_percent_5,bias_percent_6,bias_percent_8,bias_percent_9,normalized_power,power_SP,SP,CV,total_power_MW,fuel_fraction,thermal_efficiency
21,0,0,0,0,0,0,0,0,0.999395965691664,1,0.04,0.0400372363434175,476.843875106871,0.999389211905871,0.350587338838446
81,0.00113681094349181,0.000995429992045956,0.000404788662629585,-0.00853850231765409,0.00619052775889702,-0.00228659989851326,-0.00132745460535796,-0.00297511391748179,0.998982633323212,0.997450926845962,0.04,0.0403376916817984,476.579766066209,0.996590874276001,0.351377031887594
141,0.00438484221061117,0.00383951568360555,0.00156132769871363,-0.032934223225237,0.0238777499271737,-0.00881974246569428,-0.00512018204923771,-0.0114754393960013,0.992861269715515,0.990167860691568,0.04,0.0420191527227816,473.638135394599,0.981192840076716,0.354688386421839
201,0.00763287347773053,0.00668360137516527,0.00271786673479789,-0.0573299441328199,0.0415649720954506,-0.0153528850328753,-0.00891290949311747,-0.0199757648745207,0.985592810756776,0.982884794537175,0.04,0.0428469910395129,470.167508315307,0.964439521185453,0.358205533705897
261,0.0108809047448499,0.00952768706672498,0.00387440577088205,-0.0817256650404028,0.0592521942637276,-0.0218860276000562,-0.0127056369369972,-0.0284760903530401,0.978155349431998,0.975601728382781,0.04,0.0428919199257928,466.618568187831,0.948404912497989,0.361512150119187
321,0.0141289360119694,0.0123717727582847,0.00503094480696632,-0.106121385947986,0.0769394164320045,-0.0284191701672371,-0.016498364380877,-0.0369764158315596,0.970680527541478,0.968318662228387,0.04,0.0424733689984747,463.052182989402,0.933467252181339,0.364489922685683
381,0.0173769672790887,0.0152158584498444,0.00618748384305047,-0.130517106855569,0.0946266386002814,-0.034952312734418,-0.0202910918247567,-0.045476741310079,0.963196926339715,0.961035596073993,0.04,0.0418212850507557,459.481755320297,0.91972389179041,0.3670840202791
441,0.0206249985462081,0.0180599441414042,0.00734402287913474,-0.154912827763152,0.112313860768558,-0.041485455301599,-0.0240838192686365,-0.0539770667885985,0.955719604553381,0.953752529919599,0.04,0.0410843889712978,455.914422614219,0.907165187936796,0.369276466371114
501,0.0238730298133274,0.0209040298329639,0.0085005619152189,-0.179308548670735,0.130001082936835,-0.0480185978687799,-0.0278765467125163,-0.0624773922671179,0.948258975516696,0.946469463765205,0.04,0.0403570762330228,452.355120290393,0.895710256949552,0.371079223707263
561,0.0271210610804468,0.0237481155245237,0.00965710095130316,-0.203704269578317,0.147688305105112,-0.0545517404359608,-0.031669274156396,-0.0709777177456373,0.940823327218627,0.939186397610812,0.04,0.0396964647567229,448.807787842252,0.885236156324397,0.372525423222199
621,0.0303690923475662,0.0265922012160834,0.0108136399873873,-0.2280999904859,0.165375527273389,-0.0610848830031418,-0.0354620016002758,-0.0794780432241568,0.933410232351322,0.931903331456418,0.04,0.0391343409151768,445.271190955079,0.875577848961102,0.373666795445719
681,0.0336171236146854,0.029436286907643,0.0119701790234715,-0.252495711393483,0.183062749441666,-0.0676180255703229,-0.0392547290441556,-0.0879783687026763,0.926024745793756,0.924620265302024,0.04,0.0386806628442016,441.747782887521,0.866589903927251,0.374554854070567
741,0.0368651548818049,0.0322803725992027,0.0131267180595557,-0.276891432301066,0.200749971609943,-0.0741511681375038,-0.0430474564880353,-0.0964786941811957,0.918663915021443,0.91733719914763,0.04,0.0383350886987987,438.236114355605,0.858117606882185,0.375245962051459
801,0.0401131861489242,0.0351244582907624,0.01428325709564,-0.301287153208649,0.218437193778219,-0.0806843107046845,-0.0468401839319151,-0.104979019659715,0.911324510745492,0.910054132993236,0.04,0.0380877672194384,434.734640258224,0.850025499386912,0.375791514186799
861,0.0433612174160436,0.0379685439823222,0.0154397961317242,-0.325682874116232,0.236124415946496,-0.0872174532718656,-0.0506329113757948,-0.113479345138235,0.904002759020441,0.902771066838842,0.04,0.0379238621885783,431.241556555564,0.842199713487824,0.376235864318402
921,0.0454724377396711,0.0398171996818359,0.0161915465051788,-0.341540092706161,0.247621110355876,-0.0914639959405333,-0.0530981842143167,-0.119004556699272,0.897666301071578,0.898037073838487,0.04,0.0373096399413467,428.255334091841,0.838174508179965,0.375424844004323
981,0.0454724377396711,0.039817199681836,0.0161915465051788,-0.341540092706161,0.247621110355876,-0.0914639959405332,-0.0530981842143167,-0.119004556699272,0.896675630535748,0.898037073838487,0.04,0.0354965310237121,427.802120468556,0.845398004765779,0.371823119922262
1041,0.0454724377396711,0.0398171996818359,0.0161915465051788,-0.341540092706161,0.247621110355876,-0.0914639959405332,-0.0530981842143167,-0.119004556699272,0.896614973669363,0.898037073838487,0.04,0.034787349553318,427.775356626961,0.853936402823503,0.368082280194725
1101,0.0454724377396711,0.039817199681836,0.0161915465051788,-0.341540092706161,0.247621110355876,-0.0914639959405332,-0.0530981842143167,-0.119004556699272,0.896713853751024,0.898037073838487,0.04,0.0349311082525577,427.823343405294,0.862129230376396,0.364625286704537
1161,0.0454724377396711,0.039817199681836,0.0161915465051788,-0.341540092706161,0.247621110355876,-0.0914639959405332,-0.0530981842143167,-0.119004556699272,0.896892690159936,0.898037073838487,0.04,0.0355502144354044,427.90913931636,0.869392024740849,0.361651763059225
1221,0.0454724377396711,0.0398171996818359,0.0161915465051788,-0.341540092706161,0.247621110355876,-0.0914639959405332,-0.0530981842143166,-0.119004556699272,0.897112535518483,0.898037073838487,0.04,0.0363871933002536,428.014207809051,0.875401351823744,0.359257339091231
1281,0.0454724377396711,0.039817199681836,0.0161915465051788,-0.341540092706161,0.247621110355877,-0.0914639959405332,-0.0530981842143166,-0.119004556699272,0.897339754622527,0.898037073838487,0.04,0.0372733587417665,428.122560086047,0.880047665327689,0.357451064626306
1341,0.0454724377396711,0.0398171996818359,0.0161915465051788,-0.341540092706161,0.247621110355876,-0.0914639959405332,-0.0530981842143167,-0.119004556699272,0.897549816486496,0.898037073838487,0.04,0.038102758939349,428.222573214596,0.8833887781614,0.35618231731024
1401,0.0454724377396711,0.039817199681836,0.0161915465051788,-0.341540092706161,0.247621110355876,-0.0914639959405332,-0.0530981842143167,-0.119004556699272,0.897728369157151,0.898037073838487,0.04,0.0388156386462985,428.307476814585,0.885589171738518,0.355367767833077
1461,0.0454724377396711,0.039817199681836,0.0161915465051788,-0.341540092706161,0.247621110355876,-0.0914639959405332,-0.0530981842143166,-0.119004556699272,0.897869652208629,0.898037073838487,0.04,0.0393860067504461,428.374581396777,0.886864346021319,0.354912400519802
1521,0.0454724377396711,0.0398171996818359,0.0161915465051788,-0.341540092706161,0.247621110355876,-0.0914639959405333,-0.0530981842143167,-0.119004556699272,0.897973982754134,0.898037073838487,0.04,0.0398113307267617,428.424076696685,0.887439054548031,0.354723538820017
1581,0.0454724377396711,0.039817199681836,0.0161915465051788,-0.341540092706161,0.247621110355876,-0.0914639959405332,-0.0530981842143167,-0.119004556699272,0.898045298428727,0.898037073838487,0.04,0.0401039888078258,428.457863584614,0.887520611018164,0.354718914452262
1641,0.0454724377396711,0.039817199681836,0.0161915465051788,-0.341540092706161,0.247621110355877,-0.0914639959405332,-0.0530981842143166,-0.119004556699272,0.898089387743881,0.898037073838487,0.04,0.0402844920274048,428.478703802645,0.887284974431981,0.354830375413349
1701,0.0454724377396711,0.039817199681836,0.0161915465051788,-0.341540092706161,0.247621110355877,-0.0914639959405332,-0.0530981842143167,-0.119004556699272,0.89811231907546,0.898037073838487,0.04,0.0403764715707393,428.489500643636,0.886871450877726,0.355004768187243
1761,0.0454724377396711,0.039817199681836,0.0161915465051788,-0.341540092706161,0.247621110355876,-0.0914639959405332,-0.0530981842143166,-0.119004556699272,0.898119904721732,0.898037073838487,0.04,0.0404032268432254,428.493019040027,0.886383681943369,0.355203040710275
1821,0.0559528599447675,0.0352091829596901,0.00423291470825507,-0.339110542919387,0.249450348257062,-0.098466023768776,-0.0426226559673198,-0.126367286357617,0.896725834718974,0.894587242913729,0.04,0.0410634796173837,427.776476243744,0.881134160727413,0.35672170592055
1881,0.0858969233879,0.0220434208964161,-0.0299346047115274,-0.332168972100033,0.25467674226045,-0.118471817563756,-0.0126925752616143,-0.147403656810031,0.888148768683443,0.884730583128709,0.04,0.0434697131317818,423.659425357123,0.861342198958115,0.361406387783502
1941,0.115840986831032,0.00887765883314216,-0.0641021241313099,-0.32522740128068,0.259903136263839,-0.138477611358735,0.0172375054440912,-0.168440027262445,0.878289088914879,0.874873923343689,0.04,0.0445838564538725,418.952239580377,0.840155682342386,0.36640333974274
2001,0.145785050274165,-0.00428810323013181,-0.0982696435510925,-0.318285830461326,0.265129530267226,-0.158483405153715,0.0471675861497968,-0.18947639771486,0.868341186672066,0.865017263558669,0.04,0.0446245071519991,414.206524474754,0.819558440370743,0.371357059677229
2061,0.175729113717298,-0.0174538652934058,-0.132437162970875,-0.311344259641972,0.270355924270615,-0.178489198948694,0.0770976668555023,-0.210512768167274,0.858370312230952,0.855160603773649,0.04,0.044111688787971,409.448951740424,0.799543048215699,0.37628125885345
2121,0.20567317716043,-0.0306196273566796,-0.166604682390657,-0.304402688822618,0.275582318274003,-0.198494992743673,0.107027747561208,-0.231549138619688,0.848346527177631,0.845303943988629,0.04,0.0432811707523014,404.666271091986,0.780431145631586,0.380993082752169
2181,0.235617240603562,-0.0437853894199537,-0.20077220181044,-0.297461118003264,0.280808712277391,-0.218500786538653,0.136957828266913,-0.252585509072102,0.838293602869637,0.835447284203609,0.04,0.0422921397702033,399.869887499223,0.762449581520699,0.385356107397745
2241,0.265561304046695,-0.0569511514832276,-0.234939721230222,-0.29051954718391,0.286035106280779,-0.238506580333632,0.166887908972619,-0.273621879524516,0.828234248988025,0.825590624418589,0.04,0.0412673597455757,395.070596927061,0.745681280517884,0.389292596181083
2301,0.295505367489827,-0.0701169135465014,-0.269107240650005,-0.283577976364557,0.291261500284167,-0.258512374128612,0.196817989678324,-0.29465824997693,0.818187818628335,0.815733964633569,0.04,0.0402996878555852,390.277624800034,0.73008744796344,0.392783691665617
2361,0.32544943093296,-0.0832826756097755,-0.303274760069787,-0.276636405545203,0.296487894287555,-0.278518167923591,0.22674807038403,-0.315694620429344,0.808175523199946,0.805877304848549,0.04,0.0394584309228378,385.501477297473,0.715525601546378,0.395872693014935
2421,0.355393494376093,-0.0964484376730494,-0.33744227948957,-0.269694834725849,0.301714288290943,-0.298523961718571,0.256678151089735,-0.336730990881759,0.798211740241568,0.796020645063529,0.04,0.0387953868986729,380.747795900227,0.701689729296959,0.398700659884542
2481,0.385337557819225,-0.109614199736323,-0.371609798909352,-0.262753263906495,0.306940682294331,-0.31852975551355,0.286608231795441,-0.357767361334173,0.788281181966107,0.786163985278509,0.04,0.0383174966253189,376.009969059523,0.688344636973281,0.401372952013273
2541,0.415281621262358,-0.122779961799597,-0.405777318329135,-0.255811693087141,0.31216707629772,-0.33853554930853,0.316538312501146,-0.378803731786587,0.778337893082263,0.776307325493489,0.04,0.03796544797338,371.265864569869,0.675480244095258,0.40385647027572
2601,0.44522568470549,-0.135945723862871,-0.439944837748917,-0.248870122267787,0.317393470301108,-0.358541343103509,0.346468393206852,-0.399840102239001,0.7683781372753,0.766450665708468,0.04,0.0376763601692866,366.513974729854,0.663205666219104,0.406066335875238
2661,0.475169748148623,-0.149111485926145,-0.474112357168699,-0.241928551448434,0.322619864304496,-0.378547136898489,0.376398473912557,-0.420876472691415,0.758411484507456,0.756594005923448,0.04,0.0374282162766878,361.758859686928,0.651580771326994,0.407948736982838
2721,0.494633389386659,-0.157669231267273,-0.496321244791558,-0.237416530415854,0.326017020406698,-0.391550902865225,0.395853026371266,-0.434550113485484,0.748099678124891,0.746737346138428,0.04,0.0373831000864254,356.843757985186,0.641274182555234,0.408873557442311
2781,0.494633389386659,-0.157669231267273,-0.496321244791558,-0.237416530415854,0.326017020406698,-0.391550902865225,0.395853026371266,-0.434550113485484,0.737944414892468,0.736880686353408,0.04,0.0374757828032723,351.993562622497,0.633856428028604,0.408036015856998
2841,0.494633389386659,-0.157669231267273,-0.496321244791558,-0.237416530415854,0.326017020406698,-0.391550902865225,0.395853026371266,-0.434550113485484,0.72794233974537,0.727024026568388,0.04,0.037707778030311,347.222110517028,0.627596600584573,0.406519578179368
2901,0.494633389386659,-0.157669231267273,-0.496321244791558,-0.237416530415854,0.326017020406698,-0.391550902865225,0.395853026371266,-0.434550113485484,0.718023998465408,0.717167366783368,0.04,0.0381095581858448,342.49068537149,0.621876132455459,0.404668641954844
2961,0.494633389386659,-0.157669231267273,-0.496321244791558,-0.237416530415854,0.326017020406698,-0.391550902865225,0.395853026371266,-0.434550113485484,0.708175599802811,0.707310706998348,0.04,0.0386466830058369,337.792506875038,0.616241853936599,0.402766644088703
3021,0.494633389386659,-0.157669231267273,-0.496321244791558,-0.237416530415854,0.326017020406698,-0.391550902865225,0.395853026371266,-0.434550113485484,0.698380387248093,0.697454047213328,0.04,0.0392718872053711,333.119560781002,0.610339047012624,0.401036273656018
3081,0.494633389386658,-0.157669231267273,-0.496321244791558,-0.237416530415854,0.326017020406698,-0.391550902865225,0.395853026371266,-0.434550113485484,0.688620353747668,0.687597387428308,0.04,0.0399334747722038,328.463257414201,0.603919581723841,0.399633935836212
3141,0.494633389386658,-0.157669231267273,-0.496321244791558,-0.237416530415854,0.326017020406698,-0.391550902865225,0.395853026371266,-0.434550113485484,0.678880414237265,0.677740727643288,0.04,0.0405814757366485,323.816330033524,0.596841242962739,0.398652596005169
3201,0.494633389386659,-0.157669231267273,-0.496321244791558,-0.237416530415854,0.326017020406698,-0.391550902865225,0.395853026371266,-0.434550113485484,0.669138079396077,0.667884067858268,0.04,0.041171665068506,319.168314302268,0.58906284143067,0.398118920868109
3261,0.494633389386659,-0.157669231267273,-0.496321244791558,-0.237416530415854,0.326017020406698,-0.391550902865225,0.395853026371266,-0.434550113485484,0.659388035332518,0.658027408073248,0.04,0.0416690274885442,314.516434752749,0.580617069041668,0.398023048030768
3321,0.494633389386658,-0.157669231267273,-0.496321244791558,-0.237416530415854,0.326017020406698,-0.391550902865225,0.395853026371266,-0.434550113485484,0.649619006729342,0.648170748288228,0.04,0.0420499296341156,309.855455460728,0.571603220468402,0.398308116439359
3381,0.494633389386658,-0.157669231267273,-0.496321244791558,-0.237416530415854,0.326017020406698,-0.391550902865225,0.395853026371266,-0.434550113485484,0.639825753591351,0.638314088503207,0.04,0.0423025878248568,305.182889563596,0.562157487252609,0.398893406497876
3441,0.494633389386658,-0.157669231267273,-0.496321244791558,-0.237416530415854,0.326017020406698,-0.391550902865225,0.395853026371266,-0.434550113485484,0.630006285929783,0.628457428718187,0.04,0.0424268593579585,300.497813631987,0.552434611476646,0.399682480799481
3501,0.494633389386658,-0.157669231267273,-0.496321244791558,-0.237416530415854,0.326017020406698,-0.391550902865225,0.395853026371266,-0.434550113485484,0.620161367038514,0.618600768933167,0.04,0.0424331112115616,295.800607026564,0.542590100702552,0.400573182789284
3561,0.494633389386659,-0.157669231267273,-0.496321244791558,-0.237416530415854,0.326017020406698,-0.391550902865225,0.395853026371266,-0.434550113485484,0.61029386171165,0.608744109148147,0.04,0.0423402694074691,291.09265965333,0.532766220027376,0.401466442669875
3621,0.47461321227417,-0.154819320366292,-0.491474454825247,-0.243110941533732,0.329025814949202,-0.37675622074988,0.383362124330065,-0.414122210750143,0.601868187073184,0.602337280287884,0.04,0.0408981775441957,287.181826629481,0.528311675207828,0.399412287631028
3681,0.417412706238488,-0.146676717792058,-0.477626483492931,-0.259380687584812,0.337622370784925,-0.334485700420323,0.347673832783776,-0.355756774363453,0.601002459365916,0.602337280287884,0.04,0.0374425333352913,286.730562530846,0.534625632228736,0.394075001768684
3741,0.360212200202806,-0.138534115217825,-0.463778512160614,-0.275650433635892,0.346218926620649,-0.292215180090765,0.311985541237488,-0.297391337976764,0.600336751089792,0.602337280287884,0.04,0.0353150095672646,286.416092817956,0.545395831192377,0.385869345316674
3801,0.303011694167124,-0.130391512643591,-0.449930540828297,-0.291920179686972,0.354815482456373,-0.249944659761208,0.276297249691199,-0.239025901590074,0.599850906102692,0.602337280287884,0.04,0.0343375899863441,286.185771027428,0.55940717898907,0.375902035952116
3861,0.245811188131443,-0.122248910069358,-0.436082569495981,-0.308189925738052,0.363412038292097,-0.20767413943165,0.240608958144911,-0.180660465203384,0.599561714852915,0.602337280287884,0.04,0.0342003641662267,286.049416725626,0.5755701881105,0.365171984316599
3921,0.188610682095761,-0.114106307495124,-0.422234598163664,-0.324459671789132,0.372008594127821,-0.165403619102093,0.204920666598622,-0.122295028816695,0.599471944135515,0.602337280287884,0.04,0.0346732097149394,286.008103192749,0.592673576503182,0.354582623327452
3981,0.131410176060079,-0.105963704920891,-0.408386626831348,-0.340729417840212,0.380605149963545,-0.123133098772535,0.169232375052334,-0.0639295924300052,0.599560701511778,0.602337280287884,0.04,0.0355635134810118,286.051781343692,0.6095985361073,0.344790600238994
4041,0.0742096700243969,-0.0978211023466576,-0.394538655499031,-0.356999163891291,0.389201705799269,-0.0808625784429779,0.133544083506045,-0.00556415604331573,0.599819059772501,0.602337280287884,0.04,0.0367570984829892,286.176533581372,0.62532829017385,0.336264188528192
4101,0.017009163988715,-0.0896784997724242,-0.380690684166714,-0.373268909942372,0.397798261634992,-0.0385920581134205,0.0978557919597571,0.0528012803433738,0.60035436689814,0.602337280287884,0.04,0.0383323742531043,286.433957238961,0.638443980885155,0.32965250665847
4161,-0.0401913420469667,-0.0815358971981906,-0.366842712834398,-0.389538655993452,0.406394817470716,0.00367846221613706,0.0621675004134685,0.111166716730063,0.600968535100395,0.602337280287884,0.04,0.0401710413745923,286.726513852159,0.647903588640938,0.325171253547276
4221,-0.0973918480826485,-0.0733932946239572,-0.352994741502081,-0.405808402044532,0.41499137330644,0.0459489825456944,0.0264792088671801,0.169532153116753,0.601535127253489,0.602337280287884,0.04,0.041935461735191,286.99655309906,0.653837960193521,0.322523397480094
4281,-0.15459235411833,-0.0652506920497237,-0.339146770169764,-0.422078148095612,0.423587929142164,0.088219502875252,-0.00920908267910852,0.227897589503443,0.602001251122209,0.602337280287884,0.04,0.0434297126860462,287.218013034471,0.656751153706929,0.321340529773177
4341,-0.211792860154012,-0.0571080894754904,-0.325298798837448,-0.438347894146692,0.432184484977888,0.130490023204809,-0.044897374225397,0.286263025890132,0.602341618593453,0.602337280287884,0.04,0.0445506468672935,287.379359061597,0.657357221981,0.321224609254736
4401,-0.268993366189694,-0.0489654869012569,-0.311450827505131,-0.454617640197772,0.440781040813612,0.172760543534367,-0.0805856657716854,0.344628462276822,0.602552174902008,0.602337280287884,0.04,0.0452683364813861,287.478817764511,0.656436452979488,0.321786512057026
4461,-0.326193872225376,-0.0408228843270235,-0.297602856172814,-0.470887386248852,0.449377596649336,0.215031063863924,-0.116273957317974,0.402993898663512,0.602645060895545,0.602337280287884,0.04,0.0456087131921003,287.522277560811,0.65472622050287,0.322675834829606
4521,-0.363374201148569,-0.0355301926537718,-0.288601674806809,-0.481462721182054,0.454965357942556,0.242506902078137,-0.139471346823061,0.44093143231486,0.603516290907968,0.602337280287884,0.04,0.0452351027221225,287.894078154187,0.650737939981732,0.325073284899126
4581,-0.363374201148569,-0.0355301926537718,-0.288601674806809,-0.481462721182054,0.454965357942556,0.242506902078137,-0.139471346823061,0.44093143231486,0.602977284017594,0.602337280287884,0.04,0.0446364191661656,287.67987548713,0.646813190806685,0.32680243985062
4641,-0.363374201148569,-0.0355301926537718,-0.288601674806809,-0.481462721182054,0.454965357942556,0.242506902078137,-0.139471346823061,0.44093143231486,0.602907387210946,0.602337280287884,0.04,0.0438443355177899,287.646456949676,0.643242840074619,0.328578198764836
4701,-0.363374201148569,-0.0355301926537718,-0.288601674806809,-0.481462721182054,0.454965357942556,0.242506902078137,-0.139471346823061,0.44093143231486,0.602809097599634,0.602337280287884,0.04,0.0430106949618887,287.599332102648,0.640195813111848,0.330087987531709
4761,-0.363374201148569,-0.0355301926537717,-0.288601674806809,-0.481462721182054,0.454965357942556,0.242506902078137,-0.139471346823061,0.44093143231486,0.60269004450271,0.602337280287884,0.04,0.0421984857953829,287.542434465966,0.637829003574316,0.331247308294222
4821,-0.363374201148569,-0.0355301926537718,-0.288601674806809,-0.481462721182054,0.454965357942556,0.242506902078137,-0.139471346823061,0.44093143231486,0.602565970767453,0.602337280287884,0.04,0.0414558793525113,287.483253254932,0.636203409624549,0.332025343601627
4881,-0.363374201148569,-0.0355301926537718,-0.288601674806809,-0.481462721182054,0.454965357942556,0.242506902078137,-0.139471346823061,0.44093143231486,0.602452077413265,0.602337280287884,0.04,0.0408188191954237,287.429057809271,0.635291039765505,0.332439497765521
4941,-0.363374201148569,-0.0355301926537718,-0.288601674806809,-0.481462721182054,0.454965357942556,0.242506902078137,-0.139471346823061,0.44093143231486,0.602356534298438,0.602337280287884,0.04,0.0403114096581546,287.383617069039,0.634988611821565,0.332545248087972
5001,-0.363374201148569,-0.0355301926537718,-0.288601674806809,-0.481462721182054,0.454965357942556,0.242506902078137,-0.139471346823061,0.44093143231486,0.602280482192325,0.602337280287884,0.04,0.0399350246587433,287.347485366726,0.635184186813867,0.332401059636122
5061,-0.363374201148569,-0.0355301926537718,-0.288601674806809,-0.481462721182054,0.454965357942556,0.242506902078137,-0.139471346823061,0.44093143231486,0.602225659211479,0.602337280287884,0.04,0.0396808705539501,287.321515120311,0.635752719510417,0.332073789039253
5121,-0.363374201148569,-0.0355301926537718,-0.288601674806809,-0.481462721182054,0.454965357942556,0.242506902078137,-0.139471346823061,0.44093143231486,0.602192450208632,0.602337280287884,0.04,0.039534499447327,287.305837146952,0.636564100427883,0.331632422448852
5181,-0.363374201148569,-0.0355301926537718,-0.288601674806809,-0.481462721182054,0.454965357942556,0.242506902078137,-0.139471346823061,0.44093143231486,0.602179053798923,0.602337280287884,0.04,0.0394777786384606,287.299592477033,0.637495231451613,0.33114083968538
5241,-0.363374201148569,-0.0355301926537718,-0.288601674806809,-0.481462721182054,0.454965357942556,0.242506902078137,-0.139471346823061,0.44093143231486,0.602182378271579,0.602337280287884,0.04,0.0394907454707286,287.301296215372,0.63843888084859,0.330653355295248
5301,-0.363374201148569,-0.0355301926537718,-0.288601674806809,-0.481462721182054,0.454965357942556,0.242506902078137,-0.139471346823061,0.44093143231486,0.602198459332808,0.602337280287884,0.04,0.039553197909925,287.309052735792,0.639310082029456,0.330211681840949
5361,-0.363374201148569,-0.0355301926537718,-0.288601674806809,-0.481462721182054,0.454965357942556,0.242506902078137,-0.139471346823061,0.44093143231486,0.602224085014119,0.602337280287884,0.04,0.0396466378707086,287.321350268608,0.640046658944728,0.329845786053967
5421,-0.357938719108661,-0.0338133236317041,-0.274655690666513,-0.481481223144782,0.438605280842282,0.228143038350818,-0.14187346744061,0.419444483727896,0.603422177430367,0.602337280287884,0.04,0.0390133223719173,287.870239028708,0.638002830384452,0.331534584611755
5481,-0.342408770423207,-0.0289079835686535,-0.234810021694238,-0.481534085895434,0.391862203412929,0.187103427701335,-0.148736669205036,0.358053202050857,0.603827501269615,0.602337280287884,0.04,0.0376589472602236,288.08874872452,0.630004669734818,0.335998396672475
5541,-0.326878821737754,-0.0240026435056028,-0.194964352721963,-0.481586948646086,0.345119125983575,0.146063817051852,-0.155599870969461,0.296661920373819,0.604047973115226,0.602337280287884,0.04,0.035994088344306,288.192211564445,0.620087438324301,0.341494711553713
5601,-0.311348873052301,-0.0190973034425524,-0.155118683749688,-0.481639811396738,0.298376048554221,0.105024206402368,-0.162463072733886,0.23527063869678,0.604075773522739,0.602337280287884,0.04,0.0339761560989521,288.204100865571,0.609627008857375,0.347368659490525
5661,-0.295818924366848,-0.0141919633795018,-0.115273014777413,-0.481692674147389,0.251632971124868,0.0639845957528853,-0.169326274498312,0.173879357019741,0.603949494427066,0.602337280287884,0.04,0.0316982503666601,288.142775259602,0.599626932593036,0.353086635696438
5721,-0.280288975681395,-0.00928662331645114,-0.0754273458051378,-0.481745536898041,0.204889893695514,0.0229449851034024,-0.176189476262737,0.112488075342702,0.603704364894063,0.602337280287884,0.04,0.0292960221678768,288.025015518422,0.590871011013614,0.358172469765679
5781,-0.264759026995941,-0.00438128325340062,-0.035581676832863,-0.481798399648693,0.158146816266161,-0.0180946255460809,-0.183052678027162,0.0510967936656634,0.603375322727992,0.602337280287884,0.04,0.0269230415462357,287.867513774405,0.583935476179339,0.362228378872352
5841,-0.249229078310488,0.000524056809649892,0.00426399213941193,-0.481851262399345,0.111403738836807,-0.059134236195564,-0.189915879791588,-0.0102944880113753,0.603000477564167,0.602337280287884,0.04,0.0247331260544817,287.68847013661,0.579174946519438,0.364978570450128
5901,-0.233699129625035,0.00542939687270064,0.0441096611116869,-0.481904125149997,0.0646606614074533,-0.100173846845047,-0.196779081556013,-0.0716857696884142,0.602619985421736,0.602337280287884,0.04,0.0228631715864282,287.507055602136,0.57670589137014,0.36631001733165
5961,-0.218169180939582,0.0103347369357512,0.0839553300839618,-0.481956987900649,0.0179175839780996,-0.14121345749453,-0.203642283320438,-0.133077051365453,0.602272650143213,0.602337280287884,0.04,0.021415586829438,287.34175145797,0.576407233513238,0.366289094497329
6021,-0.202639232254129,0.0152400769988018,0.123800999056237,-0.482009850651301,-0.028825493451254,-0.182253068144013,-0.210505485084864,-0.194468333042492,0.60199189913203,0.602337280287884,0.04,0.0204453726537936,287.208444105131,0.57794430758888,0.365145447191526
6081,-0.187109283568675,0.0201454170618523,0.163646668028512,-0.482062713401953,-0.0755685708806076,-0.223292678793496,-0.217368686849289,-0.25585961471953,0.601801871785194,0.602337280287884,0.04,0.0199556495593671,287.118570203883,0.580816740906169,0.363225920752649
6141,-0.171579334883222,0.0250507571249029,0.203492337000787,-0.482115576152605,-0.122311648309961,-0.264332289442979,-0.224231888613714,-0.317250896396569,0.601714410479559,0.602337280287884,0.04,0.0199018054089164,287.077668168485,0.584426749639079,0.360930846885959
6201,-0.156049386197769,0.0299560971879534,0.243338005973062,-0.482168438903257,-0.169054725739315,-0.305371900092462,-0.23109509037814,-0.378642178073608,0.601727901980629,0.602337280287884,0.04,0.0202019139294229,287.084867597352,0.588158675304984,0.358649698645892
6261,-0.140519437512316,0.0348614372510041,0.283183674945336,-0.482221301653909,-0.215797803168669,-0.346411510741946,-0.237958292142565,-0.440033459750647,0.601828654070287,0.602337280287884,0.04,0.0207501304636982,287.133548744151,0.591455640056821,0.356710946823634
6321,-0.130424970866771,0.0380499082919869,0.309083359777315,-0.482255662441832,-0.246180803497748,-0.37308725766411,-0.242419373289442,-0.479937792840722,0.602511154208039,0.605471737188598,0.04,0.0217189890810021,287.54446475381,0.600050827859039,0.352104559451435
6381,-0.130424970866771,0.038049908291987,0.309083359777315,-0.482255662441832,-0.246180803497748,-0.37308725766411,-0.242419373289442,-0.479937792840722,0.610213592089661,0.614427328333495,0.04,0.0226536701004641,291.197422641329,0.623728494459661,0.343041464849164
6441,-0.130424970866771,0.038049908291987,0.309083359777315,-0.482255662441832,-0.246180803497748,-0.37308725766411,-0.242419373289442,-0.479937792840722,0.618760579468943,0.623382919478392,0.04,0.0243289809901582,295.280891951291,0.651361430521098,0.333094898637651
6501,-0.130424970866771,0.038049908291987,0.309083359777315,-0.482255662441832,-0.246180803497748,-0.37308725766411,-0.242419373289442,-0.479937792840722,0.627837765224771,0.632338510623288,0.04,0.0267695805798549,299.615440696292,0.679304803997306,0.324081456026982
6561,-0.130424970866771,0.0380499082919869,0.309083359777315,-0.482255662441832,-0.246180803497748,-0.37308725766411,-0.242419373289442,-0.479937792840722,0.637327005746389,0.641294101768185,0.04,0.0296895009461985,304.145392008414,0.704815735690626,0.317073776819551
6621,-0.130424970866771,0.038049908291987,0.309083359777315,-0.482255662441832,-0.246180803497748,-0.37308725766411,-0.242419373289442,-0.479937792840722,0.647056871974549,0.650249692913082,0.04,0.0327708064154115,308.788663423682,0.726080810291369,0.312486359934467
6681,-0.130424970866771,0.038049908291987,0.309083359777315,-0.482255662441832,-0.246180803497748,-0.37308725766411,-0.242419373289442,-0.479937792840722,0.656845122521634,0.659205284057979,0.04,0.0357024704401589,313.458450335655,0.742384827452211,0.310245557285115
6741,-0.130424970866771,0.038049908291987,0.309083359777315,-0.482255662441832,-0.246180803497748,-0.37308725766411,-0.242419373289442,-0.479937792840722,0.666550841884051,0.668160875202875,0.04,0.0382275483842063,318.087997754585,0.75396429067123,0.309992496325393
6801,-0.130424970866771,0.038049908291987,0.309083359777315,-0.482255662441832,-0.246180803497748,-0.37308725766411,-0.242419373289442,-0.479937792840722,0.676061078869927,0.677116466347772,0.04,0.0401944701137674,322.61930934074,0.761657758176183,0.31123265911552
6861,-0.130424970866771,0.038049908291987,0.309083359777315,-0.482255662441832,-0.246180803497748,-0.37308725766411,-0.242419373289442,-0.479937792840722,0.685456888102914,0.686072057492669,0.04,0.0415015728887499,327.105200082866,0.766522791371092,0.313557398165403
6921,-0.130424970866771,0.038049908291987,0.309083359777315,-0.482255662441832,-0.246180803497748,-0.37308725766411,-0.242419373289442,-0.479937792840722,0.694641203825407,0.695027648637566,0.04,0.0422091311381047,331.485696539489,0.769674734934755,0.316455201898532
6981,-0.130424970866771,0.038049908291987,0.309083359777315,-0.482255662441832,-0.246180803497748,-0.37308725766411,-0.242419373289442,-0.479937792840722,0.703674892925392,0.703983239782463,0.04,0.04238600878253,335.794607809187,0.772065725079141,0.319575974072955
7041,-0.130424970866771,0.0380499082919869,0.309083359777315,-0.482255662441832,-0.246180803497748,-0.37308725766411,-0.242419373289442,-0.479937792840722,0.712592429585419,0.712938830927359,0.04,0.0421496846288574,340.048384572957,0.774464789706656,0.32262180344009
7101,-0.130424970866771,0.038049908291987,0.309083359777315,-0.482255662441832,-0.246180803497748,-0.37308725766411,-0.242419373289442,-0.479937792840722,0.721429089513127,0.721894422072256,0.04,0.0416310598797749,344.263849418255,0.777428820567973,0.325375958312241
7161,-0.130424970866771,0.038049908291987,0.309083359777315,-0.482255662441832,-0.246180803497748,-0.37308725766411,-0.242419373289442,-0.479937792840722,0.730217346316577,0.730850013217153,0.04,0.0409562084853948,348.456460257604,0.781312768172437,0.327701383791019
7221,-0.134729867339135,0.0256678575411263,0.293466627661219,-0.472425913750792,-0.235266168738026,-0.374540418450894,-0.228938469279366,-0.468666491212247,0.738834094590982,0.73980560436205,0.04,0.0405359457996805,352.56365596169,0.786872337064184,0.329221310679196
7281,-0.147029571545888,-0.00970943031847537,0.248847393043804,-0.444340917490678,-0.204081497995963,-0.378692306413137,-0.190421600679148,-0.436462772273745,0.747506161994321,0.748761195506946,0.04,0.0403651764177234,356.704032191622,0.794332557711688,0.329959267917065
7341,-0.159329275752642,-0.045086718178077,0.204228158426388,-0.416255921230563,-0.1728968272539,-0.382844194375379,-0.151904732078931,-0.404259053335243,0.756158930842279,0.757716786651843,0.04,0.0401010981419612,360.832265449089,0.8035067525675,0.329967001644924
7401,-0.171628979959395,-0.0804640060376789,0.159608923808971,-0.388170924970448,-0.141712156511837,-0.386996082337621,-0.113387863478714,-0.372055334396742,0.76482840310661,0.76667237779674,0.04,0.0397790598340418,364.96840658128,0.81443219718896,0.32927216053759
7461,-0.183928684166149,-0.115841293897281,0.114989689191555,-0.360085928710334,-0.110527485769774,-0.391147970299864,-0.0748709948784965,-0.33985161545824,0.77354308679261,0.775627968941637,0.04,0.0394589931366578,369.126879779645,0.826915771294886,0.327996396832711
7521,-0.196228388372902,-0.151218581756882,0.0703704545741396,-0.332000932450219,-0.0793428150277106,-0.395299858262106,-0.0363541262782792,-0.307647896519739,0.782305313986665,0.784583560086534,0.04,0.0391872894920235,373.307751821261,0.840662445659869,0.326287200404485
7581,-0.208528092579655,-0.186595869616484,0.0257512199567235,-0.303915936190105,-0.0481581442856474,-0.399451746224348,0.00216274232193769,-0.275444177581237,0.79111933347389,0.79353915123143,0.04,0.0389830838484094,377.513321385738,0.855364449054602,0.324291646364202
7641,-0.220827796786409,-0.221973157476086,-0.0188680146606926,-0.27583093992999,-0.0169734735435843,-0.403603634186591,0.040679610922155,-0.243240458642736,0.799982088416658,0.802494742376327,0.04,0.0388483661199614,381.742109267706,0.870720756465485,0.322140885168427
7701,-0.233127500993162,-0.257350445335687,-0.0634872492781084,-0.247745943669876,0.014211197198479,-0.407755522148833,0.0791964795223721,-0.211036739704234,0.808886653710785,0.811450333521224,0.04,0.0387727056400238,385.990770563965,0.886464723530145,0.319941177566659
7761,-0.245427205199915,-0.292727733195289,-0.108106483895524,-0.219660947409761,0.0453958679405421,-0.411907410111075,0.117713348122589,-0.178833020765733,0.817823697164296,0.820405924666121,0.04,0.0387388022838646,390.254854308604,0.902381534356634,0.317769924286701
7821,-0.257726909406669,-0.328105021054891,-0.15272571851294,-0.191575951149647,0.0765805386826053,-0.416059298073318,0.156230216722807,-0.146629301827231,0.826782930707033,0.829361515811018,0.04,0.0387270101032399,394.529436775851,0.918316815156743,0.315675990684925
7881,-0.270026613613422,-0.363482308914493,-0.197344953130356,-0.163490954889532,0.107765209424668,-0.42021118603556,0.194747085323024,-0.114425582888729,0.835754381026678,0.838317106955914,0.04,0.0387185224372288,398.809779150014,0.934177222066872,0.313683158014137
7941,-0.282326317820176,-0.398859596774094,-0.241964187747772,-0.135405958629417,0.138949880166732,-0.424363073997803,0.233263953923241,-0.0822218639502278,0.844729364586647,0.847272698100811,0.04,0.0386975576156064,403.09174386702,0.949924587120607,0.311795218285666
8001,-0.294626022026929,-0.434236884633696,-0.286583422365188,-0.107320962369303,0.170134550908795,-0.428514961960045,0.271780822523458,-0.0500181450117266,0.853701040863669,0.856228289245708,0.04,0.0386523822592279,407.372076633923,0.965565796388711,0.310001688991157
8061,-0.306925726233683,-0.469614172493298,-0.331202656982604,-0.0792359661091884,0.201319221650858,-0.432666849922287,0.310297691123676,-0.0178144260732249,0.862664645789342,0.865183880390605,0.04,0.0385755796202898,411.648541468743,0.981140523642091,0.308283331570493
8121,-0.314920533968072,-0.492609409602039,-0.360205159483925,-0.060980718540114,0.221589257633199,-0.435365577097745,0.335333655713817,0.00311799123680112,0.870296562822285,0.871005014634788,0.04,0.0389582572182181,415.241474102427,0.992215192583108,0.307503120872272
8181,-0.314920533968072,-0.492609409602039,-0.360205159483925,-0.060980718540114,0.221589257633199,-0.435365577097745,0.335333655713817,0.00311799123680112,0.871539231822523,0.871005014634788,0.04,0.0408110550681474,415.817844127964,0.990973990319305,0.308315630746797
8241,-0.314920533968072,-0.492609409602039,-0.360205159483925,-0.0609807185401139,0.221589257633199,-0.435365577097745,0.335333655713817,0.00311799123680112,0.872153797422379,0.871005014634788,0.04,0.0422566568788855,416.1080996564,0.985160881105954,0.310351384630031
8301,-0.314920533968072,-0.492609409602039,-0.360205159483925,-0.060980718540114,0.221589257633199,-0.435365577097745,0.335333655713817,0.00311799123680112,0.872460735395317,0.871005014634788,0.04,0.043184321522474,416.252436664096,0.976923243648546,0.313076898131291
8361,-0.314920533968072,-0.492609409602039,-0.360205159483925,-0.060980718540114,0.221589257633199,-0.435365577097745,0.335333655713817,0.00311799123680112,0.872536928561727,0.871005014634788,0.04,0.043623861274447,416.287227354636,0.967789478416221,0.31605805704976
8421,-0.314920533968072,-0.492609409602039,-0.360205159483925,-0.0609807185401139,0.221589257633199,-0.435365577097745,0.335333655713817,0.00311799123680112,0.872448143551601,0.871005014634788,0.04,0.0436546835048648,416.243801783492,0.958881745671899,0.31896086823583
8481,-0.314920533968072,-0.492609409602039,-0.360205159483925,-0.0609807185401139,0.221589257633199,-0.435365577097745,0.335333655713817,0.00311799123680112,0.872253279942313,0.871005014634788,0.04,0.043378156965512,416.150201639986,0.950952968401462,0.321547951583015
8541,-0.314920533968072,-0.492609409602039,-0.360205159483925,-0.060980718540114,0.221589257633199,-0.435365577097745,0.335333655713817,0.00311799123680112,0.872001673914635,0.871005014634788,0.04,0.0428993741329898,416.029881602739,0.944439550626789,0.323671928627915
8601,-0.314920533968072,-0.492609409602039,-0.360205159483925,-0.060980718540114,0.221589257633199,-0.435365577097745,0.335333655713817,0.00311799123680112,0.871732236800946,0.871005014634788,0.04,0.0423147953221073,415.901321635738,0.939523047179313,0.325265153447025
8661,-0.314920533968072,-0.492609409602039,-0.360205159483925,-0.060980718540114,0.221589257633199,-0.435365577097745,0.335333655713817,0.00311799123680112,0.871479450430387,0.871005014634788,0.04,0.0417064708691585,415.781026681504,0.936179446415447,0.32633243497335
8721,-0.314920533968072,-0.492609409602039,-0.360205159483925,-0.060980718540114,0.221589257633199,-0.435365577097745,0.335333655713817,0.00311799123680112,0.871270268577012,0.871005014634788,0.04,0.0411459876031095,415.681536531856,0.934178342999178,0.326953217962798
8781,-0.314920533968072,-0.492609409602039,-0.360205159483925,-0.0609807185401139,0.221589257633199,-0.435365577097745,0.335333655713817,0.00311799123680112,0.871099853250009,0.871005014634788,0.04,0.0406676819317719,415.600547045363,0.933279784984914,0.327204243803441
8841,-0.314920533968072,-0.492609409602039,-0.360205159483925,-0.060980718540114,0.221589257633199,-0.435365577097745,0.335333655713817,0.00311799123680112,0.870969554661572,0.871005014634788,0.04,0.0402844720001752,415.538699950777,0.933245501681588,0.327167569543109
8901,-0.314920533968072,-0.492609409602039,-0.360205159483925,-0.060980718540114,0.221589257633199,-0.435365577097745,0.335333655713817,0.00311799123680112,0.870877722408259,0.871005014634788,0.04,0.0399980545618308,415.495486292122,0.933838079875358,0.326925959449659
8961,-0.314920533968072,-0.492609409602039,-0.360205159483925,-0.060980718540114,0.221589257633199,-0.435365577097745,0.335333655713817,0.00311799123680112,0.87082265716026,0.871005014634788,0.04,0.0398023328618432,415.46917624148,0.934833911965511,0.326557021889586
9021,-0.301880543384715,-0.476351015464241,-0.353190689064314,-0.0485901996916449,0.216562123942514,-0.423860765621963,0.336261824165684,-0.000684565501419456,0.869165937021309,0.871005014634788,0.04,0.0405626340213469,414.648572498089,0.938660796321123,0.324583299854613
9081,-0.264623427432264,-0.429898460784816,-0.333149345008283,-0.0131887172674477,0.20219888482627,-0.390989875691157,0.338913734028163,-0.0115490133249066,0.867188188066264,0.871005014634788,0.04,0.0426525798495952,413.731274714584,0.959533611248106,0.31682017930218
9141,-0.227366311479813,-0.383445906105391,-0.313108000952252,0.0222127651567496,0.187835645710027,-0.358118985760351,0.341565643890643,-0.0224134611483937,0.867124530455486,0.871005014634788,0.04,0.0453329598528524,413.707594828821,0.983098353128057,0.309208341560738
9201,-0.190109195527362,-0.336993351425967,-0.293066656896221,0.057614247580947,0.173472406593784,-0.325248095829545,0.344217553753122,-0.0332779089718811,0.867684736396959,0.871005014634788,0.04,0.0487177131882123,413.978616666838,1.00440148998918,0.302848367514773
9261,-0.152852079574912,-0.290540796746543,-0.27302531284019,0.0930157300051441,0.15910916747754,-0.292377205898739,0.346869463615601,-0.0441423567953682,0.86859718661834,0.871005014634788,0.04,0.0525746128682427,414.415840624257,1.02084084641615,0.298286078677643
9321,-0.115594963622461,-0.244088242067118,-0.252983968784159,0.128417212429341,0.144745928361297,-0.259506315967933,0.34952137347808,-0.0550068046188554,0.869672753840248,0.871005014634788,0.04,0.0566585311167473,414.92975891676,1.0310867874571,0.295688230436717
9381,-0.0783378476700108,-0.197635687387694,-0.232942624728128,0.163818694853539,0.130382689245054,-0.226635426037127,0.352173283340559,-0.0658712524423424,0.870832566766272,0.871005014634788,0.04,0.0607783960524441,415.484054634663,1.03455325479459,0.295091150810296
9441,-0.0410807317175602,-0.151183132708269,-0.212901280672097,0.199220177277736,0.11601945012881,-0.193764536106321,0.354825193203038,-0.0767357002658298,0.872329253759818,0.871005014634788,0.04,0.0649166869489473,416.202594085544,1.02999572726655,0.296909460526668
9501,-0.00382361576510948,-0.104730578028845,-0.192859936616066,0.234621659701933,0.101656211012567,-0.160893646175515,0.357477103065518,-0.0876001480893169,0.873690285440751,0.871005014634788,0.04,0.0691354084290083,416.842897091047,1.01606083139163,0.30144450532464
9561,0.0334335001873412,-0.0582780233494201,-0.172818592560035,0.27002314212613,0.0872929718963238,-0.128022756244709,0.360129012927997,-0.098464595912804,0.873760008515855,0.871005014634788,0.04,0.0724523838702207,416.867741504215,0.999137702060326,0.306568563205512
9621,0.0706906161397918,-0.0118254686699956,-0.152777248504004,0.305424624550327,0.0729297327800804,-0.0951518663139028,0.362780922790476,-0.109329043736291,0.87317392441252,0.871005014634788,0.04,0.0742274121628067,416.585816439828,0.984780045628357,0.310827843729501
9681,0.107947732092242,0.0346270860094288,-0.132735904447974,0.340826106974525,0.0585664936638371,-0.0622809763830968,0.365432832652955,-0.120193491559778,0.872488065538723,0.871005014634788,0.04,0.0747277599625878,416.258798904007,0.974490220633363,0.313863358683239
9741,0.145204848044693,0.0810796406888534,-0.112694560391943,0.376227589398722,0.0442032545475938,-0.0294100864522908,0.368084742515434,-0.131057939383266,0.871866531026583,0.871005014634788,0.04,0.0744186195912312,415.962911537526,0.968088515991605,0.31571427386119
9801,0.182461963997144,0.127532195368278,-0.0926532163359117,0.41162907182292,0.0298400154313504,0.00346080347851512,0.370736652377913,-0.141922387206753,0.871366603197925,0.871005014634788,0.04,0.073654261652633,415.726233378029,0.965021117499428,0.316537588663821
9861,0.219719079949594,0.173984750047702,-0.0726118722798806,0.447030554247117,0.0154767763151071,0.0363316934093212,0.373388562240392,-0.15278683503024,0.871156456994607,0.871005014634788,0.04,0.072829779707824,415.627538809835,0.963766725994425,0.316874333750815
9921,0.243936205318687,0.204178910589328,-0.0595849986434606,0.470041517822845,0.00614067088954891,0.0576977718643451,0.375112303651004,-0.159848726115507,0.871569553794532,0.871005014634788,0.04,0.0708268332785646,415.839543055557,0.96245113010772,0.317469329258809
9981,0.243936205318687,0.204178910589328,-0.0595849986434606,0.470041517822845,0.00614067088954891,0.0576977718643451,0.375112303651004,-0.159848726115507,0.872526551225862,0.871005014634788,0.04,0.0670470683404423,416.285984510733,0.954651865656337,0.320406590060835
10041,0.243936205318687,0.204178910589328,-0.0595849986434605,0.470041517822845,0.00614067088954891,0.0576977718643451,0.375112303651004,-0.159848726115507,0.872750222967878,0.871005014634788,0.04,0.0636489946238212,416.389590492632,0.944444474898376,0.323950093669474
10101,0.243936205318687,0.204178910589328,-0.0595849986434605,0.470041517822845,0.00614067088954903,0.0576977718643451,0.375112303651004,-0.100123040169415,0.871317354422078,0.871005014634788,0.04,0.061132670732353,415.700698448358,0.939960607183632,0.324956910712475
10161,0.243936205318687,0.204178910589328,-0.0595849986434606,0.470041517822845,0.00614067088954891,0.0576977718643451,0.375112303651004,-0.048170302658192,0.870914377747626,0.871005014634788,0.04,0.0588034143651188,415.509733597016,0.939672570663695,0.324907194629551
10221,0.243936205318687,0.204178910589328,-0.0595849986434606,0.470041517822845,0.00614067088954891,0.0576977718643451,0.375112303651004,-0.0227537421442694,0.870585447088271,0.871005014634788,0.04,0.0572774869558319,415.354561681174,0.941654379425123,0.32410231285337
10281,0.243936205318687,0.204178910589328,-0.0595849986434605,0.470041517822845,0.00614067088954891,0.0576977718643451,0.375112303651004,-0.0107477939003425,0.870492470656283,0.871005014634788,0.04,0.0563338318204427,415.311940376765,0.944642068206997,0.323044098351957
10341,0.243936205318687,0.204178910589328,-0.0595849986434606,0.470041517822845,0.00614067088954891,0.0576977718643451,0.375112303651004,-0.00507661173597395,0.870538776003985,0.871005014634788,0.04,0.0558252739360423,415.334670276355,0.947575559657948,0.322061648226886
10401,0.243936205318687,0.204178910589328,-0.0595849986434605,0.470041517822845,0.00614067088954903,0.0576977718643452,0.375112303651004,-0.00239774663737848,0.870632424678234,0.871005014634788,0.04,0.0555989660488219,415.379522907242,0.950011876722923,0.32127040793508
10461,0.243936205318687,0.204178910589328,-0.0595849986434605,0.470041517822845,0.00614067088954903,0.0576977718643451,0.375112303651004,-0.00113234612191692,0.870727848681083,0.871005014634788,0.04,0.0555324243654428,415.424964913945,0.951865428466411,0.320679881549694
10521,0.243936205318687,0.204178910589328,-0.0595849986434606,0.470041517822845,0.00614067088954891,0.0576977718643451,0.375112303651004,-0.000534616078533837,0.870807906252721,0.871005014634788,0.04,0.0555436052259808,415.463011425016,0.953202841509106,0.320259272426576
10581,0.243936205318687,0.204178910589328,-0.0595849986434605,0.470041517822845,0.00614067088954903,0.0576977718643451,0.375112303651004,-0.000252269738067412,0.870869040954204,0.871005014634788,0.04,0.0555850712188204,415.492032723101,0.954134778038358,0.319968813277705
10641,0.243936205318687,0.204178910589328,-0.0595849986434605,0.470041517822845,0.00614067088954891,0.0576977718643451,0.375112303651004,-0.000118899403311024,0.870913232047938,0.871005014634788,0.04,0.0556324494168381,415.512995518518,0.954768448624784,0.319772585724309
10701,0.243936205318687,0.204178910589328,-0.0595849986434606,0.470041517822845,0.00614067088954891,0.0576977718643451,0.375112303651004,-5.59000169491294e-05,0.870944056887903,0.871005014634788,0.04,0.0556749874920022,415.527610573206,0.955191628004435,0.319642159141351
10761,0.243936205318687,0.204178910589328,-0.0595849986434606,0.470041517822845,0.00614067088954891,0.0576977718643451,0.375112303651004,-2.61413551797485e-05,0.870965032780735,0.871005014634788,0.04,0.0557091823455249,415.537552543222,0.955470386366423,0.319556549153093
10821,0.232306470753966,0.208140416822228,-0.0548958559968647,0.462664873198384,-0.00404959645688029,0.0610405480776841,0.362702891252542,-1.20844268622351e-05,0.86932895821694,0.865083983162622,0.04,0.0566416243942636,414.68806769875,0.946246691280425,0.322011840705294
10881,0.199078657711904,0.219459006059083,-0.0414983055780198,0.441588745699922,-0.0331646460181067,0.0705913372586527,0.327247427256938,-5.44443413154108e-06,0.855832719647174,0.848166750385006,0.04,0.0611188102412714,408.187083113036,0.902623175599601,0.332282488004353
10941,0.165850844669842,0.230777595295938,-0.0281007551591747,0.42051261820146,-0.0622796955793332,0.0801421264396215,0.291791963261334,-2.30793853634077e-06,0.838523244867551,0.831249517607391,0.04,0.0636216916787219,399.91810662303,0.856685575153963,0.343008031856507
11001,0.13262303162778,0.242096184532793,-0.0147032047403296,0.399436490702999,-0.0913947451405596,0.0896929156205902,0.25633649926573,-8.26369953707446e-07,0.820706877054102,0.814332284829775,0.04,0.0638851995926432,391.417899370024,0.815752824993889,0.35256303143937
11061,0.099395218585718,0.253414773769648,-0.00130565432148467,0.378360363204537,-0.120509794701786,0.0992437048015587,0.220881035270126,-1.26529830097532e-07,0.803032061827298,0.797415052052159,0.04,0.062793534879013,382.986935084532,0.779759583976823,0.360892547570484
11121,0.0661674055436562,0.264733363006504,0.0120918960973604,0.357284235706076,-0.149624844263013,0.108794493982527,0.185425571274521,2.04049668114976e-07,0.785566067457868,0.780497819274543,0.04,0.0609905021050138,374.655418798265,0.747474884755622,0.368290138159814
11181,0.0329395925015942,0.276051952243359,0.0254894465162054,0.336208108207614,-0.178739893824239,0.118345283163496,0.149970107278917,3.60203625214109e-07,0.768263255938157,0.763580586496927,0.04,0.0588140416047527,366.401320287945,0.717810338335726,0.375061077710077
11241,-0.000288220540467705,0.287370541480214,0.0388869969350503,0.315131980709153,-0.207854943385465,0.127896072344465,0.114514643283313,4.33965181661395e-07,0.751072264500199,0.746663353719312,0.04,0.0564062445838183,358.200219158071,0.689994887738951,0.381447392512787
11301,-0.0335160335825295,0.298689130717069,0.0522845473538954,0.294055853210691,-0.236969992946692,0.137446861525433,0.079059179287709,4.08989886004375e-07,0.734063668549057,0.729746120941696,0.04,0.0537725220560498,350.084358414349,0.663553367175306,0.387660477267171
