time,bias_percent_1,bias_percent_2,bias_percent_3,bias_percent_4,bias_percent_5,bias_percent_6,bias_percent_8,bias_percent_9,normalized_power,power_SP,SP,CV,total_power_MW,fuel_fraction,thermal_efficiency
11,0,0,0,0,0,0,0,0,0.99974658770948,1,0.04,0.0400258988551552,477.000381681477,0.998527684904415,0.351004991412489
71,-0.00508461188034676,-0.00133490931075471,-0.00649023893699359,-0.000747269060895405,0.00327525403915217,0.00211351231009326,0.00139944536325527,-0.000201846932668161,0.999514049490379,0.99866315151262,0.04,0.0399824069389945,476.850712192753,0.9986165060071,0.350863645735438
131,-0.0328188585004202,-0.00861623282396272,-0.041891542229686,-0.00482328212032462,0.0211402760708918,0.0136417612742384,0.00903278370828394,-0.00130283020176734,0.994188888382585,0.991371250672365,0.04,0.0408278897591297,474.273684211303,0.983369800756239,0.3543780688171
191,-0.0605531051204937,-0.0158975563371706,-0.0772928455223785,-0.00889929517975372,0.0390052981026313,0.0251700102383836,0.0166661220533127,-0.00240381347086645,0.987065280201461,0.98407934983211,0.04,0.0410377996438274,470.870621032213,0.965170782904828,0.358469412409274
251,-0.088287351740567,-0.0231788798503785,-0.112694148815071,-0.0129753082391828,0.0568703201343709,0.0366982592025288,0.0242994603983414,-0.00350479673996563,0.979683085175732,0.976787448991854,0.04,0.0404633241217862,467.347799102829,0.947199867584391,0.362537761959541
311,-0.11602159836064,-0.0304602033635866,-0.148095452107763,-0.017051321298612,0.0747353421661104,0.048226508166674,0.0319327987433701,-0.00460578000906474,0.972249174530136,0.969495548151599,0.04,0.0394498465264984,463.800911789799,0.930019212076708,0.366432811002572
371,-0.143755844980714,-0.0377415268767945,-0.183496755400456,-0.0211273343580413,0.0926003641978499,0.0597547571308189,0.0395661370883989,-0.00570676327816386,0.964782004686342,0.962203647311344,0.04,0.0382538080238924,460.237965747556,0.913808213410637,0.370068449472239
431,-0.171490091600787,-0.0450228503900024,-0.218898058693148,-0.0252033474174704,0.11046538622959,0.0712830060949641,0.0471994754334275,-0.00680774654726304,0.957273388175077,0.954911746471089,0.04,0.037004940370502,456.655261784801,0.898807504934567,0.373315869813827
491,-0.199224338220861,-0.0523041739032103,-0.25429936198584,-0.0292793604768996,0.128330408261329,0.0828112550591094,0.0548328137784562,-0.00790872981636215,0.949734918550758,0.947619845630834,0.04,0.0357688027039853,453.058576406433,0.885241500325233,0.376051449264006
551,-0.226958584840934,-0.0595854974164182,-0.289700665278533,-0.0333553735363287,0.146195430293069,0.0943395040232546,0.062466152123485,-0.00900971308546133,0.942209324715586,0.940327944790579,0.04,0.034604789479735,449.46838804258,0.873127069306714,0.378247769710628
611,-0.254692831461007,-0.0668668209296261,-0.325101968571225,-0.0374313865957579,0.164060452324808,0.1058677529874,0.0700994904685136,-0.0101106963545604,0.934719966246241,0.933036043950324,0.04,0.03356711854616,445.89539876223,0.862266473180907,0.379967251178568
671,-0.282427078081081,-0.0741481444428341,-0.360503271863918,-0.041507399655187,0.181925474356548,0.117396001951545,0.0777328288135425,-0.0112116796236596,0.927225952902077,0.925744143110069,0.04,0.032655558253422,442.319783927992,0.852582159860118,0.381201674941621
731,-0.310161324701154,-0.0814294679560421,-0.39590457515661,-0.0455834127146161,0.199790496388287,0.12892425091569,0.0853661671585711,-0.0123126628927587,0.919702167219983,0.918452242269813,0.04,0.0318283644463852,438.729993880603,0.844230489143334,0.381848395285532
791,-0.337895571321228,-0.0887107914692499,-0.431305878449302,-0.0496594257740453,0.217655518420027,0.140452499879835,0.0929995055035998,-0.0134136461618579,0.912165158345754,0.911160341429558,0.04,0.031065548324891,435.134069018801,0.837333272195931,0.381838236461173
851,-0.365629817941301,-0.095992114982458,-0.466707181741995,-0.0537354388334745,0.235520540451766,0.15198074884398,0.100632843848629,-0.0145146294309569,0.90463417177834,0.903868440589303,0.04,0.0303709250648212,431.541144753114,0.831891026342374,0.381162745076506
911,-0.388279452681028,-0.101938529184911,-0.495618246097693,-0.0570641828320083,0.250110308444354,0.161395485498032,0.106866736830402,-0.0154137657673879,0.897874102130306,0.897913388236428,0.04,0.0296113996018099,428.332133292596,0.828896487769548,0.379695135397545
971,-0.388279452681028,-0.101938529184911,-0.495618246097693,-0.0570641828320083,0.250110308444354,0.161395485498032,0.106866736830402,-0.015413765767388,0.895368448829568,0.897913388236428,0.04,0.0285465832786715,427.173217308769,0.841756830042853,0.372882535504341
1031,-0.388279452681028,-0.101938529184911,-0.495618246097693,-0.0570641828320083,0.250110308444354,0.161395485498032,0.106866736830402,-0.015413765767388,0.894786424972881,0.897913388236428,0.04,0.0281498444266434,426.899972592683,0.859599140605278,0.364909214911982
1091,-0.388279452681028,-0.101938529184911,-0.495618246097693,-0.0570641828320083,0.250110308444354,0.161395485498032,0.106866736830402,-0.015413765767388,0.894646906332569,0.897913388236428,0.04,0.0285657997438026,426.836386580945,0.879099561852346,0.356761554324826
1151,-0.388279452681028,-0.101938529184911,-0.495618246097694,-0.0570641828320083,0.250110308444354,0.161395485498032,0.106866736830402,-0.015413765767388,0.894837587722428,0.897913388236428,0.04,0.0295912092157492,426.929605551707,0.898086991672317,0.349295139578744
1211,-0.388279452681028,-0.101938529184911,-0.495618246097694,-0.0570641828320083,0.250110308444354,0.161395485498032,0.106866736830402,-0.015413765767388,0.895260803279066,0.897913388236428,0.04,0.0310145210813284,427.132952817879,0.914960459143279,0.343016829378927
1271,-0.388279452681028,-0.101938529184911,-0.495618246097694,-0.0570641828320083,0.250110308444354,0.161395485498032,0.106866736830402,-0.015413765767388,0.895814144794425,0.897913388236428,0.04,0.032641646698796,427.397593032684,0.928730738946216,0.338140295872047
1331,-0.388279452681028,-0.101938529184911,-0.495618246097693,-0.0570641828320083,0.250110308444354,0.161395485498032,0.106866736830402,-0.0154137657673879,0.896405595956098,0.897913388236428,0.04,0.0343075446636087,427.679757693975,0.938989059180085,0.334666960669024
1391,-0.388279452681028,-0.101938529184911,-0.495618246097693,-0.0570641828320082,0.250110308444354,0.161395485498032,0.106866736830402,-0.0154137657673879,0.896964222796002,0.897913388236428,0.04,0.0358831151985117,427.945797969994,0.945799017641317,0.332463968087497
1451,-0.388279452681028,-0.101938529184911,-0.495618246097694,-0.0570641828320083,0.250110308444354,0.161395485498032,0.106866736830402,-0.015413765767388,0.897443855110466,0.897913388236428,0.04,0.0372776578370703,428.173880112894,0.949552248722159,0.331326353042557
1511,-0.388279452681028,-0.101938529184911,-0.495618246097693,-0.0570641828320083,0.250110308444354,0.161395485498032,0.106866736830402,-0.015413765767388,0.897821320586918,0.897913388236428,0.04,0.0384373804348946,428.353119640011,0.950824728952698,0.33102145413817
1571,-0.388279452681028,-0.101938529184911,-0.495618246097694,-0.0570641828320083,0.250110308444354,0.161395485498032,0.106866736830402,-0.015413765767388,0.898091731845476,0.897913388236428,0.04,0.0393409414722171,428.481296832555,0.950256519834597,0.331318501162206
1631,-0.388279452681028,-0.101938529184911,-0.495618246097694,-0.0570641828320083,0.250110308444354,0.161395485498032,0.106866736830402,-0.0154137657673879,0.898262819791405,0.897913388236428,0.04,0.0399931382995532,428.56218848074,0.948464333195593,0.33200721635232
1691,-0.388279452681028,-0.101938529184911,-0.495618246097693,-0.0570641828320083,0.250110308444354,0.161395485498032,0.106866736830402,-0.015413765767388,0.898349698692241,0.897913388236428,0.04,0.0404177413497016,428.603039545959,0.945986865688676,0.332908448160089
1751,-0.388279452681028,-0.101938529184911,-0.495618246097693,-0.0570641828320082,0.250110308444354,0.161395485498032,0.106866736830402,-0.0154137657673879,0.898370673644464,0.897913388236428,0.04,0.040650401208283,428.612599674918,0.943257909983948,0.333879038438479
1811,-0.377463144800631,-0.0959399852763813,-0.487889125341325,-0.0612552045865773,0.246940286851291,0.160926649002491,0.111474892506269,-0.0171689362421874,0.897888147050145,0.896513431592948,0.04,0.0413580015503389,428.247165812454,0.938847284507379,0.33516157241193
1871,-0.318465101816651,-0.0632206548662193,-0.44573028485204,-0.0841153232478624,0.229649259980041,0.158369359026813,0.136610287101907,-0.0267425933774571,0.888983048098217,0.888877304446692,0.04,0.0451035294719293,424.072771346818,0.937490452532837,0.332374893463568
1931,-0.259467058832671,-0.0305013244560571,-0.403571444362755,-0.106975441909148,0.212358233108792,0.155812069051136,0.161745681697545,-0.0363162505127268,0.881528899877782,0.881241177300436,0.04,0.0487312595309776,420.519490796449,0.935940898038814,0.330135616877257
1991,-0.200469015848691,0.00221800595410491,-0.361412603873471,-0.129835560570433,0.195067206237542,0.153254779075458,0.186881076293183,-0.0458899076479967,0.874380623011005,0.87360505015418,0.04,0.0524316302847148,417.111351416413,0.932050517832797,0.328826820542521
2051,-0.141470972864711,0.0349373363642671,-0.319253763384186,-0.152695679231718,0.177776179366292,0.15069748909978,0.212016470888821,-0.0554635647832663,0.867474960028453,0.865968923007924,0.04,0.0562874129334134,413.817513346397,0.924189765373924,0.329004916727506
2111,-0.0824729298807313,0.0676566667744291,-0.277094922894901,-0.175555797893003,0.160485152495042,0.148140199124102,0.237151865484459,-0.0650372219185359,0.860436550651699,0.858332795861668,0.04,0.0601759025915957,410.456814397666,0.912236710413883,0.330608946177007
2171,-0.0234748868967511,0.100375997184591,-0.234936082405617,-0.198415916554289,0.143194125623792,0.145582909148424,0.262287260080097,-0.0746108790538058,0.853071683174462,0.850696668715412,0.04,0.0635405064835047,406.941142849359,0.898040093161029,0.332958840474806
2231,0.0355231560872289,0.133095327594753,-0.192777241916332,-0.221276035215574,0.125903098752542,0.143025619172746,0.287422654675735,-0.0841845361890755,0.845577365025516,0.843060541569156,0.04,0.0661418669869146,403.36521911665,0.882827863528381,0.335719905496906
2291,0.094521199071209,0.165814658004916,-0.150618401427047,-0.244136153876859,0.108612071881292,0.140468329197069,0.312558049271373,-0.0937581933243452,0.838158530851668,0.8354244144229,0.04,0.0680784893147039,399.827510944316,0.866639926013854,0.338991381251194
2351,0.153519242055189,0.198533988415078,-0.108459560937763,-0.266996272538144,0.0913210450100418,0.137911039221391,0.337693443867011,-0.103331850459615,0.830851296678238,0.827788287276644,0.04,0.0696155161554383,396.335672839814,0.848580237255004,0.343182336374856
2411,0.212517285039169,0.23125331882524,-0.0663007204484782,-0.289856391199429,0.0740300181387919,0.135353749245713,0.362828838462649,-0.112905507594885,0.823378078249694,0.820152160130388,0.04,0.0705164696314992,392.774051548749,0.82916516352826,0.348061844607155
2471,0.271515328023149,0.263972649235402,-0.0241418799591935,-0.312716509860714,0.056738991267542,0.132796459270035,0.387964233058287,-0.122479164730154,0.815858634224092,0.812516032984132,0.04,0.0704783260586925,389.18611442311,0.808943825376303,0.353503443600214
2531,0.330513371007129,0.296691979645564,0.0180169605300913,-0.335576628522,0.0394479643962921,0.130239169294357,0.413099627653925,-0.132052821865424,0.808216615433877,0.804879905837876,0.04,0.0694042391452121,385.538351088981,0.788418850629852,0.359306656021934
2591,0.389511413991109,0.329411310055726,0.0601758010193759,-0.358436747183285,0.0221569375250421,0.12768187931868,0.438235022249563,-0.141626479000694,0.800296158615249,0.79724377869162,0.04,0.0675394755641844,381.757191077358,0.768992709725842,0.364770476259501
2651,0.448509456975089,0.362130640465888,0.102334641508661,-0.38129686584457,0.0048659106537923,0.125124589343002,0.463370416845201,-0.0910025115181427,0.790480446372438,0.789607651545364,0.04,0.0663809468932827,377.071064470292,0.758066075758786,0.365486063460704
2711,0.496691192078673,0.388851426967521,0.136764361241576,-0.399965962751286,-0.00925509462439516,0.123036135862865,0.483897655764972,-0.0429860867244489,0.781559870224062,0.781971524399108,0.04,0.065366292149886,372.826576481484,0.758162924784942,0.361325819379521
2771,0.496691192078673,0.38885142696752,0.136764361241576,-0.399965962751286,-0.00925509462439527,0.123036135862865,0.483897655764972,-0.0203048383658717,0.774190756333995,0.774335397252852,0.04,0.0635423978157422,369.337765105191,0.759098740324536,0.357503355527484
2831,0.496691192078673,0.388851426967521,0.136764361241576,-0.399965962751286,-0.00925509462439527,0.123036135862865,0.483897655764972,-0.00959103168466789,0.766929455402394,0.766699270106596,0.04,0.0629938433951459,365.84325710752,0.758056054107231,0.354607903294163
2891,0.496691192078673,0.388851426967521,0.136764361241576,-0.399965962751286,-0.00925509462439527,0.123036135862865,0.483897655764972,-0.00453019785079116,0.759536527501509,0.75906314296034,0.04,0.0630521823117618,362.31592820065,0.755333221372068,0.352454870879424
2951,0.496691192078673,0.388851426967521,0.136764361241576,-0.399965962751286,-0.00925509462439527,0.123036135862865,0.483897655764972,-0.00213963997133974,0.752099695577895,0.751427015814084,0.04,0.0633863265976785,358.767420550138,0.751298820394793,0.35087705359639
3011,0.496691192078673,0.388851426967521,0.136764361241576,-0.399965962751286,-0.00925509462439516,0.123036135862865,0.483897655764972,-0.00101042574427469,0.744611454111146,0.743790888667828,0.04,0.0638366418373229,355.194385154422,0.746271847358833,0.349722609084811
3071,0.496691192078673,0.388851426967521,0.136764361241576,-0.399965962751286,-0.00925509462439527,0.123036135862865,0.483897655764972,-0.000477025243262265,0.737078613933533,0.736154761521572,0.04,0.0643238782955185,351.600158704758,0.740539227202215,0.348863609734259
3131,0.496691192078673,0.388851426967521,0.136764361241576,-0.399965962751286,-0.00925509462439527,0.123036135862865,0.483897655764972,-0.000225065882802136,0.729512574806098,0.728518634375316,0.04,0.0648137057589602,347.99018183553,0.734323577194667,0.348204351973096
3191,0.496691192078673,0.38885142696752,0.136764361241576,-0.399965962751286,-0.00925509462439527,0.123036135862865,0.483897655764972,-0.000106049272948588,0.721923235327907,0.72088250722906,0.04,0.065294574374922,344.369155219839,0.727783720888314,0.347677498649851
3251,0.496691192078673,0.388851426967521,0.136764361241576,-0.399965962751286,-0.00925509462439527,0.123036135862865,0.483897655764972,-4.98300739668257e-05,0.71431787924115,0.713246380082804,0.04,0.0657649277918424,340.740534773075,0.721029435759273,0.347236589464112
3311,0.496691192078673,0.388851426967521,0.136764361241576,-0.399965962751286,-0.00925509462439527,0.123036135862865,0.483897655764972,-2.32741307416514e-05,0.706701554687521,0.705610252936548,0.04,0.0662268479496246,337.106715324204,0.714135922650691,0.346849602099821
3371,0.496691192078673,0.38885142696752,0.136764361241576,-0.399965962751286,-0.00925509462439527,0.123036135862865,0.483897655764972,-1.07300509014468e-05,0.699077720309351,0.697974125790292,0.04,0.0666832582988855,333.469334760427,0.707154666733921,0.346494358254771
3431,0.496691192078673,0.388851426967521,0.136764361241576,-0.399965962751286,-0.00925509462439527,0.123036135862865,0.483897655764972,-4.80467526319042e-06,0.691448704996121,0.690337998644036,0.04,0.0671368753970953,329.829498328475,0.700121064107485,0.346155332512724
3491,0.496691192078673,0.388851426967521,0.136764361241576,-0.399965962751286,-0.00925509462439527,0.123036135862865,0.483897655764972,-2.00573927890881e-06,0.683816116202169,0.68270187149778,0.04,0.0675898973640364,326.187965328542,0.693059564433625,0.345821546598222
3551,0.496691192078673,0.388851426967521,0.136764361241576,-0.399965962751286,-0.00925509462439527,0.123036135862865,0.483897655764972,-6.83621809507423e-07,0.676181057753097,0.675065744351524,0.04,0.0680440199764915,322.545263421832,0.685987048269818,0.345485185008428
3611,0.493220423503084,0.390116400349863,0.139003845206394,-0.390812244109251,-0.0117137659112619,0.124234601508532,0.481332669280746,-5.91007012316506e-08,0.668795981689987,0.668829573848748,0.04,0.0683459956413378,319.048502007943,0.680776704641205,0.344355243085289
3671,0.474288958545325,0.397016255162641,0.151219212287216,-0.340882869698149,-0.025124700203262,0.130771686848535,0.467341833912242,2.35900782152866e-07,0.666884995213876,0.668829573848748,0.04,0.0667531319719465,318.16863679534,0.690592317169361,0.338524652513338
3731,0.455357493587566,0.403916109975419,0.163434579368037,-0.290953495287048,-0.0385356344952622,0.137308772188538,0.453350998543738,3.75248954770011e-07,0.667062903875774,0.668829573848748,0.04,0.0659476162956253,318.258732140906,0.701870406235505,0.333179347604063
3791,0.436426028629807,0.410815964788197,0.175649946448859,-0.241024120875946,-0.0519465687872623,0.143845857528541,0.439360163175234,4.41072058399723e-07,0.667409987622717,0.668829573848748,0.04,0.0661331528655027,318.423528958939,0.71104531683071,0.329050493943151
3851,0.417494563672048,0.417715819600974,0.187865313529681,-0.191094746464845,-0.0653575030792625,0.150382942868544,0.42536932780673,4.72164543432532e-07,0.66761668143082,0.668829573848748,0.04,0.0667340965746235,318.521038054552,0.718676343558632,0.325656273665887
3911,0.398563098714289,0.424615674413752,0.200080680610503,-0.141165372053743,-0.0787684373712626,0.156920028208548,0.411378492438227,4.86851523720696e-07,0.667714735184661,0.668829573848748,0.04,0.0674286735432222,318.567203954823,0.725527740289406,0.32262774886449
3971,0.37963163375653,0.43151552922653,0.212296047691325,-0.0912359976426419,-0.0921793716632629,0.163457113548551,0.397387657069723,4.93789129053861e-07,0.667758681091181,0.668829573848748,0.04,0.0681076072515052,318.587894838259,0.732025848182283,0.319784588650984
4031,0.36070016879877,0.438415384039308,0.224511414772147,-0.0413066232315405,-0.105590305955263,0.169994198888554,0.383396821701219,4.97066206221149e-07,0.667778855959678,0.668829573848748,0.04,0.0687498288361495,318.597398230083,0.738363945631354,0.317049023029311
4091,0.341768703841012,0.445315238852086,0.236726781852969,0.00862275117956108,-0.119001240247263,0.176531284228557,0.369405986332715,4.98614180521304e-07,0.667788237401174,0.668829573848748,0.04,0.069359131097937,318.601816231496,0.744627496905565,0.314386474867774
4151,0.322837238883252,0.452215093664863,0.24894214893379,0.0585521255906625,-0.132412174539263,0.18306836956856,0.355415150964211,4.99345388335957e-07,0.667791965056525,0.668829573848748,0.04,0.0699424977807952,318.603559589763,0.750858662443428,0.311779175666582
4211,0.303905773925493,0.459114948477641,0.261157516014612,0.108481500001764,-0.145823108831263,0.189605454908563,0.341424315595707,4.99690784811955e-07,0.667792257125012,0.668829573848748,0.04,0.0705051772412979,318.603677627414,0.757081808485894,0.309216492756691
4271,0.284974308967734,0.466014803290419,0.273372883095434,0.158410874412866,-0.159234043123264,0.196142540248566,0.327433480227203,4.99853937780566e-07,0.667790321972848,0.668829573848748,0.04,0.0710505478336267,318.602740437574,0.763312466488296,0.306691562372566
4331,0.266042844009975,0.472914658103197,0.285588250176256,0.208340248823967,-0.172644977415264,0.202679625588569,0.313442644858699,4.99931005420268e-07,0.667786942934695,0.668829573848748,0.04,0.071580793563293,318.601119401393,0.769560755272441,0.304199896140987
4391,0.247111379052216,0.479814512915974,0.297803617257078,0.258269623235069,-0.186055911707264,0.209216710928572,0.299451809490195,4.99967409422841e-07,0.667782663487026,0.668829573848748,0.04,0.0720973860274527,318.599071949483,0.775833098277125,0.301738605803724
4451,0.228179914094457,0.486714367728752,0.3100189843379,0.30819899764617,-0.199466845999264,0.215753796268575,0.285460974121691,4.99984605374456e-07,0.667777850416552,0.668829573848748,0.04,0.0726013675806391,318.596772698811,0.782133377981868,0.299305865939981
4511,0.212719217712287,0.492349249159187,0.319994867453904,0.348974653415236,-0.210419109004397,0.221092415962911,0.274035125237413,4.99992728128303e-07,0.667794704268732,0.668829573848748,0.04,0.0729521615334637,318.606697336791,0.788438734664314,0.296921485545847
4571,0.212719217712287,0.492349249159187,0.319994867453904,0.348974653415236,-0.210419109004397,0.221092415962911,0.274035125237413,4.99996565027332e-07,0.66807047562816,0.668829573848748,0.04,0.072753612752814,318.73892504456,0.793628601250957,0.295102214904337
4631,0.212719217712287,0.492349249159187,0.319994867453904,0.348974653415236,-0.210419109004397,0.221092415962911,0.274035125237413,4.999983774415e-07,0.668350721242996,0.668829573848748,0.04,0.0727864384820157,318.871982415421,0.797034163876992,0.293963967867063
4691,0.212719217712287,0.492349249159187,0.319994867453904,0.348974653415236,-0.210419109004397,0.221092415962911,0.274035125237413,4.99999233561271e-07,0.66853661453109,0.668829573848748,0.04,0.0729071916501551,318.959946647314,0.799127047076813,0.293274968179393
4751,0.212719217712287,0.492349249159187,0.319994867453904,0.348974653415236,-0.210419109004397,0.221092415962911,0.274035125237413,4.99999637961698e-07,0.66864687431693,0.668829573848748,0.04,0.0730272577665484,319.012083693238,0.800419819038742,0.292849155845562
4811,0.212719217712287,0.492349249159187,0.319994867453904,0.348974653415236,-0.210419109004397,0.221092415962911,0.274035125237413,4.99999828986026e-07,0.668711988804079,0.668829573848748,0.04,0.0731188676772048,319.04288701567,0.80124230484302,0.29257679036382
4871,0.212719217712287,0.492349249159187,0.319994867453904,0.348974653415237,-0.210419109004397,0.221092415962911,0.274035125237413,4.99999919219102e-07,0.668751998848425,0.668829573848748,0.04,0.073181898299606,319.061829009044,0.801780562633959,0.29239773435947
4931,0.212719217712287,0.492349249159187,0.319994867453904,0.348974653415236,-0.210419109004397,0.221092415962911,0.274035125237413,4.99999961841987e-07,0.668777679137695,0.668829573848748,0.04,0.0732235838530717,319.073994396022,0.802139133495228,0.292278170963364
4991,0.212719217712287,0.492349249159187,0.319994867453904,0.348974653415236,-0.210419109004397,0.221092415962911,0.274035125237413,4.99999981975516e-07,0.668794638886257,0.668829573848748,0.04,0.0732508786984095,319.082031278303,0.802380078868277,0.29219776297429
5051,0.212719217712287,0.492349249159187,0.319994867453904,0.348974653415236,-0.210419109004397,0.221092415962911,0.274035125237413,4.99999991485877e-07,0.668805981681043,0.668829573848748,0.04,0.073268780200396,319.087407000401,0.802542624969306,0.292143503353967
5111,0.212719217712287,0.492349249159187,0.319994867453904,0.348974653415236,-0.210419109004397,0.221092415962911,0.274035125237413,4.99999995978232e-07,0.668813590304797,0.668829573848748,0.04,0.0732805629660328,319.091012982067,0.802652608640146,0.292106773357011
5171,0.212719217712287,0.492349249159187,0.319994867453904,0.348974653415236,-0.210419109004397,0.221092415962911,0.274035125237413,4.9999999810026e-07,0.668818689188977,0.668829573848748,0.04,0.0732883280822634,319.093429448967,0.802727349579337,0.292081787570888
5231,0.212719217712287,0.492349249159187,0.319994867453904,0.348974653415236,-0.210419109004397,0.221092415962911,0.274035125237413,4.99999999102631e-07,0.668822100443915,0.668829573848748,0.04,0.0732934332288356,319.095046077207,0.802778498322741,0.292064657369238
5291,0.212719217712287,0.492349249159187,0.319994867453904,0.348974653415236,-0.210419109004397,0.221092415962911,0.274035125237413,4.99999999576115e-07,0.668824380055069,0.668829573848748,0.04,0.0732967681142625,319.096126389508,0.80281387587762,0.292052775728047
5351,0.212719217712287,0.492349249159188,0.319994867453904,0.348974653415237,-0.210419109004397,0.221092415962911,0.274035125237413,4.99999999799772e-07,0.668825902878808,0.668829573848748,0.04,0.0732989222352635,319.096848061382,0.802838717273991,0.292044399535177
5411,0.214380518788972,0.482850813424613,0.317664401615979,0.347902621298366,-0.203024626866054,0.2220821227455,0.266987771604896,4.99999999905419e-07,0.668934103357386,0.668829573848748,0.04,0.073136393683661,319.155465264692,0.802719064209123,0.292141587326964
5471,0.223442161025433,0.431041163963297,0.304952769772751,0.342055173388165,-0.162691087929633,0.227480523377803,0.228547660882076,4.99999999955324e-07,0.669457760693585,0.668829573848748,0.04,0.0723357571006684,319.40076099765,0.799778492792685,0.293441072758629
5531,0.232503803261894,0.379231514501982,0.292241137929522,0.336207725477963,-0.122357548993213,0.232878924010106,0.190107550159255,4.99999999978896e-07,0.669655701696176,0.668829573848748,0.04,0.0716202059256186,319.493648918266,0.795130652276306,0.295242184403383
5591,0.241565445498356,0.327421865040667,0.279529506086294,0.330360277567762,-0.0820240100567928,0.238277324642409,0.151667439436435,4.99999999990031e-07,0.669731325615402,0.668829573848748,0.04,0.0707995547053355,319.529193079748,0.789841778869729,0.297252226869669
5651,0.250627087734817,0.275612215579351,0.266817874243065,0.324512829657561,-0.0416904711203726,0.243675725274713,0.113227328713614,4.99999999995291e-07,0.669765649138147,0.668829573848748,0.04,0.0698540174778742,319.545386720759,0.784284426720749,0.299373694459771
5711,0.259688729971278,0.223802566118036,0.254106242399837,0.318665381747359,-0.00135693218395238,0.249074125907016,0.0747872179907938,4.99999999997776e-07,0.669785022636634,0.668829573848748,0.04,0.0687957776741501,319.554553888794,0.778586689691558,0.301573177725774
5771,0.26875037220774,0.17199291665672,0.241394610556608,0.312817933837158,0.038976606752468,0.254472526539319,0.0363471072679732,0.000813724572865909,0.669797131825199,0.668829573848748,0.04,0.0676418693235842,319.560294599603,0.772803397470428,0.30383546584758
5831,0.277812014444201,0.120183267195405,0.22868297871338,0.306970485926957,0.0793101456888883,0.259870927171622,4.99999999999504e-07,0.0570910928965592,0.668548062769338,0.668829573848748,0.04,0.0674466293216082,318.958755564756,0.772768991594903,0.303277029323791
5891,0.286873656680662,0.0683736177340892,0.215971346870151,0.301123038016755,0.119643684625309,0.265269327803925,4.99999999999766e-07,0.113368461220253,0.667718723573084,0.668829573848748,0.04,0.0676870682015225,318.567768954316,0.778624619444012,0.300627273901576
5951,0.295935298917124,0.0165639682727738,0.203259715026923,0.295275590106554,0.159977223561729,0.270667728436228,4.99999999999889e-07,0.169645829543946,0.667823476356895,0.668829573848748,0.04,0.0681879658914313,318.620152602464,0.785021025536046,0.298226772713924
6011,0.304996941153585,-0.0352456811885418,0.190548083183695,0.289428142196352,0.200310762498149,0.276066129068531,4.99999999999948e-07,0.225923197867639,0.668001923878628,0.668829573848748,0.04,0.0690552034493937,318.704842122136,0.790322579068454,0.296304978430083
6071,0.314058583390046,-0.0870553306498572,0.177836451340466,0.283580694286151,0.240644301434569,0.281464529700834,4.99999999999975e-07,0.282200566191333,0.668102409462045,0.668829573848748,0.04,0.0700098430984074,318.752157402308,0.794851831942314,0.29466030200969
6131,0.323120225626507,-0.138864980111173,0.165124819497238,0.27773324637595,0.280977840370989,0.286862930333137,4.99999999999988e-07,0.338477934515026,0.668138360521748,0.668829573848748,0.04,0.0708877240402935,318.768918439756,0.79904823225437,0.29312823306322
6191,0.332181867862969,-0.190674629572488,0.152413187654009,0.271885798465748,0.32131137930741,0.29226133096544,4.99999999999994e-07,0.394755302838719,0.668137917974329,0.668829573848748,0.04,0.0716356921990403,318.768507956338,0.803184763920692,0.291618199648736
6251,0.34124351009943,-0.242484279033804,0.139701555810781,0.266038350555547,0.36164491824383,0.297659731597744,4.99999999999997e-07,0.451032671162413,0.668120408838125,0.668829573848748,0.04,0.0722531249469211,318.76007369573,0.807398819463477,0.290088481560202
6311,0.348643851259207,-0.284795492760545,0.129320389805478,0.261262934762216,0.394583975041907,0.302068425447458,4.99999999999999e-07,0.496992521960096,0.668002390907275,0.666528729145184,0.04,0.0732544702504591,318.674789007304,0.808250222030579,0.289705373494937
6371,0.348643851259207,-0.284795492760545,0.129320389805478,0.261262934762216,0.394583975041907,0.302068425447458,4.99999999999999e-07,0.496992521960096,0.65935451695306,0.653978667125743,0.04,0.0800770491620233,314.483144761897,0.779215985715812,0.29654745170068
6431,0.348643851259207,-0.284795492760545,0.129320389805478,0.261262934762216,0.394583975041907,0.302068425447458,5e-07,0.496992521960096,0.64641187280452,0.641428605106301,0.04,0.0854758964053691,308.295987674454,0.747140593107865,0.303193730120048
6491,0.348643851259207,-0.284795492760545,0.129320389805478,0.261262934762216,0.394583975041907,0.302068425447458,5e-07,0.496992521960096,0.632912192084845,0.62887854308686,0.04,0.0884730992035444,301.855582004039,0.720389532661872,0.307883555901744
6551,0.348643851259207,-0.284795492760545,0.129320389805478,0.261262934762216,0.394583975041907,0.302068425447458,5e-07,0.496992521960096,0.619606886554172,0.616328481067418,0.04,0.0900973235281882,295.509719211559,0.698677014472048,0.310777801253642
6611,0.348643851259207,-0.284795492760545,0.129320389805478,0.261262934762216,0.394583975041907,0.302068425447458,5e-07,0.496992521960096,0.606550952035265,0.603778419047977,0.04,0.0911677469886592,289.282483076461,0.680487653828157,0.312360826100849
6671,0.348643851259207,-0.284795492760545,0.129320389805478,0.261262934762216,0.394583975041907,0.302068425447458,5e-07,0.496992521960096,0.593679594618659,0.591228357028535,0.04,0.0921131885824444,283.142747771807,0.664568919278915,0.313054601999532
6731,0.348643851259207,-0.284795492760545,0.129320389805478,0.261262934762216,0.394583975041907,0.302068425447458,5e-07,0.496992521960096,0.580929597726453,0.578678295009094,0.04,0.0931151908252567,277.060483054662,0.650071516794783,0.313161327749561
6791,0.348643851259207,-0.284795492760545,0.129320389805478,0.261262934762216,0.394583975041907,0.302068425447458,5e-07,0.496992521960096,0.568256069677787,0.566128232989652,0.04,0.094232309352442,271.014415662916,0.636453568728005,0.312881829610216
6851,0.348643851259207,-0.284795492760545,0.129320389805478,0.261262934762216,0.394583975041907,0.302068425447458,5e-07,0.496992521960096,0.555629646674139,0.553578170970211,0.04,0.0954708013765918,264.990637968837,0.623378767004912,0.312344024194329
6911,0.348643851259207,-0.284795492760545,0.129320389805478,0.261262934762216,0.394583975041907,0.302068425447458,5e-07,0.496992521960096,0.543031753078499,0.541028108950769,0.04,0.096818901614301,258.980355705004,0.610642211369932,0.311626711829288
6971,0.348643851259207,-0.284795492760545,0.129320389805478,0.261262934762216,0.394583975041907,0.302068425447458,5e-07,0.496992521960096,0.530450907186649,0.528478046931328,0.04,0.0982617721742678,252.978135011424,0.598120899819873,0.310776867492108
7031,0.348643851259207,-0.284795492760545,0.129320389805478,0.261262934762216,0.394583975041907,0.302068425447458,5e-07,0.496992521960096,0.517880105784413,0.515927984911886,0.04,0.0997869053551427,246.98066759889,0.585741955329428,0.309821322794356
7091,0.348643851259207,-0.284795492760545,0.129320389805478,0.261262934762216,0.394583975041907,0.302068425447458,5e-07,0.496992521960096,0.505315191357671,0.503377922892445,0.04,0.101385544289725,240.985981147682,0.573462603330271,0.308774447643214
7151,0.348643851259207,-0.284795492760545,0.129320389805478,0.261262934762216,0.394583975041907,0.302068425447458,5e-07,0.496992521960096,0.492753680454405,0.490827860873004,0.04,0.103052395388394,234.992906625294,0.561258000347187,0.307642891606699
7211,0.340973967094013,-0.275443513950364,0.128132897633541,0.261279362723298,0.394221389990625,0.300952400206874,5e-07,0.491366639319489,0.480307524896336,0.478277798853562,0.04,0.104623498101594,229.065822217833,0.548975865201291,0.306592636089889
7271,0.299138235283865,-0.224432720440286,0.121655667604795,0.261368969783746,0.392243653347273,0.294864989803688,5e-07,0.460680006734362,0.468310200526928,0.46572773683412,0.04,0.106175069720637,223.331613862655,0.533362976774735,0.307667777678314
7331,0.257302503473717,-0.173421926930208,0.115178437576049,0.261458576844193,0.390265916703921,0.288777579400501,5e-07,0.429993374149235,0.455695838003289,0.453177674814679,0.04,0.107611817196283,217.311577324222,0.517389882101581,0.308616831970511
7391,0.215466771663569,-0.122411133420129,0.108701207547303,0.261548183904641,0.388288180060568,0.282690168997315,5e-07,0.399306741564108,0.44299781711943,0.440627612795238,0.04,0.108614770959205,211.253326991466,0.502237101322504,0.309064726373713
7451,0.173631039853421,-0.0714003399100515,0.102223977518557,0.261637790965088,0.386310443417216,0.276602758594129,5e-07,0.368620108978981,0.430319157578386,0.428077550775796,0.04,0.10934770144769,205.204579943509,0.48791172713146,0.309029877083712
7511,0.131795308043273,-0.0203895463999734,0.095746747489811,0.261727398025536,0.384332706773864,0.270515348190943,5e-07,0.337933476393854,0.417670357299767,0.415527488756355,0.04,0.109955787152359,199.170052787747,0.474238225966637,0.308590219528663
7571,0.0899595762331254,0.0306212471101047,0.0892695174610651,0.261817005085983,0.382354970130512,0.264427937787756,5e-07,0.307246843808727,0.405044621628774,0.402977426736913,0.04,0.110517640398139,193.146463662914,0.461061839058743,0.30780966983467
7631,0.0481238444229775,0.0816320406201826,0.0827922874323189,0.261906612146431,0.380377233487159,0.25834052738457,0.00781130676824524,0.2765602112236,0.392344049368497,0.390427364717472,0.04,0.111429251254331,187.074824066695,0.448381122509492,0.306565092591161
7691,0.00628811261282959,0.132642834130261,0.076315057403573,0.261996219206879,0.378399496843807,0.252253116981384,0.0510193590707704,0.245873578638473,0.379118290449223,0.37787730269803,0.04,0.112930900194483,180.776099130849,0.439598224447452,0.302161938078524
7751,-0.0355476191973184,0.183653627640339,0.069837827374827,0.262085826267326,0.376421760200454,0.246165706578198,0.0942274113732956,0.215186946053346,0.366531950223927,0.365327240678589,0.04,0.114552340435797,174.772954021182,0.431777726891546,0.297418971458602
7811,-0.0773833510074663,0.234664421150417,0.063360597346081,0.262175433327774,0.374444023557102,0.240078296175011,0.137435463675821,0.184500313468218,0.354038666245794,0.352777178659147,0.04,0.116748588614439,168.812493687651,0.423702222701846,0.292751089017531
7871,-0.119219082817614,0.285675214660495,0.056883367317335,0.262265040388221,0.37246628691375,0.233990885771825,0.180643515978346,0.153813680883091,0.341530673677195,0.340227116639706,0.04,0.119348014897341,162.844702912819,0.415325127333609,0.28809790859225
7931,-0.161054814627762,0.336686008170573,0.050406137288589,0.262354647448669,0.370488550270397,0.227903475368639,0.223851568280871,0.123127048297964,0.328992210142134,0.327677054620264,0.04,0.122187368573866,156.862361547006,0.40681534374776,0.283319261132893
7991,-0.20289054643791,0.387696801680651,0.043928907259843,0.262444254509117,0.368510813627045,0.221816064965453,0.267059620583396,0.0924404157128373,0.316425008827105,0.315126992600823,0.04,0.125185381449759,150.866332931154,0.39835084412498,0.278279534797897
8051,-0.244726278248058,0.438707595190729,0.0374516772310971,0.262533861569564,0.366533076983693,0.215728654562267,0.310267672885921,0.0617537831277103,0.304076918947945,0.302576930581381,0.04,0.128628015111777,144.978148474405,0.389351675605633,0.273599423073456
8111,-0.278892125893012,0.480366409890626,0.0321619393742878,0.26260704066893,0.364917925391622,0.210757269399664,0.345554248932984,0.0366930331831898,0.292057405039819,0.292327713265504,0.04,0.131403294189565,139.278471102228,0.381682136696495,0.26812470534608
8171,-0.278892125893012,0.480366409890626,0.0321619393742878,0.26260704066893,0.364917925391622,0.210757269399664,0.345554248932984,0.0366930331831898,0.288928288315201,0.292327713265504,0.04,0.119665732009189,137.846167178613,0.399096445299021,0.253788250375247
8231,-0.278892125893012,0.480366409890626,0.0321619393742878,0.26260704066893,0.364917925391622,0.210757269399664,0.345554248932984,0.0366930331831898,0.289614805594135,0.292327713265504,0.04,0.111567007624382,138.183965346076,0.417397051434663,0.243255658029082
8291,-0.278892125893012,0.480366409890626,0.0321619393742878,0.26260704066893,0.364917925391622,0.210757269399664,0.345554248932984,0.0366930331831898,0.290671578886202,0.292327713265504,0.04,0.108978145143997,138.686765487541,0.429406994049446,0.23731248221744
8351,-0.278892125893012,0.480366409890626,0.0321619393742878,0.26260704066893,0.364917925391622,0.210757269399664,0.345554248932984,0.0366930331831898,0.29141376154958,0.292327713265504,0.04,0.108987616101309,139.037953955527,0.43622723372328,0.234193733057715
8411,-0.278892125893012,0.480366409890626,0.0321619393742878,0.26260704066893,0.364917925391622,0.210757269399664,0.345554248932984,0.0366930331831898,0.291832298177342,0.292327713265504,0.04,0.109720823355116,139.235540071632,0.439925332791229,0.23255506819384
8471,-0.278892125893012,0.480366409890626,0.0321619393742878,0.26260704066893,0.364917925391622,0.210757269399665,0.345554248932984,0.0366930331831898,0.29204862711882,0.292327713265504,0.04,0.110427434594117,139.33760064849,0.441971051503988,0.231648333147759
8531,-0.278892125893012,0.480366409890626,0.0321619393742878,0.26260704066893,0.364917925391622,0.210757269399664,0.345554248932984,0.0366930331831898,0.292160647693625,0.292327713265504,0.04,0.110926816901343,139.390485436661,0.443167968680719,0.231110375898476
8591,-0.278892125893012,0.480366409890626,0.0321619393742878,0.26260704066893,0.364917925391622,0.210757269399664,0.345554248932984,0.0366930331831898,0.292222568612974,0.292327713265504,0.04,0.111240480748794,139.419758704228,0.44390891505382,0.230773074462402
8651,-0.278892125893012,0.480366409890626,0.0321619393742878,0.26260704066893,0.364917925391622,0.210757269399664,0.345554248932984,0.0366930331831898,0.292259742090617,0.292327713265504,0.04,0.111429271751789,139.437354305107,0.444384182003764,0.23055535744538
8711,-0.278892125893012,0.480366409890626,0.0321619393742878,0.26260704066893,0.364917925391622,0.210757269399664,0.345554248932984,0.0366930331831898,0.292283372013778,0.292327713265504,0.04,0.111542537668176,139.448546391983,0.444693538109642,0.230413461890903
8771,-0.278892125893012,0.480366409890626,0.0321619393742878,0.262607040668929,0.364917925391622,0.210757269399664,0.345554248932984,0.0366930331831898,0.29229873401987,0.292327713265504,0.04,0.111611437524598,139.455823506089,0.444895630632733,0.230320815908882
8831,-0.278892125893012,0.480366409890626,0.0321619393742878,0.26260704066893,0.364917925391622,0.210757269399664,0.345554248932984,0.0366930331831898,0.292308727780441,0.292327713265504,0.04,0.111653971441471,139.460557240504,0.445027873574949,0.230260190335058
8891,-0.278892125893012,0.480366409890626,0.0321619393742878,0.26260704066893,0.364917925391622,0.210757269399665,0.345554248932984,0.0366930331831898,0.292315183315115,0.292327713265504,0.04,0.111680407869027,139.46361462372,0.445114868346932,0.230220234486151
8951,-0.278892125893012,0.480366409890626,0.0321619393742878,0.26260704066893,0.364917925391622,0.210757269399664,0.345554248932984,0.0366930331831898,0.292319324166935,0.292327713265504,0.04,0.111696773570324,139.465575569148,0.445172769904861,0.230193527426871
9011,-0.271782698440333,0.47137074970434,0.0305283222460072,0.2551785027755,0.357154620132152,0.213135259211562,0.337493979162523,0.0373606008881068,0.292454699500785,0.292327713265504,0.04,0.109984050709346,139.552890321111,0.445058744058306,0.230396657361853
9071,-0.2330040032439,0.422303512324596,0.0216176833644769,0.214659205174978,0.314809318716865,0.226106112731004,0.293528871323648,0.0410018792785628,0.293584191268734,0.292327713265504,0.04,0.105113457127355,140.073570620024,0.438741544217139,0.234586014140793
9131,-0.194225308047467,0.373236274944852,0.0127070444829464,0.174139907574455,0.272464017301578,0.239076966250446,0.249563763484773,0.0446431576690189,0.294082137642197,0.292327713265504,0.04,0.101018622383448,140.309692606306,0.429142743346494,0.240237376370792
9191,-0.155446612851034,0.324169037565109,0.00379640560141604,0.133620609973932,0.23011871588629,0.252047819769888,0.205598655645897,0.0482844360594749,0.294359614345413,0.292327713265504,0.04,0.0966769920153523,140.44034803754,0.417410267564639,0.247219910914187
9251,-0.116667917654601,0.275101800185365,-0.00511423328011438,0.0931013123734089,0.187773414471003,0.26501867328933,0.161633547807022,0.0519257144499309,0.29446441645995,0.292327713265504,0.04,0.0916206903631362,140.489381004703,0.404743822551281,0.255045665021
9311,-0.0778892224581676,0.226034562805621,-0.0140248721616448,0.052582014772886,0.145428113055715,0.277989526808772,0.117668439968147,0.055566992840387,0.294491839879299,0.292327713265504,0.04,0.0856653977782522,140.502173862319,0.391796866590082,0.263497659291641
9371,-0.0391105272617345,0.176967325425877,-0.0229355110431752,0.0120627171723631,0.103082811640428,0.290960380328213,0.0737033321292714,0.059208271230843,0.294517578388924,0.292327713265504,0.04,0.0787963336682097,140.514755266206,0.378728401670686,0.272614362472852
9431,-0.000331832065301398,0.127900088046134,-0.0318461499247056,-0.0284565804281598,0.0607375102251407,0.303931233847655,0.0297382242903961,0.0628495496212991,0.294638247914028,0.292327713265504,0.04,0.0710970250223559,140.573547489992,0.365191857698826,0.282837633646132
9491,0.0384468631311317,0.0788328506663899,-0.040756788806236,-0.0689758780286826,0.0183922088098534,0.316902087367097,5e-07,0.0664908280117551,0.294604285983278,0.292327713265504,0.04,0.0637597315549953,140.543839120055,0.35081690468939,0.294364868098247
