time,bias_percent_1,bias_percent_2,bias_percent_3,bias_percent_4,bias_percent_5,bias_percent_6,bias_percent_8,bias_percent_9,normalized_power,power_SP,SP,CV,total_power_MW,fuel_fraction,thermal_efficiency
17,0,0,0,0,0,0,0,0,0.999291666085127,1,0.04,0.0401490953923194,476.747941446287,0.999238283655489,0.350569749268907
77,0,0,0,0,0,0,0,0,0.999928096586494,1,0.04,0.0398940314080075,477.066909122172,1.00019377295195,0.350469172753382
137,0,0,0,0,0,0,0,0,0.999992025652089,1,0.04,0.039927675764337,477.096339126668,1.00030889325096,0.350450456865364
197,0,0,0,0,0,0,0,0,1.00000020302723,1,0.04,0.0399634700673391,477.100122207332,1.00031742827362,0.350450245544901
257,0,0,0,0,0,0,0,0,1.00000228632516,1,0.04,0.0399858287383986,477.10110215425,1.00030714932552,0.350454566518601
317,0,0,0,0,0,0,0,0,1.00000338784012,1,0.04,0.0399987765800908,477.101622625346,1.00028876415647,0.350461390144052
377,0,0,0,0,0,0,0,0,1.00000391077594,1,0.04,0.0400058167070918,477.101867918384,1.00026610553348,0.350469509191359
437,0,0,0,0,0,0,0,0,1.00000396167051,1,0.04,0.0400091232371369,477.101888978456,1.00024223721386,0.350477887754446
497,0,0,0,0,0,0,0,0,1.00000368107627,1,0.04,0.0400100891288254,477.101753067255,1.00021944647636,0.350485773809198
557,0,0,0,0,0,0,0,0,1.00000320791847,1,0.04,0.0400096529357279,477.101526335757,1.00019916351972,0.350492714717823
617,0,0,0,0,0,0,0,0,1.0000026531957,1,0.04,0.0400084577778785,477.101261393689,1.00018208887296,0.350498503530094
677,0,0,0,0,0,0,0,0,1.00000209448409,1,0.04,0.040006936293775,477.100994972353,1.00016838968262,0.350503108540498
737,-0.0708333333333334,-0.070829728774139,0.0708320427584032,0.0708332486860841,-0.0708331277870005,0.0708333333333333,-0.070832947203388,0.00408408059345544,0.999304733041371,0.994141335722514,0.04,0.0398582764807892,476.764525839318,0.990558472558039,0.353653933686801
797,-0.25,-0.249987278026373,0.249995445029658,0.249999701245002,-0.249999274542355,0.25,-0.249998637188428,0.0144144020945486,0.983914728587604,0.973463697096095,0.04,0.0431891662003532,469.19852268688,0.924660565066017,0.372845560331423
857,-0.249996271580878,-0.249990696562958,0.249996735604589,0.249999785892252,-0.249999480088688,0.25,-0.249999023318374,0.0811579321993969,0.956689310682469,0.952786058469675,0.04,0.046743843428642,456.207388077563,0.884603107387176,0.378938323940229
917,-0.249986840873687,-0.249999343449614,0.25,0.25,-0.25,0.25,-0.25,0.249979802464601,0.934661965469234,0.932108419843255,0.04,0.0480993357042163,445.804676709542,0.874538798558384,0.374558981025089
977,-0.249990569292809,-0.249999526959015,0.249999296124219,0.24999890889193,-0.128361435835012,0.24999525658664,-0.167184967182378,0.249984567315113,0.911248229946202,0.911430781216835,0.04,0.0535129563831417,434.490138280406,0.854809973933797,0.373477995320944
1037,-0.25,-0.249999991129852,0.249997515732539,0.249996149030341,0.179312579405838,0.249983258541083,0.0422883511210179,0.249996619584053,0.888792949253261,0.890753142590415,0.04,0.0607984340164314,423.973068819014,0.878994521413387,0.3544106620898
1097,-0.24999999402817,-0.249999993643061,0.249998187318733,0.249989735923508,0.19934067184868,0.249988001954443,0.101139984970063,0.249997432080306,0.872061676696132,0.870075503963996,0.04,0.0636008887662983,415.867287402753,0.864230449766343,0.353573633825695
1157,-0.249999978922954,-0.25,0.249999886036753,0.249973514535636,0.249999964498222,0.25,0.25,0.249999487217885,0.851902590645914,0.849397865337576,0.04,0.0672166515823089,406.323791453472,0.855796137248556,0.348864362006061
1217,-0.24999996862149,-0.249999997730691,0.108333251659673,0.249980334975114,0.249994524577419,0.108348437442571,0.108333574462456,0.249998124524123,0.842992833612652,0.828720226711156,0.04,0.0571923669781582,402.254525065552,0.811376886156428,0.364278033010864
1277,-0.249999942564846,-0.249999991990675,-0.25,0.249997586674972,0.249980764777743,-0.24994669137916,-0.163203256377924,0.249994677710489,0.825308028488873,0.808042588084736,0.04,0.0359076778244898,393.363151999138,0.675762548072991,0.427714755298461
1337,-0.249999870477309,-0.249999449913648,-0.249999984313529,0.211188066255237,0.108525996599868,-0.249961589502202,-0.132405524513277,0.108331118007838,0.802544173497231,0.787364949458316,0.04,0.0202417086044867,382.896014271266,0.611005232547289,0.460458603919831
1397,-0.249999688138243,-0.249998078777639,-0.249999944635986,0.113022808722965,-0.249271358202991,-0.249999272989895,-0.0846369204705731,-0.181702920143259,0.767625031450632,0.766687310831897,0.04,1.01806337191272e-07,365.823287715468,0.523054241265701,0.513900803587068
1457,-0.249971460575831,-0.249976783922701,-0.24999995959132,0.0102694758526756,-0.10782043237093,-0.249999475925416,0.0101757501478289,-0.249995946212446,0.742001851539877,0.746009672205477,0.04,3.68775681542849e-08,354.131755426791,0.574483889361376,0.452941062503869
1517,-0.249900061447379,-0.249922920466093,-0.24999999741952,-0.249636013172174,0.249967203557224,-0.249999989232909,0.249996034653199,-0.2499999671634,0.732988701755196,0.725332033579057,0.04,0.00871892195216934,350.085835100107,0.495877636590569,0.518745918474132
1577,-0.151665250037262,-0.203637030300357,-0.108371500854519,-0.249738953204482,0.249976192549153,-0.108333325748612,0.249996945814946,-0.108333458646725,0.694431478005472,0.704654394952637,0.04,0.0310001317625546,330.577130666461,0.497004808735765,0.488727628812874
1637,0.0968110376471511,-0.0865609551752601,0.249865284574601,-0.249999330933259,0.249998929411091,0.249999999535199,0.24999925051819,0.249999474660161,0.658243911413215,0.683976756326218,0.04,0.058394189845619,314.468023339485,0.726932203463757,0.317861009508882
1697,0.139984709822147,0.00879798209957971,0.249898202539603,-0.16080001440311,0.249998888912083,0.249998360904015,0.249999451358226,0.249994391402618,0.658147511725816,0.663299117699798,0.04,0.0739452967194186,313.928567500401,0.77167594865893,0.298916955356695
1757,0.249188704147136,0.24999999991241,0.249981465627551,0.0648217862319722,0.249998786473416,0.249994216131022,0.249999959365378,0.249981533751186,0.648159009279179,0.648480143350864,0.04,0.101634881131428,309.246202535057,0.778826594371961,0.291754980639804
1817,0.249418571302185,0.249999842279375,0.249915174882877,-0.0243777193024276,0.249999122629429,0.249983028820932,0.249999710770617,0.249986759184447,0.650571972819414,0.648480143350864,0.04,0.0968945601526913,310.426285243564,0.77304219208374,0.295059747293617
1877,0.249999999988487,0.249999443560521,0.249747498293406,-0.249999998007086,0.249999972906401,0.249954731507176,0.249999081972104,0.249999976456814,0.65363101610655,0.648480143350864,0.04,0.0877506172133254,311.833737172392,0.745325491527383,0.307419775205713
1937,0.108366997834043,0.249999570705773,0.108155074837256,-0.113045151494785,0.199545871890047,0.249967557580142,0.249996892357595,0.249999983127384,0.650679827200687,0.648480143350864,0.04,0.0827210476536842,310.451893835463,0.725921819293519,0.314238316506115
1997,-0.249881184086021,0.24999989230847,-0.249990466845948,0.233370048506918,0.0719266752016201,0.25,0.249991353920896,0.25,0.655593154072867,0.648480143350864,0.04,0.0591415100268614,312.638131498066,0.690422362518533,0.332722195552851
2057,-0.108248653408373,0.108333436908382,-0.249993167906263,0.238081867093291,-0.0192854298371908,0.20132401895001,0.249993803643309,0.249999980666849,0.655474967556155,0.654821095567373,0.04,0.0484930587211794,312.81411234294,0.679414932359331,0.33830306015477
2117,0.249998335952737,-0.249999362044781,-0.25,0.249999996458823,-0.249998401405948,0.0782024198235666,0.25,0.249999931765349,0.673851883873983,0.677200926919761,0.04,0.0287464512180225,321.644980358712,0.690910109276557,0.342065998397852
2177,0.108332140766128,-0.249998259799753,-0.25,0.249998932925614,-0.249998791913802,0.0509407457119215,0.25,0.249999729961025,0.697775997108909,0.699580758272148,0.04,0.018271600581116,333.417376529735,0.717924918909488,0.341243099867897
2237,-0.25,-0.249995471768212,-0.25,0.249996242812204,-0.249999779668962,-0.0180152535116511,0.25,0.249999219514794,0.729371545112903,0.721960589624536,0.04,0.00997143591313267,347.549891685282,0.676244665179594,0.377631298349074
2297,-0.249999976250397,-0.249996738081072,-0.25,0.249997307348746,-0.249991728194473,-0.0837208100399638,0.249969712114287,0.10833585158053,0.748385512786702,0.744340420976923,0.04,0.00236153333878443,357.263532852808,0.684806529561693,0.383332350496342
2357,-0.249999916177874,-0.249999941107719,-0.25,0.25,-0.249971362700177,-0.249917217729225,0.249893101579836,-0.21013799943804,0.740022038536915,0.76672025232931,0.04,1.31845765880512e-07,353.271540731367,0.794343700597516,0.326779551908011
2417,-0.249999756806076,-0.108797453970419,-0.249998355524159,0.249999985706907,-0.249975674846764,-0.249940672705945,0.249887000273456,-0.108325548828517,0.796504568290201,0.789100083681698,0.04,1.39067723819884e-05,381.19277867402,0.879784354942507,0.318363379592403
2477,-0.249999353689176,0.248361778200398,-0.249994195967621,0.249999949553791,-0.249986582041074,-0.25,0.249871567557318,0.25,0.795501721136372,0.811479915034085,0.04,0.0188409573129325,379.743569594494,0.941264337551239,0.296437744501273
2537,-0.108337880954734,0.107160941224118,-0.249995840443462,0.108333373665084,-0.143609431691411,-0.108333333333333,0.249889644075166,0.118937494163596,0.825788082169935,0.833859746386473,0.04,0.0227409332967891,394.136555210078,1.00340903478627,0.288617981891896
2597,0.249982314785324,-0.249994117009999,-0.25,-0.249999730053408,0.125462183898912,0.25,0.249935367032075,-0.212573550010838,0.850913164928047,0.85623957773886,0.04,0.027898433067894,406.163754790658,1.04000185086663,0.286960241617188
2657,0.108320659988143,-0.249990548389967,-0.108333924911083,-0.249997569362064,0.101527283531786,0.249999999977817,0.249951972223138,-0.223163622766164,0.875358448257536,0.878619409091248,0.04,0.0324569964843739,417.849406597637,1.06693303121575,0.287764559028187
2717,-0.249999996263549,-0.249981521880474,0.249997912078532,-0.249992104083956,0.0409860649561136,0.249999999921707,0.249993973588768,-0.249950277382579,0.900643814835098,0.900999240443635,0.04,0.0353743211304138,429.854931666845,1.07228769552843,0.294554232443548
2777,-0.10876584732108,-0.249986757343608,0.249988162094311,-0.218329978028079,0.100206519530165,0.249993225428771,0.249993987164685,-0.180491328555096,0.909501637071499,0.912691421102195,0.04,0.0445917557764539,433.724118883137,1.08212652231623,0.294503328931723
2837,0.248473470592225,-0.249999999985652,0.249963500369517,-0.138243423886746,0.249999434041001,0.249976089946636,0.249994021503768,-0.00480104622675913,0.896612854132328,0.897350132358723,0.04,0.0645193620682266,427.826627469998,1.1115358993487,0.282812755788535
2897,0.107281076550399,-0.249979039635112,0.24995984336248,-0.141764441147371,0.108356760255672,0.249982864461756,0.249995715404964,0.0673924875686236,0.893625316582116,0.882008843615251,0.04,0.0682610192960945,426.33269417079,1.06190523128554,0.294996969610023
2957,-0.249852626025985,-0.249926022277866,0.249950593285857,-0.150670543630128,-0.249915885201335,0.25,0.249999999978578,0.249999661286357,0.884440466397295,0.866667554871779,0.04,0.0642456655931709,421.769484203504,0.954881623786862,0.324549014836031
3017,-0.249894381985289,-0.249946633791787,0.249954944772063,-0.17881149939021,-0.249939616074373,0.249998849433986,0.249999999633855,0.249999756311261,0.863237308231709,0.851326266128307,0.04,0.0662855441005781,411.712617401727,0.87533451237318,0.345600849181343
3077,-0.25,-0.249998768797587,0.249965951472465,-0.24999156395983,-0.249999641223822,0.249995939178774,0.249999998761908,0.249999996668371,0.845835005556345,0.835984977384835,0.04,0.0626186418199863,403.402850837502,0.810268644419206,0.365817608545554
3137,-0.249999999999,-0.203696560025268,0.249974714171202,-0.108327406135843,-0.249980217565346,0.249997088413554,0.249995098103868,0.108333347673187,0.82973760594484,0.820643688641363,0.04,0.0598395341750426,395.739707111959,0.75663990699852,0.384304138214342
3197,-0.249999999996472,-0.0865792084246965,0.249996878644477,0.249999581301302,-0.249931087135083,0.249999995301527,0.249982702321764,-0.249999940961691,0.811001574249333,0.805302399897891,0.04,0.0617540465249865,386.78909802321,0.708997354206498,0.40085221376633
3257,-0.249999987132796,-0.132821977734822,0.249981386554516,0.249999547637665,-0.249800640828724,0.249999696153968,0.249983541188451,-0.214583761983969,0.793200926374757,0.789961111154419,0.04,0.0528855101097438,378.3452447067,0.687292546419935,0.404483976671407
3317,-0.249999954595262,-0.249788982460432,0.249942200679909,0.249999462488465,-0.249470688406757,0.249998939486613,0.249985663027719,-0.17479671153913,0.77828007757336,0.774619822410947,0.04,0.0439214403422205,371.142474117428,0.662595418702896,0.411573028035441
3377,-0.249994543245966,-0.249847710590773,0.249957492292658,0.249991253330695,-0.249619020638157,0.249999188975282,0.10840147884264,-0.149346730560077,0.766050040293986,0.759278533667475,0.04,0.0355039263636277,365.460681865624,0.640858829926021,0.419018274331543
3437,-0.249980855715395,-0.249996258214576,0.249996171077847,0.249970488990452,-0.249994213929347,0.249999820034857,-0.146810257852986,0.10521245339962,0.744913298682809,0.743937244924003,0.04,0.0336853299897984,355.286170158718,0.623531431064877,0.418672685790527
3497,-0.249978941491538,-0.249997312609256,0.151223375159536,0.249978850439895,-0.24999434845654,0.108333205875498,-0.154096266464777,0.146234544938257,0.732231018117276,0.72859595618053,0.04,0.0236145298069184,349.360029516531,0.611909546268991,0.41950840191518
3557,-0.249974099631193,-0.249999979607562,-0.098613696869133,0.249999999988486,-0.249994688731205,-0.249999994645234,-0.0836805677991987,0.249996305888925,0.721780353405888,0.713254667437058,0.04,0.0153819370556764,343.57374715966,0.536407025419769,0.470630631788092
3617,-0.249981358809481,-0.249998604732818,-0.141495580049224,0.249999214757667,-0.108329749781492,-0.249997467436961,-0.130803387076991,0.108333792902656,0.701801846525184,0.697913378693586,0.04,0.00933704002294338,334.685798071478,0.511865525388064,0.480436594566845
3677,-0.249999720260444,-0.249995127108465,-0.249961519857691,0.249997228585595,0.249999213444251,-0.249991075086623,-0.249996400544348,-0.249989034062614,0.680602775089446,0.682572089950114,0.04,2.46826613169776e-05,324.690381828187,0.504935313899993,0.472485358422602
3737,-0.249780066082117,-0.249957461444722,-0.24997240050482,0.108331347153009,0.108779313922594,-0.249948381674929,-0.249977254661139,-0.10832547441154,0.679329113674782,0.678507976450083,0.04,9.84986813841407e-05,324.819483433522,0.50036539441262,0.476990227805596
3797,-0.249224470219289,-0.249862189471726,-0.249999922141675,-0.25,-0.248423961338068,-0.249840392457115,-0.249928826838906,0.25,0.693699331829744,0.702968482683459,0.04,9.6461505024198e-06,330.871277443756,0.514532906139586,0.472498669436055
3857,-0.249444203657157,-0.24989836516439,-0.114210430218948,-0.136315259372953,-0.248796809677985,-0.163672827221766,-0.108289332576686,0.249999705064115,0.719184576832964,0.727428988916835,0.04,3.01061906442341e-05,344.285727381572,0.640431181842475,0.395003756962388
3917,-0.25,-0.249989868387011,0.229257108173831,0.151240261036635,-0.249739896655422,0.0542804260205881,0.249975270557165,0.249998959049816,0.715822733497481,0.751889495150212,0.04,0.0199555790643901,342.35410317259,0.878172272710941,0.286451099113719
3977,-0.249994222339571,-0.197007930096746,0.235134167358033,0.038877131534672,-0.157301740821435,-0.0313171278293132,0.249982277232635,0.249996176232564,0.756325421421505,0.776350001383588,0.04,0.0248806706306628,361.022778647063,1.01875044829191,0.260388301005623
4037,-0.249979608257309,-0.0629947920684283,0.249999670000427,-0.245335490146765,0.0765124180527683,-0.247828587567299,0.25,0.249989137341867,0.786562220414186,0.800810507616965,0.04,0.0306622676756468,375.500264612366,1.11221748877654,0.248070546795602
4097,-0.108416805444031,0.0251886657253624,0.249910005574838,-0.246655211471719,0.123889445411746,-0.10677717933576,0.249996925177644,0.237489248726271,0.806014184577285,0.825271013850341,0.04,0.0441038064998891,384.527826389309,1.19685783889167,0.236069500299826
4157,0.249653813436613,0.248240941321422,0.249683207321878,-0.249993330117191,0.243725455790337,0.249999912073427,0.249989147685804,0.20587188340447,0.834751624047077,0.849731520083718,0.04,0.0647786085853952,398.685136951837,1.33051450708432,0.220173531042
4217,0.249732494112641,0.248739341280352,0.249712277912071,-0.24999521991732,0.245503243316408,0.249995690121737,0.249992222508159,0.218374849773204,0.871930553420398,0.867261549550971,0.04,0.072701007999369,416.134398596458,1.3414671353937,0.227933550725476
4277,0.24993150994024,0.25,0.249785809404914,-0.25,0.25,0.24998501106746,0.25,0.25,0.879727505004248,0.867261549550971,0.04,0.0843847407499742,419.735859044042,1.27551770354798,0.241793298087344
4337,0.108284248790505,0.108334053130211,0.249846496709998,-0.249998270552553,0.108333398381546,0.24998925793168,0.207327851973208,0.108333333333333,0.888037739902396,0.867261549550971,0.04,0.0801479441682371,423.953888096855,1.18624255357916,0.262603070377564
4397,-0.25,-0.249997459540434,0.249999999893445,-0.249993896067834,-0.249999770418075,0.25,0.0993924187289689,-0.25,0.899062865321051,0.867261549550971,0.04,0.0595611688598957,428.679221598111,0.978945157327511,0.321757550752688
4457,-0.249999822499909,-0.249998179337311,0.249999941728759,-0.108328958848614,-0.108333169791812,0.249990779607059,0.000397903030032467,-0.108371674603361,0.873105822759416,0.867261549550971,0.04,0.0633402019067105,416.328352616057,0.888034139526686,0.344477612290501
4517,-0.249999373529091,-0.25,0.24999979460632,0.25,0.249999996498146,0.249967457436678,-0.249999989620219,0.249864677870491,0.8633214052345,0.867261549550971,0.04,0.0647377483971408,411.984394733603,0.916477588311783,0.330303817555137
4577,-0.249999551029182,-0.249998873894834,0.249999852801196,0.249971615772821,0.108333330823672,0.249976584121369,-0.249997185935858,0.148876565549405,0.874815075363758,0.867261549550971,0.04,0.0516851230485647,417.537505448212,0.9029550840009,0.339769210394267
4637,-0.25,-0.249996025511179,0.25,0.249899820374662,-0.25,0.249999669264999,-0.249990094263652,-0.106563953850987,0.878308332708032,0.867261549550971,0.04,0.0394208063393006,418.918148635377,0.818910697132432,0.375878346442723
4697,-0.249998822492057,-0.249997151616345,0.24681667090183,0.249928204601841,-0.108333753982335,0.108333096306583,-0.179288546799515,-0.00553750031232073,0.862949790498454,0.867261549550971,0.04,0.0380319110325876,411.557416705377,0.805456594612645,0.37544209724626
4757,-0.249995844089614,-0.25,0.238764720829988,0.25,0.249998515356465,-0.25,-0.000455220860814563,0.249999999814894,0.859665007516661,0.867261549550971,0.04,0.0369972316608902,410.255992792353,0.867888140555209,0.347332846952433
4817,-0.249986782068831,-0.25,0.100281458320888,0.24999999966942,0.249998836246057,-0.249998660902651,0.0704863700401385,0.108339868660885,0.872076462341064,0.867261549550971,0.04,0.0318455004918931,416.221625687854,0.871259011809921,0.351020139289657
4877,-0.249963860486848,-0.25,-0.249999735084483,0.249999998833249,0.249999647907969,-0.249995273774062,0.249926864671961,-0.249976933669842,0.875159543338001,0.867261549550971,0.04,0.0241542302652132,417.440212265107,0.803645340440546,0.381666926726082
4937,-0.249973959654017,-0.25,-0.249999810143879,0.108333371328921,0.108333081699513,-0.249996612871411,0.154625696229109,-0.209943495819682,0.881353363270961,0.867261549550971,0.04,0.0154949224530376,420.64652939085,0.769325504094681,0.401755523427156
4997,-0.249999504606267,-0.25,-0.25,-0.249999862946731,-0.249999997533639,-0.25,-0.0864302004204561,-0.108682447139865,0.880380011673175,0.867261549550971,0.04,0.000134781932888423,419.808688144723,0.645808496809211,0.477641819322184
5057,-0.249999627266946,-0.249999731519719,-0.108333561119866,-0.249999386719128,-0.249999998232441,-0.108333635172943,0.00889168969867319,-0.00705575378356963,0.870428710376889,0.867261549550971,0.04,0.00957031752108349,414.296944564785,0.637668128467788,0.477388217362347
5117,-0.249999937526311,-0.249999052422536,0.249999196047531,-0.249998182143426,-0.25,0.24999893468373,0.25,0.25,0.844743198795186,0.867261549550971,0.04,0.0277461160898037,403.05342463902,0.838220045515802,0.353312700585005
5177,-0.118632867677734,-0.249999311219647,0.249999423834063,-0.249998697202789,-0.108334020971236,0.249999236523339,0.249998935533747,0.249999870651828,0.846522592662158,0.867261549550971,0.04,0.0348767134999515,403.618990610742,0.932412425355616,0.318066709461888
5237,0.213648544292195,-0.249999965824105,0.25,-0.25,0.249997573042698,0.25,0.249996243060283,0.24999954347704,0.848458484725241,0.867261549550971,0.04,0.0485455134481251,405.009832541242,1.08240646451492,0.274934895852104
5297,0.223948040344691,-0.108333456667915,0.249999657871933,-0.249999996095797,0.249998073505607,0.249999168062891,0.249997307526536,0.249999431072075,0.863086521111941,0.867261549550971,0.04,0.0606402488294452,411.790989178238,1.1204217307729,0.270053612979898
5357,0.249999706830416,0.249999478256567,0.249998792489174,-0.249999986220459,0.249999339382377,0.249997063751378,0.25,0.249999146753635,0.868080677356679,0.867261549550971,0.04,0.0778765993518948,414.222314306871,1.12843214150262,0.269719731863084
5417,0.249998772314604,0.249999626083873,0.249999085862485,-0.249999971827764,0.24999952655737,0.249997895688488,0.249999535169274,0.249999388506771,0.873660164326531,0.872087257883618,0.04,0.0806911343185417,416.907371834469,1.11117149724802,0.275685013447628
5477,0.249996408539312,0.25,0.249999827924389,-0.24999993542271,0.25,0.25,0.249998359420966,0.25,0.88785848348635,0.889119169645901,0.04,0.0763155345977256,423.727549581504,1.11661628073522,0.278828666709082
5537,0.108336863815673,0.111003620118562,0.249924525031825,-0.249999953719609,0.108555028958039,0.249860545357553,0.24995486003498,0.108333333333333,0.914105190563767,0.906151081408185,0.04,0.0604750737525995,436.566963673278,1.11074062126416,0.288797141072627
5597,-0.249978455191178,-0.240575458405077,0.249734053009457,-0.25,-0.249217544853981,0.249507807144303,0.249844832176309,-0.25,0.94338230813201,0.918357284837822,0.04,0.0352013087902521,449.88441924086,0.958605765965697,0.344838376644353
5657,-0.24944994777741,-0.243217833529076,0.249809404656778,-0.108333333333333,-0.249439240478686,0.249505484752832,0.24827880006406,-0.249714441253521,0.924918385648327,0.918357284837822,0.04,0.0381858606244817,441.163419828842,0.886770756859832,0.36554664982926
5717,-0.248113134907291,-0.249901488254487,0.25,0.25,-0.25,0.249499610468522,0.244317660015429,-0.244385428094948,0.917970182307828,0.918357284837822,0.04,0.0392538720619662,437.978571601689,0.885517055977042,0.36342149331374
5777,-0.248647746683559,-0.249872468752769,0.249979044077797,0.25,-0.249987327516015,0.249641387502441,0.213192873407323,-0.242916758580289,0.919735524146593,0.918357284837822,0.04,0.0336954231736852,438.824847898496,0.881533809860884,0.365769015701514
5837,-0.25,-0.249799066483718,0.249926037921636,0.25,-0.249955273585936,0.25,0.134465471986818,-0.25,0.919499641915408,0.918357284837822,0.04,0.0303336902085483,438.664266198068,0.870306570804327,0.370351980843697
5897,-0.25,-0.249855997646664,0.108280327177172,0.25,-0.24996794606992,0.160128996671347,0.0262961698719141,-0.108333333333333,0.920469865884621,0.918357284837822,0.04,0.023243039814491,439.234784781472,0.868438801049052,0.371631213546856
5957,-0.25,-0.25,-0.25,0.25,-0.25,-0.0671917764540684,-0.247308535477548,0.25,0.924861882365073,0.918357284837822,0.04,0.0134638634952779,441.277060691587,0.810497129277333,0.400050250824832
6017,-0.249279884672356,-0.25,-0.249999821356497,0.25,-0.108907722252171,-0.11894059061585,-0.106465202414488,0.249774140357298,0.909191607159389,0.918357284837822,0.04,0.0189599345934108,433.803887809374,0.812714000513105,0.392202515522204
6077,-0.247458416490669,-0.25,-0.249999369493521,0.25,0.247972744992339,-0.249834649966237,0.249785581215605,0.249202848319873,0.907903965116534,0.918357284837822,0.04,0.0274726603300934,433.189791750094,0.894880433856661,0.35568690588184
6137,-0.248167780343173,-0.25,-0.134440249326618,0.108333333333333,0.106880467244509,-0.249881498063738,0.117781707615467,0.249428707962576,0.923012254646572,0.918357284837822,0.04,0.024168834658569,440.501694530481,0.914187164091161,0.354052072160797
6197,-0.249962053617153,-0.25,0.157856348742605,-0.25,-0.25,-0.249999996192712,-0.216110443255472,0.25,0.926168222689795,0.918357284837822,0.04,0.0175400305599016,441.996574066735,0.834528807029149,0.389163630944828
6257,-0.249972805092293,-0.25,0.183955410493114,-0.249999973519159,-0.248109793713618,-0.109277422479168,-0.0840831279481071,0.24999805766189,0.904452017240318,0.914743328412214,0.04,0.0264892623870344,431.489993604476,0.839458411885672,0.377681941242765
6317,-0.25,-0.25,0.249970684332636,-0.249999906538207,-0.243328683695122,0.246667911031561,0.249868316652876,0.249993144689023,0.892624519745546,0.901988188086538,0.04,0.0403809694156619,425.854362724125,0.923485470573863,0.338833007099066
6377,-0.25,-0.25,0.249978071869293,-0.24999281171494,-0.103558627428602,0.176393147135741,0.249903329515731,0.24999150225119,0.886062624465305,0.889233047760863,0.04,0.0457913905034503,422.640663039317,0.941302180543095,0.32991107168612
6437,-0.25,-0.25,0.249996757991426,-0.249974865985502,0.249977397245534,-0.00136066742427511,0.249991891462951,0.249987347849611,0.875925660166483,0.876477907435187,0.04,0.0526195909696696,417.853561240015,0.956806391998624,0.320888916020479
6497,-0.108333333333333,-0.109132043995535,0.249997364816521,-0.24992578060365,0.249944378782726,-0.0382092320201973,0.249974284852885,0.244490105635574,0.862515830074314,0.863722767109512,0.04,0.0627997440160507,411.279298401957,0.944428620331685,0.3199796703495
6557,0.25,0.247181021192228,0.249998899727054,-0.249801623461317,0.249860861494444,-0.131414424821648,0.24992975048625,0.23058531650595,0.85198745535943,0.850967626783837,0.04,0.0818801698081557,406.456926553997,0.954330149012254,0.312946833074208
6617,0.249959614260246,0.24797327941369,0.249999211471056,-0.249857830147277,0.249834222277629,-0.0233470044555143,0.249923520799731,0.23545860320206,0.842471115700494,0.838212486458161,0.04,0.085422279291062,401.796994300877,0.926103322533201,0.318787965157495
6677,0.249857462094985,0.24997722667974,0.25,-0.25,0.249766840729214,0.25,0.24990776335736,0.247785151903988,0.828520193031738,0.825457346132486,0.04,0.0888005448648838,395.234965865455,0.911575551115107,0.318579162783242
6737,0.1082316808674,0.135925369648755,0.25,-0.108333333333333,0.249832902522604,0.25,0.138785756684288,0.106746025531191,0.825841713320591,0.81270220580681,0.04,0.0797084716640956,394.125094409326,0.86616255347198,0.334340786675089
6797,-0.249998236355316,-0.152558739311971,0.25,0.25,0.25,0.25,-0.127640315208907,-0.127640315208907,0.816673172607846,0.799947065481135,0.04,0.0631137371435588,389.239170935748,0.738223280692406,0.387421285749534
6857,-0.249998736054643,-0.180167096506912,0.25,0.249999978912331,0.25,0.25,-0.0607342670311066,-0.0607342670311066,0.789975446760391,0.78719192515546,0.04,0.0559765718062772,376.779051582477,0.706576828855851,0.391815879952116
6917,-0.25,-0.25,0.25,0.249999925572932,0.25,0.25,-0.028690850424858,0.25,0.771448291085021,0.774436784829784,0.04,0.0497276482591325,368.017038180806,0.727626005972708,0.371633101093166
6977,-0.249999688462204,-0.25,0.25,0.249999946660601,0.25,0.25,-0.0135524766052604,0.249971144538996,0.762845581236054,0.761681644504109,0.04,0.0473814046691632,363.860969549618,0.724397252516267,0.369073917156633
7037,-0.249998900454839,-0.25,0.25,0.25,0.25,0.25,-0.00640144246422941,0.249898157196456,0.750548283075584,0.748926504178433,0.04,0.0477874017956575,357.986283271929,0.714515014942222,0.368137198551899
7097,-0.249999211992635,-0.249999782635466,0.25,0.25,0.249993131767042,0.142428264490555,-0.00311913135460998,0.108260345990794,0.745314153206041,0.736171363852758,0.04,0.0410068273423828,355.662075093662,0.6917955419588,0.377758700094015
7157,-0.25,-0.249999232831055,0.25,0.25,0.249975759177795,-0.129664948856865,0.25,-0.00233482093144384,0.72567875907847,0.723416223527083,0.04,0.0401909345623762,346.11527453958,0.653561059962155,0.38912512531727
7217,-0.25,-0.249997729769067,0.108337183331136,0.25,0.249982627410753,-0.163757451068107,0.25,-0.00270354312494585,0.715167037015437,0.710661083201407,0.04,0.0313086005938302,341.225125576498,0.636697374648509,0.393788128578684
7277,-0.25,-0.249993927906393,-0.249986411772461,0.25,0.25,-0.249991427249486,0.25,-0.0221265011507139,0.707361798991134,0.697905942875732,0.04,0.0156704819376865,337.06389799099,0.576642885280352,0.429496844252358
7337,-0.108336331739657,-0.249995648332915,-0.24998979729588,0.108333343748981,0.108334882411457,-0.249983295850552,0.132284394954446,0.0339831598140256,0.704771633389589,0.685150802550056,0.04,0.00578489664711472,336.403540904281,0.527606623761083,0.468495038040781
7397,0.249989417389445,-0.25,-0.249998360678646,-0.249999963238889,-0.249994532665447,-0.249962728194423,-0.134568984361437,0.249991399579329,0.67961839668869,0.672395662224381,0.04,0.000236526251339658,324.051749129182,0.465378355623607,0.511638085914884
7457,0.108342923566448,-0.249999228223795,-0.108332158486363,-0.249993344424909,-0.249996081743571,-0.108306628662167,-0.0477512416980381,0.24999134229857,0.657508656721633,0.659640521898706,0.04,0.0142567522108435,313.321627460769,0.454938573667381,0.506048670611926
7517,-0.249939384338779,-0.249997276083984,0.25,-0.249976602718961,-0.25,0.249999976037068,0.249999980918787,0.249991197411944,0.645992368913169,0.64688538157303,0.04,0.0258020952877705,308.747430285602,0.559894804167259,0.405183349867537
7577,-0.239260533391537,-0.139733172823385,0.249999752763452,-0.249983231948589,-0.108334096452706,0.249999968561995,0.249999924974794,0.249993632407797,0.622761858618425,0.634130241247355,0.04,0.0426388632956771,296.264031437488,0.596659271625315,0.364844002014656
7637,-0.212249322172043,0.139170147188717,0.24999912740042,-0.25,0.249997306637509,0.24999994965446,0.2499997834694,0.249999791514956,0.608106450287519,0.621375100921679,0.04,0.0581237200281687,290.326794232893,0.714215256506751,0.298684490461806
7697,-0.0812808621739097,0.170571908176889,0.249999307573132,-0.25,0.249996686696084,0.249997653043701,0.249999414262106,0.249999850585718,0.609186613186744,0.608619960596004,0.04,0.0729391058742047,290.347377043837,0.722269608913691,0.29537466492071
7757,0.249992301350781,0.249999891852851,0.24999976330411,-0.25,0.249995118608948,0.249991843969428,0.249998480384832,0.25,0.600321093237658,0.595864820270329,0.04,0.0955140534037503,286.388355176215,0.711776474261902,0.295642184014079
7817,0.249994482634726,0.249987012213515,0.249999830367946,-0.25,0.24998813577548,0.249994018958583,0.249998039874824,0.249999975636691,0.591907714381173,0.583109679944653,0.04,0.0985396634740273,282.305315685005,0.66317108790932,0.312786606223392
7877,0.25,0.249954434302254,0.25,-0.25,0.249970473314357,0.249999520401741,0.249996925643628,0.249999914011852,0.576771114027742,0.570354539618978,0.04,0.0993918242787548,275.046225446194,0.616780497337044,0.327664757609974
7937,0.108333333353001,0.249966297871078,0.25,-0.249997458929783,0.249978839208623,0.249998738090068,0.108331559901592,0.108335300363269,0.571178088645911,0.567804795612542,0.04,0.0843760771308311,272.800512140014,0.5940568782561,0.337420782996646
7997,-0.249999999930586,0.249996305721634,0.25,-0.249991031516883,0.25,0.249996759301718,-0.0167117471959167,-0.0167117471959167,0.586245001372503,0.591068701119477,0.04,0.0472803904936824,279.785582775779,0.594495924800365,0.345804886641949
8057,-0.249999932545866,0.249997352433838,0.249999952031983,-0.108326906561647,0.249999942246299,0.249996690067656,-0.00980146197736171,-0.00980146197736171,0.603801647683352,0.614332606626411,0.04,0.0364555031809777,288.177203409342,0.648775768020302,0.326377099301751
8117,-0.24999976210216,0.25,0.249999830701117,0.24999999773689,0.249999796163407,0.249996514946204,-0.00656781605927464,0.249964042582444,0.620146833009179,0.637596512133346,0.04,0.0436981414581851,296.178865661808,0.756620291890509,0.287627732304689
8177,-0.249249892272646,0.244473925308056,0.249999878079209,0.249990843721179,0.193979214736226,0.249989281000702,0.0372243491596929,0.249895227884829,0.652529816729078,0.66086041764028,0.04,0.0411549146541344,311.466926741105,0.821362824646118,0.27863237155298
8237,-0.247353162703873,0.230496206969609,0.249999997917913,0.249967689446144,0.0522800970086491,0.249970983373845,0.249946490832927,0.249721167179097,0.677232800046396,0.684124323147215,0.04,0.0437704653107207,323.329327617785,0.871252279790944,0.272681608954705
8297,-0.248103099937776,0.0943556569636279,0.108333331841171,0.249946428568855,0.105530838707956,0.108313022359129,0.249961501643581,0.249800124428361,0.708729056966461,0.70738822865415,0.04,0.0362015848789915,338.519440992307,0.893275812347232,0.27845352287597
8357,-0.25,-0.24999985187503,-0.25,0.249892651055712,0.240223891241498,-0.24999829079574,0.249999470164649,0.249999839823556,0.741337672312807,0.730652134161084,0.04,0.0182748930043905,353.666104205371,0.817510678168357,0.317873761238871
8417,-0.249998594202696,-0.249999854716741,-0.249999996109301,0.249923066589927,0.242986864997874,-0.249998775070281,0.249999620284665,0.249999463036629,0.75407820233704,0.753916039668019,0.04,0.0191850407394025,359.923752328358,0.804547116799744,0.328710594105727
8477,-0.249995038362456,-0.249999861904596,-0.249999986268122,0.25,0.249975563322823,-0.25,0.25,0.249998509987342,0.774614367592395,0.777179945174954,0.04,0.0181226032149478,369.737351944984,0.816616611953134,0.33268237443668
8537,-0.24999644415976,-0.156476691856358,-0.2002656392061,0.10887002954409,0.249982314244544,-0.108333684953417,0.108615910506504,0.249990314825541,0.794973974155949,0.800443850681888,0.04,0.0177604997328932,379.358409528056,0.840750396270951,0.331541052199371
8597,-0.25,0.0800819147362429,-0.0744669966374547,-0.248105778079684,0.249999390105367,0.249998758987942,-0.204835511244255,0.249969585886867,0.816171532935686,0.823707756188823,0.04,0.0198121467116901,389.609241888429,0.887019990828364,0.322738308731766
8657,-0.108354644552612,-0.0134411748724096,-0.124201048122222,-0.248641295975085,0.249967990242354,0.249997785309739,-0.107622290721474,0.249970458639967,0.838123694343857,0.846971661695758,0.04,0.0237330921755806,399.884334094972,0.927578293907329,0.316765948229546
8717,0.249924783931958,-0.249999578000178,-0.249998943054279,-0.249995841239926,0.249888567059439,0.249995322476637,0.249986900890365,0.249972666191927,0.8584978625855,0.870235567202692,0.04,0.0308593200287166,409.851481215914,1.00815785852622,0.298711983392484
8777,0.249936387148572,-0.24999968394025,-0.249999242522234,-0.24999701955528,0.108253473059264,0.249859858617646,0.11005986289027,0.127758673405212,0.895128185523021,0.886908032815995,0.04,0.0264224448906879,427.415831348286,1.02978033873599,0.304972503462223
8837,0.249965736461185,-0.249999951906314,-0.25,-0.25,-0.25,0.249517214739023,-0.243873233227617,-0.181370837761187,0.906087724229247,0.886908032815995,0.04,0.0207385473895473,432.108951114431,0.891694847907466,0.356066964121458
8897,0.249967314988391,-0.24999944470448,-0.108336580635126,-0.249999999946269,-0.249999995156124,0.153252160391714,-0.245609150475418,-0.200815762017587,0.891784210244113,0.886908032815995,0.04,0.0245184869352111,425.409627921472,0.842530233321149,0.371002210247924
8957,0.249971307733678,-0.249998161782195,0.249988538934851,-0.24999999981036,-0.249999982903965,-0.0902418006044203,-0.249999999984561,-0.24999998219554,0.887807256653922,0.886908032815995,0.04,0.0252606209754122,423.568070950732,0.831987070712015,0.374077264834814
9017,0.24997736021212,-0.249998682610573,0.249991786236643,-0.249999964964228,-0.249999973180205,0.00615913299241379,-0.147713568119006,-0.247492476766252,0.88156251930451,0.886908032815995,0.04,0.0300443910294967,420.48108985658,0.838521901887304,0.368456934719188
9077,0.249992669422296,-0.25,0.25,-0.249999876824014,-0.249999948584812,0.249996788560876,0.111010936011516,-0.241149963033345,0.879257103940743,0.886908032815995,0.04,0.0389077666530113,419.58253478325,0.898602150998374,0.343087286241559
