time,bias_percent_1,bias_percent_2,bias_percent_3,bias_percent_4,bias_percent_5,bias_percent_6,bias_percent_8,bias_percent_9,normalized_power,power_SP,SP,CV,total_power_MW,fuel_fraction,thermal_efficiency
7,0,0,0,0,0,0,0,0,0.997044013995372,1,0.04,0.0403050960317049,475.819235665395,1.00062055435299,0.349403500428718
67,0.000492954872959672,-0.00268260561868567,-0.00165633397515569,0.00415297422152662,0.00042108232995156,0.0037505568297214,-0.0014437361740849,-0.00321275745997508,0.9998467654935,0.99929243257845,0.04,0.0399910993424339,477.01119388944,0.999225850781909,0.350767692545605
127,0.00471828235547048,-0.0256763680645631,-0.0158534823336341,0.0397498961203261,0.00403035944382191,0.0358981867987621,-0.0138186176662417,-0.0307506785454763,0.995449164309602,0.993227568965165,0.04,0.0415955254269472,474.882958136899,0.987165652000561,0.353468913531212
187,0.00894360983798128,-0.0486701305104407,-0.0300506306921125,0.0753468180191252,0.00763963655769237,0.0680458167678026,-0.0261934991583984,-0.0582885996309774,0.98936157137371,0.98716270535188,0.04,0.0425017539087861,471.974653084102,0.973388863145478,0.356276337518563
247,0.0131689373204922,-0.0716638929563181,-0.0442477790505908,0.110943739917925,0.0112489136715627,0.100193446736843,-0.0385683806505551,-0.0858265207164785,0.983067061415333,0.981097841738595,0.04,0.042592111434124,468.971097320846,0.960773046895283,0.358657521691846
307,0.0173942648030032,-0.0946576554021956,-0.058444927409069,0.146540661816724,0.0148581907854332,0.132341076705884,-0.0509432621427119,-0.11336444180198,0.976753342166853,0.97503297812531,0.04,0.0422152783285204,465.958837438526,0.949638543724556,0.360532064922666
367,0.021619592285514,-0.117651417848073,-0.0726420757675475,0.182137583715523,0.0184674678993035,0.164488706674925,-0.0633181436348687,-0.140902362887481,0.970449846344395,0.968968114512025,0.04,0.0416250106357413,462.951573853931,0.939964179084889,0.361891962498995
427,0.0258449197680249,-0.140645180293951,-0.0868392241260258,0.217734505614322,0.0220767450131739,0.196636336643965,-0.0756930251270253,-0.168440283972982,0.964167913580801,0.96290325089874,0.04,0.0409767857084297,459.954667245636,0.931640777538515,0.362761523536939
487,0.0300702472505359,-0.163638942739828,-0.101036372484504,0.253331427513122,0.0256860221270443,0.228783966613006,-0.0880679066191821,-0.195978205058483,0.957913912281665,0.956838387285455,0.04,0.0403609066923418,456.971119392486,0.924511447082445,0.363187704160997
547,0.0342955747330467,-0.186632705185706,-0.115233520842982,0.288928349411921,0.0292952992409148,0.260931596582047,-0.100442788111339,-0.223516126143984,0.951695127787361,0.95077352367217,0.04,0.0398229183373352,454.004237204222,0.918403504889031,0.363229447373111
607,0.0385209022155576,-0.209626467631583,-0.129430669201461,0.32452527131072,0.0329045763547852,0.293079226551087,-0.112817669603496,-0.251054047229485,0.945494170712357,0.944708660058886,0.04,0.0393829038653602,451.046104076389,0.913131018135291,0.362946419702713
667,0.0427462296980685,-0.232620230077461,-0.143627817559939,0.36012219320952,0.0365138534686555,0.325226856520128,-0.125192551095652,-0.278591968314986,0.939324278655047,0.938643796445601,0.04,0.0390362606439607,448.102654657036,0.908542469809588,0.362398974321476
727,0.0469715571805795,-0.255613992523338,-0.157824965918417,0.395719115108319,0.0401231305825261,0.357374486489169,-0.137567432587809,-0.306129889400488,0.933178602473054,0.932578932832316,0.04,0.0387753511727324,445.170731227305,0.904486911153931,0.361642108473359
787,0.0511968846630901,-0.278607754969215,-0.172022114276896,0.431316037007118,0.0437324076963963,0.389522116458209,-0.149942314079966,-0.333667810485989,0.927054146567775,0.926514069219031,0.04,0.038587605251001,442.248909883433,0.900830878112235,0.360726612227529
847,0.0554222121456012,-0.301601517415093,-0.186219262635374,0.466912958905918,0.0473416848102668,0.42166974642725,-0.162317195572122,-0.36120573157149,0.920947641435328,0.920449205605746,0.04,0.038459304932305,439.335625539151,0.89745976225976,0.359696416953492
907,0.0591545847551524,-0.321912674242285,-0.198760077018696,0.49835690658319,0.0505298795941856,0.450066819566569,-0.173248340890194,-0.385530895197016,0.914896804003142,0.915091909414011,0.04,0.0382834708727411,436.465368128915,0.895192803805488,0.358251389658734
967,0.0591545847551524,-0.321912674242285,-0.198760077018696,0.49835690658319,0.0505298795941856,0.450066819566569,-0.173248340890194,-0.385530895197016,0.91329843917173,0.915091909414011,0.04,0.0366951505167518,435.732264849475,0.904453349289287,0.353987742858321
1027,0.0591545847551524,-0.321912674242285,-0.198760077018696,0.49835690658319,0.0505298795941857,0.450066819566569,-0.173248340890194,-0.385530895197016,0.913298901818259,0.915091909414011,0.04,0.035883860232991,435.736290825411,0.915440132802637,0.349742540611483
1087,0.0591545847551524,-0.321912674242285,-0.198760077018696,0.49835690658319,0.0505298795941857,0.450066819566569,-0.173248340890194,-0.385530895197016,0.91353238357615,0.915091909414011,0.04,0.0358855271640521,435.848479171842,0.925324918294814,0.346095500880248
1147,0.0591545847551525,-0.321912674242285,-0.198760077018696,0.49835690658319,0.0505298795941857,0.450066819566569,-0.173248340890194,-0.385530895197016,0.913821878752574,0.915091909414011,0.04,0.036346711182421,435.986783774987,0.933550275164943,0.343154967046337
1207,0.0591545847551524,-0.321912674242285,-0.198760077018696,0.49835690658319,0.0505298795941857,0.450066819566569,-0.173248340890194,-0.385530895197016,0.91411492329231,0.915091909414011,0.04,0.0370111287434291,436.126485522705,0.940006028943633,0.340907455342792
1267,0.0591545847551524,-0.321912674242285,-0.198760077018696,0.49835690658319,0.0505298795941857,0.450066819566569,-0.173248340890194,-0.385530895197016,0.914382497111973,0.915091909414011,0.04,0.0377185867288609,436.253863959017,0.944793367678591,0.339279115260832
1327,0.0591545847551524,-0.321912674242285,-0.198760077018696,0.49835690658319,0.0505298795941857,0.450066819566569,-0.173248340890194,-0.385530895197016,0.914609201610972,0.915091909414011,0.04,0.0383763482066057,436.361668410888,0.94813184264005,0.338168022148942
1387,0.0591545847551524,-0.321912674242285,-0.198760077018696,0.49835690658319,0.0505298795941857,0.450066819566569,-0.173248340890194,-0.385530895197016,0.91478976273599,0.915091909414011,0.04,0.0389373582711115,436.447445381524,0.950291698402896,0.337465745853431
1447,0.0591545847551524,-0.321912674242285,-0.198760077018696,0.49835690658319,0.0505298795941857,0.450066819566569,-0.173248340890194,-0.385530895197016,0.91492563146718,0.915091909414011,0.04,0.03938456892925,436.511931226679,0.951546644204625,0.337070475055994
1507,0.0591545847551524,-0.321912674242285,-0.198760077018696,0.49835690658319,0.0505298795941857,0.450066819566569,-0.173248340890194,-0.385530895197016,0.915022093746618,0.915091909414011,0.04,0.0397195720108452,436.557666588751,0.952145251732089,0.336893855260753
1567,0.0591545847551524,-0.321912674242285,-0.198760077018696,0.49835690658319,0.0505298795941857,0.450066819566569,-0.173248340890194,-0.385530895197016,0.91508610189346,0.915091909414011,0.04,0.0399544652099152,436.587977111803,0.952296918705025,0.336863587136964
1627,0.0591545847551525,-0.321912674242285,-0.198760077018696,0.49835690658319,0.0505298795941857,0.450066819566569,-0.173248340890194,-0.385530895197016,0.91512485466251,0.915091909414011,0.04,0.0401062232466597,436.606293027379,0.952167730143263,0.336923426393056
1687,0.0591545847551524,-0.321912674242285,-0.198760077018696,0.49835690658319,0.0505298795941856,0.450066819566569,-0.173248340890194,-0.385530895197016,0.91514503280594,0.915091909414011,0.04,0.0401930073878321,436.615796446712,0.951882562538654,0.337031698705565
1747,0.0591545847551524,-0.321912674242285,-0.198760077018696,0.49835690658319,0.0505298795941857,0.450066819566569,-0.173248340890194,-0.385530895197016,0.915152266227329,0.915091909414011,0.04,0.0402319137350803,436.619164601123,0.951530025152457,0.337159168263346
1807,0.0616077345069433,-0.317555658274439,-0.19778985712032,0.494353261582284,0.0474091529336724,0.447132570594784,-0.168145400645077,-0.385158212434381,0.914963509191421,0.913536211698498,0.04,0.0405366296372644,436.468464105708,0.949271655683011,0.337844640049858
1867,0.0826347323794369,-0.280209807121474,-0.189473686562804,0.460036304431655,0.0206600672721307,0.421981865122342,-0.124405912829791,-0.381963788754651,0.903810890659164,0.900201659851244,0.04,0.0446443590601702,431.107396360163,0.929461912137674,0.340807036167301
1927,0.10366173025193,-0.24286395596851,-0.181157516005289,0.425719347281025,-0.00608901838941108,0.3968311596499,-0.0806664250145037,-0.378769365074921,0.890762871333415,0.88686710800399,0.04,0.0479469188717347,424.877567607134,0.90573425555716,0.344681270422882
1987,0.124688728124424,-0.205518104815546,-0.172841345447773,0.391402390130396,-0.0328381040509528,0.371680454177458,-0.0369269371992168,-0.375574941395192,0.877411760472043,0.873532556156736,0.04,0.0502375807492905,418.506276584925,0.881664834711773,0.348781252373107
2047,0.145715725996917,-0.168172253662581,-0.164525174890258,0.357085432979767,-0.0595871897124946,0.346529748705016,0.00681255061607015,-0.372380517715462,0.863914914360049,0.860198004309482,0.04,0.051687184976746,412.066168906496,0.858316126438837,0.352755963049874
2107,0.166742723869411,-0.130826402509617,-0.156209004332742,0.322768475829137,-0.0863362753740363,0.321379043232574,0.050552038431357,-0.369186094035732,0.85036934201711,0.846863452462228,0.04,0.0524825098919612,405.603365935468,0.836190555757433,0.356410892642715
2167,0.187769721741905,-0.0934805513566524,-0.147892833775227,0.288451518678508,-0.113085361035578,0.296228337760132,0.094291526246644,-0.365991670356003,0.836856257154563,0.833528900614974,0.04,0.0528338561760271,399.157895353336,0.815286855780224,0.359740190027927
2227,0.208796719614398,-0.0561347002036881,-0.139576663217711,0.254134561527879,-0.13983444669712,0.27107763228769,0.138031014061931,-0.34639894454139,0.823101580945417,0.82019434876772,0.04,0.0534223429451217,392.592497717197,0.79580007291091,0.362487218600339
2287,0.229823717486892,-0.0187888490507236,-0.131260492660195,0.21981760437725,-0.166583532358662,0.245926926815248,0.181770501877218,-0.312727328860815,0.809641293329852,0.806859796920466,0.04,0.0541597646106831,386.174034061701,0.778394175910127,0.364534106022612
2347,0.250850715359385,0.0185570021022407,-0.12294432210268,0.18550064722662,-0.193332618020203,0.220776221342806,0.225509989692505,-0.277100757501189,0.79636894930169,0.793525245073212,0.04,0.0551130754236875,379.842235918196,0.76081887790561,0.366839970599002
2407,0.271877713231878,0.0559028532552051,-0.114628151545165,0.151183690075991,-0.220081703681745,0.195625515870364,0.269249477507791,-0.239202405619741,0.783116424389369,0.780190693225958,0.04,0.0561815323109367,373.519452857397,0.742765401534895,0.369501525044668
2467,0.292904711104372,0.0932487044081695,-0.106311980987649,0.116866732925362,-0.246830789343287,0.170474810397922,0.312988965323078,-0.19876996000627,0.769856911614586,0.766856141378704,0.04,0.0572235274184778,367.193255594175,0.724242656731311,0.372533447530427
2527,0.313931708976866,0.130594555561134,-0.0979958104301336,0.0825497757747328,-0.273579875004829,0.14532410492548,0.356728453138365,-0.155756773079957,0.756587355680473,0.75352158953145,0.04,0.0581080730391581,360.862270825403,0.70530995081528,0.375937927510464
2587,0.334958706849359,0.167940406714098,-0.0896796398726181,0.0482328186241036,-0.30032896066637,0.120173399453038,0.400467940953652,-0.110397377121731,0.743306197800869,0.740187037684196,0.04,0.0587070074642063,354.525691986341,0.686029082340944,0.379716844202171
2647,0.355985704721853,0.205286257867063,-0.0813634693151025,0.0139158614734744,-0.327078046327912,0.0950226939805959,0.444207428768939,-0.0632294157929891,0.729915218476156,0.726852485836943,0.04,0.0589237802256865,348.172247553213,0.666641466782334,0.383757170105317
2707,0.374559552842555,0.238275093052181,-0.0740175186559638,-0.0163974506762482,-0.350706405328941,0.0728062374799389,0.482843976339109,-0.0298670588680177,0.716257799693402,0.713517933989688,0.04,0.0591795215736416,341.617922991889,0.648398752052728,0.387126725279179
2767,0.374559552842555,0.238275093052181,-0.0740175186559638,-0.0163974506762482,-0.350706405328941,0.0728062374799388,0.482843976339109,-0.0141078688842298,0.702691495643752,0.700183382142435,0.04,0.05913114453199,335.145284501087,0.632025885914269,0.389630479953652
2827,0.374559552842555,0.238275093052181,-0.0740175186559638,-0.0163974506762481,-0.350706405328941,0.0728062374799389,0.482843976339109,-0.00666378995569091,0.68905204983241,0.686848830295181,0.04,0.0592387521382574,328.638796142409,0.617573792347723,0.391007105425305
2887,0.374559552842555,0.238275093052181,-0.0740175186559638,-0.0163974506762481,-0.350706405328941,0.0728062374799389,0.482843976339109,-0.00314747273728205,0.675536720469759,0.673514278447927,0.04,0.0594963254644061,322.191512337753,0.604457492040499,0.391654397152827
2947,0.374559552842555,0.238275093052181,-0.0740175186559638,-0.0163974506762482,-0.350706405328941,0.0728062374799389,0.482843976339109,-0.00148648997470577,0.662107070445283,0.660179726600673,0.04,0.0599355446642251,315.784718214743,0.592062612258828,0.391902603524185
3007,0.374559552842555,0.238275093052181,-0.0740175186559638,-0.0163974506762481,-0.350706405328941,0.0728062374799389,0.482843976339109,-0.000701900995753628,0.64872239766905,0.646845174753419,0.04,0.0605319769417739,309.39913501448,0.58004512451462,0.391933143467822
3067,0.374559552842555,0.238275093052181,-0.0740175186559639,-0.0163974506762482,-0.350706405328941,0.0728062374799388,0.482843976339109,-0.000331289162814461,0.635359580797645,0.633510622906165,0.04,0.0612456280930947,303.02385149708,0.568233954301975,0.391835977213177
3127,0.374559552842555,0.238275093052181,-0.0740175186559639,-0.0163974506762482,-0.350706405328941,0.0728062374799388,0.482843976339109,-0.000156225359485362,0.622006876272951,0.620176071058911,0.04,0.0620422399614463,296.653326160682,0.556548421787572,0.391652535874305
3187,0.374559552842555,0.238275093052181,-0.0740175186559638,-0.0163974506762482,-0.350706405328941,0.0728062374799389,0.482843976339109,-7.35314665416986e-05,0.608658594053199,0.606841519211657,0.04,0.0628980512191425,290.284882427232,0.544952433946569,0.391399709248861
3247,0.374559552842555,0.238275093052181,-0.0740175186559638,-0.0163974506762482,-0.350706405328941,0.0728062374799389,0.482843976339109,-3.44698227290423e-05,0.59531205597732,0.593506967364403,0.04,0.0637985261218337,283.917258798325,0.533431085687377,0.39108228947
3307,0.374559552842555,0.238275093052181,-0.0740175186559638,-0.0163974506762482,-0.350706405328941,0.0728062374799389,0.482843976339109,-1.60184962398493e-05,0.581966083093942,0.580172415517149,0.04,0.0647357242197156,277.549896987934,0.521979064195973,0.390699326267032
3367,0.374559552842555,0.238275093052181,-0.0740175186559638,-0.0163974506762482,-0.350706405328941,0.0728062374799389,0.482843976339109,-7.30274810484558e-06,0.56862016075925,0.566837863669895,0.04,0.0657060288530864,271.182555328611,0.510595222212616,0.390247094541313
3427,0.374559552842555,0.238275093052181,-0.0740175186559638,-0.0163974506762482,-0.350706405328941,0.0728062374799388,0.482843976339109,-3.18573973706079e-06,0.555274079495784,0.553503311822641,0.04,0.0667084856622766,264.815139346746,0.499280145038825,0.389720445578548
3487,0.374559552842555,0.238275093052181,-0.0740175186559638,-0.0163974506762482,-0.350706405328941,0.0728062374799389,0.482843976339109,-1.241011913599e-06,0.54192773191821,0.540168759975387,0.04,0.0677437447797748,258.447592268791,0.488035246477798,0.389113213185511
3547,0.374559552842555,0.238275093052181,-0.0740175186559638,-0.0163974506762482,-0.350706405328941,0.0728062374799388,0.482843976339109,-3.22391894038312e-07,0.528580995572376,0.526834208128133,0.04,0.0688133127803315,252.079860782978,0.476862613096568,0.388418182996821
3607,0.372162628987921,0.238648020560764,-0.070570708848483,-0.0130736857450694,-0.351734327368742,0.0686448056747585,0.481515384338737,1.11531419114864e-07,0.515269781795382,0.515055353996392,0.04,0.0695407075413239,245.747502359772,0.467826926373066,0.385974465368286
3667,0.351617567376768,0.241844542062899,-0.0410266247843614,0.0154157279507484,-0.360545087709896,0.0329753902017835,0.47012745290698,3.16501306215599e-07,0.512670619325824,0.515055353996392,0.04,0.0622298368876255,244.596163691022,0.48078703597209,0.373810562433775
3727,0.331072505765616,0.245041063565035,-0.01148254072024,0.0439051416465662,-0.369355848051049,-0.00269402527119161,0.458739521475222,4.13321765832749e-07,0.513243822717921,0.515055353996392,0.04,0.0577196679855145,244.874365326303,0.493100082170587,0.364890809357838
3787,0.310527444154463,0.24823758506717,0.0180615433438816,0.0723945553423841,-0.378166608392203,-0.0383634407441666,0.447351590043464,4.5905629003452e-07,0.513902148297454,0.515055353996392,0.04,0.0557751957124646,245.187345138736,0.501285939653989,0.359391005670528
3847,0.289982382543311,0.251434106569306,0.047605627408003,0.100883969038202,-0.386977368733356,-0.0740328562171417,0.435963658611706,4.80659652628189e-07,0.514383572440349,0.515055353996392,0.04,0.0549363268184594,245.415485977953,0.506207617166196,0.356227927373009
3907,0.269437320932158,0.254630628071441,0.0771497114721246,0.12937338273402,-0.39578812907451,-0.109702271690117,0.424575727179948,4.81440843544694e-07,0.514692206493689,0.515055353996392,0.04,0.0544155200141471,245.561510197867,0.508941472241994,0.354525215856746
3967,0.248892259321006,0.257827149573577,0.106693795536246,0.157862796429838,-0.404598889415664,-0.145371687163092,0.413187795748191,0.00271777852151714,0.514867280548426,0.515055353996392,0.04,0.0539800772388355,245.643892819917,0.510372956520583,0.353649455231999
4027,0.228347197709853,0.261023671075712,0.136237879600368,0.186352210125655,-0.413409649756817,-0.181041102636067,0.401799864316433,0.0583579395878802,0.513616878504365,0.515055353996392,0.04,0.055051766488695,245.044827811702,0.517506733434606,0.347923858967566
4087,0.207802136098701,0.264220192577848,0.165781963664489,0.214841623821473,-0.422220410097971,-0.216710518109042,0.390411932884675,0.113998100654243,0.51372518456039,0.515055353996392,0.04,0.0560832246201382,245.10040065487,0.525945463930787,0.342419101700757
4147,0.187257074487548,0.267416714079983,0.195326047728611,0.243331037517291,-0.431031170439124,-0.252379933582017,0.379024001452917,0.169638261720606,0.513975876161148,0.515055353996392,0.04,0.0578236851871782,245.219530198688,0.532903688482704,0.338112328116522
4207,0.166712012876396,0.270613235582119,0.224870131792732,0.271820451213109,-0.439841930780278,-0.288049349054992,0.36763607002116,0.22527842278697,0.514127451551867,0.515055353996392,0.04,0.0598173341834226,245.291006072332,0.538728284218108,0.334554228498091
4267,0.146166951265243,0.273809757084254,0.254414215856854,0.300309864908927,-0.448652691121432,-0.323718764527967,0.356248138589402,0.280918583853333,0.51419380870467,0.515055353996392,0.04,0.0617828025887037,245.322175928082,0.544002787888245,0.331352581929331
4327,0.125621889654091,0.27700627858639,0.283958299920975,0.328799278604745,-0.457463451462585,-0.359388180000942,0.344860207157644,0.336558744919696,0.514218200379308,0.515055353996392,0.04,0.0636399610857792,245.3336122092,0.549063121487834,0.328314039657961
4387,0.105076828042938,0.280202800088525,0.313502383985097,0.357288692300562,-0.466274211803739,-0.395057595473917,0.333472275725886,0.392198905986059,0.514226782257689,0.515055353996392,0.04,0.0653934269098184,245.337637253609,0.554047839933195,0.325365565848427
4447,0.0845317664317859,0.283399321590661,0.343046468049218,0.38577810599638,-0.475084972144892,-0.430727010946892,0.322084344294128,0.447839067052422,0.514229850189571,0.515055353996392,0.04,0.0670647199788133,245.339073892635,0.559005492299328,0.322481884413428
4507,0.0663836286752678,0.286222915584214,0.369143742305859,0.410943754761019,-0.482867810446245,-0.462234994614687,0.312025004862742,0.496987875994376,0.51427470890771,0.515055353996392,0.04,0.0684520021449151,245.37384267631,0.563907947802102,0.319723622459695
4567,0.0663836286752679,0.286222915584214,0.369143742305859,0.410943754761019,-0.482867810446245,-0.462234994614687,0.312025004862742,0.496987875994376,0.515126334501061,0.515055353996392,0.04,0.0690683155228114,245.768748815295,0.564457674593656,0.319926306781191
4627,0.0663836286752678,0.286222915584214,0.369143742305859,0.410943754761019,-0.482867810446245,-0.462234994614687,0.312025004862742,0.496987875994376,0.515159643406454,0.515055353996392,0.04,0.0696842246295344,245.782012463017,0.563738386348735,0.320351796762205
4687,0.0663836286752678,0.286222915584214,0.369143742305859,0.410943754761019,-0.482867810446245,-0.462234994614687,0.312025004862742,0.496987875994376,0.51507574902994,0.515055353996392,0.04,0.0699019234025611,245.742124920616,0.563454659374199,0.320461094033101
4747,0.0663836286752678,0.286222915584214,0.369143742305859,0.410943754761019,-0.482867810446245,-0.462234994614687,0.312025004862742,0.496987875994376,0.515037652181415,0.515055353996392,0.04,0.0699337049836503,245.724346400076,0.563508215795314,0.320407455115237
4807,0.0663836286752678,0.286222915584214,0.369143742305859,0.410943754761019,-0.482867810446245,-0.462234994614687,0.312025004862742,0.496987875994376,0.515034874646768,0.515055353996392,0.04,0.0699274980946612,245.72317798237,0.563635207691269,0.320333741347256
4867,0.0663836286752678,0.286222915584214,0.369143742305859,0.410943754761019,-0.482867810446245,-0.462234994614687,0.312025004862742,0.496987875994376,0.515041376262595,0.515055353996392,0.04,0.0699257363366663,245.726292663831,0.563733123493293,0.320282161721525
4927,0.0663836286752678,0.286222915584214,0.369143742305859,0.410943754761019,-0.482867810446245,-0.462234994614687,0.312025004862742,0.496987875994376,0.515046697754859,0.515055353996392,0.04,0.0699294065193647,245.728811189686,0.56379465798501,0.320250487336816
4987,0.0663836286752678,0.286222915584214,0.369143742305859,0.410943754761019,-0.482867810446245,-0.462234994614687,0.312025004862742,0.496987875994376,0.515049651460472,0.515055353996392,0.04,0.069933842885833,245.730205347709,0.563833977490487,0.320229971195412
5047,0.0663836286752678,0.286222915584214,0.369143742305859,0.410943754761019,-0.482867810446245,-0.462234994614687,0.312025004862742,0.496987875994376,0.515051249457473,0.515055353996392,0.04,0.0699370875774763,245.730960761005,0.563861443082,0.320215357239296
5107,0.0663836286752678,0.286222915584214,0.369143742305859,0.410943754761019,-0.482867810446245,-0.462234994614687,0.312025004862742,0.496987875994376,0.515052247451151,0.515055353996392,0.04,0.0699390958434265,245.731433793621,0.563881934098987,0.320204337263012
5167,0.0663836286752678,0.286222915584214,0.369143742305859,0.410943754761019,-0.482867810446245,-0.462234994614687,0.312025004862742,0.496987875994376,0.515052950355761,0.515055353996392,0.04,0.0699402833269685,245.731767342988,0.563897683775905,0.320195828572359
5227,0.0663836286752678,0.286222915584214,0.369143742305859,0.410943754761019,-0.482867810446245,-0.462234994614687,0.312025004862742,0.496987875994376,0.515053459691819,0.515055353996392,0.04,0.0699409733416279,245.732009027422,0.563910010666328,0.32018914411027
5287,0.0663836286752678,0.286222915584214,0.369143742305859,0.410943754761019,-0.482867810446245,-0.462234994614687,0.312025004862742,0.496987875994376,0.515053823604261,0.515055353996392,0.04,0.0699413472511571,245.732181651967,0.563919876278725,0.320183767421439
5347,0.0663836286752679,0.286222915584214,0.369143742305859,0.410943754761019,-0.482867810446245,-0.462234994614687,0.312025004862742,0.496987875994376,0.515054079736052,0.515055353996392,0.04,0.0699415062076313,245.732303132961,0.563928001510828,0.320179312409169
5407,0.0643720574144951,0.285789122970657,0.369258440074147,0.405045164100056,-0.48026761512268,-0.455203644303865,0.312087806842869,0.491618443089239,0.515078218501775,0.515055353996392,0.04,0.0698713424103276,245.750807630756,0.563909299310943,0.320214042656454
5467,0.0471300180364425,0.282070900568737,0.370241563802331,0.354485815577518,-0.457980226634984,-0.394934927353964,0.312626109529665,0.445594732473775,0.515566356436689,0.515055353996392,0.04,0.0690276017911297,245.97724572929,0.561342196854125,0.321974828558149
5527,0.02988797865839,0.278352678166818,0.371224687530514,0.303926467054979,-0.435692838147289,-0.334666210404063,0.313164412216462,0.399571021858311,0.515497098789421,0.515055353996392,0.04,0.0680372875112606,245.942639493543,0.558454718022245,0.323594060445639
5587,0.0126459392803374,0.274634455764899,0.372207811258698,0.253367118532441,-0.413405449659593,-0.274397493454162,0.313702714903258,0.353547311242847,0.515387044093587,0.515055353996392,0.04,0.0667067118036844,245.89052928353,0.556265403023086,0.324798809150289
5647,-0.00459610009771507,0.27091623336298,0.373190934986881,0.202807770009902,-0.391118061171898,-0.21412877650426,0.314241017590055,0.307523600627383,0.51533671192173,0.515055353996392,0.04,0.0652250866333521,245.866937500626,0.55450092166308,0.325801092029063
5707,-0.0218381394757676,0.267198010961061,0.374174058715065,0.152248421487364,-0.368830672684202,-0.153860059554359,0.314779320276851,0.261499890011919,0.515323646247592,0.515055353996392,0.04,0.0637029220056423,245.860882068094,0.552875455550748,0.326750906757896
5767,-0.0390801788538201,0.263479788559142,0.375157182443248,0.101689072964825,-0.346543284196506,-0.0935913426044579,0.315317622963648,0.215476179396455,0.515323690771862,0.515055353996392,0.04,0.0621633085479345,245.860952190307,0.551268567391825,0.327703443721061
5827,-0.0563222182318727,0.259761566157222,0.376140306171432,0.0511297244422866,-0.324255895708811,-0.0333226256545568,0.315855925650444,0.169452468780991,0.515326136430483,0.515055353996392,0.04,0.0605979335843303,245.862112065927,0.549648485644983,0.328670895883023
5887,-0.0735642576099251,0.256043343755303,0.377123429899615,0.000570375919748017,-0.301968507221115,0.0269460912953444,0.316394228337241,0.123428758165527,0.515324982414272,0.515055353996392,0.04,0.0589921993677238,245.861510810646,0.548025151460481,0.329643663121275
5947,-0.0908062969879778,0.252325121353384,0.378106553627799,-0.0499889726027906,-0.279681118733419,0.0872148082452455,0.316932531024037,0.0774050475500632,0.51531519546101,0.515055353996392,0.04,0.0573302333091573,245.856757833375,0.546440783503809,0.330593051419705
6007,-0.10804833636603,0.248606898951465,0.379089677355982,-0.100548321125329,-0.257393730245723,0.147483525195147,0.317470833710834,0.0313813369345993,0.51529454435175,0.515055353996392,0.04,0.0555979437688065,245.846822773223,0.544957994670006,0.33147917411348
6067,-0.125290375744083,0.244888676549546,0.380072801084166,-0.151107669647868,-0.235106341758028,0.207752242145048,0.318009136397631,4.99999999999965e-07,0.514783077453354,0.515055353996392,0.04,0.0544547122770409,245.590868672206,0.544425793667796,0.331457765763535
6127,-0.142532415122135,0.241170454147626,0.38105592481235,-0.201667018170406,-0.212818953270332,0.268020959094949,0.318547439084427,4.99999999999984e-07,0.514184196072291,0.515055353996392,0.04,0.0537508861830066,245.316420116965,0.549073212429159,0.328284999220752
6187,-0.159774454500188,0.237452231745707,0.382039048540533,-0.252226366692945,-0.190531564782636,0.32828967604485,0.319085741771224,5.00000000000029e-07,0.514196390092681,0.515055353996392,0.04,0.0534522301402993,245.323661436545,0.554336922361244,0.325177365222125
6247,-0.17701649387824,0.233734009343788,0.383022172268717,-0.302785715215483,-0.168244176294941,0.388558392994751,0.31962404445802,5.00000000000014e-07,0.514272091739864,0.515055353996392,0.04,0.0536098762492378,245.3597908859,0.559191758695348,0.322401687954373
6307,-0.19224696199552,0.230449579555426,0.383890598228612,-0.347446473077059,-0.14855698313081,0.441795759633831,0.32009954516469,5.00000000000006e-07,0.514343823445515,0.514094116795409,0.04,0.0539401253018232,245.39360070079,0.562323780640148,0.320650158726108
6367,-0.19224696199552,0.230449579555426,0.383890598228612,-0.347446473077059,-0.14855698313081,0.441795759633831,0.32009954516469,5.00000000000003e-07,0.508495171644286,0.505854940786977,0.04,0.0589053928811933,242.540470938989,0.547979899665954,0.325217767538782
6427,-0.19224696199552,0.230449579555426,0.383890598228612,-0.347446473077059,-0.14855698313081,0.441795759633831,0.32009954516469,5.00000000000001e-07,0.500133346476906,0.497615764778545,0.04,0.0625333351048662,238.545025872443,0.531846839454554,0.32956300839506
6487,-0.19224696199552,0.230449579555426,0.383890598228612,-0.347446473077059,-0.14855698313081,0.441795759633831,0.32009954516469,5.00000000000001e-07,0.49147112725235,0.489376588770113,0.04,0.0643804082917011,234.412057023845,0.517989002927292,0.332517175317136
6547,-0.19224696199552,0.230449579555426,0.383890598228612,-0.347446473077059,-0.14855698313081,0.441795759633831,0.32009954516469,5e-07,0.482862421118456,0.481137412761681,0.04,0.0652311440274655,230.30562691431,0.506519347313948,0.334089777013381
6607,-0.19224696199552,0.230449579555426,0.383890598228612,-0.347446473077059,-0.14855698313081,0.441795759633831,0.32009954516469,5e-07,0.474357813757769,0.472898236753249,0.04,0.0656573864179768,226.248886609478,0.496856757871773,0.334587664781686
6667,-0.19224696199552,0.230449579555426,0.383890598228612,-0.347446473077059,-0.14855698313081,0.441795759633831,0.32009954516469,5e-07,0.46594450875957,0.464659060744817,0.04,0.0659709649587087,222.235530337096,0.488414944255954,0.334332985390383
6727,-0.19224696199552,0.230449579555426,0.383890598228612,-0.347446473077059,-0.14855698313081,0.441795759633831,0.32009954516469,5e-07,0.457598694750982,0.456419884736385,0.04,0.0663161076357749,218.254184091275,0.480739350496566,0.333585820498268
6787,-0.19224696199552,0.230449579555426,0.383890598228612,-0.347446473077059,-0.14855698313081,0.441795759633831,0.32009954516469,5e-07,0.449298381572121,0.448180708727953,0.04,0.0667446644702195,214.294391311368,0.473514010397544,0.332531389655966
6847,-0.19224696199552,0.230449579555426,0.383890598228612,-0.347446473077059,-0.14855698313081,0.441795759633831,0.32009954516469,5e-07,0.441026506425737,0.439941532719521,0.04,0.067263183414432,210.348050833699,0.466535954897149,0.331289787886375
6907,-0.19224696199552,0.230449579555426,0.383890598228612,-0.347446473077059,-0.14855698313081,0.441795759633831,0.32009954516469,5e-07,0.432771086898951,0.431702356711089,0.04,0.0678596233813154,206.409483264187,0.459684266298896,0.329932185286948
6967,-0.19224696199552,0.230449579555426,0.383890598228612,-0.347446473077059,-0.14855698313081,0.441795759633831,0.32009954516469,5e-07,0.42452436194957,0.423463180702657,0.04,0.0685172091267739,202.475018394416,0.452892694706247,0.328496546327857
7027,-0.19224696199552,0.230449579555426,0.383890598228612,-0.347446473077059,-0.14855698313081,0.441795759633831,0.32009954516469,5e-07,0.416281694590822,0.415224004694226,0.04,0.0692206706549699,198.542462587711,0.446128676449642,0.327000141546564
7087,-0.19224696199552,0.230449579555426,0.383890598228612,-0.347446473077059,-0.14855698313081,0.441795759633831,0.32009954516469,5e-07,0.408040540713563,0.406984828685794,0.04,0.069958394203747,194.610613269405,0.439378745097885,0.325448409445549
7147,-0.19224696199552,0.230449579555426,0.383890598228612,-0.347446473077059,-0.14855698313081,0.441795759633831,0.32009954516469,5e-07,0.399799656309594,0.398745652677362,0.04,0.0707225446120763,190.67888722228,0.432639222085725,0.323840674978022
7207,-0.18744575126121,0.228485575337859,0.37800846334748,-0.341581177650111,-0.148238916064853,0.4383106702179,0.3212148277051,5e-07,0.391569259288424,0.39050647666893,0.04,0.0714378954081779,186.756215916174,0.425899145200874,0.322198098813764
7267,-0.146292516395693,0.211651253472997,0.327590164366353,-0.291307216847699,-0.145512626928085,0.408438475224212,0.33077439233718,5e-07,0.383313694973876,0.382267300660498,0.04,0.0727354966228716,182.814149641602,0.418872663892679,0.320687819161455
7327,-0.105139281530177,0.194816931608134,0.277171865385225,-0.241033256045286,-0.142786337791318,0.378566280230524,0.340333956969261,5e-07,0.375256883297351,0.374028124652066,0.04,0.0746821901200036,178.971175655715,0.411514220344871,0.319560373362978
7387,-0.06398604666466,0.177982609743272,0.226753566404097,-0.190759295242874,-0.14006004865455,0.348694085236836,0.349893521601342,5e-07,0.367192268376078,0.365788948643634,0.04,0.0770598903076596,175.123005852671,0.403005215890758,0.319291393441221
7447,-0.0228328117991433,0.16114828787841,0.176335267422969,-0.140485334440461,-0.137333759517782,0.318821890243147,0.359453086233422,5e-07,0.359054872481316,0.357549772635202,0.04,0.0796211750587447,171.240111608697,0.393736990407073,0.31956113951859
7507,0.0183204230663733,0.144313966013548,0.125916968441842,-0.090211373638049,-0.134607470381014,0.288949695249459,0.369012650865503,5e-07,0.350860423111599,0.34931059662677,0.04,0.0822046256139688,167.330183211777,0.384095214891509,0.320103237176292
7567,0.0594736579318899,0.127479644148686,0.075498669460714,-0.0399374128356366,-0.131881181244246,0.259077500255771,0.378572215497584,5e-07,0.342631943199543,0.341071420618338,0.04,0.0847338868193743,163.404186180703,0.374330214971633,0.320747271727548
7627,0.100626892797406,0.110645322283824,0.0250803704795863,0.0103365479667758,-0.129154892107478,0.229205305262082,0.388131780129664,5e-07,0.334387807367381,0.332832244609906,0.04,0.0871675773193649,159.47084040431,0.364570413059735,0.321406413708754
7687,0.141780127662923,0.0938110004189614,-0.0253379285015415,0.0606105087691881,-0.12642860297071,0.199333110268394,0.397691344761745,5e-07,0.326138643585724,0.324593068601475,0.04,0.0894672921064502,155.535137781727,0.354863006519866,0.322049379568357
7747,0.18293336252844,0.0769766785540993,-0.0757562274826692,0.1108844695716,-0.123702313833943,0.169460915274706,0.407250909393826,5e-07,0.317883118114229,0.316353892593043,0.04,0.0915864907242434,151.596333177336,0.345236381188001,0.322646395242395
7807,0.224086597393956,0.060142356689237,-0.126174526463797,0.161158430374013,-0.120976024697175,0.139588720281018,0.416810474025906,5e-07,0.309608719138172,0.308114716584611,0.04,0.0934813806509742,147.648421829569,0.335775701520681,0.323097963339222
7867,0.265239832259473,0.0433080348243749,-0.176592825444925,0.211432391176425,-0.118249735560407,0.109716525287329,0.426370038657987,5e-07,0.301315533905609,0.299875540576179,0.04,0.0952737108542491,143.691734628392,0.326611131733544,0.323262614659878
7927,0.30639306712499,0.0264737129595127,-0.227011124426052,0.261706351978838,-0.115523446423639,0.0798443302936411,0.435929603290068,5e-07,0.293005353755711,0.291636364567747,0.04,0.0972949187108311,139.726141963038,0.317780208251022,0.323076596211903
7987,0.347546301990506,0.00963939109465059,-0.27742942340718,0.31198031278125,-0.112797157286871,0.0499721352999528,0.445489167922148,5e-07,0.284574460771669,0.283397188559315,0.04,0.0989113614575096,135.703367661165,0.309887375229188,0.321766938356502
8047,0.388699536856023,-0.00719493077021161,-0.292751315462276,0.362254273583662,-0.110070868150103,0.0200999403062646,0.455048732554229,5e-07,0.276062644475149,0.275158012550883,0.04,0.103270104310724,131.63776986566,0.303327019160193,0.318877660531468
8107,0.425051560987229,-0.0220652484175066,-0.286736524433681,0.406662938959127,-0.107662646079292,-0.00628716527149339,0.4634930146459,5e-07,0.267446623116429,0.267880073743435,0.04,0.109245193306559,127.532825682693,0.300522019298476,0.311817410202926
8167,0.425051560987229,-0.0220652484175066,-0.288207965277355,0.406662938959127,-0.107662646079292,-0.00628716527149345,0.4634930146459,5e-07,0.264938233134201,0.267880073743435,0.04,0.0967870144741459,126.405894060021,0.317401882080924,0.292625725447511
8227,0.425051560987229,-0.0220652484175066,-0.29685538084973,0.406662938959127,-0.107662646079292,-0.00628716527149345,0.4634930146459,5e-07,0.266005506519114,0.267880073743435,0.04,0.0893076726428197,126.921360868604,0.331197533486935,0.281580322808005
8287,0.425051560987229,-0.0220652484175066,-0.305736611569448,0.406662938959127,-0.107662646079292,-0.00628716527149339,0.4634930146459,5e-07,0.267076216038306,0.267880073743435,0.04,0.087902611866308,127.42822493675,0.337953111035344,0.277053640408015
8347,0.425051560987229,-0.0220652484175066,-0.311962054208477,0.406662938959127,-0.107662646079292,-0.00628716527149339,0.4634930146459,5e-07,0.267585081743155,0.267880073743435,0.04,0.0887268382334489,127.667111200081,0.340519087817861,0.275481377793062
8407,0.425051560987229,-0.0220652484175066,-0.315665186115989,0.406662938959127,-0.107662646079292,-0.00628716527149339,0.4634930146459,5e-07,0.267751639446097,0.267880073743435,0.04,0.0896593383274666,127.74496514138,0.341530373955635,0.274833162156658
8467,0.425051560987229,-0.0220652484175066,-0.317762308796937,0.406662938959127,-0.107662646079292,-0.00628716527149339,0.4634930146459,5e-07,0.267802110705336,0.267880073743435,0.04,0.0902206853213535,127.768631264974,0.342076177115596,0.274445483829229
8527,0.425051560987229,-0.0220652484175066,-0.318967794354978,0.406662938959127,-0.107662646079292,-0.00628716527149339,0.4634930146459,5e-07,0.267826764213202,0.267880073743435,0.04,0.090503539751794,127.780314334405,0.342441805895076,0.274177523748597
8587,0.425051560987229,-0.0220652484175066,-0.319682808814035,0.406662938959127,-0.107662646079292,-0.00628716527149339,0.4634930146459,5e-07,0.267845140442939,0.267880073743435,0.04,0.0906478489059285,127.789042749971,0.342686654098462,0.274000340169011
8647,0.425051560987229,-0.0220652484175066,-0.320114994866423,0.406662938959127,-0.107662646079292,-0.00628716527149339,0.4634930146459,5e-07,0.267858478108541,0.267880073743435,0.04,0.0907291955718952,127.795365446284,0.342840996957114,0.273890539317701
8707,0.425051560987229,-0.0220652484175066,-0.320377297141968,0.406662938959127,-0.107662646079292,-0.00628716527149345,0.4634930146459,5e-07,0.267867056915727,0.267880073743435,0.04,0.0907784147044751,127.799425053764,0.342934578624647,0.273824496886807
8767,0.425051560987229,-0.0220652484175066,-0.32053630641762,0.406662938959127,-0.107662646079292,-0.00628716527149345,0.4634930146459,5e-07,0.267872158688013,0.267880073743435,0.04,0.090808405310263,127.801837296823,0.342991153969866,0.273784498017611
8827,0.425051560987229,-0.0220652484175066,-0.320632864580214,0.406662938959127,-0.107662646079292,-0.00628716527149345,0.4634930146459,5e-07,0.267875118084147,0.267880073743435,0.04,0.0908261832726944,127.803236496209,0.343026154542805,0.273759559636882
8887,0.425051560987229,-0.0220652484175066,-0.320691986087632,0.406662938959127,-0.107662646079292,-0.00628716527149345,0.4634930146459,5e-07,0.267876849781857,0.267880073743435,0.04,0.0908363364958166,127.804055464219,0.343048594680073,0.273743406110703
8947,0.425051560987229,-0.0220652484175066,-0.320728766651283,0.406662938959127,-0.107662646079292,-0.00628716527149345,0.4634930146459,5e-07,0.267877880533648,0.267880073743435,0.04,0.0908418787059817,127.804543059747,0.343063604601588,0.273732473462252
9007,0.424147827409628,-0.024807126193808,-0.320752232999659,0.402910107858162,-0.105430455809128,-0.0079459085457807,0.456348286774953,5e-07,0.2678794249985,0.267880073743435,0.04,0.0903279384474214,127.806690277163,0.34307334713272,0.273729298851431
9067,0.416401539601617,-0.0483089357049622,-0.3194094128605,0.370742984135605,-0.0862973963505814,-0.0221637080396714,0.395107762166832,5e-07,0.269262756524717,0.267880073743435,0.04,0.0833330048057148,128.469573165938,0.337017718836624,0.280092979109794
9127,0.408655251793605,-0.0718107452161164,-0.314628686798737,0.338575860413048,-0.0671643368920348,-0.0363815075335621,0.33386723755871,5e-07,0.269368353468126,0.267880073743435,0.04,0.077068840845487,128.514539086916,0.327969619318381,0.287920987729801
9187,0.400908963985594,-0.0953125547272708,-0.308077961581442,0.306408736690491,-0.0480312774334882,-0.0505993070274528,0.272626712950589,5e-07,0.269216739853467,0.267880073743435,0.04,0.0688890040529494,128.442357697985,0.31965228467887,0.295246754507162
9247,0.393162676177583,-0.118814364238425,-0.301075279199564,0.274241612967934,-0.0288982179749417,-0.0648171065213436,0.211386188342468,5e-07,0.269149978053957,0.267880073743435,0.04,0.059248804548552,128.411298909017,0.311946859117869,0.302466511928885
