time,bias_percent_1,bias_percent_2,bias_percent_3,bias_percent_4,bias_percent_5,bias_percent_6,bias_percent_8,bias_percent_9,normalized_power,power_SP,SP,CV,total_power_MW,fuel_fraction,thermal_efficiency
42,0,0,0,0,0,0,0,0,0.999742792596141,1,0.04,0.0399371239329576,476.981246898418,0.999851637996697,0.350526146456214
102,-0.014931544822064,-0.00170755895503248,0.0220897152750565,0.0156870826995701,0.0183328359358977,0.00924252457724856,-0.00147318104427768,-0.0247199079417518,0.981353607229262,0.9692297030052,0.04,0.0484817115624437,467.905847830559,0.954003763105053,0.360381975376227
162,-0.0362623231392981,-0.00414692889079322,0.0536464513822802,0.0380972008418131,0.0445226015586089,0.0224461311161751,-0.00357772539324577,-0.0600340621442545,0.939546000973733,0.925272135869771,0.04,0.0608037508132573,447.877769873911,0.867814697623317,0.379216462057242
222,-0.0575931014565324,-0.00658629882655384,0.0852031874895038,0.0605073189840559,0.07071236718132,0.0356497376551016,-0.00568226974221392,-0.0953482163467571,0.89465205787633,0.881314568734343,0.04,0.068320864068787,426.479878419986,0.783452461660021,0.399982115010397
282,-0.0789238797737667,-0.00902566876231469,0.116759923596727,0.082917437126299,0.096902132804031,0.0488533441940282,-0.00778681409118201,-0.13066237054926,0.84959244202205,0.837357001598914,0.04,0.0718026139290086,404.983115549782,0.70568146189851,0.421679884858122
342,-0.100254658091001,-0.0114650386980754,0.148316659703951,0.105327555268542,0.123091898426742,0.0620569507329546,-0.00989135844015013,-0.165976524751762,0.804673893576493,0.793399434463486,0.04,0.0725678548786044,383.5528459661,0.63388803222823,0.444597824671188
402,-0.121585436408235,-0.0139044086338362,0.179873395811175,0.127737673410785,0.149281664049453,0.0752605572718812,-0.0119959027891182,-0.1680659248933,0.758202926277608,0.749441867328057,0.04,0.0721052945885394,361.640337136748,0.570760850819322,0.465561828313502
462,-0.14291621472547,-0.0163437785695969,0.211430131918398,0.150147791553028,0.175471429672164,0.0884641638108078,-0.0141004471380863,-0.0892384326951395,0.7122685346828,0.705484300192629,0.04,0.0714069428652324,339.440673197277,0.525433252608661,0.474680074925288
522,-0.164246993042704,-0.0187831485053575,0.242986868025622,0.172557909695271,0.201661195294876,0.101667770349734,-0.0162049914870544,-0.0421527870096197,0.666754111151478,0.6615267330572,0.04,0.071855361282267,317.751671777014,0.489446893441225,0.477020391058593
582,-0.185577771359938,-0.0212225184411183,0.274543604132845,0.194968027837514,0.227850960917587,0.114871376888661,-0.0183095358360226,-0.019911208399582,0.622258941808965,0.617569165921771,0.04,0.0749356244566936,296.527823295564,0.458301787276926,0.475410287164873
642,-0.206908549677172,-0.023661888376879,0.306100340240069,0.217378145979757,0.254040726540298,0.128074983427587,-0.00940508043076152,-0.00940508043076152,0.577908483430249,0.573611598786343,0.04,0.0808999366486778,275.370352810913,0.429803653187607,0.470762385357773
702,-0.228239327994406,-0.0261012583126397,0.337657076347293,0.239788264122,0.280230492163009,0.141278589966514,-0.00444236052528643,-0.00444236052528643,0.534005442152502,0.529654031650914,0.04,0.0889587226026303,254.425149358172,0.401663705979886,0.46542758919293
762,-0.249570106311641,-0.0285406282484005,0.369213812454516,0.262198382264242,0.30642025778572,0.15448219650544,-0.00209814875351999,-0.00209814875351999,0.490304679182474,0.485696464515486,0.04,0.0993005027209684,233.577786077471,0.372519510487964,0.460720132507977
822,-0.270900884628875,-0.0309799981841612,0.40077054856174,0.284608500406485,0.332610023408431,0.167685803044367,-0.000990829013783517,-0.000990829013783517,0.446782991308995,0.441738897380057,0.04,0.111849629898021,213.050679323262,0.342204798937716,0.457458291840165
882,-0.292231662946109,-0.0334193681199219,0.432327284668963,0.307018618548728,0.358799789031142,0.180889409583294,-0.000467770231726753,-0.000467770231726753,0.40356751932769,0.397781330244628,0.04,0.128126022209827,192.423521702685,0.307889650801776,0.459216774692363
942,-0.298630896441279,-0.0341511791006502,0.441794305501131,0.313741653991401,0.366656718717956,0.184850491544971,-0.000220694671914898,-0.000220694671914898,0.378193315767414,0.384594060104,0.04,0.114987408843039,180.408186678009,0.321700973211224,0.412058182757178
1002,-0.298630896441279,-0.0341511791006501,0.441794305501131,0.313741653991401,0.366656718717956,0.184850491544971,-0.000103984468926595,-0.000103984468926595,0.377873217273172,0.384594060104,0.04,0.0848194246199402,180.288274614162,0.36255690200064,0.365381018077655
1062,-0.298630896441279,-0.0341511791006501,0.441794305501131,0.313741653991401,0.366656718717956,0.184850491544972,-4.8854734236425e-05,-4.8854734236425e-05,0.378994093754504,0.384594060104,0.04,0.0722328610023577,180.829615682349,0.398871428929158,0.333112788958992
1122,-0.298630896441279,-0.0341511791006502,0.441794305501131,0.313741653991401,0.366656718717956,0.184850491544971,-2.28199474443733e-05,-2.28199474443733e-05,0.380462524180899,0.384594060104,0.04,0.0687476136452869,181.529689784046,0.426627851660537,0.312646187811298
1182,-0.298630896441279,-0.0341511791006502,0.441794305501131,0.313741653991401,0.366656718717956,0.184850491544971,-1.05155109208915e-05,-1.05155109208915e-05,0.381667520748496,0.384594060104,0.04,0.0687711124408708,182.101612974922,0.446466979510254,0.299694742800717
1242,-0.298630896441279,-0.0341511791006502,0.441794305501131,0.313741653991401,0.366656718717955,0.184850491544971,-4.7033342329661e-06,-4.7033342329661e-06,0.382513449408746,0.384594060104,0.04,0.0697793915363593,182.502690480061,0.46052607782411,0.291185483257805
1302,-0.298630896441279,-0.0341511791006502,0.441794305501131,0.313741653991401,0.366656718717956,0.184850491544971,-1.95786939293106e-06,-1.95786939293106e-06,0.3830973435269,0.384594060104,0.04,0.0708508067492665,182.779597347885,0.47059841206586,0.285385520790623
1362,-0.298630896441279,-0.0341511791006502,0.441794305501131,0.313741653991401,0.366656718717956,0.184850491544971,-6.61009783771593e-07,-6.61009783771593e-07,0.383509683300924,0.384594060104,0.04,0.0717379972200292,182.975226329852,0.477880938259741,0.281337265274436
1422,-0.298630896441279,-0.0341511791006501,0.441794305501131,0.313741653991401,0.366656718717956,0.184850491544971,-4.84195872612706e-08,-4.84195872612706e-08,0.383806659980304,0.384594060104,0.04,0.0724186303964518,183.116154964359,0.483166418564675,0.278473962670217
1482,-0.298630896441279,-0.0341511791006501,0.441794305501131,0.313741653991401,0.366656718717956,0.184850491544971,2.40946159200505e-07,2.40946159200505e-07,0.384022371659816,0.384594060104,0.04,0.072926741622968,183.218526555464,0.487004508979886,0.276433759571402
1542,-0.298630896441279,-0.0341511791006501,0.441794305501131,0.313741653991401,0.366656718717956,0.184850491544972,3.77632210825834e-07,3.77632210825834e-07,0.384179283593078,0.384594060104,0.04,0.0733017767998676,183.292992691197,0.489789885491824,0.274973426826864
1602,-0.298630896441279,-0.0341511791006502,0.441794305501131,0.313741653991401,0.366656718717956,0.184850491544971,4.42197823505876e-07,4.42197823505876e-07,0.384298194392533,0.384594060104,0.04,0.0735795175361574,183.349591434912,0.491800684068442,0.273933719439845
1662,-0.298630896441279,-0.0341511791006502,0.441794305501131,0.313741653991401,0.366656718717956,0.184850491544971,4.72696314691912e-07,4.72696314691912e-07,0.384403011437927,0.384594060104,0.04,0.0738203581980183,183.3993795246,0.493147500919273,0.273259772031708
1722,-0.298630896441279,-0.0341511791006501,0.441794305501131,0.313741653991401,0.366656718717956,0.184850491544971,4.87102713485558e-07,4.87102713485558e-07,0.384474452128144,0.384594060104,0.04,0.0740281022585979,183.433202527561,0.493995044195554,0.27284125129866
1782,-0.298630896441279,-0.0341511791006501,0.441794305501131,0.313741653991401,0.366656718717956,0.184850491544971,4.93907782134218e-07,4.93907782134218e-07,0.384518341494485,0.384594060104,0.04,0.0741854851075336,183.453968920745,0.494528423681189,0.272577830061827
1842,-0.296452204497391,-0.01966560428187,0.436055384112376,0.314636154195571,0.354848469256667,0.195938562756286,4.9712225370177e-07,4.9712225370177e-07,0.389561722364844,0.395447218416909,0.04,0.0674239471008466,185.959260985872,0.516504675584313,0.264544191677658
1902,-0.293339787434692,0.00102807403067322,0.427856924985584,0.3159140116301,0.337979541454826,0.211778664486735,2.73737667376431e-07,2.73737667376431e-07,0.404959848447197,0.410951730292492,0.04,0.058573086599842,193.219987867135,0.555336760546313,0.255652653174712
1962,-0.290227370371994,0.0217217523432164,0.419658465858791,0.317191869064628,0.321110613652986,0.227618766217183,0.0106295103018464,3.93121659646579e-07,0.421371140995794,0.426456242168076,0.04,0.0559458599725718,201.167696195791,0.588657167345515,0.251102179545208
2022,-0.287114953309295,0.0424154306557595,0.411460006731999,0.318469726499156,0.304241685851145,0.243458867947632,0.0254788181490315,4.49514479758127e-07,0.43783580639329,0.44196075404366,0.04,0.0560676534762123,209.021618073947,0.615967633250593,0.249337723174816
2082,-0.284002536246597,0.0631091089683026,0.403261547605207,0.319747583933685,0.287372758049304,0.259298969678081,0.0403281259962166,4.76152441985652e-07,0.454082073660793,0.457465265919244,0.04,0.0572003428138831,216.770449785072,0.638415557588769,0.249488937335259
2142,-0.280890119183899,0.0838027872808457,0.395063088478414,0.321025441368213,0.270503830247463,0.27513907140853,0.0551774338434018,4.88735264675435e-07,0.470014187743426,0.472969777794828,0.04,0.0584584387979542,224.369379126171,0.657656320327842,0.250679756540197
2202,-0.2777777021212,0.104496465593389,0.386864629351622,0.322303298802741,0.253634902445623,0.290979173138979,0.0700267416905869,4.94678941053161e-07,0.485723278987359,0.488474289670412,0.04,0.0594596739433525,231.862919926747,0.675277394938079,0.252292165931448
2262,-0.274665285058502,0.125190143905932,0.37866617022483,0.323581156237269,0.236765974643782,0.306819274869427,0.0848760495377721,4.97486521653643e-07,0.501318884335868,0.503978801545995,0.04,0.0601707901764068,239.302983629319,0.692161307078696,0.25403612051054
2322,-0.271552867995804,0.145883822218475,0.370467711098038,0.324859013671798,0.219897046841941,0.322659376599877,0.0997253573849572,4.98812722531225e-07,0.516861395676383,0.519483313421579,0.04,0.0606676787866212,246.718034173747,0.708728287074567,0.255785431613271
2382,-0.268440450933105,0.166577500531018,0.362269251971245,0.326136871106326,0.203028119040101,0.338499478330325,0.114574665232142,0.0379475811496973,0.531483990483811,0.534987825297163,0.04,0.0618760118606817,253.688520045711,0.728002857424655,0.256048600986192
2442,-0.265328033870407,0.187271178843561,0.354070792844453,0.327414728540854,0.18615919123826,0.354339580060774,0.129423973079328,0.0928285852718349,0.546747916442671,0.550492337172747,0.04,0.0630179366563495,260.977120513635,0.751131907733688,0.255294171837347
2502,-0.262215616807708,0.207964857156104,0.345872333717661,0.328692585975383,0.169290263436419,0.370179681791223,0.144273280926513,0.147709589393972,0.562367554020994,0.565996849048331,0.04,0.0645430012982912,268.429898904967,0.773956983963258,0.254840671379142
2562,-0.25910319974501,0.228658535468648,0.337673874590868,0.329970443409911,0.152421335634579,0.386019783521672,0.159122588773698,0.20259059351611,0.577978989942375,0.581501360923914,0.04,0.0662928023675766,275.877657477263,0.796056106603848,0.254640528948069
2622,-0.255990782682312,0.249352213781191,0.329475415464076,0.33124830084444,0.135552407832738,0.401859885252121,0.173971896620883,0.257471597638248,0.593527194496378,0.597005872799498,0.04,0.0680478952409111,283.295227615474,0.817762723266068,0.254546204002216
2682,-0.252878365619613,0.270045892093734,0.321276956337284,0.332526158278968,0.118683480030897,0.417699986982569,0.188821204468068,0.312352601760385,0.609026033114382,0.612510384675082,0.04,0.0696995303047665,290.689426179405,0.839413652588524,0.254453179772138
2742,-0.251944640500804,0.276253995587497,0.318817418599246,0.332909515509326,0.113622801690345,0.422452017501704,0.193275996822224,0.328816902997026,0.625704290600658,0.628014896550666,0.04,0.0700138008923087,298.654781653696,0.857383983098791,0.255946256925583
2802,-0.251944640500804,0.276253995587497,0.318817418599246,0.332909515509326,0.113622801690345,0.422452017501704,0.193275996822224,0.328816902997026,0.641594673221105,0.64351940842625,0.04,0.0701349792931884,306.228103440641,0.870005825557008,0.258629202281491
2862,-0.251944640500804,0.276253995587497,0.318817418599246,0.332909515509326,0.113622801690345,0.422452017501704,0.193275996822224,0.328816902997026,0.65699381459469,0.659023920301834,0.04,0.0697428702324533,313.5738458162,0.882674278602121,0.261032172197824
2922,-0.251944640500804,0.276253995587497,0.318817418599246,0.332909515509326,0.113622801690345,0.422452017501704,0.193275996822224,0.328816902997026,0.672362253487273,0.674528432177417,0.04,0.0689711095309868,320.906416226437,0.896186716337034,0.263108315703899
2982,-0.251944640500804,0.276253995587497,0.318817418599246,0.332909515509326,0.113622801690345,0.422452017501704,0.193275996822224,0.328816902997026,0.687776460224318,0.690032944053001,0.04,0.0680519980058846,328.260885635298,0.910338107408171,0.264954371987521
3042,-0.251944640500804,0.276253995587497,0.318817418599246,0.332909515509327,0.113622801690345,0.422452017501704,0.193275996822224,0.328816902997026,0.703226002118341,0.705537455928585,0.04,0.0671066279508314,335.632068811526,0.924882341205586,0.266643891311851
3102,-0.251944640500804,0.276253995587497,0.318817418599246,0.332909515509326,0.113622801690345,0.422452017501704,0.193275996822224,0.328816902997026,0.718694378584392,0.721041967804169,0.04,0.0661785252739353,343.012132628969,0.939675409087389,0.268216997300388
3162,-0.251944640500804,0.276253995587497,0.318817418599246,0.332909515509326,0.113622801690345,0.422452017501704,0.193275996822224,0.328816902997026,0.734171933141446,0.736546479679753,0.04,0.0652780986329009,350.39652524339,0.95464575310624,0.269694582222244
3222,-0.251944640500804,0.276253995587497,0.318817418599246,0.332909515509326,0.113622801690345,0.422452017501704,0.193275996822224,0.328816902997026,0.749654068217719,0.752050991555337,0.04,0.0644051394450775,357.783076065432,0.969758258643484,0.271088430442319
3282,-0.251944640500804,0.276253995587497,0.318817418599246,0.332909515509326,0.113622801690345,0.422452017501704,0.193275996822224,0.328816902997026,0.765138659000485,0.76755550343092,0.04,0.063557160673347,365.170787903441,0.984994624447056,0.272406110003678
3342,-0.251944640500804,0.276253995587497,0.318817418599246,0.332909515509326,0.113622801690345,0.422452017501704,0.193275996822224,0.328816902997026,0.780624654809072,0.783060015306504,0.04,0.0627317510866691,372.559163743635,1.00034458854605,0.273653053980728
3402,-0.251944640500804,0.276253995587497,0.318817418599246,0.332909515509326,0.113622801690345,0.422452017501704,0.193275996822224,0.328816902997026,0.796111489034227,0.798564527182088,0.04,0.0619270319886457,379.947939534724,1.01580211364452,0.274833493139501
3462,-0.251944640500804,0.276253995587497,0.318817418599246,0.332909515509326,0.113622801690345,0.422452017501704,0.193275996822224,0.328816902997026,0.811598810290694,0.814069039057672,0.04,0.0611415690391187,387.336944511944,1.03136365002084,0.275950876462157
3522,-0.251944640500804,0.276253995587497,0.318817418599246,0.332909515509326,0.113622801690345,0.422452017501704,0.193275996822224,0.328816902997026,0.827086399064493,0.829573550933256,0.04,0.0603742459446881,394.726074245368,1.04702718974991,0.277008140404252
3582,-0.251944640500804,0.276253995587497,0.318817418599246,0.332909515509327,0.113622801690345,0.422452017501704,0.193275996822224,0.328816902997026,0.842574110691925,0.845078062808839,0.04,0.0596241811415008,402.115260970568,1.06279172984545,0.278007854196694
3642,-0.248940692070151,0.250136276032951,0.292361791057574,0.297953988890742,0.116164383247593,0.405737113258789,0.196496223581786,0.333357182234788,0.853358346468078,0.849729416371515,0.04,0.0600447830979276,407.17100983797,1.05669296314678,0.283127927589252
3702,-0.244649337169218,0.212825248097885,0.254568037426615,0.248017522292765,0.119795214043662,0.381858678626053,0.201096547524019,0.33984329543159,0.854994029743369,0.849729416371515,0.04,0.0615659908957451,407.918089631731,1.02641366312782,0.292015037856467
3762,-0.240357982268285,0.17551422016282,0.216774283795655,0.198081055694788,0.123426044839731,0.357980243993318,0.205696871466252,0.346329408628393,0.854630196194612,0.849729416371515,0.04,0.0610487046030361,407.739723957617,0.995976513946564,0.300807460586916
3822,-0.236066627367352,0.138203192227755,0.178980530164696,0.148144589096811,0.1270568756358,0.334101809360582,0.210297195408484,0.352815521825195,0.854125587496918,0.849729416371515,0.04,0.0588924922484706,407.499908630627,0.96862734730565,0.30911883333335
3882,-0.23177527246642,0.100892164292689,0.141186776533736,0.0982081224988335,0.130687706431868,0.310223374727846,0.214897519350717,0.359301635021997,0.853778552499425,0.849729416371515,0.04,0.0558400041918783,407.335584511597,0.943700227776526,0.317156026230678
