time,bias_percent_1,bias_percent_2,bias_percent_3,bias_percent_4,bias_percent_5,bias_percent_6,bias_percent_8,bias_percent_9,normalized_power,power_SP,SP,CV,total_power_MW,fuel_fraction,thermal_efficiency
40,0,0,0,0,0,0,0,0,0.999725470195932,1,0.04,0.0399438939341234,476.973247082186,0.999814940047433,0.350533133270834
100,-0.0141840626477544,0.0163090910765693,8.28310485903785e-05,-0.017012145584016,-0.0126481832588892,0.00360957883327706,0.0200447127915616,-0.00676253080869031,0.999217939284075,0.998543880574219,0.04,0.0400749328491572,476.714250971251,0.997831368046934,0.351039234525599
160,-0.0354601566193862,0.0407727276914233,0.000207077621475946,-0.0425303639600402,-0.0316204581472227,0.00902394708319241,0.050111781978904,-0.0169063270217258,0.997296703810132,0.996359701435548,0.04,0.0403687256091347,475.793568654198,0.992398224722918,0.35227941373845
220,-0.0567362505910181,0.0652363643062772,0.000331324194361287,-0.0680485823360642,-0.0505927330355564,0.0144383153331079,0.0801788511662464,-0.0270501232347613,0.995147091173351,0.994175522296876,0.04,0.0404115844718975,474.767320471726,0.98648981999547,0.353624939347577
280,-0.0780123445626498,0.0897000009211312,0.000455570767246854,-0.0935668007120884,-0.0695650079238902,0.0198526835830233,0.110245920353589,-0.0371939194477967,0.992948381646286,0.991991343158205,0.04,0.0402624121903512,473.718086269052,0.980594283983778,0.354964797210915
340,-0.0992884385342816,0.114163637535985,0.000579817340132308,-0.119085019088112,-0.0885372828122239,0.0252670518329388,0.140312989540931,-0.0473377156608321,0.990728659318113,0.989807164019534,0.04,0.040006025911209,472.658940601691,0.974875892498098,0.356248646139505
400,-0.120564532505913,0.138627274150839,0.000704063913017762,-0.144603237464137,-0.107509557700558,0.0306814200828543,0.170380058728274,-0.0574815118738676,0.988499309948965,0.987622984880862,0.04,0.0397018758094052,471.595265305437,0.969415708678068,0.357448977966958
460,-0.141840626477545,0.163090910765693,0.00082831048590333,-0.17012145584016,-0.126481832588891,0.0360957883327699,0.200447127915616,-0.067625308086903,0.986267017889355,0.985438805742191,0.04,0.0393884270599019,470.530255130265,0.964239627319902,0.358556214757849
520,-0.163116720449177,0.187554547380547,0.000952557058788898,-0.195639674216185,-0.145454107477225,0.0415101565826853,0.230514197102958,-0.0777691042999385,0.984039050025621,0.983254626603519,0.04,0.0390908318642739,469.467343919242,0.959337372264881,0.35957434759752
580,-0.184392814420809,0.212018183995401,0.00107680363167435,-0.221157892592209,-0.164426382365559,0.0469245248326008,0.260581266290301,-0.087912900512974,0.981819118779343,0.981070447464848,0.04,0.0388241256419173,468.408286342911,0.95466738217414,0.360518172724603
640,-0.20566890839244,0.236481820610255,0.00120105020455981,-0.246676110968233,-0.183398657253892,0.0523388930825163,0.290648335477643,-0.0980566967260095,0.979607385906091,0.978886268326177,0.04,0.0385944800780414,467.35311742936,0.950178167798385,0.36140551270949
700,-0.226945002364072,0.260945457225109,0.00132529677744537,-0.272194329344257,-0.202370932142226,0.0577532613324317,0.320715404664985,-0.108200492939045,0.977397686004419,0.976702089187505,0.04,0.0383983834286067,466.298845959595,0.945841605052052,0.362243501666161
760,-0.248221096335704,0.285409093839963,0.00144954335033083,-0.297712547720281,-0.22134320703056,0.0631676295823472,0.350782473852328,-0.11834428915208,0.975180299618998,0.974517910048834,0.04,0.038223308067352,465.240838330737,0.941684113476671,0.363017249672334
820,-0.269497190307336,0.309872730454817,0.0015737899232164,-0.323230766096305,-0.240315481918893,0.0685819978322628,0.38084954303967,-0.128488085365116,0.972949790016438,0.972333730910162,0.04,0.038054806865204,464.17655477074,0.93777678934953,0.363695893635093
880,-0.290773284278967,0.334336367069671,0.00169803649610196,-0.348748984472329,-0.259287756807227,0.0739963660821783,0.410916612227013,-0.138631881578151,0.970707094793475,0.970149551771491,0.04,0.0378844108078583,463.106482305369,0.934197143914058,0.364247853466347
940,-0.297865315602845,0.342490912607955,0.00173945202039704,-0.357255057264337,-0.265611848436672,0.0758011554988168,0.420938968622793,-0.142013146982496,0.969072140542531,0.969421492058601,0.04,0.0374430833231848,462.338919876049,0.933847939368731,0.363780123062491
1000,-0.297865315602845,0.342490912607955,0.00173945202039704,-0.357255057264337,-0.265611848436672,0.0758011554988167,0.420938968622793,-0.142013146982496,0.968714142655125,0.969421492058601,0.04,0.0369211066088967,462.171937041647,0.937573537164127,0.362203720503998
1060,-0.297865315602845,0.342490912607955,0.00173945202039704,-0.357255057264337,-0.265611848436672,0.0758011554988167,0.420938968622793,-0.142013146982496,0.968583375707955,0.969421492058601,0.04,0.0367218871352018,462.110569394664,0.942397679978796,0.360301748588895
1120,-0.297865315602845,0.342490912607955,0.00173945202039704,-0.357255057264337,-0.265611848436672,0.0758011554988167,0.420938968622794,-0.142013146982497,0.96856000059094,0.969421492058601,0.04,0.0368016224271187,462.100140126309,0.947564375844616,0.358329077629996
1180,-0.297865315602845,0.342490912607955,0.00173945202039704,-0.357255057264337,-0.265611848436672,0.0758011554988168,0.420938968622793,-0.142013146982496,0.968614609732026,0.969421492058601,0.04,0.0370839083825162,462.126708010702,0.952549987455917,0.35647409027772
1240,-0.297865315602845,0.342490912607955,0.00173945202039704,-0.357255057264337,-0.265611848436672,0.0758011554988168,0.420938968622793,-0.142013146982496,0.968721250877,0.969421492058601,0.04,0.0374952398686201,462.177900781069,0.95698985367776,0.354859567331422
1300,-0.297865315602845,0.342490912607956,0.00173945202039704,-0.357255057264337,-0.265611848436672,0.0758011554988167,0.420938968622794,-0.142013146982496,0.968856290266193,0.969421492058601,0.04,0.037971151549544,462.242467497244,0.960666749479837,0.353550747585188
1360,-0.297865315602845,0.342490912607955,0.00173945202039704,-0.357255057264337,-0.265611848436672,0.0758011554988167,0.420938968622793,-0.142013146982497,0.969000006424113,0.969421492058601,0.04,0.0384591124701639,462.311036934946,0.963490427486818,0.352566897305712
1420,-0.297865315602845,0.342490912607955,0.00173945202039704,-0.357255057264337,-0.265611848436672,0.0758011554988167,0.420938968622793,-0.142013146982497,0.969137452958388,0.969421492058601,0.04,0.0389195657384269,462.376515989907,0.965470344481184,0.351893711651733
1480,-0.297865315602845,0.342490912607955,0.00173945202039704,-0.357255057264337,-0.265611848436672,0.0758011554988167,0.420938968622794,-0.142013146982497,0.96925857532375,0.969421492058601,0.04,0.0393256576641215,462.434145702949,0.966686210577396,0.35149491550969
1540,-0.297865315602845,0.342490912607956,0.00173945202039704,-0.357255057264337,-0.265611848436672,0.0758011554988167,0.420938968622793,-0.142013146982497,0.969357759850855,0.969421492058601,0.04,0.0396619985829915,462.481279881531,0.96726018528233,0.351322142813593
1600,-0.297865315602845,0.342490912607956,0.00173945202039704,-0.357255057264337,-0.265611848436672,0.0758011554988167,0.420938968622793,-0.142013146982497,0.969433043228961,0.969421492058601,0.04,0.0399228345212972,462.517006674399,0.967333244696344,0.351322746310656
1660,-0.297865315602845,0.342490912607955,0.00173945202039704,-0.357255057264337,-0.265611848436672,0.0758011554988167,0.420938968622794,-0.142013146982497,0.969485158980014,0.969421492058601,0.04,0.0401099011092378,462.541696989188,0.96704698967037,0.351445501194257
1720,-0.297865315602845,0.342490912607955,0.00173945202039704,-0.357255057264337,-0.265611848436672,0.0758011554988167,0.420938968622794,-0.142013146982497,0.969516655399382,0.969421492058601,0.04,0.0402302366391354,462.556572391111,0.966531086197245,0.35164440016248
1780,-0.297865315602845,0.342490912607955,0.00173945202039704,-0.357255057264337,-0.265611848436672,0.0758011554988167,0.420938968622793,-0.142013146982497,0.969531048324793,0.969421492058601,0.04,0.0402941306311219,462.563319115948,0.965895672417345,0.351880861544628
1840,-0.302534444073354,0.327800865229819,-0.0189490638437486,-0.350163505435175,-0.262386042403271,0.0515553459151737,0.413963654549168,-0.147748375762391,0.964815460054093,0.959955568547959,0.04,0.0411534557509873,460.224281003647,0.948270000270593,0.356608912377922
1900,-0.309538136779119,0.305765794162614,-0.0499818376399672,-0.339526177691433,-0.25754733335317,0.0151866315397093,0.403500683438729,-0.156351218932234,0.952097689905297,0.945756683281997,0.04,0.0424327663574932,454.138152741805,0.911465414701801,0.366102311752264
1960,-0.316541829484883,0.283730723095409,-0.0810146114361859,-0.32888884994769,-0.252708624303069,-0.0211820828357551,0.393037712328291,-0.164954062102076,0.938237009791871,0.931557798016034,0.04,0.0421192059892802,447.520617359508,0.871087818448563,0.37749028911536
2020,-0.323545522190647,0.261695652028204,-0.112047385232404,-0.318251522203947,-0.247869915252967,-0.0575507972112194,0.382574741217853,-0.173556905271918,0.923944748397377,0.917358912750072,0.04,0.0403633909263666,440.699121500538,0.830504456250015,0.389901489216748
2080,-0.330549214896411,0.239660580960999,-0.143080159028623,-0.307614194460204,-0.243031206202866,-0.0939195115866839,0.372111770107414,-0.18215974844176,0.909360228563467,0.90316002748411,0.04,0.0375253179614262,433.739227058183,0.791679239766273,0.402563245638017
2140,-0.337552907602176,0.217625509893794,-0.174112932824841,-0.296976866716461,-0.238192497152765,-0.130288225962148,0.361648798996976,-0.190762591611603,0.894551234010618,0.888961142218147,0.04,0.0339639768144601,426.671885237383,0.75607715523609,0.414650875723475
2200,-0.34455660030794,0.195590438826589,-0.20514570662106,-0.286339538972718,-0.233353788102664,-0.166656940337613,0.351185827886538,-0.199365434781445,0.879585424628922,0.874762256952185,0.04,0.030046975551714,419.530786976391,0.724797937800319,0.425306053313181
2260,-0.351560293013704,0.173555367759384,-0.236178480417279,-0.275702211228975,-0.228515079052563,-0.203025654713077,0.340722856776099,-0.207968277951287,0.864544327790805,0.860563371686223,0.04,0.0261608361825355,412.354397956955,0.698457693050915,0.433795659274512
2320,-0.358563985719469,0.151520296692179,-0.267211254213497,-0.265064883485233,-0.223676370002462,-0.239394369088542,0.330259885665661,-0.216571121121129,0.849498564304054,0.846364486420261,0.04,0.0226435772086409,405.176270210102,0.677219979840939,0.439611369683684
2380,-0.365567678425233,0.129485225624974,-0.298244028009716,-0.25442755574149,-0.21883766095236,-0.275763083464006,0.319796914555223,-0.225173964290972,0.834505406267403,0.832165601154298,0.04,0.0197180042717918,398.023626252292,0.660879942276404,0.442528206037775
2440,-0.372571371130997,0.107450154557769,-0.329276801805934,-0.243790227997747,-0.213998951902259,-0.31213179783947,0.309333943444784,-0.233776807460814,0.819583914265828,0.817966715888336,0.04,0.017483451391991,390.905077462078,0.6490170767536,0.442557661718075
2500,-0.379575063836762,0.0854150834905636,-0.360309575602153,-0.233152900254004,-0.209160242852158,-0.348500512214935,0.298870972334346,-0.242379650630656,0.804722923239852,0.803767830622374,0.04,0.0159044606704709,383.815414642532,0.641251496196146,0.439793389834297
2560,-0.386578756542526,0.0633800124233586,-0.391342349398371,-0.222515572510261,-0.204321533802057,-0.384869226590399,0.288408001223908,-0.250982493800499,0.789943543261342,0.789568945356411,0.04,0.0148882589320798,376.764983974727,0.637154300761491,0.434490805582463
2620,-0.39358244924829,0.0413449413561535,-0.42237512319459,-0.211878244766518,-0.199482824751956,-0.421237940965864,0.277945030113469,-0.259585336970341,0.775316477866669,0.775370060090449,0.04,0.01427917044554,369.887515797132,0.636265716551866,0.427155326965916
2680,-0.400586141954055,0.0193098702889484,-0.453407896990808,-0.201240917022775,-0.194644115701855,-0.457606655341328,0.267482059003031,-0.268188180140183,0.760929574919757,0.761171174824487,0.04,0.0141876687317507,362.928235097442,0.637329037633864,0.418419317775883
2740,-0.402920706189309,0.0119648465998802,-0.463752154922881,-0.197695141108194,-0.193031212685154,-0.46972956013315,0.263994401966218,-0.27105579453013,0.744339952969493,0.746972289558525,0.04,0.015706613615311,354.988254918348,0.645676931738331,0.403973977190278
2800,-0.402920706189309,0.0119648465998802,-0.463752154922881,-0.197695141108195,-0.193031212685154,-0.46972956013315,0.263994401966218,-0.271055794530131,0.729372401292156,0.732773404292562,0.04,0.0178988628592985,347.868732239755,0.664478151681797,0.384670927854171
2860,-0.402920706189309,0.0119648465998803,-0.463752154922881,-0.197695141108194,-0.193031212685154,-0.46972956013315,0.263994401966218,-0.27105579453013,0.71528606353951,0.7185745190266,0.04,0.0208548988375963,341.153699843766,0.684079775278262,0.366435896533012
2920,-0.402920706189309,0.0119648465998802,-0.463752154922881,-0.197695141108195,-0.193031212685154,-0.46972956013315,0.263994401966218,-0.27105579453013,0.701823010903847,0.704375633760638,0.04,0.024461785201943,334.73474366107,0.700464037345269,0.351131365496801
2980,-0.402920706189309,0.0119648465998802,-0.463752154922881,-0.197695141108195,-0.193031212685154,-0.46972956013315,0.263994401966218,-0.27105579453013,0.688790844308668,0.690176748494675,0.04,0.0285018360325961,328.519579518852,0.710618394876963,0.33968744014591
3040,-0.402920706189309,0.0119648465998802,-0.463752154922881,-0.197695141108195,-0.193031212685154,-0.46972956013315,0.263994401966218,-0.27105579453013,0.675837922962333,0.675977863228713,0.04,0.0326444591282113,322.430795073266,0.713132933827355,0.332216116388735
3100,-0.402920706189309,0.0119648465998802,-0.463752154922881,-0.197695141108195,-0.193031212685154,-0.46972956013315,0.263994401966218,-0.27105579453013,0.663047650187873,0.661778977962751,0.04,0.0367180697792044,316.236545579432,0.707203660645493,0.328565707177476
3160,-0.402920706189309,0.0119648465998802,-0.463752154922881,-0.197695141108195,-0.193031212685154,-0.46972956013315,0.263994401966218,-0.271055794530131,0.649912710762944,0.647580092696789,0.04,0.0402228275909659,309.974678426342,0.694631320175024,0.32788876285351
3220,-0.402920706189309,0.0119648465998802,-0.463752154922881,-0.197695141108194,-0.193031212685154,-0.46972956013315,0.263994401966218,-0.271055794530131,0.636422813114782,0.633381207430826,0.04,0.043049463676251,303.528788610716,0.676938719585773,0.329461908064868
3280,-0.402920706189309,0.0119648465998802,-0.463752154922881,-0.197695141108195,-0.193031212685154,-0.46972956013315,0.263994401966218,-0.27105579453013,0.622616555612363,0.619182322164864,0.04,0.0449628153482386,296.939369421331,0.656273905778833,0.33245840858991
3340,-0.402920706189309,0.0119648465998802,-0.463752154922881,-0.197695141108195,-0.193031212685154,-0.46972956013315,0.263994401966218,-0.27105579453013,0.608530756922204,0.604983436898902,0.04,0.0459757326392631,290.217060203017,0.634387672974193,0.336142077117636
3400,-0.402920706189309,0.0119648465998802,-0.463752154922881,-0.197695141108194,-0.193031212685154,-0.46972956013315,0.263994401966218,-0.271055794530131,0.594230029928758,0.590784551632939,0.04,0.046170400344433,283.392746101133,0.612705412628754,0.339853454670977
3460,-0.402920706189309,0.0119648465998802,-0.463752154922881,-0.197695141108194,-0.193031212685154,-0.46972956013315,0.263994401966218,-0.27105579453013,0.579780174721528,0.576585666366977,0.04,0.0456997542365417,276.497788492464,0.59225510393403,0.343034283360273
3520,-0.402920706189309,0.0119648465998802,-0.463752154922881,-0.197695141108195,-0.193031212685154,-0.46972956013315,0.263994401966218,-0.27105579453013,0.565257723316132,0.562386781101015,0.04,0.0447629783764186,269.569109233372,0.573658277720445,0.34528008914203
3580,-0.402920706189309,0.0119648465998802,-0.463752154922881,-0.197695141108195,-0.193031212685154,-0.46972956013315,0.263994401966218,-0.27105579453013,0.550754846498839,0.548187895835052,0.04,0.0436334547438846,262.649824100532,0.556924651757248,0.346525619502231
3640,-0.372301765809692,-0.00649041765800428,-0.461361129373219,-0.206002916138774,-0.192720631548652,-0.455944749036589,0.234559361959932,-0.262810995167254,0.542605644841143,0.543454934079732,0.04,0.039310604053814,258.865110374777,0.553009584139505,0.343950178155391
3700,-0.326373355240266,-0.0341733140448312,-0.457774591048726,-0.218464578684644,-0.192254759843897,-0.435267532391749,0.190406801950503,-0.250443796122939,0.541173484655835,0.543454934079732,0.04,0.0346936311893037,258.185749527906,0.564249916274592,0.336213726928506
3760,-0.28044494467084,-0.0618562104316579,-0.454188052724233,-0.230926241230514,-0.191788888139143,-0.414590315746909,0.146254241941073,-0.238076597078624,0.540361420594904,0.543454934079732,0.04,0.0320591549654999,257.801823701127,0.581367469297311,0.325829149335362
3820,-0.234516534101414,-0.0895391068184846,-0.45060151439974,-0.243387903776384,-0.191323016434389,-0.393913099102069,0.102101681931644,-0.225709398034309,0.540029235740377,0.543454934079732,0.04,0.0311502285319971,257.647368541425,0.601494883677217,0.314737470326275
3880,-0.188588123531988,-0.117222003205311,-0.447014976075246,-0.255849566322254,-0.190857144729635,-0.373235882457228,0.057949121922215,-0.213342198989994,0.540194364110675,0.543454934079732,0.04,0.0316440286525203,257.729881834323,0.621632586284045,0.304639124506222
3940,-0.142659712962561,-0.144904899592138,-0.443428437750753,-0.268311228868124,-0.190391273024881,-0.352558665812388,0.0137965619127858,-0.200974999945679,0.540772598652754,0.543454934079732,0.04,0.0331874996897914,258.008487472046,0.639084675143683,0.296640377753759
4000,-0.0967313023931353,-0.172587795978965,-0.43984189942626,-0.280772891413994,-0.189925401320127,-0.331881449167548,-0.0303559980966434,-0.188607800901364,0.541613108802488,0.543454934079732,0.04,0.0354019855224496,258.410889050237,0.651946956307681,0.291241476689718
4060,-0.0508028918237093,-0.200270692365792,-0.436255361101767,-0.293234553959864,-0.189459529615373,-0.311204232522707,-0.0745085581060728,-0.176240601857049,0.542546276422712,0.543454934079732,0.04,0.0379131633144258,258.856194073364,0.65931782621335,0.288481800346323
4120,-0.00487448125428307,-0.227953588752618,-0.432668822777273,-0.305696216505734,-0.188993657910618,-0.290527015877867,-0.118661118115502,-0.163873402812734,0.543421263282514,0.543454934079732,0.04,0.0403845027927533,259.272821476713,0.661244556951234,0.288104180395809
4180,0.041053929315143,-0.255636485139445,-0.42908228445278,-0.318157879051604,-0.188527786205864,-0.269849799233027,-0.162813678124931,-0.151506203768419,0.544146563192745,0.543454934079732,0.04,0.0425429771850713,259.617273356551,0.658478844994983,0.289698624912907
4240,0.0869823398845691,-0.283319381526272,-0.425495746128287,-0.330619541597474,-0.18806191450111,-0.249172582588186,-0.206966238134361,-0.139139004724104,0.544665030305083,0.543454934079732,0.04,0.0442049227396257,259.862952449571,0.652175239485863,0.292775504727987
4300,0.132910750453995,-0.311002277913099,-0.421909207803794,-0.343081204143344,-0.187596042796356,-0.228495365943346,-0.251118798143789,-0.126771805679789,0.544977266467796,0.543454934079732,0.04,0.0452793718166705,260.010358916261,0.643582966053772,0.29685255149869
4360,0.178839161023421,-0.338685174299925,-0.4183226694793,-0.355542866689213,-0.187130171091602,-0.207818149298506,-0.295271358153219,-0.114404606635474,0.545109020824674,0.543454934079732,0.04,0.0457642162769634,260.071929098434,0.633847226469108,0.301483508732891
4420,0.224767571592847,-0.366368070686752,-0.414736131154807,-0.368004529235083,-0.186664299386848,-0.187140932653666,-0.339423918162648,-0.10203740759116,0.545097290257504,0.543454934079732,0.04,0.0457257524282405,260.065347757154,0.623906879027571,0.306279120252559
4480,0.270695982162274,-0.394050967073579,-0.411149592830314,-0.380466191780953,-0.186198427682094,-0.166463716008825,-0.383576478172077,-0.0896702085468446,0.544978869239905,0.543454934079732,0.04,0.0452730118687961,260.00813642865,0.614475727647096,0.310911568917817
4540,0.286005452352082,-0.403278599202521,-0.409954080055483,-0.384620079296243,-0.186043137113842,-0.159571310460545,-0.39829399817522,-0.0855478088654061,0.544860988601977,0.543454934079732,0.04,0.0445568491362887,259.953726098975,0.606078057552054,0.315153519891655
4600,0.286005452352082,-0.403278599202521,-0.409954080055483,-0.384620079296243,-0.186043137113842,-0.159571310460545,-0.39829399817522,-0.0855478088654063,0.544660404215403,0.543454934079732,0.04,0.0435817693313879,259.855050002764,0.598256681461875,0.319152521490575
4660,0.286005452352082,-0.403278599202521,-0.409954080055483,-0.384620079296243,-0.186043137113842,-0.159571310460545,-0.39829399817522,-0.0855478088654063,0.544328844556325,0.543454934079732,0.04,0.0424120007124054,259.696504391304,0.592311533656288,0.322159239033896
4720,0.286005452352082,-0.403278599202521,-0.409954080055483,-0.384620079296243,-0.186043137113842,-0.159571310460545,-0.39829399817522,-0.0855478088654063,0.543972514000889,0.543454934079732,0.04,0.0411897841038561,259.526451102554,0.588472456864147,0.324048610493908
4780,0.286005452352082,-0.403278599202521,-0.409954080055483,-0.384620079296243,-0.186043137113842,-0.159571310460545,-0.39829399817522,-0.0855478088654063,0.543626360251123,0.543454934079732,0.04,0.0400494864361478,259.361508526521,0.586747252480832,0.324794850574292
4840,0.286005452352082,-0.403278599202521,-0.409954080055483,-0.384620079296243,-0.186043137113842,-0.159571310460545,-0.39829399817522,-0.0855478088654063,0.543319871603679,0.543454934079732,0.04,0.0390926235923399,259.215705474004,0.586955782131906,0.324496937383391
4900,0.286005452352082,-0.403278599202521,-0.409954080055483,-0.384620079296243,-0.186043137113842,-0.159571310460545,-0.39829399817522,-0.0855478088654063,0.543075902633779,0.543454934079732,0.04,0.038384053111725,259.099873872469,0.588765692260092,0.323354852293968
4960,0.286005452352082,-0.403278599202521,-0.409954080055483,-0.384620079296243,-0.186043137113842,-0.159571310460545,-0.39829399817522,-0.0855478088654063,0.542909318409474,0.543454934079732,0.04,0.0379523982689498,259.02104619187,0.5917387786013,0.321632331172747
5020,0.286005452352082,-0.403278599202521,-0.409954080055483,-0.384620079296243,-0.186043137113842,-0.159571310460545,-0.39829399817522,-0.0855478088654063,0.542825492285106,0.543454934079732,0.04,0.0377939127123421,258.981705673893,0.595384777770588,0.319614178027888
5080,0.286005452352082,-0.403278599202521,-0.409954080055483,-0.384620079296243,-0.186043137113842,-0.159571310460545,-0.39829399817522,-0.0855478088654063,0.542820447766241,0.543454934079732,0.04,0.0378783953371442,258.979885966242,0.599218366194091,0.317567167524366
5140,0.286005452352082,-0.403278599202521,-0.409954080055483,-0.384620079296243,-0.186043137113842,-0.159571310460545,-0.39829399817522,-0.0855478088654063,0.542882133994835,0.543454934079732,0.04,0.0381566471872309,259.009780835029,0.602810936568622,0.315711002825846
5200,0.286005452352082,-0.403278599202521,-0.409954080055483,-0.384620079296243,-0.186043137113842,-0.159571310460545,-0.39829399817522,-0.0855478088654063,0.542992835962804,0.543454934079732,0.04,0.0385684542679667,259.062905739984,0.605829976393695,0.314202148449328
5260,0.286005452352082,-0.403278599202521,-0.409954080055483,-0.384620079296243,-0.186043137113842,-0.159571310460545,-0.39829399817522,-0.0855478088654063,0.543132190947951,0.543454934079732,0.04,0.0390503218728635,259.129537307992,0.608061268085328,0.313129695009508
5320,0.286005452352082,-0.403278599202521,-0.409954080055483,-0.384620079296243,-0.186043137113842,-0.159571310460545,-0.39829399817522,-0.0855478088654063,0.543280173739257,0.543454934079732,0.04,0.0395423282580054,259.200132810573,0.609412836809091,0.312520347071611
5380,0.286005452352082,-0.403278599202521,-0.409954080055483,-0.384620079296243,-0.186043137113842,-0.159571310460545,-0.39829399817522,-0.0855478088654061,0.543419487366615,0.543454934079732,0.04,0.0399935447549804,259.266471544722,0.60990308782287,0.312349058646507
5440,0.294136724289118,-0.366817831171671,-0.395939328462742,-0.345852669763026,-0.176808961738631,-0.153951742471183,-0.402356449640225,-0.0675362592156598,0.539901395790931,0.543454934079732,0.04,0.043164495198585,257.550627928546,0.620143236922752,0.305158363748494
5500,0.30633363219467,-0.312126679125396,-0.374917201073631,-0.2877015554632,-0.162957698675814,-0.145522390487139,-0.408450126837733,-0.0405189347410399,0.538914886352625,0.543454934079732,0.04,0.0472776827676527,257.117620892859,0.646900813807708,0.292044357448015
5560,0.318530540100224,-0.25743552707912,-0.353895073684519,-0.229550441163374,-0.149106435612997,-0.137093038503095,-0.41454380403524,-0.0135016102664201,0.539723607624087,0.543454934079732,0.04,0.0532637697593856,257.513221974259,0.671572933602921,0.281748118517184
5620,0.330727448005776,-0.202744375032845,-0.332872946295408,-0.171399326863547,-0.135255172550181,-0.128663686519052,-0.420637481232748,0.0135157142081994,0.541409206624479,0.543454934079732,0.04,0.0609458387787804,258.320848627385,0.687517983814838,0.276076901620939
5680,0.342924355911329,-0.148053222986569,-0.311850818906297,-0.113248212563721,-0.121403909487364,-0.120234334535008,-0.426731158430255,0.0405330386828191,0.543205809078971,0.543454934079732,0.04,0.0694548712424977,259.17744876703,0.692652232356764,0.274939189817828
5740,0.355121263816882,-0.0933620709402937,-0.290828691517185,-0.0550970982638953,-0.107552646424547,-0.111804982550964,-0.432824835627763,0.0675503631574388,0.54507971184197,0.543454934079732,0.04,0.0779798441475334,260.07449223407,0.686940003832893,0.278184947884202
5800,0.367318171722436,-0.0386709188940182,-0.269806564128074,0.003054016035931,-0.0937013833617302,-0.103375630566921,-0.43891851282527,0.0945676876320587,0.548138973714518,0.543454934079732,0.04,0.0868399146855511,261.537655616012,0.665852215653895,0.288609786490994
5860,0.379515079627988,0.0160202331522571,-0.248784436738963,0.061205130335757,-0.0798501202989136,-0.0949462785828769,-0.445012190022777,0.121585012106678,0.548883585862531,0.543454934079732,0.04,0.0945905191056245,261.869371929423,0.633313214399616,0.303823129605953
5920,0.391711987533541,0.0707113851985325,-0.227762309349851,0.119356244635583,-0.0659988572360966,-0.0865169265988332,-0.451105867220285,0.148602336581298,0.548331470817974,0.543454934079732,0.04,0.0975899454885925,261.603863252389,0.602814206906593,0.318871239831905
5980,0.403908895439094,0.125402537244808,-0.20674018196074,0.177507358935409,-0.0521475941732798,-0.0780875746147895,-0.457199544417792,0.175619661055918,0.547572720952497,0.543454934079732,0.04,0.0963418535381063,261.239842959426,0.576421956282096,0.333007162989026
6040,0.416105803344647,0.180093689291083,-0.185718054571629,0.235658473235235,-0.038296331110463,-0.0696582226307458,-0.4632932216153,0.202636985530538,0.546557430255617,0.543454934079732,0.04,0.0919129582020442,260.753939309782,0.555611298431358,0.344837498413437
6100,0.4283027112502,0.234784841337359,-0.164695927182518,0.293809587535061,-0.0244450680476461,-0.0612288706467021,-0.336589778081252,0.229654310005157,0.542820505516182,0.543454934079732,0.04,0.0894794288336061,258.96253608276,0.552181021969724,0.34459592677143
6160,0.440499619155753,0.289475993383634,-0.143673799793406,0.351960701834888,-0.0105938049848293,-0.0527995186626584,-0.204774370104961,0.256671634479777,0.541695010411556,0.543454934079732,0.04,0.0862243717783539,258.438666468702,0.561242389515676,0.338346511227108
6220,0.452696527061306,0.34416714542991,-0.122651672404295,0.410111816134714,0.00325745807798751,-0.0443701666786147,-0.0985469857835514,0.283688958954397,0.540820584443015,0.543454934079732,0.04,0.0849207754780406,258.013613589697,0.574556471457953,0.32996249353163
6280,0.464893434966859,0.398858297476185,-0.101629545015184,0.46826293043454,0.0171087211408043,-0.035940814694571,-0.046549815280968,0.310706283429016,0.539546176288339,0.543454934079732,0.04,0.0854002141441014,257.410429724535,0.595724171018432,0.317494052554617
6340,0.468959070935377,0.41708868149161,-0.0946221692188132,0.487646635201149,0.0217258088284099,-0.0331310306998898,-0.0219882076336226,0.31971205825389,0.538470636812454,0.539481310906959,0.04,0.0853487801183351,256.880650688043,0.61051668818303,0.309163723531209
6400,0.468959070935377,0.41708868149161,-0.0946221692188132,0.487646635201149,0.02172580882841,-0.0331310306998897,-0.0103861852692464,0.31971205825389,0.533999176448426,0.5335208761478,0.04,0.0868603145764769,254.727356440667,0.6092131004456,0.307228167891531
6460,0.468959070935377,0.41708868149161,-0.0946221692188132,0.487646635201149,0.02172580882841,-0.0331310306998897,-0.00490579943724411,0.31971205825389,0.528192097642005,0.527560441388642,0.04,0.0882097042963803,251.952957635061,0.605204348084659,0.305894802273012
6520,0.468959070935377,0.41708868149161,-0.0946221692188132,0.487646635201149,0.0217258088284099,-0.0331310306998897,-0.00231706075618983,0.31971205825389,0.522212317336855,0.521600006629483,0.04,0.0890413774580747,249.100090255305,0.60120077783498,0.304445127218422
6580,0.468959070935377,0.41708868149161,-0.0946221692188132,0.487646635201149,0.0217258088284099,-0.0331310306998898,-0.00109423299111941,0.31971205825389,0.516276223575822,0.515639571870324,0.04,0.0896414422247757,246.268351339096,0.597156658046505,0.303022586168761
6640,0.468959070935377,0.41708868149161,-0.0946221692188131,0.487646635201149,0.02172580882841,-0.0331310306998897,-0.000516612795652838,0.31971205825389,0.510368760442704,0.509679137111165,0.04,0.0901880412493836,243.449979191207,0.592834346512998,0.301738732029878
6700,0.468959070935377,0.41708868149161,-0.0946221692188132,0.487646635201148,0.0217258088284099,-0.0331310306998898,-0.000243765629734677,0.31971205825389,0.504458939066123,0.503718702352006,0.04,0.0907358886526753,240.630314942058,0.588192977463233,0.300597372872788
6760,0.468959070935377,0.41708868149161,-0.0946221692188132,0.487646635201149,0.0217258088284099,-0.0331310306998898,-0.000114882366034876,0.31971205825389,0.498535259713481,0.497758267592847,0.04,0.0912897642704836,237.804010978457,0.583300946171133,0.29955817140724
6820,0.468959070935377,0.41708868149161,-0.0946221692188131,0.487646635201149,0.02172580882841,-0.0331310306998897,-5.40025119020785e-05,0.31971205825389,0.492598233755859,0.491797832833689,0.04,0.0918450138861742,234.971363977684,0.578242747030519,0.298579110660393
6880,0.468959070935377,0.41708868149161,-0.0946221692188132,0.487646635201148,0.0217258088284099,-0.0331310306998898,-2.5245041514601e-05,0.31971205825389,0.4866516859676,0.48583739807453,0.04,0.0923992625866549,232.134205587521,0.573083674336272,0.297629365960095
6940,0.468959070935377,0.41708868149161,-0.0946221692188132,0.487646635201149,0.0217258088284099,-0.0331310306998898,-1.16610388119487e-05,0.31971205825389,0.480699034710328,0.479876963315371,0.04,0.0929528808260428,229.294158422721,0.567866794528068,0.296688827622894
7000,0.468959070935377,0.41708868149161,-0.0946221692188132,0.487646635201149,0.02172580882841,-0.0331310306998897,-5.24444072663488e-06,0.31971205825389,0.474742561497535,0.473916528556212,0.04,0.0935073149194825,226.452301111221,0.562619189026634,0.295744634360257
7060,0.468959070935377,0.41708868149161,-0.0946221692188132,0.487646635201149,0.0217258088284099,-0.0331310306998898,-2.21346878931014e-06,0.31971205825389,0.468783657880302,0.467956093797053,0.04,0.0940640723452736,223.609292771187,0.557357952892824,0.294788353822948
7120,0.468959070935377,0.41708868149161,-0.0946221692188132,0.487646635201149,0.02172580882841,-0.0331310306998897,-7.81745816685184e-07,0.31971205825389,0.462823176208403,0.461995659037895,0.04,0.0946243533767639,220.765536799382,0.552094098591708,0.293814245753247
7180,0.468959070935377,0.41708868149161,-0.0946221692188132,0.487646635201149,0.02172580882841,-0.0331310306998897,-1.05450980332688e-07,0.31971205825389,0.456861667121263,0.456035224278736,0.04,0.0951890152237929,217.921294238499,0.546834807069106,0.292818286798819
7240,0.432133147896504,0.377068244849483,-0.0682532766111686,0.484605224605979,0.0242522126393178,-0.0113115096428185,2.14006564473269e-07,0.321528914289346,0.450590374626611,0.450074789519577,0.04,0.0954775639832746,214.929400121967,0.542635463532161,0.291033062596767
7300,0.376894263338194,0.317037589886292,-0.0286999376997016,0.480043108713226,0.0280418183556797,0.0214177719427886,3.64906907707973e-07,0.32425419834253,0.444958641760381,0.444114354760418,0.04,0.0956354829653376,212.245674681214,0.538136005215175,0.289802064104875
7360,0.321655378779885,0.257006934923101,0.0108534012117653,0.475480992820472,0.0318314240720414,0.0541470535283956,4.36186844458826e-07,0.326979482395714,0.439293238546507,0.438153920001259,0.04,0.0963727288043789,209.540637508353,0.531471762370399,0.289696162426372
7420,0.266416494221576,0.196976279959909,0.0504067401232322,0.470918876927718,0.0356210297884033,0.0868763351140025,4.69856942712367e-07,0.329704766448898,0.433379567963229,0.432193485242101,0.04,0.0971282671178988,206.717673165612,0.524054925955457,0.289838101681544
7480,0.211177609663266,0.136945624996718,0.0899600790346991,0.466356761034964,0.0394106355047651,0.11960561669961,4.8576149549509e-07,0.332430050502082,0.427334930756611,0.426233050482942,0.04,0.0975244535409195,203.833201663343,0.516936869813396,0.289729084199581
7540,0.155938725104957,0.076914970033527,0.129513417946166,0.46179464514221,0.0432002412211269,0.152334898285216,4.93274238621458e-07,0.335155334555267,0.421256773970182,0.420272615723783,0.04,0.0972623810797278,200.933297709723,0.510492015799193,0.289212882645653
7600,0.100699840546648,0.0168843150703358,0.169066756857633,0.457232529249457,0.0469898469374889,0.185064179870824,4.96822990356502e-07,0.337880618608451,0.415180425586025,0.414312180964624,0.04,0.0959506881032618,198.034122371065,0.504739457591196,0.288288585751906
7660,0.0454609559883381,-0.0431463398928554,0.2086200957691,0.452670413356703,0.0507794526538507,0.21779346145643,4.98499294026832e-07,0.340605902661635,0.409029470559957,0.408351746205465,0.04,0.0933930906663302,195.098560416798,0.499921729342405,0.286752179269625
7720,-0.00977792856997132,-0.103176994856047,0.248173434680567,0.448108297463949,0.0545690583702125,0.250522743042037,4.99291120056085e-07,0.343331186714819,0.403064286392785,0.402391311446307,0.04,0.0903984423691755,192.260622965109,0.496070468341886,0.284774860456058
7780,-0.0650168131282807,-0.163207649819238,0.287726773592034,0.443546181571195,0.0583586640865743,0.283252024627644,4.99665150413292e-07,0.346056470768003,0.397849638410601,0.396430876687148,0.04,0.0895684694964029,189.771363736695,0.488666932729773,0.285346403297839
7840,-0.12025569768659,-0.223238304782429,0.327280112503501,0.438984065678442,0.0621482698029362,0.315981306213251,4.99841829005488e-07,0.348781754821187,0.392333461539722,0.390470441927989,0.04,0.0898004635859128,187.137394651962,0.477962712456776,0.287687662841997
7900,-0.175494582244899,-0.28326895974562,0.366833451414967,0.434421949785688,0.065937875519298,0.348710587798858,4.99925285667064e-07,0.351507038874372,0.386592748079389,0.38451000716883,0.04,0.0904238643666974,184.397060231316,0.465528704288603,0.291046381859721
7960,-0.230733466803209,-0.343299614708811,0.406386790326434,0.429859833892934,0.0697274812356598,0.381439869384465,4.99964707615557e-07,0.354232322927556,0.380681642595509,0.378549572409671,0.04,0.0914459847491594,181.575401217398,0.452449486296187,0.294877468355592
8020,-0.285972351361518,-0.403330269672003,0.445940129237901,0.42529771800018,0.0735170869520217,0.414169150970072,4.99983329137118e-07,0.35695760698074,0.374526795021106,0.372589137650513,0.04,0.0933495751649909,178.637416712429,0.440007884169675,0.298309200176229
8080,-0.341211235919828,-0.415083930155145,0.485493468149368,0.420735602107426,0.0773066926683834,0.446898432555679,0.0223698517281183,0.359682891033924,0.368476620810662,0.366628702891354,0.04,0.0978028169212199,175.738848668817,0.42756814814828,0.302007068879967
8140,-0.359624197439264,-0.404951164927372,0.49867791445319,0.419214896809842,0.0785698945738375,0.457808193084215,0.0340077837250717,0.360591319051652,0.36606626175002,0.364641891304967,0.04,0.0958553195709442,174.638760476458,0.419740113182773,0.305713657736366
8200,-0.359624197439264,-0.397139312766873,0.498677914453191,0.419214896809842,0.0785698945738375,0.457808193084215,0.0340077837250717,0.360591319051652,0.365016931548979,0.364641891304967,0.04,0.0950200169120256,174.146752271375,0.416064655722477,0.3075453969887
8260,-0.359624197439264,-0.392402709944984,0.49867791445319,0.419214896809842,0.0785698945738375,0.457808193084215,0.0340077837250717,0.360591319051652,0.364884634940293,0.364641891304967,0.04,0.0939807146216778,174.086182128293,0.414487346766149,0.308608369488255
8320,-0.359624197439264,-0.38946479442164,0.49867791445319,0.419214896809842,0.0785698945738375,0.457808193084215,0.0340077837250717,0.360591319051652,0.364852156108071,0.364641891304967,0.04,0.0935357361444153,174.070666607736,0.413156480939106,0.309574869898375
8380,-0.359624197439264,-0.387481390043037,0.498677914453191,0.419214896809842,0.0785698945738374,0.457808193084215,0.0340077837250717,0.360591319051652,0.364811555836031,0.364641891304967,0.04,0.0933801274975788,174.051263905877,0.412053225576317,0.310369144727014
8440,-0.359624197439264,-0.386068204697616,0.498677914453191,0.419214896809842,0.0785698945738375,0.457808193084215,0.0340077837250717,0.360591319051652,0.364772584780239,0.364641891304967,0.04,0.0933240914982628,174.032716938469,0.411192122084549,0.31098596611803
8500,-0.359624197439264,-0.385034975931925,0.498677914453191,0.419214896809842,0.0785698945738375,0.457808193084215,0.0340077837250717,0.360591319051652,0.364740736676475,0.364641891304967,0.04,0.0933009419206185,174.017582933314,0.410537600456042,0.311454685534543
8560,-0.359624197439264,-0.384270666168557,0.498677914453191,0.419214896809842,0.0785698945738375,0.457808193084215,0.0340077837250717,0.360591319051652,0.364716143013807,0.364641891304967,0.04,0.0932894597589829,174.005902241066,0.410045013280549,0.31180790504089
8620,-0.359624197439264,-0.383702216850346,0.49867791445319,0.419214896809842,0.0785698945738375,0.457808193084215,0.0340077837250717,0.360591319051652,0.364697514705179,0.364641891304967,0.04,0.0932826878287623,173.997056439916,0.409675710793677,0.312073119096284
8680,-0.359624197439264,-0.383278363503725,0.49867791445319,0.419214896809842,0.0785698945738375,0.457808193084215,0.0340077837250717,0.360591319051652,0.364683495819063,0.364641891304967,0.04,0.0932781262731126,173.990399792827,0.409399344750988,0.312271837713446
8740,-0.359624197439264,-0.382961990462077,0.49867791445319,0.419214896809842,0.0785698945738375,0.457808193084215,0.0340077837250717,0.360591319051652,0.364672967308354,0.364641891304967,0.04,0.0932747580643294,173.985400581339,0.409192812204658,0.312420474243163
8800,-0.359624197439264,-0.38272580890419,0.49867791445319,0.419214896809842,0.0785698945738374,0.457808193084215,0.0340077837250717,0.360591319051652,0.364665063949013,0.364641891304967,0.04,0.0932721074677578,173.981647881577,0.409038706245289,0.312531437984034
8860,-0.359624197439264,-0.382549592559075,0.49867791445319,0.419214896809842,0.0785698945738375,0.457808193084215,0.0340077837250717,0.360591319051652,0.364659131228274,0.364641891304967,0.04,0.0932699218863516,173.978830873182,0.408923953820405,0.31261407895248
8920,-0.359624197439264,-0.382418280856542,0.498677914453191,0.419214896809842,0.0785698945738375,0.457808193084215,0.0340077837250717,0.360591319051652,0.364654677203333,0.364641891304967,0.04,0.0932680527684108,173.976715978238,0.408838744926831,0.31267543205825
8980,-0.359624197439264,-0.382320627745034,0.49867791445319,0.419214896809842,0.0785698945738375,0.457808193084215,0.0340077837250717,0.360591319051652,0.364651332904288,0.364641891304967,0.04,0.0932664062658121,173.975128023511,0.40877571782743,0.312720787578343
9040,-0.34537593763963,-0.381418336456447,0.457397622758975,0.399471329770154,0.0858967171383412,0.43413857669138,0.0445981365047883,0.339129957309445,0.366271755630178,0.364641891304967,0.04,0.0875926538406308,174.748543253677,0.403454286594917,0.31825402595227
9100,-0.324003547940178,-0.376902178391349,0.395477185217651,0.369855979210622,0.0968869509850968,0.398634152102129,0.0604836656743633,0.306937914696135,0.365810364533192,0.364641891304967,0.04,0.082811643651673,174.526289140963,0.395567458991979,0.324186535573534
9160,-0.302631158240727,-0.371354465250204,0.333556747676328,0.34024062865109,0.107877184831852,0.363129727512877,0.0763691948439383,0.274745872082824,0.365724271195898,0.364641891304967,0.04,0.0763168014005139,174.48700609966,0.389000267615704,0.329585325699467
9220,-0.281258768541275,-0.35201631556207,0.271636310135005,0.310625278091558,0.118867418678608,0.327625302923625,0.0922547240135132,0.242553829469514,0.366429929543539,0.364641891304967,0.04,0.0690316436986047,174.809094086454,0.380902480288487,0.337213457283436
9280,-0.259886378841824,-0.316192271727291,0.209715872593681,0.281009927532026,0.129857652525364,0.292120878334373,0.108140253183088,0.210361786856204,0.365230153860609,0.364641891304967,0.04,0.0640896961103807,174.250397117422,0.376117772659413,0.340411793112169
9340,-0.238513989142372,-0.280368227892513,0.147795435052358,0.251394576972495,0.140847886372119,0.256616453745121,0.124025782352663,0.178169744242893,0.364973749934412,0.364641891304967,0.04,0.0578453230908564,174.128740873057,0.373637219220222,0.342432522246229
