time,bias_percent_1,bias_percent_2,bias_percent_3,bias_percent_4,bias_percent_5,bias_percent_6,bias_percent_8,bias_percent_9,normalized_power,power_SP,SP,CV,total_power_MW,fuel_fraction,thermal_efficiency
49,0,0,0,0,0,0,0,0,0.999799192714106,1,0.04,0.039917362807388,477.007634951043,0.999958020064482,0.350508245303429
109,-0.0265011203902995,-0.013637240856056,-0.0252259001052956,-0.0213051944377426,0.012108705136282,-0.0235133645708216,-0.0148002590883958,0.0204078759380126,0.981643694926109,0.969595825485311,0.04,0.0456491917535759,468.085261944108,0.948630154695026,0.362562362222759
169,-0.0589514718886254,-0.0303359031287778,-0.0561147573770861,-0.0473931876268149,0.0269356910174436,-0.0523052395555009,-0.0329230253190843,0.0453971117804772,0.945904293331366,0.932366224038753,0.04,0.0519103555001458,450.991752339832,0.866052906193932,0.382629854430894
229,-0.0914018233869513,-0.0470345654014994,-0.0870036146488765,-0.0734811808158872,0.0417626768986053,-0.0810971145401802,-0.051045791549773,0.0703863476229416,0.907808200175553,0.895136622592195,0.04,0.0533717149290651,432.810173778861,0.786065656682084,0.404569664071574
289,-0.123852174885277,-0.0637332276742211,-0.117892471920667,-0.0995691740049597,0.056589662779767,-0.10988898952486,-0.0691685577804616,0.0953755834654061,0.86897565154109,0.857907021145637,0.04,0.0506493739890052,414.529508123288,0.71366124283232,0.426793715065497
349,-0.156302526383603,-0.0804318899469429,-0.148781329192458,-0.125657167194032,0.0714166486609286,-0.138680864509539,-0.0872913240111503,0.120364819307871,0.830919104266135,0.820677419699079,0.04,0.045478512774881,396.334174330304,0.647380355925449,0.449838560421411
