time,bias_percent_1,bias_percent_2,bias_percent_3,bias_percent_4,bias_percent_5,bias_percent_6,bias_percent_8,bias_percent_9,normalized_power,power_SP,SP,CV,total_power_MW,fuel_fraction,thermal_efficiency
55,0,0,0,0,0,0,0,0,0.999838042475392,1,0.04,0.0399063598158726,477.025422217799,1.00002945907389,0.350496275342325
115,-0.0186645187554092,0.00627460610357639,-0.00408466825319465,-0.0104113050436371,0.032191600388076,0.0102781934568444,0.0304688895447271,-0.0260473101678631,0.977474936505973,0.966801277128192,0.04,0.049014117058696,466.089133709376,0.948319506672909,0.361134492329816
175,-0.039025811943128,0.0131196309438416,-0.00854066998395228,-0.0217690923639682,0.067309709902341,0.0214907681370385,0.0637076781389749,-0.0544625576237138,0.941954219513402,0.930584488540766,0.04,0.0576401826738331,449.11042511971,0.878095803401263,0.375807904980011
235,-0.059387105130847,0.0199646557841069,-0.01299667171471,-0.0331268796842994,0.102427819416606,0.0327033428172324,0.0969464667332228,-0.0828778050795645,0.904985856240049,0.89436769995334,0.04,0.0622737234933096,431.473736729814,0.810788855018673,0.391022071255264
295,-0.0797483983185659,0.026809680624372,-0.0174526734454677,-0.0444846670046305,0.137545928930871,0.0439159174974263,0.13018525532747,-0.111293052535415,0.86788826595133,0.858150911365913,0.04,0.0639248213330914,413.774628721941,0.748759158525793,0.406047075035191
355,-0.100109691506285,0.0336547054646372,-0.0219086751762255,-0.055842454324962,0.172664038445136,0.0551284921776203,0.163424043921718,-0.139708299991266,0.830851380433079,0.821934122778487,0.04,0.0635917451833189,396.105258566017,0.691828327792234,0.42069460582025
415,-0.120470984694004,0.0404997303049025,-0.0263646769069833,-0.0672002416452931,0.207782147959401,0.0663410668578143,0.196662832515966,-0.168123547447117,0.793906638865845,0.78571733419106,0.04,0.0620385017850275,378.479140766252,0.639401631371243,0.434933525681453
475,-0.140832277881723,0.0473447551451677,-0.030820678637741,-0.0785580289656244,0.242900257473665,0.0775536415380083,0.229901621110214,-0.163428853286194,0.75577098945878,0.749500545603634,0.04,0.0606079453775035,360.269007950234,0.593770255705516,0.44582368952178
535,-0.161193571069442,0.054189779985433,-0.0352766803684988,-0.0899158162859555,0.27801836698793,0.0887662162182021,0.263140409704462,-0.108823208766288,0.718183850170959,0.713283757016207,0.04,0.0590712250243166,342.353035556805,0.56086004848756,0.44851229633783
595,-0.181554864257161,0.0610348048256982,-0.0397326820992565,-0.101273603606287,0.313136476502195,0.0999787908983961,0.296379198298709,-0.0578640123759984,0.68184121890258,0.677066968428781,0.04,0.0585495264744877,325.001871608035,0.531109069697023,0.449631594444687
655,-0.20191615744488,0.0678798296659634,-0.0441886838300142,-0.112631390926618,0.34825458601646,0.11119136557859,0.329617986892957,-0.0273326305540189,0.64493567415151,0.640850179841355,0.04,0.0598475161981644,307.40803418679,0.5039937238501,0.448172042979241
715,-0.222277450632599,0.0747248545062286,-0.048644685560772,-0.123989178246949,0.383372695530725,0.122403940258784,0.362856775487205,-0.0129106953977667,0.608486681075281,0.604633391253928,0.04,0.0625521039514654,290.01983484273,0.478687132407062,0.445174852839643
775,-0.242638743820318,0.0815698793464938,-0.0531006872915297,-0.135346965567281,0.41849080504499,0.133616514938978,0.396095564081453,-0.00609828792587808,0.572168708671821,0.568416602666502,0.04,0.0664543073190152,272.693231621742,0.454200215853869,0.441145342766719
835,-0.263000037008037,0.088414904186759,-0.0575566890222875,-0.146704752887612,0.453608914559255,0.144829089619172,0.429334352675701,-0.00288034976014471,0.53592013155674,0.532199814079075,0.04,0.0713148189397153,255.399462738869,0.43002776704906,0.436393382792685
895,-0.283361330195756,0.0952599290270242,-0.0620126907530452,-0.158062540207943,0.488727024073519,0.156041664299366,0.462573141269948,-0.00136031061374673,0.499875872003323,0.495983025491649,0.04,0.0772491510046941,238.204756089415,0.405336729298459,0.431806470668615
955,-0.285058104628066,0.095830347763713,-0.0623840242306083,-0.159009022484637,0.491653533199708,0.156976045522715,0.465343040319469,-0.000642298368767633,0.488309809219283,0.49296495977603,0.04,0.061472919292102,232.96608563102,0.426954330301821,0.40092760179241
