time,bias_percent_1,bias_percent_2,bias_percent_3,bias_percent_4,bias_percent_5,bias_percent_6,bias_percent_8,bias_percent_9,normalized_power,power_SP,SP,CV,total_power_MW,fuel_fraction,thermal_efficiency
44,0,0,0,0,0,0,0,0,0.999763915881335,1,0.04,0.0399308921824069,476.991314977995,0.999894025306476,0.350518685583558
104,0,0,0,0,0,0,0,0,0.999972888197917,1,0.04,0.0399046537557402,477.08752674598,1.00027521551914,0.350455782654564
164,0,0,0,0,0,0,0,0,0.999997464051311,1,0.04,0.0399454682760743,477.098849597628,1.00031689961829,0.350449495967378
224,0,0,0,0,0,0,0,0,1.00000134688946,1,0.04,0.0399749547000124,477.100658815016,1.00031421502215,0.350451765438282
284,0,0,0,0,0,0,0,0,1.00000286032992,1,0.04,0.0399925575994204,477.101373593974,1.00029971487453,0.350457370562752
344,0,0,0,0,0,0,0,0,1.00000369027862,1,0.04,0.0400025167628858,477.101764942992,1.00027898454831,0.350464921105562
404,0,0,0,0,0,0,0,0,1.00000398588756,1,0.04,0.0400076708003831,477.101902164401,1.00025543440816,0.350473273297065
464,0,0,0,0,0,0,0,0,1.00000386966968,1,0.04,0.0400097870686301,477.101844036508,1.00023180869309,0.350481508858732
524,0,0,0,0,0,0,0,0,1.00000348665732,1,0.04,0.0400100275988271,477.101659721115,1.00021000483799,0.350489013700276
584,0,0,0,0,0,0,0,0,1.00000296496171,1,0.04,0.0400091847473871,477.101410245024,1.00019110353664,0.350495453859083
644,0,0,0,0,0,0,0,0,1.00000240023811,1,0.04,0.0400077990486494,477.101140681163,1.00017554159097,0.350500709258827
704,0,0,0,0,0,0,0,0,1.00000185686589,1,0.04,0.0400062285830376,477.100881845853,1.00016330812833,0.350504806241242
764,0.183333333333333,-0.183333333333333,-0.18106883395865,0.183331284464938,0.083667670683566,0.183333333333333,-0.00744642552022486,0.183333204083875,0.991190641770149,1,0.04,0.0461319482367539,472.850392783017,1.0305156532025,0.337150522800931
824,0.25,-0.25,-0.24691204630725,0.249997206088551,0.114092278204863,0.25,-0.0101542166184885,0.249999823750738,0.997029457354611,1,0.04,0.0465954995600227,475.723963885326,1.06701668231685,0.327595928642399
884,0.25,-0.249779891976303,-0.249176273814432,0.249999218958488,-0.152908725812037,0.25,0.0559758940635729,-0.116466178785273,1.01252064782077,1,0.04,0.0399003437981446,483.157854076461,1.02837874850025,0.345215769907254
944,0.25,-0.249699852694958,-0.249999629271589,0.249999950911191,-0.25,0.25,0.080023207038868,-0.249726543343823,1.00404845035932,1,0.04,0.0396187172072541,478.97243616971,0.975780257507919,0.360672616719587
1004,0.249996235004803,-0.249919849848238,0.116663998750644,0.249971823779462,0.116666663135159,0.249843211029926,0.204672855210365,0.116739588441647,0.97611738349305,1,0.04,0.0579796328512453,465.577973829339,1.05384871433285,0.324615185454645
1064,0.24999486591564,-0.249999848813067,0.249996227122365,0.249961595731561,0.249999995184308,0.249786196858989,0.25,0.25,0.991610986330359,1,0.04,0.0581606789410409,473.211613722119,1.15415158178928,0.301263987347788
1124,0.24999579104839,-0.249999959683484,0.249930622809589,-0.0066518524552605,0.249990677013479,0.247014991031627,-0.116351146307198,0.249962314283281,1.01086478800174,1,0.04,0.0519780710598515,482.386997738502,1.12994474880464,0.31368450132756
1184,0.2499961274603,-0.25,0.249906766695853,-0.0999658336141043,0.249987288587723,0.246007279821677,-0.249569744964361,0.249948610386293,1.00569125340552,1,0.04,0.0536778375407431,479.764887982144,1.07352374465836,0.328376055734166
1244,0.249996689076455,0.116666353707567,0.249975137785561,-0.209990888963761,0.249993819684168,-0.117731392047553,-0.24983717216604,0.249985067868698,1.00676127589794,1,0.04,0.0523384459122416,480.34719849941,1.03977814943398,0.339444871687936
1304,0.249996893300511,0.249999573237592,0.25,-0.25,0.24999619462833,-0.25,-0.231914764552351,0.249998325135027,1.00225906496268,1,0.04,0.0507155670943909,478.143232452436,1.01187636745196,0.34720441303947
1364,0.249843760305334,0.249999657993472,0.0955572298517783,0.116666666666667,-0.116657458693115,0.116666666666667,-0.203061558859231,-0.0370581819934789,1.0045538445322,1,0.04,0.0472896415986504,479.284810441949,0.992727593749707,0.35474660521472
1424,0.249788075579814,0.249999688813792,0.0393962225251522,0.25,-0.249986059900913,0.25,-0.180029804740226,-0.141442366403845,1.0002156028249,1,0.04,0.0447129703317378,477.17814135964,0.979774520045466,0.357856637165803
1484,-0.116684380935724,0.128188826293671,0.193838990112975,-0.116551873490878,-0.249990445031442,0.249965204206669,-0.168127216229832,-0.168127216229832,1.0093604645096,1,0.04,0.0243917063725671,481.64062825999,0.950530444494706,0.372316050566997
1544,-0.249947092395919,0.083893967195445,0.249999996508547,-0.249843463851197,-0.249992039624361,0.249952551190912,-0.187393495526807,-0.187393495526807,1.00511477092432,1,0.04,0.0169322348458615,479.489611101327,0.898391125423302,0.392164633338073
1604,-0.249985891305578,0.205531741885178,0.249999999068946,-0.249958257026986,0.116043009676112,0.249987346984243,0.116650576775663,-0.224453123296176,0.983285661040462,1,0.04,0.0326221317308725,469.002132794553,0.943140078019465,0.365387169992444
1664,-0.25,0.249763659954171,0.25,-0.25,0.249146663967194,0.25,0.249977995842171,-0.25,0.993360061000339,1,0.04,0.034303092742988,473.994930199187,1.01839473548748,0.341989070804966
1724,-0.249999999618226,-0.116702721797035,-0.116666666666667,-0.24419436502195,0.249697683986084,-0.116665111453317,0.249994132224579,0.11666184087829,1.01261698816054,1,0.04,0.0216293929750133,483.134876482637,0.996986545218033,0.356068674897499
1784,-0.249999999479399,-0.249963224252018,-0.25,-0.242083225029931,0.249898054902045,-0.249997879254523,0.25,0.249993419379486,1.00432171225725,1,0.04,0.0221625692680007,479.111737485845,0.931140573930367,0.378073498106879
1844,0.116596493483809,0.116676473532795,-0.25,-0.247888860007982,-0.116249933975591,-0.248181626813751,0.25,0.249931524770432,0.989610903556454,1,0.04,0.0292393478657219,472.109530375787,0.957468695444823,0.362303775909069
1904,0.249904309106793,0.25,-0.25,-0.25,-0.249394657203822,-0.247521171380743,0.25,0.249909017639867,0.996470434584483,1,0.04,0.0326912581219147,475.452330387996,1.00067051588585,0.349116643022265
1964,0.249972472261292,-0.116666666666667,-0.25,0.10002838504057,-0.24983856765722,0.117327687631802,-0.1166666474863,0.249975731649552,0.998788010052229,1,0.04,0.0332024484695301,476.568925893966,1.01341768317531,0.345534900495352
2024,0.249997258862928,-0.25,-0.25,0.227311434146232,-0.249999989640275,0.25,-0.249999973844955,0.249999991289438,1.00004241025134,1,0.04,0.0355649024995727,477.116360354958,1.0109934782493,0.346761306869856
2084,0.249998343453378,-0.249999241536831,0.11665760462332,0.243948884540136,0.116665831830707,0.249998710665953,0.00484496286403265,-0.116666574184642,0.990978926618722,1,0.04,0.0510449911047066,472.739261542894,1.04056827208241,0.333814939429537
2144,0.249998737849905,-0.249998965732042,0.249987642668164,0.249998866501555,0.249998857820155,0.249998241817209,0.0975158489400283,-0.249999870720671,0.995256482512987,1,0.04,0.0535567009990411,474.880176666379,1.08592219072721,0.321321665319192
2204,0.249999663426641,-0.249997634257401,0.24999670471151,0.249999344775592,0.249996108526563,0.249999524807051,-0.157329105948029,-0.249999693595666,1.00456065438954,1,0.04,0.0504756938332926,479.325068131642,1.07894751272948,0.326425817748465
2264,0.25,-0.249997150084804,0.25,0.249999518693423,0.249995108783439,0.249999991348812,-0.249999998634595,-0.249999629186573,1.00148517097873,1,0.04,0.0506247792150905,477.783725219563,1.05816857596555,0.331765458822928
2324,0.25,-0.249999178688095,0.249995924076163,-0.116666795015087,0.249998660878078,-0.116657425151269,-0.249999999635892,0.116666763098688,1.00168400984228,1,0.04,0.0405101701289848,477.924240351894,1.05212395203954,0.33376963761286
2384,0.25,-0.249999916362019,0.24999444192204,-0.25,0.249999952548855,-0.249987394787663,-0.25,0.249999996656965,1.00366168833363,1,0.04,0.0379766340224911,478.844314870282,1.03183076945321,0.340989131978759
2444,0.249999927060256,0.116663255169279,0.249998517845877,-0.24999891237433,0.249997653644164,-0.0202730879808258,-0.249999287538396,0.249999998972886,0.994991887399385,1,0.04,0.0525015480098648,474.648597049638,1.03840362489237,0.335861855003977
2504,0.249999900536713,0.249995317544296,0.25,-0.249998516874086,0.249996817678822,0.0632593872216603,-0.249999028461449,0.24999999981504,0.997530185549254,1,0.04,0.0540040422324126,475.954687350857,1.06599021878347,0.328070412571901
2564,0.249997109726552,0.249998751345145,0.249927777327467,0.116521007190871,0.249999151381019,0.200202503259109,-0.24999934699739,-0.0639669811710828,1.00114736214197,1,0.04,0.0581189751837688,477.643247140564,1.06392458204756,0.329873535386158
2624,0.249996094886494,0.25,0.249901514537455,0.249800834123583,0.25,0.25,-0.249999462828641,-0.178136792438764,0.998153478409753,1,0.04,0.0575196924377212,476.210546522697,1.06909836489316,0.327292475060346
2684,0.249998958636398,-0.0188781258220267,0.249973737209988,0.249850107405738,0.249847205249592,0.137425185932509,-0.210436287693047,-0.210436287693047,1.00308749521725,1,0.04,0.0466134792588223,478.599262790048,1.06493164337044,0.330221214052009
2744,0.25,-0.116651989757309,0.25,0.249868024962886,0.249791643522172,0.0964888899079668,-0.183909098965946,-0.183909098965946,1.00098045361851,1,0.04,0.0438606981992882,477.54798512195,1.05053153051816,0.334012408834923
2804,0.249941365903382,-0.214387424360684,-0.116650083099902,0.24996480665677,0.24993235517791,-0.15759697883512,0.116813281890672,0.116701475406476,0.994709936932919,1,0.04,0.0366101550047193,474.526210976958,1.06013120275331,0.328893480829528
2864,0.249920044413703,-0.249927582398275,-0.249977386045321,0.25,0.249983523052724,-0.249991840196242,0.25,0.249986306785952,1.0015947615103,1,0.04,0.0347966974997835,477.892502128348,1.06881891934039,0.328534332029954
2924,0.249978387346466,-0.24998068863954,-0.249993969612086,-0.115668284542684,0.249393943426094,-0.249997824052331,0.25,0.249996348476254,1.00873652780827,1,0.04,0.0310867141223387,481.317695396831,1.03355362600818,0.342179108057311
2984,0.24999960295838,-0.25,-0.25,-0.248638569830933,0.249179550834592,-0.25,0.25,0.25,0.997018752539649,0.987809115500424,0.04,0.0345616930876104,475.528988097027,0.972023125842326,0.359463728995469
3044,0.249999894122234,-0.25,-0.249716458858784,-0.248464590000215,-0.116882316570668,-0.249998945202517,0.249981822863879,0.25,0.98670206611807,0.971185182091912,0.04,0.0307123198480371,470.673990307283,0.897071653863038,0.385520735708109
3104,0.25,-0.25,-0.24961335298925,-0.248401324607226,-0.249995722899854,-0.249998561639795,0.249975212996198,0.25,0.963583922313769,0.9545612486834,0.04,0.0306135518237181,459.553572833993,0.821717784375864,0.410930273040525
3164,0.25,-0.249999938186611,0.0479075315544655,0.117092980068604,0.116667804073173,0.116663146226664,-0.116673276534347,0.24999999324945,0.927958669725782,0.937937315274888,0.04,0.0533566767914393,442.549272127355,0.844616130141896,0.384996637015965
3224,0.25,-0.249999915709015,0.156096944115817,0.249999999950724,0.249999995699728,0.249994676359922,-0.229289779944425,0.249999990794704,0.918110774523825,0.921313381866376,0.04,0.0572178189975466,437.955634169809,0.886710515694919,0.362913342380324
3284,0.249958622344581,0.116666689143592,0.22486539341359,0.249999978257017,0.249999998756784,0.249998580362646,-0.196039086202528,0.249761179297615,0.901141511840806,0.904689448457864,0.04,0.0702352724505495,429.793816054966,0.900724981756193,0.350608653313979
3344,0.249943575924428,0.249999999999085,0.249872102249145,0.249999970368396,0.249999999868441,0.25,-0.137460700321515,0.249674338753219,0.88736129589673,0.888065515049352,0.04,0.0733534558125051,423.253690730362,0.912703205219331,0.340742146102772
3404,0.249984740405846,0.249995702594014,0.249952222091978,0.249999992098239,0.249999999828579,0.249979657152657,-0.0701598994497371,0.0792473211507984,0.877401831709756,0.87144158164084,0.04,0.0709236936067317,418.507655119172,0.890937903611167,0.345152200721185
3464,0.249999709308181,0.249994139901261,0.249981356580281,0.25,0.249999999814084,0.249972259753623,-0.0331407687824962,0.0172738602044635,0.857475606732763,0.854817648232328,0.04,0.0715353420367891,408.943271162959,0.862981728351287,0.348189878315362
3524,0.24999977107713,0.249996151179435,0.249995028421408,0.249953519805223,0.249999999950422,0.249985496115777,0.116957447399547,-0.0156542526111751,0.836047427329923,0.838193714823816,0.04,0.0733429856420365,398.615456398815,0.856365400392936,0.342018579252133
3584,0.249999793538566,0.249996882553317,0.25,0.249936617916213,0.25,0.249990309338378,0.25,-0.00739424644407228,0.820733777764066,0.821569781415304,0.04,0.0731201234236218,391.477258535916,0.875640504028208,0.328499998827763
3644,0.249895071880159,0.249997729666799,-0.116666022971973,0.24998309811099,0.25,0.249997392234953,0.249993070831258,-0.00349251463542769,0.810711356778036,0.804945848006792,0.04,0.0667950852812913,386.713510428767,0.856196698223293,0.331871893063934
3704,0.249856991277102,0.249998037708065,-0.249999122234509,0.25,0.25,0.249999967833707,0.249990551133534,-0.00164973040642184,0.794198624332865,0.78832191459828,0.04,0.0683545679141907,378.763195735446,0.814241044014974,0.341797953494153
3764,0.171885064120525,-0.116662287248359,0.116644221987237,0.249996342753846,0.25,0.249999991422322,0.249997480299157,0.182973175286932,0.770705121154802,0.771697981189768,0.04,0.0702673920532302,367.527505530544,0.802903774245297,0.336341939211751
3824,0.143531636063588,-0.24999331450524,0.249969074431509,0.249995012846153,0.25,0.25,0.249999999995747,0.25,0.757387176465568,0.755074047781255,0.04,0.068675827597986,361.239769995698,0.799609364994043,0.331949761883456
3884,0.221604662527492,0.116668449465269,-0.116674913484931,0.249983521506988,0.25,-0.116666471548028,0.249999999998866,0.249999801658588,0.748563819059576,0.738450114372743,0.04,0.0677343747030495,357.052107344924,0.756694496132767,0.34670946817551
3944,0.249994853968912,0.25,-0.25,0.249979342838201,0.25,-0.249999733929129,0.25,0.249999729534439,0.728306266960527,0.721826180964231,0.04,0.0723134361059525,347.308259897026,0.703298738797067,0.362852358057763
4004,0.249998627725043,-0.116666666666667,-0.249999994486867,0.249993305327112,0.25,-0.249999929047768,0.249835490730047,0.249999926920019,0.711900597801069,0.705202247555719,0.04,0.0577602413732583,339.529670333366,0.66712925646651,0.373957649458312
4064,0.25,-0.25,-0.249999992482092,0.249998382595807,0.25,-0.25,0.249775669177337,0.249999998696593,0.693712986798706,0.688578314147207,0.04,0.0508450173644888,330.817939828727,0.628567556508466,0.386715667777478
4124,-0.116666037381627,0.0720543365680601,-0.249999997995225,0.24999943495475,-0.0682135990245044,-0.249999994567968,-0.00156763236176779,0.249999999652425,0.685392947013579,0.671954380738695,0.04,0.0327057799022625,326.739782547829,0.565355619699466,0.424653764592722
4184,-0.249999141884037,0.189165004410991,-0.25,0.24999981763073,-0.183927635033415,-0.249999992592684,-0.016844504619875,0.25,0.66029377765224,0.655330447330183,0.04,0.0231778276915424,314.843833796361,0.515835022126726,0.448475831295823
4244,-0.249996863959395,0.233777334509598,-0.25,0.249999951062502,-0.23238026505158,-0.249999998024716,0.11666959270668,0.25,0.636494805429472,0.638706513921671,0.04,0.025765986817902,303.565325887906,0.50274887031526,0.443665579506005
4304,-0.249996035623161,0.25,-0.25,0.249999999583147,-0.249999403240003,-0.25,0.25,0.25,0.622528132899939,0.622082580513159,0.04,0.0288368474258113,296.902712437367,0.506940673302984,0.430339988777408
4364,-0.249986827210341,0.249999705879508,0.116666298981763,0.249997731023106,0.116666825802666,0.116666666666667,0.25,0.249999869732603,0.588730639410901,0.605458647104647,0.04,0.0677253616939005,280.750653017142,0.573783895020019,0.359523346088043
4424,-0.249983478696589,0.249999598926601,0.249999498611495,0.249996906092183,0.25,0.25,0.25,0.249999822362641,0.585863983554042,0.588834713696135,0.04,0.0772893588884749,279.477709423584,0.628688910392504,0.326637506545707
4484,-0.24999559431909,-0.116666773619573,-0.11666674404486,-0.116581030622008,0.24998858642069,-0.116666666666667,-0.0350884314614116,0.232761386054126,0.600568027464362,0.572210780287623,0.04,0.0212723881344985,286.504199901764,0.539560022812577,0.390162840736845
4544,-0.25,-0.25,-0.249999923192625,-0.249882098518077,0.249984436028213,-0.25,-0.0538126850423363,0.226492863760121,0.594524566237527,0.576046624524211,0.04,0.00210902889462674,283.650650309609,0.398296069633158,0.523277955183557
4604,-0.249996536886439,-0.249973301483093,0.116666687148633,0.116698107061846,0.249995849607523,-0.25,-0.110630114753717,0.243660807220207,0.566522752998825,0.587322387904473,0.04,0.00983011862989053,271.241469765516,0.474109727565467,0.420370178575152
4664,-0.249995277572417,-0.249963592931491,0.25,0.25,0.25,-0.25,-0.173696542899116,0.249903695751147,0.590567920068616,0.598598151284734,0.04,0.0129373800564364,281.961810147352,0.570238546172521,0.363319238702178
4724,-0.190472286399332,-0.249959600551401,0.249996881796457,0.249981849921967,0.249988493013475,-0.25,-0.238465685184231,0.249971399520186,0.600525996844555,0.609873914664996,0.04,0.0185169312982364,286.573688000574,0.623380038893241,0.337783240182151
4784,-0.168827562336392,-0.249958148776823,0.249995747904259,0.249975249893591,0.249984308654739,-0.25,-0.249989481641358,0.249996019072563,0.613483420193407,0.621149678045257,0.04,0.0248458759316863,292.809846906976,0.67726203762464,0.317675425945333
4844,-0.228351496417013,0.116677826992847,0.249911649798307,0.249647507477775,0.249995815641264,0.116666189422109,-0.249997195104362,0.24999893841935,0.618007033224588,0.632425441425519,0.04,0.0514780348236319,294.911892108076,0.746248755847187,0.290377753969967
4904,-0.24999656335542,0.25,0.24988106866887,0.249528328417478,0.25,0.249999349211967,-0.25,0.25,0.637007241648046,0.643701204805781,0.04,0.0587667077498435,304.071625667095,0.811581390775096,0.275295106708162
4964,0.116667583105221,-0.116666666666667,-0.115539421726483,0.249874220911327,0.170974126099787,0.0852466339690196,0.0397865207477634,0.249999664662798,0.655131615204586,0.654976968186042,0.04,0.0503397632990258,312.695996386548,0.823194122132575,0.279109575544598
5024,0.25,-0.25,-0.248419600052065,0.25,0.142237444681527,0.0253365556988568,0.145163437383314,0.249999542721997,0.668381639384483,0.666252731566304,0.04,0.0509394780813918,318.971852040411,0.810942285336527,0.289012808102413
5084,-0.078392196941229,0.116666666666667,0.117088106652783,-0.111946246781311,-0.145403348084926,0.189123727649232,0.222032724261635,0.145799272044461,0.681017735551817,0.677528494946565,0.04,0.0550907510848293,325.013366737815,0.794706879369982,0.300503079023479
5144,-0.197807541283494,0.25,0.25,-0.243563063792696,-0.25,0.24868269926755,0.249985192217388,0.107908264525357,0.690740650601243,0.688804258326827,0.04,0.0543399172889941,329.622636749265,0.777086157846072,0.311675404942304
5204,-0.235672028850889,0.249996304950066,0.249999871003356,0.11548443805306,0.116666666666667,0.249570938318894,0.24999597280758,-0.154557796126571,0.697202855454919,0.700080021707089,0.04,0.0625140311390268,332.701019641463,0.782838371595113,0.312274630586803
5264,-0.249440933420851,0.249994961295544,0.249999824095486,0.246047165996972,0.25,0.249893934337565,0.249999893022195,-0.141265155625943,0.706202721441624,0.71135578508735,0.04,0.0608640617611967,337.034990608547,0.817527436075694,0.302919569574803
5324,0.116815717467101,0.249998656345478,0.249990633294775,0.245301939947065,-0.116666666666667,0.249937764226082,0.248054551281629,-0.0906117260532836,0.720481192996604,0.722631548467612,0.04,0.0583630650511938,343.846894982383,0.835254085079272,0.302483141494863
5384,0.249999954153629,0.25,0.249987291185425,0.24503094865619,-0.25,0.249953702367361,0.24734715428506,-0.045350643549491,0.731843747369729,0.733907311847873,0.04,0.0577186516906213,349.250034597929,0.846992069257933,0.302978485411004
5444,0.243077683804737,0.25,0.192955736538675,0.248674919641651,-0.25,0.24998765396463,0.249230586003118,0.162116945787466,0.738263431725217,0.745183075228135,0.04,0.0585342370607287,352.278618218583,0.874153562928745,0.296110105098172
5504,0.240560494586958,0.25,0.172216989394402,0.25,-0.25,0.25,0.24991547026423,0.248547924599847,0.753407384264812,0.756458838608396,0.04,0.0572225162958109,359.569244288998,0.9058438039404,0.291664717220074
5564,0.247482798556522,-0.116666663818908,-0.137407764037961,0.249982223114041,-0.25,0.209658424556951,-0.006694295050958,-0.006694295050958,0.787093279765002,0.767734601988658,0.04,0.0304491464084576,375.554161688373,0.836200637441565,0.330002143615362
5624,0.25,-0.249999996116693,-0.249998583467911,0.249975758791874,-0.25,0.194988760759479,-0.0216004046482346,-0.0216004046482346,0.784820862366579,0.77901036536892,0.04,0.0246284378940496,374.448515053947,0.768520922908428,0.358006649618542
5684,0.25,-0.249996077823456,-0.249998036240888,0.249985285060454,-0.25,0.235330303974319,-0.0512566209321453,0.116671253176642,0.783826121268198,0.790286128749181,0.04,0.0242249111688177,373.909539602946,0.771717118167356,0.356010730278536
5744,0.25,-0.249994652989552,-0.249997837249243,0.249988749158119,-0.25,0.249999956052442,-0.0882665349090177,0.25,0.797446525178835,0.801561892129443,0.04,0.0209226151395218,380.58626698512,0.815460293888032,0.342929597809937
5804,0.249921185817312,-0.249998574130547,-0.249998896306639,0.249985527898226,-0.24999525986848,0.249963570718238,-0.131542062366166,0.25,0.810443011411993,0.812837655509704,0.04,0.0217491014225887,386.75515956229,0.832049805790279,0.341539917274673
5864,0.249892526114516,-0.25,-0.249999281418419,0.249984356530993,-0.249993536184291,0.249950339687619,-0.176521274320564,0.25,0.821860104706624,0.824113418889966,0.04,0.0233158031772246,392.199347342592,0.846252240297233,0.340534965816972
5924,0.249968297626857,-0.249999843988644,-0.249999382486974,-0.116670838258402,0.116668390350856,-0.116679909416635,-0.0309786413872243,0.235157303487714,0.83648203398603,0.835389182270228,0.04,0.0201833498149824,399.225243735904,0.849544154508363,0.345292157931384
5984,0.249995850904071,-0.249999787257241,-0.249999419239176,-0.25,0.25,-0.25,0.0486650841798792,0.229759959301429,0.845167499714992,0.846664945650489,0.04,0.0223880446550175,403.294787996417,0.848326100304577,0.349312765155636
6044,-0.116664505602277,-0.249999943268598,-0.249999845130447,-0.25,-0.116514710202909,0.116665834656677,0.196310657627154,0.244585867896856,0.862862514282228,0.85794070903075,0.04,0.0214384220548903,411.807626853101,0.840169458224526,0.360148965724102
6104,-0.249995544331858,-0.25,-0.25,-0.25,-0.24979278664033,0.249998865440924,0.249999957062527,0.249977107386103,0.8625679746968,0.860947579265487,0.04,0.0228546845730225,411.50235708224,0.812033863737456,0.372351289966612
6164,0.116666375702904,-0.24997986730485,-0.057515684204183,-0.24998793758772,0.116721923562579,0.249999697450913,0.24970565781436,0.249993895302961,0.835182960574199,0.860947579265487,0.04,0.0398369162291721,398.344379223331,0.897552997873569,0.326101854024312
6224,0.249997982988272,-0.249972546324796,0.0124786124488413,-0.249983551255982,0.25,0.25,0.249598639905935,0.25,0.853066416526324,0.860947579265487,0.04,0.044826263852123,407.113195721055,0.999202148312722,0.299375665736358
6284,0.249999451055852,-0.249992679019946,0.13933480399449,-0.249995440886747,0.0211608157679492,0.249999661555217,0.249857678823689,0.249977458762135,0.862489496941384,0.860947579265487,0.04,0.0509016707937954,411.539404057907,1.00515768386177,0.300837453391494
6344,0.249999984898608,-0.25,0.185464328192907,-0.249999764388843,-0.0620534330437055,0.249999538484387,0.249951874793781,0.249969261948366,0.864708586419927,0.860947579265487,0.04,0.0572098038352434,412.557845194937,0.984274330920742,0.307980604551602
6404,0.188791836314881,0.116666666664722,0.232755023018522,-0.249999937170358,0.166348956139545,-0.116657023888056,0.249987166611675,0.249985028098758,0.863214974316586,0.860947579265487,0.04,0.0667049810632824,411.84463226051,0.966478811422807,0.313109142697462
6464,0.16653432773898,0.249999999997348,0.249951639318746,-0.25,0.249404370387999,-0.249986682932581,0.25,0.249990761244354,0.863906295712566,0.860947579265487,0.04,0.0684036508212374,412.171950849908,0.949397458263416,0.318995859035857
6524,0.227742315410459,-0.116666396130263,-0.116503009776793,-0.249994976116544,0.2498411654368,-0.249996160501184,0.0226287256880893,0.249997536331828,0.876250521966981,0.860947579265487,0.04,0.0441024332313991,418.174309525668,0.893621204724798,0.343841710931141
6584,0.249999765472815,-0.249999631085758,-0.249759245811534,-0.249993149249832,0.25,-0.249999606889767,-0.06005173769806,0.25,0.86915638878622,0.860947579265487,0.04,0.0360394692153975,414.600474353396,0.812576569203265,0.37490408771409
6644,-0.116538390961474,0.116590360363714,-0.249935796880535,-0.249998038435429,0.249936243519619,-0.249893450053129,0.167319536613851,0.25,0.85926269387766,0.860947579265487,0.04,0.0372284488973061,409.917176566682,0.804377679487907,0.374447367833581
6704,-0.249824993301216,0.249895811799886,-0.249999997269262,-0.249999816321101,0.249913059344934,-0.249854847567078,0.25,0.25,0.861700748543879,0.860947579265487,0.04,0.0344440522914741,411.120728347685,0.804754806673699,0.375370787106635
6764,-0.249953331546991,0.249972209475955,0.116666612100163,-0.249991965827499,0.249924399912202,-0.249960111774039,-0.116666117027454,-0.116666666666667,0.871247405713516,0.860947579265487,0.04,0.0252526571668711,415.791423385884,0.771497700418005,0.396000347634281
6824,-0.25,0.249999990449071,0.249999924598136,-0.249989111102554,0.249928523754845,-0.24999838966748,-0.249999250491982,-0.25,0.861376592812107,0.860947579265487,0.04,0.0246200553734637,410.887029426801,0.73436406886056,0.41111723975313
6884,-0.25,0.249999997453086,0.249996316810117,0.116669542755734,-0.116674517566049,0.116665854877047,-0.122594367895794,0.0347049929829712,0.841909986478066,0.860947579265487,0.04,0.039155090063288,401.606255696786,0.806223963604535,0.366015470863015
6944,-0.25,0.25,0.249995004887201,0.249999962340566,-0.24998471441001,0.249998307438694,-0.0762653196789979,0.138234081340415,0.85338283444433,0.860947579265487,0.04,0.0405487419877772,407.224004205312,0.886080951290921,0.337687236455724
7004,0.116666203549679,-0.0945301770431975,0.249998407065159,0.249999989957484,-0.249994437337751,0.249999548650318,0.162995914752267,0.220195755023632,0.850382211512889,0.860947579265487,0.04,0.0498048101355972,405.69354133344,0.934091954886482,0.319126697871725
7064,0.249999368476835,-0.219813877786178,0.249999644220781,0.25,-0.249997972947838,0.25,0.25,0.249999999999348,0.858291220600042,0.860947579265487,0.04,0.0538213804465673,409.546294151155,0.972987857291351,0.309278874607856
7124,0.249999540517261,0.124716299257019,0.249999719006327,0.127882997207867,-0.249999452774631,0.249953888407284,-0.116657980277917,0.249999999974337,0.867950544620661,0.860947579265487,0.04,0.0584962258658929,414.153604939137,0.950881135882797,0.32002940976228
7184,0.249999603077416,0.25,0.249999746201071,0.083476814374364,-0.249999990893465,0.249937120555387,-0.225558064711912,0.249999999965242,0.873821536237949,0.878754853212874,0.04,0.0565785947567317,417.023548086943,0.947524360422006,0.323388722682339
7244,0.249997548940596,0.25,0.249999705817031,-0.161068382079991,-0.249999996924609,0.249983220485847,-0.187438695751436,0.249989954612392,0.882848321038648,0.875661996645498,0.04,0.0503965051504845,421.17944822281,0.938187391762714,0.329861975347564
7304,0.249996801981753,0.25,0.249999691131926,-0.249993908063393,-0.249999999117753,0.249999984096923,-0.154071852616513,0.24998630175681,0.870853539751058,0.862614411765662,0.04,0.0542583518673407,415.364746492622,0.88366214485976,0.345380695105715
7364,0.249998535144885,0.24996841249198,0.249907534285304,-0.137450946000907,0.116666412368436,0.249056081992648,0.144614509091411,-0.115701079897403,0.852825433260324,0.849566826885825,0.04,0.0656922593661313,406.735686361996,0.850501598798779,0.351391959926255
7424,0.249999165386024,0.249956926125427,0.249874022704714,-0.096526232523639,0.249999652908867,0.248712844863821,0.249885339090654,-0.0621320240469654,0.836673520329461,0.836519242005988,0.04,0.0683419401664302,399.103880549043,0.861303533910622,0.340474348617264
7484,0.249882653115694,0.249988513633447,0.249963898059909,-0.0293567660655714,0.249960262663921,0.24964407001042,0.249969423757508,-0.0293486869487683,0.824519146271815,0.823471657126151,0.04,0.0693490168405549,393.270567016214,0.853849806552813,0.338426713331406
7544,0.249840285017392,0.25,0.249996580007253,-0.00493150553536509,0.249945938938486,0.249982697336456,0.25,-0.0138630084887732,0.811766791332383,0.810424072246315,0.04,0.0699727828077488,387.193629805552,0.846436505779642,0.336115464177794
7604,0.249957409337971,0.25,-0.116667578664733,0.182018265190569,0.24993706448773,0.249995385956388,0.25,0.116666666666667,0.796365321552811,0.797376487366478,0.04,0.0695693595211821,379.753056910475,0.839292755212633,0.332462357762131
7664,0.25,0.25,-0.25,0.25,0.249933837414728,0.25,0.25,0.25,0.786111735339817,0.784328902486641,0.04,0.0693150514006874,374.978859144384,0.841865945346376,0.327279284959571
7724,0.249714902894413,0.24998787997348,-0.249376026612306,0.25,0.0573859952110763,0.25,0.25,-0.00146128223687227,0.782811649329422,0.771281317606804,0.04,0.0654122508962957,373.319564174681,0.78759023854152,0.348285265464424
7784,0.249611231219654,0.249983472691109,-0.249149127198599,0.25,-0.0126314019538879,0.25,0.25,-0.000689993760016998,0.763212294362186,0.758233732726967,0.04,0.0671825131389683,363.994769208027,0.744866388861323,0.359063649905795
7844,0.249896328325241,0.249995592717629,-0.249772935378961,0.25,0.179960575186177,0.249999940446174,0.249668902428394,-0.000325664609607461,0.745529647605555,0.745186147847131,0.04,0.0710599309799606,355.561783923411,0.732135460443106,0.356843927497685
7904,0.25,0.25,-0.249999774717274,0.25,0.249994021418928,0.249999918790237,0.249548503311446,-0.000153568521282636,0.733004710209185,0.732138562967294,0.04,0.0705768057941793,349.622527059262,0.730297897699123,0.351766140158232
7964,0.249864908914149,0.25,-0.162974760565001,0.249999026699754,0.249888540059034,-0.116666677181886,0.249879574689677,0.183299525516186,0.721101466931565,0.719090978087457,0.04,0.0683577976899288,343.941886004878,0.720081017475753,0.350960614910601
8024,0.249815784882931,0.25,-0.131329300873266,0.249998672772392,0.249850183200891,-0.249999984808112,0.249999964281762,0.249999585877294,0.708769772542068,0.70604339320762,0.04,0.0690860172625997,338.050780648855,0.70387356616322,0.352892122453719
8084,0.249950874662142,-0.1166466725283,-0.218293329159872,0.24999963309083,-0.116692431091777,0.116649702354107,-3.22568865075954e-05,0.249999889567278,0.703713404254333,0.692995808327783,0.04,0.047506593471765,335.603560154137,0.656504557399627,0.375615486932759
8144,0.249999998218218,-0.249972735265863,-0.249916612173183,0.249999982297535,-0.249980654470929,0.249976861322187,-0.00188365535221577,0.25,0.701583434001523,0.705842292818399,0.04,0.0318042849500789,334.828939566613,0.644848290183818,0.381522461181363
8204,0.249978928743399,-0.101405381567178,-0.249977763246182,0.249999995279343,-0.249981923668534,0.249993551386872,-0.0173058662156451,0.249987327626261,0.71797755193279,0.728104802534635,0.04,0.0242595510293949,342.701979262727,0.696588007974223,0.361489173916569
8264,0.249971267116191,-0.0473808893131101,-0.25,0.25,-0.249982385194936,0.249999620501303,-0.0472983647085744,0.249982719490355,0.741200233520148,0.75036731225087,0.04,0.0201583909338186,353.81741315357,0.757912524033657,0.343016329706701
8324,0.249844072966383,-0.195968210280284,-0.25,-0.116659242874409,0.116669481039352,-0.116666767866319,-0.0926313389821009,0.249995309740644,0.778149806036317,0.772629821967105,0.04,0.00631211849075552,371.550559807313,0.769405428280067,0.354827564475985
8384,0.249797820548271,-0.249999963359256,-0.25,-0.249989876646921,0.249997432397274,-0.25,-0.160619158898536,0.249999888013476,0.792322021548294,0.79489233168334,0.04,0.00516042135860124,378.168968070955,0.757806431968182,0.366675824900197
8444,-0.116720581187128,0.116666676437532,-0.25,-0.249996214981894,-0.116667351360727,0.116652425354101,0.116587205095843,0.249927695372814,0.802740474469064,0.817154841399576,0.04,0.0148082984853641,383.120040335293,0.817669296415683,0.344280048752207
8504,-0.25,0.25,-0.25,-0.249998519830975,-0.25,0.249980580028319,0.249889273690709,0.249901443503483,0.828906330476532,0.839417351115811,0.04,0.0179810702808577,395.661065439995,0.890782578672514,0.326367028703925
8564,0.116664981624442,-0.116666666666667,0.116666666666667,-0.24999960528826,-0.249997493522353,0.249994821340885,-0.0711318171953643,0.2499389680187,0.847557488277564,0.861679860832046,0.04,0.0206224571258174,404.522912986978,0.963461187818762,0.308505973860103
8624,0.249997702215148,-0.25,0.25,-0.25,-0.249996582075936,0.25,-0.187866759335755,0.249952613296961,0.864625783258045,0.867616530089709,0.04,0.0285752270566993,412.585699376162,1.01110086813926,0.299829502282867
8684,-0.116667135322049,-0.25,0.25,0.116666666666667,0.116023777888345,0.249991642040282,-0.233431135822868,0.249986878032972,0.866472263501029,0.867616530089709,0.04,0.0454442866432606,413.403320726936,1.01909260598909,0.2980677481286
8744,-0.249999803517394,-0.25,0.25,0.25,0.249122090602629,0.249988602782203,-0.25,0.249999337936975,0.870191051738676,0.867616530089709,0.04,0.0526590372073666,415.179118108964,1.01005424400988,0.302026799499243
8804,0.116666719062029,-0.25,0.249999858036505,0.0704338092469811,0.249763270622784,0.249973296095498,-0.249539153223803,0.249998522211022,0.867177496631622,0.867616530089709,0.04,0.0599913012669399,413.710493349942,1.00136912671756,0.303568717082995
8864,0.25,-0.25,0.249999806413416,0.00513701260951984,0.249996426993749,0.249967730027605,-0.249371572577913,0.249998225583403,0.869845418326424,0.867616530089709,0.04,0.062693129046515,415.024369049399,0.996651300854403,0.305974360899796
8924,0.249917268970636,-0.123941634087952,0.249991143401882,0.184703203362538,0.249970014572889,0.249914830897448,-0.249774735072496,0.249999526822241,0.867751984752372,0.867616530089709,0.04,0.0695232871212747,413.979867496394,0.987821858395641,0.307932313975714
8984,0.249887184959958,-0.0781022283017529,0.24998799321587,0.25,0.249960410056213,0.249895594850118,-0.24992133961598,0.25,0.868448204567719,0.867616530089709,0.04,0.0689078691249684,414.349849776141,0.987506346438423,0.308305992837451
9044,0.249969915989322,0.162495620922114,0.249975452390312,0.25,0.249989442681657,0.249972158626698,0.116687642769072,0.249366843429967,0.859285997663683,0.867616530089709,0.04,0.0770660493319281,409.906478989413,1.01201110183103,0.297614565655985
9104,0.25,0.249985747912611,0.249970892090109,0.25,0.25,0.25,0.25,0.249136604677228,0.865586458132959,0.867616530089709,0.04,0.0748712965290897,413.027786524965,1.04623028332189,0.290072567868281
9164,0.249978259431089,-0.116617950937864,0.249992237890696,0.24999922999704,-0.115968375979171,-0.116659459078353,0.249924090802607,0.249769577386122,0.883829255383804,0.867616530089709,0.04,0.0523409519950265,421.802493448256,0.994226884169232,0.311729796895271
9224,0.249970353769667,-0.249928386883491,0.25,0.249998949995964,-0.249047785426142,-0.249990171470481,0.249896487458101,0.249999749280266,0.877596109934281,0.867616530089709,0.04,0.0481887654570633,418.619604757915,0.904301212221062,0.340142677941768
9284,0.249992094338578,0.116685118421714,0.194828857261107,0.249999719998924,-0.249718029054761,0.116167070384786,0.249972396655494,0.249967479587845,0.843858287207897,0.833694987493406,0.04,0.0720555838177074,402.214810924109,0.842377382753263,0.350837523883693
9344,0.25,0.24999912035088,0.174766623537873,0.25,-0.249961754010623,0.249315158332156,0.25,0.249955745154238,0.813423146491343,0.81050699781391,0.04,0.0784759356055413,387.941480989661,0.811358330393847,0.351324305302071
9404,0.249999996161931,0.249977781384838,-0.136640371583315,0.249999041555028,0.116661885846567,-0.116849291111425,0.25,0.249988198707797,0.801519393049763,0.795707611521855,0.04,0.0692875051258219,382.326251899068,0.786772605883123,0.357058655607639
9464,0.24999999476627,0.249970021760823,-0.249879278900111,0.249998693029583,0.249979573067364,-0.25,0.25,0.25,0.785275966003039,0.7809082252298,0.04,0.0667828994804587,374.516361877071,0.751488699225104,0.366187080711136
9524,-0.116666668062328,0.249992005802886,-0.249967807706696,0.249999651474556,0.249994552817964,-0.2499888854451,0.249985890365685,0.249994109942042,0.771919383205474,0.766108838937745,0.04,0.0538994351246309,368.178840783098,0.722924199354479,0.374214610422206
9584,-0.25,0.25,-0.25,0.25,0.25,-0.249984843788772,0.24998075958957,0.249991968102785,0.755497910568774,0.751309452645689,0.04,0.0466501528078196,360.303950607689,0.688635684167408,0.384444964475176
9644,-0.249837794556905,0.249997515035774,-0.249465945216114,0.25,-0.116666666666667,-0.246865409212959,0.249731614592001,0.24998086916044,0.744560508117544,0.736510066353634,0.04,0.0335030906453229,355.152042808207,0.653442061013887,0.399357557456113
9704,-0.249778810759416,0.24999661141242,-0.249271743476519,0.25,-0.25,-0.245731069367208,0.249641016411067,0.249976833181406,0.72615459869155,0.721710680061579,0.04,0.0297785555465619,346.307312089588,0.611826140869933,0.415899414641402
9764,0.116723716895683,0.249942429199333,0.116821819134019,-0.116606059590399,0.0135060342614269,0.117805048168745,0.249903695696185,-0.0272462555988362,0.708158925640174,0.717764177050364,0.04,0.0549212004098503,337.783568954301,0.625024080217904,0.397096854260713
9824,0.249997363315719,0.249922726576393,0.249946750992396,-0.249917353986908,0.109326410356491,0.25,0.249999215436228,-0.0160143672065121,0.709775326242495,0.717764177050364,0.04,0.0558935899658177,338.692267915512,0.694198641984658,0.358489300883874
9884,0.249997684752247,0.2499793658935,0.249971430136078,-0.222418694587242,0.212452502259266,0.249999419212919,0.249999790782994,-0.00756435172320339,0.712075624366176,0.717764177050364,0.04,0.0579357911867806,339.735450303542,0.729120236990633,0.342370541993353
9944,0.249997801638257,0.249999962008811,0.249980404370144,-0.212419182078272,0.249952899314821,0.249999208017617,0.25,-0.00357286597651873,0.714412276109851,0.717764177050364,0.04,0.0592917640866894,340.86409721891,0.755415981419727,0.331550561540197
10004,0.249929521865735,0.249999989869016,0.249989958915788,0.126678627782207,-0.116679226849381,0.249999788804698,0.249981071961043,-0.00168743055956294,0.71730168513769,0.717764177050364,0.04,0.0602754456326615,342.235821925648,0.763972310126047,0.329156566582271
10064,0.249904692857544,0.25,0.249993433296022,0.249986922276927,-0.25,0.25,0.249974189037786,-0.000796818156780645,0.716593477772403,0.717764177050364,0.04,0.0614363618148455,341.882168601982,0.768374200337121,0.326932693278229
10124,0.249974584762012,0.249994714452257,0.249998015291521,0.249994610276933,-0.0397319574216788,0.249999914401547,0.249825358921737,0.116665393891057,0.709662762017259,0.717764177050364,0.04,0.0699931707749456,338.426355646479,0.791211241487975,0.31428699059854
10184,0.25,0.249992792434896,0.249999681471703,0.249997405913299,0.0367291489704381,0.249999883274837,0.249771238879538,0.249991523688883,0.712902257073504,0.717764177050364,0.04,0.0701810217122224,340.183600943623,0.84301180394514,0.296506620268834
10244,0.25,0.249985731361016,0.249994710768151,0.249999173514674,0.193126265917237,0.249993464024194,0.249937411128943,0.249884427916103,0.714709343761577,0.717764177050364,0.04,0.0756537663509333,340.983342592903,0.860598488620533,0.291130201517006
10304,0.25,0.249983163697787,0.249992903239586,0.249999816278811,0.249997944806982,0.249991129751233,0.249997837401454,0.249845483998728,0.716178893191988,0.717764177050364,0.04,0.0778287572994836,341.701755117024,0.874777447001366,0.287014810693753
10364,0.249723496748703,0.249995459197472,-0.00552699884877416,-0.116583217101993,-0.116667214718138,0.249997624936556,-2.81657559565703e-05,-2.81657559565703e-05,0.740777987513046,0.717764177050364,0.04,0.0481354341307291,353.41356196288,0.791624570152257,0.328033820647955
10424,0.249622950111867,0.249999930288266,-0.0984433268809052,-0.249886138331377,-0.25,0.249999986822128,-9.84518829333454e-05,-9.84518829333454e-05,0.727617550935765,0.717764177050364,0.04,0.0446786538583889,347.051461707708,0.69559450587353,0.366599958188758
10484,0.249356879881672,0.249985540912657,-0.209584887168241,-0.249968499408276,-0.232360604596937,0.249999982305509,-0.000509843655610717,-0.000509843655610717,0.722475017125063,0.717764177050364,0.04,0.0361589351175137,344.683795038692,0.662555393747979,0.382255152794124
10544,0.249260127070691,0.249980308412435,-0.25,-0.249998448890785,-0.225946278995823,0.249999980663103,-0.00878548261842125,-0.00878548261842125,0.720525516617512,0.717764177050364,0.04,0.0289842427668193,343.7481324978,0.640959969435864,0.394061600395971
10604,-0.113992164021311,-0.116655236068424,-0.2494636597427,-0.249999586370876,0.122551849550182,0.249999994843494,0.116625743691036,0.116656857166252,0.712837184152783,0.717764177050364,0.04,0.0208570696540857,340.024866279552,0.635953392624758,0.392862038928164
10664,-0.246083906236585,-0.249977252243282,-0.249268626921863,-0.25,0.249278441748729,0.25,0.249939222139843,0.249959492060261,0.717432804899562,0.717764177050364,0.04,0.0200327503504482,342.162227714974,0.635972390767122,0.39531971983509
10724,0.117710581013351,-0.249988683615066,-0.249130881879815,-0.249999930806708,0.248486683575065,0.248383864204479,0.102102658626671,-0.11667746878393,0.715521669647741,0.717764177050364,0.04,0.0137157218063482,341.327693387416,0.635473196563112,0.394665319176931
10784,0.249999485467872,-0.249992840477533,-0.249080792773615,-0.249999905645511,0.248198771511914,0.247796178460654,0.0483439082582452,-0.174091007294589,0.714278355891272,0.717764177050364,0.04,0.0166208754551233,340.80773650845,0.66668378953508,0.375616123110904
10844,0.249986196774761,-0.249998090794009,-0.249754862495899,-0.249968900962173,0.249519036128679,0.249412314256174,0.19607234527421,-0.0544264601680914,0.707205206476472,0.717764177050364,0.04,0.0275411885724028,337.365750950415,0.707071395571714,0.350584248217246
10904,0.249981364522721,-0.25,-0.249999978758548,-0.249957626531868,0.249999132352957,0.25,0.249791776916379,0.0166911906798753,0.713064429096444,0.717764177050364,0.04,0.0325985154968074,340.237186922199,0.751594647765323,0.332623383153216
10964,-0.116671636127274,0.11665683805685,-0.249999976854137,0.116677966258169,0.249999768627455,0.25,0.0994294167514761,0.187607454493619,0.708408123034127,0.717764177050364,0.04,0.047057225627782,337.970675748478,0.794905241375126,0.312405258711493
11024,-0.25,0.24998659735025,-0.249999976161624,0.25,0.25,0.25,0.0447521948733297,0.249758823153162,0.716198951109268,0.717764177050364,0.04,0.0524768500848335,341.737556560846,0.822789007508982,0.305181993297194
11084,-0.25,0.249846928085623,0.116661432288812,0.249824480216846,0.249999906751926,0.25,-0.171399414700445,0.249114623406619,0.706320294067218,0.695187800525557,0.04,0.072836012763951,336.802554020892,0.780771486468148,0.316961203920916
11144,-0.25,0.249796139262122,0.249992853543516,0.249760654841154,0.249999872843535,0.25,-0.213846137514558,0.248880368953331,0.676090652999788,0.664401832537184,0.04,0.0902132026466999,322.299424360789,0.70469894505918,0.336055172811598
11204,0.116666666666667,0.249945637136566,0.249991280755281,0.249936174624308,-0.00243503055994665,0.249473200771549,-0.118533691746981,0.126097072806745,0.660622550892121,0.656192241073618,0.04,0.0853688914415118,315.154256659864,0.663043629978618,0.349249462643782
11264,0.25,0.25,0.249990708832287,0.25,-0.0942295408884855,0.249281637415748,-0.0559922306220332,0.0814486014807142,0.653678979832187,0.656192241073618,0.04,0.0770577160534988,311.839353203766,0.663249814690392,0.345468504487627
11324,0.249838361152636,0.25,-0.11665828634544,0.249998697316917,0.158205455763071,0.249675396391467,0.11666723028703,0.205021957987064,0.645072740238173,0.656192241073618,0.04,0.0727447657997258,307.688182355666,0.705281649823967,0.32055526035353
11384,0.249779583389958,0.25,-0.249985193682795,0.249998223613977,0.25,0.249818581473546,0.25,0.249957723989373,0.652773859348873,0.656192241073618,0.04,0.0670262314540438,311.496319528612,0.75134571567866,0.304626570779691
11444,0.249940688038525,-0.116666666666667,-0.249295216872712,-0.116666159101486,0.249992779459455,-0.116715044940388,-0.00756643638074132,0.0922154539498801,0.680090644025565,0.656192241073618,0.04,0.0265953242864407,324.490566478064,0.676165836767484,0.352617228461536
11504,0.249999271547095,-0.25,-0.2490443162145,-0.249998661907109,0.249990153808348,-0.25,-0.0311319315480798,0.0348546284809735,0.664981948347613,0.656192241073618,0.04,0.016179679065582,317.154059676913,0.573113899553047,0.406615574939662
