time,bias_percent_1,bias_percent_2,bias_percent_3,bias_percent_4,bias_percent_5,bias_percent_6,bias_percent_8,bias_percent_9,normalized_power,power_SP,SP,CV,total_power_MW,fuel_fraction,thermal_efficiency
7,0,0,0,0,0,0,0,0,0.997044013995372,1,0.04,0.0403050960317049,475.819235665395,1.00062055435299,0.349403500428718
67,0.00232365150763349,0.00308844865776985,-0.0038932601127467,-0.00298679899707702,0.00169246535750119,-0.0010526570111856,-0.00242613527945525,-0.000634236789561271,0.999685844865207,0.99765811532174,0.04,0.0401638657242631,476.889170952654,0.997207275054096,0.351387816063987
127,0.0222406644302076,0.0295608657243691,-0.0372640610791475,-0.0285879332577372,0.0161993112789404,-0.010075431392776,-0.023221580531929,-0.00607055212865805,0.984608387724265,0.977584818079515,0.04,0.0453006612422856,469.606239524553,0.959190773530189,0.359735702604975
187,0.0421576773527815,0.0560332827909683,-0.0706348620455482,-0.0541890675183973,0.0307061572003795,-0.0190982057743664,-0.0440170257844027,-0.0115068674677548,0.964712985673721,0.95751152083729,0.04,0.0487219857797981,460.102149980662,0.9146228433068,0.369629729921693
247,0.0620746902753555,0.0825056998575675,-0.104005663011949,-0.0797902017790575,0.0452130031218185,-0.0281209801559569,-0.0648124710368764,-0.0169431828068516,0.944187313251922,0.937438223595065,0.04,0.0497186553717083,450.308852136875,0.872203583010364,0.379356294244516
307,0.0819917031979295,0.108978116924167,-0.137376463978349,-0.105391336039718,0.0597198490432577,-0.0371437545375472,-0.0856079162893501,-0.0223794981459483,0.923868450848038,0.91736492635284,0.04,0.0492984981606553,440.605183347996,0.831964486051665,0.389134279487067
367,0.101908716120503,0.135450533990766,-0.17074726494475,-0.130992470300378,0.0742266949646968,-0.0461665289191378,-0.106403361541824,-0.0278158134850451,0.903474887769158,0.897291629110615,0.04,0.048150528927971,430.87478589364,0.793579090801453,0.39894730934857
427,0.121825729043077,0.161922951057365,-0.204118065911151,-0.156593604561038,0.088733540886136,-0.0551893033007282,-0.127198806794297,-0.0332521288241417,0.882967736218443,0.877218331868389,0.04,0.046473110164541,421.104568591269,0.75745879945603,0.408493936297724
487,0.141742741965651,0.188395368123964,-0.237488866877552,-0.182194738821698,0.103240386807575,-0.0642120776823185,-0.147994252046771,-0.0386884441632384,0.86267552900359,0.857145034626164,0.04,0.0445137905516391,411.422849677173,0.723622205853722,0.417764178765071
547,0.161659754888225,0.214867785190563,-0.270859667843952,-0.207795873082358,0.117747232729014,-0.073234852063909,-0.168789697299245,-0.0441247595023352,0.841969246025558,0.837071737383939,0.04,0.0424910803450847,401.638433314954,0.692598866740608,0.426096693421636
