time,bias_percent_1,bias_percent_2,bias_percent_3,bias_percent_4,bias_percent_5,bias_percent_6,bias_percent_8,bias_percent_9,normalized_power,power_SP,SP,CV,total_power_MW,fuel_fraction,thermal_efficiency
54,0,0,0,0,0,0,0,0,0.999835573816107,1,0.04,0.0399088110128455,477.024278587329,1.00002385538549,0.350497399075759
114,0,0,0,0,0,0,0,0,0.999981171531527,1,0.04,0.0399112979124741,477.091339914714,1.00029007265608,0.35045337840544
174,0,0,0,0,0,0,0,0,0.999998560270493,1,0.04,0.0399513855147201,477.099357630903,1.00031781965825,0.35044954681409
234,0,0,0,0,0,0,0,0,1.00000166780231,1,0.04,0.0399785863345615,477.100810033932,1.00031239955331,0.350452512551099
294,0,0,0,0,0,0,0,0,1.00000303960351,1,0.04,0.0399946538685569,477.101458295418,1.00029659318201,0.350458526476615
354,0,0,0,0,0,0,0,0,1.00000377397193,1,0.04,0.0400036516957272,477.101804166309,1.00027517169378,0.350466285822127
414,0,0,0,0,0,0,0,0,1.00000399121728,1,0.04,0.040008197308809,477.101904168701,1.00025143987375,0.350474674395036
474,0,0,0,0,0,0,0,0,1.00000382056569,1,0.04,0.0400099322658138,477.101820267404,1.00022800963641,0.350482822593352
534,0,0,0,0,0,0,0,0,1.00000340641658,1,0.04,0.0400099451016368,477.101621247282,1.00020663426728,0.350490166540433
594,0,0,0,0,0,0,0,0,1.00000287182853,1,0.04,0.040008979828491,477.101365684223,1.0001882736515,0.350496412798233
654,0,0,0,0,0,0,0,0,1.00000230706748,1,0.04,0.0400075425868051,477.101096259578,1.00017327648147,0.35050147040953
714,0,0,0,0,0,0,0,0,1.00000177136563,1,0.04,0.0400059661381414,477.100841095458,1.00016157539424,0.350505383537199
774,0.225,-0.225,-0.222220841676525,0.224997485479696,0.102683050384376,0.225,-0.00913879495663963,0.224999841375665,0.990347242051489,1,0.04,0.0470539850515964,472.461474135688,1.04057156819368,0.333617728893657
834,0.25,-0.25,-0.24691204630725,0.249997206088551,0.114092278204862,0.25,-0.0101542166184885,0.249999823750738,0.997794476657654,1,0.04,0.0468041365779173,476.079105936534,1.06886065911151,0.327274904939569
894,0.25,-0.249729867425462,-0.249690870975155,0.249999676428927,-0.213590772179514,0.25,0.0710054646731324,-0.199753906634367,1.01408583687679,1,0.04,0.0386067484757593,483.884403265936,1.01355319631582,0.350792058342444
954,0.25,-0.249699852694958,-0.249999629271589,0.249999950911191,-0.25,0.25,0.080023207038868,-0.249726543343823,1.0029681245121,1,0.04,0.0392240194406346,478.472796866614,0.973326062256892,0.36120485182208
1014,0.249995379324076,-0.249969849201256,0.199996641482969,0.249965431249524,0.199999995665877,0.24980757717309,0.233002320703887,0.200027345665618,0.973872819689871,1,0.04,0.0610513897786137,464.549870950798,1.08106104024268,0.315745233909125
1074,0.24999486591564,-0.249999848813067,0.249996227122365,0.249961595731561,0.249999995184308,0.249786196858989,0.25,0.25,0.993739248249774,1,0.04,0.0583753759579734,474.200784855221,1.15940867716663,0.300524856441982
1134,0.249996001305834,-0.249999984881307,0.249915712738504,-0.0649730906795378,0.249988559247382,0.246385171525408,-0.199612770467925,0.249953749347663,1.01282052351456,1,0.04,0.0508457531531478,483.298582486219,1.11620659122757,0.318145375596724
1194,0.2499961274603,-0.25,0.249906766695852,-0.0999658336141044,0.249987288587723,0.246007279821677,-0.249569744964361,0.249948610386293,1.00475567255166,1,0.04,0.0536733741991959,479.330693821704,1.069210398617,0.329402387243215
1254,0.24999681671649,0.199999615913832,0.249990676669585,-0.23499658336141,0.24999530402427,-0.200399272017832,-0.249897951075513,0.249993353660153,1.00722387541088,1,0.04,0.0518920377003095,480.569185728409,1.03234850423617,0.342045801248562
1314,0.249996893300511,0.249999573237591,0.25,-0.25,0.24999619462833,-0.25,-0.226727009295439,0.249998325135027,1.00161963559196,1,0.04,0.0501547033974642,477.846781360711,1.01055952841499,0.347441298956972
1374,0.249808957351884,0.249999677256172,0.060456600272637,0.2,-0.199987834447989,0.2,-0.198826354792295,-0.102298297249957,1.00474296349014,1,0.04,0.0468859245600907,479.368420504669,0.987887910402822,0.356546704037525
1434,0.249788075579814,0.249999688813792,0.0393962225251521,0.25,-0.249986059900913,0.25,-0.176804624216865,-0.141442366403845,0.999766883369477,1,0.04,0.0440584845352767,476.971012671199,0.980221760505869,0.357538095924808
1494,-0.199973575598346,0.10050453935728,0.228939619110207,-0.199859117466077,-0.249991441652017,0.24995729607182,-0.169006087384884,-0.169006087384884,1.01093425335743,1,0.04,0.0202409016337417,482.336904767575,0.938887826019792,0.377477839360607
1554,-0.249947092395919,0.0838939671954449,0.249999996508547,-0.249843463851197,-0.249992039624361,0.249952551190912,-0.193117879260926,-0.193117879260926,1.00418844763438,1,0.04,0.0164478404634034,479.060789510889,0.894642453019577,0.393455662094345
1614,-0.249994709239592,0.233176690678299,0.249999999650855,-0.24998434638512,0.199232793608038,0.249995255119091,0.199980213692231,-0.229840818558355,0.981049991151094,1,0.04,0.0355151147146094,467.970071835398,0.963155805000217,0.357006570593586
1674,-0.25,0.249763659954171,0.25,-0.25,0.249146663967194,0.25,0.249977995842171,-0.25,0.994502278807137,1,0.04,0.0347324885391517,474.525843907001,1.02336000141966,0.340710963113488
1734,-0.249999999531459,-0.199990535831399,-0.2,-0.242874902526938,0.24982291580856,-0.199998091329071,0.249997799584217,0.199994077441537,1.01652118682737,1,0.04,0.0197361218590668,485.057616828283,0.9786490994771,0.364184119482648
1794,-0.249999999479399,-0.249963224252018,-0.25,-0.242083225029931,0.249898054902045,-0.249997879254523,0.25,0.249993419379486,1.00327832856845,1,0.04,0.0222750067189043,478.617316694942,0.928323262513735,0.378829552079939
1854,0.199913878248174,0.200003677574798,-0.25,-0.249208322502993,-0.199465385993235,-0.247768842168121,0.25,0.249917457813828,0.988891842633902,1,0.04,0.0310377870546317,471.779374535584,0.968902695055885,0.357777860476104
1914,0.249904309106793,0.25,-0.25,-0.25,-0.249394657203822,-0.247521171380743,0.25,0.249909017639867,0.997164783010193,1,0.04,0.0331500716754366,475.775852521892,1.00318448238771,0.348478723064126
1974,0.249987963887315,-0.2,-0.25,0.179580290731609,-0.249939456396629,0.200247882861926,-0.19999997646046,0.24999089392448,0.999829438024506,1,0.04,0.0332840961044081,477.068372476074,1.01312561837565,0.345996738290156
2034,0.249997258862928,-0.25,-0.25,0.227311434146232,-0.249999989640275,0.25,-0.249999973844955,0.249999991289438,0.999977782934518,1,0.04,0.0359255228865194,477.087210813992,1.01104773209837,0.346721514975442
2094,0.249998589951207,-0.249999069158838,0.199988878401348,0.247730123266023,0.199998973074112,0.249998417635488,0.0627642666615299,-0.19999988451966,0.98994265023052,1,0.04,0.05382180048965,472.260523094946,1.05111939791575,0.330129450674737
2154,0.249998737849905,-0.249998965732042,0.249987642668164,0.249998866501555,0.249998857820155,0.249998241817209,0.0975158489400283,-0.249999870720671,0.996083440647963,1,0.04,0.0535042142814611,475.266589458886,1.08945237699913,0.320541090884892
2214,0.249999873784991,-0.249997331649528,0.249998764266816,0.249999453474236,0.24999548368711,0.249999816395651,-0.215248413877133,-0.249999653339983,1.00548225875954,1,0.04,0.0500220514907401,479.753726467515,1.07303125124114,0.328519128769528
2274,0.25,-0.249997150084804,0.25,0.249999518693423,0.249995108783439,0.249999991348812,-0.249999998634595,-0.249999629186573,1.00103509810159,1,0.04,0.050412346015497,477.576098794194,1.05734845498281,0.331878504810541
2334,0.25,-0.249999639734297,0.249994997729836,-0.200000048130658,0.249999468172314,-0.199988656174015,-0.24999999986346,0.200000034072611,1.00213118568666,1,0.04,0.0383275487055432,478.138711680349,1.04979349538473,0.334660692813944
2394,0.25,-0.249999916362019,0.24999444192204,-0.25,0.249999952548855,-0.249987394787663,-0.25,0.249999996656965,1.0035805338133,1,0.04,0.0382508703953146,478.803134169557,1.02828242348867,0.342136374032937
2454,0.249999910483041,0.199995794153664,0.249999444192204,-0.249998665186677,0.249997131165826,0.0319347090207281,-0.249999125615305,0.249999999499232,0.993821117300971,1,0.04,0.0549814213372534,474.103246755728,1.04513257117425,0.333316047421938
2514,0.249999900536713,0.249995317544296,0.25,-0.249998516874086,0.249996817678822,0.0632593872216605,-0.249999028461449,0.24999999981504,0.998158986253583,1,0.04,0.0537571221085954,476.248236670179,1.06753699148117,0.327797112904617
2574,0.249996475451516,0.24999953175443,0.249911363083709,0.199820899023816,0.249999681767882,0.231325938722166,-0.249999419391922,-0.135323113213383,1.00097879346598,1,0.04,0.0590555680145992,477.554652385089,1.06300725761312,0.330096961703745
2634,0.249996094886494,0.25,0.249901514537455,0.249800834123583,0.25,0.25,-0.243056714687135,-0.178136792438764,0.997801933518152,1,0.04,0.0570387075494473,476.035726460813,1.0714262349261,0.326461481925392
2694,0.24999960948865,-0.0799867907815783,0.249990151453745,0.249861305878955,0.249812479169954,0.11184000091717,-0.205029970264861,-0.205029970264861,1.00361331689034,1,0.04,0.0447012996144894,478.849996596871,1.06107874851348,0.331593912055382
2754,0.25,-0.116651989757309,0.25,0.249868024962886,0.249791643522171,0.0964888899079668,-0.180513078148905,-0.180513078148905,1.00061605813336,1,0.04,0.0437604442706159,477.379213654838,1.05008834741182,0.334035282638989
2814,0.249928039972333,-0.236600023134179,-0.199979647440789,0.249986802496289,0.249964335099669,-0.215343767185821,0.200054980709002,0.200004495018649,0.993949713052707,1,0.04,0.0352083602742798,474.192915034639,1.06657430706333,0.326677045756854
2874,0.249920044413703,-0.249927582398275,-0.249977386045321,0.25,0.249983523052724,-0.249991840196242,0.25,0.249986306785952,1.00214500885815,1,0.04,0.0353864145246965,478.143793022292,1.06640660879981,0.329450651584087
2934,0.249991647103912,-0.249992758239827,-0.249997738604532,-0.19877471284784,0.249259948056405,-0.249999184019624,0.25,0.249998630678595,1.00972896132779,1,0.04,0.0301404880043054,481.786864337232,1.0233703842414,0.345920887665176
2994,0.24999960295838,-0.25,-0.25,-0.248638569830933,0.249179550834592,-0.25,0.25,0.25,0.993913683032748,0.985038459932339,0.04,0.0353488591350918,474.04902509406,0.963162532329951,0.361641576799821
3054,0.249999960295838,-0.25,-0.249652017690325,-0.248425049129597,-0.200078195526409,-0.249998705475816,0.249977691696578,0.25,0.984899885809666,0.968414526523827,0.04,0.029704220152789,469.804459877004,0.879995385048018,0.392275709822002
3114,0.25,-0.25,-0.24961335298925,-0.248401324607226,-0.249995722899854,-0.249998561639795,0.249975212996198,0.25,0.960170905981496,0.951790593115315,0.04,0.030451500108002,457.934493065817,0.81350499615642,0.413616455847092
3174,0.25,-0.249999924138113,0.11552591440531,0.200159867494929,0.20000042383977,0.19999535255995,-0.20000247870038,0.249999991715234,0.924311145146271,0.935166659706803,0.04,0.0581851147483359,440.821401304438,0.855747477061445,0.378505086116363
3234,0.25,-0.249999915709015,0.156096944115817,0.249999999950724,0.249999995699728,0.249994676359922,-0.225114390309141,0.249999990794704,0.916412149547464,0.918542726298291,0.04,0.0570894485086829,437.132458829206,0.88819784292765,0.361624643030505
3294,0.249949218331985,0.200000008428275,0.240494586435812,0.249999973326629,0.249999999451569,0.249999467635992,-0.187968389003842,0.249706903957368,0.898276635778882,0.901918792889779,0.04,0.0725945641601001,428.435730883835,0.904286390822023,0.348124320262715
3354,0.249943575924428,0.249999999999085,0.249872102249145,0.249999970368396,0.249999999868441,0.25,-0.125942305258582,0.249674338753219,0.885098385980366,0.885294859481267,0.04,0.073308598180834,422.170670361789,0.912526746633034,0.339935977981989
3414,0.249994095969805,0.249994725911043,0.249970431147167,0.24999999703684,0.24999999981952,0.249975033778261,-0.0619157862387011,0.0405139080593391,0.875192702742679,0.868670926072755,0.04,0.0706373938418445,417.443879812232,0.884007727515417,0.346973824481823
3474,0.24999970930818,0.249994139901261,0.249981356580281,0.25,0.249999999814084,0.249972259753623,-0.0292465439248432,0.0172738602044635,0.854221596897234,0.852046992664243,0.04,0.0714370802044007,407.397381537081,0.860897635774889,0.347713373456325
3534,0.249999785115528,0.249996608288111,0.249998135658028,0.249942956124592,0.249999999981409,0.249988504379903,0.20010904277483,-0.0138147597697481,0.830781375040228,0.835423059255731,0.04,0.0746025782571717,396.133923948142,0.862046146673008,0.337649567137593
3594,0.249999793538566,0.249996882553317,0.25,0.249936617916213,0.25,0.249990309338378,0.25,-0.00652533567200702,0.81867007885653,0.818799125847218,0.04,0.073229600442768,390.484937160632,0.875299368418068,0.327795016709585
3654,0.249871271503248,0.249997922192591,-0.199999210011058,0.249993661791621,0.25,0.249999001984174,0.24999149602018,-0.00308254847531461,0.809047614797155,0.802175192438706,0.04,0.0652905617615978,385.914112325537,0.848677902021206,0.334119976784519
3714,0.249856991277101,0.249998037708065,-0.249999122234509,0.25,0.25,0.249999967833707,0.249990551133534,-0.0014558220706316,0.791101112949423,0.785551259030194,0.04,0.0689668622522884,377.287904480072,0.808704155067963,0.34279768796156
3774,0.154164171584939,-0.19999417928391,0.199972254764907,0.249995511561538,0.25,0.249999996783371,0.249999055109526,0.2248649407326,0.767108054445311,0.768927325621682,0.04,0.0697410267554848,365.822287052995,0.804974823632626,0.333920082656469
3834,0.143531636063588,-0.24999331450524,0.249969074431509,0.249995012846153,0.25,0.25,0.249999999995747,0.25,0.755022847174351,0.75230339221317,0.04,0.0691150955481525,360.105085413029,0.796556882767137,0.332175147292597
3894,0.23934853217838,0.200000668549476,-0.200003092556849,0.249980909838996,0.25,-0.199999760536216,0.249999999999575,0.249999756580995,0.746623268334992,0.735679458804658,0.04,0.0677422442449685,356.115810723474,0.745220341531621,0.351124578745143
3954,0.249994853968912,0.25,-0.25,0.249979342838201,0.25,-0.249999733929129,0.25,0.249999729534439,0.72488089727369,0.719055525396146,0.04,0.0725759750966437,345.680858106591,0.697641438058131,0.364080768350942
4014,0.249999485396891,-0.2,-0.249999993233883,0.249996478620046,0.25,-0.249999973392913,0.249798102259603,0.249999971780378,0.709386443697122,0.702431591987634,0.04,0.0539463284430649,338.326249156951,0.659913486361928,0.376706718918571
4074,0.25,-0.25,-0.249999992482092,0.249998382595807,0.25,-0.25,0.249775669177337,0.249999998696593,0.690552310166376,0.685807658579122,0.04,0.0507018139227807,329.31372094751,0.623866357728182,0.387858162500248
4134,-0.199999227695633,0.145248503969892,-0.249999999248209,0.249999674127238,-0.140534871530074,-0.249999993333416,-0.00280501685211645,0.249999999869659,0.680653628148336,0.66918372517061,0.04,0.0299674759787961,324.721602688115,0.554650835387924,0.430176009605841
4194,-0.249999141884037,0.189165004410991,-0.25,0.24999981763073,-0.183927635033415,-0.249999992592684,-0.0210865743221254,0.25,0.656609776192502,0.652559791762098,0.04,0.0219237246123347,313.102443645568,0.512085507207292,0.449260926692222
4254,-0.249996346249249,0.243916500441099,-0.25,0.249999981387905,-0.243392226419345,-0.249999999259268,0.200001097265005,0.25,0.633893559503074,0.635935858353586,0.04,0.0285632698631392,302.287675426465,0.504652273018783,0.440131937361517
4314,-0.249996035623161,0.25,-0.25,0.249999999583147,-0.249999403240003,-0.25,0.25,0.25,0.619774791131253,0.619311924945074,0.04,0.0290791202188651,295.544563938006,0.506243113384748,0.428961705659561
4374,-0.249984734389246,0.249999639033941,0.199999548750345,0.249997215441279,0.200000059676,0.2,0.25,0.249999840126377,0.58612897315468,0.602687991536561,0.04,0.0755627329370504,279.51891911015,0.59014194452845,0.348024165807018
4434,-0.249983478696589,0.249999598926601,0.249999498611495,0.249996906092183,0.25,0.25,0.25,0.249999822362641,0.584837758067492,0.586064058128049,0.04,0.0781214434100491,278.962657853778,0.6289472620135,0.325901618753371
4494,-0.249998347869659,-0.20000004010734,-0.199999981012213,-0.199894198057051,0.249985992425392,-0.2,-0.0340628504880841,0.228843559620373,0.600303132665039,0.569440124719537,0.04,0.0102651105322343,286.450083318576,0.507978231515049,0.414341589167162
4554,-0.25,-0.25,-0.249999923192625,-0.249882098518077,0.249984436028213,-0.25,-0.0614825303550641,0.226492863760121,0.583549347625574,0.577925918420921,0.04,0.0043416318305167,278.14408142081,0.397326755041975,0.514371253097194
4614,-0.249995749815176,-0.249967233638342,0.200000007680738,0.200011790148192,0.249998443602821,-0.25,-0.121146559382965,0.247562612552045,0.569053534625125,0.589201681801183,0.04,0.0184654562882222,270.715612019766,0.490727309759618,0.405347734859108
4674,-0.249995277572417,-0.249963592931491,0.25,0.25,0.25,-0.25,-0.184572494562374,0.249903695751147,0.591295568164884,0.600477445181445,0.04,0.0141248152137844,282.114404355715,0.579603701085952,0.357642224460965
4734,-0.176944333859995,-0.249958693192289,0.249996173113833,0.249977724904232,0.249985877789265,-0.25,-0.248809659666487,0.249986786740422,0.602250146097958,0.611753208561706,0.04,0.0194635945069883,287.437191459795,0.633128322604328,0.333584524750172
4794,-0.168827562336392,-0.249958148776823,0.249995747904259,0.249975249893591,0.249984308654739,-0.25,-0.249989481641358,0.249996019072563,0.615745961639497,0.623028971941968,0.04,0.025955217025198,293.87993172358,0.684445996745992,0.315489869805126
4854,-0.241879663253517,0.200004185122318,0.249892536592409,0.249573020565089,0.249998430865474,0.199999414290771,-0.249998948164136,0.249999601907256,0.619348721756042,0.634304735322229,0.04,0.0561908442670718,295.55951427492,0.761553708285493,0.285166879465883
4914,-0.24999656335542,0.25,0.24988106866887,0.249528328417478,0.25,0.249999349211967,-0.25,0.25,0.640148151908259,0.645580498702491,0.04,0.0593295208999664,305.558233354535,0.816519089800043,0.274968107066589
4974,0.200000343664458,-0.2,-0.198589533179972,0.249952832841748,0.153013700213374,0.0478028350501679,0.105647093644982,0.249999588449797,0.657912370907329,0.656856262082752,0.04,0.0484332911704556,314.022688646749,0.821826243985461,0.28076030024304
5034,0.25,-0.25,-0.248419600052065,0.25,0.142237444681527,0.025336555698857,0.145163437383314,0.249999542721997,0.670195666040523,0.668132025463014,0.04,0.0514858784613773,319.836376642292,0.809000318580639,0.290491775104168
5094,-0.153026787155145,0.2,0.200158039994793,-0.194206757413427,-0.210776255531847,0.226348084910681,0.23950301673398,0.122117392345021,0.68308778450057,0.679407788843276,0.04,0.0555228694880492,325.998908350061,0.791031294254078,0.302814841534344
5154,-0.197807541283494,0.25,0.25,-0.243563063792696,-0.25,0.24868269926755,0.249985192217388,0.107908264525357,0.692253151388275,0.690683552223537,0.04,0.0538466700204492,330.348294467087,0.775782674893112,0.31288638725923
5214,-0.244277594207115,0.24999546516599,0.249999841685937,0.197086143018005,0.2,0.249772810830564,0.249998422941715,-0.183355342753578,0.698527920812165,0.701959315603799,0.04,0.0651202648518965,333.221506720688,0.786565984248665,0.311280947007892
5274,-0.249440933420851,0.249994961295544,0.249999824095486,0.246047165996972,0.25,0.249893934337565,0.249999893022195,-0.132599281242416,0.708408587530255,0.71323507898406,0.04,0.0598814436470591,338.086438037855,0.822299267074413,0.302101250512631
5334,0.200055865396181,0.249999496129554,0.249988544476431,0.245132570390268,-0.2,0.249947725564381,0.247612428158773,-0.0823751364086073,0.722762947853173,0.724510842364322,0.04,0.058204616773125,344.943003513131,0.836928013203087,0.302840470522877
5394,0.249999954153629,0.25,0.249987291185425,0.245030948656191,-0.25,0.249953702367361,0.24734715428506,-0.0400217120633879,0.73367536734827,0.735786605744583,0.04,0.0574497346356994,350.123945380383,0.849218796689058,0.302940188733244
5454,0.241504440543625,0.25,0.179994019573504,0.249503094865619,-0.25,0.249995370236736,0.249658638666313,0.216136307545204,0.739503187897221,0.747062369124845,0.04,0.0586728411839538,352.882815961969,0.882116797216045,0.293940274029021
5514,0.240560494586958,0.25,0.172216989394402,0.25,-0.25,0.25,0.24991547026423,0.248547924599847,0.755818511137765,0.758338132505107,0.04,0.0573509195573566,360.712082014409,0.908204922782606,0.291831060867733
5574,0.249056049458696,-0.199999996505024,-0.20777702618168,0.249978182912686,-0.25,0.200489884683531,-0.00772369063840469,-0.00772369063840469,0.7880396517489,0.769613895885368,0.04,0.0268261653998406,376.012960687673,0.818275453008047,0.337643169062374
5634,0.25,-0.249999996116693,-0.249998583467911,0.249975758791874,-0.25,0.194988760759479,-0.0256294609585558,-0.0256294609585558,0.785236953658792,0.78088965926563,0.04,0.0237607001220546,374.666674403288,0.764960726118698,0.359882395946571
5694,0.25,-0.249995187302266,-0.24999791187111,0.249987450121494,-0.25,0.244498836523146,-0.0569950069642929,0.200001719941241,0.782803828426846,0.792165422645891,0.04,0.0250055561690055,373.44824222977,0.782517073720547,0.35066407367606
5754,0.25,-0.249994652989552,-0.249997837249243,0.249988749158119,-0.25,0.249999956052442,-0.0951597251706711,0.25,0.799941206538676,0.803441186026153,0.04,0.0208691914317662,381.76524920671,0.818757513639973,0.342606636531311
5814,0.249903273503065,-0.249999465298955,-0.249999137001501,0.249984795793705,-0.249994182565862,0.249955301324101,-0.139030640162156,0.25,0.812377079272832,0.814716949406415,0.04,0.0220061633247692,387.676811110365,0.834457054330923,0.341366194163224
5874,0.249892526114516,-0.25,-0.249999281418419,0.249984356530993,-0.249993536184291,0.249950339687619,-0.183940901071501,0.25,0.823743757487487,0.825992712786676,0.04,0.0235699769021546,393.097992627455,0.848593106894496,0.34037370552284
5934,0.249985518425116,-0.249999808531517,-0.249999405457101,-0.200001564346901,0.200000646381571,-0.200004966031238,0.0187986870922153,0.231783963371286,0.839268184824012,0.837268476166938,0.04,0.0201439972687299,400.541584604412,0.847205261300068,0.347387065275215
5994,0.249995850904071,-0.249999787257241,-0.249999419239176,-0.25,0.25,-0.25,0.0486650841798791,0.229759959301429,0.846713408478516,0.848544239547199,0.04,0.0226437452623398,404.044470391199,0.850426825998364,0.349097623738339
6054,-0.199996404808265,-0.249999978725724,-0.249999941923918,-0.25,-0.199813507976297,0.199998978896831,0.229866469774262,0.247955392577635,0.865430620762851,0.859820002927461,0.04,0.0213774244574183,412.997074419443,0.834269299040478,0.363743624163785
6114,-0.249995544331858,-0.25,-0.25,-0.25,-0.24979278664033,0.249998865440924,0.249999957062527,0.249977107386103,0.861662571684089,0.860947579265487,0.04,0.0230264638341461,411.076005711805,0.811730764901612,0.372104393687383
6174,0.199998630256259,-0.249975291692316,-0.0137692487960427,-0.249985196130384,0.200020721335967,0.249999886544092,0.249638771621594,0.24999771073861,0.83351732657027,0.860947579265487,0.04,0.0430554981913669,397.635058546122,0.925900113128223,0.315555102632068
6234,0.249997982988271,-0.249972546324795,0.0124786124488414,-0.249983551255982,0.25,0.25,0.249598639905935,0.25,0.855224872633234,0.860947579265487,0.04,0.0458685341746057,408.117497026375,1.00390970640814,0.298706888131226
6294,0.249999784707575,-0.24999725463248,0.168165756618501,-0.249998143075557,-0.0308480897393349,0.249999584635948,0.249916551304996,0.24997233575353,0.863402970663085,0.860947579265487,0.04,0.0519050991047574,411.970818663804,1.00228350513515,0.302016414725494
6354,0.249999984898608,-0.25,0.185464328192907,-0.249999764388843,-0.0620534330437055,0.249999538484387,0.249951874793781,0.249969261948366,0.864809143582638,0.860947579265487,0.04,0.0579560199728689,412.604526756372,0.980365272401162,0.309243618154108
6414,0.174880893454943,0.199999999997613,0.243502908206162,-0.249999976438884,0.218258590044829,-0.199988060790884,0.249995187479378,0.249988611314756,0.863437941160392,0.860947579265487,0.04,0.0681178991960663,411.963476279268,0.963910050864425,0.314034152339812
6474,0.166534327738981,0.249999999997348,0.249951639318746,-0.25,0.249404370387999,-0.249986682932581,0.25,0.249990761244355,0.863950036489321,0.860947579265487,0.04,0.0680870428404739,412.192430785075,0.946374648243783,0.320030662784729
6534,0.241653221699431,-0.199999667977448,-0.199788157298506,-0.249993834324849,0.2499404370388,-0.249998314494049,-0.029046563928254,0.249999076124435,0.878550349349927,0.860947579265487,0.04,0.0386896987633842,419.261429053429,0.874964925000277,0.352086151074595
6594,0.249999765472814,-0.249999631085758,-0.249759245811534,-0.249993149249832,0.25,-0.249999606889767,-0.06005173769806,0.25,0.86779139743004,0.860947579265487,0.04,0.0353236862692307,413.967123794388,0.806378515870332,0.377208594853311
6654,-0.199842517423813,0.199906267511321,-0.24997592212349,-0.249999149613974,0.249921753410441,-0.249869323499347,0.218994826230194,0.25,0.858607150305412,0.860947579265487,0.04,0.0376949357454893,409.614842222246,0.807032018945751,0.372940540014311
6714,-0.249824993301216,0.249895811799886,-0.249999997269262,-0.249999816321101,0.249913059344934,-0.249854847567078,0.25,0.25,0.86154507525361,0.860947579265487,0.04,0.0341204456825444,411.037468742609,0.804207349744688,0.375550246072205
6774,-0.249982499330122,0.249989572584153,0.199999932411396,-0.249990181624408,0.249926977313854,-0.24998403545744,-0.199999325442784,-0.2,0.873574402010544,0.860947579265487,0.04,0.0243523195910442,416.884015969992,0.757793414826588,0.404221205741372
6834,-0.25,0.249999990449071,0.249999924598136,-0.249989111102554,0.249928523754845,-0.24999838966748,-0.249999250491982,-0.25,0.86000998985278,0.860947579265487,0.04,0.0234424239413298,410.256718031576,0.735953174404952,0.409600232823305
6894,-0.25,0.249999999044907,0.249995496858294,0.200001054996254,-0.199993390593524,0.199998637728076,-0.0936387127602963,0.0994106732063737,0.840742963526768,0.860947579265487,0.04,0.0419015401686087,401.076527380709,0.827001520285441,0.356349057449602
6954,-0.25,0.25,0.249995004887201,0.249999962340567,-0.24998471441001,0.249998307438694,-0.0762653196789979,0.138234081340415,0.854780170425045,0.860947579265487,0.04,0.0410449385332717,407.873159684847,0.891588903036146,0.33613609394331
7014,0.199999431629151,-0.172832490007561,0.249999180287423,0.249999996234057,-0.249996647094055,0.249999830743869,0.2173734680321,0.238823408133454,0.850021047043507,0.860947579265487,0.04,0.0513218347867049,405.534800117439,0.945204861077547,0.315251279572252
7074,0.249999368476835,-0.219813877786178,0.249999644220781,0.25,-0.249997972947838,0.25,0.25,0.249999999999348,0.859333425916817,0.860947579265487,0.04,0.0545701862605036,410.031233604148,0.974111508483515,0.309287908543336
7134,0.249999579617358,0.203018612221382,0.249999736003042,0.100129132936928,-0.249999789098902,0.249943408499848,-0.199989339431989,0.249999999968652,0.869075343345277,0.860947579265487,0.04,0.0590276438470752,414.68896982623,0.942244994254534,0.323380122515543
7194,0.249999603077416,0.25,0.249999746201071,0.083476814374364,-0.249999990893465,0.249937120555387,-0.218807304318711,0.249999999965242,0.876619453729124,0.88280196092819,0.04,0.0550915937969773,418.379954618486,0.954509089170518,0.322066442765053
7254,0.249997082091319,0.25,0.24999969663884,-0.216646835819617,-0.249999998295324,0.249993697742769,-0.181724993254295,0.249987671577653,0.88208701152473,0.873487399165526,0.04,0.0501505750770442,420.797465649418,0.928810254069262,0.332890031624907
7314,0.249996801981753,0.25,0.249999691131926,-0.249993908063393,-0.249999999117753,0.249999984096923,-0.148360622291271,0.24998630175681,0.868354563249772,0.860439814285689,0.04,0.05485771005346,414.173050988522,0.875785627130751,0.347487110685581
7374,0.249998929045597,0.249961233512885,0.249886589547435,-0.111873000077615,0.199999687706205,0.248841558787131,0.210408777840938,-0.107663069779531,0.846578437021822,0.847392229405852,0.04,0.0701282731934711,403.560957749791,0.852457914751253,0.34784909112543
7434,0.249999165386025,0.249956926125428,0.249874022704714,-0.096526232523639,0.249999652908868,0.248712844863821,0.249885339090654,-0.0548312166628053,0.835062373332463,0.834344644526015,0.04,0.0680528543823813,398.327132035934,0.860209381640309,0.340243933776367
7494,0.249856173054256,0.249995692612543,0.249984324276999,-0.0140909782341924,0.249951310335524,0.249855712089193,0.249988533909065,-0.0259000460946879,0.822260164542228,0.821297059646178,0.04,0.0697072046815507,392.192288619698,0.852815028369604,0.33790831723067
7554,0.249840285017392,0.25,0.249996580007253,-0.00493150553536509,0.249945938938486,0.249982697336456,0.25,-0.0122339936258106,0.809658261383348,0.808249474766342,0.04,0.0700371392262653,386.18703272402,0.844888180456646,0.335856013507075
7614,0.249984028501739,0.25,-0.200000341999275,0.224506849446463,0.249935047567103,0.249998269733646,0.25,0.2,0.79250477927531,0.795201889886505,0.04,0.0696436101080849,377.936986537252,0.842680273191839,0.329542357926204
7674,0.25,0.25,-0.25,0.25,0.249933837414728,0.25,0.25,0.25,0.78445818452894,0.782154305006668,0.04,0.069850453594784,374.181825574864,0.839204613718743,0.327619318790831
7734,0.249650108097688,0.249985125421998,-0.249234214478739,0.25,0.0136251219829736,0.25,0.25,-0.00128951727620568,0.779509315296034,0.769106720126831,0.04,0.065511853823568,371.747601198216,0.777579858124223,0.351283578846516
7794,0.249611231219654,0.249983472691109,-0.249149127198599,0.25,-0.0126314019538879,0.25,0.25,-0.000608858122616558,0.760473950463482,0.756059135246995,0.04,0.0671257190102095,362.695000423702,0.740608252674748,0.359838558421885
7854,0.249961123121965,0.249998347269111,-0.249914709965406,0.25,0.223731479081646,0.249999926911213,0.249593652980301,-0.000287339030101454,0.742843658102822,0.743011550367158,0.04,0.0717546973611252,354.28506830401,0.732433100592826,0.355418117472334
7914,0.25,0.25,-0.249999774717274,0.25,0.249994021418928,0.249999918790237,0.249548503311446,-0.000135464885302837,0.731012707978349,0.729963965487321,0.04,0.0704858910624511,348.670008889795,0.72905452716374,0.351406069182144
7974,0.249834206394637,0.25,-0.143196348257667,0.249998805495153,0.249864567022695,-0.199999994448278,0.24995481818473,0.224987063241878,0.719089826776747,0.716916380607484,0.04,0.0679407599301687,342.981385435863,0.717724195281269,0.351129759919825
8034,0.249815784882931,0.25,-0.131329300873266,0.249998672772392,0.249850183200891,-0.249999984808112,0.249999964281762,0.249999585877294,0.706596920824531,0.703868795727647,0.04,0.0694200893907808,337.013294295693,0.701034487435172,0.353233858776561
8094,0.249981576884689,-0.199975461739277,-0.238057881043191,0.249999851345021,-0.199997570703747,0.199979176709158,-4.44652557465635e-05,0.249999958587729,0.7016948830509,0.690821210847811,0.04,0.0436847227665209,334.699056614337,0.645560184089947,0.380953903303324
8154,0.249999998218218,-0.249972735265863,-0.249916612173183,0.249999982297535,-0.249980654470929,0.249976861322187,-0.00320154860734765,0.25,0.703968751224915,0.709552711104439,0.04,0.0291349706875863,335.988231697151,0.651251044640404,0.379079508991752
8214,0.249974140226394,-0.0676400739083854,-0.249991661217318,0.249999998229753,-0.249982212122535,0.249997344583392,-0.0214043972513281,0.24998444754132,0.721287031673238,0.731815220820674,0.04,0.0240186046168428,344.287309715657,0.707493143360856,0.357563727561037
8274,0.249971267116191,-0.0473808893131101,-0.25,0.25,-0.249982385194936,0.249999620501303,-0.0535580989242526,0.249982719490355,0.745176984942909,0.754077730536909,0.04,0.0197915374359189,355.712353182584,0.766874826208246,0.340823194134859
8334,0.249815165205063,-0.229738055954641,-0.25,-0.199990888982229,0.199999450638053,-0.20000003794987,-0.102566349891315,0.249998171161164,0.783928463099704,0.776340240253144,0.04,0.00440858859090204,374.268518725252,0.760999765639426,0.361371128210369
8394,0.249797820548271,-0.249999963359256,-0.25,-0.249989876646921,0.249997432397274,-0.25,-0.173349882711883,0.249999888013476,0.79488611363895,0.79860274996938,0.04,0.00515434616033782,379.384993625568,0.762190657762919,0.365738941459683
8454,-0.200020217945173,0.200000003664074,-0.25,-0.24999765551257,-0.200000256760273,0.199982522025487,0.199900997967634,0.249911287954482,0.805312367347853,0.820865259685615,0.04,0.0170021001613348,384.342424984565,0.833900240670187,0.338656100299635
8514,-0.25,0.25,-0.25,-0.249998519830975,-0.25,0.249980580028319,0.249889273690709,0.249901443503483,0.832605664850257,0.84312776940185,0.04,0.0183970973240651,397.421640652935,0.901486405785556,0.323926893526717
8574,0.199997931993633,-0.2,0.2,-0.249999851983098,-0.249996923868342,0.249998058002832,-0.144091156033108,0.249947496317613,0.851165886151686,0.865390279118085,0.04,0.0211608038050336,406.274275273569,0.97798060504077,0.305241626074371
8634,0.249997702215148,-0.25,0.25,-0.25,-0.249996582075936,0.25,-0.187866759335755,0.249952613296961,0.866036364964099,0.867616530089709,0.04,0.0304582483350502,413.248456857722,1.01202965787858,0.300035523325277
8694,-0.20000005294414,-0.25,0.25,0.2,0.199210223334773,0.249989742503983,-0.243786675933575,0.249994665472974,0.866618404344038,0.867616530089709,0.04,0.0480121559301915,413.467722795905,1.02001573106875,0.297844386131963
8754,-0.249999803517394,-0.25,0.25,0.25,0.249122090602629,0.249988602782203,-0.25,0.249999337936975,0.870399989387547,0.867616530089709,0.04,0.0533947197033958,415.276658733408,1.00717297434602,0.302961982572749
8814,0.200000019648261,-0.25,0.249999825772075,0.0296233113485678,0.249908993354637,0.249969817303065,-0.249434415320121,0.24999833681876,0.866957566267257,0.867616530089709,0.04,0.0613178500627298,413.627231853548,1.00216456161663,0.303266723106777
8874,0.25,-0.25,0.249999806413416,0.00513701260951984,0.249996426993749,0.249967730027605,-0.249371572577913,0.249998225583403,0.870232386949807,0.867616530089709,0.04,0.0627714647190013,415.203346468505,0.993851431187497,0.306968671041489
8934,0.249898466463962,-0.0952920054715776,0.249989174535625,0.225513701260952,0.249964011749966,0.249902808367867,-0.249866362912173,0.24999982255834,0.867258935158744,0.867616530089709,0.04,0.0707138148514239,413.746902208456,0.988405314694167,0.307577356113297
8994,0.249887184959958,-0.0781022283017529,0.24998799321587,0.25,0.249960410056213,0.249895594850118,-0.24992133961598,0.25,0.868702595962273,0.867616530089709,0.04,0.0684148099499894,414.468905905531,0.986301775173178,0.308771221715976
9054,0.249988718495996,0.217176950291174,0.249972602202686,0.25,0.249996041005621,0.249989559485012,0.200007866038402,0.249222944209505,0.858207842286635,0.867616530089709,0.04,0.0784298286982627,409.40784985422,1.02193254393087,0.294366654449986
9114,0.25,0.249985747912611,0.249970892090109,0.25,0.25,0.25,0.25,0.249136604677228,0.866656967249537,0.867616530089709,0.04,0.0744784809974451,413.526980784457,1.04668794573202,0.290296168808665
9174,0.2499733183927,-0.199936973403881,0.249997089209011,0.249999054996367,-0.199143006883528,-0.199991154323433,0.249906838712291,0.249913434819962,0.886298125772898,0.867616530089709,0.04,0.047561840947454,422.959446478432,0.974397706271696,0.318945994463053
9234,0.249970353769667,-0.249928386883491,0.25,0.249998949995964,-0.249047785426142,-0.249990171470481,0.249896487458101,0.249999749280266,0.876030262958036,0.867616530089709,0.04,0.0480392174551079,417.887127416656,0.896617590738257,0.34245728920156
9294,0.249997035376967,0.200006369627443,0.182289961184085,0.249999894999596,-0.249870357152175,0.199384625351892,0.24998964874581,0.249960145566841,0.835608571752634,0.825985545994246,0.04,0.0769306844841158,398.271059902141,0.832598496764988,0.351477722559725
9354,0.25,0.24999912035088,0.174766623537873,0.25,-0.249961754010623,0.249315158332156,0.25,0.249955745154238,0.810498776718349,0.808040433431901,0.04,0.0779046592432591,386.553022651396,0.808994483477716,0.351089781680678
9414,0.249999995289643,0.249972931619829,-0.207414688656312,0.249998823726625,0.199985440359565,-0.200068484166784,0.25,0.249995574515424,0.799850043771558,0.793241047139846,0.04,0.0673333037377642,381.527388593103,0.779677450545136,0.359555074386059
9474,0.24999999476627,0.249970021760823,-0.249879278900111,0.249998693029583,0.249979573067364,-0.25,0.25,0.25,0.782412297278967,0.77844166084779,0.04,0.0667006876666204,373.154707614646,0.747581476277446,0.366762622462224
9534,-0.200000000523373,0.249997002176082,-0.249987927890011,0.249999869302958,0.249997957306736,-0.249986359409895,0.249982683630613,0.249992771292507,0.769656114481076,0.763642274555735,0.04,0.0507739640988144,367.09016143063,0.716680096385029,0.376358802280191
9594,-0.25,0.25,-0.25,0.25,0.25,-0.249984843788772,0.24998075958957,0.249991968102785,0.752539123086287,0.74884288826368,0.04,0.0463936211251036,358.898676197908,0.685048653430757,0.384950701802247
9654,-0.249800929683474,0.249996950271178,-0.249344569128867,0.25,-0.2,-0.246156446809364,0.249674990728918,0.249978346673544,0.742893993340889,0.734043501971625,0.04,0.0308310714721579,354.354487000791,0.644102998558586,0.404238144409406
9714,-0.249778810759416,0.24999661141242,-0.249271743476519,0.25,-0.25,-0.245731069367208,0.249641016411067,0.249976833181406,0.723245906552188,0.71924411567957,0.04,0.0295102330687998,344.923869661055,0.607906460253799,0.416908900952229
9774,0.200019745908205,0.249930115059996,0.200024901545505,-0.199925618588217,0.0733937693208421,0.200426893063279,0.249963395533712,-0.0271038335239357,0.705142819695664,0.717764177050364,0.04,0.0602286909593794,336.304974590191,0.639221332786828,0.386577619488886
9834,0.249997363315719,0.249922726576393,0.249946750992396,-0.249917353986908,0.109326410356491,0.25,0.249999215436228,-0.0141325595292559,0.710886773299865,0.717764177050364,0.04,0.0551125529703031,339.210915606158,0.700555527426076,0.355780328191479
9894,0.249997757806004,0.249992238465569,0.249977039032369,-0.216168999269136,0.235890250418988,0.249999287215855,0.249999921543623,-0.00667545293520121,0.712165002013163,0.717764177050364,0.04,0.0587279378956177,339.778258658851,0.734679501999966,0.339822663581224
9954,0.249997801638257,0.249999962008811,0.249980404370144,-0.212419182078272,0.249952899314821,0.249999208017617,0.25,-0.00315298191244888,0.714763615273768,0.717764177050364,0.04,0.0594722667405413,341.029074134901,0.758253821805026,0.330469569198053
10014,0.249914003735616,0.249999996200881,0.249992130403434,0.203746311841407,-0.200004710068518,0.249999920801762,0.249976770134007,-0.00148909231268873,0.717495086839165,0.717764177050364,0.04,0.060491248931608,342.323974309892,0.764147148864897,0.329166018812281
10074,0.249904692857544,0.25,0.249993433296022,0.249986922276927,-0.25,0.25,0.249974189037786,-0.000703130247333654,0.71651821140271,0.717764177050364,0.04,0.0614573378067776,341.848354103643,0.769657701409316,0.326355209902176
10134,0.249990469285754,0.249993513191406,0.249999056654134,0.249996357549662,0.00805623407339419,0.249999894947353,0.249791533895363,0.199994225014698,0.706774635466561,0.717764177050364,0.04,0.0723556778962628,337.083720304866,0.803554696364608,0.308231493835988
10194,0.25,0.249992792434896,0.249999681471703,0.249997405913299,0.0367291489704381,0.249999883274837,0.249771238879538,0.249991523688883,0.714000126706365,0.717764177050364,0.04,0.0703283093219247,340.6955129225,0.846261062916112,0.295812642448872
10254,0.25,0.249984126571498,0.249993581062798,0.24999957524226,0.228671065223328,0.249992005103594,0.249975177549263,0.249860087967744,0.714608826813965,0.717764177050364,0.04,0.0766711144248822,340.934745594655,0.863797939521243,0.290010536111859
10314,0.25,0.249983163697787,0.249992903239586,0.249999816278811,0.249997944806982,0.249991129751233,0.249997837401454,0.249845483998728,0.716424602717938,0.717764177050364,0.04,0.0780261361200268,341.816660248012,0.876002397178633,0.286709846498205
10374,0.249660655100681,0.249998253629219,-0.0635997038688561,-0.199897542870358,-0.200000205519302,0.249999101115038,-3.75215713260184e-05,-3.75215713260184e-05,0.740567633266635,0.717764177050364,0.04,0.0437617338648038,353.321921762735,0.768917668813352,0.337633413589216
10434,0.249622950111867,0.249999930288266,-0.0984433268809053,-0.249886138331377,-0.25,0.249999986822128,-8.68246611411917e-05,-8.68246611411917e-05,0.725835221300684,0.717764177050364,0.04,0.0442196157451865,346.222024656835,0.688362177462468,0.369566305444775
10494,0.249296409374809,0.249982270600018,-0.23484433268809,-0.249987217834844,-0.228351651096241,0.249999981279005,-0.00106820530210464,-0.00106820530210464,0.722318121690882,0.717764177050364,0.04,0.0342800437274022,344.612103573043,0.658077631245612,0.384776087372512
10554,0.249260127070691,0.249980308412435,-0.25,-0.249998448890785,-0.225946278995823,0.249999980663103,-0.0113461010786059,-0.0113461010786059,0.720237342237605,0.717764177050364,0.04,0.0280854860656804,343.612505611932,0.638619660125956,0.395349645171961
10614,-0.196549502905857,-0.19998149617771,-0.249341764229677,-0.249999844889079,0.201755969674274,0.24999999806631,0.19994666772154,0.199971003975008,0.711421894287499,0.717764177050364,0.04,0.0219379827961871,339.387399584919,0.643275771243561,0.387661968192023
10674,-0.246083906236585,-0.249977252243282,-0.249268626921863,-0.25,0.249278441748729,0.25,0.249939222139843,0.249959492060261,0.716925303121002,0.717764177050364,0.04,0.0197130725737949,342.073036217053,0.637359232203852,0.394356712686064
10734,0.200391146297427,-0.249991281654108,-0.24909957618844,-0.24999991508096,0.248306738535596,0.248016560614588,0.0685034396464049,-0.127444823694712,0.714082301118746,0.717764177050364,0.04,0.0157101142796598,340.493997981429,0.639431906268525,0.391263949335967
10794,0.249999485467872,-0.249992840477533,-0.249080792773615,-0.249999905645511,0.248198771511914,0.247796178460654,0.0483439082582452,-0.183668951810249,0.714678904370916,0.717764177050364,0.04,0.0168907945933405,340.989342033473,0.669571719239584,0.37419534376976
10854,0.249983176617236,-0.249999284047753,-0.249908060160054,-0.249961854443232,0.249819096268852,0.249779617846065,0.229646990050565,-0.00997792838811219,0.706630449682925,0.717764177050364,0.04,0.0296241364265423,337.117548425424,0.718511817758909,0.344748289995743
10914,0.249981364522721,-0.25,-0.249999978758548,-0.249957626531868,0.249999132352956,0.25,0.249791776916379,0.0166911906798753,0.713709508696663,0.717764177050364,0.04,0.0334314778997884,340.536849854966,0.755343610469458,0.331263991668657
10974,-0.200001863547728,0.199987937615225,-0.249999976421316,0.200004237346813,0.249999913235296,0.25,0.0652561530776346,0.226452059905834,0.70830381038306,0.717764177050364,0.04,0.0496512756070672,337.933327066763,0.804434646787559,0.308670363313705
11034,-0.25,0.24998659735025,-0.249999976161624,0.25,0.25,0.25,0.0447521948733297,0.249758823153162,0.71693810000553,0.717764177050364,0.04,0.0533094106811428,342.082489945153,0.823268994735146,0.305311920632732
11094,-0.25,0.249815185070934,0.199993570573002,0.249784589357039,0.249999885559181,0.25,-0.220524780512667,0.248968214373314,0.702323250037805,0.690056805860828,0.04,0.0774861867567275,334.878019750178,0.767707835872193,0.320512776057792
11154,-0.25,0.249796139262122,0.249992853543516,0.249760654841154,0.249999872843535,0.25,-0.199479639098356,0.248880368953331,0.670578034087205,0.659270837872455,0.04,0.0916782021585877,319.670284119313,0.693308507191678,0.33878986836109
11214,0.2,0.249979613926212,0.24999092330341,0.249976065484115,-0.0598065995152834,0.249353473674173,-0.104605474349322,0.0981917782279759,0.660062983390342,0.656192241073618,0.04,0.0834038310096887,314.891450132389,0.659432212023781,0.350869313720001
11274,0.25,0.25,0.249990708832287,0.25,-0.0942295408884855,0.249281637415748,-0.0494128722673308,0.0814486014807142,0.653130339429016,0.656192241073618,0.04,0.0754845504404432,311.587595513916,0.666576083608675,0.343467072741223
11334,0.249801625050962,0.25,-0.199987603431287,0.24999840125258,0.215577045911151,0.249764887067766,0.200000211357636,0.233106811738507,0.643786193681366,0.656192241073618,0.04,0.071954206070506,307.106032329396,0.718319593945977,0.31414149801552
11394,0.249779583389958,0.25,-0.249985193682795,0.249998223613977,0.25,0.249818581473546,0.25,0.249957723989373,0.653844355455304,0.656192241073618,0.04,0.0673908187656314,311.992624448218,0.753186626808596,0.30436618678671
11454,0.249977302731382,-0.2,-0.24913840396133,-0.199998973355,0.249991138427513,-0.200018141852645,-0.00894124712303397,0.0563649380318135,0.681151693834944,0.656192241073618,0.04,0.0181355267305205,325.056820956122,0.650854804999252,0.366969393838558
11514,0.249999271547095,-0.25,-0.2490443162145,-0.249998661907109,0.249990153808348,-0.25,-0.0374887234981671,0.0348546284809735,0.663064032055781,0.656192241073618,0.04,0.0150966711788338,316.27091827389,0.567161762603551,0.409738706689267
