time,bias_percent_1,bias_percent_2,bias_percent_3,bias_percent_4,bias_percent_5,bias_percent_6,bias_percent_8,bias_percent_9,normalized_power,power_SP,SP,CV,total_power_MW,fuel_fraction,thermal_efficiency
1,0,0,0,0,0,0,0,0,1.01321866282111,1,0.04,0.0404989889575618,482.479636961363,0.985424264531242,0.359757960960981
61,0,0,0,0,0,0,0,0,0.999872005567849,1,0.04,0.0399001620686527,477.041094239897,1.00009112019031,0.350486179688723
121,0,0,0,0,0,0,0,0,0.999985441194242,1,0.04,0.0399162206148318,477.093305742537,1.00029764136961,0.350452170725819
181,0,0,0,0,0,0,0,0,0.999999162771479,1,0.04,0.0399552806628004,477.099637438431,1.00031803768199,0.350449675962418
241,0,0,0,0,0,0,0,0,1.00000187119419,1,0.04,0.0399809438808086,477.100906053814,1.00031096679894,0.350453085038502
301,0,0,0,0,0,0,0,0,1.00000315497846,1,0.04,0.0399960057234836,477.101512779173,1.00029431500928,0.350459364668311
361,0,0,0,0,0,0,0,0,1.00000382389441,1,0.04,0.0400043732687602,477.101827505494,1.00027246462107,0.350467251445805
421,0,0,0,0,0,0,0,0,1.00000398847647,1,0.04,0.0400085197546308,477.101902505565,1.00024864929273,0.350475650958155
481,0,0,0,0,0,0,0,0,1.00000378215454,1,0.04,0.0400100056382986,477.101801722363,1.0002253849922,0.350483728655406
541,0,0,0,0,0,0,0,0,1.00000334802243,1,0.04,0.0400098713530691,477.101593404037,1.00020432566551,0.350490955063003
601,0,0,0,0,0,0,0,0,1.00000280584974,1,0.04,0.0400088286901179,477.101334211331,1.00018634912249,0.350497064091866
661,0,0,0,0,0,0,0,0,1.00000224207761,1,0.04,0.0400073608177891,477.10106534826,1.00017174607085,0.350501984019614
721,0.00416666496136156,0.000821115982099059,0.00413361768822028,0.00416666666666663,-0.000444012837929563,0.0041666518868808,0.000928480797129453,0.00391355478276716,1.00000171243124,1,0.04,0.0400816006447889,477.102544478306,1.00016041209188,0.350507042618811
781,0.249999897681695,0.0492669589259445,0.248017061293213,0.25,-0.0266407702757691,0.249999113212847,0.0557088478277683,0.234813286966028,0.981166314273779,1,0.04,0.0639138139891936,468.058204035753,1.08739580645595,0.316276471025119
841,0.249999898587399,0.0442795018081994,0.24805011027166,0.249996783026563,-0.0220300907711729,0.249998753165681,0.0572329480606805,0.235065286950719,0.995675963075816,1,0.04,0.0604634485485855,475.091172950705,1.13576673981081,0.307356563103193
901,0.24999995202396,-0.249980468138771,0.25,0.24980698159378,0.25,0.249977510382896,0.147154861802498,0.249933286047505,0.996954906697618,1,0.04,0.0604801412788423,475.651596742949,1.15757588166292,0.301921587044546
961,0.241666620566933,-0.248036909321105,0.249999864694178,0.249809756679963,0.249986032391461,0.241644873412872,0.148868947439123,0.249934372525369,1.00109430018612,1,0.04,0.0615222989268178,477.624535502276,1.15650536669184,0.303454548952478
1021,-0.249999935397656,-0.133366939078807,0.249991881650685,0.249973486764794,0.249161943487672,-0.249980707818542,0.25,0.249998474719368,1.01246588410653,1,0.04,0.0491616630632438,483.065031475038,1.10124693020344,0.322311325380373
1081,-0.241670396399821,-0.135310629906997,0.249992016633317,0.249972792074233,0.249173318582121,-0.241647696439493,0.25,0.249998500140712,1.00535300761622,1,0.04,0.050267369497398,479.6440339982,1.05549131455458,0.333902029888543
1141,0.249772404472447,-0.249988388770179,0.24999998060863,0.24993180533113,0.249844449154655,0.249999974924421,0.25,0.25,0.990587278399056,1,0.04,0.0628827426151612,472.555475223517,1.08862210161497,0.318955671132135
1201,0.249775346629894,-0.245327368163206,0.249999644417923,0.249932825546044,0.249846961053023,0.249999975342347,0.241666714763951,0.249999999987734,0.998629466150445,1,0.04,0.0581631593119042,476.477669581379,1.11011549023729,0.3153763085832
1261,0.249948933919266,0.0296728476482447,0.249979809166246,0.249993018225939,0.249995163056759,0.25,-0.081704067243193,0.249999999264026,1.00245724345574,1,0.04,0.0604703150708882,478.176655747871,1.08400564473023,0.324124233630027
1321,0.249949726223565,0.0250116335207737,0.249975473620274,0.241659801255507,0.241661910339146,0.25,-0.0354814923581062,0.249995643406945,0.998665011569947,1,0.04,0.0580510093701666,476.460474753235,1.08793300114686,0.321795083616632
1381,0.249996472177163,-0.25,0.249719676407972,-0.25,-0.25,0.25,0.249999553497686,0.249738647839178,1.01132825210252,1,0.04,0.0355246744546929,482.536630595094,1.04669352927815,0.33873917407359
1441,0.24999653097421,-0.241667467582213,0.249724348467839,-0.241668381342814,-0.247181357633582,0.25,0.249999559673894,0.249743003708525,1.00471492451086,1,0.04,0.0376639259882269,479.322539616839,1.00664274502594,0.349870366622023
1501,0.25,0.249951945067203,0.25,0.249897119431133,-0.0808814580149475,0.25,0.249999924070216,0.25,0.988230319921833,0.999705421660021,0.04,0.0603792595192389,471.424330093717,1.05310273963766,0.328924275140449
1561,0.25,0.249952740155612,0.249999999524052,0.241691308811382,-0.0836656927726982,0.247966944910003,0.24999991134256,0.25,0.983436993482889,0.98203072126129,0.04,0.0605209070227268,469.09759394322,1.06148591525729,0.324715968035417
1621,0.25,0.249999650371774,0.249999971443113,-0.24245151775391,-0.247935543479986,0.128016694600166,0.249999160410885,0.25,0.979145066426011,0.964356020862559,0.04,0.0500187389725969,467.070037555908,0.993273110174505,0.345515874962355
1681,0.249976580751628,0.249999649846405,0.241666638585728,-0.234273447205445,-0.23964127746216,0.130036223644814,0.249999174404037,0.243543837528987,0.954810116209766,0.946681320463828,0.04,0.0552294722046557,455.370256356613,0.932203465157532,0.358929061604653
1741,0.248594845097684,0.249999618849582,-0.25,0.248232715154022,0.249720417589574,0.249188437279035,0.25,-0.000376843321359134,0.929108268239595,0.929006620065097,0.04,0.0652680510504819,443.220309076161,0.90435345060509,0.360110785198329
1801,0.240284943983955,0.241666528426662,-0.25,0.23998754919082,0.249725077296414,0.249201963324384,0.241676023742803,-0.000177743551388342,0.913499540950088,0.911331919666366,0.04,0.062442994836863,435.693832813375,0.893051078882344,0.35847575607553
1861,-0.249999221726086,-0.249985806525636,-0.25,-0.246477242638125,0.25,0.25,-0.00372081145908519,0.249767289104237,0.913549019181169,0.893657219267635,0.04,0.0242333695406938,435.840390686716,0.791567302529589,0.404570586518658
1921,-0.246203227844974,-0.241653205121434,-0.241666666921845,-0.243547819533988,0.25,0.24999998268855,-0.0198410747752766,0.248922945560539,0.883602586817697,0.875982518868904,0.04,0.023680030889225,421.477416906816,0.716371590052782,0.432305371523288
1981,-0.0222395888594173,0.249970277726481,0.249999984689293,-0.0707118563898824,0.25,0.249998961313021,0.249969344510729,0.199106676482402,0.839236983491775,0.858307818470173,0.04,0.0639139981779545,400.269276888996,0.804888595176237,0.365402201160915
2041,-0.0177107110710481,0.249950955955966,0.249999942386051,-0.0653666610860585,0.249999959247288,0.249998721471792,0.249969855117544,0.191628672094782,0.839234361638601,0.840633118071442,0.04,0.0596719919160478,400.317785061541,0.84022408038567,0.350077692190397
2101,0.249493078442732,0.248810971495585,0.249997446494804,0.249999861839552,0.249997554837281,0.249984570839292,0.249999980919631,-0.0109064752154522,0.822188973311943,0.822958417672711,0.04,0.0755580828746384,392.05936546924,0.825441222761642,0.348995924270857
2161,0.249501527135354,0.248830788637325,0.249997489053224,0.24999986248601,0.24514744688592,0.249984827991971,0.24999998023849,-0.00515156583919749,0.805134619867737,0.80528371727398,0.04,0.0759850581738705,383.998503540549,0.828755122257762,0.340453640538865
2221,0.25,0.25,0.25,0.24999990062698,-0.0410089222443883,0.25,0.249999940051201,-0.00243315203340134,0.792368346303556,0.787609016875249,0.04,0.0709798087788593,377.922660628758,0.807693198242672,0.343804204966577
2281,0.249999959333184,0.25,0.249999997116188,0.249999902283197,-0.0444921065941998,0.249999999018028,0.249999153743211,-0.00114907036740798,0.772882384101939,0.769934316476518,0.04,0.0736057137727236,368.594593165982,0.785981891320673,0.34458081705
2341,0.249997559991056,0.25,0.249999826971244,0.25,-0.249999983233084,0.249999941081699,0.249952761571792,0.13990712437728,0.752639742406999,0.752259616077787,0.04,0.0734116624249283,358.869146848374,0.767560958585817,0.343540483025152
2401,0.249991405199679,0.249999999972023,0.241666879556795,0.25,-0.24166665018273,0.249999942055155,0.249949917304806,0.141740206770378,0.737616985588017,0.734584915679056,0.04,0.0740098741857132,351.785304653287,0.752909147993722,0.343312641837576
2461,0.24962827250841,0.249999998321399,-0.24997701789569,0.25,0.249999999788122,0.249999999489064,0.249782105552649,0.2498920679632,0.716730593050716,0.716910215280325,0.04,0.0774296803337862,341.825670115269,0.75237839574435,0.333828209950821
2521,0.249634467966604,0.24999962751152,-0.241644067597429,0.245572159362242,0.249991206549772,0.249999999497579,0.249785535428755,0.249893185186484,0.703028181740502,0.699235514881594,0.04,0.0804547495600014,335.283313180786,0.733255138048442,0.335978510865815
2581,0.25,0.249977749728646,0.25,-0.0156704382654937,0.249472405487138,0.25,0.249987898118994,0.249959101360235,0.684598314051767,0.681560814482863,0.04,0.0888840999768333,326.478872144023,0.713714943345656,0.33611273506197
2641,0.249999962274293,0.249978120566502,0.241666666666667,-0.0112432464477979,0.249481034845795,0.249999997194953,0.249986424102054,0.249959293816842,0.666198141008372,0.663886114084132,0.04,0.0904472850468495,317.701062554212,0.698167750358957,0.334359417165775
2701,0.249997736457607,0.25,-0.25,0.249961070796256,0.249990167006572,0.249999831697159,0.249899457102606,0.24997064875664,0.650156457450161,0.646700281502702,0.04,0.0869586593057784,310.084189971106,0.680742220736734,0.334696840702333
2761,0.249997774183314,0.249997671316958,-0.249997406806028,0.249961598591692,0.249990330889796,0.241666517519727,0.249899816318304,0.249971137944029,0.651935350593393,0.65835765014205,0.04,0.0764027578478643,311.11334067297,0.70973102635469,0.322091689474462
2821,0.25,0.249860279017507,-0.249844408361666,0.249992738522384,0.25,-0.249999018948766,0.249921010044515,0.25,0.670555100868809,0.670015018781398,0.04,0.0558422531227776,320.051378905266,0.719690900461687,0.32675960867663
2881,0.241667195760352,0.249862607700549,-0.249846593001693,0.249992714394366,0.249999999966221,-0.249997986717526,0.24675726440195,0.25,0.678622717965409,0.681672387420746,0.04,0.0539919025376152,323.853421174448,0.733037789777577,0.324621142171201
2941,-0.249968254378867,0.25,-0.249975486763264,0.249991290841299,0.249999997973272,-0.249937085074381,0.0600962714906282,0.25,0.697603167191049,0.693329756060094,0.04,0.0295755965670741,332.948483151442,0.721208220019938,0.339211876176967
3001,-0.249968056840452,0.249998623411028,-0.249973642240925,0.249991435993944,0.249982971355931,-0.241604836973747,0.0632610521407251,0.249999843056943,0.703510732006358,0.704987124699441,0.04,0.028157942381479,335.711052106839,0.716883064384434,0.344089955128222
3061,-0.249956402073986,0.249917404661683,-0.249864815422915,0.25,0.248978400932803,0.249997800963685,0.249983110496446,0.249990583416577,0.704039454756191,0.716644493338789,0.04,0.0432282545773406,335.960188780576,0.778236076123388,0.317198506414424
3121,-0.241623865141758,0.241586122073037,-0.241533735165867,0.249999664759844,0.248995427583923,0.249997817896078,0.242486568411519,0.241657434235473,0.723516908606833,0.728301861978137,0.04,0.0405606543562916,345.216621556146,0.819604038261029,0.309486909909648
3181,0.249995813859665,-0.249959550657133,0.25,0.249979885590663,0.25,0.249998816907231,-0.0410241715848801,-0.0410241715848801,0.737670863484904,0.739959230617485,0.04,0.0477744509542271,351.887272771515,0.804265095907342,0.321483741683914
3241,0.241662797526772,-0.242950909078037,0.249999858506049,0.249980220830818,0.241666990556492,0.241665747248211,-0.0344793171301639,-0.0344793171301639,0.747303816901753,0.751616599256833,0.04,0.0449405641658555,356.63486048704,0.832388986785791,0.314812626921221
3301,-0.249985166113889,0.170558944088622,0.249991510362942,0.25,-0.249980566610503,-0.249985362634004,-0.0361762020942178,-0.0361762020942178,0.775964933245726,0.763273967896181,0.04,0.0163939135585371,370.277886362084,0.785678841486744,0.346287962151649
3361,-0.249984831166398,0.17188295724802,0.249987475663559,0.241667329334298,-0.249980890500328,-0.249985527397068,-0.0657772063886118,-0.0657772063886118,0.776980451409288,0.774931336535529,0.04,0.0171924531629401,370.748131468519,0.754473531319044,0.361068530844892
3421,-0.249965069264453,0.249999733652525,0.249749428399925,-0.249960239942116,-0.25,-0.249995248417863,-0.118839422619028,-0.118839422619028,0.789343916511387,0.786588705174877,0.04,3.20055243231344e-06,376.557610396113,0.73096087291794,0.378522739918356
3481,-0.249964323696894,0.24999973809165,0.241420271259926,-0.249960428885605,-0.25,-0.24166235154881,-0.197935780547401,-0.197935780547401,0.788598943842867,0.798446886830494,0.04,8.18099254500761e-09,376.264743197751,0.775714569760494,0.356407023305814
3541,-0.249920335210882,0.25,-0.25,-0.249971576551489,-0.25,0.249978563725321,0.249999999990576,-0.173567980872868,0.81387967813917,0.821757933952448,0.04,0.0136268049703154,388.283726964127,0.792927122022232,0.3598078156432
3601,-0.249921662957367,0.249999592263649,-0.249985008453336,-0.249972036633255,-0.25,0.24997889098166,0.249998033592857,-0.174841766325207,0.818769923917675,0.821757933952448,0.04,0.018268571104437,390.642391241689,0.811675726090578,0.353631943488814
3661,-0.25,0.249975535818924,-0.24910050720014,-0.249999181457444,-0.25,0.249998199105679,0.249882016127439,-0.249995108013188,0.820811857051375,0.821757933952448,0.04,0.0219751439857301,391.618111602576,0.820146642057029,0.350853597607609
3721,-0.241666701845384,0.249975943555275,-0.240783033203533,-0.241666468745024,-0.241666697036613,0.249998210872446,0.249883982525315,-0.249992245800013,0.820336659608657,0.821757933952448,0.04,0.0265852135416343,391.385992379711,0.828934404497763,0.346928349033905
3781,0.24999788927697,0.25,0.249947932596289,0.249963581287743,0.249998177803218,0.249998905111675,0.25,-0.249823375222669,0.795601583629732,0.821757933952448,0.04,0.0724716994511989,379.602487137648,0.974196994940414,0.286310278841746
3841,0.241664591178641,0.249965962998643,0.241615480648195,0.241631066508187,0.241665443414621,0.249998916555588,0.249248109148792,-0.249815048896565,0.816786410593027,0.821757933952448,0.04,0.0705616886346933,389.775926072436,1.03921998914658,0.275589201612334
3901,-0.249999996622822,0.247957779918606,-0.249999184289348,-0.249987305485636,-0.249965885512579,0.249999591746489,0.204886548927509,-0.249323795656449,0.85085400962238,0.821757933952448,0.04,0.0335814118166481,406.175625638047,0.928668191320663,0.321371947057429
3961,-0.246602340298936,0.247981754503332,-0.249997510051667,-0.241658390968154,-0.241633120754036,0.24999871385445,0.205638439778717,-0.241010048971799,0.831434496140189,0.821757933952448,0.04,0.0422096523630469,396.608593505927,0.835898210761522,0.348628912102129
4021,-0.0461406171896594,0.249396255002172,-0.249898730028506,0.249747565563271,0.25,0.249946918224189,0.25,0.249501005422532,0.800904571376453,0.821757933952448,0.04,0.071626381147083,382.0389407281,0.92237911287629,0.304335663929292
4081,-0.0493125880650338,0.242887332089486,-0.24156754146444,0.241418475383523,0.249999035499634,0.241614478823785,0.241672263630903,0.249509315979865,0.819882810724235,0.821757933952448,0.04,0.0646542222771906,391.229787984982,0.962301751144712,0.29872757573511
4141,-0.236458869712126,-0.14113911975899,0.249972583815417,-0.249997845221601,0.24994212997803,-0.249999445800046,-0.249664182145793,0.249999638862507,0.846021182774821,0.821757933952448,0.04,0.0354938514680724,403.744718447176,0.858173849545688,0.345689552166091
4201,-0.228351221883591,-0.137739870780664,0.241639973808787,-0.241664547801241,0.241612068602704,-0.249993232458707,-0.249669132017014,0.249971853816371,0.82879797512745,0.821757933952448,0.04,0.0390336051302801,395.359571002259,0.788185853412176,0.368568569752887
4261,0.25,0.0628158189405641,-0.249984016582349,0.25,-0.249861552541535,-0.249626645319689,-0.249961174419052,0.248332536094376,0.824007568051034,0.821757933952448,0.04,0.0405143018240883,393.11244291091,0.765359311170731,0.377403650512149
4321,0.241666808070908,0.0659355500509317,-0.249931729219513,0.241666691938907,-0.249863767759207,-0.249632867897694,-0.249100455276992,0.240027835120536,0.822635972793893,0.821757933952448,0.04,0.0361119218165674,392.473102471238,0.760087746088672,0.379403072568878
4381,-0.249991515745518,0.249999685562622,-0.246846774812216,-0.249998483665573,-0.249994465601857,-0.249999999999954,-0.198318025895433,-0.249949522335999,0.845522180942501,0.821757933952448,0.04,8.15631419962355e-05,403.223415706253,0.649845238306402,0.455921926906662
4441,-0.241658332006046,0.249994096013448,-0.246899328389373,-0.249998506448937,-0.249993992027991,-0.241666666711195,-0.190850001622292,-0.24995035102894,0.817532015880506,0.821757933952448,0.04,1.18427373798693e-05,390.01760611563,0.637958112080034,0.449207216368022
4501,0.249999508622817,0.249664312612194,-0.249999989441609,-0.249999850667427,-0.249966051169874,0.249999997325547,0.249763430493019,-0.249999243912476,0.79342355966658,0.821757933952448,0.04,0.0355426846946763,378.341762107948,0.744697844281214,0.37330074945038
4561,0.249996965125764,0.24966970848684,-0.241667212765085,-0.249999828821069,-0.241633309051602,0.249998285344942,0.243018347412724,-0.248363521154127,0.813666031873783,0.821757933952448,0.04,0.0334161095118173,388.249425674603,0.817876850125826,0.348800888480313
4621,0.249846898799655,0.249988065090958,0.249966611149872,-0.249998539885935,0.249998475926425,0.249897278489275,-0.154941554324708,-0.15185587841153,0.810214024409157,0.821757933952448,0.04,0.0562755983293145,386.586418823284,0.893247453618828,0.318001729670422
4681,0.249666918330301,0.249965090426962,0.241636504400424,-0.241665240503408,0.249998395028427,0.249898988822843,-0.148192544693194,-0.153491611592322,0.819336012067387,0.821757933952448,0.04,0.0594566892783558,390.945526725088,0.922932322612653,0.311244057655377
4741,0.239048070638384,0.248609585251237,-0.249839793817023,0.249999423065703,0.249993622046548,0.249999898503297,0.249999023566179,-0.249999869259089,0.817365398808993,0.821757933952448,0.04,0.0653832759232845,389.969569880366,0.948484674525601,0.302103027632625
4801,0.239229988112038,0.248548606148095,-0.249842463896819,0.249991140043921,0.249993669722667,0.249997939475404,0.249997567162486,-0.249946113842621,0.822815650776876,0.821757933952448,0.04,0.0663942911472528,392.58582062546,0.949829601696744,0.303699156472485
4861,0.249963119057627,0.244950839062707,-0.249999998604757,0.24950244175881,0.249996482613695,0.249882356829741,0.249911639344591,-0.246774544270998,0.824182305310378,0.821757933952448,0.04,0.0675027629885432,393.222949312508,0.937255020485704,0.308273190404247
4921,0.249963659078409,0.245034991744995,-0.241666665294678,0.241177404613855,0.2499965412368,0.24155098424173,0.244838386867555,-0.242539311509506,0.824696776765033,0.821757933952448,0.04,0.066756629453701,393.464393071537,0.920335354518829,0.31413332208806
4981,0.249995520304584,0.25,0.25,-0.249999786938506,0.25,-0.24999999845095,-0.0544835092775904,0.00733942141850662,0.83391241516604,0.821757933952448,0.04,0.0543478580769701,397.910286660392,0.864034867182747,0.338383029678122
5041,0.242446509933617,0.24369068652206,0.249999997498468,-0.241666457156198,0.249999251309339,-0.249999998476767,-0.0494087841229638,0.0113834302620669,0.826347181289298,0.821757933952448,0.04,0.053460814235042,394.214665744639,0.823135727580222,0.351897353783854
5101,-0.202945101953487,-0.128558808676413,0.249999849908066,0.25,0.249955078560367,-0.25,0.25,0.249979952032123,0.814346681211152,0.821757933952448,0.04,0.0464568355020954,388.579514729595,0.863330049635116,0.330717914275853
5161,-0.195396018609748,-0.130582802740667,0.249999839116327,0.249999999980031,0.249955827251028,-0.25,0.249999995350707,0.249980272832437,0.823270095656144,0.821757933952448,0.04,0.0435107133098316,392.794132120682,0.859303337538277,0.335871511730724
5221,0.249999898670828,-0.249998452531649,0.249999202403731,0.24999999880184,0.25,-0.25,0.249999721042415,0.24999920005099,0.819282465830328,0.821757933952448,0.04,0.0523466865648786,390.872974887227,0.865838190790752,0.331706194958764
5281,0.249999900359647,-0.249998478322788,0.249998747137271,0.241666665775124,0.241666666666667,-0.249999908126395,0.249999725691708,0.249993350925103,0.822065196598462,0.821757933952448,0.04,0.0513803499488659,392.218805026776,0.869729413504147,0.331359121903161
5341,0.25,-0.25,0.24997188641612,-0.249999982801117,-0.25,-0.249994487583712,0.25,0.249648252497733,0.836349266936053,0.821515290298398,0.04,0.0257450300741886,399.129725395122,0.809157947225475,0.362439435756234
5401,0.241667793082417,-0.24999967829097,0.249957419671018,-0.249998414257959,-0.25,-0.249994576990554,0.241847585493814,0.249654103063647,0.815526318901065,0.80695667105542,0.04,0.0331555118324294,388.938697289993,0.743480485825372,0.38438484579834
5461,-0.249932415054952,-0.249980697458227,0.249103881709973,-0.249905870211646,-0.25,-0.249999851994247,-0.0538719220590747,0.249999286452609,0.811922722708839,0.792398051812443,0.04,0.0107637798376159,387.344413641385,0.636182720856786,0.447373344130744
5521,-0.249933536565498,-0.241647699978305,0.241821605969096,-0.241574107939719,-0.241667021804672,-0.24166654882655,-0.105036263753984,0.249999241739844,0.787423804813926,0.777839432569465,0.04,0.00764672310594767,375.64286262434,0.563311473969404,0.489983234637989
5581,-0.249999705687696,0.249999151337079,-0.187832662742605,0.249999866103971,0.249978691719671,0.249998338067577,-0.155788202066297,0.249996603686715,0.743528484450331,0.763280813326487,0.04,0.0470467325983623,354.603120114857,0.672277165967564,0.387568853533023
5641,-0.241666380980345,0.245605303212302,-0.180535451696895,0.241666535002238,0.249979046857676,0.249997965990175,-0.176488942627767,0.249996570859882,0.745645991083393,0.74872219408351,0.04,0.0436819746076478,355.683086425656,0.714197157518205,0.36593148057556
5701,0.249999776753358,-0.0136317361495118,0.25,-0.25,0.25,0.249976013423515,-0.176602121571603,0.249994634076729,0.731722169861978,0.734163574840532,0.04,0.0574869516352611,349.01401337226,0.726229921069401,0.353120883952913
5761,0.249999742892352,-0.00923787963335303,0.249999999122419,-0.241666667445673,0.249999654478886,0.249976413199788,-0.1514044329962,0.249994723508783,0.722061030608449,0.719604955597554,0.04,0.0628398843604092,344.401515468357,0.72002259916248,0.351458136799009
5821,0.249997745092993,0.249999654820011,0.249999947345158,0.249999953259616,0.249979268733145,0.249999999999866,0.249993070568184,0.25,0.695860181534233,0.705046336354576,0.04,0.0937540764244968,331.821333059871,0.748923768774355,0.325552748227445
5881,0.249997782674776,0.249999636909664,0.249999943705128,0.249999954038622,0.249979361933072,0.249999999999868,0.249993111299732,0.25,0.690632699189792,0.690487717111599,0.04,0.0902014778930712,329.415844086839,0.761938573367029,0.317672191954969
5941,0.25,0.249998580199189,0.249999728943374,0.25,0.249984860728803,0.25,0.249995514461091,0.25,0.677693635871235,0.675929097868621,0.04,0.092023310254237,323.214386399227,0.752217960623754,0.315719684848752
6001,0.25,0.249998603012864,0.241666400127651,0.241666666666667,0.249985044101641,0.25,0.249995484006462,0.25,0.66316210420559,0.661370478625643,0.04,0.0937026809432546,316.277904666988,0.740612972476088,0.31378502559362
6061,0.25,0.249999949019698,-0.25,-0.25,0.249995863099094,0.25,0.249993687183367,0.25,0.657306307620278,0.646811859382665,0.04,0.0708604491172634,313.55982671618,0.696005213301499,0.331026375940961
6121,0.248409641304741,0.241666823787711,-0.249999999309257,-0.241666666666667,0.249995931796003,0.241666669951967,0.242176106481003,0.241666673060149,0.639371586794234,0.632253240139688,0.04,0.0783761803314779,304.903761470398,0.643696761359054,0.348045589225625
6181,0.15457847828446,-0.249987564899497,-0.249999958555404,0.25,0.249999984913635,-0.249999802881991,-0.00108169104681228,-0.00108169104681228,0.636208722738583,0.61769462089671,0.04,0.0475466381239885,303.306254477116,0.516034895009882,0.431873913411729
6241,0.150306924471373,-0.249983849742297,-0.249999728613362,0.25,0.249999985165074,-0.241666503248232,-0.000682788279660223,-0.000682788279660223,0.606567576005905,0.603136001653732,0.04,0.0375339689783615,289.230673507634,0.472063049285418,0.450193290112912
6301,-0.101714750500761,-0.249764655467484,-0.249986162032843,0.25,0.25,0.249998175143597,0.25,-0.00346606191145276,0.580756662319842,0.588577382410755,0.04,0.0411226200673608,276.992185285978,0.500520999072158,0.406630443439345
6361,-0.095855116706885,-0.249764965228614,-0.241653059332296,0.24999998565073,0.249999997735863,0.24999820459353,0.25,-0.00894040904212501,0.574536778805699,0.574018763167777,0.04,0.0352581549025457,274.079254403977,0.498016699512554,0.404377455031828
6421,0.249863277131786,-0.249783241135285,0.25,0.249999139043817,0.249999864151786,0.249999942139607,0.25,-0.00781394949414469,0.549440937317078,0.559460143924799,0.04,0.0721639724996897,262.0143185354,0.540612906305767,0.356117480347336
6481,0.249865539559987,-0.249786688804838,0.249999240046397,0.249999153393087,0.249999861905868,0.249999827192771,0.241666666666667,-0.00369076705576792,0.54343337593284,0.544901524681821,0.04,0.0717219501020126,259.193533185891,0.566047966460649,0.336453928485375
6541,0.24999902282383,-0.249990101308469,0.249954402783795,0.25,0.249999729396705,0.249993045329453,-0.00174312298907571,0.249999105542718,0.527655474136003,0.530342905438844,0.04,0.0797847078657176,251.547390068194,0.555451343227079,0.332757973363013
6601,0.249999036709493,-0.241656932953328,0.249954732025496,0.2499999458428,0.249997789125098,0.241667818431593,-0.00082312527291052,0.249998688631734,0.51709479045953,0.516026929849916,0.04,0.0810521647545556,246.60604436929,0.554595733831658,0.326724625499147
6661,0.249999855963628,0.25,0.249974157285813,0.249996750568029,0.249883313100327,-0.249520568542133,-0.00038855118504691,0.249974090883669,0.518579952574124,0.516026929849916,0.04,0.080138724142992,247.422556479369,0.545275885947092,0.333409272685161
6721,0.241666600262561,0.249999534068636,0.241641257291654,0.244011085200441,0.249884317367492,-0.249528391227126,0.00398402199196628,0.241641245761279,0.51282044460417,0.516026929849916,0.04,0.0781903501774285,244.652702685013,0.556144350776301,0.323234094790566
6781,-0.249995486100386,0.249972044118159,-0.249999842363706,-0.109143171487247,0.249943569130225,-0.249989929641662,0.249990864073919,-0.00281875141622536,0.521176034598669,0.516026929849916,0.04,0.0197598886512948,248.689928260362,0.534338583540752,0.341976559299824
6841,-0.241662265131077,0.249972460828443,-0.249999747870418,-0.111490785295793,0.249942660909691,-0.241656764147634,0.249991007221837,-0.0304951982958141,0.518527912251003,0.516026929849916,0.04,0.0190338236116275,247.368793551561,0.495582024138974,0.366761754886407
6901,0.249997772058116,0.249997046735235,-0.249994172766402,-0.25,0.249889075898199,0.25,0.249999452949014,0.249998151137893,0.498305220574115,0.516026929849916,0.04,0.0670774732835807,237.674639478181,0.553196362230915,0.315688095091633
6961,0.243289184695806,0.249995554692019,-0.241660986656311,-0.24999992076091,0.24989089518989,0.25,0.243609587299396,0.241665158953125,0.51492964099404,0.516026929849916,0.04,0.0619276365081195,245.728820890904,0.588000166091261,0.307067126028306
7021,-0.152517469680493,0.249907524142319,0.249996993839029,-0.249995245654591,0.249998233399635,0.25,-0.0178461153048449,-0.0178461153048449,0.52316525228869,0.516026929849916,0.04,0.0621443423321881,249.451299087976,0.530137277987796,0.34574197015281
7081,-0.154142178505674,0.245945773334571,0.249997026447395,-0.249977521659018,0.241666675241502,0.24999999999679,-0.00842960415269666,-0.00842960415269666,0.515021836769107,0.516026929849916,0.04,0.0578805589975165,245.692947277479,0.524896534276971,0.343932852027073
7141,-0.249999999191317,0.0122024756774741,0.249998950340996,-0.248931805920254,-0.249895256088358,0.249999999807407,0.249999989384729,-0.00749651888823418,0.519379805497321,0.516026929849916,0.04,0.0253115829341325,247.804804073783,0.512343554847269,0.355388295601741
7201,-0.24999999768637,0.00783243441618288,0.249998505209652,-0.240617447090452,-0.249896946345651,0.249999997654409,0.249999745003807,-0.0268873025230199,0.516899201002161,0.516026929849916,0.04,0.0235133482443412,246.597731684684,0.496070312594123,0.365258655642843
7261,-0.249999908894488,-0.25,0.249972242460391,0.249929723867864,-0.249996671525942,0.249999870627542,0.249985326529434,-0.0542926059056209,0.513793585517124,0.516026929849916,0.04,0.0333118790025465,245.130135968904,0.507695299813324,0.354771104143964
7321,-0.241666906964276,-0.241670095630591,0.249611567887546,0.24753957151108,-0.249996727000509,0.248654750112293,0.249984597399484,-0.0724529560522205,0.515751693029498,0.516026929849916,0.04,0.0326803616911252,246.068574212486,0.509696801553247,0.354730818354991
7381,0.249980206918245,0.249794262164544,0.228331768089685,0.106520582460876,-0.25,0.169292639712644,0.249941578732389,0.24999965386014,0.499891894972924,0.516026929849916,0.04,0.0726529833494295,238.558339619142,0.581294574005954,0.301545610211303
7441,0.249894956203814,0.249797651494461,0.228692898835096,0.106578777375132,-0.249999417305318,0.164561481535286,0.249942552420182,0.249998809283178,0.51540534214976,0.516026929849916,0.04,0.0711100786788437,245.959024744776,0.611954379994957,0.295323761328022
7501,0.244865164052382,0.249997621959571,0.249999612814319,0.110012277316256,-0.249965038319102,-0.11457685092879,0.25,0.249948979242459,0.52190973758325,0.516026929849916,0.04,0.068085278041213,249.018447847001,0.585356367514584,0.312583357085557
7561,0.237238941313002,0.249997661593579,0.245777735487765,0.104016573247994,-0.249965621007824,-0.108734605118626,0.245922501530855,0.241673838109552,0.518127519617062,0.516026929849916,0.04,0.0719924361240845,247.1736133582,0.564551840453342,0.321701403170141
7621,-0.212708200310409,0.25,-0.0033130267788888,-0.249729966779446,-0.249999999642459,0.235957897681077,0.00535009185131195,-0.00620685392381899,0.529177565257673,0.516026929849916,0.04,0.0279207404252683,252.489171796473,0.496536650320369,0.373633771665051
7681,-0.213295679395456,0.249999313367152,0.000905701356439806,-0.249734461850634,-0.249999310978873,0.230006033964863,0.00942744136161583,-0.0211564795923954,0.518227356315912,0.516026929849916,0.04,0.0213341921146422,247.199229074939,0.457937680746995,0.396638994068619
7741,-0.247956945413211,0.249958802029135,0.249810661340827,-0.249999671050751,-0.249958679827244,-0.121153925291777,0.249991062469544,-0.0552973273079349,0.514765693723453,0.516026929849916,0.04,0.0161703378198022,245.59950124254,0.469521240993283,0.384350023893953
7801,-0.247980773203946,0.241626351367007,0.241480648573637,-0.249992890276082,-0.24994912574928,-0.123301359870248,0.241673444859608,-0.105070969658381,0.515007422843587,0.516026929849916,0.04,0.0141849069521961,245.698073178956,0.474675332760062,0.380329281890789
7861,-0.249386612857291,-0.249988237698583,-0.249990104690589,-0.24959282457059,-0.24938543514939,-0.25,-0.175863561147103,-0.175863561147103,0.461073675032603,0.516026929849916,0.04,1.08622748913521e-10,219.78975420577,0.634240180219307,0.254629295085363
7921,-0.247646705142943,-0.241655100420931,-0.249990269544205,-0.243677078469371,-0.2493956778969,-0.25,-0.240748228234802,-0.249984561333314,0.493737120774305,0.516026929849916,0.04,1.1217167767563e-08,235.978725609475,0.864046651407953,0.200673643644363
7981,-0.144992149996453,0.249999998960549,-0.249999995907511,0.105351941502545,-0.25,-0.25,0.249999959380935,-0.249073679998852,0.536271473303043,0.516026929849916,0.04,0.0312234510341525,255.786129463845,0.678281344154914,0.277090600853483
8041,-0.138408947496512,0.24997486270051,-0.249999995975719,0.107762742476609,-0.249998107228625,-0.249994447807951,0.243085270915638,-0.249070753479717,0.524692242924284,0.516026929849916,0.04,0.0477818268097722,250.300827336089,0.613447963890229,0.299805248897221
8101,0.25,0.248491823358215,-0.25,0.249999999946328,-0.249886433717506,-0.249666868477039,-0.164881348536881,-0.24889808885075,0.525783007330349,0.516026929849916,0.04,0.0610785350233631,250.857247306681,0.556097791850406,0.331459261251762
8161,0.241666758171158,0.248516959635578,-0.249999994362394,0.24645395163663,-0.249888180056151,-0.249672420669088,-0.157966659395235,-0.240583120703238,0.520418089760432,0.516026929849916,0.04,0.0604495159002762,248.272097684084,0.521826082730214,0.349588233820692
8221,-0.249994509730489,0.25,-0.249999661743623,0.0372371013644575,-0.24999121403617,-0.25,0.249999999961906,0.25,0.515109850588751,0.516026929849916,0.04,0.0536474826315767,245.740638291501,0.546202653144868,0.33058097247019
8281,-0.249977466250498,0.25,-0.249999667379052,0.0407831473949801,-0.2499913604689,-0.248281325760533,0.24166786709797,0.249371181050383,0.517579649212944,0.516026929849916,0.04,0.045850934254735,246.936392411989,0.524193550210729,0.346137061434817
8341,-0.248971900931007,0.25,-0.24999999986941,0.249999863195811,-0.25,-0.146879545631999,-0.249927971874285,0.212270863022991,0.518452060307405,0.516026929849916,0.04,0.0310161809810541,247.373105576955,0.510624400343479,0.355963602819968
8401,-0.248989035871651,0.241666666666667,-0.249999832541714,0.249995717803444,-0.241666666666667,-0.140266250671413,-0.249896347957407,0.204566351258887,0.516675626343155,0.516026929849916,0.04,0.0297478253206581,246.490935433505,0.505694801625939,0.358151801500789
8461,-0.249999997369641,-0.25,-0.249989960207631,0.249751139653846,0.25,0.24991815200312,-0.248030536861586,-0.249999842823285,0.521234482638549,0.516026929849916,0.04,0.0262650560143388,248.716196028038,0.498112475398057,0.366886155715952
8521,-0.24999999741348,-0.241666666701407,-0.249990127229643,0.246633479588182,0.249999999957128,0.249919509550248,-0.23973002811033,-0.249999811898952,0.515533247257921,0.516026929849916,0.04,0.0266740399903063,245.939638187969,0.485678791644014,0.372078063944876
8581,-0.25,0.249999997915569,-0.249999981528334,0.0626915357140475,0.249999997427677,0.249999604830847,0.249999988213807,-0.249997987363293,0.499299719596894,0.516026929849916,0.04,0.0519017006131329,238.186047139845,0.557018099403594,0.314196748400181
8641,-0.245551009241725,0.249999997252774,-0.241667456905962,0.0574800105512639,0.249998762520299,0.249996946103417,0.249999918976634,-0.241664687573905,0.512398302460201,0.516026929849916,0.04,0.0491783284227216,244.51172035083,0.601286303327069,0.298794807788971
8701,0.0169394454965146,0.249999958147889,0.249951495814015,-0.249999974052967,0.249925902984989,0.249840081185062,0.249995833983438,0.25,0.501814644809312,0.516026929849916,0.04,0.0855356840377447,239.434051047028,0.671982183899671,0.261807950511808
8761,0.0138407529763476,0.249999759722913,0.241619067278076,-0.249999955058071,0.24992700803333,0.249834804139263,0.249995821471938,0.241666666741416,0.517978597786351,0.516026929849916,0.04,0.0865218889863389,247.193000338493,0.687903171145634,0.264036236396586
8821,-0.168982105713501,0.249988052649346,-0.249994216342339,-0.249998834359177,0.249992205885395,0.249523458437135,0.24999508329345,-0.197156798705408,0.537909162164807,0.516026929849916,0.04,0.0586407341107578,256.549786903792,0.589085783451907,0.319998389511771
8881,-0.161999118361898,0.241654918538273,-0.241883277904424,-0.241665704058551,0.248022135941036,0.249530766046266,0.241661831905226,-0.126049052457529,0.521543855894393,0.516221160141791,0.04,0.0620627262402629,248.78326210396,0.532362740306269,0.343374612615282
8941,0.249997135382675,-0.249999994015047,0.236662089932556,0.249988983678414,0.131788009223854,0.249961914984986,-0.0650430092409317,-0.0650430092409317,0.521667277904429,0.527874977654328,0.04,0.0702993903900664,248.836418204098,0.537560629261012,0.340127043484786
9001,0.249996955428424,-0.241670287253778,0.22855105510036,0.249931218438512,0.125424875738025,0.249962155216141,-0.0307261733288133,-0.0307261733288133,0.531888320489066,0.539528795166864,0.04,0.0531316699114466,253.871654244108,0.588518390860684,0.316963205533487
9061,0.249986338127665,0.2497824116611,-0.249999999999157,0.246523069284285,-0.249999999925886,0.249976328854306,-0.0150454730114206,-0.0150454730114206,0.552663413743402,0.5511826126794,0.04,0.0361480782345172,263.819074175146,0.597573057730764,0.324391794082864
9121,0.249986288338127,0.249786034255449,-0.24166677807087,0.238247728992396,-0.249999997711374,0.249976360909379,-0.00618676394340871,-0.0104990427178965,0.561702709257986,0.562836430191937,0.04,0.0384799234065235,268.073152566523,0.600334726397158,0.328106271844482
9181,0.249983350755362,0.249999767322028,0.249993315698092,-0.249997348229074,-0.249999867055174,0.249978252158684,0.25,-0.00679219036053579,0.568539676696302,0.574490247704473,0.04,0.04544046375799,271.338378028119,0.631701426582061,0.315612389445265
9241,0.249982020534247,0.249999757454956,0.24166009376979,-0.249997392425256,-0.241666535937588,0.249978586317378,0.249999177342702,-0.00320812450604926,0.583768508507734,0.586144065217009,0.04,0.044468985250999,278.621182071554,0.652170981759963,0.313911579144823
9301,0.249903537488468,0.249999175297689,-0.25,-0.25,0.25,0.249998301680335,0.249950640562136,-0.00151561185869608,0.595012254897201,0.597797882729546,0.04,0.0438628875093722,283.992606391547,0.672203114285071,0.310428216408506
9361,0.24990476675067,0.24999860191676,-0.249998920309172,-0.249999999769746,0.241666730657018,0.249998329985663,0.24994897082752,-0.000715657134432681,0.608497898407278,0.609451700242082,0.04,0.0453306322355807,290.409242166025,0.679741604824363,0.313921641956128
9421,0.249977293220567,0.249964772441925,-0.249935218550312,-0.249999986184746,-0.249996160578899,0.25,0.249850456485178,-0.0027577998736713,0.627830924237001,0.621105517754619,0.04,0.0308279129542499,299.660161158924,0.652378851559978,0.337507797716099
9481,0.249977627733509,0.249965273715893,-0.24993629824114,-0.241669385017836,-0.249996215583535,0.25,0.249842925663003,-0.0135316444023158,0.633459641721138,0.632759335267155,0.04,0.0325485891846233,302.294430118046,0.638525131753934,0.347861869100615
9541,0.249997363997057,0.249994848880011,-0.25,0.249836083829817,-0.249999460857028,0.25,0.2493986071547,0.0896914056015631,0.633313281098547,0.644413152779691,0.04,0.0504235240470872,302.154618310873,0.676508168869977,0.328179060834943
9601,0.249986689188557,0.249994908026462,-0.249999912013905,0.241782284862817,-0.241666207918795,0.249999939768075,0.249408629278937,0.0911943491529125,0.652153665718724,0.656066970292228,0.04,0.0445819198870013,311.260568631429,0.712543621656403,0.320972131247876
9661,0.249356875487048,0.24999839766709,-0.24999472083432,-0.233391854190235,0.249995715436934,0.249996386084521,0.249999934608936,0.179868018682525,0.662172588522694,0.667720787804764,0.04,0.0462739183109602,316.02053833827,0.744912437003669,0.31172006602611
9721,0.249367594164869,0.249998424372638,-0.241661475487082,-0.232825191219561,0.24549737410863,0.249995314626153,0.249998806542367,0.176048684993698,0.677577800558421,0.6793746053173,0.04,0.0471868223120795,323.375616851476,0.760961161690888,0.312247848663436
9781,0.249999996156285,0.25,0.25,-0.199392075949798,-0.0199047642613017,0.249932098582441,0.249932250614816,-0.00191516233524471,0.691138910239986,0.691028422829837,0.04,0.0542030450380656,329.7842738469,0.758249541061102,0.319574753140519
9841,0.249999996220346,0.25,0.249991281455048,-0.191902208017301,-0.0237396844143175,0.249928879168754,0.241600046437902,-0.000904390520219522,0.699773597447074,0.702682240342373,0.04,0.052913601363565,333.948691479829,0.773140825698726,0.31737726667817
9901,0.25,0.25,0.249476887302889,0.25,-0.249999973442246,0.249738933761233,-0.000426938030387152,0.25,0.705975982915272,0.71433605785491,0.04,0.0580594094817237,336.825341373931,0.795479033409648,0.311121982519555
9961,0.249988590720297,0.25,0.241152306829214,0.25,-0.249951150298828,0.249734513088809,-0.000201406470974689,0.245979712121055,0.721385781854602,0.725989875367446,0.04,0.0539789426007044,344.285164556829,0.831332672428161,0.30429732614131
10021,0.24931544321783,0.25,-0.249997941117572,0.25,-0.247070584837177,0.249473693415799,-0.000504527020040631,0.00878272726328573,0.746805245261194,0.737643692879982,0.04,0.0358054753780466,356.461559597086,0.801211588921457,0.326903941382216
10081,0.24927813638915,0.24999995737999,-0.249997975430009,0.249867206596793,-0.241305098554145,0.249474656205102,-0.00334875848009304,0.0128030122330579,0.750278917548344,0.749103280100643,0.04,0.0385876802792198,358.022045014135,0.782450920614205,0.336207455120854
10141,0.247077033497008,0.2499974427994,-0.249999999863777,0.242032395807562,0.0988585921447612,0.249531460773932,-0.00242821531157604,0.249999825449616,0.741913984532156,0.749103280100643,0.04,0.0527272635568549,353.936612943451,0.812502540094351,0.320077716052008
10201,0.238792416807438,0.249995864372429,-0.249994794116477,0.242165189210769,0.0931838689290648,0.249539269761033,-0.00114673843620045,0.241666497820145,0.749407619514937,0.749103280100643,0.04,0.0525368742150758,357.562821644038,0.821245798698753,0.3199144605724
10261,-0.249999967877157,0.249902737181119,-0.249687655025784,0.25,-0.241624800797022,0.25,0.25,-0.00239977465681935,0.756625026150216,0.749103280100643,0.04,0.035207911306433,360.898143398699,0.756320012615401,0.350617615595736
10321,-0.241666635079204,0.249904093279925,-0.241359527442021,0.241667133745187,-0.233431121912163,0.25,0.249999992454609,-0.0106081358706503,0.751633340647133,0.749103280100643,0.04,0.0329187099686765,358.58250130488,0.729435071541297,0.361207806720936
10381,0.25,0.249984103109476,0.25,-0.249971975288753,0.249995932294497,0.25,0.249999547276561,-0.0127008531272882,0.737783703625869,0.749103280100643,0.04,0.059199693271431,352.006648298516,0.7792617996665,0.331911389295841
10441,0.249999994185954,0.249984368057652,0.25,-0.24163910903394,0.249995997807654,0.249999998311445,0.249998698156134,-0.00599916592624861,0.746381362673734,0.749103280100643,0.04,0.0566228164482051,356.134016741806,0.810659479815995,0.322797132883105
10501,0.249999651157261,0.25,0.25,0.25,0.249999863083886,0.249999898686717,0.249948600050948,-0.00283352806503056,0.742941006188953,0.749103280100643,0.04,0.070283992004111,354.429070243979,0.839584600601104,0.310184110928648
10561,0.249999247942108,0.25,0.249999171184458,0.249998629427114,0.24166675410666,0.24999960925786,0.249949123202942,-0.00133819371596535,0.745869513145448,0.749103280100643,0.04,0.0690008525010238,355.870599564949,0.8647873845804,0.302369123323882
10621,0.249975458248048,0.25,0.249950271067509,0.249917765626846,-0.249986675549684,0.249982532955273,0.249979989170622,0.25,0.746340780961737,0.749103280100643,0.04,0.0642026683295815,356.039240768402,0.868734750913278,0.301137851903991
10681,0.249975867277248,0.25,0.24995109988305,0.249918932629875,-0.247280174984503,0.249982267658435,0.249980066537616,0.25,0.749867676249688,0.749103280100643,0.04,0.0656505057265099,357.771699705904,0.868979165962448,0.302518052757388
10741,0.25,0.25,0.25,0.249987785808579,-0.0875966416387748,0.249966615145049,0.24998463119026,0.25,0.748076058113348,0.749103280100643,0.04,0.0709881934233674,356.895110523973,0.87145846790217,0.300918286486695
10801,0.249998991032285,0.249999657372753,0.248875812878973,0.249987989378436,-0.0819700309447952,0.249966464845039,0.249984800448686,0.249999990614296,0.749009596622106,0.749103280100643,0.04,0.0711880958119487,357.356074812921,0.873618502198776,0.300561965569329
10861,0.24993946193711,0.24997944236518,0.182548772738396,0.25,0.25,0.249957597144448,0.249994786695838,0.249999436857776,0.745482847857337,0.749103280100643,0.04,0.0770428610716631,355.653361958228,0.889311966117492,0.29385119330339
10921,0.249940426749095,0.249979776606373,0.183672959725355,0.24166670712007,0.241666684319277,0.249958303858707,0.242010407545097,0.241666112910146,0.747826577866667,0.749103280100643,0.04,0.0758656632700241,356.799073158424,0.901056149954525,0.29095547820618
10981,0.249997350656191,0.249999496836757,0.249999991955945,-0.249997572795829,-0.249998940843417,0.25,-1.073745399514e-05,-1.073745399514e-05,0.767891300119755,0.749103280100643,0.04,0.0487082441088474,366.32791024298,0.792006230392487,0.339856896139052
11041,0.249996418644145,0.249999505222811,0.241666665494769,-0.249997613249232,-0.241665625175265,0.24999999951621,-5.19755641410861e-06,-5.19755641410861e-06,0.753825948766705,0.749103280100643,0.04,0.0502245284683213,359.595367123234,0.741197896037009,0.356479521533395
11101,0.249941429933458,0.25,-0.249999595714623,-0.25,0.249999999245703,0.249999970972595,0.249999865686144,0.249999096134166,0.733724136538437,0.749103280100643,0.04,0.0563507184859406,349.948784147339,0.779791042649309,0.329747053115473
11161,0.249942406101234,0.241666835232438,-0.249999497047212,-0.249999731482233,0.249999995867843,0.249999971456385,0.24999986710415,0.244700853539116,0.748570909975868,0.749103280100643,0.04,0.0505568580052955,357.180912650376,0.802274960896668,0.327129478174099
11221,0.25,-0.249989886053715,-0.24999367566995,-0.249983888933959,0.249999796574086,0.25,0.249999950766504,-0.00151019783578955,0.761300748943411,0.749103280100643,0.04,0.0331024994415772,363.175005268698,0.739507563759463,0.360851078315917
11281,0.249999926193851,-0.249990054618276,-0.24999355738193,-0.249984157451681,0.249999667365695,0.24166667521999,0.241666619393665,-0.00996870087068884,0.751825183601669,0.749103280100643,0.04,0.033266957454555,358.666355642281,0.708738098621089,0.371842937417237
11341,0.249995571631084,-0.249999999927362,-0.249986578388737,-0.249999999997321,0.249992044070652,-0.249999486800585,-0.036356511941575,-0.036356511941575,0.759913300495384,0.749103280100643,0.04,0.0052438130892203,362.525694951641,0.640378280233957,0.415965082989636
11401,0.249995560186818,-0.241673810435895,-0.249986679664574,-0.249999999997366,0.249991451454723,-0.249999495353908,-0.0961603407246521,-0.0961603407246521,0.752718356419399,0.749103280100643,0.04,0.000259253697259521,359.090874041923,0.6098293872075,0.432663934719564
11461,0.249994884975134,0.249571369560639,-0.249992654938984,-0.25,0.249956487114899,-0.25,-0.168970505575669,0.25,0.73142549923158,0.749103280100643,0.04,0.027040495939776,348.909688793336,0.675760675048649,0.379380313180166
