time,bias_percent_1,bias_percent_2,bias_percent_3,bias_percent_4,bias_percent_5,bias_percent_6,bias_percent_8,bias_percent_9,normalized_power,power_SP,SP,CV,total_power_MW,fuel_fraction,thermal_efficiency
57,0,0,0,0,0,0,0,0,0.99984915100619,1,0.04,0.0399035329803236,477.030556706071,1.00005017777369,0.35049278638655
117,-0.0124602302248073,-0.0214483663504828,-0.0200476953839008,0.00459562697340027,0.00648339055930637,0.0315206281249172,0.0103941601448566,0.0168900932612297,0.997094251354033,0.996417961866587,0.04,0.0407206549634624,475.685724757374,0.996788403073711,0.350648364956662
177,-0.025576262040394,-0.0440255940878332,-0.0411505326301124,0.00943312905066352,0.0133080122006814,0.0647002366774617,0.0213353813499688,0.0346691387993663,0.993439400217408,0.992647395410363,0.04,0.0413902747103647,473.940297929995,0.991984153040827,0.351053719740146
237,-0.0386922938559809,-0.0666028218251837,-0.0622533698763239,0.0142706311279268,0.0201326338420565,0.0978798452300058,0.032276602555081,0.0524481843375028,0.989694407329697,0.988876828954139,0.04,0.0417860329994765,472.153337844034,0.986929172058744,0.351521387908488
297,-0.0518083256715676,-0.0891800495625341,-0.0833562071225352,0.0191081332051901,0.0269572554834317,0.13105945378255,0.0432178237601932,0.0702272298756394,0.985932045914706,0.985106262497914,0.04,0.0419987333617652,470.358204067803,0.981795922665584,0.352015815104283
357,-0.0649243574871543,-0.111757277299884,-0.104459044368747,0.0239456352824535,0.0337818771248068,0.164239062335095,0.0541590449653054,0.088006275413776,0.982153009996657,0.98133569604169,0.04,0.0420949194035919,468.555064711224,0.976676041833198,0.352504591682488
417,-0.078040389302741,-0.134334505037235,-0.125561881614958,0.0287831373597169,0.040606498766182,0.197418670887639,0.0651002661704177,0.105785320951913,0.97835122658467,0.977565129585466,0.04,0.0421053906596941,466.741041374514,0.971694770326152,0.352939935330254
477,-0.0911564211183277,-0.156911732774585,-0.14666471886117,0.0336206394369801,0.047431120407557,0.230598279440183,0.0760414873755298,0.123564366490049,0.974526145568585,0.973794563129242,0.04,0.042044276602646,464.915925772637,0.966994268353149,0.353268732113335
537,-0.104272452933914,-0.179488960511936,-0.167767556107381,0.0384581415142436,0.0542557420489321,0.263777887992728,0.0869827085806421,0.141343412028186,0.970682975174442,0.970023996673017,0.04,0.0419241037953625,463.082234095738,0.962695829494736,0.353446516510759
597,-0.117388484749501,-0.202066188249286,-0.188870393353592,0.0432956435915069,0.0610803636903073,0.296957496545272,0.0979239297857542,0.159122457566322,0.966829409441897,0.966253430216793,0.04,0.0417601285800044,461.243648531441,0.958878073383488,0.353444873905823
657,-0.130504516565088,-0.224643415986636,-0.209973230599804,0.0481331456687701,0.0679049853316823,0.330137105097817,0.108865150990866,0.176901503104459,0.96297003480907,0.962482863760569,0.04,0.0415688396452896,459.402665232511,0.95558073208504,0.35324888724847
717,-0.143620548380675,-0.247220643723987,-0.231076067846015,0.0529706477460335,0.0747296069730575,0.363316713650361,0.119806372195979,0.194680548642595,0.959122791311628,0.958712297304345,0.04,0.0413663565030828,457.566598954408,0.952775950386075,0.352872817163817
777,-0.156736580196261,-0.269797871461337,-0.252178905092227,0.0578081498232968,0.0815542286144325,0.396496322202906,0.130747593401091,0.212459594180732,0.955278886624017,0.954941730848121,0.04,0.0411638186566622,455.732795960561,0.950445235750812,0.352320457404939
837,-0.169852612011848,-0.292375099198688,-0.273281742338438,0.0626456519005602,0.0883788502558077,0.42967593075545,0.141688814606203,0.230238639718868,0.951440641667064,0.951171164391896,0.04,0.0409705767304832,453.901740546119,0.948535339135844,0.351611449516891
897,-0.182968643827435,-0.314952326936038,-0.29438457958465,0.0674831539778235,0.0952034718971828,0.462855539307995,0.152630035811315,0.248017685257005,0.947611704671638,0.947400597935672,0.04,0.0407915949318691,452.074011958269,0.946979271045586,0.350771052178357
