time,bias_percent_1,bias_percent_2,bias_percent_3,bias_percent_4,bias_percent_5,bias_percent_6,bias_percent_8,bias_percent_9,normalized_power,power_SP,SP,CV,total_power_MW,fuel_fraction,thermal_efficiency
51,0,0,0,0,0,0,0,0,0.999813287560987,1,0.04,0.0399132216256095,477.014056471665,0.999983365629477,0.350504079780752
111,-0.0224518544246298,-0.00887375888947145,0.00820391978147893,0.0254366058469421,-0.0248159491090458,-0.0260414424113196,-0.0052389363774538,-0.0172646432933296,0.990292378279689,0.983158798263557,0.04,0.0428957845846229,472.332744540595,0.968775791137537,0.358244435040996
171,-0.0488658008065471,-0.0193134752300258,0.0178555901126306,0.0553620244904034,-0.054011183354982,-0.0566784334834601,-0.0114023909391641,-0.0375759883443056,0.971347633354147,0.963345619750095,0.04,0.0457530924726362,463.271099916242,0.920163957591698,0.369934356335727
231,-0.0752797471884646,-0.0297531915705805,0.0275072604437823,0.0852874431338648,-0.0832064176009183,-0.0873154245556009,-0.0175658455008744,-0.0578873333952817,0.951094327405568,0.943532441236633,0.04,0.0458881602120282,453.604787842682,0.872691310500115,0.381919342985923
291,-0.101693693570382,-0.0401929079111347,0.0371589307749341,0.115212861777326,-0.112401651846854,-0.117952415627741,-0.0237293000625849,-0.0781986784462577,0.930768612026833,0.923719262723171,0.04,0.0440258090224907,443.899241671704,0.828857043474888,0.393513328757943
351,-0.128107639952299,-0.0506326242516894,0.0468106011060858,0.145138280420787,-0.141596886092791,-0.148589406699882,-0.0298927546242952,-0.0985100234972337,0.910254087330379,0.903906084209709,0.04,0.040942265946563,434.211493548876,0.789587284607988,0.40406929080326
