time,bias_percent_1,bias_percent_2,bias_percent_3,bias_percent_4,bias_percent_5,bias_percent_6,bias_percent_8,bias_percent_9,normalized_power,power_SP,SP,CV,total_power_MW,fuel_fraction,thermal_efficiency
50,0,0,0,0,0,0,0,0,0.999810448951674,1,0.04,0.0399159218946553,477.012757555412,0.999977058878534,0.350505335939646
110,0,0,0,0,0,0,0,0,0.999978208429441,1,0.04,0.0399085651338616,477.089975843039,1.00028477681275,0.350454231822122
170,0,0,0,0,0,0,0,0,0.999998159657209,1,0.04,0.0399490682056174,477.099171828565,1.000317545653,0.350449506328954
230,0,0,0,0,0,0,0,0,1.00000154416718,1,0.04,0.0399771719675396,477.100751707728,1.00031315957127,0.350452203441032
290,0,0,0,0,0,0,0,0,1.00000296994533,1,0.04,0.0399938393380119,477.101425398328,1.00029786134639,0.350458058005157
350,0,0,0,0,0,0,0,0,1.00000374226755,1,0.04,0.0400032128341858,477.101789321906,1.00027670513219,0.350465737648039
410,0,0,0,0,0,0,0,0,1.00000399042529,1,0.04,0.0400079962603452,477.101904004366,1.00025303700592,0.35047411466154
470,0,0,0,0,0,0,0,0,1.00000384105864,1,0.04,0.040009880065879,477.101830170995,1.00022952252511,0.35048229974877
530,0,0,0,0,0,0,0,0,1.00000343880925,1,0.04,0.0400099813714291,477.101636839471,1.00020797257921,0.350489709027173
590,0,0,0,0,0,0,0,0,1.00000290907692,1,0.04,0.040009063421414,477.1013834799,1.00018939442282,0.350496033119642
650,0,0,0,0,0,0,0,0,1.0000023442984,1,0.04,0.0400076455565936,477.10111404772,1.00017417138082,0.350501169868632
710,0,0,0,0,0,0,0,0,1.0000018053773,1,0.04,0.0400060710442008,477.100857241541,1.00016225838333,0.350505156046503
770,-0.208314603531531,-0.20833333328248,-0.208322435922032,0.208333332726513,0.20832570063057,-0.208312376711612,0.17749912760337,0.201080298826456,0.98694799285212,0.981698327857649,0.04,0.0399155883905448,470.826862352369,0.982322426795457,0.352177697647106
830,-0.249977524237837,-0.249999999938976,-0.249986923106438,0.249999999271816,0.249990840756684,-0.249974852053935,0.212998953124044,0.241296358591748,0.966977453049966,0.959736321286828,0.04,0.0435785900420412,461.16468323317,0.934623740660852,0.362555008211889
890,-0.249995829641913,0.166666666676837,-0.249996577401959,-0.166666666788031,0.116438599218789,-0.249995666868829,0.243815661474149,0.248545974120415,0.946004665148599,0.937774314716007,0.04,0.0472291811845993,451.189040317503,0.887305917703993,0.373628365580876
950,-0.249999490722729,0.25,-0.249998508261064,-0.25,0.0897281509112104,-0.249999829831807,0.24997900314417,0.249995897226148,0.922861185306653,0.915812308145186,0.04,0.0499156881250253,440.116500979036,0.841710546448892,0.384201944912289
1010,-0.249999915120455,0.215336968692781,-0.249999751376844,-0.25,-0.193378083913194,-0.24998063684435,0.249995454399368,0.249996078833293,0.907482259924188,0.893850301574365,0.04,0.0441944297846647,432.807304059385,0.772818107465589,0.411502017085726
1070,-0.25,0.208404362431338,-0.25,-0.25,-0.249999330878075,-0.249976798246858,0.249998744650408,0.249996115154721,0.879300996136147,0.871888295003544,0.04,0.0423120379217693,419.478129565488,0.713782042072901,0.431815653562844
1130,-0.25,-0.17359923416371,-0.249999915657965,-0.249999997894828,-0.249999888479679,-0.249830890242757,0.249843839567801,0.249999352525787,0.865798769227481,0.849926288432723,0.04,0.0295793577522053,413.043951106608,0.63806391889788,0.475649183749138
1190,-0.25,-0.24999995348272,-0.249999898789558,-0.249999997473794,-0.25,-0.249801708641937,0.249812858551279,0.25,0.836288600757535,0.827964281861901,0.04,0.0250538943573706,398.851544320897,0.569405526887732,0.51468827636717
1250,0.0065182264666206,-0.24992332589767,-0.249999983131593,-0.24999833413523,0.166666254566889,-0.249966951440323,0.249968809758547,0.248796315913976,0.790045422680682,0.80600227529108,0.04,0.0322819351614993,376.8126616276,0.613059880542647,0.451624264737563
1310,0.0578218717599447,-0.249908000380661,-0.25,-0.249998001467518,0.249999505480267,-0.25,0.25,0.248555579096771,0.779815100464338,0.784040268720259,0.04,0.0320142381631424,371.8929606309,0.66543866688346,0.410643167510463
1370,0.0744004371443193,0.166681991813515,-0.024385098473103,0.166666981030311,-0.166665624152119,-0.240592702397123,-0.166666666666667,-0.166906111818301,0.760464367800487,0.762078262149438,0.04,0.0310833007660271,362.785377198343,0.68095431097279,0.391459174784023
1430,0.0777161502211941,0.24999999025235,0.0207378818322765,0.249999977529876,-0.249998650078596,-0.238711242876548,-0.25,-0.249998450001316,0.744038257569779,0.740116255578617,0.04,0.0442553582650144,354.812472457702,0.655270468844386,0.397862455034701
1490,-0.19537923437121,0.249999410847452,0.21178916365943,0.249977713415702,0.166666117299839,0.16854681695876,-0.249995123889585,-0.248880844917425,0.72250461447529,0.736455921150147,0.04,0.0642399272683396,344.625296866081,0.70143263613329,0.361007197558791
1550,-0.249998311289691,0.249999294966472,0.24999942002486,0.249973260592867,0.249999070775526,0.249998428925821,-0.249994148667503,-0.248657323900646,0.730245329908086,0.736455921150147,0.04,0.0567722166757071,348.445620643703,0.759404429920232,0.337144873710703
1610,-0.19393827012229,-0.166666784172255,0.249950002972389,0.249992127603766,0.249999845129254,-0.165993841494044,0.166667437915009,0.166802943919717,0.726441129983484,0.736455921150147,0.04,0.051038797432624,346.602126189646,0.812856181131455,0.313308506405205
1670,-0.18272626188881,-0.25,0.249940119561895,0.249995901005946,0.25,-0.249192295578017,0.249999755231511,0.24989499748379,0.736350676136617,0.736455921150147,0.04,0.0517260842592962,351.349265834542,0.828944800709624,0.31143549943551
1730,-0.238420218205535,0.165567384973153,0.249988537119488,-0.166667349832342,-0.166666657273205,-0.249854670735055,0.249991751300869,0.249982499580632,0.745794152469725,0.736455921150147,0.04,0.0473290509751724,355.8952807556,0.793807774659991,0.329428794752894
1790,-0.24955900946888,0.248680861967784,0.249998220631007,-0.25,-0.249999988727846,-0.249987145766463,0.249990150514741,0.25,0.740815719413667,0.736455921150147,0.04,0.0497184471956331,353.420633823443,0.752615491160901,0.345043161542253
1850,-0.249926501578147,0.249779681608772,0.249999697115128,-0.249993780861818,-0.249935919081923,0.166389870012491,0.249810179743887,0.249972138880698,0.733448623706313,0.736455921150147,0.04,0.0584148375390664,349.907914637636,0.758179165524691,0.339106876230838
1910,-0.25,0.24999944553697,0.249999992411952,-0.249992537034182,-0.249923105152738,0.249665273168282,0.249774185589717,0.249966566656837,0.736884659428338,0.736455921150147,0.04,0.0563876002658951,351.584791574607,0.764486605585357,0.337920762343241
1970,0.166662273860987,0.249999907105427,0.0146062295965589,-0.249998723418027,-0.249987184192123,-0.166722454471953,0.249954673273772,0.0814502437043821,0.745645334350071,0.736455921150147,0.04,0.0449762829924015,355.789359046526,0.724752250943351,0.360709897006912
2030,0.249994728633185,0.249999999419119,-0.0324725229665197,-0.249999960694796,-0.25,-0.25,0.249990770810583,0.0477469791138911,0.740352358304267,0.736455921150147,0.04,0.0441173234576253,353.193796361879,0.688001074185975,0.377206030077896
2090,0.249999102009736,0.249999916990937,-0.21374542049442,-0.249999993449133,-0.25,-0.25,0.249998461801764,-0.172471959284656,0.746919143352308,0.736455921150147,0.04,0.0284272981556716,356.275762003764,0.640936837085053,0.408437605127592
2150,0.249999976685046,0.2499999005053,-0.25,-0.25,-0.25,-0.25,0.25,-0.183658725085438,0.739134286046867,0.736455921150147,0.04,0.0239479456504884,352.623805979975,0.615290646064458,0.421100727864856
2210,0.249999971397377,-0.166666683249117,-0.219598600984645,-0.249999936985387,-0.249954738463592,-0.249999839353219,0.249993492428952,-0.216412723888508,0.746735758813281,0.736455921150147,0.04,0.00675586590191849,356.277356264769,0.572393349779411,0.457349615088839
2270,0.249999970339843,-0.25,-0.213518321181574,-0.249999924382465,-0.249945686156311,-0.249999807223863,0.249992190914743,-0.25,0.736731557887598,0.736455921150147,0.04,0.00222631013376711,351.506720556841,0.541185334922671,0.477245991754675
2330,0.249999969947687,-0.25,-0.243885522653868,-0.24999950163304,-0.249990947692718,0.166646200688314,0.249998698370348,-0.25,0.723748517280166,0.736455921150147,0.04,0.0127759464277116,345.299414374251,0.59140918030263,0.429005101267906
2390,0.249999969869255,-0.25,-0.249958962948327,-0.249999417083155,-0.25,0.249975402270749,0.249999999861469,-0.25,0.728063565520356,0.736455921150147,0.04,0.0146636310655115,347.358316842041,0.650734592619547,0.392218869726475
2450,0.249988720632354,-0.25,-0.249992871873013,-0.249959141068481,-0.25,0.249989188212594,0.249999769075039,-0.241338397287089,0.728647676027426,0.736455921150147,0.04,0.0186387871241696,347.64378661706,0.698533868894163,0.365680397164867
2510,0.249986470784974,-0.25,-0.24999965365795,-0.249951085865546,-0.25,0.249991945400963,0.249999722917753,-0.239606076744507,0.730040317932305,0.736455921150147,0.04,0.0234013196362341,348.315270764646,0.740223409719584,0.345751741110358
2570,0.249997086258358,0.166666282646256,-0.249999437431215,0.166674807502826,-0.0595377054009355,-0.166665817579617,0.249998812685415,0.0554809075411604,0.711800652983862,0.736455921150147,0.04,0.0476163759520637,339.593883909584,0.85214931783955,0.292818718472124
2630,0.249999209353035,0.249999539175507,-0.249999394185868,0.249999986176501,-0.0214452464811226,-0.249997370175733,0.249998630638947,0.114498304398294,0.731525734286309,0.736455921150147,0.04,0.0554194157695272,349.115114052852,0.9255976854187,0.277141183504329
2690,0.211440030220586,0.249857064604941,-0.249840226971897,0.249999529901147,0.204727767421406,-0.249672209775391,-0.165842498657475,0.227404159005033,0.752319542539727,0.751254680197757,0.04,0.0597150868343752,359.103992881683,0.930040791232648,0.283708869617809
2750,0.203728194394096,0.249828569690827,-0.249808393529103,0.249999438646076,0.249962370201912,-0.249607177695323,-0.24901072451676,0.24998532992638,0.768599770953302,0.76901319105489,0.04,0.0617037182862719,366.830029337055,0.928246934305562,0.290372867433111
2810,0.242275383138958,-0.165633282099458,-0.249910106367941,0.249715840782978,0.249900700865218,0.166611798319069,0.166816985228607,0.249997468312709,0.775636453559485,0.786771701912023,0.04,0.0621811689336254,370.16950801944,0.974958316149476,0.278977559005507
2870,0.24998482088793,-0.248725652457514,-0.249930448935708,0.249659121210359,0.249888366997879,0.249855593521947,0.249982527177681,0.249999895989975,0.801205821987732,0.804530212769156,0.04,0.0586014686636955,382.43164528028,1.0126127810931,0.277501345675538
2930,0.249996758653037,-0.155149345494699,-0.226887736708398,0.24994280034534,0.249975786104505,0.24968773897663,0.249976400416224,0.249999545679577,0.819741160003138,0.822288723626289,0.04,0.0614947276889176,391.238502762493,1.02813238405144,0.279606475887319
2990,0.249999146206058,-0.136434084102136,-0.222279194262935,0.249999536172336,0.24999326992583,0.249654168067566,0.249975175063933,0.249999475617498,0.838619176235923,0.840047234483421,0.04,0.0606397212240974,400.252901087625,1.04043260665404,0.282667065553248
3050,-0.149065751571364,0.184210198652632,-0.243796325228537,0.249991032647689,0.249923298827362,0.249911408235371,0.249995695806646,0.249967886815218,0.858126941128201,0.857805745340554,0.04,0.0573148044042968,409.562929920012,1.0437484699666,0.288323117805817
3110,-0.228878731126848,0.248339055203586,-0.248099751421657,0.249989331942759,0.249909304607669,0.249962856268932,0.249999799955189,0.249961569054762,0.875136070893176,0.875564256197687,0.04,0.0545575798225842,417.657937663516,1.04321521871434,0.294172114296601
3170,0.170184938750831,-0.166844539005857,-0.24968329190361,-0.166668444676207,-0.166674007762621,0.249979702040762,0.249999966659198,-0.166673071824206,0.905735024487309,0.878524008007209,0.04,0.0332520091322617,432.264026795788,0.939644396376149,0.338018323161224
3230,0.249997672726366,-0.249881257847746,-0.25,-0.25,-0.249990670236679,0.249983071195128,0.25,-0.206991846496357,0.888695103070891,0.878524008007209,0.04,0.0334163028236225,423.913002515872,0.837791737470366,0.371787976805599
3290,0.249987743855137,-0.0426223629716321,-0.25,0.166622992582988,-0.249998207054717,0.24999706049707,0.249979185624524,-0.0525407291745278,0.869524379839612,0.878524008007209,0.04,0.0468594737185178,414.757687355034,0.850499457055468,0.358323325325158
3350,0.249985758080891,-0.0011705839964095,-0.25,0.249947591099585,-0.249999714418324,0.249999858357458,0.249975022749429,-0.0130488750094334,0.876143162086867,0.878524008007209,0.04,0.0431757106841211,418.044137115084,0.884751328594802,0.347180712285175
3410,0.24999762246903,0.207785016915979,-0.25,-0.166641767405034,-0.249999952323581,0.249999432971774,0.249988816531851,-0.0351993301698367,0.882063124518268,0.878524008007209,0.04,0.0387421637579528,420.861743200476,0.874784422226827,0.353502984923067
3470,0.249999995346658,0.249576137098456,-0.25,-0.249959639105958,-0.249999999904632,0.249999347894638,0.249991575288336,-0.0396294212019173,0.88054645035814,0.878524008007209,0.04,0.039591997747678,420.097783878498,0.857533957523489,0.359959583067715
3530,0.249962594850067,0.249929356183076,-0.25,-0.249993273184326,-0.249943386423519,-0.166666754001933,0.249998595881389,0.183077430460197,0.881137231315786,0.878524008007209,0.04,0.0333372383231038,420.440322026001,0.846578916069379,0.364914892866576
3590,0.249955114750749,0.25,-0.25,-0.25,-0.249932063727296,-0.249999974381247,0.25,0.22761880079262,0.880614415240192,0.878524008007209,0.04,0.0336957406167008,420.132199979877,0.828957178515388,0.372399035711436
3650,0.249992484294986,0.249999999852216,-0.249704766779968,-0.249998109203835,-0.249987025071267,-0.248889271833207,0.24999952433339,-0.170394362785417,0.8887654987969,0.878524008007209,0.04,0.024731044452464,424.063321310102,0.784149481032053,0.397362177958741
3710,0.249999958203834,0.249999999822659,-0.249645720135962,-0.249997731044602,-0.249998017340061,-0.248667131323599,0.249999429200068,-0.248325757627095,0.881009656182602,0.878524008007209,0.04,0.0236388008899314,420.306331910811,0.754640716068647,0.409242166806796
3770,-0.166666643901329,0.24999738396362,0.166725429211792,0.166667013728277,0.166666995271795,-0.249777739069254,0.249999305166434,-0.249969260252602,0.863880807207206,0.878524008007209,0.04,0.0443161362642412,412.097146140378,0.810568655427764,0.373563536004702
3830,-0.249999964322362,0.249996860791813,0.249999659081343,0.249999962682852,0.249999997794166,-0.249999860618385,0.249999280359707,-0.249963713202918,0.871961213635615,0.878524008007209,0.04,0.0418361476828606,416.056365454091,0.869735177893329,0.351495533674831
3890,-0.249999994053727,-0.166635983497848,0.171363964832787,0.249999993764347,0.249995439576794,0.166666686604788,-0.166666713898018,0.00746269312708614,0.879184106982225,0.878524008007209,0.04,0.0360955403539219,419.506707836181,0.882262995103994,0.349377973827845
3950,-0.25,-0.24996255235578,0.155636825983076,0.249999999980646,0.24999452793332,0.249999996049422,-0.249999912749563,0.0589479743930869,0.877818773662167,0.878524008007209,0.04,0.0371828299800089,418.794571664935,0.878393675041669,0.350321280917246
4010,-0.249998331769389,-0.249962545417146,0.234214296248732,0.249998923844717,-0.166658684083911,0.2493496022165,-0.249999526922777,0.217920390810451,0.878993713316826,0.878524008007209,0.04,0.0338614083111362,419.382838624146,0.879849490470347,0.350232903338763
4070,-0.249997998123266,-0.249962544029419,0.249929790301864,0.249998708617531,-0.249989326487358,0.249219523449916,-0.24999944975742,0.249714874093924,0.878834469679121,0.878524008007209,0.04,0.0346703509753412,419.288251638409,0.876247164968599,0.351593424394557
4130,-0.249999664862484,0.117765755583634,-0.166678349862045,-0.165633227379029,-0.0820341913569613,0.249835642468876,-0.249791036743116,0.249952322215367,0.883216152219759,0.878524008007209,0.04,0.0281299726009701,421.430052076212,0.859958392584939,0.360083099994952
4190,-0.249999998210328,0.191311415506244,-0.249999977894827,-0.248759614578341,-0.0484431643308819,0.249958866272668,-0.249749354140256,0.249999811839656,0.87998058475729,0.878524008007209,0.04,0.0291704483794596,419.820968039288,0.840894870501863,0.366840349652073
4250,-0.249999999701721,0.240218218276497,0.166237282028792,-0.249792352051872,-0.216407194055147,0.249922615702839,-0.249958058200862,-0.116618653634848,0.882132231736537,0.878524008007209,0.04,0.0304378849067123,420.898360221298,0.825068161236117,0.374836679248903
4310,-0.25,0.249999578830547,0.249484734013516,-0.249998899546578,-0.25,0.249915365588873,-0.249999799012983,-0.189942346729748,0.877844299892287,0.878524008007209,0.04,0.0313099509754534,418.803225372306,0.819599868098413,0.375459255058776
4370,0.166658510738666,0.249999929722502,0.249914122335586,0.166666773681418,-0.25,0.0333864310592933,0.166661607680781,0.0966579772243635,0.853489382694924,0.878524008007209,0.04,0.0588868856259729,407.114849156465,0.917426689972391,0.326062045643318
4430,0.249990212886399,0.249999999900893,0.25,0.249999908327017,-0.25,-0.00991935584662269,0.249993889019533,0.153978042015186,0.871491424717773,0.878524008007209,0.04,0.0592757828201212,415.892195134333,1.0056856843905,0.303859751531834
4490,0.2499983688144,0.249999999983482,-0.0433149485503141,-0.166520774580485,-0.249970736917722,0.206679944636211,0.249998981503256,-0.182670326330802,0.892743603814173,0.878524008007209,0.04,0.0480363043494776,426.034477116687,0.962977309414343,0.32507484817364
4550,0.25,0.25,-0.101977938260377,-0.249824911161986,-0.249964884301267,0.249999804732778,0.25,-0.25,0.88487896525803,0.878524008007209,0.04,0.0513337656666389,422.127386217923,0.900888733779009,0.344292093232432
4610,0.25,0.178983518413887,-0.225326295694754,-0.249968319053614,-0.249994145737327,-0.166666691338406,0.249038264196109,-0.249997580522196,0.890719100685806,0.878524008007209,0.04,0.0344392004209026,425.000890104894,0.844107989582888,0.369952958717015
4670,0.25,0.164780222096665,-0.249995967181629,-0.24999700063194,-0.24999999802454,-0.249999990552643,0.248845917035331,-0.249997096626635,0.883781572387675,0.878524008007209,0.04,0.0303683214572644,421.61427344653,0.794095506871129,0.390119126151062
4730,0.249856165623083,0.235796703682777,-0.249986706718581,-0.249999345566021,0.124646071162437,-0.249999677518333,-0.16685901171413,-0.249999516104439,0.88270635486362,0.878524008007209,0.04,0.0291913935801932,421.138478305108,0.768743340667074,0.402529981374668
4790,0.249827398747699,0.25,-0.249984854625972,-0.249999814552838,0.199575284999832,-0.249999614911471,-0.249999997464022,-0.25,0.877984306074383,0.878524008007209,0.04,0.0267270444113107,418.867222444017,0.762429695892882,0.403674438524382
4850,0.249971233124617,-0.166666666666667,-0.249997286896197,-0.249907248430256,-0.175070785833361,-0.249999637813712,0.166506508164548,-0.249968748967366,0.887654335804859,0.878524008007209,0.04,0.013506521260013,423.607023570659,0.743881919847862,0.418421339350382
4910,0.25,-0.25,-0.249999773350242,-0.249888735205739,-0.25,-0.24999964239416,0.249807809290262,-0.249962498760839,0.879038642013545,0.878524008007209,0.04,0.013310754564089,419.3028489088,0.716424587846122,0.430043122878393
4970,0.24999838556077,0.166666666666667,0.146560767558545,0.166549106661857,0.166666666666667,-0.249973489265389,0.249967949921269,-0.249993553929467,0.843044902188338,0.878524008007209,0.04,0.0485427467026385,402.320600969342,0.877796102007379,0.336769924587048
5030,0.249998062672925,0.25,0.225872875740303,0.249836675035377,0.25,-0.249968258639635,0.249999978047471,-0.249999764963192,0.867713369275413,0.878524008007209,0.04,0.0534528147817263,414.108707549033,0.993227180990635,0.30635180449271
5090,0.249962289328241,0.25,-0.170686830891756,-0.0975685961977346,0.249999999982915,-0.249994062678438,0.249938311392468,-0.249999960827199,0.885616871707066,0.878524008007209,0.04,0.0435857622839798,422.631942961325,0.986429685028675,0.314811697758896
5150,0.249955134659305,0.25,-0.249998772218167,-0.167049650444357,0.249999999979498,-0.249999223486199,0.249925978061467,-0.25,0.883710809569513,0.878524008007209,0.04,0.049287331422477,421.595886689832,0.943751354482227,0.328241473361772
5210,0.249964886112615,0.249893835832339,-0.249999795369695,-0.236174941740726,0.249999999849646,-0.249999870581033,0.24998675970362,-0.25,0.882979790539096,0.878524008007209,0.04,0.0503802248832649,421.268256457419,0.916770379675775,0.337639181273381
5270,0.249966836403277,0.249872602998807,-0.25,-0.25,0.249999999823676,-0.25,0.249998916032051,-0.25,0.881945939694803,0.878524008007209,0.04,0.050291695179726,420.769008372466,0.893764385094233,0.345919763974157
5330,0.24999447273388,0.249978767166468,-0.249899126589976,0.166663877330731,-0.166666666696054,-0.249997145631212,0.249999819338675,-0.249999112959562,0.882352460504787,0.878524008007209,0.04,0.0497110720230424,420.964551876439,0.871246319786577,0.355025253702145
5390,0.25,0.25,-0.249878951907971,0.249996652796877,-0.25,-0.249996574757454,0.25,-0.249998935551474,0.880362435181091,0.878524008007209,0.04,0.0477150617782343,420.011830056119,0.856355872243176,0.360381027392263
5450,0.25,0.249998400219425,-0.249954701357669,-0.0502005000255525,0.166666666666667,-0.249988570764824,0.249999259630564,0.166666844074754,0.866880646891325,0.878524008007209,0.04,0.0538462926669031,413.541517438081,0.899007054547497,0.337995325202789
5510,0.25,0.24999808026331,-0.249969851247609,-0.110239930590038,0.25,-0.249986969966298,0.249999111556676,0.25,0.877351847349821,0.878524008007209,0.04,0.0521852802714141,418.633223870921,0.930570177993656,0.330551580370695
5570,0.249999684495125,-0.0900171526654175,-0.249994975173688,-0.22670665509834,-0.166666666666667,-0.249997828327716,0.249999851926113,-0.166666666666667,0.904904538148645,0.878524008007209,0.04,0.0255116156860149,431.900805173382,0.834890079493185,0.380110082357926
5630,0.24999962139415,-0.158020199251163,-0.249999999958904,-0.25,-0.25,-0.25,0.25,-0.25,0.886130273098688,0.878524008007209,0.04,0.0225816342650421,422.704559739271,0.741871536796747,0.418661379347692
5690,-0.166666729767642,-0.234669818107505,-0.249997091919441,0.166666666666667,-0.0142841409535349,-0.25,0.249999793231102,-0.249999836574417,0.876781267225218,0.878524008007209,0.04,0.0203636228568001,418.276289240913,0.73929206162992,0.41572092019654
5750,-0.25,-0.249999741878773,-0.249996510311548,0.25,0.0328590308557582,-0.25,0.249999751877323,-0.249999803889301,0.877806454768153,0.878524008007209,0.04,0.0170621445479892,418.777786940994,0.738985340657091,0.41639210882371
5810,-0.249936571163543,-0.249999354727498,-0.249999323906499,-0.166666531716425,-0.202854399782458,-0.249999996554092,0.249999645150671,0.166666553569738,0.885680714564765,0.878524008007209,0.04,0.0145485635567691,422.62613902961,0.717311614142341,0.432915532321368
5870,-0.249923885396252,-0.249999277297243,-0.249999886625489,-0.24999983805971,-0.249997085910101,-0.24999999586491,0.249999623805341,0.249999825061546,0.87702445422173,0.878524008007209,0.04,0.0140742089823447,418.348446009475,0.705433624670259,0.435749281621367
5930,0.166679352433958,-0.249999879549541,-0.249999825565235,-0.249999973009952,-0.249989065120987,-0.249999492073855,0.24999993730089,0.249999195733699,0.859430492341605,0.878524008007209,0.04,0.0183483565682761,409.957228870389,0.779439597027666,0.386465526551576
5990,0.25,-0.25,-0.249999813353184,-0.25,-0.249987460963164,-0.249999391315644,0.25,0.24999906986813,0.867813770781111,0.878524008007209,0.04,0.0196950600701754,414.080367860305,0.869153127464834,0.350060428069502
6050,0.249999357322393,-0.124211668654146,-0.249999936787295,-0.249999999153439,0.166639085809828,-0.249999755236062,0.25,-0.145150183757449,0.865227266879124,0.878524008007209,0.04,0.025588213068599,412.831732902346,0.944566353197211,0.321140646643096
6110,0.249999228786871,-0.0990540023849751,-0.249999961474117,-0.249999998984126,0.249964395164426,-0.249999828020145,0.25,-0.224180034482565,0.873609121949666,0.878524008007209,0.04,0.0326488094845123,416.842976671219,0.991935362404266,0.308776181171496
6170,0.249999871464479,0.187635253459515,-0.249999993579019,-0.249999999830688,-0.00542060570893011,-0.249999784668493,-0.165609262167344,-0.245436588518565,0.884989748619055,0.878524008007209,0.04,0.0340131971209498,422.304835204927,0.975407461024975,0.318122697941195
6230,0.25,0.244973104628413,-0.25,-0.25,-0.0564976058836014,-0.249999775998163,-0.248731114600813,-0.249687899325765,0.883545723053401,0.878524008007209,0.04,0.0416223839897931,421.532280077835,0.939163978922981,0.329795014983937
6290,0.249996599171443,0.246989190670574,-0.249944875035352,-0.25,0.198917065675488,-0.24999996266636,-0.249718858141731,-0.0750150618146633,0.874870221875303,0.878524008007209,0.04,0.0535560614720094,417.364840184814,0.943131695381691,0.325160809679287
6350,0.249995919005732,0.247392407879006,-0.249933850042422,-0.25,0.249999999987305,-0.25,-0.249916406849915,-0.040080494312443,0.880404233301378,0.878524008007209,0.04,0.0549323726611975,420.068026854659,0.945751458760277,0.326360269630057
6410,0.249999318874919,0.247658892028263,-0.24998897500707,0.166666666666667,0.249998184671075,-0.25,-0.249986067808319,0.0699593910560214,0.867847895294459,0.866542619433964,0.04,0.0704700295956768,413.921974379049,0.932368034627267,0.326201372109449
6470,0.249999998848757,0.247712188858115,-0.25,0.25,0.249997821607829,-0.25,-0.25,0.0919673681297144,0.857960279306467,0.852164953146069,0.04,0.0742264204568364,409.242133422209,0.907903720864483,0.331203730905932
6530,0.248285173893551,0.249618698143019,0.165735196668072,0.249993461530983,0.249997183667619,-0.248301239328336,0.166666666666667,-0.192957249023607,0.839167789769147,0.837787286858174,0.04,0.0867756407773188,400.223542772813,0.886767498096216,0.331625212571785
6590,0.247942208902511,0.25,0.248882236001687,0.249992153837179,0.249997056079576,-0.247961487194004,0.25,-0.249942172454272,0.827196906645992,0.823409620570279,0.04,0.0845168252053909,394.562065259724,0.871402126011008,0.332698918609976
6650,0.249657034817085,-0.166665943531591,-0.166552041599991,-0.16616307514887,0.249999509346596,-0.247665889612312,0.24999857553582,-0.247766373648298,0.825543861779373,0.809031954282385,0.04,0.0492999289382303,393.88544882218,0.805874686045433,0.359134476883315
6710,0.25,-0.249999132237909,-0.249638897120327,-0.24939412094608,0.25,-0.247606770095973,0.249998290642984,-0.247331213887103,0.805737535125738,0.79465428799449,0.04,0.042904289723148,384.244657953222,0.712324024065476,0.396355530888935
6770,-0.166666666650351,0.166666811293682,-0.249939778086501,-0.249898864726482,-0.166666649923693,-0.249601104349207,-0.166666951559503,0.167109663487751,0.794317230688388,0.780276621706595,0.04,0.0265794492777168,378.96192224198,0.64254070138188,0.433360783632445
6830,-0.249999999980421,0.25,-0.249999954279735,-0.249999813482562,-0.249999979908431,-0.249999971199854,-0.25,0.249997838962722,0.773868746209752,0.7658989554187,0.04,0.0214203551174764,369.123765175924,0.569054008049875,0.476621025592597
6890,0.166658532338864,0.25,-0.010672763049464,0.166666697752906,0.166666638197772,-0.249997215447645,-0.25,0.24999963982712,0.732045608573221,0.751521289130805,0.04,0.0606234460219297,349.226250282005,0.653106155197384,0.392896156503608
6950,0.249990238802721,0.25,0.0371926751965902,0.25,0.249999961819013,-0.249996664297204,-0.25,0.25,0.733580528108686,0.737143622842911,0.04,0.065421786846393,349.962980758216,0.708363520344877,0.363011677332476
7010,0.249998231672023,0.249999986597075,-0.202133176574045,0.249987902938913,0.249999443876874,-0.249999444049534,-0.25,-0.0385498430661031,0.734892653961156,0.722765956555016,0.04,0.0550301573315563,350.572797268101,0.665452347642125,0.38709354446613
7070,0.249999830245884,0.24999998391649,-0.249998346928172,0.249985483526696,0.249999340288446,-0.25,-0.214125827434937,-0.0962598116793237,0.713113447946957,0.708388290267121,0.04,0.0580611108238906,340.06953845406,0.615177283491443,0.406183351068726
7130,0.249999959904075,0.249999649377732,0.166657855702855,-0.166666500866259,-0.166651362188185,0.16666564036226,0.122950502583659,-0.169598451002837,0.689580904566025,0.694010623979226,0.04,0.05950845410057,328.809998233796,0.616385120327328,0.391965230940532
7190,0.249999985835713,0.249999582469981,0.249989096229061,-0.24999689774485,-0.249981502683512,0.249998768434712,0.197540603100391,-0.123535112630312,0.680708936724494,0.679632957691332,0.04,0.0564907268312964,324.681342934838,0.624526008149532,0.381998344500689
7250,0.249999997639285,0.249999930411663,0.249983951078884,-0.249998143464326,-0.249996913598577,0.249968445284204,0.241239789840187,0.166667003574761,0.659501254928032,0.665255291403437,0.04,0.0656773424645203,314.470678364422,0.63269392479261,0.365208746015009
7310,0.25,0.25,0.249982922048849,-0.249998392608221,-0.24999999578159,0.249962380654102,0.249979627188147,0.25,0.653113736489862,0.650877625115542,0.04,0.0656175916564766,311.520747461838,0.638832004846711,0.358306747545252
7370,0.249972312165559,0.249831021995138,-0.166669512991859,0.166653975372782,-0.249892540620301,0.249993730109017,0.249903002340261,0.214759969737895,0.647522643737057,0.648481347400893,0.04,0.0646634468584531,308.943664670451,0.639154364044899,0.355163405457572
7430,0.249966774598671,0.249797226394165,-0.25,0.249984448968982,-0.249871049588044,0.25,0.249887677370684,0.207711963685474,0.647301049531094,0.648481347400893,0.04,0.0614673017860557,308.824539373991,0.644338222218408,0.35217018387463
7490,0.249977809156544,0.249965454561832,-0.249998201864991,0.24998199800493,-0.249597396535282,-0.0895807749909311,-0.00387249917122142,0.242658100497229,0.655311000429767,0.648481347400893,0.04,0.0440629924479772,312.616182652651,0.612071720979896,0.375287256326759
7550,0.249980016068119,0.249999100195366,-0.249997842237989,0.249981507812119,-0.24954266592473,-0.157496929989117,-0.00183224214333536,0.24964732785958,0.649634615870018,0.648481347400893,0.04,0.0413123286347127,309.918577715795,0.594435649852713,0.383087021849021
7610,-0.16666999732198,-0.161707281007957,0.166667026293669,0.24997985928585,-0.249923777654122,-0.234582821664853,0.166650301774004,0.249900252274852,0.646737444435801,0.648481347400893,0.04,0.0241237174541741,308.574222062223,0.592590814855465,0.382612719401588
7670,-0.25,-0.244048557248621,0.25,0.249979529580596,-0.25,-0.25,0.249979758298552,0.249950837157907,0.648989232945218,0.648481347400893,0.04,0.0225733826693251,309.562188681014,0.573016246624551,0.396949856458707
7730,0.166666666666667,0.167403293094965,-0.0998280251842801,-0.166662497637071,-0.249983989949924,-0.125752207022662,0.24999654701449,0.249991806192984,0.653790240495702,0.665818036645106,0.04,0.021587253416754,312.083938709292,0.613711836090592,0.373647082455657
7790,0.25,0.249693663163683,-0.169793630221136,-0.249990903080605,-0.249980787939908,-0.100902648427194,0.249999904757678,0.25,0.677969686311357,0.686622063738161,0.04,0.0205213811291577,323.611974740943,0.677059556921425,0.35119828560686
7850,-0.166661804020862,0.249938773344918,-0.236123386292108,-0.249996630157126,-0.249980788753913,0.191358361270307,0.24999998412628,0.25,0.703500269114009,0.707426090831216,0.04,0.0180247324386103,335.800182287032,0.713855764788657,0.345640904368674
7910,-0.249994164825034,0.249987795381166,-0.249389337506302,-0.24999777557243,-0.249980788916713,0.249810563209807,0.25,0.25,0.720847639519429,0.728230117924271,0.04,0.0179686282447514,344.076501902492,0.743591821471825,0.339997000832962
7970,0.166667639195828,0.249884124458134,0.166768443603578,-0.249999629262072,-0.249796795380225,-0.16669820879065,0.249997558936906,0.249999288482697,0.7283879584193,0.749034145017326,0.04,0.0283533344307394,347.670841313686,0.838128111162759,0.304798297941097
8030,0.25,0.249863390273528,0.249999999825554,-0.25,-0.249759996672927,-0.249999963190741,0.249997070724287,0.249999146179236,0.760111083725565,0.769838172110381,0.04,0.0331853340870532,362.86912668283,0.923619338804209,0.288676664192509
8090,0.25,0.249977231712255,-0.0732770523877872,0.166523589633677,-0.249956749292208,-0.249995919824243,0.249999157300883,0.249999857696539,0.783928391819834,0.790642199203436,0.04,0.0403022610520601,374.203098648533,0.969917861701986,0.283483051156362
8150,0.25,0.25,-0.137932462830455,0.249828307560413,-0.249996099816064,-0.249995111150944,0.249999574616202,0.25,0.808605768460166,0.811446226296491,0.04,0.0452196486369644,385.970833171328,0.995077613005849,0.285004822038855
8210,0.25,-0.166642518612258,0.185344589528257,0.249953826032048,-0.2498559474629,0.166667481474843,0.00624330573447492,0.25,0.829944884475864,0.832250253389546,0.04,0.0491925440735788,396.125957424347,1.00940014873684,0.288353092709941
8270,0.25,-0.249971022334709,0.25,0.249978929726375,-0.249827916992267,0.25,-0.0425079480418704,0.25,0.840245452202575,0.835717591238389,0.04,0.0542180529589376,400.902780991387,0.994691825240778,0.296145539950502
8330,0.249960479971798,-0.249617468883387,0.249911074563346,0.249982559853882,-0.249971319498711,0.249998277483559,0.201248352800228,0.249998958503352,0.836119597773289,0.835717591238389,0.04,0.062170036968869,398.889854962005,0.981979446123779,0.298473150396186
8390,0.249952575966157,-0.249546758193122,0.249893289476016,0.249983285879383,-0.25,0.249997932980271,0.249999612968648,0.249998750204023,0.839450237206229,0.835717591238389,0.04,0.0631290086042285,400.516601145179,0.967855550573554,0.304063754142043
8450,0.249991395719029,-0.249924424107164,-0.166642300417185,-0.0185067452165814,-0.249999612222094,0.249987001358166,0.249999935494775,0.249999780506021,0.849405300959801,0.835717591238389,0.04,0.0475861340673326,405.307857757889,0.908670890799824,0.327742742987165
8510,0.249999159669603,-0.249999957289972,-0.249949418395825,-0.0722047514357743,-0.249999534666513,0.249984815033745,0.25,0.24999998656642,0.842872121183335,0.835717591238389,0.04,0.0451194684352626,402.088811699793,0.845923533571642,0.349257352787347
8570,0.249988628977779,0.166666668999402,0.166675095600005,0.196299208094038,-0.249999922444419,0.249290806560303,0.249999999997842,0.192530027456211,0.827707940864219,0.835717591238389,0.04,0.0695262483131167,394.866221681801,0.863057319811086,0.336174695504241
8630,0.249986522839414,0.249999994257277,0.24999999839917,0.25,-0.25,0.249152004865615,0.24999999999741,0.181036035634169,0.832918147355988,0.835717591238389,0.04,0.066703126908753,397.423447204721,0.894506358633246,0.326456056543731
8690,0.249946940371555,0.0107817066869736,0.249999398719366,0.249994478498226,-0.249998092637222,0.249749194466289,0.249230171481717,0.0314246311118412,0.834171032224936,0.825194701034405,0.04,0.0588456665672855,397.928434473963,0.862341444159876,0.339062992569913
8750,0.249939023877983,-0.0370619508270868,0.249999278783405,0.249993374197871,-0.249997711164666,0.249868632386423,0.249076205778578,0.00150235020737552,0.81804281879942,0.812567232789624,0.04,0.060652138142227,390.160019859252,0.817632443653231,0.35062213106159
8810,-0.166676682359117,0.20210294025116,0.249999877189137,-0.166659067812978,-0.249999435539612,0.249977801433823,0.249845313805887,0.20858358858344,0.805224489133083,0.799939764544843,0.04,0.0500064937818253,384.091908446495,0.789903664866578,0.357285758603864
8870,-0.249999823606537,0.24993591846681,0.249999996870283,-0.249989556215148,-0.249999780414601,0.249999635243303,0.249999135411348,0.249999836258652,0.792518812974732,0.787312296300062,0.04,0.0474020112206366,377.992606602915,0.752478212396592,0.369100005677756
8930,-0.2499993924641,0.249989292515081,-0.164937708423207,-0.249998232966711,-0.249999862063372,-0.166666235033782,0.249999855901891,0.156007413469056,0.795435848026804,0.774684828055281,0.04,0.0171510888564143,379.608814559488,0.669741435128424,0.416470070198572
8990,-0.249999306235612,0.249999967324735,-0.247925249481905,-0.249999968317024,-0.249999878393126,-0.249999409089199,0.25,0.137208928911137,0.770570501002635,0.7620573598105,0.04,0.0133001121225383,367.539227098119,0.583674728886283,0.462687198512535
9050,-0.249982029234701,0.249999410013484,-0.249654208246984,-0.249998943404407,-0.249999948481771,0.166666581531473,0.249999316103869,0.231201446083161,0.742082037318219,0.74942989156572,0.04,0.0257286304159138,353.932212230484,0.599857365040726,0.433537602336613
9110,-0.249978573834519,0.249999298551233,-0.25,-0.249998738421883,-0.2499999624995,0.249999779655608,0.249999179324643,0.249999949517566,0.752017391857856,0.759382758616593,0.04,0.0195615689190809,358.889152661634,0.648288335089176,0.40676801967955
9170,0.166663879646052,0.249998430512338,0.166666266960665,0.166666876929686,-0.249999938456287,0.0151952709962104,0.249999863220774,0.249442117889579,0.741544181711518,0.773851692726597,0.04,0.0401570393025234,353.922240636039,0.792586652351246,0.328107212162611
9230,0.249992370342167,0.249998256904558,0.249999520352798,0.25,-0.249999933647645,-0.031765630735669,0.25,0.249330551563981,0.775298446739023,0.788320626836601,0.04,0.043692170187812,370.110141361581,0.913989808733042,0.297539280423513
9290,0.249997884574033,0.249997171853404,0.193305690719934,-0.0220267453748946,0.16585926894595,-0.213627261282375,0.25,0.249887722165049,0.797802109482472,0.802789560946605,0.04,0.0473994275707229,380.788076056435,0.957738723516023,0.292139962713719
9350,0.249998987420406,0.249996954843174,0.181966924793361,-0.0764320944498737,0.249031109464669,-0.249999587391716,0.25,0.249999156285262,0.815439971695876,0.817258495056609,0.04,0.0523774438627024,389.174026378748,0.973886644528197,0.293623028467707
9410,0.249999829058441,0.18314578025865,0.238362923845222,0.195594649952992,-0.166572694951023,-0.249999847051056,0.0242747998416892,0.249999204485478,0.838385006027354,0.831727429166613,0.04,0.0478325182134461,400.148079562654,0.952775215978484,0.308592212106178
9470,0.249999997386048,0.169775545341745,0.249642123655594,0.249999998833565,-0.249693455834161,-0.249999898982924,-0.020870240189973,0.249999214125521,0.847167429611721,0.846196363276618,0.04,0.0478592420974272,404.262883204904,0.93225576217396,0.318627656228716
9530,0.249999999564341,0.236570891506557,-0.165578515995763,0.247363231576989,-0.249826167988108,0.166224570324573,0.204774858290017,0.249999868594908,0.852841871456444,0.860665297386622,0.04,0.048939528808265,406.990092540525,0.965355264647938,0.309778551073026
9590,0.25,0.24992996073952,-0.248622643926034,0.246835878125674,-0.249852710418897,0.249469464186073,0.249903877986014,0.249999999488786,0.872274371062201,0.875134231496626,0.04,0.0463006810533936,416.2986288327,0.994040561522741,0.307719877385867
9650,0.249945292218874,0.0994365902958061,-0.249770440421157,0.246584793195433,-0.24997538923994,-0.166738437731954,0.249981975916936,0.249997585974191,0.896201987903974,0.88960316560663,0.04,0.0336494823217094,427.742982788807,0.975655953277,0.322137193683168
9710,0.249934350662649,0.0693379162070635,-0.249999999720181,0.246534576209385,-0.249999925004149,-0.249980018115559,0.24999759550312,0.249997103271272,0.905708243434165,0.904072099716634,0.04,0.0328730380706895,432.194793129776,0.951875227469789,0.333621616430116
9770,0.249989058443775,-0.196777013965489,-0.00535590341716477,0.249417090723171,-0.249999987500691,0.166587590590697,0.249993877973497,-0.100920108773844,0.918952709611107,0.918541033826638,0.04,0.0345957030577475,438.293956658159,0.941278205072043,0.342138664552255
9830,0.25,-0.25,0.0435729158434384,0.249993593625928,-0.25,0.249901112331948,0.249993134467572,-0.114377515265343,0.929337056664789,0.933009967936642,0.04,0.0320534515821959,443.502257451041,0.96611314964789,0.337304797140537
9890,0.249999766278236,0.0312345810224007,-0.108329594480596,0.0835294049670305,-0.249999661682042,0.249983518721991,0.249998818543833,0.166675370269047,0.935760836207852,0.947478902046647,0.04,0.035367232893578,446.500158566002,1.01034576319033,0.324717929492527
9950,0.249999719533884,0.0874814972268808,-0.138710096545403,0.0502365672352511,-0.249999594018451,0.25,0.249999955359086,0.25,0.956493782906989,0.961947836156651,0.04,0.0351976685440877,456.492329531719,1.06064471676653,0.316241038650631
10010,0.249999953255647,0.222911007787933,-0.231451682757567,-0.199960572127458,-0.249972709539216,-0.166411974534224,0.249999855398329,0.25,0.984335948815018,0.976416770266655,0.04,0.0256590267492354,469.834947326313,1.04371001600615,0.330765452517275
10070,0.25,0.249996909900144,-0.25,-0.25,-0.249967332643369,-0.249694369441068,0.249999835406178,0.25,0.992190363205164,0.990885704376659,0.04,0.0275462334196163,473.45645059216,1.01788012404072,0.341773259399197
10130,0.25,0.249989183568975,-0.25,-0.24981867771192,-0.249994555170873,-0.249949061573511,0.249999972567696,-0.166666666666667,1.00653902481774,0.993297193394993,0.04,0.0229184420329979,480.273693286743,0.963485467639462,0.366267434788174
10190,0.25,0.249987638302742,-0.25,-0.249782413254304,-0.249999999676373,-0.25,0.25,-0.25,0.998026706893144,0.993297193394993,0.04,0.0249157821793997,476.111786219392,0.915871367684228,0.381969887496986
10250,-0.166661303110557,0.249997931113353,-0.25,-0.249935779289964,-0.249998689773257,-0.25,0.25,0.158597949510601,0.99497342701844,0.993297193394993,0.04,0.0233436655070904,474.718787219669,0.908477509683359,0.383951983400408
10310,-0.249993563732669,0.249999989675475,-0.25,-0.249966452497096,-0.249998427792633,-0.25,0.25,0.240317539412721,0.993839026345574,0.993297193394993,0.04,0.0225754999668474,474.15317826039,0.895114107697118,0.389219813548852
10370,-0.249816383151944,0.249999635314836,-0.25,0.166672257917151,0.0412159722714827,-0.25,0.0054929144784445,-0.16828041009788,0.988635410094107,0.993297193394993,0.04,0.0211112213099049,471.713448549898,0.915285729271038,0.378683378711189
10430,-0.249780947035799,0.249999564442708,-0.25,0.25,0.0994588522843059,-0.25,-0.0434085026258666,-0.25,0.990478574177768,0.993297193394993,0.04,0.0229607929018989,472.560399303975,0.932983170474981,0.372167282446118
10490,-0.24996316772223,0.249988860536377,0.166665790336321,0.25,0.224894068075895,0.166262862795946,-0.210683556553783,-0.25,0.979318087952666,0.993297193394993,0.04,0.0430417536891507,467.178147071523,0.992037973376363,0.34602613324902
10550,-0.249999611859516,0.249986719755111,0.249998948403586,0.25,0.249981111234212,0.249515435355135,-0.244138567339366,-0.25,0.980362230311589,0.983156357342032,0.04,0.047694251934666,467.695309458004,1.03562538686219,0.331829507640875
10610,-0.249993753995149,0.0753678129921282,0.249999824733931,0.249414124860323,0.249996849257368,-0.156790789752949,0.163474742870795,0.166606827932613,0.962700320407874,0.970987354078479,0.04,0.0528689930042568,459.205002182803,1.0729974145752,0.314457973274246
10670,-0.249992582422275,0.0404440316395318,0.25,0.249296949832388,0.249999996861999,-0.238052034774565,0.244997404912827,0.249928193519135,0.962158080698227,0.958818350814926,0.04,0.0568551727535786,458.998164513139,1.07594636031044,0.313454857510844
10730,0.152541926788565,-0.201592596607125,0.25,-0.166783841694602,-0.166659893404833,-0.247998798615797,0.249165431133658,0.249988032253189,0.961841070174049,0.946649347551372,0.04,0.0505856495729097,458.868683645388,1.00788372912036,0.33452814441533
10790,0.233048828630733,-0.249999922256456,0.25,-0.25,-0.249991871458199,-0.249988151384044,0.249999036377824,0.25,0.944114404947508,0.934480344287819,0.04,0.0536695135323514,450.3047272911,0.933230838160509,0.354545600844162
10850,9.82430898919802e-05,-0.167508264238745,0.25,-0.25,-0.249984440728882,-0.249998025230674,0.247939571360287,0.25,0.931358315482326,0.922311341024266,0.04,0.0492171287603636,444.258417403673,0.880026899243275,0.370932079526964
10910,-0.0464918740182761,-0.151009932635203,0.25,-0.25,-0.249982954583018,-0.25,0.247527678356779,0.25,0.916723318921374,0.910142337760713,0.04,0.0463832433816479,437.25468233848,0.832576143241478,0.385891473517823
10970,0.200584687663621,0.156235871930315,0.25,-0.25,-0.24999704874432,0.166666128759999,-0.167069366556052,0.25,0.899548321568586,0.89797333449716,0.04,0.0599091784780388,429.068412830591,0.813661241884923,0.387469561166669
11030,0.25,0.217685032843418,0.25,-0.25,-0.24999986757658,0.249999354511999,-0.249988775538618,0.25,0.887094043410696,0.885804331233606,0.04,0.0589302632983107,423.144091036873,0.807400480617004,0.385082651291471
11090,0.249960255404926,0.244608641413267,0.25,0.166666666666667,0.166665562357462,0.249999892418667,-0.215817746725634,0.249985836451114,0.864263320216073,0.873635327970053,0.04,0.0758243739261242,412.181851218514,0.837781627013984,0.361503669390677
11150,0.249952306485911,0.249993363127236,0.25,0.25,0.24999864834427,0.25,-0.144225551144239,0.249983003741337,0.857447899332095,0.8614663247065,0.04,0.0732571127176585,409.03534001188,0.878550523433548,0.342096606743071
11210,0.249992051080985,0.00780489384072359,-0.166666666666667,0.25,0.249999774724045,-0.0509817464000083,-0.0732031036272332,0.136628664701178,0.863810246791942,0.849297321442947,0.04,0.0471022713246452,412.14322008261,0.833510402537564,0.363322096735548
11270,0.25,-0.0406328000165789,-0.25,0.25,0.25,-0.11117809568001,-0.0346242351312651,0.113957796893146,0.843939635663271,0.837128318179393,0.04,0.0461352870412733,402.4898336654,0.765894633806758,0.386136241283518
11330,0.25,0.201400995573565,-0.25,0.249998542682168,0.249976272782452,-0.226862534655846,-0.0163549891744397,0.227326299482191,0.824683505805893,0.82495931491584,0.04,0.0516489025612629,393.331355860359,0.75424305060108,0.383179201497863
11390,0.25,0.249807754691594,-0.25,0.249998251218602,0.249971527338942,-0.249999422451013,-0.00772524938481529,0.25,0.813974021366562,0.812790311652287,0.04,0.05062073119446,388.260720298797,0.751792661463336,0.379472274242993
11450,0.249999996568957,0.24992099334792,-0.249992270146469,0.249998763798644,0.24999525455649,-0.249999903741836,-0.00364886828973835,0.249966958044236,0.8023863346702,0.800621308388734,0.04,0.0505510941260221,382.723043491824,0.741227832722523,0.379391476221096
11510,0.249999995882749,0.249943641079185,-0.249990724175762,0.249998866314652,0.25,-0.25,-0.00172333133992406,0.249960349653083,0.790270122180445,0.78845230512518,0.04,0.051023623012899,376.941084546897,0.729742422560436,0.379540878047274
11570,-0.166443043032625,0.0423689671011064,0.166668209991249,0.249996204632037,0.249999880371192,-0.249999007862761,0.208079583727644,-0.000813776404191959,0.778219557928441,0.776283301861627,0.04,0.0450938789801593,371.074267183683,0.705576957033075,0.386430258719829
11630,-0.249731650815699,0.000854032305490705,0.249999996824652,0.249995672295514,0.249999856445431,-0.249998809435313,0.249999655396192,-0.000404430462345611,0.765437765844525,0.764114298598074,0.04,0.0407830559767568,365.08844408153,0.697488655203767,0.384605610133647
11690,-0.249931123514389,0.208475672050915,0.249999840630501,0.249928694501911,0.249675539438444,-0.249999728638537,0.249994558234837,0.173589098441477,0.744339188888542,0.751945295334521,0.04,0.0520001231350748,354.91790066489,0.711283468523934,0.366640017731136
11750,-0.249971018054126,0.25,0.24999980939167,0.24991529894319,0.249610676037046,-0.249999912479182,0.249993538802566,0.25,0.738631244586861,0.739776292070968,0.04,0.0522468744636923,352.349238151066,0.738969397460628,0.350349546378717
11810,0.0856013440209659,-0.166659372778165,0.249999968231945,0.249985883157198,-0.166731553910603,-0.225571607474451,-0.000721933108946666,0.25,0.738829841581035,0.727607288807415,0.04,0.0354512174410812,352.375880489393,0.684685702759952,0.378154777122235
11870,0.152715816435984,-0.249991247333798,0.25,0.25,-0.249999999900133,-0.220685946473504,-0.00710706878414475,0.25,0.719988783210471,0.715438285543861,0.04,0.0359764076647618,343.381385630544,0.643634974277577,0.39200516567687
11930,0.233785820077474,0.166668125444367,-0.166666664579661,-0.0405582929853151,-0.249999999983356,0.171319901015708,-0.0139187402745502,0.25,0.704864169636891,0.703269282280308,0.04,0.0429131311840624,336.186207032906,0.628585194619088,0.392979974356184
11990,0.249999820805771,0.25,-0.249999997495594,-0.0986699515823781,-0.25,0.249721070513551,-0.0124224294608474,0.25,0.693994061457847,0.691100279016755,0.04,0.044817387293245,331.01280161211,0.614169617473543,0.396014545666274
12050,-0.0531322971173138,0.249991542819805,0.166666667084068,-0.22477832526373,-0.249997353273371,-0.166710589074818,0.166722483917516,0.249889259717695,0.681159455093646,0.678931275753202,0.04,0.0363781601326842,324.807572033993,0.587920048107556,0.405940658139486
12110,-0.113758720701931,0.249989851383767,0.25,-0.25,-0.249996823928046,-0.249996920992492,0.25,0.249867111661233,0.669115305204516,0.666762272489648,0.04,0.0332320167432862,319.129952026329,0.573895407186306,0.408591656522298
