time,bias_percent_1,bias_percent_2,bias_percent_3,bias_percent_4,bias_percent_5,bias_percent_6,bias_percent_8,bias_percent_9,normalized_power,power_SP,SP,CV,total_power_MW,fuel_fraction,thermal_efficiency
2,0,0,0,0,0,0,0,0,1.00600587760582,1,0.04,0.0415752768438718,479.848838412948,0.991706763940385,0.355529669201865
62,0,0,0,0,0,0,0,0,0.99987653372437,1,0.04,0.039899289686026,477.043175656241,1.000099391477,0.350484810226929
122,0,0,0,0,0,0,0,0,0.999985968858808,1,0.04,0.0399169325458713,477.093548878156,1.00029856958562,0.350452024124374
182,0,0,0,0,0,0,0,0,0.999999240072167,1,0.04,0.0399558205592924,477.099673397252,1.00031804410415,0.350449700125749
242,0,0,0,0,0,0,0,0,1.00000189908576,1,0.04,0.0399812688366911,477.1009192077,1.00031075178796,0.350453170028506
302,0,0,0,0,0,0,0,0,1.00000317078007,1,0.04,0.0399961914028223,477.101520252553,1.00029398370982,0.350459486230829
362,0,0,0,0,0,0,0,0,1.00000383044539,1,0.04,0.0400044716737468,477.101830569184,1.00027207568066,0.35046738997012
422,0,0,0,0,0,0,0,0,1.00000398764528,1,0.04,0.0400085628636639,477.101902079363,1.00024825127627,0.350475790105527
482,0,0,0,0,0,0,0,0,1.00000377640403,1,0.04,0.0400100143175965,477.101798956955,1.00022501252726,0.350483857137443
542,0,0,0,0,0,0,0,0,1.00000333976952,1,0.04,0.0400098597690463,477.101589428321,1.00020399911618,0.350491066571584
602,0,0,0,0,0,0,0,0,1.00000279650248,1,0.04,0.0400088067482231,477.101329693659,1.00018607788478,0.350497155823344
662,0,0,0,0,0,0,0,0,1.00000223296638,1,0.04,0.0400073348163563,477.101061044557,1.00017153097432,0.350502056236732
722,-0.00833333333333326,-0.00833333333333326,0.00833331880218941,0.00833333333333326,-0.00833333333333326,0.00833333333333326,-0.00833332980438172,0.00833301618993198,0.999992414124651,1,0.04,0.0401758307155495,477.092213937405,1.00016962038513,0.350496226253334
782,-0.25,-0.25,0.249999564065684,0.25,-0.25,0.25,-0.249999894131451,0.249990485697958,1.00050922078159,1,0.04,0.0396396513100973,477.350419617917,1.0010806625293,0.350366772527706
842,-0.249999999285078,-0.25,0.249999574593265,0.25,-0.249999999927571,0.25,-0.249999897660403,0.248985853324513,0.999996752680384,1,0.04,0.0394442521675571,477.095006429159,0.99773202303364,0.351354593537956
902,-0.249999978552357,-0.25,0.249999879893118,0.25,-0.249999997827138,0.25,-0.25,0.219851514494608,1.00040689213815,1,0.04,0.0387649937081299,477.293753387734,0.995711318448864,0.35221429877699
962,-0.249999979267278,-0.233333395906409,0.233333318583786,0.233333344352393,-0.2333333312329,0.249997165757364,-0.233333333333333,0.204189802185702,0.999770803936118,1,0.04,0.0384962763876574,476.996202176158,0.996396549872593,0.351752653611301
1022,-0.25,0.249998122807735,-0.249996959386826,-0.249999669428218,0.25,0.249914972720929,0.25,-0.249999854772574,1.00052883239192,1,0.04,0.0390582824776419,477.36017418917,0.997393077392749,0.351669342950827
1082,-0.249999926879515,0.23333152208784,-0.249997060693721,-0.233333057380191,0.233333333453194,0.233251140296898,0.233333333333333,-0.249999797713296,0.99946125007925,1,0.04,0.0384405175124086,476.847187657388,0.999811361667966,0.350441744993197
1142,-0.249997806385442,-0.249999898789113,-0.249999998593695,0.249998692012591,-0.249999996404178,-0.25,-0.25,-0.249998142994223,1.02871107470612,1,0.04,0.00859961039674246,490.828314482465,0.87353627626656,0.412860504731479
1202,-0.249997875094934,-0.249999878887565,-0.249999996027703,0.233332068945504,-0.249999987881346,-0.233335242626573,-0.25,-0.249998157049489,1.00528603279017,1,0.04,0.00991132637341837,479.599219475345,0.819012978714139,0.430271281413179
1262,-0.249999867670201,-0.249999301742689,-0.249999921613928,-0.25,-0.249999740719217,0.249942721202824,-0.25,-0.249998564652214,1.0026390277051,1,0.04,0.0085208051520131,478.357030217273,0.798351572305587,0.440263470111955
1322,-0.237761125055248,-0.24999829603582,-0.23334060168047,-0.244912339692737,-0.233333084934598,0.249943311790679,-0.233402645128438,-0.233332503938282,0.998335406307051,1,0.04,0.00790865523557182,476.30454989564,0.799780185209448,0.437591387956226
1382,0.117162410778382,-0.249969130536625,0.249779676389797,-0.097370190782114,0.249999932819328,0.24996043883847,0.247920646146867,0.249983256765737,0.944304336333127,1,0.04,0.0480187834063985,450.453621313299,1.08641253963559,0.304656177877782
1442,0.121590330419102,-0.249970143688716,0.233120384764591,-0.0857911932470652,0.249905455291484,0.233295140659917,0.247984825397776,0.249949292378362,0.985333032568689,1,0.04,0.0464360680537676,470.229834384592,1.22325526629024,0.282454021335084
1502,0.25,-0.249999525099357,-0.249999072366371,0.249999735269353,0.247165606983997,-0.249998506518121,0.249846023674134,0.248964325144484,1.00442772570878,0.999365882660481,0.04,0.0467548274984384,479.295836695211,1.22401672424663,0.287720615764767
1562,0.236172529662025,-0.249999540661825,-0.249984223081252,0.249946355726946,0.246872972597201,-0.249998531497158,0.233184540895293,0.232332342402191,0.990999610776838,0.980342362474897,0.04,0.0599939408113566,472.799339646913,1.16903176759797,0.297170178147654
1622,-0.164824110139245,-0.249999991973395,-0.249553593812811,0.248398348997156,0.238386575380111,-0.249999255889229,-0.249998459691104,-0.249995157124303,0.998223848780837,0.961318842289313,0.04,0.0486989220545105,476.15819801315,0.980702315306717,0.35675390999391
1682,-0.155953638914951,-0.233334632389227,-0.232901807352384,0.231841611500688,0.222107092209467,-0.249999176982138,-0.249998511034734,-0.233332970718802,0.955023935108293,0.94229532210373,0.04,0.0524173994214326,455.56666873549,0.86876962941543,0.385302642549586
1742,0.101290026589562,0.249960795551636,0.25,-0.248303775896879,-0.249997919739207,-0.249996888676503,-0.25,0.249870435040714,0.91984819274022,0.923271801918146,0.04,0.0663341034951481,438.766352123546,0.873263879345702,0.369183680102249
1802,0.100928138597103,0.249924792700663,0.249937131244561,-0.231693756702876,-0.249997987974278,-0.249570518280649,-0.233333333333333,0.249808505402282,0.909686520615904,0.904248281732562,0.04,0.0620490100757601,433.881581216614,0.851772807011904,0.374284738829746
1862,0.0904333868157737,0.24888071002243,0.248113937336821,0.249996799923209,-0.249999966791361,-0.237205776800875,0.25,0.248012545887765,0.877035769536999,0.885224761546979,0.04,0.0804592188409988,418.417480917201,0.881162605647532,0.348906000289951
1922,0.0957522739219146,0.232251353021682,0.231510139425594,0.233330273271938,-0.233333301231649,-0.220965600549525,0.249999999296566,0.231412127691507,0.870095598604921,0.866201241361395,0.04,0.0764339152038775,415.072807244874,0.872346422038268,0.349614933143566
1982,0.25,-0.25,-0.25,-0.249998999614918,0.25,0.249999510739609,0.249999978896991,-0.25,0.865347076705036,0.847177721175811,0.04,0.0540496921442335,412.843209315532,0.785957532617377,0.385958616670143
2042,0.233333333705345,-0.233333333333333,-0.233333333333333,-0.233332878733651,0.233333343551027,0.249999030158263,0.248297974985513,-0.233333333617781,0.835544595099344,0.828154200990228,0.04,0.0550742682313217,398.614436122202,0.723788978705648,0.404665084031233
2102,-0.249999988839663,0.25,0.25,0.2499846268231,-0.249999693469186,0.249985093299232,0.198939861552645,0.249999991466567,0.799720081838396,0.809130680804644,0.04,0.0755800903872306,381.443919326445,0.759314688753445,0.369116595142595
2162,-0.24999998305227,0.25,0.24530232938463,0.233318488039422,-0.233333062229345,0.233318937907182,0.183975307130191,0.233333862964538,0.792717364462502,0.790107160619061,0.04,0.0673250829624338,378.089566007645,0.755093105990771,0.367916159822526
2222,-0.249999815217891,0.25,0.109069881538898,-0.249999536687233,0.249999243726047,-0.249999568462273,-0.100798730251564,-0.100798730251564,0.791673876742852,0.771083640433477,0.04,0.0379509114872549,377.647009408068,0.617689673090277,0.449231690603848
2282,-0.249999816898967,0.233333333333333,0.0971008854876015,-0.249999552130992,0.233332602638929,-0.249999123029882,-0.0767212763254077,-0.0767212763254077,0.755639518270682,0.752060120247893,0.04,0.0326555069438287,360.314018976094,0.572327009579178,0.462585051370075
2342,-0.24999986565016,-0.25,-0.25,-0.25,-0.249999988887484,-0.249986205490542,-0.0979570756331374,-0.0979570756331374,0.699633891781816,0.73303660006231,0.04,2.25098680541367e-10,333.359169771065,0.628258574261023,0.389877935510982
2402,-0.249999418836713,-0.249999926356711,-0.249999999070814,-0.249999677378331,-0.249998290189101,-0.249986664136199,-0.163160927314173,-0.163160927314173,0.69486173297989,0.714013079876726,0.04,1.6129645252361e-10,331.607681905869,0.805433199564913,0.302516963085324
2462,-0.249986461246732,-0.249997790701337,-0.249999972124421,-0.249990321349919,-0.249949027936003,-0.249999964860244,-0.248837421167445,-0.248837421167445,0.701634316978952,0.694989559691142,0.04,2.34774364780738e-10,334.745632581996,0.811490546416101,0.303100135809612
2522,-0.233320265854476,-0.249997675928251,-0.233333336095784,-0.233329240505507,-0.238516916586454,-0.233333299936685,-0.242202458522553,-0.23469303608113,0.704913293622849,0.675966039505559,0.04,9.9326821548197e-07,336.282055438708,0.676806057985561,0.365085119745139
2582,0.249999400520941,-0.249994347508777,0.249999108734694,0.249842103982441,0.0930143125504734,0.249999982846538,-0.0160739211297005,0.209061571002625,0.630695131371015,0.656942519319975,0.04,0.0913327500275713,300.863198561199,0.702050225588206,0.314887601822327
2642,0.249998063466327,-0.249994523808947,0.233333384742041,0.233180700526437,0.0824614797464691,0.2333333170805,-0.00720545591201403,0.193760140161251,0.6394417264202,0.637918999134391,0.04,0.0813375251532598,305.02590917777,0.735560455841388,0.304700406274763
2702,0.249959288882496,-0.249999636513884,-0.249972611044877,-0.249999999697705,-0.223570671569659,-0.249999990134609,0.249980035400893,-0.249981354238607,0.657200018701281,0.618895478948808,0.04,0.0291485303747042,313.564986763435,0.577661134333598,0.398849535095326
2762,0.244751289170897,-0.249999562664193,-0.249971090389018,-0.233333333663701,-0.224451635936911,-0.233333585924012,0.249980691880989,-0.249981683671583,0.612318282224701,0.599871958763224,0.04,0.0385742475007873,292.111934997598,0.471843899517207,0.454889207883083
2822,0.0937192975345054,-0.249997421023167,-0.249926991369108,0.249999981322425,-0.249999602587218,0.2499921361833,0.249999729803769,-0.249991237227884,0.578201958130838,0.58084843857764,0.04,0.0572578032314219,275.668425668288,0.47643566443377,0.425145354910244
2882,0.0989283697019752,-0.249997503023171,-0.23326683532611,0.239521291254753,-0.249706097707921,0.233325927271319,0.249999737365905,-0.235076793344452,0.564079356571596,0.561824918392057,0.04,0.0469441791901762,269.102191944207,0.466252064916659,0.424083273307887
2942,0.249991462558596,-0.249999881023294,0.249877689920837,-0.0643607207077516,-0.241194456208319,-0.249994131176122,0.24999995666783,0.197442079275095,0.539914925165143,0.543806170165329,0.04,0.0589565643600143,257.450486697127,0.48368522646062,0.391097978179573
3002,0.249958191007742,-0.245947255712819,0.249877699718512,-0.0538820300251431,-0.224824199561512,-0.233327663208368,0.249979895377284,0.199194009954963,0.550405542075588,0.554925808745415,0.04,0.0441644977030803,262.676050126161,0.515113128363601,0.374690373007762
3062,0.248993316032993,-0.12842112170903,0.249877983851074,0.249999999770505,0.249913243195884,0.249999907856512,0.249398117951448,0.249999999671138,0.544455550987374,0.566045447325501,0.04,0.0804944606996857,259.773137521018,0.639256744793318,0.298588857537721
3122,0.249020141294209,-0.132439236916375,0.248598023268638,0.236896052767346,0.233312647657797,0.236909025177712,0.232751514019733,0.249999455775523,0.569808056839356,0.577165085905587,0.04,0.0690854272464636,271.876375815802,0.708849517179721,0.281820188093346
3182,0.249798073869491,-0.248964577929377,0.211479166378001,-0.143118410324249,-0.248104622946723,-0.142726572507505,-0.0610137627953576,0.249983682802695,0.606977269052067,0.588284724485673,0.04,0.017264289549041,289.612195006932,0.628991458554544,0.338319299985376
3242,0.249804804740508,-0.248806019483482,0.212763194165401,-0.14097719911227,-0.248167638617151,-0.137389974044372,-0.0605295622775461,0.233317911043025,0.6016893917232,0.59940436306576,0.04,0.0233596873732904,287.105203833764,0.59073015197084,0.357113774400856
3302,0.25,-0.24420782455252,0.25,-0.0788820739648712,-0.249995093059559,0.0173713813864653,0.249998557186162,-0.0831049186029144,0.602215310395357,0.610524001645846,0.04,0.0343672900201262,287.258252457725,0.591329792093433,0.356941817284514
3362,0.249997981991482,-0.243081920287015,0.249999999894646,-0.0679193382083213,-0.24999525662424,0.0251256553934243,0.249998605279957,-0.109230358713805,0.617668677549048,0.621643640225932,0.04,0.0250002694432569,294.791587435476,0.623059283820444,0.347648524502772
3422,0.249939459744476,-0.21043069658735,0.24999999683938,0.249999998731626,-0.25,0.249999601595231,0.25,-0.133019350872535,0.621722840843398,0.632763278806018,0.04,0.0443396717530001,296.684171442964,0.678740483233085,0.321177637806054
3482,0.233275383597347,-0.211749673367772,0.249995746718866,0.233333332107238,-0.233333333334227,0.249998966055441,0.249999999080689,-0.141606723566741,0.638574686694832,0.643882917386104,0.04,0.0418524796795318,304.773573368879,0.720717315776872,0.310718439335693
3542,-0.249982824669389,-0.25,0.249872493223961,-0.25,0.249999999973179,0.24998053540153,0.249999972420663,0.0939706822544631,0.653883728365994,0.65500255596619,0.04,0.0343137040213151,312.093005460165,0.736158870173209,0.311506535262351
3602,-0.233316730553193,-0.25,0.233210076794955,-0.233333807585379,0.249999999974073,0.233314517554812,0.249999972749272,0.0825049961065327,0.665053498566336,0.666122194546276,0.04,0.035829931497814,317.377715855843,0.732909968739503,0.318185568219206
3662,0.249999998816485,-0.25,-0.249999999646216,0.24998577243862,0.25,-0.25,0.249999982278912,-0.172784720267432,0.677699028703258,0.677241833126362,0.04,0.0288591268306829,323.411406852082,0.720339480692856,0.32989276534169
3722,0.23876680178002,-0.233334960159432,-0.249999995200322,0.237647018473457,0.249998449406812,-0.233338455681858,0.249999982824731,-0.179034074752202,0.686977564149172,0.688361471706449,0.04,0.0299434740695911,327.839234639503,0.728575429720637,0.330629105635778
3782,-0.0869959122774709,0.249951195217037,-0.2499998662694,-0.120176846516269,0.249953482204372,0.249846329544253,0.249999998653477,0.249979114162011,0.685766531308199,0.699481110286535,0.04,0.0479818110240911,327.191980205724,0.800823456562631,0.300206810922165
3842,-0.0924284856617453,0.236733762723433,-0.23333320406042,-0.107837635021036,0.249954903662449,0.249851229147384,0.24999906788312,0.249979795062834,0.707204684534707,0.710600748866621,0.04,0.0470087717749563,337.527103576655,0.833550632252877,0.297530398293015
3902,-0.249973113805702,-0.146571779591079,0.25,0.24999949834072,0.249996125946707,0.249993317638166,0.249972075542749,0.249999541186683,0.717187359088706,0.721720387446707,0.04,0.0562395684655598,342.272033340952,0.864677606563915,0.290851882733223
3962,-0.23337770350296,-0.133354215863228,0.24998565963874,0.246831067149017,0.249996251914133,0.249993540383561,0.249972629391652,0.249989521707302,0.731554741847114,0.732840026026793,0.04,0.05587645954532,349.133093532748,0.875561084220523,0.292994347842449
4022,0.247889195276555,0.249955132244462,0.249569789162206,0.154946562589624,0.249999904969499,0.25,0.249988691009863,0.249698956805255,0.735817208409106,0.743959664606879,0.04,0.0765391092643947,351.146946753654,0.917234841513576,0.281295658678537
4082,0.247959555434003,0.249941213975572,0.249575181354098,0.158067203374437,0.249999908137183,0.239403138848829,0.24998906420663,0.249703775255613,0.752100500722854,0.755079303186965,0.04,0.0723025893753311,358.935128679354,0.945078604830212,0.279063289497587
4142,0.25,0.249537584177762,0.249731554918975,0.248565786133995,0.25,-0.0679058345351349,0.249999886912875,0.24984351031597,0.767844018534333,0.766198941767052,0.04,0.0675282869990312,366.438829419787,0.941845321904322,0.285875263822438
4202,0.25,0.249552998038504,0.24973912442906,0.248613593262862,0.249995622921938,-0.0573089733839638,0.249999845441623,0.249832728446795,0.775650523698819,0.777318580347138,0.04,0.0671383160465475,370.136190568085,0.947137820959868,0.287146183274969
4262,0.25,0.25,0.249958640221522,0.25,0.249868687658126,0.25,0.249998642775314,0.249520054240721,0.780795199927586,0.788438218927224,0.04,0.070465089725249,372.584805076081,0.984611456426986,0.278044898345436
4322,0.244491523760251,0.25,0.249958329817062,0.249702827521315,0.235476138883881,0.233333808405046,0.249998688016137,0.23286938576603,0.795439394274428,0.79955785750731,0.04,0.0671317601535194,379.627405406594,1.01557731077207,0.274662420717178
4382,0.0847457128075239,0.25,0.249949328087715,0.241084825639446,-0.181907775569209,-0.249985747848614,0.25,-0.00152115912775955,0.827229312465933,0.810677496087396,0.04,0.0438126634444657,394.786714433366,0.933200303724683,0.310843889091043
4442,0.0902540371636742,0.233336369656316,0.249951017151458,0.241181476927259,-0.18417337647043,-0.249986222920327,0.233334948067322,-0.000718277466339358,0.82489345018873,0.821797134667482,0.04,0.0456554722967168,393.596076198591,0.893708520648785,0.323600763790125
4502,0.249995443492036,-0.249908910310509,0.25,0.243984364273834,-0.249875802605849,-0.25,-0.00500922708942601,0.24998886066918,0.830482538781994,0.832916773247568,0.04,0.0306547147304259,396.20631496364,0.868847846382914,0.335067527225265
4562,0.249995595375634,-0.233261931613031,0.249999976998775,0.244184885464706,-0.249879942518987,-0.25,-0.0217397396323841,0.249827699011174,0.844099105348684,0.844036411827654,0.04,0.0263708880581317,402.811815244499,0.871228252888678,0.339722981109547
4622,0.25,0.249500450613848,0.249999309963255,0.25,-0.25,-0.25,-0.0421655573280038,0.245154010928971,0.85037496095739,0.85515605040774,0.04,0.0403216152415201,405.785992129137,0.89313015874362,0.333838924521355
4682,0.249942187708482,0.249517101474751,0.233362695944989,0.249988180643648,-0.233333392002601,-0.233333333333333,-0.0535023687739795,0.245271359595352,0.863343053296315,0.865511583473276,0.04,0.0385318223811241,411.917465904639,0.914804735706584,0.330854068244968
4742,0.248265631254451,0.24999997644096,-0.24909911058472,0.249645419309444,0.24999823992198,0.25,-0.0539822639334735,0.248674470920397,0.850533441678561,0.853708056616844,0.04,0.0533527504648583,405.780970722614,0.929858524452785,0.320648694618844
4802,0.248323443545969,0.249999852929024,-0.249096406003036,0.249657238665796,0.249998298591247,0.24999999911096,-0.0356041043643676,0.248657956965527,0.846254797108929,0.841904529760413,0.04,0.0577458709404124,403.673987542651,0.911970726319471,0.325240442300494
4862,0.25,0.249996271082854,-0.2490179731342,0.25,0.25,0.249999973328805,0.249998500943699,0.248179052274309,0.827751368801911,0.830101002903981,0.04,0.0669986763172471,394.769740614362,0.902376030214193,0.321448187952486
4922,0.233333333333333,0.244578550088615,-0.249039138430869,0.249999619243804,0.25,0.249877656946131,0.249337383319916,0.231573170336241,0.82146450025728,0.81829747604755,0.04,0.067746357056957,391.845675534948,0.889560181524193,0.323664001961012
4982,-0.25,0.0874646412556982,-0.249652932034263,0.249988577314107,0.25,0.246330481848592,0.230164972230219,-0.00375811541940536,0.819549320443582,0.806493949191118,0.04,0.0479703851093214,390.895788865908,0.807738904801086,0.355586010730613
5042,-0.242052876471483,0.0832972181056178,-0.249664500966454,0.249963897306994,0.233333333333333,0.246452799120305,0.230826139822545,-0.00177543365574075,0.799830066119074,0.794690422334687,0.04,0.0475692589449832,381.473552966197,0.761164374344709,0.368248220850684
5102,-0.0115862941444849,-0.0375580532467114,-0.25,0.249248177100724,-0.25,0.25,0.25,0.249972970803269,0.783106808976023,0.782886895478255,0.04,0.0417470392641928,373.466346712598,0.734622353141985,0.373544211320216
5162,-0.0103459719040576,-0.0369791609743435,-0.25,0.249271942083039,-0.233333333333333,0.24982085882973,0.249877930935886,0.249973871776493,0.773892629706741,0.771083368621823,0.04,0.039191258334549,369.135231058515,0.720192976392581,0.376609518108177
5222,0.0256233730683309,-0.020191285075673,-0.25,0.249961126570178,0.25,0.244625764891888,0.246337928076583,0.25,0.754105993860201,0.759279841765392,0.04,0.0521165796529529,359.665487769265,0.739336423986522,0.357446739671928
5282,0.0331023136194783,-0.0190176195235944,-0.249995725097296,0.249936133323599,0.248115016564957,0.244804906062159,0.229794222563537,0.233480361733817,0.747963279451347,0.74747631490896,0.04,0.050339775176337,356.78397929368,0.743853872982146,0.352429612750942
5342,0.249991589602752,0.0150186814866869,-0.24987175291889,0.249211329172811,0.193450496948698,0.25,-7.62462662533324e-05,-7.62462662533324e-05,0.741032983295706,0.735672788052529,0.04,0.0552427593750397,353.350978204575,0.681482110614934,0.380983804575991
5402,0.233325206839971,0.00618472543713085,-0.249874563388201,0.249237618200384,0.179109678617387,0.249047807939896,-3.57521972259076e-05,-3.57521972259076e-05,0.725412646012119,0.723869261196097,0.04,0.0534363698668589,345.988741981525,0.66877503091692,0.380133893435144
5462,-0.249999893280677,-0.25,-0.249956066998211,0.25,-0.236774052990639,0.221434238196864,0.243388183425151,-0.0069849599923815,0.722417798504039,0.712065734339666,0.04,0.0175893447181956,344.593573908896,0.613343898948761,0.412817216293334
5522,-0.23333961228231,-0.2333344552188,-0.249957508615581,0.249999819215432,-0.225228307459969,0.222386428140024,0.243608572788744,-0.0403244991179963,0.704768378640139,0.700262207483234,0.04,0.0154022786270333,336.139415949459,0.564369644118022,0.437633411530482
5582,0.249808536670319,0.249966343435997,-0.249999315519328,0.249994576462967,0.10959831292945,0.249999936491668,0.249999864332936,-0.0715782988162117,0.670941605643267,0.688458680626802,0.04,0.0614374145246182,320.020216803675,0.640587816279302,0.367073824818421
5642,0.249813009723902,0.249966634169708,-0.234046951772413,0.249985740252996,0.113293027870735,0.249999060316693,0.249999756203961,-0.0635632535511469,0.674837040229963,0.676655153770371,0.04,0.058456306474763,321.92854641555,0.676955068573817,0.349425279031979
5702,0.249942728277825,0.249975065447337,0.228571596888112,0.249729490163822,0.220439761167987,0.249973651242417,0.249996620463692,0.249999652488344,0.65310795568321,0.664851626913939,0.04,0.0870432506790077,311.521899103415,0.719518109137023,0.318127731846817
5762,0.249913943864996,0.245662634311744,0.22928566024464,0.233218489526612,0.204808201885658,0.242404616916991,0.249950090167287,0.249990283348378,0.652107510679593,0.653048100057508,0.04,0.0855588808000364,311.111118182926,0.740390649690941,0.308751646735652
5822,0.249079195892968,0.120602131379538,0.249993497583953,-0.245600528952485,-0.24850701730189,0.0229026214796385,0.248600711571533,0.249718578289365,0.657478846380166,0.641244573201076,0.04,0.0545222400711123,313.687727633337,0.672510251139318,0.342730927100517
5882,0.249109617280514,0.124915188807768,0.24998704198497,-0.242518413630329,-0.23197361643148,0.013815423201892,0.248643672163083,0.249727895593012,0.636666514167167,0.629441046344645,0.04,0.0636658684110214,303.616294702595,0.611206535110116,0.364999074316699
5942,0.249991837519346,0.249993854226416,0.249799829614465,-0.15313706928781,0.247495008810428,-0.249713326852753,0.24988952931803,0.24999809739879,0.618935546906813,0.617637519488213,0.04,0.0783725211766031,295.161170056444,0.592149275239146,0.366254270717935
6002,0.233328203512684,0.233329704794652,0.23314218416498,-0.156342725759824,0.230912974615097,-0.249722870897522,0.249893023969498,0.233333959978423,0.605931357326866,0.605833992631782,0.04,0.0748885470062263,289.077583301451,0.590208500632988,0.359884905309781
6062,-0.249917182680526,-0.249930628726524,-0.249929533870098,-0.249306763448243,-0.249966017049484,-0.249999648195813,0.249994368862071,-0.0153596877028743,0.614490179258223,0.59403046577535,0.04,7.792272189308e-08,292.854942168564,0.471811267952223,0.456077791670912
6122,-0.23326018667761,-0.24993293445202,-0.233265255031379,-0.238891113809115,-0.249963782594748,-0.249998940977022,0.233327889900002,-0.0622124690391982,0.571615861982717,0.582620389814133,0.04,2.91425884685147e-08,272.654339565816,0.502816216037003,0.398435306156431
6182,0.249792697406943,-0.249999800491392,0.249998831291482,0.0631627257255973,-0.249898983407401,-0.249978431632075,-0.157203268107566,0.249995268093176,0.564937696833731,0.582620389814133,0.04,0.0301570764597773,269.073855655228,0.521928700789174,0.37880438605144
6242,0.249798851963524,-0.249998334375997,0.245304232145883,0.0693906348680774,-0.233235683960487,-0.233312483911005,-0.227178082066322,0.233329227810789,0.577624245482766,0.582620389814133,0.04,0.0198822850131258,275.756967179314,0.568368406959523,0.35649319226931
6302,0.24997733410439,-0.249955817029562,0.109160856923525,0.25,0.25,0.25,-0.25,-0.249985940378447,0.577773662200052,0.582620389814133,0.04,0.0475244010701972,275.658959379558,0.606292938568881,0.334075231897819
6362,0.249966984379812,-0.233297271614718,0.0971888283594075,0.23811736726521,0.244771482716719,0.25,-0.233333414958044,-0.233326607107784,0.5796222636307,0.582620389814133,0.04,0.050000064476504,276.554918966122,0.629753772080223,0.322674975882217
6422,0.249666842367044,0.24980054541575,-0.25,-0.106478982043701,0.0931444815015665,0.25,0.249997551258695,0.249794057741435,0.569446176715523,0.582620389814133,0.04,0.0657735987351451,271.704981709401,0.703412551552737,0.283819456488004
6482,0.233011289166418,0.233140668621121,-0.249984143470744,-0.111263015975578,0.0817065692227928,0.233351238238304,0.249971122773004,0.23313461462218,0.584924760723735,0.582620389814133,0.04,0.0691649261166697,279.112896120824,0.710290481091637,0.288734437051251
6542,-0.249999753651711,-0.249995758423115,-0.249524304122304,-0.25,-0.249992886861645,-0.249462852850875,0.249204696687982,-0.208689573522986,0.632005363044847,0.582620389814133,0.04,0.000140717205886286,301.628727720593,0.505572563251715,0.438373084472283
6602,-0.23338607995507,-0.233357495660284,-0.232874505544445,-0.233337051819209,-0.233328003447652,-0.232814091089179,0.232568762910184,-0.242936687114024,0.588733696191494,0.582620389814133,0.04,4.13543070623514e-06,280.832100779402,0.398904669032771,0.517287882818933
6662,0.248410457247511,0.249152124461805,0.249969653213458,0.249888445423743,0.249953615558135,0.25,-0.249873316645973,-0.249997697540697,0.552746330266049,0.582620389814133,0.04,0.0758252270838768,263.729466998128,0.572089353111666,0.33872672875164
6722,0.248463442005927,0.232513720313078,0.249970664773009,0.233225497242952,0.233321248718686,0.249997094328094,-0.24987753942444,-0.249997773743687,0.573993124438416,0.582620389814133,0.04,0.0629581411077889,273.953979191859,0.66281868279732,0.303694934343295
6782,0.25,-0.25,0.25,-0.25,-0.249017389625327,0.249912829842836,-0.248397060649892,-0.248397060649892,0.59896543097862,0.582620389814133,0.04,0.0127791756348172,285.898052470963,0.612239848044935,0.343118615405909
6842,0.233333333333333,-0.25,0.240311775605816,-0.243391160638097,-0.24905003382891,0.233249068848074,-0.249999993605493,-0.244797028270697,0.586592863344929,0.582620389814133,0.04,0.0260987161219714,279.810131653916,0.56374080144238,0.364702418688245
6902,-0.25,-0.25,-0.0406467318255303,-0.0517348191429113,-0.249996715732801,-0.25,-0.249999808164782,-0.0939113228398793,0.59089824190537,0.582620389814133,0.04,1.0298520351175e-05,281.646662628481,0.505746529927401,0.409191283671342
6962,-0.25,-0.25,-0.0309585074313459,-0.0416772063407959,-0.249967546966682,-0.23333341236042,-0.233333147892622,-0.0965957451240695,0.582812452173325,0.582620389814133,0.04,5.15350898183308e-06,278.069228464901,0.5006457935046,0.408109812189646
7022,-0.25,-0.25,0.25,0.249993564920551,-0.24912165274923,0.249997629187387,0.25,-0.174443991365585,0.554123135269504,0.582620389814133,0.04,0.044100458315916,264.436060676406,0.599467838464065,0.324122714181587
7082,-0.23333467737773,-0.233333374449719,0.249999917951648,0.249993779423199,-0.232484264324255,0.249912879323052,0.249996093411298,-0.176962524986732,0.576672283174062,0.582620389814133,0.04,0.0414016214093672,275.182648234546,0.656853678120004,0.307827266586811
7142,0.249959678668096,0.249998766508432,0.249997538549453,0.25,0.25,0.24745513325735,0.249882802338926,-0.25,0.566419245929496,0.582620389814133,0.04,0.0894969331008262,270.331368663009,0.75217852094167,0.264076765426983
7202,0.249961022712493,0.249998807033292,0.249997620597804,0.25,0.249999087226947,0.230875567180337,0.248367541406225,-0.25,0.582253970055373,0.582620389814133,0.04,0.0894459469916106,277.86564408846,0.781739717706303,0.261172443104912
7262,0.25,0.249999982254214,0.25,0.25,0.249972616808405,-0.249931849053055,0.20442497435791,-0.25,0.595138348796398,0.582620389814133,0.04,0.0809903761186151,283.98812701211,0.726175379806083,0.287351414405076
7322,0.249997219416425,0.249999978166426,0.249999999838874,0.249999683156848,0.246144733374507,-0.233267460972982,0.2059441403706,-0.222835625907959,0.588483125083296,0.582620389814133,0.04,0.0833110527378081,280.704674507293,0.676277277627326,0.304985734119844
7382,0.249916582492753,0.249999859620558,0.249999995166215,0.249990494705449,0.135136113791467,0.249999793349111,0.249999954738613,-0.0682232316717282,0.576204308927929,0.582620389814133,0.04,0.0897189597167651,274.858165042397,0.696623598979714,0.289911295388357
7442,0.249901367379863,0.233333197635215,0.241352949919536,0.249990222803527,0.122298265534903,0.245271583426964,0.233333289667415,-0.0556304254971758,0.582216884988875,0.582620389814133,0.04,0.0826608663749664,277.784311756719,0.706794565280506,0.288781381416667
7502,0.249460129106049,-0.249999999939743,-0.00941136223415799,0.249982337647788,-0.249999333905439,0.108153495684703,-0.0263577210243666,0.25,0.593361448015018,0.582620389814133,0.04,0.0428542751887432,283.12783409065,0.653208139562334,0.318482559720926
7562,0.249064200748474,-0.242225768260142,-0.00076431694128371,0.233316259726195,-0.233337740531328,0.107344157065935,-0.0124786975790895,0.249976907458925,0.58778713769447,0.582620389814133,0.04,0.046593389080293,280.403035893192,0.609090135122164,0.338264032590462
7622,0.237582278378813,-0.0167730495517081,0.249999996552077,-0.25,0.249848467317903,0.0838733371216891,0.249999811239645,0.249307223767742,0.573525755781336,0.582620389814133,0.04,0.070338669725495,273.54387228177,0.630326452377242,0.31887181488137
7682,0.237975498084316,-0.00788127014946065,0.249999996667008,-0.249999698972626,0.249828436958544,0.0893770840643127,0.24999706487617,0.249330316308817,0.581852367229422,0.582620389814133,0.04,0.0646659514369718,277.632445917167,0.649053137937807,0.314300188559387
7742,0.249378869543901,0.249980332515718,0.25,-0.249990969178792,0.249247556537138,0.248985745400396,0.249917420335391,0.25,0.580255441828663,0.582620389814133,0.04,0.0798612138314263,276.823920361221,0.658986218404472,0.308661142184463
7802,0.24917952293629,0.233314321432474,0.233361379167348,-0.249990803192789,0.232605975691213,0.24901955388705,0.233285715444469,0.233808013260176,0.581594984156807,0.582620389814133,0.04,0.0787582957612473,277.487433555251,0.668009884243631,0.305221489853788
7862,0.243398471315557,-0.249999999981605,-0.249158624979555,-0.249985989598707,-0.249999868840604,0.25,-0.00466742449869263,-0.00466742449869263,0.60711673551898,0.582620389814133,0.04,0.0127911022817845,289.698418244184,0.543678720632501,0.391524068536168
7922,0.227092984431397,-0.233335414732942,-0.232556910070722,-0.233325096779166,-0.249999803053761,0.249999960529035,-0.0376809903655261,-0.0266288528268946,0.588264551471885,0.582620389814133,0.04,0.0105881458218809,280.620196588822,0.477605787226484,0.43172184088684
7982,-0.245766135209244,0.249937557478301,0.248892822285423,0.249840794987518,-0.249997895235336,0.249998815871039,-0.0696655286804156,0.249997382206278,0.562099235041928,0.582620389814133,0.04,0.0587698640748803,268.16842106506,0.565106558092538,0.348683955398072
8042,-0.240489910219115,0.249939561069491,0.248784842148728,0.249846101562275,-0.233332419088248,0.249996265945539,-0.0725816223989522,0.241798155658551,0.578178344497942,0.582620389814133,0.04,0.0447630886934911,275.891825249795,0.610895699337539,0.331838247363902
8102,-0.0874793855053844,0.249997665214022,0.245653418184568,0.249999992230225,0.249966389177307,0.249922318106013,-0.0600327095318899,0.00402058577448669,0.578994949612399,0.582620389814133,0.04,0.0639420450607499,276.239483255623,0.632202311479479,0.321058631224952
8162,-0.0762302912152846,0.24998247139288,0.245798020627964,0.24999228805676,0.249967482543872,0.249924826371087,-0.0301942555672447,-0.00444357023433029,0.579913859315083,0.582620389814133,0.04,0.0630998548856408,276.68938263393,0.652296497258713,0.311675111982015
8222,0.249993443197609,0.249541850579778,0.249991491486454,0.249768867026295,0.249999190174264,0.249997566058237,0.249999661258949,-0.0142624249272315,0.572166881484331,0.582620389814133,0.04,0.0806354958619059,272.909597889438,0.686512709570541,0.292095525323856
8282,0.238273884225358,0.232892019918956,0.249991775090985,0.249776571458752,0.2333329877258,0.249997619288319,0.233334314199141,-0.00673679671450264,0.579692912542947,0.582620389814133,0.04,0.0778262846147711,276.606227225796,0.718113245744327,0.283024278517553
8342,-0.101593325969911,-0.249953069244899,0.249999999622382,0.25,-0.249986883279646,0.249999162960694,-0.00324521583061074,0.249999998252923,0.592110945462493,0.582620389814133,0.04,0.0403443222782508,282.531707773906,0.664671753191665,0.312330680970962
8402,-0.0898803314631247,-0.236117439289324,0.249994304347288,0.249999748040382,-0.233329867283405,0.249998383746909,-0.00168144871308407,0.24999821072108,0.587276444672391,0.582620389814133,0.04,0.0447064654833512,280.1622627726,0.620821051822542,0.331587291570249
8462,0.249796509233672,0.165115829422366,0.249829141369565,0.249992441211467,0.249723596607576,0.249975786547138,0.249869271953212,0.249946372297619,0.566627133078711,0.582620389814133,0.04,0.0909983132513754,270.249922586819,0.678016882666853,0.292873276945907
8522,0.248343281854849,0.151279194411598,0.24983364048661,0.249971103117509,0.233066143387323,0.233309926995567,0.233206962888105,0.249948158555185,0.578055650130333,0.582620389814133,0.04,0.082965501939493,275.845474299923,0.726841632951875,0.278856481877719
8582,0.206199687869007,-0.249983220900676,0.249964114880945,0.249352298392725,-0.25,-0.25,-0.000291738527332143,0.249999960024596,0.600547828526997,0.582620389814133,0.04,0.0366241446000481,286.566291319067,0.643250543934407,0.327340406451698
8642,0.198603489431717,-0.237863343322378,0.233299714310029,0.232710732999212,-0.233336298643854,-0.249999969192531,-0.000432175974719768,0.249997305319506,0.588230485449846,0.582620389814133,0.04,0.0441707845980044,280.587698368886,0.586989695818181,0.351230987957873
8702,-0.0216862652497075,0.113613106448275,-0.249967902246537,-0.249894663412664,0.249911040684371,-0.249999075775915,0.249807742273513,0.249920318871877,0.581462672044978,0.582620389814133,0.04,0.0320758478918118,277.460132191008,0.575694099941503,0.354130625539884
8762,-0.0126578021919798,0.101492669566666,-0.24080856161909,-0.249898030237711,0.248530400231728,-0.249995251145238,0.249814150864396,0.249922974909481,0.584853605680866,0.582620389814133,0.04,0.0296706902070901,279.031014781956,0.557979735510817,0.367441942331763
8822,0.249167626482121,-0.25,0.0248123165768667,-0.249995668164077,0.208491827105094,-0.249884336855594,0.25,0.25,0.580112684991965,0.582620389814133,0.04,0.0333323979076883,276.758458718888,0.564658581155322,0.360138579366775
8882,0.239495924161559,-0.25,0.0156588545310188,-0.249995664521098,0.193208770791286,-0.249888192269403,0.248384070956719,0.233333333333333,0.582314510828709,0.582620389814133,0.04,0.032940144142209,277.819671700612,0.569585290887822,0.358392493321447
8942,-0.0409834431347513,-0.25,-0.249791544798566,-0.249995558874724,-0.249999862309152,-0.249999999269874,0.201522128701562,-0.0956962686586574,0.584390715443764,0.582620389814133,0.04,4.62069794766082e-08,278.250306359055,0.477220917912724,0.428421103706017
9002,-0.0479506616969262,-0.248408980557322,-0.249793105985214,-0.249995702786712,-0.233340820791634,-0.233333388422784,0.203103779569022,-0.169321167751333,0.565356541194586,0.582620389814133,0.04,5.22395726188638e-09,269.732883300896,0.570814800057926,0.347210896464489
9062,-0.25,-0.202269416719668,-0.249838380398003,-0.249999876234373,0.249771383216386,0.249998326142805,0.248971654725368,-0.249997035307043,0.578249322592462,0.582620389814133,0.04,0.0203810588309076,274.683791619105,0.539689179180248,0.373976230101265
9122,-0.235870713464498,-0.187193775141587,-0.233179829532086,-0.233333903124374,0.249778999521354,0.249997597395946,0.249005792978358,-0.249987846562655,0.579915400393066,0.582620389814133,0.04,0.0181559942447475,276.693313046332,0.553664575843953,0.367203322498073
9182,0.173878596065052,0.249999830622771,0.249918145579511,0.249979317065594,0.249999872365408,0.249976463737035,0.249995802315081,-0.249721372975393,0.553431174012228,0.582620389814133,0.04,0.0770442286272522,264.181909823447,0.716200317778164,0.271033667851017
9242,0.159751897211144,0.249999836268679,0.249877762035316,0.249980006496741,0.249999747366936,0.246728529610334,0.233329539694867,-0.24435299510002,0.578479317992108,0.582620389814133,0.04,0.0753672328895588,276.100345923706,0.783205446308586,0.259027532344432
9302,-0.249922369552179,0.25,0.248706639253657,0.25,0.249996122411236,0.152538439936011,-0.249992076291323,-0.0886700367141843,0.595815311209468,0.583088406092215,0.04,0.0629195702858778,284.327546431202,0.731068238055116,0.285769383345022
9362,-0.23325993446919,0.233335753167371,0.232084512478851,0.237868851999748,0.240599719040467,0.145053545237337,-0.233325673748279,-0.0940477021570448,0.597947179742747,0.597128894434674,0.04,0.0629843247077359,285.285480005112,0.706303406691978,0.296785749186378
9422,0.249950682937507,-0.249927404978868,-0.249957163990535,-0.113934440007557,-0.0318959787118201,-0.0720084010241956,0.25,-0.200590339440398,0.620044839435393,0.611169382777133,0.04,0.0198033467043324,296.119476869876,0.671350401506919,0.324095049103378
9482,0.242606913394005,-0.233263158146239,-0.249958591843413,-0.118469945681947,-0.0391599597053005,-0.0779414331553019,0.233333333333333,-0.204365142800909,0.627796078521267,0.625209871119593,0.04,0.0205589595569689,299.606467766499,0.642622941476743,0.342570242466859
9542,0.0296375966324467,0.25,-0.249999999576887,-0.249999610239257,-0.249815408516229,-0.249999364957383,-0.237471652097571,0.249999784215402,0.646594355726162,0.639250359462052,0.04,0.0125291871303249,308.600841446186,0.60746125125784,0.373278693852996
9602,0.0203282103366303,0.233333457727321,-0.233346669331266,-0.233333021063831,-0.233154894899021,-0.233332719458803,-0.249962792991949,0.233333146167637,0.652806678800853,0.653290847804511,0.04,0.011730914316281,311.55090415376,0.601013942675963,0.380889626726548
9662,-0.249643992242042,-0.249996268180358,0.249599907791749,0.249998065023512,0.25,0.25,-0.248883789758469,-0.24999935721756,0.654149681315504,0.66733133614697,0.04,0.0315416607429902,312.25243431994,0.698274455960195,0.328574876990845
9722,-0.249655780757307,-0.236792293372494,0.232946577532024,0.246435319625134,0.25,0.249998296705957,-0.240246029012915,-0.233334900196266,0.674551064910354,0.68137182448943,0.04,0.0308836856106922,321.949129902975,0.742491471388706,0.318603441368372
9782,-0.249997647699991,0.146122976055541,-0.25,0.143115703072168,0.25,0.249948901178713,0.0102490326081711,0.249934353421274,0.678741972606658,0.695412312831889,0.04,0.0406075468152892,323.957887253453,0.83562808918158,0.284859169732392
9842,-0.233331251282478,0.138020243806201,-0.249999518096824,0.130012897888788,0.249957476378684,0.233283937806089,0.00524239896177789,0.233269874973898,0.70445677945941,0.709452801174349,0.04,0.0427451389041089,336.257806261287,0.881361751290116,0.280332114095473
9902,0.249994244825402,-0.0969589914246557,-0.249985542904717,-0.249968452429241,0.248724291360512,-0.25,-0.139949976783624,-0.25,0.742631381223121,0.723493289516808,0.04,0.0226658021251577,354.50903317998,0.798308475386357,0.3262956184554
9962,0.249994436463334,-0.102033646699494,-0.249977793641287,-0.233421236424497,0.248766266122872,-0.25,-0.130449177827589,-0.249335484620396,0.740231697931244,0.737533777859267,0.04,0.0294606677091809,353.233550993831,0.764433614913384,0.339528978775514
10022,0.249999993963364,-0.249198649669815,-0.249753065001814,0.246448027713074,0.249983534231307,-0.25,0.145073991897415,-0.230064538611867,0.740435407837216,0.751574266201727,0.04,0.0406318070284312,353.333555112912,0.813923937879941,0.318974332991896
10082,0.249999994164585,-0.23255870061808,-0.233094653806045,0.229899992206878,0.233337460934929,-0.249999865445618,0.131905983331646,-0.214062387324805,0.761813898838603,0.765614754544186,0.04,0.0374933765855149,363.592431560032,0.846790911152215,0.315495611614873
10142,0.25,0.249999821882221,0.24999927087124,-0.249993037472795,-0.24939866466002,-0.249995963368527,-0.249966265075669,0.25,0.776001741437914,0.779655242886645,0.04,0.044839123442911,370.385950313192,0.872278749659077,0.311999493024324
10202,0.233334606896781,0.249976920052359,0.249957094812969,-0.249778256696626,-0.24457246727239,-0.233329431256243,-0.233300896486889,0.249999862662265,0.792776743541676,0.793695731229104,0.04,0.0472646892966772,378.345186897118,0.882444746728406,0.315032505849399
10262,-0.249961793096576,0.249312766986383,0.248733989123092,-0.243549614187732,-0.104612743031108,0.25,0.249994792587728,0.249995879867937,0.79487688145557,0.807736219571564,0.04,0.0571726322075022,379.356359988635,0.948949630720494,0.29373715531528
10322,-0.23329644503002,0.233591726967844,0.232109522818989,-0.243764627048141,-0.092793231794706,0.249998855847941,0.249994966007972,0.233329434078154,0.819315557897199,0.821776707914023,0.04,0.0545846365502192,391.04682297926,0.973121592879339,0.295267963573278
10382,0.249998648900102,-0.222318433569775,-0.25,-0.25,0.249972594060938,0.249965675438214,0.249999995195047,-0.249997493825553,0.847002065445509,0.835817196256482,0.04,0.0431052308781546,404.249029972735,0.922887740494847,0.321850942924137
10442,0.249998577507069,-0.223241152450782,-0.233333338731783,-0.233333717919355,0.233306848209399,0.249965474686775,0.249998947994303,-0.249997557971874,0.850331982733725,0.849857684598941,0.04,0.0430900614738336,405.783830813208,0.908323464377415,0.328253133672923
10502,0.249996507109131,-0.25,0.249999838046518,0.249988462419344,-0.249999781485245,0.249959652895042,0.249968579172725,-0.249999418215204,0.856521416937172,0.863898172941401,0.04,0.0512368931707428,408.728782133431,0.944514766929758,0.317966338072144
10562,0.233330119125821,-0.249805027183694,0.249999843444967,0.249988756979302,-0.24999978876907,0.233297784032933,0.249969626533634,-0.249999418491855,0.874027168850342,0.87793866128386,0.04,0.046591405378637,417.11818057692,0.974481154627274,0.314514267216517
10622,-0.249995132390159,-0.244150815510828,0.25,0.249997299218053,-0.25,-0.24989641296825,0.25,-0.249999426514732,0.904679653535615,0.891979149626319,0.04,0.0244214727583513,431.853919506775,0.928166199767494,0.341873779195574
10682,-0.249992466149968,-0.244345788327134,0.233343964116397,0.243654803101129,-0.249999998930716,-0.249898246625795,0.249999954280718,-0.233332779162921,0.907125170417992,0.906019637968779,0.04,0.0261048831541831,432.848462740785,0.90337699676649,0.352063926347714
10742,-0.249915145184427,-0.25,-0.249681076508106,0.0597224157103135,-0.24999996792149,-0.249951422694592,0.249998628421536,0.249999994039591,0.925978852010017,0.920060126311238,0.04,0.0197352881759392,441.956350076951,0.881564612518663,0.368366311960833
10802,-0.233251431666489,-0.249999005836132,-0.233055356293447,0.0660648546774496,-0.249999715991893,-0.249952372790432,0.249984592275143,0.249999700743994,0.932302580963879,0.934100614653697,0.04,0.0187538870382754,444.90926818392,0.880799289489671,0.371149751021163
10862,0.249996260353714,-0.249970175083955,0.249090529931665,0.249995584724397,-0.249992410033572,-0.249979925569801,0.249577544029741,0.249991195171696,0.917064850876455,0.948141102996157,0.04,0.0374978624164675,437.595487973632,1.03733721004949,0.309961358035387
10922,0.233329719954551,-0.233304502581195,0.238287884045235,0.249995729824943,-0.238839493115537,-0.249959397135208,0.249591623607831,0.233324826549185,0.952598664405532,0.962181591338616,0.04,0.0367034606039469,454.675233105091,1.12331867583183,0.297408238724516
10982,-0.24999995162118,0.249999999998826,-0.0749888466612448,0.249999937740781,0.084595097507473,-0.249364072532022,0.24999993137244,-0.249999863503615,0.982212823531928,0.975754063402993,0.04,0.0352576084517728,468.783456546713,1.1122870051483,0.309677811991763
11042,-0.234635688954553,0.233337960340133,-0.0666670780499365,0.233333276484467,0.073441927591302,-0.239855818438409,0.249999857345421,-0.233333204381713,0.980191868812089,0.975754063402993,0.04,0.043691684396703,467.619897320802,1.08050145743254,0.317996471793114
11102,0.210927928377643,-0.249861189761974,0.174664211678004,-0.24999989994863,-0.24999999997766,0.0358835502763699,0.249997710561867,0.24999991015345,0.973716817488541,0.975754063402993,0.04,0.0472669961869264,464.597555784998,1.08859990267764,0.313590794772651
11162,0.212229389955663,-0.249865792129489,0.160508737956247,-0.23333323682421,-0.249997483895309,0.0263547756002489,0.249997651635558,0.249992863108547,0.979130328222084,0.975754063402993,0.04,0.0495075055809813,467.155500169539,1.07436007102866,0.319496631372272
11222,0.249971775718241,-0.249999260787411,-0.2499999999747,0.249999993783966,-0.249924517507126,-0.249979690007265,0.249995942772606,0.24978849880635,0.982675187430415,0.975754063402993,0.04,0.0469165837686085,468.843256693695,1.03685744523875,0.332248707213278
11282,0.233306074206239,-0.249996472185916,-0.249966687326314,0.233333327387523,-0.249892248341698,-0.233313705973119,0.233329649398451,0.249701437725856,0.979551605453569,0.975754063402993,0.04,0.0472158436566638,467.327161834962,1.00971214841614,0.340077671544226
11342,-0.249999269641795,-0.249915602742584,-0.249000620523118,-0.249999998109299,-0.248956442544299,0.249999831017112,-0.249992858452066,0.24717666639155,0.998234794397961,0.975754063402993,0.04,0.0279442551970058,476.343937940841,0.90512754948615,0.386692309692284
11402,-0.24999929398572,-0.249895254498703,-0.249030244258731,-0.249999714108365,-0.248991224515828,0.233340472738214,-0.233326433279459,0.230604480617856,0.981889398371221,0.975754063402993,0.04,0.0264705945345453,468.420460935,0.846366391848469,0.406660624864467
11462,-0.249999999959553,-0.249305155426147,-0.249889332591505,-0.249991478081282,-0.249999901690158,-0.249780917349838,0.249999896726131,-0.249988906819283,0.989889264189434,0.975754063402993,0.04,0.0130329364623394,472.291559627939,0.767583988006761,0.452104629244775
11522,-0.233333337287615,-0.249327807666529,-0.24989269857198,-0.233325937711577,-0.249999904967153,-0.239390375230031,0.249999766577981,-0.249989276446157,0.977819296889931,0.975754063402993,0.04,0.00925284452758493,466.489302640244,0.743094140599826,0.461267152052457
11582,0.249999880198571,-0.249984722637626,-0.249990312005767,0.249974733009872,-0.25,0.0619353462443937,0.24999599228163,-0.249999995625526,0.941037911454739,0.975754063402993,0.04,0.0278746400050235,448.860228569939,0.908767864392758,0.362921620439838
11642,0.233333217525285,-0.233318565216372,-0.233324766196181,0.233308947323481,-0.233333333333333,0.0682040154384606,0.249996004794186,-0.249999948653668,0.964728523457219,0.975754063402993,0.04,0.0271342280273089,460.331218710251,1.00174657992249,0.337650375279346
11702,-0.25,0.25,0.249976062281824,-0.249998837581867,0.25,0.249995422066402,0.249996367658319,-0.249998586469783,0.958099745941248,0.975754063402993,0.04,0.0458891914746777,457.157870521059,1.111674891934,0.302164250115304
11762,-0.249999853570615,0.248053187093167,0.249976860205763,-0.249996525212233,0.249999385340034,0.233328907997522,0.249996352058163,-0.233334572205313,0.972651095298557,0.975144538107424,0.04,0.0512711515574798,464.077642590511,1.14730301637434,0.297212579691522
11822,-0.249995607118438,0.191595612795001,0.25,-0.249929466492872,0.249981560201021,-0.25,0.249995899653627,0.249921841464324,0.961827225685786,0.956858779240346,0.04,0.0591702172389835,458.804579773513,1.12868868742653,0.298681448205321
11882,-0.249995753547823,0.182686468838389,0.249999572404399,-0.249931290489714,0.233315508194321,-0.23333338973889,0.24999588420365,0.249924431867891,0.949494031755096,0.938573020373269,0.04,0.0690827392065752,452.863268361812,1.06891722580094,0.311298979513962
11942,-0.25,-0.0756787059033708,0.24998717213197,-0.24998418639811,-0.25,0.249998307833312,0.249995436154315,0.249999553571345,0.934756811305639,0.920287261506191,0.04,0.0684246170156223,445.85268082236,0.987276700839502,0.331823523459149
12002,-0.248089603829671,-0.0775523647455662,0.249987599727571,-0.249971435121996,-0.233333333333333,0.249998072966362,0.249872510678507,0.247604773468009,0.912504152944856,0.902001502639114,0.04,0.0706717556911277,435.197412032965,0.916337768353399,0.348967830340629
12062,-0.192688114890128,-0.131888471169233,0.25,-0.249601648114689,0.25,0.24999126182482,0.246307671880091,0.178156150471251,0.887413393926772,0.883715743772036,0.04,0.0765106236704509,423.210496014879,0.883200052738922,0.352088645735044
