time,bias_percent_1,bias_percent_2,bias_percent_3,bias_percent_4,bias_percent_5,bias_percent_6,bias_percent_8,bias_percent_9,normalized_power,power_SP,SP,CV,total_power_MW,fuel_fraction,thermal_efficiency
44,0,0,0,0,0,0,0,0,0.999759363429113,1,0.04,0.0399306678536721,476.989130639387,0.999885678514378,0.350520006442629
104,-0.0218667324257773,-0.0256056096131408,-0.00559405527275203,-0.0252295426138014,0.0146551174615362,-0.0103543994518042,-0.00962611987587559,-0.0229377745157436,0.992911817650007,0.985481423009954,0.04,0.0413260752209784,473.593585970284,0.971916659310245,0.358039928687101
164,-0.0516850039154734,-0.0605223499946965,-0.0132223124628682,-0.0596334643598941,0.0346393685454492,-0.0244740350679008,-0.0227526469793422,-0.054216557946303,0.974613849996431,0.965683363478073,0.04,0.043043475312922,464.831261908835,0.918473463736014,0.371863362081797
224,-0.0815032754051698,-0.0954390903762522,-0.0208505696529847,-0.0940373861059868,0.054623619629362,-0.0385936706839974,-0.0358791740828089,-0.0854953413768624,0.954486707889257,0.945885303946192,0.04,0.0418330408719463,455.223905332083,0.864916144960854,0.386728102802622
284,-0.111321546894866,-0.130355830757808,-0.028478826843101,-0.12844130785208,0.0746078707132749,-0.052713306300094,-0.0490057011862755,-0.116774124807422,0.934151702952729,0.926087244414311,0.04,0.0384587852476769,445.52071326358,0.81453282115853,0.401896281357776
344,-0.141139818384562,-0.165272571139364,-0.0361070840332174,-0.162845229598172,0.0945921217971879,-0.0668329419161905,-0.0621322282897422,-0.148052908237981,0.913820422008108,0.90628918488243,0.04,0.0340096706767637,435.821993884726,0.767298316268357,0.417349189414511
404,-0.170958089874258,-0.200189311520919,-0.0437353412233338,-0.197249151344265,0.114576372881101,-0.0809525775322873,-0.0752587553932089,-0.179331691668541,0.89347465317608,0.886491125350549,0.04,0.029035787607631,426.238517754701,0.723559827256174,0.432845515906006
464,-0.200776361363955,-0.235106051902475,-0.0513635984134501,-0.231653073090358,0.134560623965014,-0.0950722131483839,-0.0883852824966755,-0.2106104750991,0.873584705653847,0.866693065818668,0.04,0.0245702322680863,416.620167569705,0.680710563742258,0.44970992783885
524,-0.230594632853651,-0.270022792284031,-0.0589918556035665,-0.266056994836451,0.154544875048927,-0.10919184876448,-0.101511809600142,-0.24188925852966,0.853254478639312,0.846895006286788,0.04,0.020345718339108,406.925410138065,0.640471210032134,0.466841949215369
584,-0.260412904343347,-0.304939532665586,-0.0666201127936829,-0.300460916582543,0.17452912613284,-0.123311484380577,-0.114638336703609,-0.273168041960219,0.832838347611994,0.827096946754907,0.04,0.0164981310238611,397.184844892283,0.603754817854544,0.483377839190725
644,-0.290231175833043,-0.339856273047142,-0.0742483699837991,-0.334864838328636,0.194513377216753,-0.137431119996674,-0.127764863807076,-0.304446825390778,0.812430230477113,0.807298887223026,0.04,0.013287850443148,387.447928524619,0.570715928708913,0.498824786884149
704,-0.32004944732274,-0.374773013428698,-0.0818766271739156,-0.369268760074729,0.214497628300665,-0.15155075561277,-0.140891390910542,-0.335725608821338,0.791907672401975,0.787500827691145,0.04,0.0108305172921217,377.655284445666,0.541714117691188,0.512247784105362
764,-0.349867718812436,-0.409689753810254,-0.0895048843640319,-0.403672681820822,0.234481879384578,-0.165670391228867,-0.154017918014009,-0.367004392251897,0.771222835599514,0.767702768159264,0.04,0.00905937296945917,367.785296310261,0.517708381746388,0.521991994550331
824,-0.379685990302132,-0.444606494191809,-0.0971331415541483,-0.438076603566914,0.254466130468491,-0.179790026844964,-0.167144445117475,-0.398283175682457,0.750437794410742,0.747904708627383,0.04,0.00800399769031238,357.868615684329,0.499511272503393,0.526420745910082
884,-0.409504261791828,-0.476512719520124,-0.104761398744265,-0.472480525313007,0.274450381552404,-0.19390966246106,-0.180270972220942,-0.429561959113016,0.729529662171854,0.728106649095502,0.04,0.00769012612006063,347.893180385181,0.487551359671483,0.524300437224024
944,-0.417455800855748,-0.464917361855658,-0.106795600661629,-0.464917361855658,0.279779515174781,-0.197674898625353,-0.183771379448533,-0.437902968027832,0.719051645110213,0.722827166553667,0.04,0.00629367553958883,343.148231298945,0.493620529323719,0.510790989544736
1004,-0.417455800855748,-0.470750544880406,-0.106795600661629,-0.470750544880406,0.279779515174781,-0.197674898625353,-0.183771379448533,-0.437902968027832,0.71694058660182,0.722827166553667,0.04,0.00645230925511074,342.096702795805,0.522647394203477,0.480944292504734
1064,-0.417455800855748,-0.488312021788652,-0.106795600661629,-0.481654904445298,0.279779515174781,-0.197674898625353,-0.183771379448533,-0.437902968027832,0.715786381256261,0.722827166553667,0.04,0.00904220192064203,340.961224446203,0.554309153728428,0.451967927752135
1124,-0.417455800855748,-0.48883436534178,-0.106795600661629,-0.481654904445298,0.279779515174781,-0.197674898625353,-0.183771379448533,-0.437902968027832,0.715787915026143,0.722827166553667,0.04,0.0117229744068096,340.719565298591,0.595277384716231,0.420564262556685
1184,-0.417455800855748,-0.48883436534178,-0.106795600661629,-0.481654904445298,0.279779515174781,-0.197674898625353,-0.183771379448533,-0.437902968027832,0.713901047563692,0.722827166553667,0.04,0.0141106828963616,340.223783727371,0.651689782997026,0.383599854842745
1244,-0.417455800855748,-0.48883436534178,-0.106795600661629,-0.481654904445298,0.279779515174781,-0.197674898625353,-0.183771379448533,-0.437902968027832,0.71305520452216,0.722827166553667,0.04,0.0171408177268794,340.130492555198,0.711274732941438,0.351368531056181
1304,-0.417455800855748,-0.48883436534178,-0.106795600661629,-0.481654904445298,0.279779515174781,-0.197674898625353,-0.183771379448533,-0.437902968027832,0.713721499592114,0.722827166553667,0.04,0.0208561880732167,340.522912780615,0.767571673314562,0.325973335863314
1364,-0.417455800855748,-0.48883436534178,-0.106795600661629,-0.481654904445298,0.279779515174781,-0.197674898625353,-0.183771379448533,-0.437902968027832,0.715068761636148,0.722827166553667,0.04,0.0248964474495577,341.171960532991,0.817028939120505,0.306824876400812
1424,-0.417455800855748,-0.48883436534178,-0.106795600661629,-0.481654904445298,0.279779515174781,-0.197674898625353,-0.183771379448533,-0.437902968027832,0.71674513738708,0.722827166553667,0.04,0.0289746994515572,341.973146073717,0.857065188082548,0.293178976668733
1484,-0.417455800855748,-0.48883436534178,-0.106795600661629,-0.481654904445298,0.279779515174781,-0.197674898625353,-0.183771379448533,-0.437902968027832,0.720739535423369,0.722827166553667,0.04,0.0342217953657716,343.888711192643,0.87756036381988,0.287935754104454
1544,-0.417455800855748,-0.48883436534178,-0.106795600661629,-0.481654904445298,0.279779515174781,-0.197674898625353,-0.183771379448533,-0.437902968027832,0.723198674328076,0.722827166553667,0.04,0.0395704714464217,345.053835785422,0.879871881557304,0.288152304291726
1604,-0.417455800855748,-0.48883436534178,-0.106795600661629,-0.481654904445298,0.279779515174781,-0.197674898625353,-0.183771379448533,-0.437902968027832,0.724776987807275,0.722827166553667,0.04,0.0438282900504125,345.800549356937,0.871010174603708,0.291713902328947
1664,-0.417455800855748,-0.48883436534178,-0.106795600661629,-0.481654904445298,0.279779515174781,-0.197674898625353,-0.183771379448533,-0.437902968027832,0.725647735520417,0.722827166553667,0.04,0.0467622791768461,346.211084404704,0.855562992047515,0.297333370503238
1724,-0.417455800855748,-0.48883436534178,-0.106795600661629,-0.481654904445298,0.279779515174781,-0.197674898625353,-0.183771379448533,-0.437902968027832,0.725989120333688,0.722827166553667,0.04,0.0484015356800047,346.370437361351,0.83706894137364,0.304042479866216
1784,-0.417455800855748,-0.48883436534178,-0.106795600661629,-0.481654904445298,0.279779515174781,-0.197674898625353,-0.183771379448533,-0.437902968027832,0.7259597497061,0.722827166553667,0.04,0.0489176143836475,346.354031054743,0.818062586867146,0.311091676709523
1844,-0.40460215610105,-0.446127763368263,-0.123066112726035,-0.467826265712106,0.283035683048653,-0.16410924025187,-0.191020455036562,-0.398329747360538,0.724637466206769,0.725527050275055,0.04,0.0497191022911174,345.729981273694,0.812921616230917,0.312494981348784
1904,-0.387074458708279,-0.38789148794983,-0.145253174632042,-0.448969031075934,0.28747591196757,-0.118337887924393,-0.200905558111146,-0.34436626463241,0.726445178974541,0.729208709895129,0.04,0.0499739809453969,346.606418559122,0.826669024526935,0.308077238174335
1964,-0.369546761315509,-0.329655212531398,-0.16744023653805,-0.430111796439763,0.291916140886487,-0.0725665355969162,-0.21079066118573,-0.290402781904282,0.729214730639972,0.732890369515203,0.04,0.0507563698055784,347.932819761297,0.84735224674709,0.30170748713936
2024,-0.352019063922739,-0.271418937112965,-0.189627298444058,-0.411254561803591,0.296356369805404,-0.0267951832694393,-0.220675764260314,-0.236439299176153,0.732630592942068,0.736572029135277,0.04,0.0522488395376955,349.568442241517,0.871032667863393,0.294884844066172
2084,-0.334491366529969,-0.213182661694533,-0.211814360350066,-0.39239732716742,0.30079659872432,0.0189761690580374,-0.230560867334898,-0.182475816448025,0.736713690009978,0.740253688755351,0.04,0.0545591432988291,351.520292332948,0.893517596314993,0.289069297753359
2144,-0.316963669137199,-0.154946386276101,-0.234001422256073,-0.373540092531248,0.305236827643237,0.0647475213855141,-0.240445970409482,-0.128512333719897,0.74114504042702,0.743935348375425,0.04,0.0574972586273033,353.636351263342,0.912097886952092,0.284885357269379
2204,-0.299435971744429,-0.0967101108576684,-0.256188484162081,-0.354682857895076,0.309677056562154,0.110518873712991,-0.250331073484066,-0.0745488509917684,0.745722769485339,0.747617007995499,0.04,0.0607673711842926,355.820912817163,0.925517202848772,0.282489070896414
2264,-0.281908274351659,-0.038473835439236,-0.278375546068089,-0.335825623258905,0.314117285481071,0.156290226040468,-0.26021617655865,-0.0205853682636402,0.750312204066085,0.751298667615573,0.04,0.0641064968907204,358.010291629864,0.933465664310065,0.281807040939326
2324,-0.264380576958889,0.0197624399791963,-0.300562607974096,-0.316968388622733,0.318557514399988,0.202061578367944,-0.270101279633234,0.0333781144644881,0.754878283308809,0.754980327235647,0.04,0.0673293777139291,360.188972927921,0.936083026991236,0.282729235250415
2384,-0.246852879566119,0.0779987153976288,-0.322749669880104,-0.298111153986562,0.322997743318904,0.247832930695421,-0.279986382707818,0.0873415971926163,0.759552333365011,0.758661986855721,0.04,0.0704117300870044,362.419120766579,0.932995118009236,0.285421318118674
2444,-0.229325182173349,0.136234990816061,-0.344936731786112,-0.27925391935039,0.327437972237821,0.293604283022898,-0.289871485782402,0.141305079920745,0.763786512806221,0.762343646475795,0.04,0.0732264188944385,364.433134433026,0.925256224995873,0.289407989999935
2504,-0.211797484780579,0.194471266234494,-0.36712379369212,-0.260396684714219,0.331878201156738,0.339375635350374,-0.299756588856986,0.195268562648873,0.767378149853803,0.766025306095869,0.04,0.0752462928265945,366.143095811468,0.916910588786464,0.293412449757849
2564,-0.194269787387809,0.252707541652926,-0.389310855598127,-0.241539450078047,0.336318430075655,0.385146987677851,-0.30964169193157,0.249232045377001,0.770685040545213,0.769706965715943,0.04,0.0762796766017898,367.719729866021,0.910390709907089,0.296786260256229
2624,-0.176742089995039,0.310943817071358,-0.411497917504135,-0.222682215441875,0.340758658994571,0.430918340005328,-0.319526795006154,0.303195528105129,0.773940599851218,0.773388625336017,0.04,0.07653386465809,369.273040977404,0.906395173774256,0.29935374435909
2684,-0.159214392602268,0.369180092489791,-0.433684979410143,-0.203824980805704,0.345198887913488,0.476689692332805,-0.329411898080738,0.357159010833258,0.77723417668504,0.777070284956091,0.04,0.0763037834352869,370.84486104553,0.904828969801334,0.30114831988568
2744,-0.154540339964197,0.384709765934706,-0.439601529251745,-0.198796384902725,0.346382948958533,0.488895386286798,-0.332047925567294,0.371549272894092,0.782510116971616,0.780751944576165,0.04,0.0732931371368499,373.374648818154,0.899035831956061,0.305156413574792
2804,-0.154540339964197,0.384709765934706,-0.439601529251745,-0.198796384902725,0.346382948958533,0.488895386286799,-0.332047925567294,0.371549272894092,0.786676655616354,0.784433604196239,0.04,0.0698439268151722,375.353014220335,0.886181638002532,0.311223109108124
2864,-0.154540339964196,0.384709765934706,-0.439601529251745,-0.198796384902725,0.346382948958533,0.488895386286799,-0.332047925567294,0.371549272894092,0.790232516582374,0.788115263816313,0.04,0.0660595577653904,377.047277912853,0.873266250755366,0.317251591771159
2924,-0.154540339964196,0.384709765934706,-0.439601529251745,-0.198796384902725,0.346382948958533,0.488895386286799,-0.332047925567294,0.371549272894092,0.793629414301452,0.791796923436387,0.04,0.0620458407362004,378.656723446521,0.861863755283265,0.322820965098837
2984,-0.154540339964197,0.384709765934706,-0.439601529251745,-0.198796384902725,0.346382948958533,0.488895386286798,-0.332047925567294,0.371549272894092,0.796902678293224,0.795478583056461,0.04,0.058044400367574,380.230038885351,0.852666769355593,0.327658744269356
3044,-0.154540339964196,0.384709765934706,-0.439601529251745,-0.198796384902725,0.346382948958533,0.488895386286799,-0.312891001512232,0.371549272894092,0.799713398108243,0.799160242676535,0.04,0.0546861474856746,381.554404190002,0.846812235237327,0.331073197175123
3104,-0.154540339964197,0.384709765934706,-0.439601529251745,-0.198796384902725,0.346382948958533,0.488895386286799,-0.268318222702039,0.371549272894092,0.802660695531383,0.802841902296609,0.04,0.0519188214155585,382.975818656364,0.847048873924955,0.33221371674899
3164,-0.154540339964196,0.384709765934706,-0.439601529251745,-0.198796384902725,0.346382948958533,0.488895386286799,-0.231631892648403,0.371549272894092,0.806109484512037,0.806523561916683,0.04,0.0496654389982941,384.622546794763,0.849315020059081,0.332751951298584
3224,-0.154540339964197,0.384709765934706,-0.439601529251745,-0.198796384902725,0.346382948958533,0.488895386286799,-0.201590443634964,0.371549272894092,0.809680608912017,0.810205221536757,0.04,0.0479456058319994,386.326950026552,0.852457816704738,0.332994288272057
3284,-0.154540339964196,0.384709765934706,-0.439601529251745,-0.198796384902725,0.346382948958533,0.488895386286798,-0.176916370268251,0.371549272894092,0.81331764290769,0.813886881156831,0.04,0.0466337103014086,388.063034183725,0.855982865727247,0.333113228668743
3344,-0.154540339964197,0.384709765934706,-0.439601529251745,-0.198796384902725,0.346382948958533,0.488895386286798,-0.156477578706639,0.371549272894092,0.816993246327172,0.817568540776905,0.04,0.0456312737935199,389.805851180794,0.859564928943006,0.333214845907707
3404,-0.154540339964197,0.384709765934706,-0.439601529251745,-0.198796384902725,0.346382948958533,0.488895386286798,-0.139357575306571,0.371549272894092,0.820684433410266,0.821250200396979,0.04,0.0448247557479261,391.578009792692,0.863176056411414,0.333329373499596
3464,-0.154540339964197,0.384709765934706,-0.439601529251745,-0.198796384902725,0.346382948958533,0.488895386286798,-0.12485480685974,0.371549272894092,0.824373728501091,0.824931860017053,0.04,0.0441880320149099,393.33487492618,0.866646889481967,0.333483958802175
3524,-0.154540339964197,0.384709765934706,-0.439601529251745,-0.198796384902725,0.346382948958533,0.488895386286799,-0.112437978250325,0.371549272894092,0.828089131873332,0.828613519637127,0.04,0.0436404942088144,395.110759896375,0.870002220393542,0.333697668325041
3584,-0.154540339964196,0.384709765934706,-0.439601529251745,-0.198796384902725,0.346382948958533,0.488895386286799,-0.10172391123735,0.371549272894092,0.831772726767164,0.832295179257201,0.04,0.0431800327917095,396.868445762936,0.873256708525351,0.333932982220662
3644,-0.139479997151495,0.354965548505876,-0.438107861381587,-0.197666592878147,0.314043445226219,0.457663841920701,-0.0928968116487599,0.340491355781525,0.835796752571549,0.833276955155888,0.04,0.0412334997724915,398.76210558469,0.865394355066094,0.338574697279929
