time,bias_percent_1,bias_percent_2,bias_percent_3,bias_percent_4,bias_percent_5,bias_percent_6,bias_percent_8,bias_percent_9,normalized_power,power_SP,SP,CV,total_power_MW,fuel_fraction,thermal_efficiency
56,0,0,0,0,0,0,0,0,0.999846826182749,1,0.04,0.0399058595914478,477.029483050059,1.00004491681994,0.350493841369352
116,0,0,0,0,0,0,0,0,0.999982501657108,1,0.04,0.0399126902045844,477.091952350055,1.00029244052832,0.350452998690152
176,0,0,0,0,0,0,0,0,0.999998744321162,1,0.04,0.0399525191507321,477.099443011358,1.00031791422088,0.350449576400722
236,0,0,0,0,0,0,0,0,1.00000172745363,1,0.04,0.0399792749567424,477.100838215386,1.00031200333892,0.350452672062703
296,0,0,0,0,0,0,0,0,1.00000307343862,1,0.04,0.0399950495063345,477.101474248385,1.00029594972832,0.350458763632112
356,0,0,0,0,0,0,0,0,1.00000378893112,1,0.04,0.0400038637992502,477.101811173587,1.00027440118474,0.350466560932851
416,0,0,0,0,0,0,0,0,1.00000399095574,1,0.04,0.0400082931901189,477.101903951207,1.00025064190044,0.350474953834623
476,0,0,0,0,0,0,0,0,1.00000380991777,1,0.04,0.0400099555193135,477.101815124997,1.00022725670031,0.350483082646905
536,0,0,0,0,0,0,0,0,1.00000338982795,1,0.04,0.0400099253645027,477.101613313546,1.00020597040137,0.350490393342678
596,0,0,0,0,0,0,0,0,1.00000285295261,1,0.04,0.0400089373355401,477.101356661219,1.00018771909762,0.35049660050226
656,0,0,0,0,0,0,0,0,1.00000228841635,1,0.04,0.0400074908274524,477.101087364287,1.00017283465022,0.350501618710361
716,0,0,0,0,0,0,0,0,1.00000175442567,1,0.04,0.0400059138838017,477.100832998569,1.00016123890431,0.350505495511282
776,-0.233333333333333,-0.233333333333333,0.233332926461305,0.233333333333333,-0.233333333333333,0.233333333333333,-0.233333234522688,0.233324453318094,1.00040451230067,1,0.04,0.0398164472715233,477.300836978198,1.00145242043477,0.35020033054427
836,-0.25,-0.25,0.249999564065684,0.25,-0.25,0.25,-0.249999894131451,0.249990485697958,1.00006234409089,1,0.04,0.0394958525462377,477.124039062203,0.997686729923484,0.351391926308966
896,-0.2499999799822,-0.25,0.249999858837956,0.25,-0.249999997971996,0.25,-0.249999992942097,0.221860779241498,1.00039556579763,1,0.04,0.0388008046436249,477.289734785633,0.995962989001159,0.352122332771684
956,-0.249999978552357,-0.25,0.249999879893118,0.25,-0.249999997827138,0.25,-0.25,0.219851514494608,0.999789183171006,1,0.04,0.0386096487657896,476.997527777886,0.996245633445395,0.351806916607915
1016,-0.249999998570157,0.216664914620553,-0.216663836768163,-0.216666358133003,0.216666666811524,0.249920641206201,0.216666666666667,-0.218676430154762,1.0001544501983,1,0.04,0.0388015739267727,477.20121928905,0.997952722240915,0.351355093490137
1076,-0.25,0.249998122807735,-0.249996959386826,-0.249999669428218,0.25,0.249914972720929,0.25,-0.249999854772574,0.99948768868654,1,0.04,0.0390753777653912,476.853645512657,0.999471264907789,0.350565739729604
1136,-0.249997952626412,-0.216666697349323,-0.249999795979904,0.216665467916537,-0.216666663310566,-0.216672335151938,-0.216666666666667,-0.24999825711278,1.02667209068065,1,0.04,0.0108982682209349,489.850409702586,0.892128095542313,0.403451129081276
1196,-0.249997806385442,-0.249999898789113,-0.249999998593695,0.24999869201259,-0.249999996404178,-0.25,-0.25,-0.249998142994223,1.00603134823827,1,0.04,0.0100942203242807,479.91270611627,0.821683738959077,0.429153078531578
1256,-0.249999730251217,-0.249999341545784,-0.249999926745912,-0.216666753865827,-0.249999757764881,0.216613206455969,-0.25,-0.249998536541681,1.00296873663904,1,0.04,0.00874743775366473,478.487191566349,0.799714919239056,0.439632504667447
1316,-0.249999867670201,-0.249999301742689,-0.249999921613928,-0.25,-0.249999740719217,0.249942721202824,-0.25,-0.249998564652214,0.998577285356085,1,0.04,0.00744817133845436,476.411195951287,0.798639050006691,0.438314758354601
1376,0.0926849255484763,-0.249971141950362,0.216461036522882,-0.10754551139664,0.216666621250092,0.24995925766276,0.214725936403743,0.216651135337873,0.945456870769783,1,0.04,0.045573221943745,450.976013225613,1.05223354044373,0.314916907677104
1436,0.117162410778382,-0.249969130536625,0.249779676389797,-0.0973701907821141,0.249999932819328,0.249960438838469,0.247920646146867,0.249983256765737,0.983667050793867,1,0.04,0.0459125268085166,469.446580078985,1.21554731176963,0.283771639044191
1496,0.241144160718559,-0.249997498795175,-0.21668048911596,0.226841740199255,0.247354562039686,-0.216667910161015,0.249717665172316,0.249032253919234,1.00327220307537,1,0.04,0.046366163423364,478.755592172519,1.22812547333409,0.286434810446379
1556,0.25,-0.249999525099357,-0.24999907236637,0.249999735269353,0.247165606983997,-0.249998506518121,0.249846023674134,0.248964325144484,0.992671955193489,0.982244714493455,0.04,0.0593406666665047,473.486253708871,1.17571240061734,0.29591089290955
1616,-0.137169169463295,-0.249999960848459,-0.249583292383048,0.248505108081969,0.238971844153703,-0.249999205931155,-0.216675494133422,-0.216731191639717,0.999031833955789,0.963221194307872,0.04,0.0493810334486731,476.580305172221,1.00366095945958,0.348902222638825
1676,-0.164824110139245,-0.249999991973395,-0.249553593812811,0.248398348997156,0.238386575380111,-0.249999255889228,-0.249998459691104,-0.249995157124303,0.958301737343544,0.944197674122288,0.04,0.0527169160341049,456.964161255377,0.875599105392296,0.383470100871354
1736,0.0835490841409752,0.216630076383301,0.216696427079146,-0.215190300903943,-0.217438953397919,-0.249997046490685,-0.24999989731274,0.216546062229713,0.921642672953759,0.925174153936704,0.04,0.0659038907323226,439.682816236341,0.87131670849285,0.370781559586049
1796,0.101290026589562,0.249960795551636,0.25,-0.248303775896879,-0.249997919739207,-0.249996888676503,-0.25,0.249870435040714,0.911240658837686,0.906150633751121,0.04,0.061816052179883,434.631771450931,0.855360541382426,0.373359266158014
1856,0.091157162800693,0.248952715724377,0.2482396748477,0.216776761535203,-0.249999830321218,-0.238058517592583,0.216666666666667,0.248136405164628,0.879791464971697,0.887127113565537,0.04,0.0794617164766716,419.553550168371,0.875867953282305,0.35196821056901
1916,0.0904333868157737,0.24888071002243,0.248113937336821,0.249996799923209,-0.249999966791361,-0.237205776800875,0.25,0.248012545887765,0.871581931567898,0.868103593379953,0.04,0.0765912674088154,415.725948327973,0.875056087198108,0.349080764723572
1976,0.239362225787718,-0.216741285998505,-0.216792404177545,-0.216665946312377,0.216666668880576,0.21751915823691,0.249999980303858,-0.216799163607482,0.866119816532734,0.84908007319437,0.04,0.0560526139660479,413.155323365435,0.797667543970418,0.380580127782824
2036,0.25,-0.25,-0.25,-0.249998999614918,0.25,0.249999510739608,0.249999978896991,-0.25,0.838192454254791,0.830056553008786,0.04,0.0550125904639822,399.715032964076,0.727907967142902,0.403486199847113
2096,-0.216666656250352,0.216666666666667,0.216666666666667,0.216652385060565,-0.21666638057124,0.249986054461924,0.202343869375601,0.21666665870213,0.80243003525724,0.811033032823202,0.04,0.0745266010601734,382.634708791495,0.753231955360287,0.373259012044022
2156,-0.249999988839663,0.25,0.25,0.2499846268231,-0.249999693469186,0.249985093299232,0.198939861552645,0.249999991466567,0.794219948956224,0.792009512637619,0.04,0.068316568269792,378.805419439686,0.757018025877183,0.3676754554382
2216,-0.249999826792676,0.25,0.118465222769638,-0.216667259119877,0.216665981246365,-0.216667257678173,-0.104611809887897,-0.104611809887897,0.796904032828253,0.772985992452035,0.04,0.039609446270643,379.748857767067,0.627993155929636,0.444320388189339
2276,-0.249999815217891,0.25,0.109069881538898,-0.249999536687233,0.249999243726047,-0.249999568462273,-0.0780111342724114,-0.0780111342724114,0.758190931690417,0.753962472266452,0.04,0.03407960940087,361.525436019983,0.574142001432414,0.462673063540279
2336,-0.249999862288009,-0.216666666666667,-0.226062007897407,-0.249999969112482,-0.216666706713248,-0.249987096355324,-0.0932839947767578,-0.0932839947767578,0.708616287109993,0.734938952080868,0.04,3.04389642277517e-10,337.792384359421,0.603366893934569,0.411360941295669
2396,-0.24999986565016,-0.25,-0.25,-0.25,-0.249999988887484,-0.249986205490542,-0.155465889939531,-0.155465889939531,0.693740644783508,0.715915431895284,0.04,1.5767652783341e-10,331.072402053159,0.796002370781186,0.305606998044352
2456,-0.249987354873627,-0.249997937987914,-0.249999973982793,-0.249990966593258,-0.249952425332769,-0.249999047568931,-0.239714908005382,-0.239714908005382,0.701582944413447,0.696891911709701,0.04,2.24849093477873e-10,334.735062251086,0.816850921431802,0.301101610530685
2516,-0.249986461246732,-0.249997790701337,-0.249999972124421,-0.249990321349919,-0.249949027936003,-0.249999964860244,-0.24999999429472,-0.249994919084018,0.705456383470034,0.677868391524117,0.04,5.90521280042483e-07,336.537177579207,0.695160249699147,0.355715503487544
2576,0.21666700973643,-0.249994577054947,0.216665836677419,0.216519942293617,0.0701500898513749,0.216666652999419,-0.0316689926740352,0.178457804996849,0.634992823736191,0.658844871338533,0.04,0.0853066806408228,302.626487317334,0.68491232303826,0.324658391767738
2636,0.249999400520941,-0.249994347508777,0.249999108734694,0.249842103982441,0.0930143125504734,0.249999982846538,-0.0160739211297005,0.209061571002625,0.639960940658193,0.63982135115295,0.04,0.0813227090758186,305.291536856486,0.7374792585269,0.304172278549534
2696,0.249961962991726,-0.249999283913543,-0.216641163059572,-0.216677192785696,-0.20246500596165,-0.216666658602533,0.23224310496552,-0.219378492555859,0.653577459346371,0.620797830967366,0.04,0.034409120230346,312.004743532366,0.604265915729166,0.379391655857576
2756,0.249959288882496,-0.249999636513884,-0.249972611044877,-0.249999999697706,-0.223570671569659,-0.249999990134609,0.249980035400893,-0.249981354238607,0.61512789304137,0.601774310781783,0.04,0.038954726804906,293.30943261786,0.478945940556315,0.449981034137295
2816,0.104135296957705,-0.249997568722548,-0.249930032680826,0.216666649254417,-0.248237673852714,0.216659327762106,0.249998416843578,-0.249990578361933,0.580493638083117,0.582750790596199,0.04,0.0559407910246806,276.777555332175,0.474699178043116,0.428417364881012
2876,0.0937192975345055,-0.249997421023167,-0.249926991369108,0.249999981322425,-0.249999602587218,0.2499921361833,0.249999729803769,-0.249991237227884,0.566164916391503,0.563727270410615,0.04,0.0470013038498602,269.972551070437,0.467641398532262,0.424190888734159
2936,0.239573318223656,-0.249999717023286,0.216557377834841,-0.0434033405724065,-0.241781465966912,-0.216661713352161,0.249999941543559,0.167613191508229,0.54172149833296,0.544703750225032,0.04,0.0580150746495132,258.316225008773,0.481009660368154,0.394595895045545
2996,0.249991462558596,-0.249999881023294,0.249877689920837,-0.0643607207077516,-0.241194456208319,-0.249994131176122,0.24999995666783,0.197442079275095,0.549502069391821,0.553813844887406,0.04,0.0453606758348273,262.244016712792,0.512213408743054,0.376191796904487
3056,0.2490598591347,-0.136526372329981,0.249877964255725,0.229042618405288,0.21717272990227,0.216666971921003,0.249438240532541,0.246496138311402,0.543429515408883,0.564933483467493,0.04,0.0780086511515466,259.34033375669,0.626160732448956,0.304325898474477
3116,0.248993316032993,-0.12842112170903,0.249877983851074,0.249999999770505,0.249913243195884,0.249999907856512,0.249398117951448,0.249999999671138,0.567622683532809,0.576053122047579,0.04,0.0698118034301802,270.968770273671,0.705020555826313,0.282404840945085
3176,0.249744423347058,-0.240928347514687,0.214039087542873,-0.116910516317932,-0.214903431870549,-0.116544807149903,-0.0631323544891182,0.249984770593924,0.604749899941152,0.587172760627665,0.04,0.021879905994034,288.651184744133,0.640789659826089,0.330988211016113
3236,0.249798073869491,-0.248964577929377,0.211479166378001,-0.143118410324249,-0.248104622946723,-0.142726572507505,-0.059340700606662,0.249983682802695,0.601278824198227,0.598292399207751,0.04,0.0242829306904058,286.898463226351,0.591583314377584,0.356341974431872
3296,0.249986538257966,-0.244524941444311,0.2474319444252,-0.0831644963888297,-0.249869061718703,0.00669818446020065,0.216665320040418,-0.0807661359351072,0.60341601025672,0.609412037787837,0.04,0.033010444607321,287.754371778837,0.584733863011573,0.361591623658309
3356,0.25,-0.24420782455252,0.25,-0.0788820739648712,-0.249995093059559,0.0173713813864653,0.249998557186162,-0.106271262988803,0.616383642933694,0.620531676367923,0.04,0.0252210990933969,294.180093977721,0.620732886662003,0.34822761113804
3416,0.249943495761511,-0.212682505118361,0.249999997050088,0.228074527218526,-0.249999672870637,0.234491053581313,0.249999903812411,-0.131488592889289,0.620978666288097,0.631651314948009,0.04,0.0429206348554488,296.326601002739,0.671819524508071,0.32409527133487
3476,0.249939459744476,-0.21043069658735,0.24999999683938,0.249999998731626,-0.25,0.249999601595231,0.25,-0.141136515472226,0.637142237717387,0.642770953528095,0.04,0.0416509549963795,304.095860625483,0.717687337528574,0.311336401167788
3536,-0.216654672375131,-0.247362046439157,0.249880993464989,-0.216666666751225,0.216666666641633,0.24998180648111,0.249999974259286,0.0710393034374989,0.652328732204083,0.653890592108182,0.04,0.0350035253515487,311.353462109738,0.735724929003808,0.310951677297843
3596,-0.249982824669389,-0.25,0.249872493223961,-0.25,0.249999999973179,0.24998053540153,0.249999972420663,0.093970682254463,0.664120410832689,0.665010230688268,0.04,0.0363445549145929,316.924358831788,0.732094297831834,0.318085060770709
3656,0.216667810584094,-0.25,-0.216675166788204,0.216653387609379,0.249999999998212,-0.216667964306565,0.249999981621695,-0.170815326034122,0.677317284769711,0.676129869268354,0.04,0.0285826771328023,323.135007557059,0.720019836023168,0.329757153840923
3716,0.249999998816485,-0.25,-0.249999999646216,0.24998577243862,0.25,-0.25,0.249999982278912,-0.192262926863852,0.685911719306897,0.68724950784844,0.04,0.029394741345972,327.33313188723,0.727659371582206,0.330534285957092
3776,-0.0645295182045404,0.216621115535901,-0.249999875161188,-0.0954993385859427,0.249956583390747,0.21652324090797,0.24999999756184,0.220391997685169,0.684754764562789,0.698369146428526,0.04,0.0470707424629219,326.763555489456,0.792438248572942,0.302986208006559
3836,-0.0869959122774708,0.249951195217037,-0.2499998662694,-0.120176846516269,0.249953482204372,0.249846329544253,0.249999998653477,0.249979114162011,0.705687843780537,0.709488785008612,0.04,0.046654788606808,336.806187054242,0.831723158118584,0.297547251614144
3896,-0.239107967037153,-0.120136914603872,0.21666667558204,0.225321075350254,0.249993283030551,0.249983518431905,0.249973937083464,0.249998179385038,0.71590495008226,0.720608423588698,0.04,0.0555121775950098,341.660889532768,0.862013969452818,0.291229684454962
3956,-0.249973113805702,-0.146571779591079,0.25,0.24999949834072,0.249996125946707,0.249993317638166,0.249972075542749,0.249999541186683,0.730311227017928,0.731728062168784,0.04,0.0560729235155651,348.530485963892,0.874819532075163,0.292736568161367
4016,0.214698374671071,0.223520004788759,0.249598469884725,0.16128342497303,0.249999653034646,0.249999554509211,0.249987583312056,0.249718995764017,0.734685004471304,0.742847700748871,0.04,0.0749754607671171,350.604823905839,0.912302198836682,0.282379940155638
4076,0.247889195276555,0.249955132244461,0.249569789162206,0.154946562589624,0.249999904969499,0.25,0.249988691009863,0.249698956805255,0.750727440916972,0.753967339328957,0.04,0.0726164172698959,358.283284078802,0.943408374528565,0.279049658613324
4136,0.249859279685103,0.249565420715542,0.249720770535191,0.242324504564371,0.249999993664633,-0.0467121122327926,0.249999140519341,0.249833873415256,0.766541594634693,0.765086977909043,0.04,0.067808035223894,365.821814570481,0.942902380776807,0.285073956705627
4196,0.25,0.249537584177762,0.249731554918976,0.248565786133995,0.25,-0.0679058345351349,0.249999886912875,0.24984351031597,0.774725436261127,0.776206616489129,0.04,0.0671851608401142,369.694198972565,0.945958652960357,0.287160802294414
4256,0.25,0.249969172278517,0.249943501201352,0.249904385742267,0.249877441814251,0.228806277697657,0.249998725717818,0.249541617979071,0.779996195993135,0.787326255069215,0.04,0.0703837636891737,372.198230111158,0.979764473811676,0.279130499015554
4316,0.25,0.25,0.249958640221522,0.25,0.249868687658126,0.25,0.249998642775314,0.249520054240721,0.794118028964749,0.798445893649301,0.04,0.0679210643867425,378.979500090212,1.0131876514835,0.274840358773982
4376,0.0957626652870223,0.25,0.249949948896635,0.241679170596816,-0.15312267802072,-0.216653364658706,0.249999909518354,-0.00163521056368058,0.825763185668661,0.809565532229387,0.04,0.0453900832008787,394.08907156874,0.943306997167832,0.306970055013316
4436,0.0847457128075239,0.25,0.249949328087715,0.241084825639446,-0.181907775569209,-0.249985747848614,0.25,-0.000774259206565167,0.824528861065824,0.820685170809473,0.04,0.0463717706595344,393.408264304887,0.895019924029411,0.322972430608292
4496,0.238978794779735,-0.216581649623142,0.249996621872514,0.243791061698208,-0.245344600803406,-0.249999049856574,-0.00408417157998307,0.216656269957902,0.831062105873994,0.83180480938956,0.04,0.0319294360600748,396.437340441363,0.866209371559933,0.336284114269608
4556,0.249995443492036,-0.249908910310509,0.25,0.243984364273834,-0.249875802605849,-0.25,-0.0195276289513605,0.24998886066918,0.842960341044581,0.842924447969646,0.04,0.0265311905684894,402.267703008672,0.871228620542243,0.339263945169216
4616,0.249999696232803,0.21620649321889,0.249999355965705,0.249598957618256,-0.249991720173723,-0.25,-0.0405944245493937,0.245476334244985,0.849460284925137,0.854044086549732,0.04,0.03913916475434,405.349044104477,0.890076099077615,0.334623694817817
4676,0.25,0.249500450613848,0.249999309963255,0.25,-0.25,-0.25,-0.0525847714379454,0.245154010928971,0.861941961940149,0.865163725129818,0.04,0.0382587395132074,411.331371743711,0.913981557996526,0.330680874438451
4736,0.248381255837487,0.249966674719153,-0.215825882548188,0.249669058022147,0.216665023927182,0.216666666666667,-0.0548489477307473,0.248439773587635,0.852003028271705,0.854888409302488,0.04,0.0524697395579446,406.388822447749,0.927869730346759,0.321817327200915
4796,0.248265631254451,0.24999997644096,-0.24909911058472,0.249645419309444,0.24999823992198,0.25,-0.0382022539995021,0.248674470920397,0.847156496787119,0.843084882446056,0.04,0.0571915389468611,404.108551364275,0.914823740226902,0.324575168081846
4856,0.249884375416964,0.249996518106727,-0.249023382297568,0.249976361287296,0.249999882661465,0.249999975106884,0.217342916943453,0.248212080184048,0.829816506586939,0.831281355589625,0.04,0.0664026271122809,395.736486094612,0.900443158315621,0.322927080946336
4916,0.25,0.249996271082854,-0.2490179731342,0.25,0.25,0.249999973328805,0.249998500943699,0.248179052274309,0.822459782213145,0.819477828733193,0.04,0.067827377531993,392.318100262905,0.891642321473723,0.323297501159404
4976,-0.216666666666667,0.0983000832441752,-0.249610601440925,0.2499893388265,0.25,0.246575114613939,0.231487207477785,-0.00404906886912048,0.821102780754433,0.807674301876761,0.04,0.0498174891692866,391.61921904944,0.815380658034047,0.352905371032647
5036,-0.25,0.0874646412556982,-0.249652932034263,0.249988577314107,0.25,0.246330481848591,0.230164972230219,-0.0019137516487456,0.801454237498148,0.79587077502033,0.04,0.0479905938333074,382.242226864461,0.764015153894048,0.367613427503241
5096,-0.0274805412015193,-0.0292232069465508,-0.249976862135618,0.249297537114949,-0.216666666666667,0.249755365456573,0.248677664815348,0.216641612358534,0.785256816875027,0.784067248163898,0.04,0.0423467735456329,374.465236609804,0.734168608355155,0.374774791826733
5156,-0.0115862941444849,-0.0375580532467114,-0.25,0.249248177100724,-0.25,0.25,0.25,0.249972970803269,0.775023465967794,0.772263721307467,0.04,0.039240714670137,369.674492547853,0.72197048750558,0.376231121110694
5216,0.0231427285874765,-0.021349069620409,-0.25,0.249913596605547,0.216666666666667,0.244984047232429,0.246582066204811,0.249998198053551,0.755614269952503,0.760460194451035,0.04,0.0511048458637557,360.381522361362,0.736075093557796,0.359745250557915
5276,0.025623373068331,-0.020191285075673,-0.25,0.249961126570178,0.25,0.244625764891888,0.246337928076583,0.25,0.748912434716095,0.748656667594603,0.04,0.0509497370473443,357.232018751725,0.744357217175676,0.352633567278625
5336,0.235033708500457,0.0126713503825297,-0.249880302724298,0.249261315665969,0.197220463818785,0.249641717659459,-8.22236232824731e-05,-8.22236232824731e-05,0.743696998507538,0.736853140738172,0.04,0.0540637714397091,354.594041661648,0.683774859308836,0.381042116858029
5396,0.249991589602752,0.0150186814866869,-0.24987175291889,0.249211329172811,0.193450496948698,0.25,-3.85756873641092e-05,-3.85756873641092e-05,0.726701750065256,0.72504961388174,0.04,0.0538007016256701,346.606479857463,0.669689321386402,0.380292692249911
5456,-0.216667127755115,-0.232332087900888,-0.249950446059589,0.249947421944854,-0.208092416328016,0.223338622317073,0.210497422042487,-0.0051021980797637,0.723477823704581,0.713246087025309,0.04,0.0202326281013317,345.087253969989,0.61968965027919,0.409175245869924
5516,-0.249999893280677,-0.25,-0.249956066998211,0.25,-0.236774052990639,0.221434238196864,0.243388183425151,-0.0361187867326701,0.706235544011123,0.701442560168877,0.04,0.0158631475694376,336.825563321798,0.566941343454454,0.436537535789874
5576,0.216487974673586,0.216635253873597,-0.249996432284587,0.249994938032103,0.0865068218681111,0.248095556605347,0.24955908560575,-0.0704658877280074,0.672164682806496,0.689639033312446,0.04,0.0571475321135527,320.58186923275,0.630093600042406,0.37384240736792
5636,0.249808536670319,0.249966343435997,-0.249999315519328,0.249994576462967,0.10959831292945,0.249999936491668,0.249999864332936,-0.0655105626395935,0.675244120621698,0.677835506456014,0.04,0.0578855529990864,322.130727301858,0.676431543983475,0.349915336442846
5696,0.249933782170658,0.249974483979915,0.196666869394283,0.249747162583765,0.213050331285418,0.249975403592367,0.249996836721642,0.216693090957053,0.655283581205759,0.666031979599583,0.04,0.0852998372767071,312.470008564014,0.711879144382289,0.322520070312776
5756,0.249942728277825,0.249975065447337,0.228571596888112,0.249729490163822,0.220439761167987,0.249973651242417,0.249996620463692,0.249999652488344,0.652851050133948,0.654228452743151,0.04,0.0854165924300279,311.426866038295,0.740196300180033,0.30914614955165
5816,0.249136764718625,0.129226993650725,0.248565370870897,-0.212578527678064,-0.217243898737232,0.0380406901304904,0.248693772164344,0.249737316569297,0.657410704762441,0.64242492588672,0.04,0.0575067755137902,313.65822952861,0.683124294607754,0.337374016985883
5876,0.249079195892968,0.120602131379538,0.249993497583953,-0.245600528952485,-0.24850701730189,0.0229026214796385,0.248600711571533,0.249718578289365,0.63844286672126,0.630621399030288,0.04,0.0634613811329455,304.457518904504,0.615209964689977,0.363628587503561
5936,0.249930994744254,0.241367739369958,0.249812740812431,-0.159301299932121,0.214428207069607,-0.23153893029726,0.24980360813493,0.249979462791495,0.620604246903978,0.618817872173856,0.04,0.0771566468553085,295.957356535583,0.592669385003546,0.366919946925235
5996,0.249991837519346,0.249993854226416,0.249799829614465,-0.15313706928781,0.247495008810428,-0.249713326852753,0.24988952931803,0.24999809739879,0.607258392459445,0.607014345317425,0.04,0.0753071086341213,289.631035281544,0.590271432514061,0.360535478434118
6056,-0.216589914667201,-0.216602329862995,-0.216614242971127,-0.242895450504214,-0.216801948658823,-0.249980560106276,0.249987379559135,-0.0114414435622339,0.625709898318713,0.595210818460993,0.04,5.5725348277162e-07,298.309476462449,0.47747876572738,0.459058109292425
6116,-0.249917182680526,-0.249930628726524,-0.249929533870098,-0.249306763448243,-0.249966017049484,-0.249999648195814,0.249994368862071,-0.0681113427360787,0.574203107288615,0.583407291604562,0.04,3.24530941154377e-09,273.753188147959,0.49515514229027,0.40623053833274
6176,0.216478705401112,-0.2499951890404,0.216670273614043,0.0423314264473412,-0.249903452316873,-0.249979846069657,-0.149403193271924,0.228463700015081,0.592491904773281,0.582620389814133,0.04,0.0176046896485234,282.398346713364,0.493322547846769,0.420616069061018
6236,0.249792697406943,-0.249999800491391,0.249998831291482,0.0631627257255972,-0.249898983407401,-0.249978431632075,-0.220720631768028,0.249995268093176,0.577653628747096,0.582620389814133,0.04,0.0210656493850043,275.448620268882,0.565140543679155,0.358128441297573
6296,0.249965024991227,-0.249958749260351,0.118550055214722,0.23754418171504,0.216673401106173,0.216668104557862,-0.25,-0.216653859813672,0.577692741307745,0.582620389814133,0.04,0.0446526873165814,275.625534028231,0.603439848555095,0.335614054003194
6356,0.24997733410439,-0.249955817029562,0.109160856923525,0.25,0.25,0.25,-0.25,-0.249985940378447,0.579384851835651,0.582620389814133,0.04,0.0490794254148174,276.443558094603,0.628109422376188,0.323389445755299
6416,0.2496875418162,0.216483454586062,-0.226055942871765,-0.0827137165741214,0.103601516068129,0.25,0.216664381174782,0.21647539120011,0.569288994376127,0.582620389814133,0.04,0.065137023299037,271.615993456241,0.695603911349572,0.286911528849398
6476,0.249666842367044,0.24980054541575,-0.25,-0.106478982043701,0.0931444815015665,0.25,0.249997551258695,0.249794057741435,0.584261219958159,0.582620389814133,0.04,0.0688233095123942,278.807846503375,0.712110657408758,0.287681664470964
6536,-0.216688647250461,-0.216676004833857,-0.249556017180817,-0.240431932136247,-0.227117062304097,-0.216165329327483,0.249257553659363,-0.20825923277961,0.628912332244113,0.582620389814133,0.04,0.00358772094107888,300.334366488046,0.537296891140572,0.410719553144149
6596,-0.249999753651711,-0.249995758423115,-0.249524304122304,-0.25,-0.249992886861645,-0.249462852850875,0.249204696687982,-0.237477007731743,0.593966258011632,0.582620389814133,0.04,2.87900471545062e-05,283.009373124518,0.399298884557615,0.520783719021044
6656,0.215183109854229,0.215875598936144,0.216670056057741,0.21656254906216,0.216623848730149,0.216702476476608,-0.216601449090376,-0.249997133427065,0.550239551333886,0.582620389814133,0.04,0.0695479442408407,262.628385524808,0.555763761662165,0.347221104968363
6716,0.248410457247511,0.249152124461805,0.249969653213458,0.249888445423743,0.249953615558135,0.25,-0.249873316645973,-0.249997697540697,0.572597154372457,0.582620389814133,0.04,0.0631741533819361,273.30259708988,0.65855782311806,0.304933066898981
6776,0.249894030483167,-0.216723191702546,0.249997976880897,-0.216674103638417,-0.21575265594643,0.249918641186647,-0.248225398421948,-0.248225398421948,0.597262849608843,0.582620389814133,0.04,0.0175712396443934,285.095087655575,0.623161188952808,0.336158435064233
6836,0.25,-0.25,0.25,-0.25,-0.249017389625327,0.249912829842836,-0.25,-0.249999983630381,0.587289151199728,0.582620389814133,0.04,0.0257165414513753,280.136953961035,0.56566731535133,0.363884865259919
6896,-0.216666666666667,-0.25,-0.0212702830371616,-0.0649524978667172,-0.249931427325636,-0.216672478010478,-0.249999820953796,-0.104317233559246,0.594356272270907,0.582620389814133,0.04,2.25784716584547e-05,283.295454962308,0.508468089231937,0.409383732114265
6956,-0.25,-0.25,-0.0406467318255302,-0.0517348191429112,-0.249996715732801,-0.25,-0.249999808164782,-0.0939113228398794,0.582904115479226,0.582620389814133,0.04,4.82800680839118e-06,278.09269522629,0.500694471313546,0.408104573286653
7016,-0.25,-0.25,0.230623551211631,0.22987833931632,-0.249179990281468,0.216664453908228,0.216666679455681,-0.169075146797204,0.555633625526421,0.582620389814133,0.04,0.0417211904899385,264.792721974033,0.581139688407979,0.334795941040369
7076,-0.25,-0.25,0.25,0.24999356492055,-0.24912165274923,0.249997629187387,0.25,-0.174443991365585,0.576029355203381,0.582620389814133,0.04,0.0412796250824422,274.878401363442,0.653707809557158,0.30896666091287
7136,0.216629033423556,0.21666551540787,0.249997702646156,0.249999570994703,0.216725223150051,0.247624632986019,0.249890615516331,-0.244962932757706,0.565258046768909,0.582620389814133,0.04,0.0853690468262326,269.772573288289,0.743206898944301,0.266712112005198
7196,0.249959678668096,0.249998766508432,0.249997538549453,0.25,0.25,0.24745513325735,0.249882802338926,-0.25,0.581283982721516,0.582620389814133,0.04,0.0892707292786789,277.411801186564,0.782156297036091,0.260606991295221
7256,0.249997311911206,0.249999901204495,0.249999835903297,0.25,0.249974442354511,-0.216772716899028,0.207455496223311,-0.25,0.594471740516446,0.582620389814133,0.04,0.0816277842065993,283.679191878426,0.734124816226744,0.283930634020216
7316,0.25,0.249999982254214,0.25,0.25,0.249972616808405,-0.249931849053055,0.20442497435791,-0.235235837894431,0.589353965687605,0.582620389814133,0.04,0.0831983068970371,281.105215215049,0.6792186212406,0.304098302124871
7376,0.249922143659903,0.249999867796136,0.249999995488467,0.249991128391753,0.142791880659263,0.216671017188967,0.246961622713233,-0.0788861554121579,0.576874052337923,0.582620389814133,0.04,0.0896377591463556,275.171233045354,0.692335528983427,0.29203915763001
7436,0.249916582492753,0.249999859620558,0.249999995166215,0.249990494705449,0.135136113791467,0.249999793349111,0.249999954738613,-0.0599632213423987,0.582116432203979,0.582620389814133,0.04,0.0831327518062518,277.734770187514,0.706616876123058,0.288802483924675
7496,0.249490559331829,-0.216666675969056,0.00788272825920012,0.249982881451632,-0.224323637392312,0.117609915528997,-0.028370289129278,0.228785117888551,0.592997734073634,0.582620389814133,0.04,0.0466276732739228,282.945707759185,0.659885660220884,0.315056972566475
7556,0.249460129106049,-0.249999999939743,-0.00941136223415799,0.249982337647788,-0.249999333905439,0.108153495684703,-0.0134506356681864,0.25,0.588208926524851,0.582620389814133,0.04,0.0465727644158587,280.599190936678,0.611913318298015,0.336938924313989
7616,0.238374135093962,-0.0323215129109104,0.232705905966328,-0.216667844156814,0.21652528056968,0.0854920143592234,0.216666490663845,0.249353408849892,0.57473453777215,0.582620389814133,0.04,0.0685193298863554,274.102197366616,0.624072714432436,0.322724546005204
7676,0.237582278378813,-0.0167730495517081,0.249999996552077,-0.25,0.249848467317903,0.0838733371216891,0.249999811239645,0.249307223767742,0.581431746753902,0.582620389814133,0.04,0.0645569055707857,277.437060503739,0.648869311954689,0.314167977226248
7736,0.248592430132895,0.232196773711223,0.249999999770138,-0.249991571233539,0.249287617255855,0.237978251515149,0.249922913062342,0.249953814917849,0.580446846526067,0.582620389814133,0.04,0.0786446969523134,276.91619278476,0.657443202711828,0.309488694285467
7796,0.249378869543901,0.249980332515718,0.25,-0.249990969178792,0.249247556537138,0.248985745400396,0.249917420335391,0.25,0.581494729714625,0.582620389814133,0.04,0.0793762513722783,277.439584428455,0.667460705667021,0.305419947583814
7856,0.24379716453078,-0.216667977815117,-0.215881383314251,-0.249986321570713,-0.216716707148754,0.249932383026693,-0.00301572706317347,-0.00301572706317347,0.606670095416901,0.582620389814133,0.04,0.0188097267961282,289.481985006225,0.558669973214641,0.380733322055251
7916,0.243398471315557,-0.249999999981605,-0.249158624979555,-0.249985989598707,-0.249999868840604,0.25,-0.0332315031461055,-0.0332315031461055,0.588960525739345,0.582620389814133,0.04,0.0116550027848301,280.929912609879,0.480528514534417,0.429569557654108
7976,-0.213155161440924,0.216608386980973,0.215689392467758,0.216519009348436,-0.249998026809021,0.24999889481297,-0.0684306718087406,0.23091971082468,0.563209425794698,0.582620389814133,0.04,0.0556202927194106,268.625544920676,0.552097864441931,0.357508126776373
8036,-0.245766135209244,0.249937557478301,0.248892822285423,0.249840794987518,-0.249997895235336,0.249998815871039,-0.0727603393271103,0.249997382206278,0.577613457850369,0.582620389814133,0.04,0.0449246541668074,275.627318307263,0.608601775974386,0.33276965819061
8096,-0.0980318354856416,0.24999365803164,0.245869378457958,0.249989379080711,0.216635436883131,0.249927417957014,-0.0625195615552408,0.0204190388699394,0.578935513638831,0.582620389814133,0.04,0.0619820605050953,276.216254460285,0.630067833341475,0.322119191126492
8156,-0.0874793855053843,0.249997665214022,0.245653418184568,0.249999992230225,0.249966389177307,0.249922318106013,-0.0325459639075503,0.0040205857744867,0.579781406920793,0.582620389814133,0.04,0.0634496645612804,276.624501490847,0.650758868582674,0.312338287753034
8216,0.227495254617409,0.249572238222061,0.249702286599662,0.249784275373224,0.249997003441133,0.249992549528089,0.216666965731737,-0.0153732880184599,0.573179918993009,0.582620389814133,0.04,0.0792483018382564,273.376649283064,0.679572324059557,0.295583650717568
8276,0.249993443197609,0.249541850579778,0.249991491486454,0.249768867026295,0.249999190174263,0.249997566058237,0.249999661258949,-0.00726152879386109,0.579212948065307,0.582620389814133,0.04,0.0780263325003971,276.382862229786,0.716672130133385,0.28336438882135
8336,-0.0781542080254094,-0.216653407923254,0.24999943241332,0.249984591135086,-0.216654478382718,0.24999905650053,-0.00346580007798581,0.216673058736727,0.591682708260416,0.582620389814133,0.04,0.043285444795296,282.326302513678,0.670646288482394,0.309323197791676
8396,-0.101593325969911,-0.249953069244899,0.249999999622382,0.25,-0.249986883279646,0.249999162960694,-0.00181244672059228,0.249999998252923,0.587710113800501,0.582620389814133,0.04,0.0447154426699746,280.359541841786,0.623328659818972,0.330485890081271
8456,0.2263705202201,0.137444569511216,0.249840531919753,0.249992945130703,0.216409564615095,0.249977344974708,0.216547270453978,0.249949947361306,0.567856590311272,0.582620389814133,0.04,0.0877478902538738,270.818596528772,0.667610357860384,0.298064389800703
8516,0.249796509233672,0.165115829422366,0.249829141369565,0.249992441211467,0.249723596607576,0.249975786547138,0.249869271953212,0.249946372297619,0.577316762027784,0.582620389814133,0.04,0.0835641644032528,275.49976518838,0.724587819271181,0.279373288747931
8576,0.209106142626652,-0.22230995087914,0.249955116646853,0.249394974580641,-0.216685093559495,-0.216668280896857,-0.000195373117176207,0.249996387509465,0.599984563931753,0.582620389814133,0.04,0.0408115964853438,286.299418731539,0.654375500407176,0.321475670968315
8636,0.206199687869007,-0.249983220900676,0.249964114880945,0.249352298392725,-0.25,-0.25,-0.000465874796891432,0.249999960024596,0.58899118306284,0.582620389814133,0.04,0.0443217486849137,280.943969895741,0.589856793607569,0.349967572833521
8696,-0.00649386837512645,0.0893733512916781,-0.216639101104704,-0.216611532625638,0.216583637972079,-0.249999137390854,0.216487226121945,0.249925628282058,0.581663387112655,0.582620389814133,0.04,0.0331351037368619,277.462852636956,0.574814921033566,0.354675745511961
8756,-0.0216862652497075,0.113613106448275,-0.249967902246537,-0.249894663412664,0.249911040684371,-0.249999075775915,0.249807742273513,0.249920318871877,0.584844438654074,0.582620389814133,0.04,0.0297788065779206,279.030405060765,0.559327518933725,0.366555734966348
8816,0.231110700366666,-0.225759126236782,0.0064936353219731,-0.249988934513982,0.211253108010379,-0.249891986116949,0.249987182818234,0.249994687924792,0.580249676629489,0.582620389814133,0.04,0.0329802336866958,276.825454519148,0.563065102662873,0.361245200876907
8876,0.249167626482121,-0.25,0.0248123165768667,-0.249995668164077,0.208491827105094,-0.249884336855594,0.25,0.25,0.582328530829244,0.582620389814133,0.04,0.0332777464436225,277.826562891791,0.569391109433115,0.358523609970487
8936,-0.0216400384936264,-0.25,-0.231484620706871,-0.249995566160681,-0.219433749681536,-0.249992288442255,0.204753986788125,-0.0897801759510834,0.591568092219544,0.582620389814133,0.04,1.69125422918915e-07,281.666225075789,0.473615759884732,0.436981754684431
8996,-0.0409834431347513,-0.25,-0.249791544798566,-0.249995558874724,-0.249999862309152,-0.249999999269874,0.201522128701562,-0.161038964141464,0.565444711814981,0.582620389814133,0.04,5.21555326759179e-09,269.756792505192,0.560381212948319,0.353706872681167
9056,-0.23606556287565,-0.205451455605023,-0.249835258024708,-0.249999588410396,0.21645330018135,0.216665104448627,0.245808352990447,-0.249144632907924,0.598128181310028,0.582620389814133,0.04,0.0146975831470563,283.725734866234,0.523944748672391,0.397894479708698
9116,-0.25,-0.202269416719668,-0.249838380398003,-0.249999876234373,0.249771383216386,0.249998326142805,0.248971654725368,-0.249997035307043,0.580229628289593,0.582620389814133,0.04,0.0183654474037536,276.778692565333,0.551801361303806,0.368556913485982
9176,0.145620022994048,0.219848547466609,0.216601043847676,0.216647370845596,0.249984639755474,0.249977921230753,0.2499275258091,-0.24973975046417,0.551755898092556,0.582620389814133,0.04,0.0717062501702167,263.371190132893,0.699766637257784,0.276547482776649
9236,0.173878596065052,0.249999830622771,0.249918145579511,0.249979317065594,0.249999872365408,0.249976463737035,0.249995802315081,-0.249721372975393,0.577002558870567,0.582620389814133,0.04,0.0747136528237309,275.411610959541,0.781689906822737,0.258882335208928
9296,-0.221668971844364,0.249999988708185,0.248787406342048,0.249998621137706,0.24999637240818,0.159034308189413,-0.216659551050896,-0.0994067924649316,0.594952485747038,0.582620389814133,0.04,0.063953357996584,283.925574208589,0.739038400087469,0.282287848913211
9356,-0.249922369552179,0.25,0.248706639253657,0.25,0.249996122411236,0.152538439936011,-0.247152455675448,-0.0886700367141843,0.597256236127372,0.595724845600428,0.04,0.0639398309415401,285.007006617965,0.70625141485579,0.296517877169939
9416,0.216625812771528,-0.21659891131361,-0.216712910440922,-0.0896721440070535,-0.0131031719702831,-0.0570386116268486,0.216667194913912,-0.202340134718608,0.617604801120188,0.609765333942887,0.04,0.0234831248554568,294.804282562605,0.677198156857351,0.319869400961976
9476,0.249950682937507,-0.249927404978868,-0.249957163990535,-0.113934440007557,-0.0318959787118201,-0.0720084010241956,0.25,-0.202638177868734,0.626786050243856,0.623805822285347,0.04,0.0212038863121582,299.116872457472,0.643843472907169,0.341362091065948
9536,0.0443251357194508,0.216671506334742,-0.24999714387113,-0.240928598890477,-0.235287446529268,-0.23813330069517,-0.216666666666667,0.216666465267709,0.644947563860659,0.637846310627806,0.04,0.0122334186512497,307.845904217374,0.612042255623743,0.369578457967168
9596,0.0296375966324467,0.25,-0.249999999576887,-0.249999610239257,-0.249815408516229,-0.249999364957383,-0.25,0.249999784215402,0.651856924918512,0.651886798970265,0.04,0.0124890653474595,311.067452739498,0.600342689785026,0.380723796441808
9656,-0.23102521965041,-0.216663183635001,0.216293247300507,0.216664886672661,0.216678972765585,0.216666709002841,-0.248958203774571,-0.21666608112203,0.652054798788732,0.665927287312725,0.04,0.0288371599167444,311.263158737862,0.690747862482493,0.331102795128407
9716,-0.249643992242042,-0.249996268180358,0.249599907791749,0.249998065023512,0.25,0.25,-0.248883789758469,-0.24999935721756,0.672981419995936,0.679967775655184,0.04,0.0301039527310245,321.204491845577,0.738436764136939,0.319611925652533
9776,-0.249974070669461,0.119715026439814,-0.21669333948055,0.150241193868924,0.25,0.249952307766799,-0.00702648888293828,0.216605439378685,0.677289407933203,0.694008263997643,0.04,0.0402730406618415,323.24538995708,0.825580006342265,0.287692042317274
9836,-0.249997647699991,0.146122976055541,-0.25,0.143115703072168,0.25,0.249948901178713,0.0102490326081711,0.249934353421274,0.702506867306247,0.708048752340103,0.04,0.0429606827111084,335.323245742903,0.878651860559662,0.280415169983491
9896,0.216661451990375,-0.080753526925976,-0.249986506711069,-0.223762842062481,0.248809338603145,-0.216670073254752,-0.129936709490837,-0.216671043105248,0.74000760868676,0.722089240682562,0.04,0.0240401714832455,353.269989115734,0.810518958886066,0.320256714056109
9956,0.249994244825402,-0.0969589914246557,-0.249985542904717,-0.249968452429241,0.248724291360512,-0.25,-0.139949976783624,-0.25,0.739424969816122,0.736129729025021,0.04,0.0293294650651173,352.840442219059,0.765588821768178,0.338639372126295
10016,0.2499996106875,-0.239049339120137,-0.249768563528674,0.213353595703587,0.249899584706587,-0.25,0.126072393985346,-0.231393569371076,0.7396030257479,0.75017021736748,0.04,0.0401443109759724,352.927208641279,0.806793741936067,0.321423256371356
10076,0.249999993963364,-0.249198649669815,-0.249753065001814,0.246448027713074,0.249983534231307,-0.25,0.145073991897415,-0.230064538611867,0.760132518214881,0.76421070570994,0.04,0.0373775878163821,362.79461655138,0.844622798555341,0.315611420796804
10136,0.249999999597558,0.216719923778752,0.216682448479703,-0.216896966460404,-0.216106518067265,-0.249996232477292,-0.22363024794413,0.217995697425876,0.774164084385129,0.778251194052399,0.04,0.0444956065472675,369.495167679287,0.870291480566853,0.311959853063752
10196,0.25,0.24999982188222,0.24999927087124,-0.249993037472795,-0.24939866466002,-0.249995963368527,-0.249966265075669,0.25,0.791251501994144,0.792291682394858,0.04,0.0464684886875193,377.628240417988,0.881903346356869,0.314628565888484
10256,-0.216631006890138,0.249358570646105,0.248818341239635,-0.24397917574007,-0.114265137806368,0.216666935775432,0.216664055410168,0.249996154543408,0.793670985320028,0.806332170737318,0.04,0.0573697275842072,378.750008302214,0.94102525649937,0.2957372618536
10316,-0.249961793096576,0.249312766986383,0.248733989123092,-0.243549614187732,-0.104612743031108,0.25,0.249994792587728,0.249995879867937,0.817562247376521,0.820372659079777,0.04,0.0550124293301208,390.199898360377,0.971803705770944,0.295028028667139
10376,0.21666795276699,-0.190876353532698,-0.216751067391794,-0.249569974279182,0.226333571588135,0.249967963742333,0.249999648354559,-0.216664602245987,0.845012473941747,0.834413147422236,0.04,0.043699421694242,403.316658994403,0.929913455045915,0.31868256612147
10436,0.249998648900102,-0.222318433569775,-0.25,-0.25,0.249972594060938,0.249965675438214,0.249999995195047,-0.249997493825553,0.849318498288954,0.848453635764696,0.04,0.0434905374949147,405.287945821784,0.908280035923381,0.327867670368265
10496,0.249996649895196,-0.248154562237985,0.216666515510083,0.216655898258055,-0.216668289782166,0.24996005439792,0.249970673574213,-0.24999928992256,0.855440913793063,0.862494124107155,0.04,0.0505476769745966,408.216190585981,0.939807535993249,0.319158179190452
10556,0.249996507109131,-0.25,0.249999838046517,0.249988462419345,-0.249999781485245,0.249959652895042,0.249968579172725,-0.249999418215204,0.872442389088069,0.876534612449614,0.04,0.0469682431633342,416.369379832697,0.972183516211967,0.314691640733563
10616,-0.21666235642354,-0.24454076114344,0.249999989203101,0.249996710098139,-0.24999998543235,-0.21657267524403,0.249997905278182,-0.24999942596143,0.901972578268411,0.890575100792074,0.04,0.0262381641663862,430.541147007523,0.936554450669602,0.33778184826277
10676,-0.249995132390159,-0.244150815510828,0.25,0.249997299218054,-0.25,-0.24989641296825,0.25,-0.249999426514732,0.906222911030537,0.904615589134533,0.04,0.0259251410626921,432.427861262958,0.903640345192076,0.351619321200717
10736,-0.249920477664809,-0.249610054367389,-0.216369004740899,0.0724074079441627,-0.249999970060057,-0.249947755379502,0.249998719860101,0.216666699335969,0.924065079833908,0.918656077476992,0.04,0.0204998302228924,441.024487802985,0.885377967827152,0.366006391915299
10796,-0.249915145184427,-0.25,-0.249681076508106,0.0597224157103134,-0.24999996792149,-0.249951422694592,0.249998628421536,0.249999994039591,0.931312924105598,0.932696565819451,0.04,0.0191892790238737,444.408601766955,0.879377726479185,0.371331396891699
10856,0.216668833317838,-0.249972163411691,0.215839089502347,0.237310706790125,-0.249992913892766,-0.24997802537812,0.249605616322528,0.249991781762889,0.916179877610663,0.946737054161911,0.04,0.035744220985721,437.168526778237,1.01826867027025,0.315457736365173
10916,0.249996260353714,-0.249970175083955,0.249090529931665,0.249995584724397,-0.249992410033572,-0.249979925569801,0.249577544029741,0.249991195171696,0.950354488998357,0.96077754250437,0.04,0.0364813109998238,453.596264386408,1.11804986715372,0.298100683073488
10976,-0.216666870822854,0.216668654993308,-0.0533835548883841,0.249999647539689,0.0622892636714033,-0.249405129401207,0.24997177221626,-0.216667126258594,0.979826864985526,0.974818030846829,0.04,0.0350376342749308,467.668777104365,1.11696973810874,0.307646263972097
11036,-0.249999951621181,0.249999999998826,-0.0749888466612449,0.249999937740781,0.0845950975074732,-0.249364072532022,0.24999993137244,-0.249999863503615,0.980336895922199,0.975754063402993,0.04,0.0429528726638169,467.706735440585,1.08306940556975,0.317301417607983
11096,0.180199403044388,-0.216537110444587,0.158020674455388,-0.216666577436003,-0.227693660145318,0.0168670420891439,0.249997858615905,0.216666591909646,0.973602414126769,0.975754063402993,0.04,0.0472280403914771,464.511043937818,1.08744617122906,0.313865045381713
11156,0.210927928377643,-0.249861189761974,0.174664211678004,-0.24999989994863,-0.24999999997766,0.03588355027637,0.249997710561867,0.24999991015345,0.978952437954505,0.975754063402993,0.04,0.0493528499243598,467.073702636513,1.0765034701112,0.318804658116489
11216,0.247368852562201,-0.249990056052381,-0.221689052531187,0.216666667535126,-0.249929549671828,-0.230922140655023,0.249996060625224,0.249802592896156,0.982561966788588,0.975754063402993,0.04,0.0471279326197041,468.79016812659,1.04108481269921,0.330862128967855
11276,0.24997177571824,-0.249999260787411,-0.2499999999747,0.249999993783966,-0.249924517507126,-0.249979690007265,0.249995942772606,0.24978849880635,0.979708593146016,0.975754063402993,0.04,0.0474159119226185,467.406204818294,1.01188869817566,0.339403568624998
11336,-0.216667866617792,-0.249921179945572,-0.24906724581989,-0.216666665316415,-0.249020980875154,0.216667862948821,-0.216660271703754,0.247350788552537,0.997224248817264,0.975754063402993,0.04,0.029562368026026,475.860629978565,0.919278296396295,0.380353524270451
11396,-0.249999269641795,-0.249915602742584,-0.249000620523118,-0.249999998109299,-0.248956442544299,0.249999831017112,-0.249992858452066,0.24717666639155,0.98250353884393,0.975754063402993,0.04,0.027151381073869,468.702933572176,0.849645282602506,0.405335552144963
11456,-0.249999951271702,-0.249345851913909,-0.249830085120279,-0.24999204608315,-0.249930337747101,-0.216462200792042,0.216667046380918,-0.216844535271894,0.989632336832597,0.975754063402993,0.04,0.014152406023568,472.172828199451,0.776232610369958,0.446954983249241
11516,-0.249999999959553,-0.249305155426147,-0.249889332591505,-0.249991478081282,-0.249999901690158,-0.249780917349838,0.249999896726131,-0.249988906819283,0.978202770797965,0.975754063402993,0.04,0.00988272574676363,466.682823287341,0.744101979906071,0.460833489809979
11576,0.216666554854696,-0.249939418156861,-0.249983580044817,0.216643652270462,-0.249999993446011,0.0411542620047782,0.24999625257793,-0.249999256371777,0.941995568629523,0.975754063402993,0.04,0.0261789855053611,449.371856966948,0.88734777932856,0.372106005852863
11636,0.249999880198571,-0.249984722637626,-0.249990312005767,0.249974733009872,-0.25,0.0619353462443937,0.24999599228163,-0.249999995625526,0.963998507324372,0.975754063402993,0.04,0.0264569587410282,459.988180127619,0.995613404834799,0.339477201344267
11696,-0.216666674653429,0.216667685157492,0.216644970662651,-0.216667266209084,0.216666666666667,0.237458083678268,0.249996342633207,-0.249998680413499,0.957523843766034,0.975754063402993,0.04,0.0443684820903463,456.878640269149,1.10145448243245,0.304781762565007
11756,-0.25,0.25,0.249976062281824,-0.249998837581867,0.25,0.249995422066402,0.249996367658319,-0.249998586469783,0.97195407134116,0.975754063402993,0.04,0.0503606167880567,463.777450475942,1.14656933549348,0.29721038651536
11816,-0.249995899977209,0.195489238608668,0.249998404152122,-0.249934091232139,0.249982789520953,-0.21666697186224,0.24999593085394,0.216593812935384,0.963151269480552,0.958687355127054,0.04,0.0585687992953145,459.415061047043,1.13208985499201,0.298180340489418
11876,-0.249995607118438,0.191595612795001,0.25,-0.249929466492872,0.249981560201022,-0.25,0.249995899653627,0.249921841464324,0.951128208719315,0.940401596259977,0.04,0.0681730132782634,453.655272594014,1.07569067270482,0.309879778037637
11936,-0.249999707141229,-0.0578604179901459,0.249988027323172,-0.249980538404427,-0.216667895986599,0.216665087311091,0.249995467054269,0.249994372764211,0.936364794647163,0.922115837392899,0.04,0.0686787021688284,446.612497166965,0.99619396266955,0.329413688744697
11996,-0.25,-0.0756787059033708,0.24998717213197,-0.24998418639811,-0.25,0.249998307833312,0.249995436154315,0.249999553571345,0.914574817443031,0.903830078525821,0.04,0.0707059521988959,436.178053289783,0.922571843474696,0.34739078190337
12056,-0.196508907230786,-0.128141153484842,0.249999144808798,-0.249627150666917,0.216666666666666,0.249991731558719,0.246553522831705,0.182945710677924,0.889585351850987,0.885544319658744,0.04,0.0761441707695144,424.247031538768,0.88528497182812,0.352119759541849
12116,-0.192688114890128,-0.131888471169233,0.25,-0.249601648114689,0.25,0.24999126182482,0.24630767188009,0.178156150471251,0.873654576516652,0.867258560791666,0.04,0.0726587589777396,416.681334776492,0.85088807221079,0.359820818583224
