time,bias_percent_1,bias_percent_2,bias_percent_3,bias_percent_4,bias_percent_5,bias_percent_6,bias_percent_8,bias_percent_9,normalized_power,power_SP,SP,CV,total_power_MW,fuel_fraction,thermal_efficiency
1,0,0,0,0,0,0,0,0,1.01334502070237,1,0.04,0.0404999826659105,482.488765428893,0.985295336602725,0.359811843508822
61,0.000433020004347327,-0.000217214012111185,-0.000391767494248143,-0.000555137971015029,0.000101864517053059,5.63812632283316e-05,0.000110326119686249,-0.000485445393992052,0.999870140814939,0.999223680590994,0.04,0.0399039918337602,477.039524619704,0.999270818944582,0.350772739574084
121,0.0264142202651866,-0.0132500547387837,-0.0238978171491395,-0.033863416231918,0.00621373554023705,0.00343925705692823,0.00672989330086108,-0.0296121690335152,0.968025730593037,0.952644516050652,0.04,0.0516600963236503,461.49989762262,0.918106371278006,0.369345901416839
181,0.0523954205260259,-0.0262828954654559,-0.0474038668040307,-0.0671716944928208,0.012325606563421,0.00682213285062824,0.013349460482036,-0.0587388926730384,0.921692072488592,0.906065351510311,0.04,0.0611398935051709,439.712791509762,0.820793383803181,0.393631575912927
241,0.078376620786865,-0.0393157361921284,-0.0709099164589221,-0.100479972753724,0.018437477586605,0.0102050086443282,0.0199690276632107,-0.0878656163125616,0.874553747022071,0.859486186969969,0.04,0.0660126063316938,416.870717702909,0.72527558538644,0.422331045984149
301,0.104357821047704,-0.0523485769188007,-0.0944159661138134,-0.133788251014626,0.024549348609789,0.0135878844380283,0.0265885948443856,-0.116992339952085,0.82686031558565,0.812907022429627,0.04,0.0665772526130146,394.115397727979,0.636891853287876,0.45468684068941
361,0.130339021308544,-0.0653814176454731,-0.117922015768705,-0.167096529275529,0.030661219632973,0.0169707602317283,0.0332081620255604,-0.146119063591608,0.779069115843447,0.766327857889285,0.04,0.0637041389844794,371.31351012295,0.555586514239998,0.491070371426033
421,0.156320221569383,-0.0784142583721455,-0.141428065423596,-0.200404807536432,0.0367730906561571,0.0203536360254283,0.0398277292067353,-0.175245787231131,0.731197371288116,0.719748693348943,0.04,0.0577271573893697,348.473309129911,0.481878503516349,0.531357289387472
481,0.182301421830222,-0.0914470990988179,-0.164934115078487,-0.233713085797335,0.0428849616793411,0.0237365118191282,0.0464472963879101,-0.139680427357836,0.681499376160279,0.673169528808601,0.04,0.0507511221636473,325.125476095485,0.42425514946431,0.563090959967287
541,0.208282622091062,-0.10447993982549,-0.188440164733379,-0.267021364058238,0.048996832702525,0.0271193876128282,0.0530668635690849,-0.103523936022145,0.634095473505091,0.62659036426826,0.04,0.0431895656692095,302.475666962352,0.375860936218453,0.591313682213079
