time,bias_percent_1,bias_percent_2,bias_percent_3,bias_percent_4,bias_percent_5,bias_percent_6,bias_percent_8,bias_percent_9,normalized_power,power_SP,SP,CV,total_power_MW,fuel_fraction,thermal_efficiency
8,0,0,0,0,0,0,0,0,0.997974064353128,1,0.04,0.0400293167391104,476.231480032293,0.999979931561336,0.349930253913
68,-0.00328788756969675,0.00414744210308265,0.00464429720492979,-0.000401880671376489,0.000536983833407135,0.00100229296089742,0.00439502789819517,0.00190013759032598,0.999069534272422,0.997170785718073,0.04,0.040758560831086,476.52932230408,0.997136124158878,0.351147722045861
128,-0.0279470443424217,0.0352532578762033,0.0394765262419043,-0.00341598570670021,0.00456436258396047,0.00851949016762922,0.0373577371346591,0.0161511695177707,0.981048124474014,0.975951678603624,0.04,0.0482885978049481,467.894671253023,0.968763818655112,0.354882729689376
188,-0.0526062011151467,0.0663590736493239,0.0743087552788784,-0.00643009074202405,0.00859174133451393,0.0160366873743607,0.0703204463711231,0.0304022014452154,0.959973639264842,0.954732571489174,0.04,0.0542091113630409,457.820945666345,0.936376546586033,0.359252506592126
248,-0.0772653578878717,0.0974648894224447,0.109140984315853,-0.00944419577734766,0.0126191200850675,0.0235538845810922,0.103283155607587,0.0446532333726602,0.938427498408278,0.933513464374724,0.04,0.0582037506943292,447.552859624592,0.905312454041333,0.363245730012854
308,-0.101924514660597,0.128570705195565,0.143973213352827,-0.0124583008126714,0.0166464988356208,0.0310710817878239,0.136245864844051,0.058904265300105,0.916950567454856,0.912294357260274,0.04,0.0608899002178586,437.306467893145,0.875801732320078,0.366889072755847
368,-0.126583671433322,0.159676520968686,0.178805442389801,-0.0154724058479952,0.0206738775861743,0.0385882789945555,0.169208574080515,0.0731552972275497,0.895504387526143,0.891075250145824,0.04,0.062717269077572,427.074724224306,0.847714784327297,0.370176451513182
428,-0.151242828206047,0.190782336741807,0.213637671426776,-0.0184865108833189,0.0247012563367276,0.046105476201287,0.202171283316979,0.0874063291549944,0.87408525915569,0.869856143031374,0.04,0.0639571478462895,416.85586156558,0.820881989103264,0.373129736969442
488,-0.175901984978772,0.221888152514927,0.24846990046375,-0.0215006159186426,0.0287286350872812,0.0536226734080187,0.235133992553443,0.101657361082439,0.8526910504957,0.848637035916925,0.04,0.0647720763011455,406.648876727874,0.795149989174559,0.375772674585344
548,-0.200561141751497,0.252993968288048,0.283302129500724,-0.0245147209539664,0.0327560138378346,0.0611398706147503,0.268096701789907,0.115908393009884,0.831319432608208,0.827417928802475,0.04,0.0652591790736596,396.452643206933,0.770377793038646,0.37813096122037
608,-0.225220298524222,0.284099784061168,0.318134358537698,-0.0275288259892901,0.036783392588388,0.068657067821482,0.301059411026371,0.130159424937329,0.809768127407662,0.806198821688025,0.04,0.0656589707571988,386.161627956429,0.74678554157055,0.379951262513028
668,-0.249879455296947,0.315205599834289,0.352966587574673,-0.0305429310246137,0.0408107713389416,0.0761742650282135,0.334022120262835,0.144410456864773,0.787112507172494,0.784979714573575,0.04,0.0667921538024936,375.352774460219,0.730024876759459,0.377795383724562
728,-0.274538612069672,0.34631141560741,0.387798816611647,-0.0335570360599374,0.044838150089495,0.0836914622349452,0.366984829499298,0.158661488792218,0.765028475229845,0.763760607459125,0.04,0.0685274448693792,364.822314549317,0.719956218856118,0.372331674219796
788,-0.299197768842397,0.37741723138053,0.422631045648621,-0.0365711410952612,0.0488655288400483,0.0912086594416768,0.399947538735762,0.172912520719663,0.743536362359757,0.742541500344675,0.04,0.0711732954094414,354.571789462421,0.712578171241154,0.365616966655588
848,-0.323856925615122,0.408523047153651,0.457463274685596,-0.0395852461305849,0.0528929075906018,0.0987258566484084,0.432910247972226,0.187163552647108,0.722327051721111,0.721322393230226,0.04,0.0746082943794289,344.454114088463,0.705589955395023,0.358701888253704
908,-0.34522819481815,0.435481420823689,0.48765120651764,-0.0421974704945321,0.0563833025077481,0.105240760894242,0.461477929310495,0.199514446984226,0.701643702087046,0.702932500397702,0.04,0.0774643365518205,334.67990727498,0.701606305945619,0.350502268005038
968,-0.34522819481815,0.435481420823689,0.48765120651764,-0.0421974704945321,0.0563833025077481,0.105240760894242,0.461477929310495,0.199514446984226,0.697979491732383,0.702932500397702,0.04,0.0702367929715791,333.009606590533,0.729020361068253,0.335638506824623
1028,-0.34522819481815,0.435481420823689,0.48765120651764,-0.0421974704945321,0.0563833025077481,0.105240760894242,0.461477929310495,0.199514446984226,0.699279344305394,0.702932500397702,0.04,0.0662789244476857,333.638357486303,0.754093281885638,0.325091473543448
1088,-0.34522819481815,0.435481420823689,0.48765120651764,-0.0421974704945322,0.0563833025077481,0.105240760894242,0.461477929310495,0.199514446984226,0.70060313918759,0.702932500397702,0.04,0.0654246049124059,334.266331178321,0.770549304423255,0.318747566808441
1148,-0.34522819481815,0.435481420823689,0.48765120651764,-0.0421974704945321,0.0563833025077482,0.105240760894242,0.461477929310495,0.199514446984226,0.70146726155488,0.702932500397702,0.04,0.0657420876396701,334.675350733179,0.780906844756323,0.314904722754682
1208,-0.34522819481815,0.435481420823689,0.48765120651764,-0.0421974704945321,0.0563833025077482,0.105240760894242,0.461477929310495,0.199514446984226,0.701996470109978,0.702932500397702,0.04,0.0663091681462061,334.925749966575,0.787476650175265,0.312511159050004
1268,-0.34522819481815,0.435481420823689,0.48765120651764,-0.0421974704945321,0.0563833025077481,0.105240760894242,0.461477929310495,0.199514446984226,0.702319679057132,0.702932500397702,0.04,0.0668130681738977,335.078714660908,0.791738337062914,0.310970965857995
1328,-0.34522819481815,0.435481420823689,0.48765120651764,-0.0421974704945321,0.0563833025077482,0.105240760894242,0.461477929310495,0.199514446984226,0.7025220403244,0.702932500397702,0.04,0.067187939781522,335.174539228592,0.79457056663361,0.309951129920173
1388,-0.34522819481815,0.435481420823689,0.48765120651764,-0.0421974704945321,0.0563833025077482,0.105240760894242,0.461477929310495,0.199514446984226,0.702653264882375,0.702932500397702,0.04,0.0674483721765701,335.236713616075,0.796487805835546,0.309262398422567
1448,-0.34522819481815,0.435481420823689,0.48765120651764,-0.0421974704945322,0.0563833025077481,0.105240760894242,0.461477929310495,0.199514446984226,0.702740943802415,0.702932500397702,0.04,0.0676249095420267,335.278272913736,0.797799771424935,0.30879209887638
1508,-0.34522819481815,0.435481420823689,0.48765120651764,-0.0421974704945321,0.0563833025077482,0.105240760894242,0.461477929310495,0.199514446984226,0.702800614727835,0.702932500397702,0.04,0.0677440078167986,335.306562608063,0.798702132860115,0.308469255733528
1568,-0.34522819481815,0.435481420823689,0.48765120651764,-0.0421974704945321,0.0563833025077481,0.105240760894242,0.461477929310495,0.199514446984226,0.70284157052054,0.702932500397702,0.04,0.067824581303273,335.325981054761,0.799324027426487,0.308247109083668
1628,-0.34522819481815,0.435481420823689,0.48765120651764,-0.0421974704945322,0.0563833025077481,0.105240760894242,0.461477929310495,0.199514446984226,0.702869757295589,0.702932500397702,0.04,0.0678793238605021,335.339345548778,0.799753021874309,0.308094041333973
1688,-0.34522819481815,0.435481420823689,0.48765120651764,-0.0421974704945322,0.0563833025077481,0.105240760894242,0.461477929310495,0.199514446984226,0.702889160993792,0.702932500397702,0.04,0.0679166367231594,335.348545573864,0.80004922075435,0.307988426386017
1748,-0.34522819481815,0.435481420823689,0.48765120651764,-0.0421974704945321,0.0563833025077481,0.105240760894242,0.461477929310495,0.199514446984226,0.70290251259037,0.702932500397702,0.04,0.0679421110532519,335.35487603696,0.800254027567353,0.307915416245798
1808,-0.344367788794419,0.431541748583313,0.480304704873128,-0.0449495996805938,0.0541311600860563,0.108661465837974,0.455938112467743,0.197716426972065,0.70294821016766,0.701932088629382,0.04,0.0676694588216818,335.382675237827,0.798954769561927,0.308441713550383
1868,-0.337914743616441,0.401994206780491,0.425205942539288,-0.0655905685760562,0.0372400919233677,0.134316752915966,0.414389486147103,0.184231276880851,0.699081870291409,0.69442900036698,0.04,0.0674992347933594,333.480009259612,0.774733444811253,0.316280325108694
1928,-0.331461698438462,0.372446664977671,0.370107180205447,-0.0862315374715185,0.020349023760679,0.159972039993958,0.372840859826462,0.170746126789638,0.691717980271257,0.686925912104577,0.04,0.0665736693755626,329.956752476435,0.745286119775707,0.325303445944291
1988,-0.325008653260483,0.342899123174849,0.315008417871606,-0.106872506366981,0.00345795559799024,0.185627327071949,0.331292233505822,0.157260976698425,0.683933988959445,0.679422823842175,0.04,0.0637388982159488,326.243531829313,0.717308135221245,0.334187983644506
2048,-0.318555608082504,0.313351581372029,0.259909655537766,-0.127513475262443,-0.0134331125646985,0.211282614149941,0.289743607185182,0.143775826607211,0.67625197618023,0.671919735579773,0.04,0.0595498063030266,322.602886640594,0.690570542381192,0.343253422883948
2108,-0.312102562904525,0.283804039569207,0.204810893203925,-0.148154444157906,-0.0303241807273871,0.236937901227932,0.248194980864542,0.130290676515998,0.668734045819205,0.66441664731737,0.04,0.0544751335944506,318.995853019552,0.664201797785765,0.352890255954299
