time,bias_percent_1,bias_percent_2,bias_percent_3,bias_percent_4,bias_percent_5,bias_percent_6,bias_percent_8,bias_percent_9,normalized_power,power_SP,SP,CV,total_power_MW,fuel_fraction,thermal_efficiency
30,0,0,0,0,0,0,0,0,0.999606161949866,1,0.04,0.0399956599750085,476.912498100406,0.999593026091111,0.35056629809806
90,0.00211266374125546,-0.0114968812229387,-0.00709857417923922,0.0177984609493997,0.00180463855693529,0.0160738149845204,-0.00618744074607838,-0.0137689605427506,0.998629016577712,0.996967568193358,0.04,0.0405902376404118,476.41186447818,0.99534819092129,0.351691776431937
150,0.00633799122376638,-0.0344906436688161,-0.0212957225377174,0.053395382848199,0.00541391567080564,0.048221444953561,-0.018562322238235,-0.0413068816282517,0.993174480218486,0.990902704580073,0.04,0.0420596827098637,473.795233456483,0.981811401331769,0.354582495734614
210,0.0105633187062773,-0.0574844061146937,-0.0354928708961958,0.0889923047469983,0.00902319278467598,0.0803690749226016,-0.0309372037303918,-0.0688448027137528,0.986955390475208,0.984837840966788,0.04,0.0426128353499228,470.826372551549,0.968383284814935,0.35724665651205
270,0.014788646188788,-0.0804781685605711,-0.0496900192546741,0.124589226645797,0.0126324698985463,0.112516704891642,-0.0433120852225485,-0.0963827237992539,0.98064663622949,0.978772977353503,0.04,0.0424864506003234,467.816297152334,0.956328130507242,0.359437258042439
330,0.0190139736712989,-0.103471931006449,-0.0638871676131524,0.160186148544597,0.0162417470124167,0.144664334860683,-0.0556869667147053,-0.123920644884755,0.974335048753542,0.972708113740218,0.04,0.0420039976670225,464.80511034872,0.945762041413273,0.361113472233845
390,0.0232393011538098,-0.126465693452326,-0.0780843159716309,0.195783070443396,0.0198510241262873,0.176811964829723,-0.0680618482068621,-0.151458565970256,0.968038770409513,0.966643250126933,0.04,0.0413772920792914,461.801322135665,0.936621657986896,0.362281078762968
450,0.0274646286363208,-0.149459455898204,-0.0922814643301091,0.231379992342196,0.0234603012401576,0.208959594798764,-0.0804367296990188,-0.178996487055757,0.961767054094957,0.960578386513648,0.04,0.0407335445349808,458.809306448426,0.928776216427214,0.362974243758464
510,0.0316899561188317,-0.172453218344081,-0.106478612688587,0.266976914240995,0.0270695783540281,0.241107224767805,-0.0928116111911755,-0.206534408141258,0.955524453761897,0.954513522900363,0.04,0.0401442663402506,455.831199269645,0.922057982585835,0.363245707825187
570,0.0359152836013426,-0.195446980789959,-0.120675761047066,0.302573836139794,0.0306788554678984,0.273254854736845,-0.105186492683332,-0.23407232922676,0.949312717585441,0.948448659287078,0.04,0.0396433015345549,452.867788964324,0.916291565906568,0.363155326957033
630,0.0401406110838534,-0.218440743235836,-0.134872909405544,0.338170758038594,0.0342881325817689,0.305402484705886,-0.117561374175489,-0.261610250312261,0.943125981374249,0.942383795673793,0.04,0.0392392086748072,449.916323593112,0.911299845657139,0.362764791731114
690,0.0443659385663644,-0.241434505681714,-0.149070057764022,0.373767679937393,0.0378974096956393,0.337550114674927,-0.129936255667646,-0.289148171397762,0.93696573729816,0.936318932060508,0.04,0.0389267501327579,446.977464700691,0.906932503851509,0.362130694137933
750,0.0485912660488752,-0.264428268127591,-0.163267206122501,0.409364601836192,0.0415066868095097,0.369697744643968,-0.142311137159802,-0.316686092483263,0.930828553983348,0.930254068447223,0.04,0.0386954749021053,444.049587139063,0.903044899370318,0.361307355412891
810,0.0528165935313862,-0.287422030573469,-0.177464354480979,0.444961523734991,0.04511596392338,0.401845374613008,-0.154686018651959,-0.344224013568764,0.924711388818277,0.924189204833938,0.04,0.0385321490708226,441.131232510586,0.899510522703242,0.360343120733265
870,0.0570419210138971,-0.310415793019346,-0.191661502839457,0.480558445633791,0.0487252410372505,0.433993004582049,-0.167060900144116,-0.371761934654265,0.918610828489532,0.918124341220653,0.04,0.0384230082405542,438.22077237717,0.896222597066397,0.359278928127527
930,0.0591545847551524,-0.321912674242285,-0.198760077018696,0.49835690658319,0.0505298795941857,0.450066819566569,-0.173248340890194,-0.385530895197016,0.913834255007238,0.915091909414011,0.04,0.0376688219387463,435.976772812104,0.898037452181985,0.356716813225951
990,0.0591545847551524,-0.321912674242285,-0.198760077018696,0.49835690658319,0.0505298795941857,0.450066819566569,-0.173248340890194,-0.385530895197016,0.913241703662106,0.915091909414011,0.04,0.0362658698904366,435.707493078066,0.908718741755864,0.352306146262427
1050,0.0591545847551525,-0.321912674242285,-0.198760077018696,0.49835690658319,0.0505298795941857,0.450066819566569,-0.173248340890194,-0.385530895197016,0.913376325119123,0.915091909414011,0.04,0.0358090425195081,435.773655556428,0.919405405602925,0.348264009067507
1110,0.0591545847551524,-0.321912674242285,-0.198760077018696,0.498356906583191,0.0505298795941856,0.450066819566569,-0.173248340890194,-0.385530895197016,0.91364038001923,0.915091909414011,0.04,0.0360244410493798,435.900121003621,0.928686127753496,0.34488373052646
1170,0.0591545847551524,-0.321912674242285,-0.198760077018696,0.49835690658319,0.0505298795941857,0.450066819566569,-0.173248340890194,-0.385530895197016,0.913935719483725,0.915091909414011,0.04,0.0365879049190238,436.041082156818,0.936232149863604,0.342214600383587
1230,0.0591545847551524,-0.321912674242285,-0.198760077018696,0.498356906583191,0.0505298795941856,0.450066819566569,-0.173248340890194,-0.385530895197016,0.914221605423236,0.915091909414011,0.04,0.0372835120464327,436.177290720142,0.942028210811712,0.340215282377849
1290,0.0591545847551525,-0.321912674242285,-0.198760077018696,0.49835690658319,0.0505298795941857,0.450066819566569,-0.173248340890194,-0.385530895197016,0.91447470467286,0.915091909414011,0.04,0.037979985834328,436.297724321194,0.94623016330619,0.338797998459912
1350,0.0591545847551524,-0.321912674242285,-0.198760077018696,0.49835690658319,0.0505298795941857,0.450066819566569,-0.173248340890194,-0.385530895197016,0.914683906080383,0.915091909414011,0.04,0.038604290295364,436.397166379055,0.949083874836506,0.337856285942192
1410,0.0591545847551525,-0.321912674242285,-0.198760077018696,0.49835690658319,0.0505298795941857,0.450066819566569,-0.173248340890194,-0.385530895197016,0.914846897924967,0.915091909414011,0.04,0.0391224650028815,436.474570090406,0.950865412042466,0.337283093159237
1470,0.0591545847551524,-0.321912674242285,-0.198760077018696,0.49835690658319,0.0505298795941857,0.450066819566569,-0.173248340890194,-0.385530895197016,0.914966906377303,0.915091909414011,0.04,0.0395257521231624,436.53150720158,0.951841331455135,0.336981230744299
1530,0.0591545847551524,-0.321912674242285,-0.198760077018696,0.49835690658319,0.0505298795941857,0.450066819566569,-0.173248340890194,-0.385530895197016,0.915050066992513,0.915091909414011,0.04,0.0398205827665989,436.570918796854,0.952246210862819,0.336868362785746
1590,0.0591545847551524,-0.321912674242285,-0.198760077018696,0.49835690658319,0.0505298795941856,0.450066819566569,-0.173248340890194,-0.385530895197016,0.915103294734217,0.915091909414011,0.04,0.0400215052095621,436.596116949646,0.952273011071852,0.336878325100191
1650,0.0591545847551525,-0.321912674242285,-0.198760077018696,0.49835690658319,0.0505298795941857,0.450066819566569,-0.173248340890194,-0.385530895197016,0.91513445841071,0.915091909414011,0.04,0.0401461969110324,436.610822301148,0.952071300186861,0.336961047011154
1710,0.0591545847551524,-0.321912674242285,-0.198760077018696,0.49835690658319,0.0505298795941857,0.450066819566569,-0.173248340890194,-0.385530895197016,0.915149061790029,0.915091909414011,0.04,0.0402127154558084,436.61768257002,0.951751583928565,0.337079536630342
1770,0.0591545847551524,-0.321912674242285,-0.198760077018696,0.49835690658319,0.0505298795941857,0.450066819566569,-0.173248340890194,-0.385530895197016,0.915152605111212,0.915091909414011,0.04,0.0402373412035241,436.619303313582,0.95139028058741,0.337208798877408
1830,0.0696680836913992,-0.303239748665802,-0.194601991739939,0.481198428007876,0.0371553367634148,0.437491466830348,-0.151378596982551,-0.383933683357151,0.91118887193109,0.908424633490384,0.04,0.0421050484030676,434.64152290922,0.942796195448941,0.338741236659088
1890,0.0906950815638927,-0.265893897512838,-0.186285821182423,0.446881470857246,0.010406251101873,0.412340761357906,-0.107639109167264,-0.380739259677421,0.898877721743635,0.89509008164313,0.04,0.0460430759417253,428.750934679675,0.920504041060937,0.342242592217519
1950,0.111722079436386,-0.228548046359874,-0.177969650624908,0.412564513706617,-0.0163428345596687,0.387190055885464,-0.0638996213519771,-0.377544835997692,0.885667299440643,0.881755529795876,0.04,0.0489339501719204,422.445850583185,0.896479088393979,0.346246635040427
2010,0.13274907730888,-0.191202195206909,-0.169653480067392,0.378247556555988,-0.0430919202212104,0.362039350413022,-0.0201601335366902,-0.374350412317962,0.872249772449486,0.868420977948622,0.04,0.0508836937617968,416.043091391101,0.872589304884247,0.350334659549217
2070,0.153776075181373,-0.153856344053945,-0.161337309509877,0.343930599405359,-0.0698410058827523,0.33688864494058,0.0235793542785968,-0.371155988638232,0.858515357391968,0.855086426101368,0.04,0.0520576347393615,409.589207824758,0.84989007489041,0.354111820244094
2130,0.174803073053867,-0.11651049290098,-0.153021138952361,0.30961364225473,-0.0965900915442941,0.311737939468138,0.0673188420938837,-0.367961564958503,0.845172395649989,0.841751874254114,0.04,0.0526572320093233,403.123976709823,0.828051358907434,0.357714077410261
2190,0.19583007092636,-0.079164641748016,-0.144704968394846,0.2752966851041,-0.123339177205836,0.286587233995696,0.111058329909171,-0.364767141278773,0.831754378771805,0.82841732240686,0.04,0.0529321539710184,396.724499172423,0.807364592143866,0.361055527240462
2250,0.216857068798854,-0.0418187905950517,-0.13638879783733,0.240979727953471,-0.150088262867378,0.261436528523254,0.154797817724457,-0.333708529125384,0.817889580242768,0.815082770559606,0.04,0.0536832812964176,390.107999121964,0.78908897898902,0.36325663377274
2310,0.237884066671347,-0.00447293944208741,-0.128072627279815,0.206662770802842,-0.176837348528919,0.236285823050812,0.198537305539744,-0.299317091181884,0.804546948617667,0.801748218712352,0.04,0.0545022989822341,383.74380377151,0.771707546199056,0.365378766506189
2370,0.258911064543841,0.032872911710877,-0.119756456722299,0.172345813652213,-0.203586434190461,0.21113511757837,0.242276793355031,-0.26285940326033,0.791288858372086,0.788413666865098,0.04,0.0555170630885666,377.418539334232,0.753956826414771,0.367816686816476
2430,0.279938062416334,0.0702187628638414,-0.111440286164784,0.138028856501583,-0.230335519852003,0.185984412105928,0.286016281170318,-0.224011049879028,0.778034841472404,0.775079115017844,0.04,0.0565913471477628,371.094998590769,0.735717376858729,0.370619924933121
2490,0.300965060288828,0.107564614016806,-0.103124115607268,0.103711899350954,-0.257084605513545,0.160833706633486,0.329755768985605,-0.18258041998279,0.764771341214785,0.76174456317059,0.04,0.0575882864901784,364.766902610588,0.717030403706936,0.373794176104894
2550,0.321992058161322,0.14491046516977,-0.0948079450497526,0.069394942200325,-0.283833691175086,0.135683001161044,0.373495256800892,-0.138623661338371,0.751498169141792,0.748410011323336,0.04,0.0583780208166716,358.434187229502,0.697955774724809,0.377342912435064
2610,0.343019056033815,0.182256316322735,-0.0864917744922371,0.0350779850496956,-0.310582776836628,0.110532295688602,0.417234744616179,-0.0924910984819786,0.738208076469057,0.735075459476082,0.04,0.0588381612393648,352.093251324176,0.678569996663893,0.381256910277856
2670,0.364046053906308,0.219602167475699,-0.0781756039347216,0.000761027899066335,-0.33733186249817,0.0853815902161598,0.460974232431466,-0.0474304908036404,0.724803517293361,0.721740907628828,0.04,0.0589865986732223,345.694582766944,0.659228607946419,0.385310819773608
2730,0.374559552842555,0.238275093052181,-0.0740175186559638,-0.0163974506762481,-0.350706405328941,0.0728062374799389,0.482843976339109,-0.0224042073191388,0.711108062622146,0.708406355781575,0.04,0.0591189640251997,339.161857833481,0.64191609186093,0.388224928730675
2790,0.374559552842555,0.238275093052181,-0.0740175186559638,-0.0163974506762482,-0.350706405328941,0.0728062374799389,0.482843976339109,-0.0105826841495484,0.69744937812044,0.695071803934321,0.04,0.0591595813812122,332.644504261825,0.62627794428681,0.390272465143499
2850,0.374559552842555,0.238275093052181,-0.0740175186559638,-0.0163974506762482,-0.350706405328941,0.0728062374799389,0.482843976339109,-0.00499861849535498,0.683857760224223,0.681737252087067,0.04,0.0593163462939551,326.160987821129,0.612428085546483,0.391319591150613
2910,0.374559552842555,0.238275093052181,-0.0740175186559638,-0.0163974506762482,-0.350706405328941,0.0728062374799389,0.482843976339109,-0.00236090516654844,0.670381209694092,0.668402700239813,0.04,0.0596438035207778,319.732045743868,0.599644663435835,0.391784156751305
2970,0.374559552842555,0.238275093052181,-0.0740175186559638,-0.0163974506762482,-0.350706405328941,0.0728062374799389,0.482843976339109,-0.00111494352573989,0.656972557952846,0.655068148392559,0.04,0.0601477691232359,313.335157283643,0.587423367604145,0.391933679342823
3030,0.374559552842555,0.238275093052181,-0.0740175186559638,-0.0163974506762481,-0.350706405328941,0.0728062374799389,0.482843976339109,-0.000526395713150752,0.64359821910729,0.641733596545305,0.04,0.0607937754191604,306.95444491179,0.575498897669348,0.391907980165622
3090,0.374559552842555,0.238275093052181,-0.0740175186559638,-0.0163974506762482,-0.350706405328941,0.0728062374799389,0.482843976339109,-0.000248386730825756,0.630240253229785,0.628399044698051,0.04,0.061542717015033,300.581444168376,0.563742279091159,0.391774564116519
3150,0.374559552842555,0.238275093052181,-0.0740175186559638,-0.0163974506762482,-0.350706405328941,0.0728062374799389,0.482843976339109,-0.000117065209269645,0.616889708530184,0.615064492850797,0.04,0.0623642735837981,294.211937249399,0.552093824718353,0.391563386972825
3210,0.374559552842555,0.238275093052181,-0.0740175186559638,-0.0163974506762482,-0.350706405328941,0.0728062374799389,0.482843976339109,-5.50336091436015e-05,0.603542300552044,0.601729941003543,0.04,0.0632385110113232,287.843903997785,0.540527517636312,0.391285635080304
3270,0.374559552842555,0.238275093052181,-0.0740175186559638,-0.0163974506762482,-0.350706405328941,0.0728062374799388,0.482843976339109,-2.57320950532764e-05,0.590196066658422,0.588395389156289,0.04,0.0641537179059453,281.476421276313,0.529033075112665,0.390943387749305
3330,0.374559552842555,0.238275093052181,-0.0740175186559638,-0.0163974506762482,-0.350706405328941,0.0728062374799389,0.482843976339109,-1.1891105521417e-05,0.576850151640237,0.575060837309035,0.04,0.0651038672811529,275.109084334411,0.517607196778772,0.390534406377097
3390,0.374559552842555,0.238275093052181,-0.0740175186559638,-0.0163974506762482,-0.350706405328941,0.0728062374799389,0.482843976339109,-5.3531160294696e-06,0.563504186774666,0.561726285461781,0.04,0.0660864996658564,268.74172379052,0.506249585451072,0.390054321776751
3450,0.374559552842555,0.238275093052181,-0.0740175186559638,-0.0163974506762482,-0.350706405328941,0.0728062374799389,0.482843976339109,-2.26480312392089e-06,0.550158019531212,0.548391733614527,0.04,0.0671013899607667,262.374264565169,0.494961205353683,0.389497567650316
3510,0.374559552842555,0.238275093052181,-0.0740175186559638,-0.0163974506762482,-0.350706405328941,0.0728062374799389,0.482843976339109,-8.05994324314497e-07,0.536811528382219,0.535057181767273,0.04,0.0681495943350742,256.006652163418,0.483743739396362,0.388857580078735
3570,0.374559552842555,0.238275093052181,-0.0740175186559638,-0.0163974506762482,-0.350706405328941,0.0728062374799389,0.482843976339109,-1.16905109946124e-07,0.523464617183857,0.521722629920019,0.04,0.069232791730443,249.638837864413,0.472599489315388,0.388126754241409
3630,0.364287022036979,0.239873353803249,-0.059245476623903,-0.00215274382833928,-0.355111785499517,0.0549715297434514,0.47715001062323,2.08596042423549e-07,0.513297332817784,0.515055353996392,0.04,0.0667219113609807,244.871483615195,0.471977471892867,0.38121643803312
3690,0.343741960425827,0.243069875305384,-0.0297013925597815,0.0263366698674785,-0.363922545840671,0.0193021142704763,0.465762079191473,3.62351170184611e-07,0.512820209651786,0.515055353996392,0.04,0.0600873728884641,244.671206049863,0.485991860809545,0.369920622366078
3750,0.323196898814674,0.24626639680752,-0.000157308495660061,0.0548260835632963,-0.372733306181825,-0.0163673012024988,0.454374147759715,4.34979603623954e-07,0.513514435376161,0.515055353996392,0.04,0.0567651912024445,245.003162930147,0.496694915023453,0.36244044373785
3810,0.302651837203522,0.249462918309655,0.0293867755684615,0.0833154972591142,-0.381544066522978,-0.0520367166754738,0.442986216327957,4.69286681835072e-07,0.514109421414468,0.515055353996392,0.04,0.0553788120429523,245.285582104298,0.50349670346549,0.357956345805813
3870,0.282106775592369,0.252659439811791,0.058930859632583,0.111804910954932,-0.390354826864132,-0.0877061321484488,0.431598284896199,4.70527247203671e-07,0.51452016082051,0.515055353996392,0.04,0.0547248917187695,245.480153388439,0.50746009120678,0.355442347957836
3930,0.261561713981217,0.255855961313926,0.0884749436967045,0.14029432465075,-0.399165587205286,-0.123375547621424,0.420210353464441,4.86078123414681e-07,0.514772786269607,0.515055353996392,0.04,0.054218663812417,245.599570777728,0.50960394249698,0.354119221297645
3990,0.241016652370064,0.259052482816062,0.118019027760826,0.168783738346568,-0.407976347546439,-0.159044963094399,0.408822422032684,0.0240465069302896,0.514097467194015,0.515055353996392,0.04,0.054663125310651,245.264434141307,0.512376420896726,0.351722471492672
4050,0.220471590758912,0.262249004318198,0.147563111824948,0.197273152042386,-0.416787107887593,-0.194714378567374,0.397434490600926,0.0796866679966527,0.513598271943933,0.515055353996392,0.04,0.0553447499677976,245.038534412413,0.520878350214957,0.345662889287405
4110,0.199926529147759,0.265445525820333,0.177107195889069,0.225762565738203,-0.425597868228746,-0.230383794040349,0.386046559169168,0.135326829063016,0.513828371768154,0.515055353996392,0.04,0.0566914286331524,245.149620836298,0.528788094847317,0.340646737024163
4170,0.179381467536606,0.268642047322468,0.206651279953191,0.254251979434021,-0.4344086285699,-0.266053209513324,0.37465862773741,0.190966990129379,0.51404681788641,0.515055353996392,0.04,0.058579140674513,245.253026189941,0.53523426669179,0.336686064445847
4230,0.158836405925454,0.271838568824604,0.236195364017312,0.282741393129839,-0.443219388911054,-0.301722624986299,0.363270696305652,0.246607151195742,0.514160380586095,0.515055353996392,0.04,0.0605815464114268,245.306485183516,0.540791160257446,0.333299085515351
4290,0.138291344314302,0.275035090326739,0.265739448081434,0.311230806825657,-0.452030149252207,-0.337392040459274,0.351882764873895,0.302247312262105,0.514206245713726,0.515055353996392,0.04,0.06250814068971,245.328007699693,0.545957281570469,0.330174208626706
4350,0.117746282703149,0.278231611828875,0.295283532145555,0.339720220521475,-0.460840909593361,-0.373061455932249,0.340494833442137,0.357887473328468,0.514222546030797,0.515055353996392,0.04,0.0643232002002937,245.335649749747,0.550979116587372,0.327175065534813
4410,0.0972012210919966,0.28142813333101,0.324827616209677,0.368209634217293,-0.469651669934514,-0.408730871405224,0.329106902010379,0.413527634394831,0.51422836105172,0.515055353996392,0.04,0.0660427212786488,245.338377546812,0.55595012271753,0.324253247782579
4470,0.076656159480844,0.284624654833146,0.354371700273798,0.39669904791311,-0.478462430275668,-0.444400286878199,0.317718970578621,0.469167795461195,0.51423028985106,0.515055353996392,0.04,0.0676873429541267,245.339276839958,0.560903166451112,0.321391114290634
4530,0.0663836286752678,0.286222915584214,0.369143742305859,0.410943754761019,-0.482867810446245,-0.462234994614687,0.312025004862742,0.496987875994376,0.514788519005181,0.515055353996392,0.04,0.0685724110311891,245.612852237475,0.564542648855006,0.319675246050413
4590,0.0663836286752678,0.286222915584214,0.369143742305859,0.410943754761019,-0.482867810446245,-0.462234994614687,0.312025004862742,0.496987875994376,0.515180016968752,0.515055353996392,0.04,0.0693565212438481,245.79273527781,0.564166552076894,0.320122636068291
4650,0.0663836286752679,0.286222915584214,0.369143742305859,0.410943754761019,-0.482867810446245,-0.462234994614687,0.312025004862742,0.496987875994376,0.515125423722165,0.515055353996392,0.04,0.0698045182409443,245.765613738048,0.563569689208181,0.320426309375805
4710,0.0663836286752679,0.286222915584214,0.369143742305859,0.410943754761019,-0.482867810446245,-0.462234994614687,0.312025004862742,0.496987875994376,0.515054993169112,0.515055353996392,0.04,0.0699250132007061,245.732397045932,0.563452957684971,0.320449376144577
4770,0.0663836286752679,0.286222915584214,0.369143742305859,0.410943754761019,-0.482867810446245,-0.462234994614687,0.312025004862742,0.496987875994376,0.51503414637232,0.515055353996392,0.04,0.0699318975319409,245.722760574643,0.563557099243578,0.320377595058504
4830,0.0663836286752678,0.286222915584214,0.369143742305859,0.410943754761019,-0.482867810446245,-0.462234994614687,0.312025004862742,0.496987875994376,0.515037159068255,0.515055353996392,0.04,0.069925883046364,245.724281967643,0.563677644981408,0.320311063643629
4890,0.0663836286752678,0.286222915584214,0.369143742305859,0.410943754761019,-0.482867810446245,-0.462234994614687,0.312025004862742,0.496987875994376,0.515043726156947,0.515055353996392,0.04,0.0699267959133776,245.727406521325,0.563760270416604,0.320268190818499
4950,0.0663836286752678,0.286222915584214,0.369143742305859,0.410943754761019,-0.482867810446245,-0.462234994614687,0.312025004862742,0.496987875994376,0.515048060466643,0.515055353996392,0.04,0.0699311873319346,245.729454426869,0.563811641567777,0.320241678782045
5010,0.0663836286752678,0.286222915584214,0.369143742305859,0.410943754761019,-0.482867810446245,-0.462234994614687,0.312025004862742,0.496987875994376,0.515050370704872,0.515055353996392,0.04,0.0699352526277439,245.730545095675,0.563845551361552,0.320223840683427
5070,0.0663836286752678,0.286222915584214,0.369143742305859,0.410943754761019,-0.482867810446245,-0.462234994614687,0.312025004862742,0.496987875994376,0.515051679060063,0.515055353996392,0.04,0.0699379815886535,245.731164268847,0.563869967841822,0.32021078131474
5130,0.0663836286752678,0.286222915584214,0.369143742305859,0.410943754761019,-0.482867810446245,-0.462234994614687,0.312025004862742,0.496987875994376,0.515052544009037,0.515055353996392,0.04,0.0699396267566446,245.731574504438,0.563888449203053,0.320200821011315
5190,0.0663836286752678,0.286222915584214,0.369143742305859,0.410943754761019,-0.482867810446245,-0.462234994614687,0.312025004862742,0.496987875994376,0.51505316544381,0.515055353996392,0.04,0.0699405942448313,245.7318694139,0.563902755393471,0.320193081801632
5250,0.0663836286752678,0.286222915584214,0.369143742305859,0.410943754761019,-0.482867810446245,-0.462234994614687,0.312025004862742,0.496987875994376,0.515053614202831,0.515055353996392,0.04,0.0699411473642764,245.732082326995,0.563914039231633,0.320186952208562
5310,0.0663836286752678,0.286222915584214,0.369143742305859,0.410943754761019,-0.482867810446245,-0.462234994614687,0.312025004862742,0.496987875994376,0.515053932665681,0.515055353996392,0.04,0.0699414295395302,245.732233379801,0.563923164324527,0.320181967937732
5370,0.0663836286752678,0.286222915584214,0.369143742305859,0.410943754761019,-0.482867810446245,-0.462234994614687,0.312025004862742,0.496987875994376,0.515054156153372,0.515055353996392,0.04,0.0699415244230964,245.732339377085,0.563930769837875,0.320177787878498
5430,0.0577626089862415,0.284363804383254,0.369635304169951,0.38566408049975,-0.471724116202397,-0.432100636139736,0.312294156206141,0.473976020686644,0.515389957387856,0.515055353996392,0.04,0.069500105601209,245.896984226075,0.563167915447279,0.320826308550697
5490,0.0405205696081891,0.280645581981335,0.370618427898134,0.335104731977211,-0.449436727714701,-0.371831919189835,0.312832458892937,0.42795231007118,0.515564270874379,0.515055353996392,0.04,0.0686958272913157,245.975176302109,0.56016125548495,0.322650906788739
5550,0.0232785302301364,0.276927359579416,0.371601551626318,0.284545383454673,-0.427149339227006,-0.311563202239934,0.313370761579734,0.381928599455716,0.515448877595899,0.515055353996392,0.04,0.0675571750986607,245.919715939965,0.557540723319241,0.324094328102514
5610,0.00603649085208406,0.273209137177497,0.372584675354501,0.233986034932134,-0.40486195073931,-0.251294485290033,0.31390906426653,0.335904888840252,0.515361239492376,0.515055353996392,0.04,0.0661479390910546,245.878410533528,0.555558491043237,0.325196066346434
5670,-0.0112055485259685,0.269490914775578,0.373567799082685,0.183426686409596,-0.382574562251614,-0.191025768340131,0.314447366953327,0.289881178224788,0.515328979260067,0.515055353996392,0.04,0.0646438872419342,245.863340171517,0.553870884373674,0.326166923874124
5730,-0.0284475879040211,0.265772692373658,0.374550922810868,0.132867337887057,-0.360287173763919,-0.13075705139023,0.314985669640123,0.243857467609324,0.515322903808771,0.515055353996392,0.04,0.0631149742762848,245.860556125013,0.552260201704952,0.327114494893315
5790,-0.0456896272820736,0.262054469971739,0.375534046539052,0.0823079893645187,-0.337999785276223,-0.0704883344403291,0.31552397232692,0.19783375699386,0.515324698279614,0.515055353996392,0.04,0.0615670380201952,245.861434793798,0.550649304334952,0.328072624686032
5850,-0.0629316666601262,0.25833624756982,0.376517170267236,0.0317486408419801,-0.315712396788527,-0.010219617490428,0.316062275013716,0.151810046378397,0.51532642458654,0.515055353996392,0.04,0.0599880260219386,245.862235016374,0.549024946735487,0.329044338718725
5910,-0.0801737060381786,0.254618025167901,0.377500293995419,-0.0188107076805584,-0.293425008300831,0.0500490994594733,0.316600577700513,0.105786335762933,0.5153224643795,0.515055353996392,0.04,0.0583626202027739,245.860279690624,0.547410020957814,0.330012434732351
5970,-0.0974157454162312,0.250899802765982,0.378483417723603,-0.0693700562030971,-0.271137619813136,0.110317816409374,0.317138880387309,0.0597626251474687,0.515308542633466,0.515055353996392,0.04,0.0566751024366516,245.853551489438,0.545856802252237,0.330942418140286
6030,-0.114657784794284,0.247181580364062,0.379466541451786,-0.119929404725636,-0.24885023132544,0.170586533359276,0.317677183074106,0.0137389145320047,0.515284032149711,0.515055353996392,0.04,0.0549133685759269,245.841779262776,0.544429693285279,0.331794026629454
6090,-0.131899824172336,0.243463357962143,0.38044966517997,-0.170488753248174,-0.226562842837744,0.230855250309177,0.318215485760903,4.99999999999974e-07,0.514390293773054,0.515055353996392,0.04,0.0541997674783256,245.410396212104,0.545932532598943,0.330300063983704
6150,-0.149141863550389,0.239745135560224,0.381432788908153,-0.221048101770713,-0.204275454350049,0.291123967259078,0.318753788447699,5.00000000000046e-07,0.514167391348437,0.515055353996392,0.04,0.0535671287048729,245.309330633564,0.551120980419174,0.327055757881919
6210,-0.166383902928441,0.236026913158305,0.382415912636337,-0.271607450293251,-0.181988065862353,0.351392684208979,0.319292091134496,5.00000000000022e-07,0.514225211973113,0.515055353996392,0.04,0.0534732323195084,245.337466177726,0.556252517106457,0.32407577080697
6270,-0.183625942306494,0.232308690756386,0.38339903636452,-0.32216679881579,-0.159700677374657,0.41166140115888,0.319830393821292,5.0000000000001e-07,0.514298678009799,0.515055353996392,0.04,0.053737938019667,245.372423053231,0.560936954264216,0.321415173898308
6330,-0.19224696199552,0.230449579555426,0.383890598228612,-0.347446473077059,-0.14855698313081,0.441795759633831,0.32009954516469,5.00000000000005e-07,0.512826026157525,0.510935765992176,0.04,0.0557458460918845,244.623122131094,0.557713158247988,0.322285888491408
6390,-0.19224696199552,0.230449579555426,0.383890598228612,-0.347446473077059,-0.14855698313081,0.441795759633831,0.32009954516469,5.00000000000002e-07,0.505381550863248,0.502696589983744,0.04,0.0605486130010818,241.051221203874,0.541620755904131,0.327015782634873
6450,-0.19224696199552,0.230449579555426,0.383890598228612,-0.347446473077059,-0.14855698313081,0.441795759633831,0.32009954516469,5.00000000000001e-07,0.496816564127079,0.494457413975312,0.04,0.0634080743955445,236.962239396277,0.526227910158845,0.330871944086235
6510,-0.19224696199552,0.230449579555426,0.383890598228612,-0.347446473077059,-0.14855698313081,0.441795759633831,0.32009954516469,5.00000000000001e-07,0.488159441370577,0.486218237966881,0.04,0.0647864558397069,232.832318368177,0.51333810212329,0.333268631542488
6570,-0.19224696199552,0.230449579555426,0.383890598228612,-0.347446473077059,-0.14855698313081,0.441795759633831,0.32009954516469,5e-07,0.479590183491658,0.477979061958449,0.04,0.0654229507155141,228.744767804593,0.502636071330109,0.334389162112747
6630,-0.19224696199552,0.230449579555426,0.383890598228612,-0.347446473077059,-0.14855698313081,0.441795759633831,0.32009954516469,5e-07,0.471123189196561,0.469739885950017,0.04,0.0657802896084731,224.705911172706,0.49350444193212,0.334563152316419
6690,-0.19224696199552,0.230449579555426,0.383890598228612,-0.347446473077059,-0.14855698313081,0.441795759633831,0.32009954516469,5e-07,0.462738599066885,0.461500709941585,0.04,0.0660952849298584,220.706180917933,0.485402130898299,0.334093090226079
6750,-0.19224696199552,0.230449579555426,0.383890598228612,-0.347446473077059,-0.14855698313081,0.441795759633831,0.32009954516469,5e-07,0.454412576485501,0.453261533933153,0.04,0.0664695302582379,216.734212616181,0.477929642465314,0.333210118617438
6810,-0.19224696199552,0.230449579555426,0.383890598228612,-0.347446473077059,-0.14855698313081,0.441795759633831,0.32009954516469,5e-07,0.446124892132096,0.445022357924721,0.04,0.0669332342267048,212.780395035007,0.470817946560385,0.332072780246492
6870,-0.19224696199552,0.230449579555426,0.383890598228612,-0.347446473077059,-0.14855698313081,0.441795759633831,0.32009954516469,5e-07,0.43786048860455,0.436783181916289,0.04,0.0674835109663663,208.83758657787,0.46389910258864,0.330780431629134
6930,-0.19224696199552,0.230449579555426,0.383890598228612,-0.347446473077059,-0.14855698313081,0.441795759633831,0.32009954516469,5e-07,0.429609122544355,0.428544005907857,0.04,0.0681053747963194,204.900932915495,0.457076063409947,0.329389790264488
6990,-0.19224696199552,0.230449579555426,0.383890598228612,-0.347446473077059,-0.14855698313081,0.441795759633831,0.32009954516469,5e-07,0.421364368484324,0.420304829899425,0.04,0.0687821700800741,200.967395358896,0.450297602039776,0.327929620112851
7050,-0.19224696199552,0.230449579555426,0.383890598228612,-0.347446473077059,-0.14855698313081,0.441795759633831,0.32009954516469,5e-07,0.41312249638774,0.412065653890993,0.04,0.0694999190621714,197.035212013832,0.443539884075115,0.326411794581033
7110,-0.19224696199552,0.230449579555426,0.383890598228612,-0.347446473077059,-0.14855698313081,0.441795759633831,0.32009954516469,5e-07,0.404881541173526,0.403826477882561,0.04,0.0702485131710395,193.103454819342,0.436794052438259,0.324838879597326
7170,-0.19224696199552,0.230449579555426,0.383890598228612,-0.347446473077059,-0.14855698313081,0.441795759633831,0.32009954516469,5e-07,0.396640596532986,0.39558730187413,0.04,0.0710214002740543,189.171698848232,0.430058572865414,0.323208840277732
7230,-0.171670344562762,0.222032418622995,0.358681448738048,-0.322309492675853,-0.147193838562426,0.426859662136987,0.324879327480731,5e-07,0.388505378498613,0.387348125865698,0.04,0.0717201457323951,185.284625205252,0.422952185727152,0.321886517296207
7290,-0.130517109697245,0.205198096758133,0.30826314975692,-0.272035531873441,-0.144467549425658,0.396987467143298,0.334438892112811,5e-07,0.38021132429653,0.379108949857266,0.04,0.073418143558242,181.334805059561,0.416197853723966,0.32013710238932
7350,-0.0893638748317286,0.188363774893271,0.257844850775793,-0.221761571071028,-0.14174126028889,0.36711527214961,0.343998456744892,5e-07,0.372173612285043,0.370869773848834,0.04,0.075556787689439,177.499975395253,0.408370909617644,0.319372983960923
7410,-0.0482106399662119,0.171529453028409,0.207426551794665,-0.171487610268616,-0.139014971152122,0.337243077155922,0.353558021376973,5e-07,0.364081146749147,0.362630597840402,0.04,0.0780313005977259,173.638462586054,0.399518383122011,0.319347735401923
7470,-0.00705740510069523,0.154695131163546,0.157008252813537,-0.121213649466203,-0.136288682015354,0.307370882162234,0.363117586009053,5e-07,0.355919108426569,0.35439142183197,0.04,0.080614339607417,169.743880121704,0.390068434996689,0.319748115644426
7530,0.0340958297648212,0.137860809298684,0.106589953832409,-0.070939688663791,-0.133562392878586,0.277498687168545,0.372677150641134,5e-07,0.347709053100497,0.346152245823538,0.04,0.0831831671962819,165.826574390692,0.380357205183813,0.32034441588876
7590,0.075249064630338,0.121026487433822,0.0561716548512817,-0.0206657278613785,-0.130836103741818,0.247626492174857,0.382236715273215,5e-07,0.339472755975615,0.337913069815106,0.04,0.0856800479493062,161.896901525687,0.370584508275694,0.321000680441457
7650,0.116402299495854,0.10419216556896,0.00575335587015394,0.0296082329410338,-0.128109814605051,0.217754297181169,0.391796279905295,5e-07,0.331225978460608,0.329673893806674,0.04,0.0880673178974699,157.962322010836,0.360841917364947,0.321655664266611
7710,0.157555534361371,0.0873578437040976,-0.0446649431109737,0.0798821937434462,-0.125383525468283,0.18788210218748,0.401355844537376,5e-07,0.322975325188653,0.321434717798242,0.04,0.0903037791685388,154.025896165197,0.351160497985951,0.322286982571795
7770,0.198708769226888,0.0705235218392354,-0.0950832420921015,0.130156154545859,-0.122657236331515,0.158009907193792,0.410915409169457,5e-07,0.314714201422168,0.31319554178981,0.04,0.0923404875883921,150.084373367498,0.341582801432883,0.322845068267973
7830,0.239862004092404,0.0536891999743733,-0.145501541073229,0.180430115348271,-0.119930947194747,0.128137712200104,0.420474973801537,5e-07,0.306430402673573,0.304956365781379,0.04,0.0941564399895104,146.131987922379,0.33222295599119,0.323199239719952
7890,0.281015238957921,0.036854878109511,-0.195919840054357,0.230704076150683,-0.117204658057979,0.0982655172064155,0.430034538433618,5e-07,0.298142776697963,0.296717189772947,0.04,0.0960388055185545,142.178087523613,0.323172513909243,0.323260713992717
7950,0.322168473823437,0.0200205562446489,-0.246338139035485,0.280978036953096,-0.114478368921211,0.0683933222127272,0.439594103065699,5e-07,0.289780117078505,0.288478013764515,0.04,0.0979933575861304,138.187033684986,0.314610810416093,0.322736681591312
8010,0.363321708688954,0.0031862343797867,-0.296756438016612,0.331251997755508,-0.111752079784443,0.038521127219039,0.449153667697779,5e-07,0.281342526289777,0.280238837756083,0.04,0.0993648361310352,134.161564210451,0.30717765882626,0.320917324892088
8070,0.404474943554471,-0.0136480874850755,-0.290226884445676,0.38152595855792,-0.109025790647676,0.00864893222535073,0.45871323232986,5e-07,0.272700420445071,0.271999661747651,0.04,0.105776583452503,130.036776760965,0.301545118822538,0.316860840210768
8130,0.425051560987229,-0.0220652484175066,-0.285963468578919,0.406662938959127,-0.107662646079292,-0.00628716527149339,0.4634930146459,5e-07,0.265367802182751,0.267880073743435,0.04,0.105035763313107,126.588549660161,0.306381371272849,0.303589498534818
8190,0.425051560987229,-0.0220652484175066,-0.291120954720528,0.406662938959127,-0.107662646079292,-0.00628716527149345,0.4634930146459,5e-07,0.265253481693931,0.267880073743435,0.04,0.0929746492287481,126.561077591772,0.323550618342291,0.287417101961877
8250,0.425051560987229,-0.0220652484175066,-0.300486049872806,0.406662938959127,-0.107662646079292,-0.00628716527149345,0.4634930146459,5e-07,0.266476448034371,0.267880073743435,0.04,0.0882731008075272,127.145053274076,0.334510971095132,0.27928253530584
8310,0.425051560987229,-0.0220652484175066,-0.308468127121418,0.406662938959127,-0.107662646079292,-0.00628716527149339,0.4634930146459,5e-07,0.267331204107247,0.267880073743435,0.04,0.0881206663164604,127.548103826022,0.339250046710114,0.276254121940714
8370,0.425051560987229,-0.0220652484175066,-0.313630664300318,0.406662938959127,-0.107662646079292,-0.00628716527149339,0.4634930146459,5e-07,0.267673757000272,0.267880073743435,0.04,0.0891206829109619,127.708578133233,0.341003548153074,0.275179354796544
8430,0.425051560987229,-0.0220652484175066,-0.316612185155393,0.406662938959127,-0.107662646079292,-0.00628716527149339,0.4634930146459,5e-07,0.267777331688215,0.267880073743435,0.04,0.0899177069225432,127.756985144234,0.341769608325238,0.274666624427405
8490,0.425051560987229,-0.0220652484175066,-0.318302138576626,0.406662938959127,-0.107662646079292,-0.00628716527149345,0.4634930146459,5e-07,0.267812740438955,0.267880073743435,0.04,0.0903531505823297,127.773658185103,0.342232756136364,0.274330711801778
8550,0.425051560987229,-0.0220652484175066,-0.319285582853679,0.406662938959127,-0.107662646079292,-0.00628716527149339,0.4634930146459,5e-07,0.267834379088685,0.267880073743435,0.04,0.0905697298753168,127.783932587948,0.342548290084705,0.274100054474668
8610,0.425051560987229,-0.0220652484175066,-0.319874360375227,0.406662938959127,-0.107662646079292,-0.00628716527149339,0.4634930146459,5e-07,0.267850863439404,0.267880073743435,0.04,0.0906841593638884,127.791757398958,0.342754836762642,0.273951654012668
8670,0.425051560987229,-0.0220652484175066,-0.320231265519575,0.406662938959127,-0.107662646079292,-0.00628716527149345,0.4634930146459,5e-07,0.267862271301217,0.267880073743435,0.04,0.0907509482297577,127.797161086127,0.34288257085741,0.27386117852005
8730,0.425051560987229,-0.0220652484175066,-0.320447797078463,0.406662938959127,-0.107662646079292,-0.00628716527149345,0.4634930146459,5e-07,0.267869343610563,0.267880073743435,0.04,0.0907917296572364,127.800506368937,0.342959625787639,0.273806815496827
8790,0.425051560987229,-0.0220652484175066,-0.320579063642785,0.406662938959127,-0.107662646079292,-0.00628716527149339,0.4634930146459,5e-07,0.267873486304537,0.267880073743435,0.04,0.0908163732431951,127.802464962069,0.343006517419559,0.273773579620678
8850,0.425051560987229,-0.0220652484175066,-0.320658959269502,0.406662938959127,-0.107662646079292,-0.00628716527149339,0.4634930146459,5e-07,0.267875891385059,0.267880073743435,0.04,0.0908307824781689,127.803602180796,0.343035898479916,0.273752566783181
8910,0.425051560987229,-0.0220652484175066,-0.320708131630068,0.406662938959127,-0.107662646079292,-0.00628716527149345,0.4634930146459,5e-07,0.267877308164987,0.267880073743435,0.04,0.0908388830373224,127.804272290938,0.343055029895602,0.273738735493122
8970,0.425051560987229,-0.0220652484175066,-0.320738978079385,0.406662938959127,-0.107662646079292,-0.00628716527149345,0.4634930146459,5e-07,0.26787815586935,0.267880073743435,0.04,0.0908432037941245,127.80467331883,0.343068060569714,0.27372919705118
9030,0.421178417083224,-0.0338161531730837,-0.320647795301651,0.390579377097848,-0.0980961163500184,-0.0133960650184388,0.43287275234184,5e-07,0.268569263761968,0.267880073743435,0.04,0.0870355624934425,128.149554830175,0.341759974890542,0.275518381794661
9090,0.413432129275212,-0.057317962684238,-0.317914345188772,0.358412253375292,-0.0789630568914719,-0.0276138645123295,0.371632227733718,5e-07,0.269387610367728,0.267880073743435,0.04,0.0811233994369938,128.525870512793,0.33354490272032,0.283133281377096
9150,0.405685841467201,-0.0808197721953923,-0.312229249909731,0.326245129652735,-0.0598299974329254,-0.0418316640062203,0.310391703125597,5e-07,0.269308058720658,0.267880073743435,0.04,0.0741531657853866,128.485558157378,0.324671165708553,0.29078049495413
9210,0.39793955365919,-0.104321581706547,-0.305411366209062,0.294078005930178,-0.0406969379743788,-0.056049463500111,0.249151178517476,5e-07,0.269178880501485,0.267880073743435,0.04,0.065328562621777,128.424635860908,0.316660618272251,0.297994990867881
9270,0.390193265851179,-0.127823391217701,-0.298369460343696,0.261910882207621,-0.0215638785158322,-0.0702672629940017,0.187910653909354,5e-07,0.269147018194419,0.267880073743435,0.04,0.0552873137094092,128.410070413082,0.309034003998655,0.305314543043714
