time,bias_percent_1,bias_percent_2,bias_percent_3,bias_percent_4,bias_percent_5,bias_percent_6,bias_percent_8,bias_percent_9,normalized_power,power_SP,SP,CV,total_power_MW,fuel_fraction,thermal_efficiency
22,0,0,0,0,0,0,0,0,0.99946316308294,1,0.04,0.0400275699634941,476.869584289861,0.999382417945429,0.350608624338692
82,0.0102707072941299,-0.0101857014943154,0.00985189462642359,-0.00632184845508345,0.00190247091119613,-0.00824807833525335,-0.00109976553494147,-0.00653850799175535,0.998282533361901,0.995627512279905,0.04,0.0406789105720995,476.220835507728,0.993847328455387,0.352081652789635
142,0.0382817271872115,-0.0379648873879024,0.0367206981530334,-0.0235632533325839,0.00709102794173123,-0.0307428374313986,-0.00409912608478174,-0.0243708025147245,0.988124852456882,0.983702545770554,0.04,0.0435187047268404,471.342285135202,0.968410498570846,0.357628062859846
202,0.0662927470802929,-0.0657440732814895,0.0635895016796433,-0.0408046582100843,0.0122795849722665,-0.0532375965275438,-0.00709848663462202,-0.0422030970376937,0.976182779241491,0.971777579261204,0.04,0.0449427653082269,465.640227155639,0.941077517245799,0.363563077211281
262,0.0943037669733744,-0.0935232591750765,0.0904583052062532,-0.0580460630875847,0.0174681420028016,-0.075732355623689,-0.0100978471844624,-0.0600353915606629,0.963976905691912,0.959852612751854,0.04,0.0450543181567101,459.816021724396,0.91511192493872,0.369202438857148
322,0.122314786866456,-0.121302445068664,0.117327108732863,-0.0752874679650851,0.0226566990333367,-0.0982271147198343,-0.0130972077343026,-0.077867686083632,0.95181054738037,0.947927646242503,0.04,0.04434949922915,454.005360506793,0.891048663925522,0.374381373798323
382,0.150325806759537,-0.149081630962251,0.144195912259473,-0.0925288728425855,0.0278452560638718,-0.12072187381598,-0.016096568284143,-0.0956999806066012,0.939340082933697,0.936002679733153,0.04,0.0431946023221002,448.145574621113,0.869336633016126,0.378778925469633
442,0.178336826652619,-0.176860816855838,0.171064715786083,-0.109770277720086,0.0330338130944072,-0.143216632912125,-0.0190959288339833,-0.11353227512957,0.927112881506219,0.924077713223803,0.04,0.0418960509121944,442.309703763046,0.849391238548321,0.382625021257664
502,0.206347846545701,-0.204640002749425,0.197933519312693,-0.127011682597586,0.0382223701249422,-0.16571139200827,-0.0220952893838236,-0.13136456965254,0.915042675538319,0.912152746714452,0.04,0.0405625904192145,436.521059657117,0.831374443157453,0.385800873946792
