time,bias_percent_1,bias_percent_2,bias_percent_3,bias_percent_4,bias_percent_5,bias_percent_6,bias_percent_8,bias_percent_9,normalized_power,power_SP,SP,CV,total_power_MW,fuel_fraction,thermal_efficiency
45,0,0,0,0,0,0,0,0,0.999767618191966,1,0.04,0.0399276439350582,476.993036160012,0.999901487408613,0.350517334526633
105,0.0210082649198112,-0.0208343894201904,0.0201516026449574,-0.0129310536581253,0.00389141777290138,-0.016871069322109,-0.00224952041238026,-0.0133742208922269,0.994873915279113,0.991056275117987,0.04,0.0418562683410032,474.574498451245,0.984886147007296,0.354056885583111
165,0.0490192848128927,-0.0486135753137775,0.0470204061715672,-0.0301724585356257,0.00907997480343647,-0.0393658284182542,-0.00524888096222054,-0.031206515415196,0.983614806390367,0.979131308608637,0.04,0.0442520808167945,469.187813021254,0.957856786184071,0.359915722549441
225,0.0770303047059741,-0.0763927612073645,0.073889209698177,-0.047413863413126,0.0142685318339717,-0.0618605875143994,-0.00824824151206082,-0.0490388099381652,0.971515695531852,0.967206342099286,0.04,0.0451110799871777,463.413118792728,0.930914166073061,0.365774445999259
285,0.105041324599056,-0.104171947100952,0.100758013224787,-0.0646552682906265,0.0194570888645069,-0.0843553466105446,-0.0112476020619011,-0.0668711044611344,0.95928069768191,0.955281375589936,0.04,0.0448598143746057,457.575354146963,0.905658937452082,0.371238170282597
345,0.133052344492137,-0.131951132994539,0.127626816751397,-0.0818966731681269,0.0246456458950419,-0.10685010570669,-0.0142469626117415,-0.0847033989841036,0.947082427359912,0.943356409080586,0.04,0.0439662380769497,451.745114473737,0.882401426003774,0.376168079170247
405,0.161063364385219,-0.159730318888126,0.154495620278007,-0.0991380780456273,0.029834202925577,-0.129344864802835,-0.0172463231615818,-0.102535693507073,0.93477579092803,0.931431442571235,0.04,0.0427598199878945,445.879394089576,0.861257431807311,0.380398763083978
465,0.1890743842783,-0.187509504781713,0.181364423804616,-0.116379482923128,0.0350227599561123,-0.15183962389898,-0.020245683711422,-0.120367988030042,0.922358607857202,0.919506476061885,0.04,0.0414085265883516,440.057074379241,0.842340604803986,0.383862729570752
