time,bias_percent_1,bias_percent_2,bias_percent_3,bias_percent_4,bias_percent_5,bias_percent_6,bias_percent_8,bias_percent_9,normalized_power,power_SP,SP,CV,total_power_MW,fuel_fraction,thermal_efficiency
13,0,0,0,0,0,0,0,0,0.999772472668643,1,0.04,0.0401663321013334,476.925204320287,0.998543460986245,0.350944126792987
73,0.00674759130111363,0.00594891982043021,-0.00158112562580391,0.00729488525097577,0.00717904057980729,-0.000878580464218771,-0.00594201309952246,-0.00579126489175979,0.996829863012454,0.990331680279883,0.04,0.042146382989563,475.378554129304,0.988469908043178,0.353370921508756
133,0.0378903203831761,0.0334054728378003,-0.00887862851412979,0.0409635864093259,0.0403130740250713,-0.00493356722215185,-0.0333666889434721,-0.0325201797768052,0.959828834131413,0.945708666187036,0.04,0.0568051170601272,457.591093708687,0.908841504227643,0.369950899381636
193,0.0690330494652388,0.0608620258551705,-0.0161761314024557,0.0746322875676759,0.0734471074703356,-0.00898855398008482,-0.0607913647874217,-0.0592490946618507,0.915431039588428,0.901085652094189,0.04,0.0680946984369843,436.394822311306,0.82033910281461,0.390877662098672
253,0.100175778547301,0.0883185788725406,-0.0234736342907815,0.108300988726026,0.1065811409156,-0.0130435407380178,-0.0882160406313714,-0.085978009546896,0.870271377224708,0.856462638001342,0.04,0.0751838406166976,414.846011229206,0.733954006751789,0.41531034513807
313,0.131318507629364,0.115775131889911,-0.0307711371791073,0.141969689884376,0.139715174360864,-0.0170985274959507,-0.115640716475321,-0.112706924431941,0.824879346458778,0.811839623908495,0.04,0.0786319405913198,393.188681900681,0.651861885005757,0.443200351451406
373,0.162461236711427,0.143231684907281,-0.0380686400674333,0.175638391042726,0.172849207806128,-0.0211535142538837,-0.143065392319271,-0.139435839316987,0.779395847109279,0.767216609815648,0.04,0.0789591746777598,371.487510554973,0.574728456927782,0.47493720534289
433,0.193603965793489,0.170688237924651,-0.0453661429557592,0.209307092201076,0.205983241251392,-0.0252085010118167,-0.0874625604735949,-0.0874625604735949,0.72876133156994,0.722593595722801,0.04,0.0812884332760578,347.519424058601,0.521737945722791,0.489419575748029
493,0.224746694875552,0.198144790942021,-0.052663645844085,0.242975793359426,0.239117274696656,-0.0292634877697496,-0.041314036598282,-0.041314036598282,0.68236694334025,0.677970581629953,0.04,0.0834849707056406,325.398990888457,0.491959131683431,0.486006247181218
553,0.255889423957615,0.225601343959391,-0.0599611487324108,0.276644494517776,0.27225130814192,-0.0333184745276826,-0.0195150765383805,-0.0195150765383805,0.637510762508304,0.633347567537106,0.04,0.0880642857324419,304.057562911444,0.465201725773819,0.480251985814593
613,0.287032153039677,0.253057896976761,-0.0672586516207368,0.310313195676126,0.305385341587185,-0.0373734612856156,-0.00921799506897221,-0.00921799506897221,0.593161143242842,0.588724553444259,0.04,0.0945589492622039,282.820654763712,0.437906793253485,0.474552337784091
673,0.31817488212174,0.280514449994131,-0.0745561545090626,0.343981896834476,0.338519375032449,-0.0414284480435485,-0.00435400405392614,-0.00435400405392614,0.548562012906641,0.544101539351412,0.04,0.102395545846902,261.645290668031,0.409996830028274,0.46890741419154
733,0.349317611203802,0.307971003011502,-0.0818536573973885,0.377650597992827,0.371653408477713,-0.0454834348014815,-0.00205642026209955,-0.00205642026209955,0.504268210442854,0.499478525258565,0.04,0.111372071992952,240.479113084417,0.380397772205034,0.464508935792347
793,0.380460340285865,0.335427556028872,-0.0891511602857143,0.411319299151176,0.404787441922977,-0.0495384215594145,-0.000971119324666007,-0.000971119324666007,0.459546681585682,0.454855511165718,0.04,0.12098372518765,219.179306885723,0.350467077897491,0.45952272956929
853,0.411603069367928,0.362884109046242,-0.0964486631740402,0.444988000309527,0.437921475368241,-0.0535934083173475,-0.000458460122470307,-0.000458460122470307,0.415069642359787,0.410232497072871,0.04,0.130836404912717,197.976576565824,0.320353220107465,0.454087338671439
913,0.435998207148877,0.384391742243182,-0.102165040436562,0.471361816216901,0.463876468233698,-0.0567698146110617,-0.000216297298338147,-0.000216297298338147,0.372234559445925,0.375277802700141,0.04,0.138668547362593,177.396838950468,0.303495951238336,0.429484654741412
973,0.435998207148877,0.384391742243182,-0.102165040436562,0.471361816216901,0.463876468233698,-0.0567698146110617,-0.000101907368983978,-0.000101907368983978,0.363741294903675,0.375277802700141,0.04,0.114900520159708,173.533649703751,0.365250148536423,0.349098494477641
1033,0.435998207148877,0.384391742243182,-0.102165040436562,0.471361816216901,0.463876468233698,-0.0567698146110617,-4.78735863519265e-05,-4.78735863519265e-05,0.365734582150527,0.375277802700141,0.04,0.0971791408388903,174.522325439508,0.428948550422741,0.29895131143135
1093,0.435998207148877,0.384391742243182,-0.102165040436562,0.471361816216901,0.463876468233698,-0.0567698146110617,-2.23499558162984e-05,-2.23499558162984e-05,0.369654665952653,0.375277802700141,0.04,0.0915861093443362,176.390395219249,0.470548025241651,0.275439140467689
1153,0.435998207148877,0.384391742243182,-0.102165040436562,0.471361816216901,0.463876468233698,-0.0567698146110617,-1.02935036490425e-05,-1.02935036490425e-05,0.372478986587969,0.375277802700141,0.04,0.0919422287840145,177.726055575689,0.492372965729388,0.26522324180645
1213,0.435998207148877,0.384391742243182,-0.102165040436562,0.471361816216901,0.463876468233698,-0.0567698146110616,-4.59846592083105e-06,-4.59846592083105e-06,0.373923432714564,0.375277802700141,0.04,0.0936791228483109,178.406231253506,0.502893035794917,0.260668812754319
1273,0.435998207148877,0.384391742243182,-0.102165040436562,0.471361816216901,0.463876468233698,-0.0567698146110617,-1.90833334486172e-06,-1.90833334486172e-06,0.374546252316983,0.375277802700141,0.04,0.0951059823252571,178.699124154204,0.508292220434521,0.258323334169861
1333,0.435998207148877,0.384391742243182,-0.102165040436562,0.471361816216901,0.463876468233698,-0.0567698146110617,-6.37610722526397e-07,-6.37610722526397e-07,0.374822279052118,0.375277802700141,0.04,0.0959751923894337,178.829240808414,0.511493068468318,0.256893701493222
1393,0.435998207148877,0.384391742243182,-0.102165040436562,0.471361816216901,0.463876468233698,-0.0567698146110617,-3.73667058043162e-08,-3.73667058043162e-08,0.374974539142476,0.375277802700141,0.04,0.0964537148634855,178.901316768377,0.513589559854639,0.255948168679311
1453,0.435998207148877,0.384391742243182,-0.102165040436562,0.471361816216901,0.463876468233698,-0.0567698146110617,2.46167145941012e-07,2.46167145941012e-07,0.375076620735663,0.375277802700141,0.04,0.0967193864098829,178.949730576201,0.514987837685716,0.25532230269575
1513,0.435998207148877,0.384391742243182,-0.102165040436562,0.471361816216901,0.463876468233698,-0.0567698146110617,3.80098418633338e-07,3.80098418633338e-07,0.375147838586125,0.375277802700141,0.04,0.096876813210318,178.983496751711,0.515900287343262,0.254918817383296
1573,0.435998207148877,0.384391742243182,-0.102165040436562,0.471361816216901,0.463876468233698,-0.0567698146110617,4.43362772059107e-07,4.43362772059107e-07,0.375195564028139,0.375277802700141,0.04,0.0969757387174948,179.006105359291,0.516481395574592,0.25466416509004
1633,0.435998207148877,0.384391742243182,-0.102165040436562,0.471361816216901,0.463876468233698,-0.0567698146110617,4.73246594813298e-07,4.73246594813298e-07,0.375226086083938,0.375277802700141,0.04,0.0970392526262744,179.020555077211,0.516847188843093,0.254504471586501
1693,0.435998207148877,0.384391742243182,-0.102165040436562,0.471361816216901,0.463876468233698,-0.0567698146110617,4.87362646176278e-07,4.87362646176278e-07,0.375245082903686,0.375277802700141,0.04,0.0970797435513407,179.029546204624,0.517077904734809,0.254403690320565
1753,0.435998207148877,0.384391742243182,-0.102165040436562,0.471361816216901,0.463876468233698,-0.0567698146110617,4.9403056506073e-07,4.9403056506073e-07,0.375256833440309,0.375277802700141,0.04,0.097105110780179,179.035107860608,0.517225009593012,0.254339235877086
1813,0.434596630055662,0.375503887893496,-0.0981684816520262,0.467000870914305,0.461259369753392,-0.0529467826692554,4.97180251974327e-07,4.97180251974327e-07,0.375306425573834,0.375615522992287,0.04,0.0968817623886399,179.065099105913,0.517828558775951,0.254085349908386
1873,0.428127812702365,0.334483021664175,-0.0797228257233986,0.446873431056174,0.449180453690439,-0.0353020198609186,4.98668051664994e-07,4.98668051664994e-07,0.376762757599144,0.377174232032962,0.04,0.0949417395797266,179.768466414431,0.520700520164836,0.253676465666307
1933,0.421658995349067,0.293462155434855,-0.0612771697947711,0.426745991198042,0.437101537627487,-0.0176572570525819,4.9937083514166e-07,4.9937083514166e-07,0.378719262471603,0.378732941073637,0.04,0.0935725776724958,180.702413865241,0.521702779902781,0.254504508046943
1993,0.415190177995769,0.252441289205535,-0.0428315138661434,0.40661855133991,0.425022621564535,-1.24942442450902e-05,4.99702804913156e-07,4.99702804913156e-07,0.380574971872725,0.380291650114311,0.04,0.0926491015152488,181.586355243493,0.520592831596639,0.256294746546493
2053,0.408721360642472,0.211420422976214,-0.0243858579375158,0.386491111481778,0.412943705501582,0.0176322685640916,4.99859615647395e-07,4.99859615647395e-07,0.38226824273998,0.381850359154986,0.04,0.0918032307976866,182.393168635097,0.518373151296205,0.25853583315185
2113,0.402252543289174,0.170399556746894,-0.00594020200888832,0.366363671623646,0.40086478943863,0.0352770313724284,4.99933687441924e-07,4.99933687441924e-07,0.383869406369487,0.383409068195661,0.04,0.0908592600681088,183.156636977988,0.515748124702519,0.260939411998734
2173,0.395783725935876,0.129378690517573,0.0125054539197392,0.346236231765514,0.388785873375677,0.0529217941807652,4.99968676314154e-07,4.99968676314154e-07,0.385436359610301,0.384967777236336,0.04,0.0897842323735937,183.904089829958,0.513022768251653,0.263396150846561
2233,0.389314908582579,0.088357824288253,0.0309511098483669,0.326108791907382,0.376706957312725,0.070566556989102,4.99985203808699e-07,4.99985203808699e-07,0.386992857429452,0.386526486277011,0.04,0.0885916785300337,184.64664838523,0.510295068950622,0.265873304593287
2293,0.382846091229281,0.0473369580589329,0.0493967657769944,0.305981352049249,0.364628041249773,0.0882113197974387,4.99993010807282e-07,4.99993010807282e-07,0.388544817243783,0.388085195317685,0.04,0.0872930637174004,185.387057536882,0.507599504652828,0.268356981374521
2353,0.376377273875983,0.00631609182961233,0.0678424217056221,0.285853912191117,0.35254912518682,0.105856082605776,4.99996698554793e-07,4.99996698554793e-07,0.390093036505608,0.38964390435836,0.04,0.0858872663278703,186.125684326065,0.504959337403686,0.270834868405403
2413,0.369908456522686,-0.0347047743997081,0.0862880776342496,0.265726472332985,0.340470209123868,0.123500845414112,4.99998440515108e-07,4.99998440515108e-07,0.391637887870669,0.391202613399035,0.04,0.0843627273055057,186.862708488279,0.50239567752726,0.273294833427923
2473,0.363439639169388,-0.0757256406290284,0.104733733562877,0.245599032474853,0.328391293060916,0.141145608222449,4.99999263354992e-07,0.00509640728228263,0.393122226333304,0.39276132243971,0.04,0.0829523944121373,187.56000076615,0.499991079632954,0.275633910106947
2533,0.35697082181609,-0.116746506858349,0.123179389491505,0.225471592616721,0.316312376997963,0.158790371030786,4.9999965203511e-07,0.0389122660346973,0.394027002661118,0.394320031480385,0.04,0.081966959158243,188.001532234369,0.501127652852124,0.27565615671756
2593,0.350502004462793,-0.157767373087669,0.141625045420132,0.205344152758589,0.304233460935011,0.176435133839122,4.99999835633804e-07,0.072728124787112,0.395605885002144,0.395878740521059,0.04,0.0808652760051112,188.756746626675,0.503001935550814,0.275732211055694
2653,0.344033187109495,-0.19878823931699,0.16007070134876,0.185216712900457,0.292154544872059,0.194079896647459,4.99999922359275e-07,0.106543983539527,0.397251001583019,0.397437449561734,0.04,0.0800316222282026,189.541314703364,0.504354172990123,0.276135947170284
2713,0.338965946849412,-0.230921251196624,0.174519798492851,0.169450218344921,0.282692727289413,0.20790162751399,4.99999963325291e-07,0.133033072895585,0.399028869392799,0.398996158602409,0.04,0.0792001548100649,190.398302516196,0.505158392971075,0.276942861638433
2773,0.338965946849412,-0.230921251196624,0.174519798492851,0.16945021834492,0.282692727289413,0.20790162751399,4.99999982676177e-07,0.133033072895585,0.400931238874805,0.400554867643084,0.04,0.0801157557569999,191.296081123624,0.503129922074044,0.279370537315612
2833,0.338965946849412,-0.230921251196624,0.174519798492852,0.169450218344921,0.282692727289413,0.20790162751399,4.99999991816844e-07,0.133033072895585,0.402309845634875,0.402113576683759,0.04,0.0805259374257671,191.952710960511,0.501595365580832,0.281187111912654
2893,0.338965946849412,-0.230921251196624,0.174519798492852,0.169450218344921,0.282692727289413,0.20790162751399,4.99999996134569e-07,0.133033072895585,0.403699665734883,0.403672285724433,0.04,0.080414453844166,192.607614556515,0.501239185628224,0.28234695806273
2953,0.338965946849412,-0.230921251196624,0.174519798492851,0.169450218344921,0.282692727289413,0.20790162751399,4.99999998174107e-07,0.133033072895585,0.405126910234098,0.405230994765108,0.04,0.0800858550863803,193.2978533193,0.50175756272223,0.283066047069261
3013,0.338965946849412,-0.230921251196624,0.174519798492852,0.16945021834492,0.282692727289413,0.20790162751399,4.99999999137513e-07,0.133033072895585,0.406631386319088,0.406789703805783,0.04,0.0797487567261438,194.015930693844,0.502692571156587,0.283589143185714
3073,0.338965946849412,-0.230921251196624,0.174519798492851,0.169450218344921,0.282692727289413,0.20790162751399,4.99999999592592e-07,0.133033072895585,0.40816288942886,0.408348412846458,0.04,0.0794554433099977,194.746759128816,0.50383718560098,0.284010697244726
3133,0.338965946849412,-0.230921251196624,0.174519798492852,0.169450218344921,0.282692727289413,0.20790162751399,4.99999999807555e-07,0.133033072895585,0.409707735315744,0.409907121887133,0.04,0.0792058652395067,195.483876658732,0.505087505290481,0.284379963450023
3193,0.338965946849412,-0.230921251196624,0.174519798492852,0.169450218344921,0.282692727289413,0.20790162751399,4.99999999909096e-07,0.133033072895585,0.41125903063665,0.411465830927808,0.04,0.0789880248878413,196.224034701666,0.506393241380999,0.284720656832046
