time,bias_percent_1,bias_percent_2,bias_percent_3,bias_percent_4,bias_percent_5,bias_percent_6,bias_percent_8,bias_percent_9,normalized_power,power_SP,SP,CV,total_power_MW,fuel_fraction,thermal_efficiency
0,0,0,0,0,0,0,0,0,1,1,0.04,0.0399999999999017,483.535990330301,1,0.355290406680714
60,0,0,0,0,0,0,0,0,0.999864535653511,1,0.04,0.0399000138339898,477.037655707658,1.00007847576001,0.350488084687998
120,-0.00332055881803399,-0.0287223593890146,-0.0263158713364973,-0.00489431710778035,-0.0166732245583125,1.7092774073717e-05,-0.0264924627529487,0.0202766939313393,0.999962858239775,0.998266435059827,0.04,0.038434385758519,477.074198113802,0.992331541478771,0.353251333168107
180,-0.00664111763606786,-0.0574447187780294,-0.0526317426729945,-0.00978863421556048,-0.0333464491166251,3.4185548147434e-05,-0.0529849255058975,0.0405533878626787,0.998587113372508,0.996532870119655,0.04,0.0370486910766941,476.413221859028,0.980373499191926,0.357064701455283
240,-0.00996167645410196,-0.0861670781670439,-0.0789476140094918,-0.0146829513233408,-0.0500196736749376,5.12783222210373e-05,-0.0794773882588461,0.0608300817940181,0.99690746484398,0.994799305179482,0.04,0.0353693406509053,475.610733100285,0.967678446040333,0.361139718614212
300,-0.0132822352721359,-0.114889437556059,-0.105263485345989,-0.0195772684311212,-0.0666928982332503,6.83710962946407e-05,-0.105969851011795,0.0811067757253575,0.995149705837513,0.99306574023931,0.04,0.033557009207289,474.771901133085,0.955025232013016,0.365279111825559
360,-0.0166027940901698,-0.143611796945073,-0.131579356682486,-0.0244715855389014,-0.0833661227915626,8.54638703683577e-05,-0.132462313764744,0.101383469656697,0.993404275823795,0.991332175299137,0.04,0.0317954247375756,473.9394747755,0.942503408892736,0.369483143221314
420,-0.0199233529082038,-0.172334156334088,-0.157895228018984,-0.0293659026466817,-0.100039347349875,0.000102556644442075,-0.158954776517692,0.121660163588036,0.991668491360435,0.989598610358965,0.04,0.0302008575979299,473.110893034068,0.929965237522659,0.373809994623176
480,-0.0232439117262379,-0.201056515723103,-0.184211099355481,-0.034260219754462,-0.116712571908188,0.000119649418515678,-0.185447239270641,0.141936857519375,0.989822292217621,0.987865045418792,0.04,0.0287340195207405,472.229031796848,0.917837466146966,0.378043328138801
540,-0.0265644705442718,-0.229778875112117,-0.210526970691978,-0.0391545368622421,-0.1333857964665,0.000136742192589395,-0.21193970202359,0.162213551450715,0.987875737237346,0.986131480478619,0.04,0.0273299247316664,471.299827835611,0.906817228841343,0.381884643408571
600,-0.0298850293623058,-0.258501234501132,-0.236842842028475,-0.0440488539700225,-0.150059021024813,0.000153834966662998,-0.238432164776538,0.182490245382054,0.985887737882344,0.984397915538447,0.04,0.0260037176832728,470.35107088667,0.897253167871465,0.385178300920582
660,-0.0332055881803398,-0.287223593890147,-0.263158713364973,-0.0489431710778028,-0.166732245583125,0.000170927740736602,-0.264924627529487,0.202766939313394,0.983845401215853,0.982664350598274,0.04,0.0247715477136785,469.37608194228,0.889409946552132,0.38776950272352
720,-0.0365261469983736,-0.315945953279161,-0.28947458470147,-0.0538374881855831,-0.183405470141438,0.000188020514810319,-0.291417090282436,0.223043633244733,0.981729444350244,0.980930785658102,0.04,0.0236162279021117,468.366052683621,0.883715101597307,0.389428569569964
780,-0.0398467058164077,-0.344668312668176,-0.315790456037967,-0.0587318052933634,-0.20007869469975,0.000205113288883922,-0.317909553035384,0.243320327176072,0.979567504201922,0.979197220717929,0.04,0.0225404887637932,467.33437887189,0.880515117199907,0.389982923129472
840,-0.0431672646344417,-0.373390672057191,-0.342106327374464,-0.0636261224011437,-0.216751919258063,0.000222206062957639,-0.344402015788333,0.263597021107412,0.977416748382239,0.977463655777757,0.04,0.0215733875851489,466.306277138452,0.879923620403496,0.38938656417333
900,-0.0464878234524756,-0.402113031446205,-0.368422198710962,-0.0685204395089239,-0.233425143816376,0.000239298837031356,-0.370894478541282,0.283873715038751,0.975247250225548,0.975730090837584,0.04,0.0207475040225241,465.273568995803,0.881917612727633,0.387645763835445
960,-0.0464878234524756,-0.402113031446205,-0.368422198710962,-0.068520439508924,-0.233425143816376,0.000239298837031242,-0.370894478541282,0.283873715038751,0.97218952601233,0.975730090837584,0.04,0.0210362556590397,463.82062702749,0.899038313435336,0.379076214382181
1020,-0.0464878234524756,-0.402113031446205,-0.368422198710962,-0.0685204395089239,-0.233425143816376,0.000239298837031356,-0.370894478541282,0.283873715038751,0.971356160224052,0.975730090837584,0.04,0.0216653462057486,463.43003455823,0.923932370364331,0.368551913084594
1080,-0.0464878234524756,-0.402113031446205,-0.368422198710962,-0.0685204395089239,-0.233425143816376,0.000239298837031356,-0.370894478541282,0.283873715038751,0.971127201176283,0.975730090837584,0.04,0.0229533720395555,463.325080501476,0.951349046151832,0.357849651885858
1140,-0.0464878234524756,-0.402113031446205,-0.368422198710962,-0.068520439508924,-0.233425143816376,0.000239298837031242,-0.370894478541282,0.283873715038751,0.971388539655743,0.975730090837584,0.04,0.0247826037075149,463.453233030738,0.978152848571999,0.348139954635212
1200,-0.0464878234524756,-0.402113031446205,-0.368422198710962,-0.0685204395089239,-0.233425143816376,0.000239298837031356,-0.370894478541282,0.283873715038751,0.972020919193494,0.975730090837584,0.04,0.026990266395203,463.75732092584,1.00185462675218,0.340126716560453
1260,-0.0464878234524756,-0.402113031446205,-0.368422198710962,-0.0685204395089239,-0.233425143816376,0.000239298837031356,-0.370894478541282,0.283873715038751,0.972879117603694,0.975730090837584,0.04,0.0293984889413397,464.167956640075,1.02079523797047,0.334111325220248
1320,-0.0464878234524756,-0.402113031446205,-0.368422198710962,-0.068520439508924,-0.233425143816376,0.000239298837031356,-0.370894478541282,0.283873715038751,0.97381791641909,0.975730090837584,0.04,0.0318332926679523,464.615967044004,1.0341995032445,0.330099207881492
1380,-0.0464878234524756,-0.402113031446205,-0.368422198710962,-0.0685204395089239,-0.233425143816376,0.000239298837031356,-0.370894478541282,0.283873715038751,0.974713762652827,0.975730090837584,0.04,0.034139459717248,465.042618888115,1.04208666048457,0.327901644938392
1440,-0.0464878234524756,-0.402113031446205,-0.368422198710962,-0.068520439508924,-0.233425143816376,0.000239298837031242,-0.370894478541282,0.283873715038751,0.975477587456048,0.975730090837584,0.04,0.0361917081993062,465.40573830592,1.04508552102036,0.327216035932509
1500,-0.0464878234524756,-0.402113031446205,-0.368422198710962,-0.0685204395089239,-0.233425143816376,0.000239298837031356,-0.370894478541282,0.283873715038751,0.97606016914525,0.975730090837584,0.04,0.0379029179189169,465.682153264865,1.0442027213808,0.327687179257966
1560,-0.0464878234524756,-0.402113031446205,-0.368422198710962,-0.0685204395089239,-0.233425143816376,0.000239298837031356,-0.370894478541282,0.283873715038751,0.976449887696368,0.975730090837584,0.04,0.0392289968181757,465.866588610384,1.04058859226297,0.328955521388597
1620,-0.0464878234524756,-0.402113031446205,-0.368422198710962,-0.0685204395089239,-0.233425143816376,0.000239298837031356,-0.370894478541282,0.283873715038751,0.976663548673122,0.975730090837584,0.04,0.0401679415898712,465.967246159716,1.03534567506696,0.330692764616488
1680,-0.0464878234524756,-0.402113031446205,-0.368422198710962,-0.0685204395089239,-0.233425143816376,0.000239298837031356,-0.370894478541282,0.283873715038751,0.976731964611458,0.975730090837584,0.04,0.0407524144711998,465.998885012392,1.02941262248383,0.332621306167526
1740,-0.0464878234524756,-0.402113031446205,-0.368422198710962,-0.068520439508924,-0.233425143816376,0.000239298837031242,-0.370894478541282,0.283873715038751,0.976692871635545,0.975730090837584,0.04,0.0410378988031031,465.97951811477,1.02351096881022,0.334525326242212
1800,-0.0464878234524756,-0.402113031446205,-0.368422198710962,-0.0685204395089239,-0.233425143816376,0.000239298837031356,-0.370894478541282,0.283873715038751,0.976580977601793,0.975730090837584,0.04,0.041091064230959,465.925686547113,1.01814797229353,0.336248557137166
1860,-0.0305833167757082,-0.400088688372685,-0.357684269157294,-0.0456783957018448,-0.193589475875731,-0.0207946449067655,-0.358572459127703,0.260152344466026,0.975177619283664,0.975881223230882,0.04,0.041698856987218,465.253664746923,1.02015035953108,0.335104524815476
1920,-0.014678810098941,-0.398064345299165,-0.346946339603625,-0.0228363518947657,-0.153753807935086,-0.0418285886505623,-0.346250439714124,0.236430973893301,0.974971658241537,0.97603235562418,0.04,0.0422950871062892,465.158726548615,1.0259934020203,0.333128110311775
1980,0.0012256965778264,-0.396040002225644,-0.336208410049957,5.69191231329569e-06,-0.113918139994441,-0.0628625323943593,-0.333928420300544,0.212709603320576,0.975052264858038,0.976183488017478,0.04,0.0431412024293023,465.198889893391,1.03275083001875,0.330976983328629
2040,0.0171302032545938,-0.394015659152124,-0.325470480496289,0.0228477357193925,-0.0740824720537964,-0.0838964761381561,-0.321606400886965,0.188988232747851,0.975310928116648,0.976334620410777,0.04,0.0441989033260656,465.323432630497,1.03919264892141,0.329013360091131
2100,0.0330347099313609,-0.391991316078604,-0.314732550942621,0.0456897795264715,-0.0342468041131517,-0.104930419881953,-0.309284381473386,0.165266862175127,0.97568134729411,0.976485752804075,0.04,0.0453934320769457,465.500806690508,1.0445169411145,0.327461031847991
2160,0.0489392166081282,-0.389966973005083,-0.303994621388953,0.0685318233335505,0.00558886382749301,-0.12596436362575,-0.296962362059807,0.141545491602401,0.976107729386263,0.976636885197373,0.04,0.0466442259211888,465.704484541882,1.04827986047177,0.326428338196207
2220,0.0648437232848956,-0.387942629931563,-0.293256691835285,0.0913738671406296,0.0454245317681377,-0.146998307369547,-0.284640342646228,0.117824121029677,0.976548291162188,0.976788017590671,0.04,0.0478792699850335,465.914665165168,1.05031814947077,0.325941895383535
2280,0.0807482299616628,-0.385918286858043,-0.282518762281617,0.114215910947709,0.0852601997087826,-0.168032251113344,-0.272318323232648,0.0941027504569518,0.97697438384349,0.976939149983969,0.04,0.0490422238558259,466.118144827214,1.05066122102214,0.325977768490076
2340,0.0966527366384303,-0.383893943784523,-0.271780832727949,0.137057954754788,0.125095867649427,-0.189066194857141,-0.259996303819069,0.070381379884227,0.977379765332198,0.977090282377267,0.04,0.0500957356350062,466.31100238114,1.0494353188436,0.326493592434135
2400,0.112557243315198,-0.381869600711002,-0.261042903174281,0.159899998561867,0.164931535590072,-0.210100138600937,-0.24767428440549,0.0466600093115019,0.977763504883909,0.977241414770565,0.04,0.0510211340945324,466.493977590724,1.04678072160541,0.327450005436486
2460,0.128461749991965,-0.379845257637482,-0.250304973620613,0.182742042368946,0.204767203530717,-0.231134082344734,-0.235352264991911,0.0229386387387771,0.978132375635098,0.977392547163863,0.04,0.0518153615983508,466.669713788371,1.04278153106675,0.328829644005092
2520,0.144366256668732,-0.377820914563962,-0.239567044066945,0.205584086176025,0.244602871471361,-0.252168026088531,-0.223030245578332,-0.000782731833947764,0.978422639086422,0.977543679557161,0.04,0.0524517877910543,466.807169547104,1.03773483921142,0.330526128449562
2580,0.160270763345499,-0.375796571490441,-0.228829114513277,0.228426129983104,0.284438539412007,-0.273201969832328,-0.210708226164753,-0.0245041024066726,0.97856637327049,0.977694811950459,0.04,0.0528620593306626,466.874617437575,1.03242646526789,0.332273580115242
2640,0.176175270022267,-0.373772228416921,-0.218091184959609,0.251268173790183,0.324274207352651,-0.294235913576125,-0.198386206751173,-0.0482254729793975,0.97859759768746,0.977845944343757,0.04,0.0530213588939239,466.888877856232,1.02763797581585,0.333832073259462
2700,0.192079776699034,-0.371747885343401,-0.207353255405941,0.274110217597262,0.364109875293296,-0.315269857319922,-0.186064187337594,-0.0719468435521225,0.978575049494266,0.977997076737056,0.04,0.0529720756425188,466.877882522672,1.02380663820023,0.335073464192348
2760,0.192079776699034,-0.371747885343401,-0.207353255405941,0.274110217597262,0.364109875293296,-0.315269857319922,-0.186064187337594,-0.0719468435521225,0.979157473940609,0.978148209130354,0.04,0.0516016810682207,467.158419775135,1.0184897203141,0.337025069554339
2820,0.192079776699034,-0.371747885343401,-0.207353255405941,0.274110217597263,0.364109875293296,-0.315269857319922,-0.186064187337594,-0.0719468435521225,0.979329492057827,0.978299341523652,0.04,0.0502851949083227,467.238822191238,1.0122575401428,0.339158398867116
2880,0.192079776699034,-0.371747885343401,-0.207353255405941,0.274110217597262,0.364109875293296,-0.315269857319922,-0.186064187337594,-0.0719468435521225,0.979386996428809,0.97845047391695,0.04,0.0489455391490991,467.265804450746,1.00642606872861,0.341143262409103
2940,0.192079776699034,-0.371747885343401,-0.207353255405941,0.274110217597262,0.364109875293296,-0.315269857319922,-0.186064187337594,-0.0719468435521225,0.979410095026361,0.978601606310248,0.04,0.0476327161688137,467.276682089175,1.00131130590455,0.342893826382862
3000,0.192079776699034,-0.371747885343401,-0.207353255405941,0.274110217597262,0.364109875293296,-0.315269857319922,-0.186064187337594,-0.0719468435521225,0.979424604553056,0.978752738703546,0.04,0.046398985931652,467.283600373501,0.997007232565973,0.344379195308642
3060,0.192079776699034,-0.371747885343401,-0.207353255405941,0.274110217597262,0.364109875293296,-0.315269857319922,-0.186064187337594,-0.0719468435521225,0.979443583297005,0.978903871096844,0.04,0.0452789699493737,467.292724686006,0.993510064438791,0.345598162594705
3120,0.192079776699034,-0.371747885343401,-0.207353255405941,0.274110217597262,0.364109875293296,-0.315269857319922,-0.186064187337594,-0.0719468435521225,0.979474384975491,0.979055003490142,0.04,0.0442908333414034,467.30753301574,0.990761778986339,0.346567803552952
3180,0.192079776699034,-0.371747885343401,-0.207353255405941,0.274110217597262,0.364109875293296,-0.315269857319922,-0.186064187337594,-0.0719468435521225,0.979520793195663,0.97920613588344,0.04,0.0434400656700462,467.329807597032,0.988675027070682,0.3473158429235
3240,0.192079776699034,-0.371747885343401,-0.207353255405941,0.274110217597262,0.364109875293296,-0.315269857319922,-0.186064187337594,-0.0719468435521223,0.979584149643774,0.979357268276739,0.04,0.0427231045366899,467.360170009115,0.987149871403078,0.347875049077776
3300,0.192079776699034,-0.371747885343401,-0.207353255405941,0.274110217597262,0.364109875293296,-0.315269857319922,-0.186064187337594,-0.0719468435521225,0.979664156245521,0.979508400670037,0.04,0.0421304046182991,467.39846930552,0.986085147959269,0.348279204952513
3360,0.192079776699034,-0.371747885343401,-0.207353255405941,0.274110217597262,0.364109875293296,-0.315269857319922,-0.186064187337594,-0.0719468435521225,0.979759482067574,0.979659533063335,0.04,0.0416489135153083,467.444063766916,0.98538582209455,0.348560376392006
3420,0.192079776699034,-0.371747885343401,-0.207353255405941,0.274110217597262,0.364109875293296,-0.315269857319922,-0.186064187337594,-0.0719468435521225,0.979868218010668,0.979810665456633,0.04,0.0412639829618381,467.496040031008,0.984967325300529,0.348747247856236
3480,0.192079776699034,-0.371747885343401,-0.207353255405941,0.274110217597262,0.364109875293296,-0.315269857319922,-0.186064187337594,-0.0719468435521225,0.97998821456342,0.979961797849931,0.04,0.0409607400956023,467.553370753104,0.984757636609845,0.348864285348909
3540,0.192079776699034,-0.371747885343401,-0.207353255405941,0.274110217597262,0.364109875293296,-0.315269857319922,-0.186064187337594,-0.0719468435521225,0.980117319853493,0.980112930243229,0.04,0.0407250368744728,467.615031392838,0.98469773522184,0.348931518349364
3600,0.192079776699034,-0.371747885343401,-0.207353255405941,0.274110217597262,0.364109875293296,-0.315269857319922,-0.186064187337594,-0.0719468435521225,0.980253394764725,0.980264062636527,0.04,0.0405440003720982,467.680003853139,0.984740735853982,0.348964761512739
3660,0.149510445373994,-0.318884043328959,-0.223709547168814,0.228517796034109,0.363948882950916,-0.274460467697141,-0.204249765608737,-0.0523494899147876,0.980365139326851,0.980264062636527,0.04,0.0402663431040802,467.733119802631,0.984487454649359,0.349094183694553
3720,0.106941114048954,-0.266020201314517,-0.240065838931686,0.182925374470956,0.363787890608535,-0.233651078074361,-0.222435343879881,-0.0327521362774528,0.980449892854242,0.980264062636527,0.04,0.0400588497633789,467.773140309523,0.983520742961896,0.349467210413736
3780,0.0643717827239143,-0.213156359300075,-0.256422130694559,0.137332952907804,0.363626898266155,-0.192841688451581,-0.240620922151024,-0.013154782640118,0.980498500095494,0.980264062636527,0.04,0.0398854917768077,467.796115626991,0.982200184141425,0.349954253397075
3840,0.0218024513988743,-0.160292517285632,-0.272778422457432,0.0917405313446504,0.363465905923775,-0.152032298828801,-0.258806500422167,0.00644257099721688,0.980522320904249,0.980264062636527,0.04,0.0397212206831312,467.80729626174,0.980687851042234,0.350502300012221
3900,-0.0207668799261656,-0.10742867527119,-0.289134714220305,0.0461481097814975,0.363304913581395,-0.111222909206021,-0.276992078693311,0.0260399246345518,0.980523920895053,0.980264062636527,0.04,0.039555126058065,467.80789157558,0.979121471926073,0.35106347339131
3960,-0.0633362112512056,-0.0545648332567484,-0.305491005983178,0.000555688218344471,0.363143921239015,-0.0704135195832404,-0.295177656964454,0.0456372782718865,0.980506230071737,0.980264062636527,0.04,0.0393830525911754,467.799316871858,0.977623584485527,0.351594918308886
4020,-0.105905542576245,-0.00170099124230637,-0.321847297746051,-0.0450367333448085,0.362982928896635,-0.0296041299604602,-0.313363235235597,0.0652346319092214,0.980473821029248,0.980264062636527,0.04,0.0392058352526665,467.783758063604,0.976292548589865,0.352062558081721
4080,-0.148474873901285,0.0511628507721357,-0.338203589508923,-0.0906291549079614,0.362821936554255,0.0112052596623201,-0.33154881350674,0.0848319855465562,0.98043200767825,0.980264062636527,0.04,0.0390280816031189,467.763754684332,0.975195784324855,0.35244343712714
4140,-0.191044205226325,0.104026692786578,-0.354559881271796,-0.136221576471114,0.362660944211875,0.0520146492851004,-0.349734391777884,0.104429339183891,0.980385812756728,0.980264062636527,0.04,0.0388560351057738,467.741698545619,0.974369512374373,0.352725678937909
4200,-0.233613536551365,0.15689053480102,-0.370916173034669,-0.181813998034267,0.362499951869494,0.0928240389078805,-0.367919970049027,0.124026692821226,0.980339261579899,0.980264062636527,0.04,0.0386959427272022,467.719500014798,0.973823539381995,0.352906684787898
4260,-0.276182867876405,0.209754376815462,-0.387272464797542,-0.22740641959742,0.362338959527114,0.133633428530661,-0.38610554832017,0.143624046458561,0.980295246005634,0.980264062636527,0.04,0.03855283581062,467.698528891543,0.973547992445722,0.35299074154577
4320,-0.318752199201445,0.262618218829904,-0.403628756560415,-0.272998841160573,0.362177967184734,0.174442818153441,-0.404291126591313,0.163221400095896,0.98025554281925,0.980264062636527,0.04,0.0384299705869363,467.679621603165,0.973520163794725,0.352986561502492
4380,-0.361321530526485,0.315482060844346,-0.419985048323287,-0.318591262723726,0.362016974842354,0.215252207776221,-0.422476704862457,0.18281875373323,0.980221016446104,0.980264062636527,0.04,0.0383287635810852,467.663194673032,0.973710363134671,0.352905215015829
4440,-0.403890861851525,0.368345902858788,-0.43634134008616,-0.364183684286879,0.361855982499973,0.256061597399002,-0.4406622831336,0.202416107370565,0.980191855458495,0.980264062636527,0.04,0.0382490755590719,467.649323618878,0.974086466725472,0.352758491871188
4500,-0.446460193176565,0.42120974487323,-0.452697631849033,-0.409776105850032,0.361694990157593,0.296870987021781,-0.458847861404743,0.2220134610079,0.980167768398303,0.980264062636527,0.04,0.0381895673215489,467.637870705083,0.974617246310345,0.352557744011187
4560,-0.446460193176565,0.42120974487323,-0.452697631849033,-0.409776105850032,0.361694990157593,0.296870987021781,-0.458847861404743,0.2220134610079,0.979894123400574,0.980264062636527,0.04,0.0381116918941577,467.506351745842,0.976054843551257,0.35193946630359
4620,-0.446460193176565,0.42120974487323,-0.452697631849033,-0.409776105850032,0.361694990157593,0.296870987021782,-0.458847861404743,0.2220134610079,0.979847510028922,0.980264062636527,0.04,0.0381367486895669,467.485304255113,0.978529419545429,0.351033651804948
4680,-0.446460193176564,0.42120974487323,-0.452697631849033,-0.409776105850032,0.361694990157593,0.296870987021782,-0.458847861404743,0.2220134610079,0.979874824918261,0.980264062636527,0.04,0.0382757061259345,467.498618128753,0.980938295709999,0.350181596286186
4740,-0.446460193176564,0.42120974487323,-0.452697631849033,-0.409776105850032,0.361694990157594,0.296870987021782,-0.458847861404743,0.2220134610079,0.979926124540407,0.980264062636527,0.04,0.0384870892829038,467.523215669122,0.983078811458011,0.349437509909206
4800,-0.446460193176564,0.42120974487323,-0.452697631849033,-0.409776105850032,0.361694990157593,0.296870987021782,-0.458847861404743,0.2220134610079,0.97998732249416,0.980264062636527,0.04,0.0387308025238873,467.552452387445,0.984867156847765,0.348824805413099
4860,-0.446460193176564,0.42120974487323,-0.452697631849033,-0.409776105850032,0.361694990157593,0.296870987021782,-0.458847861404743,0.2220134610079,0.980049645240425,0.980264062636527,0.04,0.0389778184585642,467.582168234872,0.986280297238468,0.348347148152776
4920,-0.446460193176565,0.42120974487323,-0.452697631849033,-0.409776105850032,0.361694990157593,0.296870987021782,-0.458847861404743,0.2220134610079,0.980107339220155,0.980264062636527,0.04,0.0392088371460395,467.609641198579,0.987335573322482,0.34799527593963
4980,-0.446460193176564,0.42120974487323,-0.452697631849033,-0.409776105850032,0.361694990157593,0.296870987021782,-0.458847861404743,0.2220134610079,0.980157111786014,0.980264062636527,0.04,0.0394124170957497,467.633316858912,0.988074856726576,0.347752510085363
5040,-0.446460193176565,0.42120974487323,-0.452697631849033,-0.409776105850032,0.361694990157593,0.296870987021782,-0.458847861404743,0.2220134610079,0.980197566087151,0.980264062636527,0.04,0.0395831659116458,467.652541822275,0.988551997735288,0.347598951191727
5100,-0.446460193176565,0.42120974487323,-0.452697631849033,-0.409776105850032,0.361694990157593,0.296870987021781,-0.458847861404743,0.2220134610079,0.980228646251681,0.980264062636527,0.04,0.0397200970422522,467.667297886137,0.988823664934036,0.347514417576799
5160,-0.446460193176565,0.42120974487323,-0.452697631849033,-0.409776105850032,0.361694990157593,0.296870987021781,-0.458847861404743,0.2220134610079,0.980251143166022,0.980264062636527,0.04,0.0398251807369748,467.677967908252,0.988943295702736,0.347480307081229
5220,-0.446460193176565,0.42120974487323,-0.452697631849033,-0.409776105850032,0.361694990157593,0.296870987021782,-0.458847861404743,0.2220134610079,0.98026630898564,0.980264062636527,0.04,0.0399021563193244,467.685150920804,0.988957592205552,0.347480620692821
5280,-0.446460193176564,0.42120974487323,-0.452697631849033,-0.409776105850032,0.361694990157593,0.296870987021782,-0.458847861404743,0.2220134610079,0.980275568418781,0.980264062636527,0.04,0.0399556071408879,467.689527279742,0.9889049464076,0.347502371050146
5340,-0.446460193176564,0.42120974487323,-0.452697631849033,-0.409776105850032,0.361694990157593,0.296870987021782,-0.458847861404743,0.2220134610079,0.980280327349686,0.980264062636527,0.04,0.0399902926831452,467.691767463045,0.988815198747804,0.347535575997298
5400,-0.446460193176564,0.42120974487323,-0.452697631849033,-0.409776105850032,0.361694990157593,0.296870987021782,-0.458847861404743,0.2220134610079,0.980281856755784,0.980264062636527,0.04,0.0400107031970373,467.69247597905,0.988710241377795,0.347572995474416
5460,-0.398962628254011,0.370226819093692,-0.390987948868144,-0.364203632354825,0.343416601437954,0.277099092704942,-0.459243614174387,0.184952715528437,0.979775092323979,0.980264062636527,0.04,0.0406348457531723,467.448875116887,0.990374907560188,0.346808047821936
5520,-0.351465063331457,0.319243893314155,-0.329278265887254,-0.318631158859618,0.325138212718315,0.257327198388103,-0.45963936694403,0.147891970048975,0.979714169332732,0.980264062636527,0.04,0.0413256490890238,467.421912276933,0.993675386492282,0.345636191996805
5580,-0.303967498408903,0.268260967534617,-0.267568582906364,-0.273058685364411,0.306859823998676,0.237555304071264,-0.460035119713674,0.110831224569512,0.97978561299259,0.980264062636527,0.04,0.0421202642679683,467.456488195494,0.996722833641475,0.344604909823997
5640,-0.256469933486349,0.217278041755079,-0.205858899925475,-0.227486211869204,0.288581435279037,0.217783409754424,-0.460430872483318,0.0737704790900497,0.979897266327838,0.980264062636527,0.04,0.0429492281629759,467.509967722131,0.99916551983429,0.343801773414156
5700,-0.208972368563796,0.166295115975542,-0.144149216944585,-0.181913738373997,0.270303046559398,0.198011515437585,-0.460826625252961,0.0367097336105869,0.980031133746359,0.980264062636527,0.04,0.0437518789353692,467.574002885383,1.00084811542614,0.343270795866093
5760,-0.161474803641242,0.115312190196004,-0.0824395339636956,-0.13634126487879,0.252024657839759,0.178239621120746,-0.461222378022605,-0.000351011868875617,0.980188347269207,0.980264062636527,0.04,0.044497190568235,467.649201510371,1.00163663654636,0.34305572569376
5820,-0.113977238718688,0.0643292644164662,-0.0207298509828059,-0.0907687913835825,0.23374626912012,0.158467726803906,-0.461618130792248,-0.0374117573483383,0.980348966759617,0.980264062636527,0.04,0.0451654199379307,467.725580611673,1.00144180021556,0.343178509875909
5880,-0.0664796737961343,0.0133463386369285,0.0409798319980837,-0.0451963178883755,0.215467880400481,0.138695832487067,-0.462013883561892,-0.0744725028278009,0.980435794836342,0.980264062636527,0.04,0.0457013807769001,467.766154262789,1.00053499959651,0.343519334545472
5940,-0.0189821088735806,-0.0376365871426093,0.102689514978973,0.00037615560683173,0.197189491680842,0.118923938170228,-0.462409636331536,-0.111533248307264,0.980418414988389,0.980264062636527,0.04,0.0460392994217866,467.757169025095,0.999529180213085,0.343858410461729
6000,0.0285154560489733,-0.0886195129221469,0.164399197959863,0.0459486291020389,0.178911102961203,0.0991520438533881,-0.462805389101179,-0.148593993786726,0.980338897310413,0.980264062636527,0.04,0.0461770405629539,467.71892911868,0.998898295373936,0.344047456045139
6060,0.0760130209715271,-0.139602438701685,0.226108880940752,0.0915211025972458,0.160632714241564,0.0793801495365487,-0.463201141870823,-0.185654739266189,0.980237728996936,0.980264062636527,0.04,0.0461625468652049,467.670587562014,0.998844656868285,0.344030370304429
6120,0.123510585894081,-0.190585364481222,0.287818563921642,0.137093576092453,0.142354325521925,0.0596082552197095,-0.463596894640466,-0.222715484745651,0.980134687130345,0.980264062636527,0.04,0.0460505724108138,467.621451773217,0.99941127176538,0.343799197699166
6180,0.171008150816635,-0.24156829026076,0.349528246902532,0.18266604958766,0.124075936802286,0.0398363609028701,-0.46399264741011,-0.259776230225114,0.980036722395738,0.980264062636527,0.04,0.0458827057752011,467.574766658333,1.00057771694297,0.343364123053577
6240,0.218505715739189,-0.292551216040297,0.411237929883421,0.228238523082867,0.105797548082647,0.0200644665860308,-0.464388400179754,-0.296836975704577,0.979945174299824,0.980264062636527,0.04,0.0456848651857261,467.531143336469,1.00230657282793,0.342739882476285
6300,0.266003280661742,-0.343534141819835,0.472947612864311,0.273810996578074,0.087519159363008,0.00029257226919151,-0.464784152949397,-0.333897721184039,0.979859676956754,0.980264062636527,0.04,0.0454710377734168,467.490399013516,1.00456050886482,0.34194107374727
6360,0.266003280661742,-0.343534141819835,0.472947612864311,0.273810996578074,0.087519159363008,0.00029257226919151,-0.464784152949397,-0.333897721184039,0.964603258731538,0.95752263388589,0.04,0.0505737171669414,460.046621853344,0.968399483264085,0.349061518190767
6420,0.266003280661742,-0.343534141819835,0.472947612864311,0.273810996578074,0.0875191593630079,0.000292572269191396,-0.464784152949397,-0.333897721184039,0.942304120584663,0.934781205135253,0.04,0.0545880704355066,449.389509324537,0.921929725169306,0.358162232406457
6480,0.266003280661742,-0.343534141819835,0.472947612864311,0.273810996578074,0.0875191593630079,0.00029257226919151,-0.464784152949397,-0.333897721184039,0.919018721282963,0.912039776384617,0.04,0.0560036052458472,438.278146277446,0.877692799684932,0.366912034701039
6540,0.266003280661742,-0.343534141819835,0.472947612864311,0.273810996578074,0.0875191593630079,0.00029257226919151,-0.438368414472993,-0.333897721184039,0.895042863418235,0.88929834763398,0.04,0.056084383979171,426.853683455287,0.83939765518042,0.373650835783034
6600,0.266003280661742,-0.343534141819835,0.472947612864311,0.273810996578074,0.0875191593630079,0.000292572269191396,-0.398950182410025,-0.333897721184039,0.871520011467259,0.866556918883343,0.04,0.0555086654627125,415.617315249805,0.807210383813328,0.378321975649555
6660,0.266003280661742,-0.343534141819835,0.472947612864311,0.273810996578074,0.0875191593630078,0.000292572269191396,-0.359324437441125,-0.333897721184039,0.848407657523699,0.843815490132706,0.04,0.0546922698648058,404.590656529645,0.778028742177328,0.382098105384884
6720,0.266003280661742,-0.343534141819835,0.472947612864311,0.273810996578074,0.0875191593630079,0.00029257226919151,-0.320673063765167,-0.320673063765167,0.8248874205831,0.821074061382069,0.04,0.0542599556310855,393.360622715248,0.751666844781928,0.384521089947612
6780,0.266003280661742,-0.343534141819835,0.472947612864311,0.273810996578074,0.0875191593630078,0.000292572269191396,-0.282931185589119,-0.282931185589119,0.80144762663134,0.798332632631432,0.04,0.0541060702779419,382.188265193108,0.731074637002341,0.384122995736766
6840,0.266003280661742,-0.343534141819835,0.472947612864311,0.273810996578074,0.0875191593630079,0.00029257226919151,-0.24566975889074,-0.24566975889074,0.778666272622911,0.775591203880795,0.04,0.0544184213567262,371.321356354669,0.711536517659511,0.383448824276155
6900,0.266003280661742,-0.343534141819835,0.472947612864311,0.273810996578074,0.0875191593630079,0.00029257226919151,-0.208032490265357,-0.208032490265357,0.756009760241217,0.752849775130158,0.04,0.0552599746419619,360.512120872406,0.691624108114623,0.383004982680272
6960,0.266003280661742,-0.343534141819835,0.472947612864311,0.273810996578074,0.0875191593630079,0.000292572269191396,-0.168955794432897,-0.168955794432897,0.733343640237696,0.730108346379522,0.04,0.0564294297343628,349.697892512484,0.671215801772131,0.382811978875736
7020,0.266003280661742,-0.343534141819835,0.472947612864311,0.273810996578074,0.0875191593630079,0.00029257226919151,-0.127538288780722,-0.127538288780722,0.710648046844658,0.707366917628885,0.04,0.0577726407150821,338.869603515193,0.650471543019109,0.382788594472022
7080,0.266003280661742,-0.343534141819835,0.472947612864311,0.273810996578074,0.0875191593630079,0.000292572269191396,-0.0831422429447016,-0.0831422429447016,0.68792700424079,0.684625488878248,0.04,0.0592091025389141,328.029217237387,0.629556263297546,0.382853529270925
7140,0.266003280661742,-0.343534141819835,0.472947612864311,0.273810996578074,0.0875191593630079,0.000292572269191396,-0.0411020792287732,-0.0411020792287732,0.665220752775251,0.661884060127611,0.04,0.0606994323535133,317.195170947892,0.608638901940105,0.382931890460967
7200,0.266003280661742,-0.343534141819835,0.472947612864311,0.273810996578074,0.0875191593630079,0.00029257226919151,-0.0194148915419251,-0.0194148915419251,0.642440447936262,0.639142631376974,0.04,0.0622570131725454,306.327304666367,0.587656425489764,0.383015982660732
7260,0.229976457251144,-0.352989934904923,0.46738549083573,0.254135076424221,0.0549969891026111,0.00112392343077465,-0.00917063805989947,-0.00917063805989947,0.620521686046541,0.616401202626337,0.04,0.0603381951440665,295.875468664285,0.563581449110082,0.385750897993773
7320,0.193949633840545,-0.362445727990012,0.461823368807148,0.234459156270367,0.0224748188422143,0.0019552745923578,-0.00433161831616506,-0.00433161831616506,0.598345803006294,0.5936597738757,0.04,0.0587357684973973,285.293320233662,0.535361451951065,0.39156077777357
7380,0.157922810429946,-0.3719015210751,0.456261246778567,0.214783236116514,-0.0100473514181826,0.00278662575394094,-0.00204587645633463,-0.00204587645633463,0.575794268040261,0.570918345125064,0.04,0.0570049363896421,274.593147075594,0.505003105416221,0.399530852585102
7440,0.121895987019348,-0.381357314160188,0.450699124749986,0.19510731596266,-0.0425695216785795,0.00361797691552408,-0.000966135731220164,-0.000966135731220164,0.553339864234932,0.548176916374427,0.04,0.0546497286099075,263.821965912152,0.473255186724079,0.409609712705452
7500,0.0858691636087488,-0.390813107245276,0.445137002721404,0.175431395808806,-0.0750916919389763,0.00444932807710722,-0.000456104515248604,-0.000456104515248604,0.530711816567432,0.52543548762379,0.04,0.0514403379559128,253.023777279433,0.441417001151406,0.42117923859672
