time,bias_percent_1,bias_percent_2,bias_percent_3,bias_percent_4,bias_percent_5,bias_percent_6,bias_percent_8,bias_percent_9,normalized_power,power_SP,SP,CV,total_power_MW,fuel_fraction,thermal_efficiency
5,0,0,0,0,0,0,0,0,0.997207655087548,1,0.04,0.0412449819449484,475.751719182144,0.999887531240721,0.349610035039928
65,0,0,0,0,0,0,0,0,0.999889150426492,1,0.04,0.0398971309425225,477.048977299813,1.00012252181066,0.350480966772883
125,0,0,0,0,0,0,0,0,0.999987444921849,1,0.04,0.0399190734085591,477.094228642356,1.00030115176177,0.350451618791675
185,0,0,0,0,0,0,0,0,0.999999460476219,1,0.04,0.0399574151863117,477.099775971303,1.00031802926285,0.350449780670164
245,0,0,0,0,0,0,0,0,1.00000198089502,1,0.04,0.0399822263478581,477.10095790423,1.0003100920104,0.350453429602415
305,0,0,0,0,0,0,0,0,1.00000321726046,1,0.04,0.0399967377637492,477.101542190446,1.00029298131516,0.350459853541356
365,0,0,0,0,0,0,0,0,1.00000384927409,1,0.04,0.0400047600342429,477.101839357498,1.00027090580592,0.350467806317714
425,0,0,0,0,0,0,0,0,1.00000398462008,1,0.04,0.0400086878719343,477.101900480527,1.00024705828858,0.350476206941062
485,0,0,0,0,0,0,0,0,1.00000375880242,1,0.04,0.0400100377383178,477.101790471899,1.00022389895325,0.350484241106577
545,0,0,0,0,0,0,0,0,1.00000331419126,1,0.04,0.040009823691672,477.10157714905,1.00020302529527,0.350491398797155
605,0,0,0,0,0,0,0,0,1.00000276824809,1,0.04,0.0400087396651135,477.101316247327,1.00018527002754,0.350497429044355
665,0,0,0,0,0,0,0,0,1.00000220529309,1,0.04,0.0400072564876406,477.101047751229,1.00017089148644,0.350502270574307
725,-0.0208332892598407,-0.0208333333333334,-0.0208333333333334,-0.0179190344729218,0.00905462879364779,0.0208330027002869,0.0208333323252629,0.0208333332495009,0.998438981171443,0.998613591240381,0.04,0.040824459556613,476.231839441178,1.00010768301635,0.349885818683678
785,-0.249999471118088,-0.25,-0.25,-0.215028413675061,0.108655545523774,0.249996032403444,0.249999987903155,0.249999998994011,0.992392911461555,0.981976686124953,0.04,0.0380593118291574,473.689430289795,0.965634063698421,0.3604423337299
845,-0.249996238723755,-0.208333358157365,-0.249999567607651,-0.176277365812645,0.0787675833967933,0.249996357648038,0.249999353201022,0.24999990756163,0.971330885310818,0.965339781009525,0.04,0.0421556468183468,463.435836596602,0.925914136111313,0.367767693108594
905,-0.249960682386088,0.249999702111621,-0.24999481129181,0.249984160673936,-0.25,0.249999935338572,0.249992371477558,0.249998901805439,0.944625053606557,0.948702875894096,0.04,0.0557900675627007,450.523864824034,0.948935029676708,0.34884780810387
965,-0.249961758109666,0.249999726935653,-0.249995243684159,0.208319325789634,-0.208334373183381,0.249999940727025,0.208327242157423,0.208332355890615,0.936531392988036,0.932065970778668,0.04,0.054213904461035,447.104997693274,0.934967934407944,0.351372269771405
1025,-0.249973591069024,0.25,-0.25,-0.249993857937683,0.249987521799423,0.25,-0.249989180364056,-0.249999649172458,0.93930647640593,0.91542906566324,0.04,0.0435022482915398,447.672339046821,0.80908829310913,0.406554731558445
1085,-0.249975791655509,0.208333336331626,-0.24999973894488,-0.249993880344485,0.208464792432398,0.208333381081271,-0.249985599074385,-0.249999455933947,0.904581898486616,0.898792160547812,0.04,0.0388246416778492,431.563664508835,0.756457660963076,0.419193869709219
1145,-0.249999998106836,-0.249999964020489,-0.249996867338558,-0.249994126819309,-0.248285230604875,-0.249999427024748,-0.249946204888004,-0.249997330310327,0.895020137702909,0.882155255432383,0.04,6.50470779770994e-06,426.644091947705,0.627439671223947,0.499629919945738
1205,-0.2499999982646,-0.249999830913218,-0.249996778163073,-0.249994597036232,-0.248423705881116,-0.249999003907717,-0.249950687814004,-0.249997515965445,0.855923873797181,0.865518350316955,0.04,1.39491074935914e-06,408.186983846813,0.658530936882222,0.455446790397149
1265,-0.25,-0.249998366733231,-0.249995797232736,-0.24999976942238,-0.249946933919766,-0.249994349620373,-0.25,-0.249999558171742,0.843746076866366,0.850267853961146,0.04,1.67183818687557e-06,402.507819398782,0.707544148057268,0.417999203874331
1325,-0.208333333333333,-0.208331836172129,-0.208332032006044,-0.208333123062033,-0.208294274026918,-0.208366234231247,-0.249999674270136,-0.208332928324097,0.845565374099713,0.850267853961146,0.04,5.54356325242671e-06,403.610837291604,0.749037228300069,0.395926063392084
1385,0.25,0.25,0.249969385487569,0.249999986901783,0.249884984794408,0.249543035049135,-0.249996091241633,0.25,0.793280950072867,0.850267853961146,0.04,0.0637688649309288,378.928025190309,1.01288207825468,0.274885933042406
1445,0.208333333333333,0.25,0.208305311530297,0.237814985289085,0.208228690078591,0.20791826495945,-0.249996383411972,0.24100362691413,0.840721789722122,0.850267853961146,0.04,0.0603034264030245,401.549574552094,1.13270057373246,0.260482604657111
1505,-0.25,0.25,-0.249999501999694,0.103779967549403,-0.249990551795404,-0.249954206027082,-0.249999597285708,0.142043522969563,0.887189239899743,0.850267853961146,0.04,0.0346148763700695,423.125643851378,0.989445467537865,0.314218795668867
1565,-0.231522709080959,0.25,-0.249998017087874,0.0742983035869528,-0.249991336673525,-0.249952948410488,-0.208333015790595,0.151039893592773,0.859639215690492,0.850267853961146,0.04,0.0475383411967904,409.938945086995,0.907326422210557,0.331978759166093
1625,-0.028272508971507,0.25,-0.249981683057857,-0.25,-0.249999970332852,-0.249939114627952,0.24999938065564,0.249999970448083,0.84936076086956,0.850267853961146,0.04,0.0561832028135188,405.339570219648,0.904051554570941,0.329443149849037
1685,-0.00666332548447201,0.236917435943663,-0.238703536540836,-0.25,-0.249901666409139,-0.249943668866018,0.249999417680797,0.208564091298128,0.854034138486214,0.850267853961146,0.04,0.0524796349303195,407.717995009911,0.887131732764456,0.337696408550476
1745,0.231037692872913,0.0930092313239597,-0.114643924853594,-0.25,-0.248820323248291,-0.249993765484754,0.249999824957526,-0.247230579351374,0.857747341630599,0.850267853961146,0.04,0.0490654824943464,409.016716173782,0.844341424469279,0.355940689239104
1805,0.232617885133503,0.106025049432909,-0.0842569336875042,-0.208333333333333,-0.207251972400446,-0.208392190781494,0.249999839544399,-0.233698982239775,0.853459786627877,0.850267853961146,0.04,0.0511565733106269,407.041221956751,0.820801496614272,0.364380334380756
1865,0.25,0.249199048631348,0.249999969139481,0.25,0.249999886925846,0.249225130954359,0.25,-0.0848514140121793,0.826211428554036,0.850267853961146,0.04,0.0884904928682549,394.409648614814,0.941766058541523,0.307722443754481
1925,0.226629359545592,0.2075992728261,0.208334238002496,0.208333337357566,0.249999896348692,0.24928970337483,0.215017164188751,-0.0986101108231768,0.845517963309538,0.850267853961146,0.04,0.075511781157183,403.454795527747,0.999245427684994,0.296672566372653
1985,-0.0304476854529016,-0.249998261031628,-0.249988804504337,-0.249999951709212,0.25,0.25,-0.169794029734984,-0.24995577574415,0.887569645641157,0.850267853961146,0.04,0.0279845256738185,423.596716743156,0.851663478174077,0.365459484870811
2045,-0.0487436988750011,-0.212487720165358,-0.224980125337935,-0.208340140829648,0.208333333333333,0.208333333333333,-0.134811193923952,-0.208292796618422,0.857386699201897,0.850267853961146,0.04,0.0338112970666447,408.782480456296,0.775067081499457,0.387532079581435
2105,-0.249999846518095,0.200128229363612,0.0501153454924904,0.249917778845561,-0.25,-0.25,0.249999999997398,0.249999973764581,0.834780811233404,0.850267853961146,0.04,0.0451086663931533,398.490826356564,0.856917434599196,0.341691381966634
2165,-0.249999458842956,0.20428369673374,0.043920767951397,0.249924624848047,-0.249999999724368,-0.249999758199674,0.249999991704253,0.249999975935453,0.849025537780714,0.850267853961146,0.04,0.0423825720690971,405.097589743351,0.874326907728557,0.340439929051006
2225,-0.249995194416432,0.249993837805142,-0.0242195850006316,0.249999930875387,-0.249999996692414,-0.249997098396085,0.249999900479656,0.249999999815047,0.851017758686519,0.850267853961146,0.04,0.043668088559557,406.023550036509,0.872367559020027,0.34198447695786
2285,-0.2083289357635,0.249994349942819,-0.043032208559098,0.208335545744596,-0.249999996967224,-0.249996174012471,0.241261035515122,0.208363594632511,0.851813314169611,0.850267853961146,0.04,0.0417730433237626,406.827354327352,0.867067258701336,0.344756160608071
2345,0.249999909418747,0.249999983457256,-0.249971067702228,-0.249972690694107,-0.24999999999014,-0.249986005792722,0.145133520905257,-0.249636862375392,0.867452367638744,0.850267853961146,0.04,0.0305913462322177,413.600114726768,0.776587798983415,0.39133146054087
2405,0.208333250300518,0.208333318196051,-0.249973478727043,-0.249974965103267,-0.249999999184469,-0.208902863628568,0.112205734542087,-0.249666921672408,0.853166651263628,0.850267853961146,0.04,0.0292398854392414,407.036496551475,0.746215303737154,0.400796459395293
2465,-0.25,-0.2499999996772,-0.25,-0.249999983604027,-0.249999990322086,0.243011700177132,-0.249999915452789,-0.249997573939584,0.871149893984556,0.850267853961146,0.04,0.00069149302195042,415.816884155201,0.649808507729237,0.470187850544109
2525,-0.249902316119212,-0.208336453633807,-0.2083622708837,-0.208380804307506,-0.23316321068003,0.2435851972635,-0.208333255831723,-0.249997776111285,0.852363457514698,0.850267853961146,0.04,0.000933904363732188,406.687155364781,0.608442745263494,0.491128814765304
2585,-0.248827793430543,0.249962552843517,0.249652749395592,0.249430167954228,-0.0479586346174117,0.249893665213544,0.25,-0.25,0.805659265361803,0.850267853961146,0.04,0.0454619896173319,384.536452364787,0.857619020825614,0.329456277497976
2645,-0.207258811171875,0.241998097044761,0.216071284595164,0.249477653958042,-0.0603659191148374,0.208235859779082,0.249999921078288,-0.25,0.84028713360516,0.850267853961146,0.04,0.041548118781734,401.298822565028,0.958030525662712,0.307781997987843
2705,0.249999993673471,0.154389083258452,-0.153324828209545,0.25,-0.19684604858652,-0.25,0.249999052939452,-0.25,0.8568557827471,0.850267853961146,0.04,0.0416092641414192,408.652117329099,0.939133787359162,0.319728215847634
2765,0.249999994200682,0.162356633933516,-0.135064822897732,0.208496467920078,-0.201271783970138,-0.232027891026864,0.24999913178142,-0.249978035784817,0.852949285869234,0.850267853961146,0.04,0.0501171007393919,406.945460878365,0.922385291973708,0.324174250720051
2825,0.25,0.249999691359228,0.0657952355322055,-0.248042384959055,-0.249954873189937,-0.0343346923223695,0.249999999043061,-0.24973642941781,0.853443733386737,0.850267853961146,0.04,0.053880527968835,407.182503995124,0.905352425960342,0.330465491448576
2885,0.208333616558914,0.249996373521537,0.0395404156822705,-0.206538879292912,-0.249958633757443,-0.0523068012955055,0.249944286987226,-0.249758227055942,0.853291614103098,0.850267853961146,0.04,0.0546714291883145,407.058105116507,0.886371229871655,0.337439121497952
2945,-0.249996601293029,0.249959877306942,-0.249262602667015,0.249999683034662,-0.25,-0.25,0.249331454373036,-0.249998001075397,0.859729587205783,0.850267853961146,0.04,0.0378118469692153,410.324161865659,0.840523891068832,0.358700271181943
3005,-0.249932163199815,0.249751212215128,-0.20770802396956,0.208336948305521,-0.249989601743425,-0.249999846212578,0.207720499841949,-0.208348092854803,0.853190615726448,0.850267853961146,0.04,0.0372104424622007,407.029075771917,0.811762789507833,0.36842659326456
3065,-0.249223344174455,0.247455896205176,0.249392341702443,-0.249953133715034,-0.249875220921103,-0.249998154550938,-0.25,0.249800897571729,0.850021227741175,0.850267853961146,0.04,0.0350256442163323,405.567124725481,0.810590055001581,0.367634405831162
3125,-0.249287232929044,0.247667904636383,0.247907682648106,-0.208290372572115,-0.208219129769097,-0.208331653754527,-0.208333460663051,0.208150824132624,0.851077141443346,0.850267853961146,0.04,0.0368392266163538,405.877950531969,0.806126394275347,0.369953375243983
3185,-0.249990009229522,0.249999997379654,0.231576433050395,0.25,0.249997872902974,0.249999855005994,0.249998472043386,-0.24999998369753,0.832223660451835,0.850267853961146,0.04,0.0650761993649321,397.197673955599,0.90201991423103,0.323552863005177
3245,-0.208329609268844,0.249998640142578,0.233111730296195,0.208338640588883,0.208332290330059,0.249999861075035,0.249994326637054,-0.208333318389403,0.845839551952541,0.850267853961146,0.04,0.0602646928530794,403.644213705181,0.944674397728216,0.313957789074953
3305,0.249934790298618,0.249983710534747,0.25,-0.249936312933407,-0.249989117972014,0.249999927834486,0.249948727167393,0.25,0.846785511115708,0.850267853961146,0.04,0.0630177402913158,404.059567706474,0.97124796313241,0.305682059089692
3365,0.238661462335605,0.249985067990185,0.249988856265444,-0.22802201106226,-0.249988582775163,0.208333267181612,0.212866950606095,0.227814851718238,0.853462076023105,0.850267853961146,0.04,0.0627423252170037,407.546118503389,0.963987913269506,0.310641767697425
3425,0.114654854742466,0.25,0.249866275185325,0.0130353095203607,-0.249982695609811,-0.25,-0.195032591568189,-0.0162217793811424,0.875025370961874,0.850267853961146,0.04,0.0476782796192766,417.205962172972,0.842287323210091,0.363952676935816
3485,0.12593361684726,0.208344275001565,0.249877327461158,-0.00888429960633596,-0.214069085155421,-0.239111754931979,-0.199582368597996,-0.0356288205490937,0.855084687465396,0.850267853961146,0.04,0.0459378824491872,407.960963693117,0.788492377127165,0.380168199719815
3545,0.25,-0.249868699981215,0.249998902495318,-0.25,0.180980629842873,-0.119341059183747,-0.21805840782972,-0.21805840782972,0.85238413469516,0.850267853961146,0.04,0.0289908691854612,406.641270515379,0.763925178748331,0.391124756169814
3605,0.249978112526042,-0.208213002516113,0.249998993932771,-0.208335222789934,0.186731804742446,-0.0885633031315515,-0.226028314653311,-0.226028314653311,0.850383533878502,0.850267853961146,0.04,0.0251465447585144,405.674570767643,0.760310065284375,0.392050237889079
3665,0.24973735031251,0.24999966960001,0.249999999744751,0.249977326520797,0.249994728637746,0.249992013442598,-0.233405847581073,-0.233405847581073,0.832022690858838,0.848841907942501,0.04,0.0597216808787848,396.973412269843,0.843259341555705,0.345903483503895
3725,0.208092571119801,0.208334888352422,0.20833333330617,0.246430515630937,0.249995167917933,0.249992307071714,-0.176796727319239,-0.176788229042292,0.829741002767274,0.831730555718759,0.04,0.0602033247577268,395.400713116853,0.870027250552268,0.333932946037764
3785,-0.25,-0.249977705371045,-0.249999997518219,0.207415595842475,0.25,0.249995536991994,0.249898020676637,0.25,0.822935306128885,0.814619203495017,0.04,0.0356704237787415,393.345149011386,0.865245251279725,0.334032904898147
3845,-0.249999566064586,-0.208312896590125,-0.227034582164501,0.210952668059646,0.208333338029156,0.208368226522263,0.208239852286917,0.25,0.805488800165214,0.797507851271276,0.04,0.0427409357598665,384.57226428,0.808905929289903,0.349328980786671
3905,-0.249994792775031,0.25,0.0255849867264042,0.249860462448536,-0.249999943650123,-0.249532188644786,-0.164873676381911,0.25,0.795533707339638,0.780396499047534,0.04,0.0435740532025395,379.238407260531,0.716507718718555,0.388907319501121
3965,-0.249994790782856,0.25,0.0442862105062085,0.208206881914002,-0.208333438810511,-0.249569686889807,-0.156059714320337,0.224050400839757,0.769302200397516,0.762504915220937,0.04,0.0425882281143025,366.954288990353,0.669020539017195,0.403020552025549
4025,-0.249994768868933,0.25,0.249999672084055,-0.249982503965875,0.249998114425227,-0.249982167585036,0.25,-0.061395189922911,0.737174963402409,0.738236961384429,0.04,0.0536969227943793,351.499840659148,0.64654290404036,0.399468426756963
4085,-0.249995204796522,0.208333333598546,0.208333036997693,-0.24998395906117,0.249959419450021,-0.249983652003204,0.235099594269666,-0.0771109578864638,0.735457984733953,0.738236961384429,0.04,0.037283023908854,350.919031531776,0.663741948522255,0.388474335479063
4145,-0.25,-0.249999996817447,-0.249999948952288,-0.249999965109414,0.24953377472276,-0.249999980603049,0.0711951312359909,-0.139967064630142,0.752763585712222,0.738236961384429,0.04,1.55658877482549e-06,358.552358677418,0.567781679148031,0.464008445407119
4205,-0.208333333333333,-0.249999552185654,-0.249999953206264,-0.249999968016963,0.207905990791717,-0.224102438114955,0.0444288702996583,-0.201091149814736,0.727402610127357,0.738236961384429,0.04,6.36024043775779e-08,346.920741301466,0.596526754131192,0.427321766962338
4265,0.25,-0.24999466123593,-0.25,-0.25,-0.24999963244976,0.0607705292540718,-0.25,-0.25,0.712118398284995,0.738236961384429,0.04,2.2727816541274e-07,339.876986420839,0.744988385420803,0.335217693158168
4325,0.249996210821656,-0.218996032548612,-0.208335893169096,-0.208333333333333,-0.208332997013797,0.0765395494143305,-0.24999982180952,-0.208428717505789,0.746571042236894,0.738236961384429,0.04,7.7922414220895e-06,356.866163018083,0.766741125800473,0.341988332389395
4385,0.249954529859878,0.121988883011887,0.249969281970854,0.25,0.249999992781802,0.249998771177176,-0.249997861714238,0.248855389930526,0.706482734601696,0.738236961384429,0.04,0.0697389504050641,337.277110805243,0.884806434400163,0.280087207109937
4445,0.2494137939168,0.0909898816937147,0.235129278519964,0.220552329755142,0.244799697577617,0.208581449132948,-0.249998039904718,0.248950774102982,0.73385525057305,0.738236961384429,0.04,0.0664055470925902,350.339428455583,0.948396677971446,0.271427389205036
4505,0.243465698542943,-0.24999913280618,0.0718892405601775,-0.103372042938301,0.187596450331583,-0.247009093353556,-0.25,0.25,0.757808137940982,0.738236961384429,0.04,0.0427303561760511,361.597112838685,0.866460414578116,0.306641481377633
4565,0.240489583307084,-0.249999205072332,0.0451586096465506,-0.0739243726934426,0.151130079470618,-0.247257759907351,-0.249981757425774,0.210702312841458,0.746843143185338,0.738236961384429,0.04,0.0507813729730799,356.456968400889,0.799913247401593,0.327430322790347
4625,0.207752315712634,-0.25,-0.248878330403344,0.25,-0.25,-0.249993091999096,-0.24978108910929,-0.221572245902502,0.760572517998218,0.738236961384429,0.04,0.0293147146544087,362.761448217655,0.680597337742477,0.391638661259003
4685,0.211272926431176,-0.249999997888257,-0.248971802869732,0.249999330185252,-0.230390682975991,-0.249892002330674,-0.208132665016849,-0.213674225603821,0.742163598084197,0.738236961384429,0.04,0.026535874207612,353.931166883685,0.635324747525568,0.409333898453272
4745,0.249999644335134,-0.249999974659087,-0.25,0.24999196222302,-0.0146881957118884,-0.248780015978032,0.25,-0.126796002318323,0.724234077078888,0.738236961384429,0.04,0.0382772932654848,345.636522511688,0.704879131799478,0.360296173676903
4805,0.249999673973873,-0.208333694278161,-0.25,0.249992632037768,0.0073691539307689,-0.24761324875249,0.243328297854069,-0.0954106129191121,0.735630938375296,0.738236961384429,0.04,0.037047167943526,350.920997593379,0.726929408916552,0.354708660611211
4865,0.25,0.249995389912029,-0.25,0.25,0.25,-0.234778809271537,0.16993957424883,0.24982867047221,0.722964086858091,0.738236961384429,0.04,0.0646892843370111,345.033152691873,0.817721289715515,0.310034624156238
4925,0.249999997725219,0.20832910741936,-0.249990805642543,0.25,0.249967382803377,-0.194380596158558,0.134952930488063,0.220264771765131,0.737965790262709,0.738236961384429,0.04,0.0639512144821237,352.2885355662,0.83995916244033,0.308173304119854
4985,0.249999972702631,-0.25,-0.249889667710522,0.25,0.249608593640526,0.249999748084214,-0.249900150880378,-0.104938114012746,0.753469178776339,0.738236961384429,0.04,0.0501668275257596,359.370809566934,0.764672804993031,0.345320077060923
5045,0.244627504735029,-0.208340424643725,-0.249897176327643,0.208352080081492,0.220651778772801,0.241562768571954,-0.208332248858585,-0.075894025983759,0.740516394462103,0.738236961384429,0.04,0.0515429963466379,353.087869036985,0.734753372317763,0.353098510129786
5105,0.185530357091411,0.2499149042753,-0.249979771115986,-0.249775039022093,-0.0978731847721781,0.1487559939371,0.248914673381136,0.2435909423351,0.73063912928095,0.738236961384429,0.04,0.0531356986925512,348.786879326672,0.77605433488415,0.330234685415225
5165,0.168826994748572,0.218584914481103,-0.208315279672977,-0.208257016318022,-0.06888375270783,0.157192994442342,0.249005079317852,0.244122636589039,0.740190626804944,0.738236961384429,0.04,0.0544236843934087,353.102442527886,0.773448057589996,0.335447256963784
5225,-0.0149099910226568,-0.126044973255068,0.249994126200116,0.248441233426755,0.25,0.25,0.249999544621726,0.249971273382365,0.729588707621427,0.738236961384429,0.04,0.0700053023324457,348.223551882641,0.815788013584463,0.313642926436393
5285,-0.0344846711047462,-0.136374558817146,0.249994593202694,0.248571039884761,0.25,0.208333333333333,0.249999484426314,0.249973667267168,0.737598952554575,0.738236961384429,0.04,0.0656351460104447,351.953963761797,0.827832877841823,0.31239053457147
5345,-0.24980615200773,-0.25,0.249999730231053,0.249998910922831,0.25,-0.25,0.249998822276783,0.25,0.750486427521885,0.739893592589512,0.04,0.0451979764084106,358.140295118503,0.774092782229425,0.339949843351082
5405,-0.208155639340419,-0.249781274973251,0.249999752711799,0.249999001679262,0.249868620293937,-0.249999999799627,0.249998916854781,0.249999913344817,0.757124151544541,0.75977316705051,0.04,0.0381515080294506,361.470799931033,0.774370092942112,0.342988315109555
5465,0.25,-0.247375299679006,0.25,0.25,0.24842344352724,-0.249999997595519,0.249999957212755,0.249998960137804,0.767255163462998,0.779652741511509,0.04,0.0447920213133865,366.14108635684,0.833549931714656,0.322753917108812
5525,0.249999849153662,-0.23843810377011,0.249998594156176,0.249999963844502,0.20688826498136,-0.24999705367385,0.249994036124984,0.249998989403987,0.79258268955582,0.799532315972507,0.04,0.0378205691568129,378.386138013803,0.88579720665313,0.313874177548908
5585,0.249998189843942,-0.140128948772248,0.249983129874113,0.249999566134028,-0.249998699023324,-0.249964670535492,0.249928904159506,0.249999311331995,0.820195688239636,0.819411890433506,0.04,0.0302222800934722,391.432946779522,0.892886247802743,0.322118686519058
5645,0.235453972595598,-0.107618203041227,0.249981771869961,0.208332935622859,-0.208340956932454,-0.208315325760401,0.249923275312053,0.208333623112277,0.836188854204757,0.839291464894504,0.04,0.0319143422484125,399.192791723529,0.909425565932771,0.322530067783183
5705,0.0754675828638085,0.25,0.249966833824292,-0.25,0.249894206067112,0.249827466765589,0.24986135799007,-0.037347848075029,0.847431114897268,0.859171039355502,0.04,0.0434718329639671,404.53610251427,0.949348712073377,0.313102255879169
5765,0.0900114883126524,0.208336246363203,0.208303714783711,-0.208333333333333,0.208241369850973,0.237427317671242,0.249872911490898,-0.0413280562021624,0.872504012548596,0.879050613816501,0.04,0.0380750509446252,416.588327367604,0.996317295168359,0.30723034176279
5825,0.249994448249936,-0.249965043641563,-0.249990594662683,0.25,-0.24993982852656,0.101025677633424,0.25,0.249999845217662,0.900970724625601,0.898930188277499,0.04,0.0224100428859695,430.196276942587,0.987111401270983,0.320224942047138
5885,0.208328637294888,-0.20840484833791,-0.249991376751912,0.208333333333333,-0.249429646976646,0.0718139621366477,0.208371177593503,0.208334183834153,0.917906004171672,0.918809762738498,0.04,0.0217582211426179,438.645820997739,0.993016091138576,0.324572997591139
5945,-0.249995283210637,0.248757300002273,-0.249999979733431,-0.25,-0.24381764992759,-0.249514908327897,-0.131188642293506,-0.131188642293506,0.939025223433502,0.938689337199496,0.04,1.84628887472758e-08,447.975170334568,0.899805585641371,0.365813673620487
6005,-0.249990220728202,0.20719419166875,-0.249999955228321,-0.249995316126991,-0.244332815911296,-0.207888665967238,-0.207917664697681,-0.209769589135442,0.942203083968135,0.958568911660494,0.04,3.35425636732326e-09,449.56756615936,0.976981779810516,0.338114023329296
6065,-0.249934533421416,-0.25,-0.24999968567211,-0.249943793523887,-0.249999641732066,0.25,0.249992581285445,-0.25,0.989220843682969,0.978448486121493,0.04,0.00422665826688075,471.866774897824,0.922682486589746,0.37576973436912
6125,-0.208274431717319,-0.208333333475051,-0.208333129414515,-0.208281822354176,-0.20833300492106,0.25,0.220630065229506,-0.208349241574034,0.996255182349872,0.996671429377408,0.04,0.00856114187424891,475.459290315526,0.916474565327795,0.381195352799356
6185,0.249986687027753,0.249999998299388,0.249998989419036,0.249999860512642,0.25,0.25,-0.102357611385829,0.24980910111159,0.951947915465643,0.996671429377408,0.04,0.0531575847558986,454.63269246338,1.19091283266889,0.280501613484942
6245,0.249958931912273,0.208333331774439,0.243076054889408,0.249999872134196,0.243596309278685,0.20833336978201,-0.114661143770343,0.249825009352291,0.989639770646609,0.996671429377408,0.04,0.0533596612744843,472.561059945267,1.28363904969767,0.270501506345155
6305,0.249653625641999,-0.25,0.166923775063499,0.249999999971291,0.173155711344214,-0.249999562615879,-0.25,0.25,1.01610233813767,0.996671429377408,0.04,0.0441319146706198,484.618010188268,1.20268713870029,0.296074878429913
6365,0.208015824172287,-0.208333333333333,0.173846793808207,0.249966082874555,0.137892735398863,-0.249999599064556,-0.220065106363995,0.231155314209287,1.0051976264017,0.996671429377408,0.04,0.0533224519851858,479.540152886183,1.13696030907876,0.30990911498691
6425,-0.249999991994548,0.25,0.25,0.249592994810454,-0.25,-0.25,0.109218723632061,0.0238637705114429,1.00518971297682,0.996671429377408,0.04,0.0516703459946028,479.61848272729,1.08592217374204,0.324527785261853
6485,-0.249999963817159,0.249726899975591,0.25,0.207960255852162,-0.25,-0.25,0.111154521593449,0.0427084563021559,1.0010400678839,0.996671429377408,0.04,0.0503469097970564,477.529775950756,1.05181407951525,0.333592404062476
6545,-0.249999653865877,0.246722799707094,0.25,-0.24999987268905,-0.25,-0.25,0.13244829916871,0.25,1.0017274162851,0.996671429377408,0.04,0.0414663927777919,477.994095602765,1.02694745324398,0.342002267997825
6605,-0.208333813867624,0.246990922202112,0.209512220157308,-0.208337472150695,-0.208333333333333,-0.249895676682358,0.142243156969124,0.25,1.00068307216647,0.996671429377408,0.04,0.0420331922197987,477.304899108472,1.00053256470578,0.350525276023989
6665,0.24999042611316,0.249940269647318,-0.235853358112296,0.249948933771218,0.25,-0.248748120188298,0.249986592773677,0.25,0.984498343684446,0.996671429377408,0.04,0.0601727690542679,469.791994316991,1.05618733137395,0.326828058496465
6725,0.208325959150349,0.20846743671536,-0.237031793036151,0.237295198578332,0.249987391849687,-0.222283396145357,0.249987324460005,0.25,0.994250098068345,0.996671429377408,0.04,0.0556609893683151,474.30339672457,1.08129426934369,0.32230497546597
6785,-0.249983177440579,-0.247733725536175,-0.249994577198545,0.0981041114565892,0.249848702196249,0.0688285683270014,0.249995373009623,0.25,1.01169083814032,0.996671429377408,0.04,0.0361855907083151,483.077296468455,1.0314082800166,0.344144386407379
6845,-0.235824440164687,-0.247922138346714,-0.208328476986549,0.110762097106482,0.208194671875333,0.0576633454538352,0.21954642277415,0.249999997884497,1.00123393672878,0.996671429377408,0.04,0.0377738417891057,477.987623095195,0.993545124153202,0.353495371016273
6905,-0.0800783301298768,-0.249994679262642,0.24999862534541,0.249999939255307,-0.249999661654732,-0.0651541061509949,-0.115392029816045,0.249999974613965,1.00186969686929,0.996671429377408,0.04,0.0379989021397221,477.716886356424,0.962341714476766,0.364750551988626
6965,-0.0679925475302207,-0.249913357587399,0.208361969625126,0.249974551231512,-0.249999689805866,-0.0389143035139016,-0.0849426967169675,0.208333368161591,0.997611229242762,0.995463558523679,0.04,0.0351354837022247,476.011788954851,0.95233358428169,0.367268164755778
7025,0.0649510610659969,-0.249018819159729,-0.249641243298008,0.249695282969767,-0.249999999468337,0.249723525494125,0.249999967372882,-0.249999302814515,0.989752331771413,0.980969108278934,0.04,0.0336088281781223,472.04097615927,0.903608634428299,0.383843334934526
7085,0.0387051454771342,-0.249100582783179,-0.249660286075463,0.208054009388953,-0.249999999512642,0.208431761493313,0.208397067140912,-0.208332975778192,0.969947018615369,0.966474658034189,0.04,0.0325778575538613,462.652533402679,0.875639687738311,0.388225612208182
7145,-0.249999926000356,-0.249999982641124,-0.249869756627474,-0.25,-0.25,-0.245777642515619,-0.249234835410751,0.249996621621362,0.988512815105143,0.951980207789444,0.04,0.00687419991480251,471.777464595303,0.720552645687637,0.481089802312024
7205,-0.249999932166993,-0.24985159815341,-0.208213943575184,-0.249709117130938,-0.25,-0.204463613087481,-0.24928290850378,0.208492783184855,0.947581812177431,0.937485757544699,0.04,0.00630248055879529,452.36745122931,0.648578353369052,0.512487852178348
7265,-0.25,-0.248219368788561,0.25,-0.246509405571252,-0.25,0.249990710622032,-0.249811712527088,-0.248049439616723,0.90937626058959,0.922991307299954,0.04,0.0103561985553021,433.706302526206,0.712307845886907,0.447386300691093
7325,-0.229203191933219,-0.239901710742353,0.245163483708875,-0.246800288440315,-0.249999456450418,0.208324818070196,-0.208160774077837,-0.248211380650967,0.905098752278645,0.908496857055209,0.04,0.0112394956402692,431.752447515596,0.734595708766895,0.43185812755969
7385,-0.000438303198628887,-0.148407472234062,0.191961804506497,-0.25,-0.249993477405019,-0.25,0.249999548863924,-0.249992732027659,0.885247843429586,0.894002406810464,0.04,0.0233716795958571,422.222474364749,0.778349767159176,0.398585249786515
7445,0.0203915765583155,-0.156869819982244,0.155225289138086,-0.232334227165853,-0.249993144494722,-0.249999995502966,0.208489338938481,-0.208348184291051,0.87562408409751,0.87950795656572,0.04,0.0272110206756648,417.619417651037,0.807688846948227,0.379919227748382
7505,0.249520253884704,-0.249955645212248,-0.248876379914431,-0.0380107259902359,-0.249989482481453,-0.249999946035589,-0.248122970241393,0.249741840811647,0.865618439370113,0.865013506320975,0.04,0.0296666572889096,412.940673694205,0.812124541505283,0.37361104237436
7565,0.20789360832878,-0.208301553740951,-0.242255823521523,-0.0140107311641441,-0.2499801223621,-0.249954081937335,-0.24814492266029,0.249702409151843,0.850518231806778,0.850519056076229,0.04,0.0354750066641397,405.652550360087,0.814363770729061,0.366007885690984
7625,-0.24999949278639,0.249893452443317,-0.169429703199533,0.249989211922866,-0.249877161049217,-0.249449576856539,-0.248386399268153,0.249268660893998,0.82995704211838,0.836024605831485,0.04,0.0458190872955506,395.963970891029,0.850963596378314,0.341900208387095
7685,-0.249890116826705,0.20823676568722,-0.134477227932906,0.208325641126765,-0.208220730961782,-0.249494873079045,-0.206854343949187,0.249329605819498,0.823466215205104,0.821530155586739,0.04,0.0518671387615886,392.527089643358,0.841909112093802,0.342577708920318
7745,-0.248686981270165,-0.249986788629837,0.25,-0.249973637630337,0.25,-0.249993131526609,0.249998264559443,0.25,0.806542130431214,0.807035705341995,0.04,0.0620729654803564,384.996882939018,0.850571426891187,0.332583806934659
7805,-0.207190151187255,-0.20832122326922,0.249999999333988,-0.208309167827809,0.249399896159297,-0.249992800982166,0.249998354693019,0.224571507321148,0.797353226773589,0.792541255097249,0.04,0.0642232434902066,380.726753582208,0.828281637961213,0.337745863126243
7865,0.249274979724752,0.249999995697568,0.249999992007854,0.25,0.242798753911561,-0.249989164993291,0.249999346162352,-0.0551419121462188,0.778759460398226,0.778046804852505,0.04,0.0983287719565089,371.315912385533,0.839974890342656,0.324811901126664
7925,0.24933539189792,0.211966767681584,0.249992262809363,0.208333348747164,0.24339831508508,-0.208326578448296,0.242973321047914,-0.0713776692138088,0.767666723583207,0.763552354607759,0.04,0.0943252708754699,366.173192420549,0.821665198739454,0.327451006479251
7985,0.249999925802776,-0.206398740494236,0.249907241625964,-0.249999815034028,0.249993487993781,0.249961873546658,0.165687044789103,-0.249970996957298,0.760040651943026,0.749057904363015,0.04,0.074210586234337,362.547502402995,0.768118992450555,0.346809583777793
8045,0.208333294943195,-0.210026131520337,0.2082483048238,-0.249996263999244,0.208327363994299,0.208298384084437,0.131048338251024,-0.208306747210857,0.742181127460319,0.73456345411827,0.04,0.0709968287515433,353.926804900376,0.715452074339223,0.363485913225046
8105,-0.249999644512195,-0.249927432807447,-0.25,-0.249957202616627,-0.25,-0.25,-0.22350921030238,0.25,0.769120954016923,0.720069003873525,0.04,0.00590453741150647,366.940788457409,0.528957037495332,0.509718347574612
8165,-0.249999674136179,-0.208463961942505,-0.249999973366456,-0.208294102398574,-0.249987652579982,-0.25,-0.229854105728868,0.25,0.722562404641395,0.706782424482508,0.04,0.000344586891037951,344.97467980379,0.423121469679336,0.599068982406175
8225,-0.25,0.24763421757185,-0.249999680397475,0.25,-0.249851830959779,-0.25,-0.00849749840017341,0.25,0.684440504929466,0.706782424482508,0.04,0.0204043705487313,326.889603423378,0.55118333176575,0.435772388436832
8285,-0.249999967552847,0.20616478432206,-0.249990440118319,0.208339624854318,-0.249864174395892,-0.249999999997047,-0.0286227068668256,0.208333333387765,0.69755411140668,0.706782424482508,0.04,0.0126639720018998,332.917846794883,0.615694493781331,0.397307244182373
8345,-0.249999610634169,-0.249998981425631,-0.249888797047599,-0.249924501748189,-0.249999952193134,-0.249999999964564,-0.25,-0.249999999346823,0.654792924007028,0.706782424482508,0.04,1.40753505216089e-07,311.741905116084,0.718942239032093,0.318607402205609
8405,-0.249999643081321,-0.23735847711763,-0.249898063960299,-0.249930791375159,-0.249965646475672,-0.249998969726453,-0.249999896274728,-0.249992150332047,0.690368970591538,0.706782424482508,0.04,4.65034129596786e-07,329.728134285646,0.912266804995818,0.26557599005211
8465,-0.25,-0.0983129297296172,-0.25,-0.249999977271827,-0.249588283583592,-0.249987637107229,-0.249998755296738,-0.249905811169519,0.737811568304686,0.706782424482508,0.04,1.0921316300567e-05,352.331947423932,0.828166704945026,0.312599971526653
8525,-0.208335088923785,-0.0692869341078781,-0.208333435533857,-0.208333312499175,-0.207955926618293,-0.222233017940004,-0.249996577939967,-0.249913007311117,0.716605940837866,0.706782424482508,0.04,0.0114987446205281,342.302723729037,0.689489877076915,0.364785138598993
8585,0.24997893291458,0.249999017731252,0.249998773593717,0.25,0.25,0.0830677928994772,-0.249972627015485,-0.24999216486869,0.675729094363545,0.706782424482508,0.04,0.0754768653747424,322.5349854631,0.888801387129537,0.266640909571303
8645,0.249980631973552,0.208336866331516,0.249984319352084,0.208333343496588,0.249997896150142,0.0553150519367691,-0.249974908097528,-0.208326151129633,0.703717870585579,0.706782424482508,0.04,0.0720119878034322,335.756628103903,0.946315055609646,0.260701494835708
8705,0.249999321622243,-0.24994679906557,0.249825322694119,-0.249999878040941,0.249974753801701,-0.249965098653019,-0.25,0.25,0.715659506264786,0.706782424482508,0.04,0.0568937957137981,341.677098568245,0.917649509936608,0.273585899195063
8765,0.249999242732063,-0.231111369565596,0.249839879136276,-0.249999867944926,0.208312076881351,-0.249967671192593,-0.249999740652331,0.212823982186665,0.717056649726884,0.706782424482508,0.04,0.0660717895451345,342.307991671699,0.855547575791838,0.293986609563592
8825,0.24999837494009,-0.0239216450658809,0.25,-0.249999756888762,-0.249977369242501,-0.249995969127905,-0.249996887827971,-0.19611221376002,0.729388432334712,0.706782424482508,0.04,0.0576389531971119,347.83965144029,0.733675143663352,0.348361344246536
8885,0.208331843695082,-0.00109484131039073,0.225562850673341,-0.225025381436329,-0.208312997259255,-0.249993577445992,-0.24999714347064,-0.158937604129778,0.712794507199923,0.706782424482508,0.04,0.057662044270707,340.039205077455,0.673234945820783,0.371122271412781
8945,-0.25,0.25,-0.0432457919199097,0.0496927485404298,0.249995094556446,-0.24996726894495,-0.249999955539993,0.249983101802889,0.695773264381472,0.706782424482508,0.04,0.0581394259962261,332.160588896631,0.725358904925151,0.336472698360213
9005,-0.208336325794941,0.249978305329893,-0.0453113667567902,0.0663801021878465,0.249994806117472,-0.249969942562358,-0.208333348124179,0.249984509985981,0.707564889809997,0.706782424482508,0.04,0.0517733210737833,337.599948955131,0.729320247921905,0.34012517452922
9065,0.249964090460707,0.249739663958717,-0.0680326899624755,0.249940992309431,0.249991633288757,-0.24999935235384,0.249999333449779,0.25,0.694203508587257,0.706782424482508,0.04,0.081006978010433,331.249441944144,0.787957044996925,0.308892446730751
9125,0.227735297420202,0.249761358628824,-0.0415328423708888,0.208279249520573,0.249992140933919,-0.249999055300214,0.249998945712427,0.213954657676203,0.70725267206993,0.706782424482508,0.04,0.0749499467729212,337.607727165283,0.804330385279024,0.308412931291231
9185,-0.0167814260253535,0.25,0.249965481136564,-0.249999921156863,0.249997725030708,-0.249995787710324,0.249994680601559,-0.182544107885561,0.723063993319412,0.706782424482508,0.04,0.0575572943918921,344.904441119565,0.727629771662893,0.348291601689697
9245,-0.036216307182431,0.208333333333333,0.208326771576289,-0.249999927727124,0.208331252891857,-0.208330597682373,0.249995123884762,-0.146503652352887,0.709787304695714,0.706782424482508,0.04,0.0571734877584875,338.599804802718,0.687307033037882,0.361985014337123
9305,-0.249999999910282,-0.25,-0.249699033586733,-0.25,-0.249999940635507,0.249986492625086,0.25,0.249941358506535,0.726263366503146,0.706782424482508,0.04,0.0175620185709249,347.084567484654,0.632639681262896,0.403119263045274
9365,-0.249999692259531,-0.216611304501514,-0.249724072685041,-0.249997501342506,-0.246686570112823,0.24998753936752,0.244464626655124,0.208279950457124,0.71166459929359,0.706782424482508,0.04,0.0160677610571686,339.633580964102,0.578758224186028,0.431189448705209
9425,-0.249996308101273,0.150664345981826,-0.249999502766434,-0.249970016110074,-0.210239494363298,0.249999053534289,0.183575519861484,-0.175557903173619,0.700793696841948,0.706782424482508,0.04,0.00988958194174806,334.097978253043,0.579594012177416,0.423549948973947
9485,-0.249996424774866,0.117276061977075,-0.249997341931062,-0.249972225586492,-0.213552869650015,0.208334669774891,0.147447348996692,-0.23948073944724,0.704778110231585,0.706782424482508,0.04,0.0023640817573654,336.270094097667,0.593446533003498,0.416352641867914
9545,-0.249997708184395,-0.249995062075196,-0.249973572741974,-0.249996529827091,-0.249999997803898,-0.249973551578495,-0.24996253051602,-0.249762955163772,0.648670669632009,0.706782424482508,0.04,5.99776939115758e-08,309.188458224155,0.803164747367743,0.28286115594776
9605,-0.24999784166552,-0.24999547356893,-0.208313903199422,-0.208343409514366,-0.249989186000344,-0.249975511769529,-0.249965650637076,-0.249782708900124,0.697705676765554,0.706782424482508,0.04,3.7621783255089e-07,333.367936616771,0.968782304306158,0.252843798317486
9665,-0.24999930995789,-0.25,0.249942461768649,0.249840913925611,-0.249870256161253,-0.249997073870909,-0.249999971968693,-0.25,0.721566629459859,0.706782424482508,0.04,0.018265282804905,343.933809607718,0.809122281847936,0.312331211251141
9725,-0.249998741141447,-0.249997592547791,0.249945744807632,0.249854171098477,-0.245926398140111,-0.249965398087834,-0.20838489015515,-0.249644019901335,0.712358892480803,0.706782424482508,0.04,0.0309530514012688,339.722773560694,0.769183797593734,0.324525785563134
9785,-0.249992484160572,-0.249971110573495,0.249981858236446,0.25,-0.202543959907547,-0.24961696447401,0.249381009793822,-0.245728238816024,0.702540016659365,0.706782424482508,0.04,0.0462490287279691,335.290551669026,0.786293605516268,0.313322258125697
9845,-0.232746917970535,-0.24982757578413,0.208341421143554,0.222752638906697,-0.169510496066991,-0.249528572748933,0.207767243416968,-0.20441789586421,0.708645775507244,0.706782424482508,0.04,0.047013994156927,338.054029427989,0.778565931908917,0.319040191261322
9905,-0.043045689880139,-0.248248693101119,-0.249703386878263,-0.0769683331196327,0.193857606179123,-0.248556263773082,-0.249984186728427,0.249995876605747,0.713058130088218,0.706782424482508,0.04,0.0405768110902771,340.325948701769,0.747320542195113,0.334613007890029
9965,-0.060291827068594,-0.248393660820054,-0.208725990801101,-0.0497258935831746,0.156904256064567,-0.248624213065899,-0.249833590057741,0.208329553555268,0.710046992076918,0.706782424482508,0.04,0.0406693708076196,338.969221083807,0.726754699250661,0.342710249419088
10025,-0.249999336141598,-0.249988305728339,0.242025366047684,0.249940941317864,-0.249582595195553,-0.249371655286889,-0.248177026680192,-0.25,0.714591850119046,0.706782424482508,0.04,0.0368109147019352,340.803825408089,0.687409217345825,0.364287094595777
10085,-0.249983235369593,-0.240244808633731,0.242624866885864,0.248783115170039,-0.249614137454207,-0.249424016351815,-0.207190569568745,-0.208678675216767,0.708879600124262,0.706782424482508,0.04,0.0384392856191363,337.985388435728,0.667888742001633,0.371833469390434
10145,-0.24980612687754,-0.133066340593042,0.249219376105844,0.236047027543964,-0.249961102299395,-0.249999988066006,0.243660458657168,0.245855897398791,0.690731443776138,0.706782424482508,0.04,0.0582749404080963,329.748080732996,0.750938719147556,0.322650583744863
10205,-0.208202055866841,-0.101265851117477,0.249239106081949,0.195543108581967,-0.208300011350443,-0.208337075518885,0.207244201120956,0.246168633974199,0.704689830575279,0.706782424482508,0.04,0.0547431563261461,336.465013472298,0.776522797357041,0.318376040792158
10265,0.249442725250845,0.248539533113742,0.249456135819098,-0.25,0.249971989088029,0.249954962499445,-0.193334631777385,0.249608736303687,0.69866500832609,0.706782424482508,0.04,0.0830766054937901,333.303099505402,0.837772562467182,0.292326304075138
10325,0.249489164813275,0.221710981763332,0.207836564151305,-0.25,0.208308774848156,0.208293483953191,-0.198056712637879,0.249641341611713,0.708425376203046,0.704387944145389,0.04,0.0799691751551172,338.089884017015,0.839872640937032,0.295783142337814
10385,0.25,-0.0734030830911831,-0.249978724194414,-0.25,-0.24998658179045,-0.249982780055602,-0.249999602103313,0.25,0.71179558285846,0.679804226448333,0.04,0.0436491310767319,339.653479009773,0.672499916008262,0.37110645559409
10445,0.215297262871405,-0.0464529814466101,-0.208313830511546,-0.25,-0.208321033307913,-0.249984215050969,-0.249999599280698,0.208333333333333,0.705785184133126,0.700871018583461,0.04,0.0353977764858921,336.885137499208,0.622091928955814,0.39790734959611
10505,-0.166432845543138,0.249998136643693,0.25,-0.25,0.25,-0.25,-0.249999568231927,-0.25,0.717791170201231,0.721937810718589,0.04,0.0383375283849318,342.505561579132,0.644716604448929,0.39034933941733
10565,-0.131730108689501,0.208331625256719,0.208333333393532,-0.208336727206733,0.208333816970675,-0.249998849288775,-0.2499996042126,-0.208333394947845,0.733708656980791,0.743004602853717,0.04,0.021008287650319,350.091619370847,0.697024979005986,0.369052412657171
10625,0.249999996700503,-0.25,-0.249999999277622,0.249959273519199,-0.249994196351899,-0.249986191465298,-0.25,0.249999260625862,0.762004122948792,0.764071394988845,0.04,0.0142865052263851,363.938353836598,0.72862393406677,0.367010990361666
10685,0.208333370449585,-0.249962623174957,-0.208338762742995,0.208576919014382,-0.208328013322574,-0.208323005556923,-0.25,0.249999177664216,0.77692153650195,0.785138187123972,0.04,0.0169334235239281,370.641690450762,0.773332279199056,0.352162254940486
10745,-0.249999518310513,-0.249551478099487,0.249934839137901,-0.246628980538607,0.25,0.249972039435209,-0.25,0.249998265086105,0.787198079289332,0.8062049792591,0.04,0.0259284542126526,376.115283524807,0.887714040975485,0.31131680775414
10805,-0.208335971041886,-0.207933525739579,0.208273602543076,-0.246909767745198,0.208338726414363,0.249974244644163,-0.25,0.208332464680175,0.818292688902164,0.825516205382968,0.04,0.0258167860277382,391.228455693595,0.946317418096347,0.30377237575136
10865,0.249963048913012,0.249863950219415,-0.25,-0.249998427017695,-0.24993528302764,0.249998501942662,-0.25,-0.249991339785053,0.834752008883993,0.825516205382968,0.04,0.0315676473689369,397.998179004601,0.914650333689836,0.319727994924175
10925,0.247299324675637,0.208209554929987,-0.208333333333333,-0.246192969030473,-0.249851475943985,0.249998587869706,-0.208333336950343,-0.249929088976977,0.83000193515767,0.825516205382968,0.04,0.0429628457268406,395.776637711639,0.884603720908928,0.328742663211127
10985,0.217998358064507,-0.249988793253714,0.25,-0.204332931171033,-0.248929598023778,0.249999533067195,0.249999956595879,-0.249244330088134,0.818572737769988,0.825516205382968,0.04,0.0516793651615758,390.746213520517,0.915504301919597,0.31360939535355
11045,0.208615733049574,-0.249900464297792,0.249990471357971,-0.166472095469893,-0.232089160878836,0.208332905311595,0.249999960212889,-0.227642661466119,0.82726420766861,0.825516205382968,0.04,0.0536185491584165,394.608687430782,0.912609148551201,0.317714108266814
11105,0.105406857885307,-0.248928845782646,0.249885656295653,0.249997097242651,-0.0468443522844703,-0.25,0.25,0.00997569337604477,0.823344605064299,0.825516205382968,0.04,0.058777244308895,392.921092889635,0.924277937148064,0.312361452194305
11165,0.117193561033929,-0.248332112085013,0.234446832268599,0.208386574742058,-0.0634140634187675,-0.25,0.223982113540243,-0.0116815748012837,0.828679770130017,0.825516205382968,0.04,0.05674613067339,395.677324754422,0.912380591628747,0.31865431272459
11225,0.246847295668767,-0.241768041411051,0.0646197679709961,-0.249329172764475,-0.245680885896036,-0.25,-0.0622146375170847,-0.249911524751897,0.850261267909781,0.825516205382968,0.04,0.033326357729722,405.486671452344,0.790320480707909,0.376988431175437
11285,0.247101084559171,-0.200818450568708,0.0452726828390186,-0.249385075034102,-0.24604005365819,-0.249998998493487,-0.0778631376246752,-0.208252231022572,0.830899588039428,0.825516205382968,0.04,0.033426786774631,396.269069748367,0.738139448042852,0.394463147680099
11345,0.24989276235361,0.249627048697065,-0.167545253612735,-0.25,-0.249990899041885,-0.249987981921848,-0.24999663880817,0.25,0.818204035826131,0.825516205382968,0.04,0.041668676687886,390.44676342042,0.769915172751268,0.372626403687619
11405,0.208235575285214,0.210846964261621,-0.132749815811673,-0.208333333333333,-0.208324990788394,-0.208322316761694,-0.249122620668242,0.249940262660883,0.825613479467865,0.825516205382968,0.04,0.0419024499665543,393.657782704289,0.77322242648072,0.374083951022664
11465,-0.249993482467143,-0.215733964528267,0.25,0.25,0.25,0.25,-0.239508421129029,0.249283151930592,0.813310137338878,0.825516205382968,0.04,0.0551163680185149,388.409531230683,0.849071200783165,0.336124712945947
11525,-0.249993972004261,-0.218589311506228,0.208333333580881,0.208333356199292,0.245082337151518,0.249999999582836,-0.19871605270161,0.249342889269709,0.822143803326988,0.825516205382968,0.04,0.0531677586488878,392.111464197545,0.871033034740454,0.330772647933814
11585,-0.249999356912557,-0.249998128263794,-0.249999997029431,-0.249999725608493,0.190988045818214,0.249999994994034,0.25,0.25,0.837686068388522,0.825516205382968,0.04,0.0384581955610972,400.043273830737,0.834683094405898,0.35216000518405
11645,-0.249999404727857,-0.208332061709461,-0.24999994133967,-0.208333654673792,0.154239042000029,0.249999995411198,0.243606490607259,0.25,0.827299056371057,0.825516205382968,0.04,0.0399339913888102,394.944895495816,0.81722860291139,0.355097506681289
11705,-0.249999930696149,0.249994670388193,-0.24999932875229,0.249993125607916,-0.25,0.25,0.173277887287103,0.25,0.816732347710622,0.825516205382968,0.04,0.0494533123677982,389.597014150296,0.866375357990153,0.330418385482143
11765,-0.24999993647147,0.249994256926567,-0.249999384125918,0.208328395146963,-0.208333333333333,0.249999996922433,0.178599647261495,0.208333333340308,0.825221347399087,0.825516205382968,0.04,0.0477814795526697,393.886119541482,0.880090048907551,0.3288503000276
11825,-0.25,0.249989708848691,-0.24999999323583,-0.249983639923515,0.25,0.249999963069193,0.237139006979807,-0.2499999999163,0.835442723828658,0.825516205382968,0.04,0.0442432966057597,398.460851649273,0.831674007521541,0.352036104447944
11885,-0.25,0.208325933178292,-0.249999993210284,-0.249985003263222,0.208333333333333,0.208333359566735,0.19654408973149,-0.249999999425049,0.827321052850434,0.825516205382968,0.04,0.0402528654973577,394.921201357711,0.814179541224926,0.356405945761484
11945,-0.25,-0.2499755991961,-0.249999992929274,-0.25,-0.25,-0.249999278960306,-0.25,-0.24999999402129,0.838808689696795,0.825516205382968,0.04,5.2259567877445e-06,399.222103018891,0.662166969986606,0.442997974743676
12005,-0.208333333333333,-0.249977625309543,-0.249999993518501,-0.25,-0.24999980756067,-0.249999077782911,-0.25,-0.249999994422451,0.812846392422645,0.825516205382968,0.04,1.36050621705479e-06,387.786013310316,0.708945774786644,0.401914614722322
12065,0.25,-0.249999912557416,-0.25,-0.25,-0.249997690728035,-0.249996864831569,-0.25,-0.24999999883522,0.827408673142358,0.825516205382968,0.04,2.09509772223762e-05,394.926536230044,0.737814292108032,0.393299984084615
