time,bias_percent_1,bias_percent_2,bias_percent_3,bias_percent_4,bias_percent_5,bias_percent_6,bias_percent_8,bias_percent_9,normalized_power,power_SP,SP,CV,total_power_MW,fuel_fraction,thermal_efficiency
23,0,0,0,0,0,0,0,0,0.99952337914142,1,0.04,0.0400220600967435,476.890033748325,0.999401338427789,0.350617021442813
83,0,0,0,0,0,0,0,0,0.999942013244647,1,0.04,0.0398947751908712,477.073315271948,1.0002192162893,0.350464963652699
143,0,0,0,0,0,0,0,0,0.999993677233257,1,0.04,0.0399317765700988,477.097100655693,1.0003116425156,0.350450053063039
203,0,0,0,0,0,0,0,0,1.00000050390899,1,0.04,0.0399662220698452,477.100262974024,1.00031700855288,0.350450495988662
263,0,0,0,0,0,0,0,0,1.00000242557488,1,0.04,0.0399874564995065,477.101168042041,1.00030569250538,0.350455125309792
323,0,0,0,0,0,0,0,0,1.00000346531512,1,0.04,0.0399996941181592,477.101659160521,1.00028672353265,0.350462131936378
383,0,0,0,0,0,0,0,0,1.00000393649922,1,0.04,0.040006286726189,477.101879814579,1.00026380922978,0.350470322502265
443,0,0,0,0,0,0,0,0,1.0000039480559,1,0.04,0.0400093098123467,477.101882232351,1.00023994906068,0.350478684553479
503,0,0,0,0,0,0,0,0,1.00000364243027,1,0.04,0.0400101010154423,477.10173447888,1.0002173457434,0.350486496270906
563,0,0,0,0,0,0,0,0,1.00000315622638,1,0.04,0.0400095648100344,477.101501670704,1.00019735055651,0.350493331903138
623,0,0,0,0,0,0,0,0,1.00000259817457,1,0.04,0.0400083201533453,477.101235071351,1.00018060169775,0.350499005351141
683,0,0,0,0,0,0,0,0,1.00000204187792,1,0.04,0.0400067828408712,477.100969865727,1.00016722487321,0.350503498296905
743,-0.0958214709420502,-0.0957255512207688,0.0958333333333331,0.0957989417950531,-0.0956484911497133,0.0958333333333331,-0.0958331925729644,-0.0958332558553836,1.00599400634977,1,0.04,0.0363711212777521,480.022319823741,0.988053098685162,0.356973373284723
803,-0.249969054631435,-0.249718829271571,0.25,0.249910282943617,-0.249517802999252,0.25,-0.249999632799038,-0.249999797883609,1.00588925235613,1,0.04,0.0333544684426312,479.794162296867,0.932241233834271,0.378164996636758
863,-0.249963541131986,-0.249255110930027,0.05856605967214,0.249187898499693,-0.249591892096858,0.249903864649463,-0.249999773559407,-0.249332388176044,1.0035719606797,1,0.04,0.0254026772709425,478.824370235627,0.919863191725984,0.382479075975917
923,-0.249954671589393,-0.248509129250153,-0.249392887811809,0.248025801785555,-0.249711078906051,0.249749212129034,-0.25,-0.248258729081265,1.0037087878512,1,0.04,0.0172481545902897,478.77217512649,0.884907726952019,0.397544355408764
983,-0.249969573884201,-0.0574139630375946,-0.249624804587918,0.248782577767759,-0.249807626841086,0.249713701992666,-0.249999408532657,-0.223593398077209,0.992508196066041,1,0.04,0.0210622489599772,473.349254206046,0.896818681106669,0.387821362019324
1043,-0.249993547141066,0.25,-0.24999788809731,0.25,-0.249962943084402,0.249656576990683,-0.249998457041714,-0.183914387331554,0.991580835131912,1,0.04,0.026884951043279,473.17650136811,0.964161338784018,0.360602000775156
1103,-0.249996020736991,0.249913504342576,-0.0584692652028565,0.249858965601083,-0.249977148235382,0.249785578193176,-0.249998911030966,-0.0178395995555965,0.986373694471624,1,0.04,0.0371595531466828,470.454548590348,1.01215695810933,0.341526559502338
1163,-0.25,0.249774359154546,0.249641997714309,0.249632084176737,-0.25,0.249993101866751,-0.2499996413615,0.249324189475291,0.989295788871715,1,0.04,0.0475212418886748,472.133916277985,1.10686200971568,0.313419774816705
1223,-0.124881695588613,0.249778307575619,0.248197081183913,0.249253056731895,-0.249999240746301,0.249984407978985,-0.22865259426348,0.24948419264581,0.99601776551694,1,0.04,0.0547224503074082,475.178364267712,1.13289128135654,0.308193233919162
1283,0.0763955767253565,0.249784659383432,0.245872650243711,0.248643316929323,-0.249998019338177,0.249970422159537,-0.194311692410144,0.249741589050559,0.997543465586577,1,0.04,0.0623001757757397,475.976673711782,1.15644463764578,0.302423474958182
1343,-0.0487227274889866,0.111529190905681,0.0558144139735996,0.249163270558596,-0.249998778591876,0.249981760331714,-0.215658876986255,0.0581742977413931,1.01401371877018,1,0.04,0.0508073652228387,484.06879464689,1.12939806141943,0.314930501828744
1403,-0.249999999485973,-0.110881780123744,-0.249931444373971,0.24999971770134,-0.25,0.25,-0.25,-0.249999170886396,1.01861822325919,1,0.04,0.0358324132548587,485.741152261451,0.9825278460259,0.363257598366925
1463,-0.249996326434095,-0.164207296909287,-0.249957724030615,0.0583332329123796,-0.249987875639582,0.24999958359891,-0.249999999146331,-0.249999488519223,1.01018554812817,1,0.04,0.0270114247872887,482.036571038652,0.925656608119605,0.382635058174398
1523,-0.249990417611509,-0.249991823912117,-0.25,-0.249999807835079,-0.249968371233692,0.249998913736288,-0.249999997773037,-0.249999999493771,1.01020603076301,1,0.04,0.0162754808294438,481.789079647468,0.846182474819011,0.418357541094758
1583,-0.249881508353165,-0.249941401206954,-0.249999910381189,-0.249999879947803,-0.24998049559411,0.117473293553028,-0.226991206582719,-0.249994872382025,1.00754842542593,1,0.04,0.0102232502967371,480.712537683557,0.809332071256068,0.436428772997728
1643,-0.249706306502786,-0.249860286420388,-0.249999766211797,-0.249999995955228,-0.25,-0.0957200954374341,-0.189977064233075,-0.249986624419651,1.00383496302493,1,0.04,0.00532447175386314,478.872439996087,0.769014336870697,0.457551604968073
1703,-0.249818889010051,-0.249913843292573,-0.249652638655176,-0.249999997505724,-0.0583371180254301,-0.154860725519751,-0.212985738738137,-0.249983218010242,0.993050607774747,1,0.04,0.00547260874371805,473.729825797395,0.783335612606241,0.444362635218844
1763,-0.25,-0.25,-0.249094216064089,-0.25,0.249990126890183,-0.25,-0.249999693376714,-0.249977738134237,0.990174033307172,1,0.04,0.00715542484655575,472.452311416294,0.849106840384681,0.408837114812251
1823,-0.249999998080883,-0.249999586457247,-0.0577750781168842,-0.249998398270676,0.249993911582279,-0.0583333333333334,-0.249999510255219,-0.249986271849446,0.976011714011628,1,0.04,0.0163650695008131,465.314845459988,0.932805832287074,0.366530679512062
1883,-0.249999994993607,-0.249998921192817,0.249999187276446,-0.249995821575678,0.25,0.25,-0.249999215668465,-0.25,0.98059629838518,1,0.04,0.0268866312856855,468.05771019184,1.09541259628113,0.313961466735521
1943,-0.249999996909676,-0.249998646587617,0.249998037138883,-0.0583307787423993,0.0583333333333334,0.0585430398732452,-0.0583722554374699,-0.249958883649885,0.992413306171055,1,0.04,0.0341987766586322,473.536918193732,1.15858985745564,0.300316225845973
2003,-0.249999999992046,-0.249998204831424,0.249996186917586,0.249999942337223,-0.25,-0.2494529394611,0.249897202325435,-0.249892739956221,0.997713068816327,1,0.04,0.0420964088998936,476.035083086764,1.18039783965123,0.296322910753181
2063,-0.249999565810907,-0.0584718187407993,0.0627946628799625,0.24999996329341,-0.249970467495387,-0.0580039639704866,0.204889820098232,-0.249933856306334,0.996781008297766,1,0.04,0.0499375777013724,475.525905350868,1.18949376445216,0.293742432958141
2123,-0.249998867345597,0.249635845839772,-0.238355614919693,0.249999997005537,-0.249922958683618,0.249979170514413,0.132486639993602,-0.249999999999995,1.00072189733813,1,0.04,0.0570039188074697,477.498728865681,1.20039412593757,0.292282648834414
2183,-0.249999301529785,0.249775438267859,-0.242798289613805,0.249999998153414,-0.249952490252098,0.249987155150555,-0.0141224789500253,-0.249999999999997,1.00800903029053,1,0.04,0.0582192814189361,480.994622764836,1.17196914773556,0.30156346069344
2243,-0.25,0.25,-0.249945201078247,0.25,-0.249999997557913,0.25,-0.249971931163687,-0.25,1.00813674551674,1,0.04,0.0583171937804966,480.924949013635,1.11171344769094,0.317862375582997
2303,-0.249999999976379,0.0926884679176437,-0.249966207331585,0.0583534207684124,-0.249999995039832,0.24996127511319,-0.249982098660684,-0.249998829049153,1.00990758686846,1,0.04,0.0495274516413805,481.937851743575,1.06986674818195,0.330990877301462
2363,-0.249999999938379,-0.160377909780059,-0.25,-0.249947597995446,-0.249999990989004,0.249898978556149,-0.249998455068896,-0.249996945345616,1.01238654965098,1,0.04,0.0390738502708698,482.837852030743,0.976945208389013,0.363149774117443
2423,-0.249999999962001,-0.00306637771333681,-0.0583333335557384,-0.249964291969703,-0.249994210786069,0.0582710395993684,-0.249999035557672,-0.249937382002971,0.999319542299055,1,0.04,0.0397022819448909,476.592098262462,0.947640111698004,0.369537127525923
2483,-0.25,0.249999999959217,0.249999999419813,-0.249991147493509,-0.249984912198737,-0.249999992635452,-0.249999969387444,-0.249841562712629,0.997728946485652,1,0.04,0.0411096380892821,476.095675650385,0.973536759668006,0.359332549233889
2543,-0.25,0.0583333409380346,0.24999316775585,-0.0583278742876639,-0.249990695855888,-0.0583401875358021,-0.249972332303066,-0.185059578730054,0.992699387286779,1,0.04,0.0439201536265535,473.537820294484,0.990394817703087,0.351318474124284
2603,-0.25,-0.249999980096042,0.249982177687736,0.25,-0.25,0.249982107624504,-0.24992787264559,-0.0808450827580866,0.99517183414246,1,0.04,0.0471268797826322,474.851009823527,1.03633698318834,0.336675136861468
2663,-0.25,-0.249999987725892,0.249989009574104,0.25,-0.25,0.249988966368445,-0.249955151154826,-0.145687304330302,1.00076081467149,1,0.04,0.0465112769562265,477.50723554944,1.04453634238951,0.335900830864929
2723,-0.25,-0.25,0.25,0.25,-0.25,0.25,-0.249999033974031,-0.249998704250823,1.00145358193814,1,0.04,0.0465976171457146,477.77119083045,1.03122749077729,0.340423986263579
2783,-0.25,-0.249996664877292,0.249999946848006,0.249989125339899,-0.216548765313584,0.249946808570091,-0.249975436922893,-0.249999200954674,0.999692260974417,1,0.04,0.0468950762640625,476.939343880042,1.02931604051312,0.340462344498467
2843,-0.25,-0.249991299679893,0.249999861342624,0.249971631321475,-0.162735909513697,0.249861239748064,-0.249937476449322,-0.25,0.99959436167551,1,0.04,0.0467437743140131,476.916169514377,1.03355633078309,0.3390490813026
2903,-0.25,-0.249993169407592,0.249999914494618,0.249982505981577,-0.196182503719639,0.249914431177973,-0.249923121818571,-0.249986050866528,0.998872883176589,0.995683646153345,0.04,0.0463600259879254,476.513593841499,1.02618649754494,0.341195798732959
2963,-0.25,-0.249996177230413,0.25,0.25,-0.249987894398763,0.25,-0.249900029586493,-0.249963610956161,0.989177776372936,0.984423592640333,0.04,0.0479773819426955,471.840303741088,0.996825563945403,0.347800773851355
3023,-0.25,-0.0583309759587548,0.22645968987233,0.0583333333333334,-0.249988754837772,0.249999999981051,-0.249933806043451,-0.0583110987492222,0.970929034325416,0.973163539127321,0.04,0.052332739752587,463.031186993383,0.983109763456234,0.34606916936446
3083,-0.25,0.25,0.188590495319121,-0.25,-0.249990139022266,0.249999999950569,-0.249988142082906,0.249999464366288,0.961558129170249,0.961903485614309,0.04,0.0557197458603596,458.759115762562,1.00534487111381,0.33529286872272
3143,-0.24999999350506,0.0583333507096683,0.0204641759381424,-0.0583333333333334,-0.249993892878158,0.249999859819318,-0.249991939880622,0.0583343003420937,0.964141783429885,0.950643432101297,0.04,0.0490353523353281,460.086806302624,0.965359098798259,0.350191468453138
3203,-0.249999983056679,-0.249999954670431,-0.249999903066042,0.25,-0.249999931689811,0.249999634390784,-0.249998049381295,-0.249996615696827,0.953150203906819,0.939383378588285,0.04,0.0403659045200912,454.489343073905,0.852077186811683,0.391921819561364
3263,-0.249999572663217,-0.249999966162222,-0.249999461035277,0.249999361124826,-0.249999508270679,0.176728689737381,-0.249998745080108,-0.24999573657525,0.934225381387037,0.928123325075273,0.04,0.0346645551086917,445.629667066134,0.81014511958858,0.40417174718058
3323,-0.249998912465039,-0.249999984649016,-0.249998749942306,0.249998333369111,-0.249998827118163,0.0588580396427764,-0.249999864247765,-0.249994322336192,0.921647252713011,0.91686327156226,0.04,0.0283983759806133,439.596512374954,0.774755028346852,0.416912110649112
3383,-0.249999329353441,-0.197013515849156,-0.249999229131089,0.0583323055776189,-0.249999276722867,0.132129124446379,-0.249999887004075,-0.249996498773985,0.910369405086308,0.905603218049248,0.04,0.0248830129211923,434.265741929732,0.750905155249859,0.424937600001786
3443,-0.25,-0.111774413866772,-0.25,-0.25,-0.25,0.25,-0.249999923612053,-0.25,0.897275639849063,0.894343164536236,0.04,0.0225428098437853,428.008830588706,0.72210466237453,0.43551915065755
3503,-0.249999999964273,-0.164760868182065,-0.249999999906448,-0.249999962341214,-0.25,0.0645862084949525,-0.249998794759915,-0.249999950560406,0.892520646039686,0.883083111023224,0.04,0.0161551806090454,425.703395503434,0.697957548254028,0.44815968073111
3563,-0.2499999999068,-0.249999946863189,-0.249999999755952,-0.249999901759688,-0.25,-0.233688151752298,-0.249996978780389,-0.249999871027146,0.876524883924361,0.871823057510212,0.04,0.0095593840704705,418.269499019603,0.629774752763507,0.48800652220149
3623,-0.249999999942527,-0.2499999672323,-0.249999999849504,-0.249999939418474,-0.0583358130309961,-0.0482743602472505,-0.249997782080489,-0.24999992046674,0.84367441163279,0.8605630039972,0.04,0.0156536729098062,402.61294922694,0.65522861114825,0.451491483101082
3683,-0.25,-0.25,-0.25,-0.25,0.249993531223489,0.25,-0.249999074345867,-0.25,0.83469073045524,0.849302950484188,0.04,0.0225675748034797,398.221339628597,0.780150812092747,0.375059905949551
3743,-0.168298864406188,-0.249967584533483,-0.25,-0.249988881070685,0.0583293442544848,0.249931504671446,-0.0583331957500238,-0.249998758342384,0.829563818785874,0.838042896971175,0.04,0.0289565337267857,395.720867055007,0.831633934672433,0.349632202418015
3803,-0.0368666027987508,-0.249915437913433,-0.25,-0.249970994097439,-0.25,0.249821316534207,0.249998869817202,-0.249996760893175,0.820921511866774,0.826782843458163,0.04,0.0377103591824139,391.595694739866,0.875373470703958,0.328699621589238
3863,-0.118567737956062,-0.249947853379951,-0.25,-0.249977491055669,-0.249997806391676,0.0582231452066842,0.0583326453144759,-0.24998037061533,0.826332884156143,0.815522789945151,0.04,0.0342276963322607,394.394115634063,0.867473384145608,0.33406343643719
3923,-0.249999998861303,-0.25,-0.25,-0.249987942684127,-0.249994277543504,-0.249999999972374,-0.24999997671165,-0.249954003646624,0.816996213264334,0.804262736432139,0.04,0.0292952329878189,389.623051734671,0.755414090640099,0.378978208555157
3983,-0.249999934828229,-0.0902944745281243,-0.249998908725882,-0.249992564655212,-0.249996126584067,-0.249997889298623,-0.249944265821296,-0.249950068146668,0.791541819782892,0.793002682919127,0.04,0.033722710889592,377.573254859732,0.727193753370578,0.381509854545204
4043,-0.249999831818501,0.166623109926632,-0.249997153197953,-0.25,-0.249999101127582,-0.249994493866936,-0.249854643954204,-0.249943737125001,0.780081230745811,0.781742629406115,0.04,0.0372717843849151,372.075757831089,0.753370813821746,0.362891887824975
4103,-0.249999744752942,0.198584251121423,-0.0585735184312216,-0.25,-0.0583327790286754,-0.249996599215041,-0.249910359339391,-0.249965304478669,0.7577350777047,0.770482575893103,0.04,0.0483647460156057,361.34115046425,0.775438075111924,0.342393079108607
4163,-0.249999604690957,0.25,0.249368850541346,-0.25,0.25,-0.249999986079385,-0.249999988437299,-0.249999999786743,0.751024787183338,0.75922252238009,0.04,0.0601345644821843,358.430723099553,0.868525570583807,0.303233581540531
4223,-0.0583330895594237,0.0583338198662818,0.249610791167163,-0.249999662433483,0.249999089307079,-0.249998426093824,-0.111701586268975,-0.24999986977374,0.748980578097017,0.747962468867078,0.04,0.0695892525413826,357.232746822125,0.865608641950742,0.303238511111688
4283,0.25,-0.249998730783613,0.25,-0.249999119391695,0.249997624279338,-0.249995916551835,0.110778452001806,-0.249999660622388,0.740730886474607,0.736702415354066,0.04,0.07919506303444,353.383863193066,0.855742184750007,0.303429952343401
4343,0.25,-0.249999217316561,0.249999882608644,-0.058333304167572,0.0583318683055916,-0.0583308772768449,-0.0275199545988863,-0.0583331240504725,0.729627296042459,0.725442361841054,0.04,0.0897701111892457,347.950841033714,0.819023117144215,0.312159392483512
4403,0.25,-0.25,0.249999693761679,0.249998659453843,-0.25,0.249999838078574,-0.25,0.25,0.717538102155724,0.714182308328042,0.04,0.095468829932346,342.30078529505,0.80699805922376,0.311666469557809
4463,0.25,-0.249998877937864,0.249999669746998,0.0583509077331061,-0.24999998705162,0.2499996559474,-0.25,0.25,0.711398890331385,0.70292225481503,0.04,0.0888453606540098,339.375114146245,0.767764713939498,0.324792895536266
4523,0.25,-0.249997072881385,0.249999631114685,-0.249951997208949,-0.249999966221617,0.249999362953773,-0.25,0.25,0.701887493918292,0.691662201302017,0.04,0.0800961611935685,334.746282654615,0.701785680395337,0.350482176190631
4583,0.249998540949428,-0.249998194943521,0.24999872685634,-0.249962747380146,-0.24999852609492,0.249999607154826,-0.25,0.249999994320119,0.687860960321117,0.680402147789005,0.04,0.0753998910866177,328.075430663463,0.652230963134711,0.369595752727661
4643,0.249996193781116,-0.25,0.249997272179873,-0.24998004113381,-0.249996209369364,0.25,-0.25,0.249999985182918,0.677043462609021,0.673458448122648,0.04,0.0663118990290937,322.979589168883,0.618792574699998,0.383517036100077
4703,0.249997621219982,-0.183298986251332,0.0708526470959802,-0.249985204803698,-0.249997548442108,0.249999460776477,-0.249998630611103,0.249999853207698,0.676655702022552,0.673458448122648,0.04,0.048574911196463,322.858765892243,0.604786293743926,0.392252137123855
4763,0.249999917534679,-0.0759973554382565,-0.217336532386805,-0.249993511576996,-0.249999702602608,0.24999859332994,-0.216379610003786,0.249999640899734,0.67574510372184,0.673458448122648,0.04,0.0341402908801006,322.365111964569,0.58223606423633,0.406821229316389
4823,0.249999949146385,0.0489682974797419,-0.0381975760384797,-0.249973669426936,-0.249999816604942,0.249994520239179,-0.204932563711795,0.249999195477243,0.666914646086582,0.673458448122648,0.04,0.0416519481340027,318.125891687407,0.589565608294035,0.396480243845622
4883,0.25,0.25,0.249982484174043,-0.249941749446405,-0.25,0.249987967875782,-0.191055469061254,0.249998478928019,0.667013411175053,0.673458448122648,0.04,0.0541460117549065,318.287555775708,0.638483741199656,0.366289519782995
4943,0.0583333333333334,0.139696882474757,0.186914938852257,-0.0583395075238357,-0.0583497543814912,0.249986784357513,-0.165479809161649,0.249999062005612,0.667627347112321,0.673458448122648,0.04,0.0539640466308099,318.524418993315,0.665859572768754,0.351491446271409
5003,-0.25,-0.0377472631093307,0.0854584528998182,0.249890186003776,0.249957162483067,0.249984880436819,-0.137901118605468,0.25,0.672675481736177,0.673458448122648,0.04,0.0468030533627464,320.89139347361,0.68420514906284,0.34460883473859
5063,-0.249992725105504,0.0725558544159127,0.148532712621555,0.249932273750443,0.249973561533952,0.249808189451608,-0.114569911003512,0.249979076477816,0.669071797848556,0.673458448122648,0.04,0.0533242785152284,319.163043317273,0.698205282808209,0.335879999102758
5123,-0.249981022014358,0.25,0.25,0.249999980125515,0.249999942615811,0.24952394743192,-0.0813527886523016,0.249945416898649,0.668677397545745,0.673458448122648,0.04,0.0612858436184641,319.070313814611,0.733942003755006,0.319432670695431
5183,-0.249984803469524,0.249999779751522,0.25,0.249992203081785,0.249999964613083,0.249706434249684,-0.0411645053522646,0.249958926278675,0.667013870376775,0.66039471941258,0.04,0.0656660840018135,318.071293280555,0.727982162834564,0.321039457418641
5243,-0.249990886680008,0.249999425438753,0.25,0.24997969218535,0.25,0.25,-0.0194443794175635,0.249980658759587,0.637561941304837,0.626315427125448,0.04,0.0831319280937904,303.90356123158,0.661180384461366,0.337730672584028
5303,-0.249994380119338,0.249999645687231,0.249992410090903,0.249982258887379,0.25,0.25,-0.00918456708197611,0.249984861756586,0.606337861640302,0.605299863548383,0.04,0.0893247119510629,289.164867439971,0.618783873759436,0.343369104499047
5363,-0.25,0.25,0.249980200237137,0.249986387929773,0.25,0.25,-0.00433819788949722,0.249991623099584,0.600555327165187,0.605299863548383,0.04,0.0759827057688356,286.522104897937,0.642495541836583,0.327674534207021
5423,-0.25,0.25,0.249960445952004,0.249932758421738,0.25,0.249998640061541,-0.00204894604212662,0.249994834244743,0.601544627895965,0.605299863548383,0.04,0.0680554772118866,287.009370986116,0.667967862168404,0.31571497752608
5483,-0.25,0.25,0.249928667319399,0.249846484865335,0.25,0.249996452334455,0.249995956938486,0.25,0.599354384902288,0.605299863548383,0.04,0.0695834361775337,286.019302806575,0.709497545177027,0.296209595317134
5543,-0.0583333353465013,0.0583357774354673,0.060318343160361,0.249905326788858,0.0583333333333334,0.249993701828088,0.137806453245794,0.249964258323667,0.612323113883019,0.605299863548383,0.04,0.0537032736439407,292.303861831008,0.706992259141858,0.303790767234918
5603,0.249999994748257,-0.24999362408139,-0.244706960921569,0.249999985535395,-0.25,0.249989277100455,-0.00205576151565323,0.249906760844349,0.615650769823752,0.605299863548383,0.04,0.0396155499014088,293.627559141352,0.624019416946832,0.345742993484683
5663,0.249998197266684,-0.249996068183524,-0.246720385143992,0.249999850149922,-0.25,0.0583267208786136,0.0695187399687503,0.0583121418783079,0.616185765090621,0.605299863548383,0.04,0.027728970701128,294.018239591251,0.579805301107765,0.372603360514428
5723,0.249995305665892,-0.25,-0.249959371936586,0.249999632355901,-0.25,-0.25,0.25,-0.0262439057569403,0.60930897944204,0.605299863548383,0.04,0.0170835167444844,290.668626404087,0.539801519292187,0.395656889146419
5783,0.249997105160633,-0.249993628875271,-0.249974946027562,0.249999773286139,-0.25,-0.249997354676868,0.249998043382168,-0.0688181148393212,0.60742471154936,0.605299863548383,0.04,0.0134955014004595,289.788655380453,0.523464629294729,0.406769811751753
5843,0.25,-0.249983379674619,-0.25,0.25,-0.25,-0.249993099157048,0.249994895779568,-0.125980641803051,0.605759825922169,0.605299863548383,0.04,0.0114020405268377,288.995873617678,0.517402374781422,0.410409968021505
5903,0.249997122007215,-0.0583346605558028,-0.25,0.0583333333333333,-0.249999393958165,-0.0927697281231429,0.249996804803597,-0.0583333333333333,0.594057281977892,0.605299863548383,0.04,0.0249640995109188,282.950134831128,0.534720313071805,0.38881042326397
5963,0.249992492192735,0.249969800635337,-0.25,-0.25,-0.249998419021301,0.160154825279225,0.249999875842253,0.25,0.59643439006709,0.605299863548383,0.04,0.0416684511575255,284.618035060366,0.623900020486463,0.335198520015106
6023,0.249994976278037,0.249981377058457,-0.25,-0.249994598463005,-0.249989631177378,0.194595475588856,0.249998887374758,0.162982553061628,0.603841941926359,0.605299863548383,0.04,0.045269005591309,288.133297969996,0.64670985561386,0.327369825562551
6083,0.249998972415262,0.25,-0.25,-0.249985909033927,-0.249975494211065,0.25,0.249997297231397,0.0229979645085949,0.607437237524103,0.605299863548383,0.04,0.0509962369237475,289.80979728171,0.6367628410902,0.334418294421413
6143,0.0583326996560785,0.249999369456517,-0.0583335250233594,-0.0583268761908732,-0.058318221430157,0.25,0.116539992441001,0.0183469092481463,0.606283726394529,0.610158810430785,0.04,0.0631076877724378,289.276778886329,0.63637575010669,0.334006275956164
6203,-0.25,0.249998355103957,0.249999499939063,0.249994176643604,0.25,0.25,-0.0981521935261582,0.0108647768726418,0.615940962347851,0.62283432403705,0.04,0.0639869677170156,293.96508187562,0.681696794277935,0.316853983269356
6263,-0.249999959969594,0.24999898564744,0.249999003363,0.249996408930223,0.25,0.25,0.0353032361512399,0.102531941690302,0.623922308112691,0.635509837643316,0.04,0.061405242581306,297.682097855034,0.730324600421748,0.299496301858028
6323,-0.249999895572853,0.25,0.249998204523247,0.25,0.25,0.25,0.249992405632272,0.249996511179581,0.639060252153014,0.648185351249582,0.04,0.0600721386670945,305.104403651877,0.808123060435897,0.277412261235676
6383,-0.249996530391441,0.25,0.249998892789336,0.249992039385831,0.249998296907402,0.0583337429892723,0.249995316806568,0.249997848560742,0.661675957398764,0.660860864855848,0.04,0.055990583874809,315.869616801097,0.825137829203658,0.281278172423792
6443,-0.249991116838734,0.25,0.25,0.249979233180429,0.249995557149744,-0.249998931332333,0.25,0.25,0.676655499969299,0.673536378462114,0.04,0.0535698024367127,322.883094525364,0.801086156870394,0.296156150338524
6503,-0.249994507569929,0.0583333333333334,0.24999970395569,0.249987193794598,0.249996766736086,-0.249999340988272,0.249981018333878,0.0583333333333334,0.693552384444358,0.686211892068379,0.04,0.042329178444972,331.15981283155,0.784943348832794,0.309994501682482
6563,-0.24999996222446,-0.25,0.249999227710497,0.25,0.249998712592376,-0.25,0.249950482610116,-0.00894484466163156,0.70347267027144,0.698887405674645,0.04,0.0326284996681129,335.648735791841,0.737600229708813,0.334363335341004
6623,-0.249999273793705,-0.25,0.249991003272554,0.249999907048881,0.249999206098632,-0.25,0.0583040351256697,-0.0206051702667426,0.716655343796073,0.711562919280911,0.04,0.0228404625461578,342.099167920687,0.724293302514229,0.347050140703327
6683,-0.249998166318144,-0.25,0.249977772654995,0.249999757518821,0.25,-0.25,-0.0504928267910806,-0.0504928267910806,0.72442082005962,0.724238432887177,0.04,0.0182078451022764,345.691744998336,0.707911497971118,0.358810149222242
6743,-0.249994855435439,-0.249994521355623,0.249985978869497,0.249999850469939,0.15956449736434,-0.0583344410579614,-0.0958091140609956,-0.0958091140609956,0.733655841976532,0.736913946493443,0.04,0.0170458176193205,350.095412253655,0.719067076482892,0.357743450527754
6803,-0.249989529232827,-0.249985707884234,0.249999180171089,0.25,0.0140812974721919,0.249997110283579,-0.147447867229163,-0.147447867229163,0.745610321334359,0.749589460099708,0.04,0.0187585668024791,355.848059749921,0.746563760426953,0.350229217506331
6863,-0.24999354302691,-0.249990495807872,0.0583328298968429,0.25,-0.0871206664477778,0.249998218008207,-0.202320867970129,-0.202320867970129,0.765654953895863,0.762264973705974,0.04,0.00810081780527384,365.523315711447,0.754626546264215,0.355907944335773
6923,-0.25,-0.249998198119812,-0.249999994457379,0.25,-0.249923825797294,0.25,-0.25,-0.146365989125467,0.780213612567592,0.77494048731224,0.04,0.00140447542268807,372.146085973062,0.711687049170092,0.384219205022303
6983,-0.24999998970024,-0.249996105488434,-0.249995682895549,0.0684110100143845,-0.249953025908331,0.25,-0.249999512122049,0.00557430670596216,0.78841194432132,0.787616000918506,0.04,0.00459001529986943,376.179525697871,0.716329660096917,0.38586634116681
7043,-0.24999997313106,-0.249992739081433,-0.249988746904779,-0.223710408658127,-0.25,0.25,-0.24999872727491,0.25,0.797015713891109,0.800291514524772,0.04,0.00773229138048439,380.421532263919,0.717407864352741,0.389631117057038
7103,-0.249999880074057,-0.2499942237788,-0.249978533772978,-0.233774812870675,-0.249992256641368,0.249999771199724,-0.249999213150557,0.25,0.807733434030157,0.812967028131037,0.04,0.00845258705939716,385.391429353309,0.749788879415942,0.377674561525838
7163,-0.24999973037366,-0.249996612204999,-0.249962103952253,-0.249965376169121,-0.249979799934002,0.249999403129714,-0.249999994776596,0.25,0.817966288714647,0.825642541737303,0.04,0.0103873835755938,390.316637771226,0.79014276087996,0.362966191712548
7223,-0.249999035295155,-0.249997706446897,-0.249976630770556,-0.249978461433958,-0.249987261181582,0.249999631929991,-0.249999996778901,0.249910904884045,0.829936113769547,0.838318055343569,0.04,0.0127309399861638,396.101188766448,0.839568327589769,0.346660832361664
7283,-0.249997917125387,-0.249999466749081,-0.25,-0.249999511642608,-0.249999264058124,0.25,-0.25,0.249767577958379,0.841893383730655,0.850993568949835,0.04,0.0155557657068408,401.753393431801,0.893652184114559,0.330328244156174
7343,-0.249998715560655,-0.249998711362265,-0.0583333333333334,-0.0583330321796083,-0.249620357840152,0.249972994808017,-0.0587183490824584,0.0582728921775769,0.839654604907503,0.863669082556101,0.04,0.0236266900542198,400.150818888141,0.983767396462237,0.298872503180509
7403,-0.25,-0.249997496174779,0.25,0.25,-0.24901081305472,0.249929551673089,0.248995611089239,-0.249783776252409,0.858232167226793,0.876344596162367,0.04,0.0343543688097779,409.776048264371,1.14403256525397,0.263186045880059
7463,-0.249992154473312,-0.240882981930219,0.25,0.249847495855891,-0.249119049375415,0.249956155389777,0.249380626838364,-0.249698726040198,0.881309336162032,0.884161162886231,0.04,0.0431999741783338,420.558782060778,1.18836903736537,0.260033950967625
7523,-0.24997953340864,-0.226220502493319,0.25,0.249602163102325,-0.249293168673924,0.249998952673146,0.25,-0.249561906133599,0.889677573090492,0.884161162886231,0.04,0.0546063070229032,424.510920450544,1.17029873563491,0.2665304345118
7583,-0.249978605577981,-0.113130558266694,0.108189678683298,0.24974937499523,-0.249529743458388,0.249410896062596,0.19813109567946,-0.249729842115719,0.894072434193889,0.884161162886231,0.04,0.0613276768803161,426.591792389961,1.12023328585445,0.279807079675198
7643,-0.249977112980833,0.068796743315268,-0.119939968652267,0.249986194127294,-0.24991032028557,0.248464891949972,0.114689814815983,-0.25,0.893886428627086,0.884161162886231,0.04,0.0640685196647215,426.441369868192,1.05606725213915,0.296703336694874
7703,-0.249969533005511,0.00173658486810803,0.0207958067210076,0.247841088771746,-0.249944359861808,0.248809395766861,-0.0251079475301439,-0.249999691493287,0.893513514053492,0.884161162886231,0.04,0.063683647609353,426.316617174357,1.00451830758022,0.311838032114614
7763,-0.249957339132165,-0.106142800459932,0.247196836669318,0.244390267112822,-0.249999119180103,0.249363597559248,-0.25,-0.24999919519988,0.89147597627397,0.884161162886231,0.04,0.0618697583834774,425.276517658866,0.94989194408493,0.328966651993258
7823,-0.249961602460166,-0.161256468292111,0.248271353441591,0.054873998052907,-0.24843843450303,0.249607318171355,-0.236554932060069,-0.249985560798047,0.891750539542364,0.884161162886231,0.04,0.0520611286484065,425.515096770549,0.914003387856684,0.342075400206117
7883,-0.249968460857385,-0.249917586109094,0.249999923901334,-0.25,-0.245927767848609,0.249999390460395,-0.214925909721918,-0.249963627195099,0.892094308950074,0.884161162886231,0.04,0.0406248169647824,425.546087157294,0.855988127238592,0.365286428302377
7943,-0.249980550862054,-0.249883714556072,0.0583332867773582,-0.0583333347776064,-0.247451882722134,0.249967873218381,-0.228370977551774,-0.249958463635336,0.888210295576512,0.884161162886231,0.04,0.0351744415762874,423.757618519128,0.828486151040121,0.375826104408991
8003,-0.25,-0.249829225535995,-0.249999999030777,0.249999996232331,-0.249903719692587,0.249917171568184,-0.249999999712847,-0.249950157039195,0.886349343275309,0.884161162886231,0.04,0.0292768373313714,422.863581416546,0.809463611516215,0.383846539496766
8063,-0.249999990495988,-0.175723643502228,-0.249999999402312,0.249999995361297,-0.249937636369421,0.249947944860821,-0.249994549620629,-0.249969263507504,0.881844029603474,0.884161162886231,0.04,0.0283698303457521,420.694334216064,0.80979208631731,0.381722545356409
8123,-0.249999975206924,-0.0565103158826903,-0.25,0.249999993960067,-0.249992197979979,0.249997449722889,-0.249985782080975,-0.25,0.880629461525766,0.884161162886231,0.04,0.0290804344977562,420.165558714072,0.836040994992998,0.369272998519543
8183,-0.249999984710936,0.060985033293995,-0.249988022082316,0.0587450554633194,-0.0640578105938777,0.249998427329115,-0.249991231880539,-0.25,0.878546535042808,0.884161162886231,0.04,0.0322057199238055,419.110760576291,0.856953878090745,0.359356942227423
8243,-0.25,0.249999290665185,-0.249968753258215,-0.248925932553188,0.235054029983764,0.25,-0.249999998949402,-0.25,0.879442908682642,0.884161162886231,0.04,0.0372159617074894,419.629083853675,0.895446024949262,0.344334742601108
8303,-0.25,0.220127151946042,-0.249980731175899,-0.249337658407799,0.0491166518233213,0.249977005992927,-0.249990376688994,-0.249964565309455,0.887548013824147,0.884161162886231,0.04,0.0346828083778774,423.569037094157,0.899912291638772,0.345842767767573
8363,-0.25,0.172071972267421,-0.25,-0.25,-0.25,0.249940015633722,-0.249974897400511,-0.24990756167684,0.888733643537339,0.884161162886231,0.04,0.0322620808289861,423.919877606783,0.856848965957383,0.363524914054126
8423,-0.25,0.0102781704808193,-0.249994453959641,-0.249991973026818,-0.24970741389907,0.24996236200621,-0.24998426878313,-0.249900919432936,0.890189928969347,0.884161162886231,0.04,0.0288020235549449,424.780185152463,0.838899393782727,0.372056627935109
8483,-0.25,-0.249998815001975,-0.249985532068629,-0.24997906006996,-0.249236731910617,0.249998310518473,-0.249999344485604,-0.249890234084048,0.889322305485696,0.884161162886231,0.04,0.0244120824174165,424.301026992571,0.788257211028111,0.39551304013688
8543,-0.249966987411968,-0.249990896174472,-0.0585966192366142,-0.0583204203764752,-0.249516842818843,0.249755012120742,-0.0583478656029382,-0.105652880668123,0.862067709585123,0.884161162886231,0.04,0.0382107803523735,410.998022040658,0.82801059742803,0.364719104510219
8603,-0.249913880205133,-0.249978157191098,0.249289892710541,0.25,-0.249967456019033,0.249363619046131,0.249961035208306,0.126381122653146,0.864343859346158,0.884161162886231,0.04,0.0501651518500433,412.670969903229,1.00691139113287,0.301139233717796
8663,-0.249946892793166,-0.249981739666014,0.249559733633621,0.249983518472003,-0.249605038363512,0.114374782062294,0.249975971711789,-0.0178983076972265,0.885572012517083,0.884161162886231,0.04,0.0487517253147211,422.671133254959,1.04416289498071,0.297432901920542
8723,-0.25,-0.249987502777836,0.249993825553359,0.249957004709572,-0.249022018656805,-0.102781173085617,0.25,-0.25,0.889759211286497,0.884161162886231,0.04,0.0502028710828911,424.441720703423,0.999084300442334,0.312155224638626
8783,-0.25,-0.249992293379665,0.249986890040681,0.249954060019315,-0.0578585789581208,-0.027981603390827,0.25,-0.0583333333333334,0.876939071078225,0.884161162886231,0.04,0.0618188498681851,418.223533231452,0.998995658208735,0.307609357263611
8843,-0.25,-0.25,0.249975732911592,0.249949322908901,0.249665215339762,0.0923481391616606,0.25,0.25,0.877995713106775,0.884161162886231,0.04,0.0687630534243806,419.026056854736,1.06413054062763,0.289334884476049
8903,-0.249999803565904,-0.25,0.249980132576108,0.249968749127156,0.249786792261728,-0.0388853141836427,0.0583333333333334,0.25,0.892981362384213,0.884161162886231,0.04,0.0646211414424262,426.184292567778,1.04839396220975,0.2986947604294
8963,-0.249999487563229,-0.25,0.249987210297287,0.25,0.249982372527499,-0.25,-0.25,0.25,0.895016947306042,0.884161162886231,0.04,0.0615248321865218,426.915460070635,0.966491706992004,0.324562564880323
9023,-0.249999622282968,-0.249966251560214,0.24999211301666,0.249992232762206,0.249979852836608,-0.25,-0.249791525093743,0.058790769509444,0.895025292906154,0.884161162886231,0.04,0.0559815752854178,427.096764638194,0.917491852917171,0.342041451939033
9083,-0.249999839006028,-0.249911960591864,0.25,0.249979737640538,0.249975799420826,-0.25,-0.249456152418461,-0.248806688236233,0.892079963298336,0.884161162886231,0.04,0.0493453249574069,425.500937940344,0.846455705355935,0.369360935428496
9143,-0.249983979882174,-0.249945709031649,0.220122489536928,0.249962944674069,0.0583184096428428,-0.246888498261971,-0.0582644787688824,-0.249264124036289,0.883608706972929,0.884161162886231,0.04,0.0401860452414433,421.53724988381,0.834406709524356,0.37120417016971
9203,-0.249958467378583,-0.25,0.172058668357203,0.249935929901924,-0.25,-0.241883038944271,0.249304735363047,-0.249999999018988,0.886086196862374,0.884161162886231,0.04,0.0329356773812373,422.740908338092,0.828884922194208,0.374744021319989
9263,-0.249974263713452,-0.249996246795488,0.0103244100496364,0.249949630090511,-0.249999982180415,-0.0539032284787687,0.0579172845169805,-0.24999970814286,0.888733824746587,0.884161162886231,0.04,0.0263077453388642,424.073688621399,0.81575519402453,0.381976070219478
9323,-0.249999675208675,-0.249990209031707,-0.24985678809732,0.249971669524325,-0.249999953514127,0.248499075313562,-0.249966875539736,-0.249999240211697,0.88764856558878,0.884161162886231,0.04,0.0196311343528543,423.449896242451,0.778640147169875,0.399594879661106
9383,-0.24998199357071,-0.0584545948444282,-0.249908720707358,0.0583158628733337,-0.249959391552266,0.249074429776696,-0.24997925199646,-0.24999953146388,0.882872542666735,0.884161162886231,0.04,0.0185573235830905,421.258665425659,0.777030214923783,0.398350729751826
9443,-0.249953549196591,0.249667914935107,-0.249992264471333,-0.25,-0.249894139700579,0.25,-0.249999161948582,-0.25,0.881623336457917,0.884161162886231,0.04,0.0195132923770195,420.573692832002,0.791942850521979,0.390214081558589
9503,-0.249971162873609,0.249795093378096,-0.0583286385976883,-0.249271819858556,-0.249795311629365,0.249053276198066,-0.249697854998629,-0.249999918581849,0.874262870301577,0.884161162886231,0.04,0.0253070494989087,417.031753593546,0.823091710571144,0.372285029598939
9563,-0.249999497919247,0.249999684786383,0.249999803025131,-0.248100399631016,-0.249636327340892,0.247530285734084,-0.24921314381827,-0.249999787604825,0.875690961366414,0.884161162886231,0.04,0.0326174469771099,417.896959803756,0.895351968212199,0.342949437845192
9623,-0.244710000191426,0.24999980561827,0.249999802749152,-0.248812145393207,-0.24977573519355,0.248476992572439,-0.249514772021267,-0.249999869022975,0.881354092661786,0.884161162886231,0.04,0.0374549929244626,420.516172167718,0.919323065112524,0.336100549429531
9683,-0.236200808194497,0.25,0.249999802305186,-0.249957127706297,-0.25,0.249999955747183,-0.25,-0.25,0.883571771839044,0.884161162886231,0.04,0.0425098936704852,421.566464042621,0.926990404385816,0.334153098647085
9743,-0.241471439596771,0.0583333357456721,0.249812746245117,-0.0583068954188833,-0.249892277416764,0.221851170675183,-0.25,-0.249912953415582,0.881552119046471,0.875985504985204,0.04,0.0463407134066314,420.502871393075,0.913840721117611,0.338106200636518
9803,-0.249950281417821,-0.249999993706942,0.249511829974569,0.25,-0.249718984565472,0.176568342515877,-0.25,-0.249772921953693,0.864048602861686,0.854657701765134,0.04,0.0522794716125979,412.045812909258,0.85658603253092,0.35345098238439
9863,-0.2499693376711,-0.249999996119281,0.249690363802174,0.249996639575102,-0.249820834232588,0.204655362382648,-0.0583333333333334,-0.249859968538111,0.839052367457916,0.841505556446091,0.04,0.0587737531501304,400.162872783673,0.829585221104349,0.354429989536134
9923,-0.249999993382896,-0.25,0.24997757039441,0.24999123367418,-0.249984679349252,0.249838829124846,0.25,-0.25,0.837149946005257,0.841505556446091,0.04,0.056501096390333,399.479374666902,0.870018066776751,0.337381112833142
9983,-0.249995009936956,-0.2463162101562,0.185118443535702,0.249993003684422,-0.249932333468947,0.249900551796582,0.0583467415753371,-0.24999997102417,0.847417362350508,0.841505556446091,0.04,0.0480166713878747,404.423608980302,0.864143286684256,0.343878810899442
10043,-0.24998699308914,-0.240390113450956,0.0807798481543026,0.249995851092203,-0.24984812487889,0.249999844790244,-0.249965021977381,-0.249999924410879,0.847514267146494,0.841505556446091,0.04,0.0410492814528019,404.253237068305,0.809489537617417,0.36694159338548
10103,-0.249991979071636,-0.142190193911769,-0.0460115183927835,0.0584720240468556,-0.249906343583845,0.249977687099414,-0.249960700532028,-0.249988082883754,0.846506607097138,0.841505556446091,0.04,0.0315256209026,403.952950490025,0.790665630820293,0.375398557831385
10163,-0.25,0.0157835896947493,-0.24998023849027,-0.249631523808704,-0.24999999976138,0.249942042118514,-0.249953748641678,-0.249969033470555,0.847467330016796,0.841505556446091,0.04,0.0226639732421415,404.306586815477,0.737418702021203,0.402857399786508
10223,-0.25,0.105456761649233,-0.0583235526889961,-0.249772773011235,-0.249980566484177,0.249963669350838,-0.249961309672251,-0.249980903973509,0.831536102234562,0.841505556446091,0.04,0.0273744140300242,396.72356194268,0.747039899966056,0.390210428989886
10283,-0.25,0.249713603489055,0.249993724469575,-0.249999999989219,-0.249949304255633,0.249998460985447,-0.249973473069261,-0.25,0.832052752540893,0.841505556446091,0.04,0.0343971107359222,397.082979208701,0.829801604467256,0.351610372014943
10343,-0.249999985836367,0.0987604057451496,0.0583337973773283,-0.0583333947081892,-0.249968737624307,0.249983111530569,-0.249983641536888,-0.212489905422864,0.841533079082031,0.841505556446091,0.04,0.033370049881367,401.576994598693,0.849853928274828,0.347199599253835
10403,-0.249999963051392,-0.144077347147221,-0.249988694031939,0.249999839874336,-0.25,0.249958418929244,-0.249999999506549,-0.152147579363993,0.843704986112121,0.841505556446091,0.04,0.0316594422949517,402.52366933488,0.827538475717146,0.35740276182632
10463,-0.249999977215025,-0.184681030740786,-0.249993027909755,0.249999901255841,-0.25,0.249897879920833,-0.249999295155518,-0.189198890390663,0.843274963993317,0.841505556446091,0.04,0.0313618118833724,402.355727290363,0.824304013041927,0.358655462497956
10523,-0.25,-0.25,-0.249999999800157,0.25,-0.25,0.249800491081216,-0.249998162069077,-0.24880317334661,0.84275917596885,0.841505556446091,0.04,0.0301296733932239,402.056102719305,0.809096761117565,0.365124413339254
10583,-0.25,-0.249942910545268,-0.249981302467159,0.25,-0.25,0.157140894320631,-0.151901295163026,-0.249261956897076,0.841267433704142,0.841505556446091,0.04,0.030570563173408,401.367359819115,0.809960745961409,0.364110125445615
10643,-0.25,-0.249851070987657,-0.249951224148857,0.25,-0.25,0.00807980387969042,0.00590670812062217,-0.25,0.840637359909817,0.841505556446091,0.04,0.0312548133021273,401.059958561221,0.812553111253461,0.362670493557802
10703,-0.249999989071752,-0.249908051545552,-0.249969921558462,0.0583333333333334,-0.25,-0.0908507876075242,-0.0921908624814417,-0.249949059842432,0.852028603967315,0.841505556446091,0.04,0.0235316509709335,406.690538760346,0.796151598166908,0.375338379095211
10763,-0.249999971491528,-0.249999715921297,-0.25,-0.25,-0.25,-0.25,-0.249999997797806,-0.249867112632432,0.850628507679115,0.841505556446091,0.04,0.0150475354972838,405.96373637398,0.700149454224147,0.426040771683925
10823,-0.249999982419775,-0.249999704997345,-0.249999999528911,-0.25,-0.058343681640242,-0.0583333439035292,-0.24999999864198,-0.249865067872002,0.826873055339073,0.841505556446091,0.04,0.0204261465188139,394.608350790479,0.71773112633014,0.403979350812855
10883,-0.25,-0.249999687424031,-0.249999998771072,-0.25,0.24997300441676,0.249999972425576,-0.25,-0.249861778474788,0.827671288593374,0.841505556446091,0.04,0.0257328896319065,395.016213890399,0.835423458416097,0.347426492958337
10943,-0.249999998916311,-0.249839686145943,-0.249999958117074,-0.248651428067558,0.0583180608956824,0.0583337812307541,-0.0583333333333334,-0.249911285033611,0.841940042150175,0.841505556446091,0.04,0.0256445328333596,401.83916370159,0.86913648406741,0.339718311417948
11003,-0.249999997172985,-0.249582292785541,-0.249999892717164,-0.246481986263194,-0.249996413464312,-0.24999878721309,0.25,-0.249990926019544,0.843179109807026,0.841505556446091,0.04,0.0275949100095521,402.204005652463,0.839951045301529,0.351841523794573
11063,-0.249999998256674,-0.231971918029741,-0.249999933842251,-0.247165306482323,-0.249559717680668,-0.249999252114739,0.0583333333333333,-0.249072048516658,0.843933281484046,0.841505556446091,0.04,0.0253203109119757,402.723615703717,0.840331137836365,0.352136722193862
11123,-0.25,-0.203642184726933,-0.25,-0.248264560747879,-0.248857207072196,-0.25,-0.25,-0.247593854272884,0.843387426705695,0.841505556446091,0.04,0.0225876036641704,402.301310152683,0.816872723675003,0.361869290146203
11183,-0.0597170811747021,-0.0297460673259435,-0.249993871689946,-0.248929812461192,-0.249295277694521,-0.242785494211576,-0.25,-0.248516039615234,0.818070621166434,0.827551057998167,0.04,0.0329199960581863,390.094837170538,0.827855032617677,0.346234695546564
11243,0.246390223022516,0.249999860666953,-0.249984013104207,-0.25,-0.25,-0.231179550117154,-0.25,-0.249999555165971,0.796701758197561,0.805102517016725,0.04,0.0507658455772561,380.254391846018,0.901715011871602,0.309855789476732
11303,0.247773970863885,0.112854358469249,-0.249990141414261,-0.249999497393669,-0.25,-0.238383073919037,-0.249997403732187,-0.249903800309934,0.808809353289475,0.805102517016725,0.04,0.0507531704093882,385.983272740851,0.903987649358823,0.31373333308464
11363,0.25,-0.107771014631406,-0.25,-0.24999868885305,-0.25,-0.249971351339456,-0.249993227127445,-0.249749759889353,0.810584956094749,0.805102517016725,0.04,0.0499282496576726,386.679413867187,0.861977116730036,0.329617295217384
11423,0.249144989996437,0.0282037805762232,-0.25,-0.249999019968287,-0.0583333333333333,-0.249885328921096,-0.249993052020216,-0.249845685265101,0.798942420106156,0.805102517016725,0.04,0.0581507693404881,381.011030713789,0.860014102764725,0.325526727644129
11483,0.247769539121141,0.246945842431974,-0.25,-0.24999955263193,0.25,-0.249746945030691,-0.249992770325978,-0.25,0.801493390900602,0.805102517016725,0.04,0.0657739220442773,382.514644867491,0.909758540377352,0.308941749916966
11543,0.0569584129722334,0.0564502371809858,-0.0583340528433687,-0.058333137850131,0.0583333657789581,-0.0581772828307662,-0.24999554170102,-0.0583339317521255,0.801920209859781,0.805102517016725,0.04,0.0702860580517669,382.52021442816,0.912216048255679,0.308113947765277
11603,-0.249998616049921,-0.249999214744517,0.249998123017299,0.249999790277111,-0.24999991535924,0.249999999838679,-0.25,0.249998438907499,0.806000500241983,0.805102517016725,0.04,0.0703208498788535,384.584087732982,0.927486087782368,0.304676237344497
11663,-0.249999146564118,-0.249999507116446,0.24999858525931,0.24999978643487,-0.249998327051917,0.249999999900518,-0.249998244516357,0.249997189243877,0.808063851142498,0.805102517016725,0.04,0.0705238829032582,385.533663806359,0.912366543362171,0.310490009442962
11723,-0.25,-0.249999977453896,0.249999328866023,0.249999780253873,-0.249995771948832,0.25,-0.249995420477453,0.249995178915443,0.808395348603418,0.805102517016725,0.04,0.0693968586162885,385.685464518785,0.892897678091482,0.317384895340374
11783,-0.249999893633108,-0.204072498540239,0.0583329194673807,0.249997587464745,-0.24999739084618,0.25,-0.249996590861087,0.249997026997856,0.810415012330926,0.805102517016725,0.04,0.062282100805889,386.69393247894,0.869518494478821,0.326770776562468
11843,-0.249999722521151,-0.13018916289653,-0.25,0.249994059934409,-0.249999995159305,0.25,-0.249998473652151,0.25,0.810870410123824,0.805102517016725,0.04,0.0530709313447026,386.820970637318,0.828027012587647,0.343257615855291
11903,-0.249999771033875,-0.17611665045286,-0.25,0.058329734725647,-0.249999997014905,0.25,-0.249999058752159,0.24999997821094,0.813933702083705,0.805102517016725,0.04,0.0443425337845878,388.449140662377,0.796268677932433,0.358450514989028
11963,-0.249999849076083,-0.25,-0.25,-0.249999831914536,-0.25,0.25,-0.25,0.249999943158974,0.813577627627957,0.805102517016725,0.04,0.0358332284057759,388.17884147827,0.720881363909937,0.395660538240433
12023,-0.0583332402635843,-0.249999525226124,-0.25,-0.249999896347297,-0.249997835877357,0.25,-0.249999908823648,0.249999964948034,0.79881359852931,0.805102517016725,0.04,0.0345788289032934,381.051168333808,0.707918514740588,0.395507481314926
12083,0.25,-0.249998761459455,-0.25,-0.25,-0.24999435446267,0.25,-0.249999762148647,0.25,0.798648579476132,0.805102517016725,0.04,0.0348129295987702,381.006403813053,0.766212932403736,0.365373860225989
12143,0.137110000300417,-0.202686660214586,-0.0583333333333334,-0.0583333333333334,-0.0583313078539416,0.058333334746882,-0.249999853324999,0.249999868061179,0.790870429034061,0.805102517016725,0.04,0.0410777110602795,377.228097916993,0.81094783831954,0.34179506634896
12203,-0.0444956513902158,-0.126575888646753,0.25,0.25,0.249996201907927,-0.249999996312482,-0.25,0.249999655811771,0.797251790898427,0.805102517016725,0.04,0.0511240738865531,380.502875693927,0.895083221341178,0.312355533058788
12263,-0.123272282066161,0.0177782020011691,0.249992524903342,0.206176342167653,0.249919932505873,-0.249999997667039,-0.249731747935944,0.101153310828572,0.809313735217364,0.805102517016725,0.04,0.0543739453111614,386.221465897321,0.896230162340887,0.316644193338527
12323,-0.249999905327464,0.25,0.249980499747849,0.135677414350398,0.249797238250395,-0.249999999846109,-0.24930021200681,-0.13829515718788,0.810957318637519,0.805102517016725,0.04,0.0587469664801502,386.836442798477,0.850107437580952,0.334355322873815
12383,-0.249996341143105,0.25,0.249987971837596,0.179489603056599,0.249874963587744,-0.220108232276559,-0.249568464070866,-0.0974947738731637,0.804331715243215,0.805102517016725,0.04,0.0599688843520561,383.692030846873,0.840200053591185,0.335548074117957
12443,-0.249990607455222,0.25,0.249999992155886,0.249970080540486,0.25,-0.17202147575163,-0.25,-0.0318593746277502,0.803562638564608,0.805102517016725,0.04,0.0586316355229823,383.415558844853,0.855296905860774,0.329387798632245
12503,-0.249994193648296,0.25,0.249998627744002,0.152360563383138,0.24999999425458,-0.0102465783416881,-0.120495287405577,0.0761866833772319,0.796711862799635,0.805102517016725,0.04,0.0624515689643105,379.970289100161,0.872428130812556,0.320018182913072
12563,-0.249999962741503,0.25,0.249996432820537,-0.00466344247868381,0.249999985011948,0.249999995752567,0.0878383806811038,0.249999907124377,0.799181214081389,0.805102517016725,0.04,0.0640024304202595,381.418704074891,0.93634021772606,0.299311211565366
12623,-0.249999607535224,0.0583333333333334,0.24999780010107,-0.0986976623166972,0.249999311952049,0.24999999738075,-0.0416663316865383,0.249999764492571,0.814170257802375,0.805102517016725,0.04,0.0557748298027687,388.620548135873,0.921096886650721,0.310009585123629
12683,-0.249999036116429,-0.25,0.24999999963932,-0.249970102925675,0.249998229203515,0.25,-0.249999999408398,0.249999535041405,0.817455263519222,0.805102517016725,0.04,0.0465116228254721,389.871581069663,0.826054990829232,0.346790583240514
12743,-0.0583387589692536,-0.25,0.208152031626795,-0.249981394401324,0.249949535672964,0.0583516969616205,-0.244284549146511,0.249999713275533,0.809364251986349,0.805102517016725,0.04,0.0423120853166915,386.109386329123,0.788059422501858,0.360002958377025
12803,0.249984295571855,-0.25,0.140831387432735,-0.249999558949107,0.249871202602077,-0.249952094882729,-0.229181486147107,0.25,0.80685092545832,0.805102517016725,0.04,0.0379459989369351,384.934355803937,0.774275950680688,0.365296558118246
12863,0.0583289202777839,-0.25,0.182678000097989,-0.249999455562683,0.249920447348095,-0.249953930120888,-0.226417128015568,0.249993412981453,0.807696554673163,0.805102517016725,0.04,0.0301060254408418,385.409362652506,0.76493514549543,0.370213559786323
12923,-0.249986248673547,-0.25,0.249996463950789,-0.249999289245391,0.249999667156906,-0.249956882460535,-0.241885982584086,0.249982816473355,0.809754835979676,0.805102517016725,0.04,0.0228466041445101,386.314756259575,0.724625551677557,0.391725938475374
12983,-0.24997670179173,-0.082315068604463,0.24999781943632,-0.249999031179041,0.249999304062162,-0.24997315149883,-0.25,0.249983078880349,0.799328832224125,0.805102517016725,0.04,0.0259882724295936,381.399207685409,0.722977406092273,0.387623177673081
13043,-0.24996134376446,0.187438951466618,0.25,-0.249998616028825,0.249998719953226,-0.249999323430001,-0.25,0.249983501013339,0.804167670097388,0.8144988386171,0.04,0.028634564166076,383.871770027953,0.781364463254805,0.360983370847038
13103,-0.249975964508978,0.211315001521388,0.24999992509596,-0.249999146551109,0.24999296373887,-0.0585346469729787,-0.249999324078472,0.249961611063746,0.824829468615634,0.839010981922428,0.04,0.0303872735369338,393.64729525335,0.848098584593652,0.341048080552629
13163,-0.249999484837116,0.249724299435583,0.249999804598156,-0.25,0.249983703741861,0.249473745588319,-0.249998236726448,0.249926396797011,0.849898442446402,0.863523125227755,0.04,0.0357037232339062,405.742680597872,0.942709017441953,0.316247942773277
13223,-0.249999682316222,0.0581952269236436,0.24999976715372,-0.249997077122574,0.249986466010776,0.0580407816043431,-0.249989778890126,0.249954611358157,0.886673994683616,0.888035268533082,0.04,0.0273667742364154,423.432321057551,0.991605288194579,0.313761640640879
13283,-0.25,-0.249916759291216,0.249999706917017,-0.249992375102368,0.249990909660771,-0.249916595239444,-0.249976172805608,0.25,0.915286962977728,0.91254741183841,0.04,0.0209636600273673,436.656096026249,0.949854897314634,0.337782338199252
13343,-0.249987688540737,-0.176506100084282,0.0583331526000724,-0.0587920209085338,0.190904134233117,-0.0582842756350826,-0.249983662499484,0.25,0.921233571426922,0.927663233543361,0.04,0.0266742328515664,439.435477569157,0.973901117507819,0.33153923315939
13403,-0.249967883149748,-0.0584106917948667,-0.249999999996753,0.2487911575772,0.0958514955016741,0.249993803728455,-0.249995711137458,0.25,0.924844438068756,0.927663233543361,0.04,0.0348338327178681,441.30813560339,1.00790342788308,0.321719724304943
13463,-0.24998011452668,-0.13185287809851,-0.249999999785854,0.158805455863828,-0.0367249096696798,0.249787293793417,-0.249987703412749,0.249999034778625,0.935047996226918,0.927663233543361,0.04,0.0333277487155934,446.260099274662,0.994691509105372,0.329650943637813
13523,-0.24999979108957,-0.249999003891327,-0.249999999446581,0.0140458487597089,-0.249999996249684,0.249455082158791,-0.249974821420826,0.249997482031195,0.936695803161712,0.927663233543361,0.04,0.0304438188777743,446.745509174246,0.919492618037014,0.356998691969065
13583,-0.0583332237771609,-0.0583327190849606,-0.249999998138277,0.104494347504316,-0.0583335243461463,0.0580519856379394,-0.249984473201132,0.24999844725257,0.916657920306207,0.927663233543361,0.04,0.0400298223499862,437.101500158066,0.920590036082044,0.348875685840031
13643,0.24999994972541,0.249999999951369,-0.249999996033613,0.249998454180423,0.249999495672588,-0.249857343547777,-0.249999999978145,0.25,0.918580201516666,0.927663233543361,0.04,0.0550352003764584,438.388783930519,1.00260487953909,0.32128044794828
13703,0.249999584357267,0.108073069454874,-0.249999989754785,0.249999046744594,0.0583330223314291,-0.0610656138134833,-0.249999999664948,0.25,0.928455827598778,0.927663233543361,0.04,0.0518689482773716,443.037768525458,1.01515413167722,0.320673772296122
13763,0.249998996591125,-0.120244166561226,-0.249999979654062,0.25,-0.25,0.242642820976468,-0.249999999161109,0.25,0.931835911692049,0.927663233543361,0.04,0.0486488545272687,444.545716267259,0.988766084428088,0.33035245958661
13823,0.249999377787932,-0.169960457690186,-0.249999963351821,0.111054033833573,-0.249997815241899,0.245437149771011,-0.249782080966403,0.249999826295119,0.93283198610033,0.927663233543361,0.04,0.0452260711246789,445.109313192351,0.967146118365525,0.338165473610829
13883,0.249999991017579,-0.249938839071557,-0.249999937126476,-0.112467737825461,-0.249994300631041,0.249932374353538,-0.249431516914051,0.249999546856833,0.933517517699328,0.927663233543361,0.04,0.0393297752379995,445.322435335723,0.924007209521679,0.354122801996482
13943,0.0583333277941737,-0.249962284094127,-0.0583536646074582,0.0264780735855988,-0.249993443270816,0.249958297518015,-0.249643870798416,0.249999720561714,0.926565910930215,0.927663233543361,0.04,0.0415514472099794,442.005210508111,0.912482745678514,0.355924107119074
14003,-0.25,-0.25,0.249946860749222,0.249999596290348,-0.24999206403915,0.25,-0.249985483568915,0.25,0.927104620142303,0.927663233543361,0.04,0.0440622928868535,442.337191905044,0.922386392748217,0.352367013297928
14063,-0.25,-0.076186733523508,0.0583069518177374,0.249999750632005,-0.249978637856633,0.25,-0.249991048200831,0.249986648163771,0.927473426472436,0.927663233543361,0.04,0.0415921441451985,442.495150925423,0.923989504298709,0.351881272706422
14123,-0.25,0.203425912547371,-0.249983336463346,0.249999998920758,-0.249957039215194,0.25,-0.25,0.249965169122881,0.927718872986391,0.927663233543361,0.04,0.0402047966978316,442.611692770143,0.923913907773327,0.352002748413931
14183,-0.249957193236105,0.214698150754059,-0.249983948805346,0.100795314197827,-0.249969993243245,0.24999945448988,-0.249998209583086,0.24997852095911,0.930138017599981,0.927663233543361,0.04,0.0369007026655934,443.822482425141,0.919196849739164,0.354776992022793
14243,-0.249888330181144,0.232831751347428,-0.24998493387726,-0.139229613399932,-0.249990832331848,0.249998576930122,-0.249995329347181,0.25,0.930823562946288,0.927663233543361,0.04,0.0336982702639657,444.040926764479,0.892443559020119,0.365592196483131
14303,-0.0582644702783722,0.0477578843288097,-0.2499865940199,-0.181691594929958,-0.249972478101954,0.249999122440242,-0.249990168763689,0.249989897258183,0.929643479389759,0.927663233543361,0.04,0.0319209644892454,443.570344135358,0.881490371613459,0.369742698140657
14363,0.25,-0.249969640875055,-0.249989264684147,-0.25,-0.249942951732125,0.25,-0.249981866955463,0.249973645021347,0.928119047695222,0.927663233543361,0.04,0.0308094808318397,442.761441046988,0.87444770649179,0.372040847938885
14423,0.25,-0.24998084445094,-0.249967201460256,-0.249984937779667,-0.24996482023481,0.25,-0.249949733225187,0.249970478912955,0.927265301042426,0.927663233543361,0.04,0.0305492090507191,442.393056739612,0.875521306528326,0.371275472119482
14483,0.25,-0.249998867594756,-0.249931708447911,-0.249960707251306,-0.25,0.25,-0.249898039833004,0.24996538560815,0.926733139802855,0.927663233543361,0.04,0.0307074231837936,442.141042864648,0.880124526001903,0.369123235643491
14543,0.218133166025979,-0.249993640364847,-0.249955749821586,-0.249965455588505,-0.0597620169384469,0.0583333333333333,-0.0582704578970194,0.0583119877916926,0.937562382209755,0.945138476626914,0.04,0.0268944800344398,447.628897778931,0.903707819832406,0.363952537550289
14603,0.166869128763424,-0.249985231342821,-0.24999442507489,-0.249973094217912,0.246272999291008,-0.25,0.25,-0.25,0.964839075987753,0.967294404403612,0.04,0.0227434223022528,460.237992182346,0.944546634755686,0.358025316730897
14663,0.00707353065723362,-0.249990833319218,-0.249996562129516,-0.249944272472049,0.24770141766505,-0.249999848802416,0.0583333333333334,-0.25,0.962878441012306,0.951755917988402,0.04,0.0221493996221954,459.47436888191,0.922361919172886,0.366028246996402
14723,-0.249988953252725,-0.249999845194293,-0.25,-0.249897907054791,0.249999308092858,-0.249999605571521,-0.25,-0.25,0.948299724052998,0.936217431573193,0.04,0.0188292951583505,452.265900941333,0.820283545167555,0.40512078119813
14783,-0.249992692084917,-0.249999904536481,-0.170459271833761,-0.249936990384059,0.249999573323929,-0.249999756769104,-0.249992512053995,-0.25,0.923059874591819,0.920678945157983,0.04,0.0226230207427342,440.231899104384,0.786554105173675,0.411251582806875
14843,-0.24999870672801,-0.25,-0.042502448261986,-0.249999863565925,0.25,-0.25,-0.249980466227812,-0.25,0.905930642328377,0.905140458742774,0.04,0.0255357662042232,432.095456063156,0.786496215126804,0.403680469756244
14903,-0.249999202482273,-0.0583333333333334,0.0696127691659208,-0.249999915865654,0.25,-0.25,-0.137400680030376,-0.249999985374251,0.8774024521708,0.889601972327564,0.04,0.0368941478093262,418.398229129495,0.803230059675251,0.382740624427833
14963,-0.25,0.25,0.249972031984727,-0.25,0.25,-0.25,0.0437059325481084,-0.249999961845871,0.864785001660662,0.874063485912355,0.04,0.049791115897032,412.675713948994,0.90013229066857,0.336866051467756
15023,-0.25,0.0583359153603232,0.249982753057249,-0.25,0.249999969076797,-0.249977114904388,-0.0688813415953332,-0.249999976471621,0.867234076593859,0.858524999497145,0.04,0.0486953526587789,413.811571585481,0.889589828282422,0.341796411413429
15083,-0.25,-0.249993264277418,0.25,-0.25,0.249999919330773,-0.249940299750577,-0.25,-0.25,0.854127188579984,0.842986513081936,0.04,0.0467876975317033,407.288654782203,0.802602177402801,0.372869324061499
15143,-0.249999813218805,-0.249979033143691,0.249963528444928,-0.0583383206102992,0.058333296308243,-0.0583127699750499,-0.249999972369,-0.0583333688993249,0.824156505524117,0.827448026666727,0.04,0.0575970463987907,392.934672609464,0.780625952241013,0.369855467776232
15203,-0.249999512744709,-0.24995613958074,0.249904856812856,0.249986989712263,-0.249999966814958,0.249957604011668,-0.249999927919131,0.249999907219152,0.809550974579733,0.811909540251517,0.04,0.0647291428262586,386.225539243434,0.817948399407614,0.346952289411664
15263,-0.24999761215646,-0.249972795890715,0.249747123949881,0.249991820868197,-0.249991947046246,0.24997385477842,-0.249999875863067,0.24996545731672,0.800070111562127,0.796371053836308,0.04,0.0654791303324609,381.606805607179,0.801934820702487,0.349648537719989
15323,-0.249994554688407,-0.249999590824153,0.249493379779007,0.249999592727742,-0.249979045679187,0.249999997316239,-0.249999792120703,0.249910037908458,0.785615624162919,0.780832567421098,0.04,0.0665118096912792,374.69714104648,0.773864777792798,0.355770533773804
15383,-0.249996611497852,-0.249997295259042,0.108255267200122,0.249999748848774,-0.249986455704007,0.249999487015313,-0.249999871807767,0.249944523376883,0.772343284097964,0.765294081005889,0.04,0.06085488658054,368.402895738468,0.73976031937125,0.365920448330729
15443,-0.249999920278263,-0.249993602393428,-0.118953870426782,0.25,-0.249998376178717,0.249998666096434,-0.25,0.25,0.75719879060591,0.749755594590679,0.04,0.05173622875595,361.103831244924,0.687180395428827,0.386114411308645
15503,-0.0583332841715957,-0.180329582169419,-0.136936810695723,0.25,-0.249998824273631,0.249948865846129,-0.249999792330343,0.249999810680854,0.734697710135043,0.73421710817547,0.04,0.0557481752356171,350.245471278159,0.658114815637181,0.391043919213173
15563,0.25,-0.0682613757221011,-0.165865888519673,0.25,-0.249999545121972,0.249868752399986,-0.249999458253069,0.249999506123966,0.717732832290281,0.71867862176026,0.04,0.0661695789760253,342.376147799928,0.675984499377391,0.372152927786612
15623,0.249999969764175,-0.137927848361962,-0.198116504088467,0.0600776155343336,-0.249999695059163,0.249917308259589,-0.249999659447126,0.249999680216723,0.710685506229709,0.703140135345051,0.04,0.0547063415524011,339.027347543508,0.651797270189242,0.382187845115964
15683,0.249999921123934,-0.25,-0.249997929133917,-0.245449698606086,-0.249999936262469,0.24999541985982,-0.24999998310713,0.249999960278984,0.696477314771907,0.687601648929842,0.04,0.0399960683745629,332.111941647891,0.581311100335683,0.419788514397154
15743,0.0583532438095283,-0.0583342927672652,-0.0583410687729451,-0.0555273141404198,-0.0583388902405332,0.249997175580222,-0.0583374706614267,0.235532956990891,0.664762643847998,0.682705933481948,0.04,0.0612086919723708,317.054679697372,0.593251240901346,0.392690313539003
15803,-0.249947932739732,0.249997497128873,0.249976489199053,0.25,0.249985401186058,0.25,0.249989179794705,0.21225995170135,0.675672868472186,0.694931197416257,0.04,0.0702502483588524,322.626516748155,0.748044551526085,0.316903672055384
15863,-0.249941621394317,0.249995655947965,0.24998054037993,0.25,0.249990948795585,0.219522579220981,0.249993327540068,0.226724901905702,0.699027226831391,0.707156461350566,0.04,0.0625831550626592,333.647299705502,0.81245342726305,0.301747593763015
15923,-0.249931468360388,0.249992694048242,0.249987057496993,0.25,0.249999873210911,0.170493684924298,0.25,0.249994604408355,0.71503830690355,0.719381725284876,0.04,0.0610237005901154,341.260676592909,0.845296511325585,0.296641458104439
15983,-0.249957738822239,0.249995494663083,0.249984997274313,0.249994103986564,0.249986352007292,0.00930443903665025,0.25,0.249908952415632,0.731843279724389,0.731606989219185,0.04,0.0566482930244137,349.325125566695,0.858972659760693,0.29881690224659
16043,-0.25,0.25,0.249981683003045,0.249984619095383,0.249964600505819,-0.25,0.25,0.249771164427339,0.745561259576584,0.743832253153494,0.04,0.0522310551407017,355.759702004868,0.843146551860372,0.310033312652998
16103,-0.249994849230294,0.169756848971954,0.249988704518544,0.24999051510882,0.249978170311922,-0.249990476054975,0.25,0.0581923868123887,0.761756072595131,0.756057517087803,0.04,0.0436706422621409,363.656624145622,0.833886160414855,0.320434606362977
16163,-0.249986563209463,0.0406700407964022,0.25,0.25,0.25,-0.249975154926021,0.25,-0.0087436858769574,0.769335994836139,0.768282781022113,0.04,0.038499377987376,367.097518600872,0.809675033503366,0.333138922902159
16223,-0.249991713979169,-0.0707534748422186,0.249594738772325,0.249999937367322,0.249998452424593,-0.249976250554065,0.0583543791123434,-0.00873903156679104,0.786170236228691,0.780508044956422,0.04,0.0262982350204692,375.317277289167,0.803661712591999,0.343146801285596
16283,-0.25,-0.25,0.248942796797369,0.249999836610405,0.249995962846764,-0.249978013086135,-0.0299941216855922,-0.0299941216855922,0.795179304082949,0.792733308890731,0.04,0.0185594181473059,379.421823110218,0.771969125213757,0.361141212334174
16343,-0.249999962337762,-0.25,0.249348058025045,0.249999883856464,0.161745338895345,-0.058342639553081,-0.0704332522422067,-0.0704332522422067,0.801946571910247,0.80495857282504,0.04,0.0178469814733318,382.663679970431,0.778690601970837,0.361082953998773
16403,-0.249999901750684,-0.25,0.25,0.249999959860995,0.0197769438430623,0.249940352652267,-0.118963104131924,-0.118963104131924,0.813157585225856,0.81718383675935,0.04,0.0188759324664881,388.074081242008,0.806584901532708,0.353524263414334
16463,-0.249999939412922,-0.249999996491289,0.0583333333333334,0.249999975247614,-0.0836373664628662,0.249963047750395,-0.172187435373746,-0.169176378996191,0.833045002880459,0.829409100693659,0.04,0.00878937442254639,397.679335893222,0.813764009287782,0.359078351709746
16523,-0.25,-0.24999999084684,-0.25,0.25,-0.249999517824577,0.249999557256078,-0.242238528031813,-0.0397276123872974,0.845213263941041,0.841634364627968,0.04,0.00334053183463744,403.363741496408,0.776213650681536,0.381830184169496
16583,-0.249998941422459,-0.249999384449476,-0.249997610439851,0.108074419997868,-0.249999598053262,0.249991752724642,-0.249999570072675,0.0355356713593998,0.854555772525391,0.853859628562277,0.04,0.00471095810995403,407.782060597904,0.779224882722179,0.384520926544905
16643,-0.249997238493373,-0.249998408940672,-0.24999376636483,-0.120240643483823,-0.249999727116799,0.249979197608854,-0.249999926110548,0.156611388691043,0.863951627386151,0.866084892496587,0.04,0.00594524051468109,412.305142764692,0.776409454644696,0.39019582014456
16703,-0.249998297070913,-0.249998987343177,-0.249996155924979,-0.169977191913398,-0.249999831722026,0.249987143875865,-0.249997679561551,0.192410356359477,0.862903619631961,0.861051504217847,0.04,0.00998690755125082,411.507894239996,0.788401564309512,0.38351766271795
16763,-0.25,-0.249999917816771,-0.25,-0.249988161126192,-0.25,0.249999927001056,-0.249994065547946,0.25,0.834127418236898,0.830832749512258,0.04,0.0192757089263571,397.766312870781,0.763943700131557,0.382579171264826
16823,-0.249997590524698,-0.249992673510281,-0.249995884065595,-0.249966769681644,-0.25,0.249987060895861,-0.249994319580886,0.249999999419842,0.808253026914139,0.804762100762085,0.04,0.0259665088867286,385.415475483571,0.742932762439499,0.381183693997063
16883,-0.249993714412255,-0.249981019625927,-0.249989262779813,-0.249932357357805,-0.25,0.249966363248373,-0.249994728242572,0.249999998486545,0.782872415621035,0.778691452011912,0.04,0.0315167169038196,373.306303205194,0.717952530982808,0.38205357545915
16943,-0.249996123887557,-0.212841218331624,-0.0586826326198266,-0.0582916203706462,-0.249999944117958,0.249976630381432,-0.15045108769797,0.0585002459654703,0.750338245384707,0.762614551949305,0.04,0.0410859617491935,357.92341788491,0.724046085223738,0.363227381991381
17003,-0.25,-0.153094581466876,0.249071511550586,0.25,-0.249999854220761,0.249993147073745,0.00968433404769371,-0.249564573307563,0.752052117433978,0.762614551949305,0.04,0.0478201726037147,358.939460373582,0.820725375829326,0.321349789939254
17063,-0.249999942782612,-0.189785584773928,0.2491668044902,0.249995782398315,-0.249669167854118,0.249995573638217,0.101805339329411,-0.249710029753022,0.759153680898798,0.762614551949305,0.04,0.0514669181003226,362.199049858008,0.846309198274406,0.314465439118204
17123,-0.249999850737248,-0.248810242267883,0.249320101827838,0.249988997560822,-0.249137194133868,0.249999477241931,0.25,-0.249944024904414,0.762041954149632,0.762614551949305,0.04,0.055422624516455,363.602763458914,0.858357373449747,0.311253117074615
17183,-0.249973144546233,-0.248849732815358,0.249580729460501,0.249993215162507,-0.188381364958642,0.249997310052702,0.25,-0.143725120771639,0.760062059856683,0.762614551949305,0.04,0.0613943581116964,362.566023131489,0.860367909282655,0.309640368692442
17243,-0.24993018241286,-0.248913261087383,0.25,0.25,-0.0906437267202365,0.24999382370481,0.25,0.0271487684854346,0.761359766961318,0.762614551949305,0.04,0.0647370308292413,363.308894395975,0.881476581450126,0.302844665276036
17303,-0.249956945821264,-0.249321945079725,0.249970433591625,0.249936541800187,0.0399357228098061,0.058331281082319,0.0589404014636546,0.0131283670289661,0.770949210853637,0.762614551949305,0.04,0.0598334054548572,367.933784887713,0.859200367026131,0.314651560834447
17363,-0.25,-0.24997939324132,0.249922870239021,0.249834456870053,0.249998315532048,-0.24999541791908,-0.248416344007858,-0.00942619183578779,0.774059266508209,0.768334004818659,0.04,0.0533990579705215,369.284264745713,0.795765650535458,0.340981086461697
17423,-0.249999999783838,-0.249987231701569,0.249952436647396,0.249897915069866,0.249998862094341,-0.249997174383433,-0.249000627859199,0.0519085843538539,0.779226481097788,0.783254316651757,0.04,0.0456780135635121,371.835375086196,0.803918385795574,0.339854809060343
17483,-0.249999999436098,-0.249999841398491,0.25,0.25,0.249999741346724,-0.25,-0.249940562750488,0.150577572137191,0.793531422034954,0.798174628484855,0.04,0.0392450388173584,378.739694055512,0.83787170126172,0.332137549958068
17543,-0.0583333333499673,-0.249996775932457,0.249999776135765,0.249999856073592,0.24999972671407,-0.249999788767678,-0.249962781446236,0.18868948117521,0.805521517772931,0.813094940317953,0.04,0.0416769980659975,384.329729837382,0.866129447757579,0.32604372959735
17603,0.24999999904946,-0.249991844530577,0.249999416006344,0.249999624539807,0.249999703174584,-0.24999944895916,-0.249998524565484,0.24999994354072,0.818821902298864,0.828015252151051,0.04,0.0475349437118817,390.86279122306,0.93393256474395,0.307513004527076
17663,0.249999999413834,-0.24999335561326,0.249999639870578,0.0583354312593689,0.0583331502909934,-0.249998713004583,-0.249999090148715,0.249998605951748,0.845104813688511,0.842935563984149,0.04,0.0385293533508824,403.469720394985,0.952969319431535,0.311090468338806
17723,0.25,-0.249995786485402,0.25,-0.249993923148292,-0.25,-0.249997529077654,-0.25,0.249996454178183,0.864414892771473,0.857855875817248,0.04,0.0302360909802201,412.371029754944,0.896988420946524,0.337797154338502
17783,0.24999874868773,-0.202315841334803,0.0583333333333334,-0.249996252608113,-0.24999999738984,-0.0583320357802951,-0.25,0.189821478325723,0.873571143149412,0.872776187650346,0.04,0.0295895630472055,416.897791102856,0.888966751864581,0.344586891277903
17843,0.249996735707121,-0.125613320875143,-0.25,-0.25,-0.249999993190886,0.249999409958934,-0.25,0.0930182563021994,0.887146995201501,0.887696499483444,0.04,0.0278742135336944,423.341642472679,0.886743051934636,0.35079053961515
17903,0.249997409546341,0.0183717854603285,-0.0583420161426967,-0.249999987609074,-0.249999928867639,0.249999257057752,-0.249999685292637,0.153192918820733,0.889090047353138,0.902616811316542,0.04,0.0363185837395187,424.118413175403,0.922707435023235,0.337736333265816
17963,0.249998493548565,0.25,0.249977349192965,-0.249999967675845,-0.24999982539111,0.249999011086283,-0.249999179024269,0.24999563678533,0.904569986573742,0.91753712314964,0.04,0.0466039778641849,431.809103272972,1.02434780647354,0.309741236872552
18023,0.249998946867321,0.25,0.249986032002329,-0.249999980066772,-0.249999892324518,0.249993391930391,-0.0583448923298153,0.249997309350953,0.921887770663529,0.932457434982738,0.04,0.0508159876904599,439.893762997135,1.07807246887493,0.29981580637212
18083,0.249999676119233,0.25,0.25,-0.25,-0.25,0.249984352418738,0.249968525396045,0.25,0.939395806944084,0.947377746815836,0.04,0.054835770008152,448.388504481208,1.14516803423533,0.287700044699969
18143,0.0583385408754371,0.249996599532779,0.0583484272401736,-0.177845191538335,-0.190555632578219,0.249990350658222,0.058313923994228,0.25,0.966079760390592,0.95657860577958,0.04,0.0491763052049254,461.151824305958,1.14318263479625,0.296403268586947
18203,-0.249985894081973,0.249991129215944,-0.249960624590851,-0.061770064882614,-0.094927737160572,0.25,-0.25,0.25,0.971948002067744,0.95657860577958,0.04,0.0437881037030194,463.56772137811,1.03213396350865,0.330013567623281
18263,-0.0583246411497772,0.249992273205872,-0.249975649527401,-0.133923567686847,-0.154372103755746,0.0583363441289569,-0.230723529127369,0.25,0.965462446145127,0.95657860577958,0.04,0.042701928496475,460.608151965715,0.976266252736472,0.346671403905019
18323,0.249999983132451,0.249994113537494,-0.249999820077502,-0.249996593937136,-0.249999997843635,-0.249992145750547,-0.199713554245311,0.25,0.962811338994386,0.95657860577958,0.04,0.0389990485972504,459.328263380648,0.930394189938809,0.362752868919185
18383,0.249999755478516,0.249996370014788,-0.249999888048124,-0.249997899594567,-0.249999998670242,-0.249995050686309,-0.0273233584512753,0.249998346904264,0.95546197273115,0.95657860577958,0.04,0.0406914492406035,455.76119035641,0.913582163808626,0.366559437094128
18443,0.249999389252621,0.25,-0.249999997392168,-0.25,-0.25,-0.249999723843838,0.25,0.249995687576341,0.955481041078774,0.95657860577958,0.04,0.0425512800971555,455.914397695982,0.931903520910051,0.359473624887411
18503,0.24999962337245,0.0583340294815582,-0.249931712253831,-0.249999582184951,-0.249999948321458,-0.0583331630370337,0.0583333333333334,0.249997340672077,0.96146669608528,0.95657860577958,0.04,0.036708554114377,458.80807429552,0.920980088458778,0.366045850119178
18563,0.25,-0.249998183961153,-0.249821862248681,-0.249998910047699,-0.249999865186412,0.25,-0.25,0.25,0.961409428565691,0.95657860577958,0.04,0.0297025811066893,458.603375376907,0.877245855019592,0.384123253180495
18623,0.249999688491497,-0.249998434684164,-0.0582389988766727,-0.24999913329296,-0.249995353840799,0.249999916276367,-0.0583357397726418,0.25,0.946169008337799,0.95657860577958,0.04,0.0373470002982409,451.198853338499,0.892052744194297,0.371648282377051
18683,0.249999187369121,-0.249998838021182,0.249959520460906,-0.24999949242664,-0.249988096458726,0.249999781590521,0.249993722332239,0.25,0.946689674852285,0.95657860577958,0.04,0.0449636485604021,451.816893998502,0.98096904905362,0.338424531981447
18743,0.0583328322109583,-0.249999283446395,0.0583083709508923,-0.248911896050311,-0.24594395008328,0.249999865314155,0.0583294621048806,0.249960926052434,0.968975959211688,0.95657860577958,0.04,0.0345566415913058,462.643732670937,0.976234496228773,0.348214787120287
18803,-0.25,-0.25,-0.25,-0.247162284488392,-0.239438149392345,0.25,-0.25,0.249898067962871,0.971905026700911,0.95657860577958,0.04,0.0229740468268662,463.556267653582,0.840593795472395,0.405201415333889
18863,-0.25,-0.222654925988033,-0.249987815786157,-0.248224363752064,-0.051980919434985,0.0583337034893103,-0.25,0.249873303642627,0.958889623241597,0.95657860577958,0.04,0.0209489150262909,457.476464804166,0.811704154529249,0.414119483676763
18923,-0.25,-0.178665024316609,-0.249968215094322,-0.249932926045797,0.249580711365985,-0.249999034375712,-0.25,0.249833465388322,0.953003678404955,0.952302212200952,0.04,0.0190586041029224,454.56564012534,0.811030907525095,0.411826108682482
18983,-0.249881125807355,-0.0143434316619089,-0.0583137326414987,-0.249958158391903,0.249741438675691,-0.249983800964597,-0.121569188755424,0.0609104637917271,0.929178758142502,0.941146402865402,0.04,0.025244776527604,443.215888676761,0.831695973087702,0.391566382104663
19043,-0.24968989341049,0.25,0.25,-0.249998749557379,0.25,-0.249959295042367,0.0850368988988935,-0.243009147472359,0.920612774251138,0.929990593529851,0.04,0.0353987081739837,439.315449872535,0.923245573600892,0.349634209455161
19103,-0.249808767603136,0.249992815976002,0.25,-0.0583325622270502,0.249585265384197,-0.0583082899958574,0.148161298283584,-0.245688974274622,0.91022068002548,0.9188347841943,0.04,0.0517150094666929,434.080835442911,0.953110933494715,0.334643070950976
19163,-0.25,0.24998125906783,0.25,0.25,0.248918083610949,0.249999848557224,0.249709245119826,-0.25,0.901469199256992,0.90767897485875,0.04,0.0662682153702757,430.121137827584,1.01361817063575,0.31179638451614
19223,-0.25,0.0583236499921012,0.249825903504695,0.249748783698825,0.249332818226752,0.058426349970085,0.0610206719860997,-0.249901585181604,0.909705728948425,0.896523165523199,0.04,0.0581778497731917,434.179492487799,0.990775121873607,0.32199482352703
19283,-0.25,-0.249995112434071,0.24954583522964,0.24934465312737,0.25,-0.24975710427879,-0.242521815229025,-0.249743265691141,0.902495815167021,0.885367356187648,0.04,0.0489736675645693,430.306778464303,0.858665328957378,0.368221324905008
19343,-0.249999999878467,-0.24999698600101,0.0580542882479809,0.249595869428544,0.0583333481681584,-0.0584741322581424,-0.245388446825555,-0.249840756334066,0.882881060018284,0.874211546852098,0.04,0.0406157740958564,421.181458508716,0.803470374192692,0.38517141806609
19403,-0.249999999682958,-0.25,-0.249997330809471,0.25,-0.249999961300457,0.249241953166379,-0.249999984611277,-0.249997589107468,0.871563858115954,0.863055737516547,0.04,0.0275363624831678,415.671148477723,0.738232306063582,0.41372475845103
19463,-0.249999999804491,-0.25,-0.249998353999174,0.249999999999068,-0.249997856027615,0.249532537785934,-0.249999990510287,-0.249998513282768,0.855072044754456,0.851899928180996,0.04,0.0230642785156604,407.846842878775,0.711629484469693,0.421112223235571
19523,-0.25,-0.25,-0.25,0.249999999997568,-0.249994469284347,0.25,-0.25,-0.249999999999555,0.842459607123639,0.840744118845446,0.04,0.0204447034871653,401.839794584698,0.698470997452442,0.422726274095122
19583,-0.249999999677535,-0.249999996202089,-0.24986008688081,0.0583333333318336,-0.249996589392014,0.249999999999112,-0.249812556327429,-0.249999986954514,0.837525738621218,0.829588309509895,0.04,0.0159393357943506,399.487292870893,0.677895220162694,0.433007156454139
19643,-0.249999999158788,-0.249999990092406,-0.249635009254287,-0.25,-0.25,0.249999999997683,-0.249511016506337,-0.249999965969013,0.82215795470456,0.818432500174345,0.04,0.0120977209588821,392.307392446346,0.620626968951644,0.464462359903424
19703,-0.249999999481253,-0.168663316279376,-0.20634762458563,-0.249908367390684,-0.249997743754827,0.24998131861719,-0.249697099879472,-0.249999777980332,0.799951725171279,0.807276690838794,0.04,0.0147605443676259,381.484840143946,0.620238729499259,0.451931984956045
19763,-0.25,-0.0378173627540668,-0.136711397075182,-0.24976095841048,-0.249994114143026,0.249951265961616,-0.249996451392775,-0.249999475563758,0.790405585590461,0.796120881503243,0.04,0.0177896709883442,376.924918749054,0.670858117877375,0.412837221752318
19823,-0.25,0.0725116367738847,0.0113205754569104,-0.118262480215604,-0.249995664237672,0.249969947342996,-0.114606826566372,-0.0583342803637954,0.756367486503453,0.784965072167693,0.04,0.0380035888823933,360.797803872239,0.748891583352444,0.353997024824993
19883,-0.25,0.249997418623198,0.249458966052016,0.0932785499239798,-0.24999815786819,0.25,0.10319387424132,0.249996685827448,0.753761968071432,0.773809262832142,0.04,0.0577749345151584,359.858103117954,0.93757171894621,0.282021010205012
19943,-0.249993822437226,0.0583317421633235,0.0580001926224408,0.153355105786454,-0.249998863908923,0.25,0.042042120829961,0.0584011959142524,0.775482050939075,0.762653453496591,0.04,0.0544726033558786,370.23004283665,0.941994727765049,0.288787147799077
20003,-0.24998388461885,-0.249999998228649,-0.249998703764268,0.25,-0.249999999713581,0.25,-0.0563324390057027,-0.249817635685237,0.769983995370876,0.751497644161041,0.04,0.0507065224590081,367.088208106096,0.797041861982773,0.338410615933633
20063,-0.249990062181624,-0.249999998907667,-0.107089679386096,0.249996329448666,-0.249999992729526,0.24999996407982,0.0610949958618861,-0.170355007821128,0.740211636887757,0.74034183482549,0.04,0.0626141698372051,352.912946763153,0.753299039213148,0.3442348642116
20123,-0.25,-0.25,0.122807446787485,0.249990424648693,-0.249999981494307,0.249999906295184,0.249999999779312,-0.0425238238658225,0.728021488420257,0.729186025489939,0.04,0.0693718009611255,347.355865116853,0.780438666957606,0.327032213737536
20183,-0.25,-0.249999111081655,0.171564592185616,0.249993589408595,-0.249977049265102,0.206930390514682,0.249954572888348,-0.122056357912998,0.724684439919215,0.718030216154389,0.04,0.067643408770959,345.704352788771,0.754236765384042,0.336784290791682
20243,-0.25,-0.249997681082577,0.25,0.249998680544089,-0.249940158287685,0.137644647737353,0.249881494846362,-0.249999999641062,0.71351345218225,0.706874406818838,0.04,0.0675017036255124,340.297884626739,0.707116528792412,0.35360869602882
20303,-0.25,-0.249998396061611,0.25,0.249999186335522,-0.058296441281121,-0.0109500280217976,0.0582602551552568,-0.249997640489373,0.704663078589077,0.695718597483287,0.04,0.0601229901456031,336.164767163341,0.666624351071683,0.370531979178043
20363,-0.25,-0.249999546245273,0.25,0.25,0.249999973033786,-0.249993636851736,-0.25,-0.249993845332307,0.692599918885517,0.684562788147737,0.04,0.0537648942294731,330.268183231325,0.601399531780975,0.403513740611646
20423,-0.249999600478798,-0.249999409002424,0.0583333333333334,0.0584357606808605,0.249999983370834,-0.249996070566875,-0.249997693146438,-0.249996204621589,0.679876905828776,0.673406978812186,0.04,0.0283321259241773,324.410368736404,0.57218181791998,0.416596243604634
20483,-0.249998957770778,-0.249999188220449,-0.25,-0.249732798223842,0.25,-0.249999985673838,-0.249993982121142,-0.25,0.669832579981112,0.662251169476636,0.04,0.00772165376725888,318.73533137597,0.461440021063591,0.507539239793467
