time,bias_percent_1,bias_percent_2,bias_percent_3,bias_percent_4,bias_percent_5,bias_percent_6,bias_percent_8,bias_percent_9,normalized_power,power_SP,SP,CV,total_power_MW,fuel_fraction,thermal_efficiency
19,0,0,0,0,0,0,0,0,0.999267562149263,1,0.04,0.0400805810918953,476.778139473252,0.99937690980473,0.350543323439688
79,-0.00659483782890868,0.00508272097764905,-0.00383316374404239,-0.00413160189843131,8.52801878293121e-05,0.00113441517925196,0.00812111671882315,0.00234434841558516,0.999545453802376,0.999577518522143,0.04,0.0400147226007817,476.882475636229,1.00008617030386,0.350371375381917
139,-0.0274206414991468,0.0211334188018038,-0.0159378913568077,-0.0171787657882145,0.000354586044132247,0.00471677890320541,0.0337667484624751,0.00974755393848562,0.998381032511623,0.998243366486807,0.04,0.0403190947960113,476.317639769953,0.999403775701891,0.350195334392288
199,-0.0482464451693847,0.0371841166259587,-0.0280426189695731,-0.0302259296779974,0.00062389190043541,0.00829914262715886,0.0594123802061271,0.017150759461386,0.997112305461304,0.996909214451471,0.04,0.0406051325403684,475.712106855339,0.998239251973169,0.350158148935014
259,-0.0690722488396226,0.0532348144501136,-0.0401473465823383,-0.0432730935677805,0.000893197756738459,0.0118815063511124,0.0850580119497791,0.0245539649842866,0.995827177644033,0.995575062416134,0.04,0.0408398967573226,475.098885232005,0.996754928479569,0.350227541852376
319,-0.0898980525098607,0.0692855122742684,-0.0522520741951037,-0.0563202574575636,0.00116250361304151,0.015463870075066,0.110703643693431,0.031957170507187,0.994531895455939,0.994240910380798,0.04,0.0410250611964213,474.480828549513,0.995017114014471,0.350382813122073
379,-0.110723856180099,0.0853362100984233,-0.0643568018078689,-0.0693674213473466,0.00143180946934456,0.0190462337990194,0.136349275437083,0.0393603760300875,0.993227151524821,0.992906758345461,0.04,0.0411654982496823,473.85826318915,0.993083790938796,0.350604302382279
439,-0.131549659850337,0.101386907922578,-0.0764615294206343,-0.0824145852371297,0.00170111532564761,0.0226285975229728,0.161994907180735,0.046763581552988,0.991913832621499,0.991572606310125,0.04,0.0412667103417389,473.231614601779,0.991008420588685,0.350873914354541
499,-0.152375463520575,0.117437605746733,-0.0885662570333996,-0.0954617491269129,0.00197042118195066,0.0262109612469262,0.187640538924387,0.0541667870758884,0.990593043477661,0.990238454274788,0.04,0.0413343701872407,472.601411639035,0.988838111431046,0.351175730353611
559,-0.173201267190813,0.133488303570888,-0.100670984646165,-0.108508913016696,0.0022397270382537,0.0297933249708798,0.213286170668039,0.0615699925987889,0.989265829592435,0.988904302239452,0.04,0.0413738818752444,471.968150100364,0.986613488817379,0.351495945312166
619,-0.194027070861051,0.149539001395043,-0.11277571225893,-0.121556076906479,0.00250903289455675,0.0333756886948332,0.238931802411691,0.0689731981216894,0.987933092829917,0.987570150204115,0.04,0.0413900793767229,471.332261079163,0.98436947515524,0.351822576752968
679,-0.214852874531289,0.165589699219198,-0.124880439871696,-0.134603240796262,0.0027783387508598,0.0369580524187867,0.264577434155343,0.0763764036445899,0.986595641269881,0.986235998168779,0.04,0.041387126241216,470.694128659949,0.982135976767995,0.35214525211343
739,-0.235678678201527,0.181640397043352,-0.136985167484461,-0.147650404686045,0.00304764460716297,0.0405404161427402,0.290223065898995,0.0837796091674903,0.985254178023438,0.984901846133442,0.04,0.0413685279907563,470.054085749024,0.979938421206472,0.35245503780067
799,-0.256504481871765,0.197691094867507,-0.149089895097226,-0.160697568575828,0.0033169504634659,0.0441227798666936,0.315868697642647,0.0911828146903907,0.983909060321641,0.983567694098106,0.04,0.0413370685999731,469.412301798598,0.977799201713215,0.352743861470896
859,-0.277330285542003,0.213741792691662,-0.161194622709992,-0.173744732465611,0.00358625631976895,0.0477051435906471,0.341514329386299,0.0985860202132912,0.982559935178268,0.982233542062769,0.04,0.041294540295737,468.768598351967,0.975741211298178,0.353003116641171
919,-0.291561251383332,0.224709769538168,-0.169466186578715,-0.182660294456963,0.0037702819882428,0.0501530921353487,0.359038844411128,0.103644877320607,0.981484980627389,0.981321871505289,0.04,0.0410870853372916,468.265155042148,0.974045549503049,0.353237865499622
979,-0.291561251383332,0.224709769538168,-0.169466186578715,-0.182660294456963,0.00377028198824269,0.0501530921353487,0.359038844411128,0.103644877320607,0.981266140344517,0.981321871505289,0.04,0.0406364191416019,468.16133613682,0.974095391235109,0.353141479070121
1039,-0.291561251383332,0.224709769538168,-0.169466186578715,-0.182660294456963,0.00377028198824269,0.0501530921353486,0.359038844411128,0.103644877320607,0.981204065471097,0.981321871505289,0.04,0.0402860681627358,468.132236237029,0.974701031101758,0.35290011433913
1099,-0.291561251383332,0.224709769538168,-0.169466186578715,-0.182660294456963,0.00377028198824269,0.0501530921353486,0.359038844411128,0.103644877320607,0.981175960508033,0.981321871505289,0.04,0.0400548061956611,468.118999673268,0.975532521695668,0.352589351733183
