time,bias_percent_1,bias_percent_2,bias_percent_3,bias_percent_4,bias_percent_5,bias_percent_6,bias_percent_8,bias_percent_9,normalized_power,power_SP,SP,CV,total_power_MW,fuel_fraction,thermal_efficiency
32,0,0,0,0,0,0,0,0,0.999620875550017,1,0.04,0.0399816325672792,476.926414708071,0.999656501683247,0.350554267144667
92,-0.0040695341090468,-0.0125011409097018,-0.0150857580648358,-0.0180389783210217,0.0148376010015512,-0.00207613866485406,0.00844597137353156,-0.00362605246812205,0.98635643081941,0.973837261909683,0.04,0.0455235528599813,470.291619235644,0.962138454255271,0.359157006510327
152,-0.0116999105635098,-0.0359407801153927,-0.0433715544364029,-0.0518620626729373,0.0426581028794596,-0.00596889866145568,0.0242821676989031,-0.0104249008458508,0.941371541836032,0.924782127990338,0.04,0.057569819192057,448.738682088472,0.863047100442722,0.382044266647004
212,-0.0193302870179726,-0.0593804193210836,-0.0716573508079701,-0.085685147024853,0.070478604757368,-0.00986165865805731,0.0401183640242747,-0.0172237492235795,0.891429251973312,0.875726994070993,0.04,0.0642841479921642,424.90032305763,0.763999296268424,0.408647436645215
272,-0.0269606634724354,-0.0828200585267745,-0.0999431471795373,-0.119508231376769,0.0982991066352764,-0.0137544186546588,0.0559545603496463,-0.0240225976013083,0.841100738039917,0.826671860151649,0.04,0.0658537006390152,400.888904512254,0.672378222959728,0.438091748832281
332,-0.0345910399268982,-0.106259697732465,-0.128228943551104,-0.153331315728684,0.126119608513185,-0.0176471786512602,0.0717907566750179,-0.0308214459790371,0.790732678068027,0.777616726232304,0.04,0.0634565834584881,376.857860789054,0.588508377837214,0.470521643285654
392,-0.0422214163813611,-0.129699336938156,-0.156514739922672,-0.1871544000806,0.153940110391093,-0.0215399386478617,0.0876269530003896,-0.0376202943567659,0.740275799963331,0.728561592312959,0.04,0.0573694239800784,353.117733802824,0.513291457416403,0.505487206592012
452,-0.049851792835824,-0.153138976143847,-0.184800536294239,-0.220977484432515,0.181760612269002,-0.0254326986444633,0.103463149325761,-0.0444191427344946,0.690664504533945,0.679506458393614,0.04,0.0498457042941938,329.388472977914,0.443214893664099,0.546070514722581
