time,bias_percent_1,bias_percent_2,bias_percent_3,bias_percent_4,bias_percent_5,bias_percent_6,bias_percent_8,bias_percent_9,normalized_power,power_SP,SP,CV,total_power_MW,fuel_fraction,thermal_efficiency
57,0,0,0,0,0,0,0,0,0.99984915100619,1,0.04,0.0399035329803236,477.030556706071,1.00005017777369,0.35049278638655
117,-0.00452690266525406,0.0177023130703324,0.0113349751804549,-0.00980870656143361,0.00463108540368626,0.0287510627608157,0.00925009600006825,-0.00101313699786016,0.995218844351483,0.994208149540888,0.04,0.0425577127900684,474.771593352244,0.994545763994377,0.350763690320096
177,-0.00929206336552136,0.0363363268285772,0.0232665280019863,-0.020133660836627,0.00950591214440863,0.0590153393511481,0.0189870391580349,-0.00207959699560757,0.989097304067808,0.988111464847086,0.04,0.044886265371147,471.849090077625,0.988163451526836,0.350856083560149
237,-0.0140572240657888,0.0549703405868219,0.0351980808235179,-0.0304586151118202,0.014380738885131,0.0892796159414805,0.0287239823160015,-0.0031460569933551,0.98291073173783,0.982014780153285,0.04,0.0466045536737258,468.897620107492,0.982308709810845,0.350739525374657
297,-0.0188223847660562,0.0736043543450664,0.0471296336450492,-0.0407835693870136,0.0192555656258534,0.119543892531813,0.0384609254739681,-0.00421251699110263,0.976758425220297,0.975918095459483,0.04,0.0479047320739736,465.962118720665,0.976896177713041,0.350474865104361
357,-0.0235875454663236,0.0922383681033112,0.0590611864665808,-0.0511085236622068,0.0241303923665758,0.149808169122145,0.0481978686319347,-0.00527897698885016,0.970615243175748,0.969821410765681,0.04,0.0489237700931229,463.031791774952,0.971752388366175,0.350114316862246
417,-0.0283527061665909,0.110872381861556,0.0709927392881121,-0.0614334779374002,0.0290052191072981,0.180072445712478,0.0579348117899013,-0.00634543698659769,0.964492453784718,0.963724726071879,0.04,0.0497363024965988,460.11071027712,0.966794007494402,0.349689884119298
477,-0.0331178668668583,0.129506395619801,0.0829242921096436,-0.0717584322125935,0.0338800458480205,0.21033672230281,0.0676717549478678,-0.00741189698434522,0.958379817896534,0.957628041378077,0.04,0.0503932847929873,457.194436057896,0.961949866880635,0.349223269445208
537,-0.0378830275671257,0.148140409378045,0.0948558449311751,-0.0820833864877868,0.0387548725887428,0.240600998893142,0.0774086981058345,-0.00847835698209269,0.952273975970067,0.951531356684276,0.04,0.050927695763216,454.281383738989,0.957173355582099,0.348729763618836
597,-0.042648188267393,0.16677442313629,0.106787397752707,-0.0924083407629802,0.0436296993294652,0.270865275483475,0.0871456412638011,-0.00954481697984016,0.946172833920584,0.945434671990474,0.04,0.051362862273774,451.370559094697,0.952432335768117,0.348220049760952
657,-0.0474133489676605,0.185408436894535,0.118718950574238,-0.102733295038173,0.0485045260701876,0.301129552073807,0.0968825844217676,-0.0106112769775877,0.940074819468183,0.939337987296672,0.04,0.0517161387500688,448.461216752243,0.947705008592672,0.347701361549478
717,-0.0521785096679278,0.204042450652779,0.13065050339577,-0.113058249313367,0.0533793528109101,0.33139382866414,0.106619527579734,-0.0116777369753352,0.933978707806887,0.93324130260287,0.04,0.0520008652788931,445.552773492313,0.942977596793737,0.3471782045
777,-0.0569436703681953,0.222676464411024,0.142582056217301,-0.12338320358856,0.0582541795516324,0.361658105254472,0.116356470737701,-0.0127441969730827,0.927883532877159,0.927144617909068,0.04,0.0522275502487466,442.644768852818,0.938242629874708,0.346652910423827
837,-0.0617088310684626,0.241310478169269,0.154513609038832,-0.133708157863753,0.0631290062923549,0.391922381844804,0.126093413895667,-0.0138106569708302,0.921788561934713,0.921047933215266,0.04,0.0524046225459722,439.736857368097,0.933497485343635,0.346126134501453
897,-0.06647399176873,0.259944491927513,0.166445161860364,-0.144033112138947,0.0680038330330773,0.422186658435137,0.135830357053634,-0.0148771169685777,0.915693251039175,0.914951248521465,0.04,0.0525389332229151,436.828778664176,0.928743181929185,0.34559725162404
957,-0.0667122498037434,0.260876192615426,0.16704173950144,-0.144549359852706,0.0682475743701133,0.423699872264653,0.136317204211532,-0.0149304399684651,0.914289312216998,0.914646414286775,0.04,0.0497374729123822,436.206602220505,0.930089805947219,0.344605358614362
1017,-0.0667122498037434,0.260876192615426,0.16704173950144,-0.144549359852706,0.0682475743701133,0.423699872264654,0.136317204211532,-0.0149304399684651,0.914353813998745,0.914646414286775,0.04,0.0473450609178196,436.238483260428,0.932086956056459,0.343892116981991
1077,-0.0667122498037434,0.260876192615426,0.167041739501441,-0.144549359852706,0.0682475743701133,0.423699872264653,0.136317204211532,-0.0149304399684651,0.914464031034408,0.914646414286775,0.04,0.0456489655554797,436.291562146895,0.933392369389322,0.34345294445194
1137,-0.0667122498037434,0.260876192615426,0.16704173950144,-0.144549359852706,0.0682475743701134,0.423699872264653,0.136317204211532,-0.0149304399684651,0.914538902596543,0.914646414286775,0.04,0.0444125711947074,436.326721680012,0.934172607228508,0.343193741155581
1197,-0.0667122498037434,0.260876192615426,0.16704173950144,-0.144549359852706,0.0682475743701133,0.423699872264653,0.136317204211532,-0.0149304399684651,0.914585587368804,0.914646414286775,0.04,0.0434782761291715,436.34907442681,0.934623569889745,0.343045720801471
1257,-0.0667122498037434,0.260876192615426,0.16704173950144,-0.144549359852706,0.0682475743701133,0.423699872264653,0.136317204211532,-0.0130992920848283,0.914545311248744,0.914646414286775,0.04,0.0428011261217265,436.326641452184,0.934956761724219,0.342905839216699
1317,-0.0667122498037434,0.260876192615426,0.16704173950144,-0.144549359852706,0.0682475743701133,0.423699872264653,0.136317204211532,-0.00618737704329955,0.914380025079161,0.914646414286775,0.04,0.0423823677360645,436.2503893561,0.936372007084839,0.342327731298893
