time,bias_percent_1,bias_percent_2,bias_percent_3,bias_percent_4,bias_percent_5,bias_percent_6,bias_percent_8,bias_percent_9,normalized_power,power_SP,SP,CV,total_power_MW,fuel_fraction,thermal_efficiency
12,0,0,0,0,0,0,0,0,0.999806821796218,1,0.04,0.0401053790766637,476.991446710209,0.998489794038291,0.35101173628365
72,-0.000406322454688052,-0.00471323305092255,-0.00312756713956685,-0.00433145479115217,0.00177885716018761,-0.00458772907341245,-0.000984323174903466,0.00474961361052374,0.99845320432124,0.995075138351601,0.04,0.0405827401920445,476.259730853352,0.994237029396871,0.351972395941702
132,-0.0024379347281282,-0.0282793983055362,-0.0187654028374014,-0.0259887287469139,0.0106731429611255,-0.0275263744404753,-0.00590593904942114,0.0284976816631424,0.9789130845446,0.970450830109607,0.04,0.0458535971509066,466.8528284842,0.947315431014116,0.362109616924123
192,-0.00446954700156857,-0.0518455635601497,-0.034403238535236,-0.0476460027026756,0.0195674287620633,-0.0504650198075379,-0.0108275549239386,0.052245749715761,0.954454098037462,0.945826521867613,0.04,0.0489620701480627,455.171200378287,0.893921310391837,0.374136570665107
252,-0.00650115927500883,-0.0754117288147633,-0.0500410742330705,-0.0693032766584371,0.028461714563001,-0.0734036651746006,-0.0157491707984562,0.0759938177683796,0.929310724115164,0.921202213625619,0.04,0.0493151083315057,443.17348561309,0.842938251731384,0.386307094014471
312,-0.00853277154844909,-0.0989778940693767,-0.065678909930905,-0.0909605506141986,0.037356000363939,-0.0963423105416633,-0.0206707866729738,0.0997418858209982,0.904061288641086,0.896577905383625,0.04,0.0477775611765218,431.127930159645,0.795729862457332,0.398102750927139
372,-0.0105643838218894,-0.12254405932399,-0.0813167456287396,-0.11261782456996,0.0462502861648768,-0.119280955908726,-0.0255924025474914,0.123489953873617,0.878789662029705,0.871953597141631,0.04,0.0449898765478558,419.182065941033,0.752824877863119,0.409131961168769
432,-0.0125959960953295,-0.146110224578604,-0.096954581326574,-0.134275098525722,0.0551445719658148,-0.142219601275789,-0.0305140184220089,0.147238021926236,0.853456366440839,0.847329288899637,0.04,0.041851252205889,407.17061909862,0.713433426236454,0.419350973259599
