time,bias_percent_1,bias_percent_2,bias_percent_3,bias_percent_4,bias_percent_5,bias_percent_6,bias_percent_8,bias_percent_9,normalized_power,power_SP,SP,CV,total_power_MW,fuel_fraction,thermal_efficiency
25,0,0,0,0,0,0,0,0,0.999575022449935,1,0.04,0.0400215243777477,476.901594048367,0.999417138316525,0.350619977681389
85,-0.00317932352269281,-0.00976651633570452,-0.0117857484881529,-0.0140929518132981,0.0115918757824618,-0.00162198333191725,0.00659841513557154,-0.00283285349072031,0.990519787487587,0.97956036086694,0.04,0.0440343895000384,472.304604220579,0.972146398368371,0.356981067606451
145,-0.0108096999771557,-0.0332061555413953,-0.04007154485972,-0.0479160361652138,0.0394123776603702,-0.00551474332851888,0.0224346114609431,-0.00963170186844911,0.947058739558397,0.930505226947595,0.04,0.0563978553988664,451.455772978417,0.874970567746633,0.379119779176995
205,-0.0184400764316187,-0.0566457947470864,-0.0683573412312874,-0.0817391205171295,0.0672328795382787,-0.00940750332512027,0.0382708077863147,-0.0164305502461779,0.897307944078705,0.88145009302825,0.04,0.0637961677197007,427.704880784368,0.77518354523375,0.405409888150041
265,-0.0260704528860814,-0.0800854339527772,-0.0966431376028544,-0.115562204869045,0.0950533814161871,-0.0133002633217218,0.0541070041116864,-0.0232293986239066,0.846972684575506,0.832394959108905,0.04,0.0658901665188136,403.690476390662,0.682675330835752,0.434499189580961
325,-0.0337008293405443,-0.103525073158468,-0.124928933974422,-0.149385289220961,0.122873883294095,-0.0171930233183234,0.069943200437058,-0.0300282470016353,0.796611589846816,0.783339825189561,0.04,0.0639181689255995,379.662710620589,0.597882225543281,0.466591666536716
385,-0.0413312057950071,-0.126964712364159,-0.153214730345989,-0.183208373572876,0.150694385172004,-0.0210857833149249,0.0857793967624295,-0.0368270953793642,0.745639262245985,0.734284691270216,0.04,0.0583750634603518,355.659726764557,0.521933733152124,0.500695859583947
445,-0.04896158224947,-0.15040435156985,-0.181500526717556,-0.217031457924792,0.178514887049912,-0.0249785433115264,0.101615593087801,-0.0436259437570929,0.696642991419845,0.685229557350871,0.04,0.0508732486703143,332.080006269499,0.45086214566241,0.541194820247929
