time,bias_percent_1,bias_percent_2,bias_percent_3,bias_percent_4,bias_percent_5,bias_percent_6,bias_percent_8,bias_percent_9,normalized_power,power_SP,SP,CV,total_power_MW,fuel_fraction,thermal_efficiency
5,0,0,0,0,0,0,0,0,0.997207610298873,1,0.04,0.0412449821698638,475.751720527076,0.99988757293273,0.349610021450679
65,0,0,0,0,0,0,0,0,0.999889286324059,1,0.04,0.0398972106868231,477.049039736953,1.00012270840032,0.350480947256435
125,0,0,0,0,0,0,0,0,0.999987462531848,1,0.04,0.0399191516323223,477.094236711158,1.00030111055171,0.350451639156433
185,0,0,0,0,0,0,0,0,0.999999464195187,1,0.04,0.039957461987478,477.099777645036,1.00031795058351,0.350449809463984
245,0,0,0,0,0,0,0,0,1.00000198197829,1,0.04,0.0399822509290039,477.100958363879,1.0003100028683,0.350453461170524
305,0,0,0,0,0,0,0,0,1.00000321691087,1,0.04,0.0399967487507877,477.101541998267,1.00029289169605,0.350459884798893
365,0,0,0,0,0,0,0,0,1.00000384792004,1,0.04,0.0400047627800493,477.101838719489,1.00027082241825,0.350467835065825
425,0,0,0,0,0,0,0,0,1.00000398275344,1,0.04,0.0400086858138095,477.101899583024,1.00024698520312,0.35047623189015
485,0,0,0,0,0,0,0,0,1.00000375673068,1,0.04,0.0400100331860538,477.101789478144,1.0002238380937,0.350484261702091
545,0,0,0,0,0,0,0,0,1.00000331218758,1,0.04,0.0400098181755524,477.101576152871,1.00020297684721,0.350491415042517
605,0,0,0,0,0,0,0,0,1.00000276649284,1,0.04,0.0400087341663046,477.101315305287,1.00018523299724,0.350497441328915
665,0,0,0,0,0,0,0,0,1.00000220368176,1,0.04,0.040007251346857,477.10104703424,1.00017086466799,0.350502279445892
725,-0.0208333333333334,-0.0208322731688643,0.0208329537524716,0.0208333084370836,-0.0208332728785294,0.0208333333333334,-0.0208332197657023,0.00120120017454576,0.999836380297256,0.998276863447798,0.04,0.0401808604606564,476.994416100671,0.998182308480892,0.351122049674157
785,-0.25,-0.249987278026373,0.249995445029659,0.249999701245002,-0.249999274542355,0.25,-0.249998637188428,0.0144144020945486,0.989817005198227,0.977599224821379,0.04,0.041651594211974,472.156657814799,0.937262761153683,0.370151430465091
845,-0.24999890340614,-0.24998828347831,0.24999582461052,0.249999726141252,-0.249999334997158,0.25,-0.249998750756059,0.0340448521253864,0.963409437542617,0.956921586194959,0.04,0.0457918274167613,459.340492403699,0.888312051406787,0.379947729717567
905,-0.249986840873687,-0.249999343449614,0.25,0.25,-0.25,0.25,-0.25,0.249979802464601,0.93689951953024,0.936243947568539,0.04,0.0483909855833071,446.93294370939,0.878716487586957,0.373721659785242
965,-0.249987937467546,-0.249999397422967,0.249999792977712,0.249999679085862,-0.21422395171618,0.249998604878424,-0.225642637406582,0.249981203891222,0.920107190994179,0.915566308942119,0.04,0.0499965741304525,438.661476262367,0.852774438203432,0.377963618540516
1025,-0.25,-0.249999991129852,0.249997515732539,0.249996149030341,0.179312579405838,0.249983258541083,0.0422883511210178,0.249996619584053,0.888970963472594,0.894888670315699,0.04,0.0615872597987312,424.135129732935,0.878614889705869,0.354699325438661
1085,-0.249999998243579,-0.249999991869031,0.24999771325789,0.249994262822449,0.185203194830204,0.24998465366266,0.0595976551942663,0.249996858553539,0.877599660629775,0.87421103168928,0.04,0.0620912991729102,418.476132271504,0.866162388285397,0.354998115918357
1145,-0.249999978922954,-0.25,0.249999886036753,0.249973514535636,0.249999964498221,0.25,0.25,0.249999487217884,0.854201190225969,0.85353339306286,0.04,0.067353004642849,407.455572028756,0.859818375443376,0.348199557761265
1205,-0.249999975893112,-0.249999999332556,0.208333228867023,0.249975520547247,0.249998364521515,0.208337775718403,0.208333404253663,0.249999086425602,0.838335382965322,0.83285575443644,0.04,0.0649846772355016,400.070940077733,0.832227596890275,0.353223484095399
1265,-0.249999942564846,-0.249999991990675,-0.25,0.249997586674972,0.249980764777743,-0.24994669137916,-0.168827759162972,0.249994677710489,0.835907426775682,0.81217811581002,0.04,0.0339736573736735,398.581809093085,0.695016336775325,0.42138312274137
1325,-0.249999921362629,-0.249999832556256,-0.249999995386332,0.238583021845638,0.208376421196015,-0.249951073180055,-0.145736297734497,0.208328924856768,0.798524305475181,0.791500477183601,0.04,0.0294680401223389,380.973636749202,0.632539580667012,0.442549539960806
1385,-0.249999688138243,-0.249998078777639,-0.249999944635986,0.113022808722965,-0.249271358202991,-0.249999272989895,-0.0846369204705731,-0.171449515875192,0.779503404633064,0.770822838557181,0.04,3.56454893085152e-07,371.748930529855,0.52085436886213,0.524430682530163
1445,-0.249991385914004,-0.24999181558501,-0.249999949034613,0.0828012402317033,-0.207668144722973,-0.249999332676813,-0.0567508408769254,-0.235500456578006,0.737892405097013,0.750145199930761,0.04,1.23085980813404e-08,351.913927478219,0.571506834997901,0.452449072747975
1505,-0.249900061447379,-0.249922920466093,-0.24999999741952,-0.249636013172174,0.249967203557223,-0.249999989232909,0.249996034653199,-0.2499999671634,0.729821617300433,0.729467561304341,0.04,0.0130809343890293,348.122742196844,0.503841760663641,0.507683339123317
1565,-0.221007469856168,-0.236309423358524,-0.208344557253343,-0.249666289652265,0.249969847378379,-0.208333323502233,0.249996302641948,-0.208333347011437,0.708874898389335,0.708789922677921,0.04,0.0125412313177799,338.204030838589,0.487064975484589,0.510207166800214
1625,0.0968110376471511,-0.0865609551752601,0.2498652845746,-0.249999330933259,0.249998929411091,0.249999999535199,0.24999925051819,0.249999474660162,0.646093028562605,0.688112284051501,0.04,0.0639534600616145,308.095186953835,0.699956630563513,0.323421180699681
1685,0.10950917652215,-0.0585142089179543,0.249874966329013,-0.223764237836156,0.249998917499618,0.249999517584851,0.249999309588789,0.249997979584414,0.663807196798122,0.667434645425082,0.04,0.0651658120953046,316.749136979842,0.765647334464141,0.303977431922991
1745,0.249188704147136,0.24999999991241,0.249981465627551,0.0648217862319721,0.249998786473416,0.249994216131022,0.249999959365378,0.249981533751186,0.648188692820095,0.648480143350864,0.04,0.101748837277588,309.162105241684,0.778198554253894,0.291911034900908
1805,0.249256312133915,0.249999953549752,0.249961968349705,0.038586637545384,0.249998885342832,0.249990925745701,0.249999886249272,0.249983070643321,0.649535651804438,0.648480143350864,0.04,0.0993245244276339,309.914572815257,0.775897000421258,0.293489522393397
1865,0.249999999988487,0.249999443560521,0.249747498293406,-0.249999998007086,0.249999972906401,0.249954731507175,0.249999081972104,0.249999976456814,0.653840412553515,0.648480143350864,0.04,0.0880965398956155,311.967865355502,0.751499918552816,0.30502511511483
1925,0.208343234648945,0.249999480956184,0.208102667865127,-0.209719160797585,0.235160531431003,0.249958503881577,0.249998437967836,0.249999978418747,0.651194761210118,0.648480143350864,0.04,0.0862834809157419,310.605498003517,0.728084564292693,0.313459900380347
1985,-0.249881184086021,0.24999989230847,-0.249990466845948,0.233370048506918,0.0719266752016202,0.25,0.249991353920896,0.25,0.655607804538548,0.648480143350864,0.04,0.0587550021742759,312.938910111583,0.700002625158602,0.328484266790756
2045,-0.208224557416124,0.208333287779032,-0.249991261275452,0.23475587750291,0.0450995854843229,0.235683534985297,0.249992074427488,0.249999994313779,0.650174606076812,0.650345129296896,0.04,0.0547721345796445,310.264622719303,0.680336478830306,0.335091319182009
2105,0.249998335952737,-0.249999362044781,-0.25,0.249999996458823,-0.249998401405948,0.0782024198235665,0.25,0.249999931765349,0.671847091051623,0.672724960649283,0.04,0.0296931969389244,320.699286034859,0.685772243615337,0.343615515927
2165,0.208331807956676,-0.249999037855067,-0.25,0.249999683654938,-0.249998516261199,0.0701842803789651,0.25,0.249999872411136,0.689732654319933,0.695104792001671,0.04,0.0236500741879719,329.181100384923,0.715376802517631,0.338107430882118
2225,-0.25,-0.249995471768212,-0.25,0.249996242812204,-0.249999779668962,-0.0180152535116512,0.25,0.249999219514794,0.725606052842581,0.717484623354058,0.04,0.00823364420585534,346.506602444226,0.687039237104029,0.37058228085549
2285,-0.249999993014823,-0.249995844213171,-0.25,0.249996555911187,-0.24999741158823,-0.0373404171964489,0.24999109179832,0.20833352306354,0.735909830423189,0.739864454706446,0.04,0.00682431003631823,351.415369545916,0.692539202106733,0.372847354513072
2345,-0.249999916177874,-0.249999941107719,-0.25,0.25,-0.249971362700177,-0.249917217729225,0.249893101579836,-0.19263276324077,0.73560158841071,0.762244286058833,0.04,1.72794584872493e-07,351.058738228691,0.761828901783949,0.338592254557434
2405,-0.249999869303816,-0.208469797832043,-0.249999516330635,0.249999995796149,-0.249972630978585,-0.24992411625179,0.249891307077959,-0.208323376408568,0.768661224665008,0.78462411741122,0.04,1.60489239514946e-06,367.350423320903,0.895149047031068,0.301536484514416
2465,-0.249999353689176,0.248361778200397,-0.249994195967621,0.249999949553791,-0.249986582041074,-0.25,0.249871567557318,0.25,0.784350996637956,0.807003948763608,0.04,0.0195861077693003,374.136086181297,0.923452245261983,0.2976938299697
2525,-0.208334214649634,0.206832120266198,-0.249994679636986,0.208333309586524,-0.218699184879408,-0.208333333333333,0.249876884180215,0.211452204165764,0.819965979495772,0.829383780115995,0.04,0.0215811602910301,391.565790980661,0.99527541906357,0.28907873188535
2585,0.249982314785324,-0.249994117009999,-0.25,-0.249999730053409,0.125462183898912,0.25,0.249935367032075,-0.212573550010838,0.846669084879604,0.851763611468383,0.04,0.0268524645212122,404.061329272219,1.03279881079038,0.28746583411067
2645,0.208317122197918,-0.249993067415872,-0.208333507326789,-0.249999094555954,0.118422507320346,0.249999999993476,0.2499402509118,-0.215688277291816,0.869954675063935,0.87414344282077,0.04,0.0321463895443904,415.153311894539,1.06259377777019,0.287075357719993
2705,-0.249999996263549,-0.249981521880474,0.249997912078532,-0.249992104083955,0.0409860649561136,0.249999999921707,0.249993973588769,-0.249950277382578,0.896275283736465,0.896523274173158,0.04,0.0343277121033717,427.999520514053,1.07261744614705,0.293192665808265
2765,-0.208460540692235,-0.249983061722572,0.249995044436114,-0.240679714067521,0.0584038457131876,0.249998007423785,0.249993977581685,-0.22952117478626,0.916858789828137,0.91575967885089,0.04,0.0382389627454731,437.446423205141,1.07717551475037,0.298396052290439
2825,0.248473470592225,-0.249999999985652,0.249963500369517,-0.138243423886746,0.249999434041001,0.249976089946637,0.249994021503768,-0.00480104622675913,0.894078025530019,0.900418390107418,0.04,0.0639891833628987,426.594439302367,1.11292860909381,0.281645333397924
2885,0.206946295874041,-0.249993835176669,0.249962424779212,-0.139279017198694,0.20833982410414,0.249978082451084,0.249994519710002,0.0164323460660005,0.893619336498883,0.885077101363946,0.04,0.0704239327221223,426.228212694407,1.07697560949827,0.290797722854159
2945,-0.249852626025985,-0.249926022277866,0.249950593285857,-0.150670543630128,-0.249915885201335,0.25,0.249999999978578,0.249999661286357,0.889569284105034,0.869735812620474,0.04,0.0619615214452187,424.490688678243,0.976370354391154,0.319453948292965
3005,-0.249864907190486,-0.249932084487843,0.249951873134741,-0.15894729532427,-0.249922864869876,0.249999661598231,0.249999999877189,0.249999689234858,0.866620243066861,0.854394523877002,0.04,0.0668336313163548,413.315726699216,0.889668502323319,0.341356668761118
3065,-0.25,-0.249998768797587,0.249965951472465,-0.24999156395983,-0.249999641223822,0.249995939178774,0.249999998761908,0.249999996668371,0.849688388277278,0.83905323513353,0.04,0.0631364806084216,405.251474164969,0.821972231121373,0.362261460503996
3125,-0.249999999999706,-0.236380472099846,0.249968528736799,-0.208325635188069,-0.249993928383093,0.249996277189004,0.249998557391896,0.208333335199199,0.832132921144527,0.823711946390057,0.04,0.0587132280556252,397.110649783171,0.768686919122074,0.379591710548697
3185,-0.249999999996472,-0.0865792084246966,0.249996878644477,0.249999581301302,-0.249931087135083,0.249999995301527,0.249982702321764,-0.249999940961691,0.816186744248836,0.808370657646585,0.04,0.0634717648182877,389.067225332075,0.714555850061426,0.400076594617335
3245,-0.249999996213038,-0.100180022927675,0.249992322147429,0.249999571400232,-0.24989272057439,0.249999907316951,0.249982949047261,-0.224604754012208,0.795783008265198,0.793029368903113,0.04,0.0556810019159559,379.508439822149,0.69124750773675,0.403406169978737
3305,-0.249999954595262,-0.249788982460432,0.249942200679909,0.249999462488465,-0.249470688406757,0.249998939486614,0.249985663027719,-0.181258620528657,0.781947272074188,0.777688080159641,0.04,0.0443248958364955,372.975214326573,0.66725865110252,0.41071487798256
3365,-0.24999836302194,-0.249806255439945,0.249946698213071,0.249997048030297,-0.24951431553364,0.249999012865634,0.20834325591446,-0.155227534293595,0.764490446695849,0.762346791416169,0.04,0.0394350533560768,364.713996490801,0.650843295688225,0.411747215727199
3425,-0.249980855715396,-0.249996258214576,0.249996171077847,0.249970488990452,-0.249994213929347,0.249999820034857,-0.146769909393055,0.105212453399621,0.746091974599564,0.747005502672697,0.04,0.0350825220658358,355.81427008799,0.625521331393301,0.417961148078352
3485,-0.249980292708379,-0.249996568330659,0.220945348748932,0.249972948240288,-0.249994253496168,0.208333168811516,-0.151538135324593,0.117277774440396,0.733026066131774,0.731664213929225,0.04,0.0309785377968058,349.560503286506,0.616586973426545,0.416564913238918
3545,-0.249974099631193,-0.249999979607562,-0.098613696869133,0.249999999988486,-0.249994688731205,-0.249999994645234,-0.0836805677991987,0.249996305888925,0.733271597025076,0.716322925185753,0.04,0.0111468458447424,349.873297399503,0.546786978985406,0.470161767609027
3605,-0.24997623468363,-0.249999575232637,-0.111226015451513,0.249999769038245,-0.208328530216583,-0.249999251348683,-0.0975402205279611,0.208330860892963,0.70532717861315,0.700981636442281,0.04,0.0125264166284833,336.323543381002,0.516624073284788,0.478340669409465
3665,-0.249999720260444,-0.249995127108465,-0.249961519857691,0.249997228585594,0.249999213444251,-0.249991075086624,-0.249996400544348,-0.249989034062614,0.68388502244602,0.685640347698809,0.04,4.72969578172951e-05,325.862526967153,0.501623027631873,0.477322198399961
3725,-0.249935116090348,-0.24998404897207,-0.249964720048023,0.208330792870128,0.208463948879057,-0.249978518200831,-0.249990769402228,-0.208323281224063,0.66924257802465,0.673615875203407,0.04,0.00391186579844692,319.025101152343,0.498934645226518,0.469824726505728
3785,-0.249224470219289,-0.249862189471726,-0.249999922141675,-0.25,-0.248423961338068,-0.249840392457115,-0.249928826838906,0.25,0.695934363962972,0.698076381436784,0.04,1.08198665253661e-05,332.128209763755,0.501059734692837,0.487047071893172
3845,-0.249289097701015,-0.249872829381333,-0.210061836282049,-0.21656331158028,-0.248533622614514,-0.224496990917306,-0.2082701520559,0.249999913254151,0.695281782418666,0.72253688767016,0.04,5.39499676364021e-06,332.115445094908,0.634870039185151,0.384378348949639
3905,-0.25,-0.249989868387011,0.229257108173831,0.151240261036635,-0.249739896655422,0.0542804260205881,0.249975270557165,0.249998959049816,0.70088475505393,0.746997393903536,0.04,0.0207392650158597,335.169339846083,0.837464222204114,0.294071338238507
3965,-0.249998300688109,-0.234406945360463,0.230985654992714,0.118192281771352,-0.222552203763073,0.0291046748882642,0.249977331344068,0.249998140574154,0.748478521393383,0.771457900136913,0.04,0.023634951428949,357.545858364147,0.996822958883599,0.263553262035178
4025,-0.249979608257309,-0.0629947920684283,0.249999670000427,-0.245335490146765,0.0765124180527682,-0.247828587567299,0.25,0.249989137341867,0.781808093398603,0.795918406370289,0.04,0.0294259512612606,373.081996624828,1.09410177598529,0.250553945259602
4085,-0.208343489782815,-0.0370584809526076,0.249973298110548,-0.245723643477634,0.0904468378642324,-0.206342879263905,0.249999095640484,0.24631269951375,0.810922399505161,0.820378912603666,0.04,0.0369018800958993,387.044376032246,1.16993985226353,0.243081497282679
4145,0.249653813436613,0.248240941321422,0.249683207321878,-0.249993330117191,0.243725455790337,0.249999912073427,0.249989147685804,0.20587188340447,0.822904434717383,0.844839418837042,0.04,0.0647188695530437,393.036499014187,1.31495005559028,0.219623243518383
4205,0.249676954811915,0.248387529544636,0.249691757495465,-0.249993885940758,0.244248334474476,0.24999867032293,0.249990052045321,0.209549226454097,0.867854102495376,0.867261549550971,0.04,0.0701274482920146,414.235792891626,1.34859961862626,0.225693611478166
4265,0.24993150994024,0.25,0.249785809404914,-0.25,0.25,0.24998501106746,0.25,0.25,0.879045735111387,0.867261549550971,0.04,0.0825649960581901,419.430692710859,1.29076580324427,0.238763223185177
4325,0.208270550778553,0.208333545038297,0.249803658612291,-0.249999491338986,0.20833335246516,0.249986260145172,0.237449368227414,0.208333333333333,0.880344097431921,0.867261549550971,0.04,0.0868058194539118,420.325355040399,1.21411634152885,0.254378241170458
4385,-0.25,-0.249997459540434,0.249999999893445,-0.249993896067834,-0.249999770418075,0.25,0.0993924187289689,-0.25,0.908091314313214,0.867261549550971,0.04,0.0566710481354035,433.108422403916,1.01383715410619,0.313894063913975
4445,-0.249999947794091,-0.249997671245397,0.249999982786184,-0.208327738062181,-0.208333123175056,0.249997288119723,0.07027638469987,-0.208344610177459,0.881768166827924,0.867261549550971,0.04,0.0599377825507948,420.377376083121,0.891458768347437,0.346491631795281
4505,-0.249999373529091,-0.25,0.24999979460632,0.25,0.249999996498146,0.249967457436678,-0.249999989620219,0.249864677870491,0.85951427049621,0.867261549550971,0.04,0.068081320814692,410.215234106628,0.913427550438833,0.329983598662161
4565,-0.249999425735001,-0.249999668792598,0.24999981172246,0.249991651697889,0.208333330123301,0.249970141755705,-0.249999165007172,0.220162291893701,0.868833631110368,0.867261549550971,0.04,0.0562150367963743,414.780870260544,0.914574870356973,0.333237701744148
4625,-0.25,-0.249996025511179,0.25,0.249899820374662,-0.25,0.249999669264999,-0.249990094263652,-0.106563953850987,0.884097385834771,0.867261549550971,0.04,0.0389737775242326,421.610668854707,0.829684620788191,0.373381871729691
4685,-0.249999653674135,-0.249996356718581,0.249063726735832,0.249908168676774,-0.208333457053628,0.208333030159583,-0.229195521480082,-0.076850291045497,0.869951167588257,0.867261549550971,0.04,0.0367460732441324,414.792156911941,0.797316411176139,0.382256174278696
4745,-0.249995844089614,-0.25,0.238764720829988,0.25,0.249998515356465,-0.25,-0.000455220860814563,0.249999999814894,0.854593617790493,0.867261549550971,0.04,0.0384941059426563,407.929213912501,0.86101320312964,0.348120560119535
4805,-0.249993178789384,-0.25,0.198034349503782,0.249999999902771,0.249998609735756,-0.249999606147839,0.0204099529335834,0.208335255357833,0.866040963256899,0.867261549550971,0.04,0.0355629689746632,413.333609128219,0.879311841393217,0.345392159560331
4865,-0.249963860486848,-0.25,-0.249999735084483,0.249999998833249,0.249999647907969,-0.249995273774062,0.249926864671961,-0.249976933669842,0.881704356077145,0.867261549550971,0.04,0.0226759139381539,420.624848855093,0.810936304617722,0.381120981384932
4925,-0.249966830830133,-0.25,-0.249999757160776,0.208333343684917,0.208333010787835,-0.249995667626224,0.221897109247593,-0.238202393125678,0.868836423007394,0.867261549550971,0.04,0.0218211710124584,414.630603130703,0.790667684319939,0.385320433988548
4985,-0.249999504606267,-0.25,-0.25,-0.249999862946731,-0.249999997533639,-0.25,-0.0864302004204561,-0.108682447139865,0.887427799646292,0.867261549550971,0.04,0.000116272830122451,422.890047910698,0.65842819247671,0.471925802405455
5045,-0.249999540682937,-0.249999921035211,-0.208333400329372,-0.249999722879789,-0.249999997739169,-0.208333422109689,-0.0583943503854181,-0.0787922432115425,0.862404005292985,0.867261549550971,0.04,5.75801436783852e-05,411.645176677804,0.64770790273519,0.46698024792337
5105,-0.249999937526311,-0.249999052422536,0.249999196047531,-0.249998182143426,-0.25,0.24999893468373,0.25,0.25,0.828278180422419,0.867261549550971,0.04,0.0303212010234839,395.432520350869,0.818102109286567,0.355156319472411
5165,-0.211362564041436,-0.249999128539334,0.24999926304357,-0.249998333631474,-0.208333535579775,0.249999023460085,0.24999968692169,0.24999996195642,0.855524907998428,0.867261549550971,0.04,0.0290713579859745,408.367908664399,0.906230431318049,0.331106449680767
5225,0.213648544292194,-0.249999965824105,0.25,-0.25,0.249997573042697,0.25,0.249996243060283,0.24999954347704,0.839939447748797,0.867261549550971,0.04,0.0487539740465957,400.833639410296,1.06287642125133,0.277099706269361
5285,0.216677807837046,-0.208333345484049,0.249999899374098,-0.249999998851705,0.249997720237671,0.249999755312615,0.249996556138592,0.249999510416756,0.864032916698391,0.867261549550971,0.04,0.0557576264617178,412.303022615457,1.11494798201994,0.271716861212196
5345,0.249999706830417,0.249999478256567,0.249998792489174,-0.249999986220459,0.249999339382377,0.249997063751379,0.25,0.249999146753635,0.866210600315613,0.867261549550971,0.04,0.0769779544164243,413.307721320216,1.13011208468131,0.268724136494776
5405,0.249999431972824,0.249999521735186,0.249998878775442,-0.249999981987313,0.249999394433845,0.249997308438763,0.249999863285081,0.249999217857498,0.871793689843485,0.868680875531161,0.04,0.0809789610686634,415.994278619812,1.11231168509511,0.274799244420034
5465,0.249996408539312,0.25,0.249999827924389,-0.24999993542271,0.25,0.25,0.249998359420966,0.25,0.884635142298455,0.885712787293445,0.04,0.0773620419600695,422.185546917518,1.11485860630153,0.278251969556425
5525,0.208331836561771,0.209118711799577,0.249977680014811,-0.249999940804151,0.208398537928835,0.249958983928692,0.249985565483911,0.208333333333333,0.901930780140389,0.902744699055728,0.04,0.0696571688137934,430.747428526983,1.12339631743423,0.281737316603126
5585,-0.249978455191177,-0.240575458405076,0.249734053009457,-0.25,-0.249217544853981,0.249507807144303,0.249844832176309,-0.25,0.95163040860786,0.918357284837822,0.04,0.032044492518254,454.063870016848,0.985973947011666,0.338381166447876
5645,-0.249823011834187,-0.241352627559194,0.249756215258669,-0.208333333333333,-0.249282749449483,0.249507124087988,0.249384234496236,-0.249916012133389,0.929145980014911,0.918357284837822,0.04,0.0365072188307908,443.181382532801,0.893017563267273,0.364649971420307
5705,-0.248113134907291,-0.249901488254486,0.25,0.25,-0.25,0.249499610468522,0.244317660015429,-0.24579358057178,0.91673748119837,0.918357284837822,0.04,0.0410271713069112,437.367406669624,0.885559181169505,0.362897103483682
5765,-0.248270373665017,-0.249892953106922,0.24999383649347,0.25,-0.249996272798828,0.249541309596145,0.235163311013045,-0.24239681034839,0.918850605826671,0.918357284837822,0.04,0.0348587187968768,438.425585467179,0.883594026437026,0.364584159741926
5825,-0.25,-0.249799066483718,0.249926037921636,0.25,-0.249955273585936,0.25,0.134465471986818,-0.249463435202086,0.920537048839041,0.918357284837822,0.04,0.0305142533641036,439.146247784231,0.871252062985508,0.370356552845938
5885,-0.25,-0.249815810943408,0.2082655347615,0.25,-0.249959000787108,0.223567351962161,0.102650971364787,-0.208333333333333,0.917477951639966,0.918357284837822,0.04,0.0281607275755772,437.674531491706,0.871810985208352,0.368878730671745
5945,-0.25,-0.25,-0.25,0.25,-0.25,-0.0671917764540685,-0.247308535477548,0.25,0.93426531022053,0.918357284837822,0.04,0.0119954450847811,445.881731556715,0.815472489095492,0.401758469661435
6005,-0.249788201374222,-0.25,-0.249999947457793,0.25,-0.208502271250638,-0.0824120159134159,-0.205884025753119,0.249933570693323,0.919622939044109,0.918357284837822,0.04,0.0157021978666106,438.473425335661,0.796841978644333,0.40432048747443
6065,-0.247458416490669,-0.25,-0.249999369493521,0.25,0.247972744992339,-0.249834649966237,0.249785581215605,0.249202848319873,0.901827147485361,0.918357284837822,0.04,0.0279800087167423,430.472624499421,0.885420098525835,0.357232397605713
6125,-0.247667052917876,-0.25,-0.216011392973844,0.208333333333333,0.206475016242977,-0.249848428818443,0.210960912509682,0.249269277626551,0.913296008100754,0.918357284837822,0.04,0.0269333976109385,436.192904613291,0.924828832241905,0.346554795095061
6185,-0.249962053617153,-0.25,0.157856348742605,-0.25,-0.25,-0.249999996192712,-0.216110443255472,0.25,0.937103899714902,0.918357284837822,0.04,0.0162736280021227,446.793310918947,0.83812082797823,0.391701022700952
6245,-0.249965215815723,-0.25,0.165532543375108,-0.249999992211517,-0.249444056974594,-0.208611003924022,-0.177278879929777,0.249999428724085,0.919337330798938,0.917294356477349,0.04,0.02144958407228,438.227104179544,0.821317931313641,0.392051036772111
6305,-0.25,-0.25,0.249970684332636,-0.249999906538207,-0.243328683695122,0.246667911031561,0.249868316652876,0.249993144689023,0.887481203898753,0.904539216151673,0.04,0.0407310463115437,423.624690565037,0.916239745673099,0.33972445745356
6365,-0.25,-0.25,0.249972857137535,-0.249997819825481,-0.202219843616734,0.225998862826908,0.249878614553716,0.249992661619072,0.890334795166791,0.891784075825998,0.04,0.0438327818667273,424.672925762622,0.936792366149809,0.333093307897664
6425,-0.25,-0.25,0.249996757991426,-0.249974865985502,0.249977397245534,-0.00136066742427511,0.24999189146295,0.249987347849611,0.875884806795048,0.879028935500322,0.04,0.0519148267908249,417.854764254065,0.957415140883375,0.32068580995271
6485,-0.208333333333333,-0.208568248233981,0.249996936469395,-0.249960429108487,0.249967685932944,-0.0121984805407228,0.249986713048226,0.248370511904306,0.870670281604005,0.866273795174647,0.04,0.0562672063031116,415.635865541262,0.942604580822716,0.32399487938252
6545,0.25,0.247181021192228,0.249998899727054,-0.249801623461317,0.249860861494444,-0.131414424821648,0.24992975048625,0.23058531650595,0.852499024651073,0.853518654848972,0.04,0.0821563779149059,406.586559263491,0.956179337954039,0.312441230345807
6605,0.249988121841249,0.247414038316187,0.249998991416466,-0.24981815483954,0.249853026430675,-0.0996298894198438,0.249927918225509,0.232018636122453,0.846458986918281,0.840763514523296,0.04,0.0834897032176559,403.684656846471,0.930742020374761,0.318689384859869
6665,0.249857462094985,0.24997722667974,0.25,-0.25,0.249766840729215,0.25,0.24990776335736,0.247785151903988,0.829436784071664,0.828008374197621,0.04,0.0896262401758835,395.692682658549,0.916063357891752,0.317385574344733
6725,0.20820282055746,0.216432562847097,0.25,-0.208333333333333,0.249786270668446,0.25,0.217224820218221,0.206303055911989,0.821764185106743,0.815253233871945,0.04,0.0853944872560478,392.210583400797,0.884562206840232,0.325795892560294
6785,-0.249998236355316,-0.152558739311971,0.25,0.25,0.25,0.25,-0.142287554312304,-0.145371876308952,0.825017998499013,0.80249809354627,0.04,0.0610920644562379,393.505157854128,0.757548034490925,0.381676068248988
6845,-0.249998383325707,-0.160678844369306,0.25,0.249999993797744,0.25,0.25,-0.0705616998998683,-0.0705616998998683,0.793242751463585,0.789742953220595,0.04,0.0586824191257174,378.292053355206,0.709649239739467,0.39168609369873
6905,-0.25,-0.25,0.25,0.249999925572932,0.25,0.25,-0.0333325819324501,0.25,0.770282609040835,0.776987812894919,0.04,0.0517529851875423,367.553245511373,0.725907699732223,0.372043340547856
6965,-0.249999908371237,-0.25,0.25,0.249999931775188,0.25,0.25,-0.0157458272527298,0.249991513099705,0.76511240383139,0.764232672569244,0.04,0.047431129828031,364.947468596757,0.726033717251905,0.369341613329467
7025,-0.249998900454839,-0.25,0.25,0.25,0.25,0.25,-0.00743750303282694,0.249898157196456,0.753065519587493,0.751477532243569,0.04,0.0476684524665398,359.187725756407,0.716601672069476,0.368297140143557
7085,-0.249998992083602,-0.249999936069255,0.25,0.25,0.249997979931483,0.218361254261928,-0.00351814674810812,0.208239977430085,0.740687615734131,0.738722391917893,0.04,0.0459697430803062,353.484476438346,0.705675872695436,0.368060959054814
7145,-0.25,-0.249999232831055,0.25,0.25,0.249975759177795,-0.129664948856865,0.25,-0.0025653850939884,0.727714196960219,0.725967251592218,0.04,0.041010909847087,347.065096174405,0.656601264689884,0.388386298893758
7205,-0.25,-0.249998790754,0.208334465685628,0.25,0.249977779246312,-0.139692155389583,0.25,-0.00213307527800615,0.715351246503203,0.713212111266542,0.04,0.0376141501618669,341.167414288165,0.642562541656762,0.390127725381874
7265,-0.25,-0.249993927906393,-0.249986411772461,0.25,0.25,-0.249991427249486,0.25,-0.0157436602835893,0.712335274280423,0.700456970940867,0.04,0.0132739098702368,339.891356456172,0.588962323229669,0.424040446884621
7325,-0.208334215217546,-0.249994433914194,-0.249987407514643,0.208333336396759,0.208333788944546,-0.249989035661564,0.215377763221896,-0.0262982094228032,0.691731561614301,0.687701830615191,0.04,0.0125049200375822,329.917776690279,0.554860954969967,0.436894148620052
7385,0.249989417389445,-0.25,-0.249998360678646,-0.249999963238889,-0.249994532665447,-0.249962728194423,-0.118906758551923,0.249991399579329,0.684574163450004,0.674946690289516,0.04,0.000109404503806932,326.464984426853,0.473371688248923,0.506744453170214
7445,0.208328683912093,-0.249999773006999,-0.208331830622092,-0.249998016528895,-0.24999498827666,-0.208299169508465,-0.130844606149245,0.249991382732047,0.663516402003823,0.662191549963841,0.04,0.00017250259307176,316.561522615106,0.455534036407808,0.51061312099026
7505,-0.249939384338779,-0.249997276083984,0.25,-0.249976602718961,-0.25,0.249999976037068,0.249999980918787,0.249991197411944,0.629801158802377,0.649436409638165,0.04,0.0316187851003125,300.523543925325,0.562595477596992,0.392497541798977
7565,-0.246798545824884,-0.217566657477925,0.249999927283368,-0.249978552492381,-0.208333557780208,0.249999973838517,0.249999964464672,0.249991913587195,0.63241710032224,0.63668126931249,0.04,0.0323916055887699,301.823871309955,0.584049089473951,0.379716011386101
7625,-0.212249322172043,0.139170147188717,0.24999912740042,-0.25,0.249997306637509,0.24999994965446,0.2499997834694,0.249999791514956,0.603344119039004,0.623926128986814,0.04,0.0597110514071139,287.795485219308,0.700051915774963,0.302070562652033
7685,-0.173729186878474,0.148405959244062,0.249999180392394,-0.25,0.249997124301796,0.249999274180708,0.249999674879019,0.249999808888709,0.611685816704122,0.611170988661139,0.04,0.0651803181825309,291.918027810758,0.724611538500236,0.296012702042501
7745,0.249992301350781,0.249999891852851,0.24999976330411,-0.25,0.249995118608948,0.249991843969428,0.249998480384832,0.25,0.601236812992609,0.598415848335464,0.04,0.0946886004154942,286.767423364988,0.717604440821066,0.293629288530395
7805,0.249992942904882,0.249996103723634,0.249999783028768,-0.25,0.249993064834399,0.249992483672121,0.249998350823065,0.249999992834321,0.594169786706349,0.585660708009788,0.04,0.0982349637486821,283.39210461343,0.673976480584457,0.308956745267221
7865,0.25,0.249954434302254,0.25,-0.25,0.249970473314357,0.249999520401741,0.249996925643628,0.249999914011852,0.580072112087613,0.572905567684113,0.04,0.0994025273680178,276.621505828414,0.624346565588096,0.325547894096849
7925,0.208333333339118,0.249957923587202,0.25,-0.249999252626407,0.249972933871494,0.249999290310072,0.208330641601853,0.208333851174033,0.564145256344699,0.563152014511155,0.04,0.095796194892027,269.20114107315,0.598177042560694,0.330675357293741
7985,-0.249999999930586,0.249996305721634,0.25,-0.249991031516882,0.25,0.249996759301718,-0.0194030296391008,-0.0194030296391008,0.581821918537936,0.58641592001809,0.04,0.0535528534785598,277.701939661782,0.588496157828545,0.346728832850604
8045,-0.249999980111551,0.249996613578164,0.24999998589176,-0.208325112412402,0.249999983013617,0.249996738938759,-0.0101599366046819,-0.0101599366046819,0.601138753519215,0.609679825525024,0.04,0.0343085300335045,286.994981328731,0.635508736133056,0.331823739682728
8105,-0.24999976210216,0.25,0.249999830701117,0.24999999773689,0.249999796163407,0.249996514946204,-0.00761938322759582,0.249964042582444,0.611052142567387,0.632943731031959,0.04,0.0469479071752975,291.787535472514,0.736997998029501,0.290907624499288
8165,-0.249779212152303,0.248374683914134,0.24999984463585,0.249997305379328,0.233523154567177,0.249994387315174,-0.00360808329957921,0.249943802965498,0.646579626038509,0.656207636538893,0.04,0.0408667233325563,308.727027708956,0.811907151060408,0.279397786699952
8225,-0.247353162703873,0.230496206969609,0.249999997917913,0.249967689446144,0.052280097008649,0.249970983373845,0.249946490832927,0.249721167179098,0.671290700357304,0.679471542045828,0.04,0.0433823587828322,320.528885709851,0.863313474468572,0.272805631183486
8285,-0.247573732478551,0.190454868732556,0.208333331424754,0.249961436246942,0.0679420798613866,0.208306877193046,0.249950905777237,0.249744389899469,0.698108686557669,0.702735447552763,0.04,0.0438741700157394,333.299393140393,0.896498501226483,0.273174169460724
8345,-0.25,-0.24999985187503,-0.25,0.249892651055712,0.240223891241498,-0.24999829079574,0.249999470164649,0.249999839823556,0.745233314424629,0.725999353059697,0.04,0.014961581215034,356.002671919263,0.828710973975085,0.315649309691959
8405,-0.249999586530205,-0.249999852710828,-0.249999998855677,0.24990159680107,0.241036530581609,-0.249998433229429,0.249999514317595,0.249999729003872,0.750411465928672,0.749263258566632,0.04,0.0193835942481976,358.164274125957,0.804135477810772,0.327271145854846
8465,-0.249995038362456,-0.249999861904596,-0.249999986268122,0.25,0.249975563322823,-0.25,0.25,0.249998509987342,0.770311987985411,0.772527164073567,0.04,0.0183165329666737,367.683457809806,0.813182649335782,0.332231390533479
8525,-0.249995451832251,-0.222493047184526,-0.235372237132233,0.208491185160026,0.249977548888035,-0.208333436751005,0.208416444266619,0.249996099645636,0.792053646965479,0.795791069580501,0.04,0.0170779428436155,378.238673799629,0.834569129442106,0.33301077983214
8585,-0.25,0.0800819147362429,-0.0744669966374547,-0.248105778079683,0.249999390105367,0.249998758987942,-0.194003791079894,0.249969585886867,0.809720749926021,0.819054975087436,0.04,0.020475071039844,386.438654392191,0.878143332252188,0.323347739668171
8645,-0.208339601339004,0.0525751236748745,-0.0890946588388568,-0.248263283343037,0.24999015485154,0.249998472612,-0.207420204659662,0.249969842578955,0.8367262730651,0.842318880594371,0.04,0.0205848903274833,399.360488742951,0.916403898119671,0.32020849069945
8705,0.249924783931958,-0.249999578000178,-0.249998943054279,-0.249995841239926,0.249888567059439,0.249995322476637,0.249986900890365,0.249972666191927,0.851156067915146,0.865582786101305,0.04,0.0310844132003815,406.356219031458,0.994639570037629,0.300189746530506
8765,0.249928196642727,-0.249999609159023,-0.249999031133089,-0.249996187803265,0.208231186471152,0.249955480165169,0.208831889713867,0.214027374195834,0.882348612432759,0.886908032815995,0.04,0.0301479785309928,421.659854212074,1.04548358297808,0.296346439002914
8825,0.249965736461185,-0.249999951906314,-0.25,-0.25,-0.25,0.249517214739023,-0.243873233227617,-0.181370837761187,0.915483213169599,0.886908032815995,0.04,0.0173963603572946,436.390207034676,0.910346746591223,0.352227149319416
8885,0.249966200733892,-0.249999802729304,-0.208334288422096,-0.249999999984197,-0.24999999857533,0.221203963460403,-0.244383797124029,-0.187089933130716,0.893904498646772,0.886908032815995,0.04,0.0236988004409773,426.531880735641,0.847950936100894,0.369602967943292
8945,0.249971307733678,-0.249998161782195,0.249988538934851,-0.249999999810359,-0.249999982903965,-0.0902418006044202,-0.249999999984561,-0.24999998219554,0.888114436812911,0.886908032815995,0.04,0.0259781287750083,423.611318852056,0.832646821988223,0.373819027550774
9005,0.249973087874396,-0.249998314967012,0.249989494023613,-0.249999989561497,-0.249999980044036,-0.0618885848406455,-0.219915755318221,-0.249262480598691,0.887041955927972,0.886908032815995,0.04,0.0260699902972326,423.016179980676,0.82973818686466,0.374602418857232
9065,0.249992669422296,-0.25,0.25,-0.249999876824014,-0.249999948584812,0.249996788560876,0.111010936011517,-0.241149963033345,0.87496344112454,0.886908032815995,0.04,0.0396264405384987,417.624122437239,0.891389044681556,0.344249216193681
