time,bias_percent_1,bias_percent_2,bias_percent_3,bias_percent_4,bias_percent_5,bias_percent_6,bias_percent_8,bias_percent_9,normalized_power,power_SP,SP,CV,total_power_MW,fuel_fraction,thermal_efficiency
49,0,0,0,0,0,0,0,0,0.999799192714106,1,0.04,0.039917362807388,477.007634951043,0.999958020064482,0.350508245303429
109,-0.026185366355112,0.0208755261754883,-0.0242211846234557,-0.0238896545994322,-0.0254157099109364,0.00405117390234091,0.0279562581986627,-0.0272276310025322,0.982791581539575,0.971328587853548,0.04,0.0459382428649093,468.647215513279,0.95103685919956,0.362079025807065
169,-0.0582490802593309,0.0464373949618003,-0.0538797780399319,-0.0531422928844513,-0.0565369873528991,0.009011795007248,0.0621884110949843,-0.0605675873321636,0.949034993256537,0.936220736245647,0.04,0.0526121343794299,452.502254101048,0.872779428160789,0.380952582530198
229,-0.0903127941635496,0.0719992637481124,-0.0835383714564082,-0.0823949311694703,-0.087658264794862,0.0139724161121551,0.0964205639913059,-0.0939075436617949,0.913130033951973,0.901112884637747,0.04,0.0547932274257209,435.367126268665,0.797028365037367,0.401362258583519
289,-0.122376508067768,0.0975611325344246,-0.113196964872884,-0.111647569454489,-0.118779542236825,0.0189330372170623,0.130652716887628,-0.127247499991426,0.877041943850383,0.866005033029846,0.04,0.053375452631257,418.150216303658,0.72711357150331,0.422556465576705
349,-0.154440221971987,0.123123001320737,-0.142855558289361,-0.140900207739508,-0.149900819678788,0.0238936583219694,0.164884869783949,-0.160587456321058,0.841375417711186,0.830897181421945,0.04,0.0495072902573981,401.126467567985,0.6630823292307,0.444496699877252
409,-0.186503935876206,0.148684870107049,-0.172514151705837,-0.170152846024527,-0.181022097120751,0.0288542794268766,0.199117022680271,-0.193927412650689,0.804906812776599,0.795789329814045,0.04,0.0439287832690461,383.946259148434,0.605704268281108,0.465762460925562
