time,bias_percent_1,bias_percent_2,bias_percent_3,bias_percent_4,bias_percent_5,bias_percent_6,bias_percent_8,bias_percent_9,normalized_power,power_SP,SP,CV,total_power_MW,fuel_fraction,thermal_efficiency
32,0,0,0,0,0,0,0,0,0.999620875550017,1,0.04,0.0399816325672792,476.926414708071,0.999656501683247,0.350554267144667
92,0.0141692287888146,-0.00878701028889634,-0.00373961849189971,-0.00562026850392726,-0.00366097336540986,-0.016821784685574,-0.00367074522865045,0.0113944947913207,0.991886025366817,0.984602665356567,0.04,0.0432627091201771,473.052299731027,0.977919062919591,0.355435598602504
152,0.0407365327678417,-0.0252626545805772,-0.0107514031642119,-0.016158271948791,-0.0105252984255536,-0.0483626309710254,-0.01055339253237,0.0327591725250468,0.965521663776816,0.95573266290013,0.04,0.0502319127912379,460.422713609645,0.919814050111984,0.367799705621299
212,0.0673038367468689,-0.0417382988722579,-0.0177631878365239,-0.0266962753936548,-0.0173896234856973,-0.0799034772564767,-0.0174360398360897,0.054123850258773,0.936334924848661,0.926862660443693,0.04,0.0539634988817787,446.489725392751,0.860553173301288,0.381231199224914
272,0.093871140725896,-0.0582139431639387,-0.0247749725088358,-0.0372342788385185,-0.0242539485458409,-0.111444323541928,-0.0243186871398092,0.0754885279924992,0.906800727017298,0.897992657987257,0.04,0.0548490661467803,432.400686277598,0.804975910304878,0.394691857489007
332,0.120438444704923,-0.0746895874556193,-0.0317867571811479,-0.0477722822833821,-0.0311182736059844,-0.142985169827379,-0.0312013344435288,0.0968532057262253,0.877400288864632,0.86912265553082,0.04,0.0540361519448432,418.37376753809,0.752777266660808,0.408368868768438
392,0.147005748683951,-0.0911652317473001,-0.0387985418534599,-0.0583102857282458,-0.0379825986661281,-0.174526016112831,-0.0380839817472484,0.118217883459952,0.848167078485551,0.840252653074383,0.04,0.052110474344826,404.419117690702,0.703856224623238,0.42218461013277
452,0.173573052662978,-0.107640876038981,-0.045810326525772,-0.0688482891731096,-0.0448469237262718,-0.206066862398282,-0.044966629050968,0.139582561193678,0.818462834211624,0.811382650617946,0.04,0.0495606076625906,390.25666756449,0.658862887383789,0.435221120626301
512,0.200140356642005,-0.124116520330662,-0.0528221111980841,-0.0793862926179733,-0.0517112487864155,-0.237607708683733,-0.0518492763546876,0.160947238927404,0.788880791021219,0.78251264816151,0.04,0.0463448421442443,376.343992345819,0.618058961931055,0.447414192026196
572,0.226707660621032,-0.140592164622342,-0.0598338958703961,-0.0899242960628371,-0.058575573846559,-0.269148554969185,-0.0587319236584072,0.18231191666113,0.759800211323212,0.753642645705073,0.04,0.0433409100439129,362.253601127755,0.580025647069872,0.458902253628166
