time,bias_percent_1,bias_percent_2,bias_percent_3,bias_percent_4,bias_percent_5,bias_percent_6,bias_percent_8,bias_percent_9,normalized_power,power_SP,SP,CV,total_power_MW,fuel_fraction,thermal_efficiency
2,0,0,0,0,0,0,0,0,1.00591532894638,1,0.04,0.0415824002451904,479.848782055956,0.991787018211258,0.35550085839512
62,-0.000821971892424244,0.00103686052577063,0.00116107430123247,-0.000100470167844151,0.000134245958351698,0.000250573240224298,0.00109875697454879,0.00047503439758151,0.99987531541128,0.999292696429518,0.04,0.039980284391268,477.039914555632,0.999315587904264,0.350757311799866
122,-0.0254811286651492,0.0321426762988914,0.0359933033382067,-0.00311457520316787,0.00416162470890527,0.00776777044695598,0.0340614662110127,0.0147260663250262,0.983088792067802,0.978073589315068,0.04,0.0475752973396396,468.870248752647,0.97198181866932,0.354445291292308
182,-0.0501402854378741,0.063248492072012,0.0708255323751811,-0.00612868023849148,0.0081890034594586,0.0152849676536877,0.0670241754474767,0.028977098252471,0.961898845622884,0.956854482200619,0.04,0.0536798665265526,458.823592317535,0.939800562712775,0.358727537587562
242,-0.0747994422105992,0.0943543078451326,0.105657761412155,-0.00914278527381532,0.0122163822100121,0.0228021648604192,0.0999868846839406,0.0432281301799158,0.940576876419422,0.935635375086169,0.04,0.0578724546690538,448.578306675134,0.908349103305115,0.3628608818395
302,-0.0994585989833241,0.125460123618253,0.14048999044913,-0.012156890309139,0.0162437609605656,0.0303193620671508,0.132949593920405,0.0574791621073605,0.919096818353224,0.914416267971719,0.04,0.0606657010436849,438.330418546272,0.87868571666902,0.366541134387705
362,-0.124117755756049,0.156565939391374,0.175322219486104,-0.0151709953444628,0.020271139711119,0.0378365592738824,0.165912303156868,0.0717301940348052,0.897647741069319,0.893197160857269,0.04,0.0625643986552784,428.097293937758,0.850464410794108,0.36986310767834
422,-0.148776912528774,0.187671755164494,0.210154448523078,-0.0181851003797865,0.0242985184616724,0.0453537564806139,0.198875012393332,0.08598122596225,0.87622601965208,0.871978053742819,0.04,0.0638543547355087,417.877199155772,0.823513289467715,0.372848791220003
482,-0.173436069301499,0.218777570937615,0.244986677560053,-0.0211992054151102,0.028325897212226,0.0528709536873457,0.231837721629796,0.100232257889695,0.854829407926831,0.85075894662837,0.04,0.0647065488201415,407.669067710542,0.797677792037997,0.375521610948673
542,-0.198095226074224,0.249883386710736,0.279818906597027,-0.0242133104504339,0.0323532759627793,0.0603881508940772,0.26480043086626,0.114483289817139,0.833455682371611,0.82953983951392,0.04,0.0652234070965543,397.471831901869,0.772815461393878,0.377907255836661
602,-0.222754382846949,0.280989202483857,0.314651135634001,-0.0272274154857578,0.0363806547133327,0.0679053481008086,0.297763140102724,0.128734321744584,0.8119980994143,0.80832073239947,0.04,0.0655728404268968,387.228140255192,0.748964683631276,0.379892086621622
662,-0.247413539619674,0.312095018256977,0.349483364670975,-0.0302415205210814,0.0404080334638862,0.0754225453075404,0.330725849339188,0.142985353672029,0.789362955312825,0.78710162528502,0.04,0.0666593952311746,376.42587572786,0.731326740676656,0.378201016860523
722,-0.272072696392399,0.343200834030098,0.38431559370795,-0.0332556255564051,0.0444354122144396,0.082939742514272,0.363688558575652,0.157236385599474,0.767204783094575,0.76588251817057,0.04,0.068314479520033,365.860144045723,0.72078737666189,0.372960299721288
782,-0.296731853165124,0.374306649803218,0.419147822744924,-0.0362697305917288,0.048462790964993,0.0904569397210035,0.396651267812116,0.171487417526918,0.745668453529549,0.744663411056121,0.04,0.0708686286324331,355.588786742234,0.713274427806053,0.366307726716955
842,-0.321391009937849,0.405412465576339,0.453980051781898,-0.0392838356270524,0.0524901697155466,0.0979741369277352,0.42961397704858,0.185738449454363,0.724441819422144,0.723444303941671,0.04,0.0742379699902986,345.463004099598,0.70630344754121,0.359389095288965
902,-0.34522819481815,0.435481420823689,0.48765120651764,-0.0421974704945321,0.0563833025077482,0.105240760894242,0.461477929310495,0.199514446984226,0.703316846142423,0.702932500397702,0.04,0.0780644499335066,335.385524415455,0.699682950555954,0.352206769484782
962,-0.34522819481815,0.435481420823689,0.48765120651764,-0.0421974704945321,0.0563833025077481,0.105240760894242,0.461477929310495,0.199514446984226,0.697958451674451,0.702932500397702,0.04,0.0708791205555485,332.996179398955,0.726060121932347,0.336993359187516
1022,-0.34522819481815,0.435481420823689,0.48765120651764,-0.0421974704945321,0.0563833025077481,0.105240760894242,0.461477929310495,0.199514446984226,0.699124907387962,0.702932500397702,0.04,0.0664955718406725,333.564835232873,0.752001869798562,0.325923755896227
1082,-0.34522819481815,0.435481420823689,0.48765120651764,-0.0421974704945321,0.0563833025077482,0.105240760894242,0.461477929310495,0.199514446984226,0.700492495428257,0.702932500397702,0.04,0.0654339350220209,334.213930037558,0.769223842916579,0.319246751224599
1142,-0.34522819481815,0.435481420823689,0.48765120651764,-0.0421974704945321,0.0563833025077482,0.105240760894242,0.461477929310495,0.199514446984226,0.701398394986659,0.702932500397702,0.04,0.0656902948503881,334.642762697108,0.780072629679384,0.315210788327843
1202,-0.34522819481815,0.435481420823689,0.48765120651764,-0.0421974704945321,0.0563833025077481,0.105240760894242,0.461477929310495,0.199514446984226,0.701954600285766,0.702932500397702,0.04,0.066252884091683,334.905938717015,0.786942348450808,0.312704843416311
1262,-0.34522819481815,0.435481420823689,0.48765120651764,-0.0421974704945321,0.0563833025077481,0.105240760894242,0.461477929310495,0.199514446984226,0.702293876957632,0.702932500397702,0.04,0.0667683595109921,335.066501065614,0.79138747449504,0.311097495306667
1322,-0.34522819481815,0.435481420823689,0.48765120651764,-0.0421974704945321,0.0563833025077481,0.105240760894242,0.461477929310495,0.199514446984226,0.702505610932303,0.702932500397702,0.04,0.0671560820024142,335.166756966828,0.794335004230791,0.31003584810225
1382,-0.34522819481815,0.435481420823689,0.48765120651764,-0.0421974704945321,0.0563833025077481,0.105240760894242,0.461477929310495,0.199514446984226,0.702642436769075,0.702932500397702,0.04,0.0674266032595364,335.2315821123,0.796327324010902,0.309319988422655
1442,-0.34522819481815,0.435481420823689,0.48765120651764,-0.0421974704945321,0.0563833025077481,0.105240760894242,0.461477929310495,0.199514446984226,0.70273363040213,0.702932500397702,0.04,0.0676102170178777,335.274805947035,0.797689604846257,0.308831551724479
1502,-0.34522819481815,0.435481420823689,0.48765120651764,-0.0421974704945321,0.0563833025077482,0.105240760894242,0.461477929310495,0.199514446984226,0.702795610631979,0.702932500397702,0.04,0.0677340881588254,335.304189945918,0.798626263269493,0.308496377383663
1562,-0.34522819481815,0.435481420823689,0.48765120651764,-0.0421974704945321,0.0563833025077482,0.105240760894243,0.461477929310495,0.199514446984226,0.702838129135405,0.702932500397702,0.04,0.0678178562587536,335.324349361454,0.79927171265161,0.308265784772537
1622,-0.34522819481815,0.435481420823689,0.48765120651764,-0.0421974704945321,0.0563833025077481,0.105240760894242,0.461477929310495,0.199514446984226,0.702867388125053,0.702932500397702,0.04,0.0678747465683026,335.338222215316,0.799716920273331,0.308106917502977
1682,-0.34522819481815,0.435481420823689,0.48765120651764,-0.0421974704945321,0.0563833025077481,0.105240760894242,0.461477929310495,0.199514446984226,0.702887530380803,0.702932500397702,0.04,0.06791351352963,335.347772424642,0.800024279971378,0.307997317842889
1742,-0.34522819481815,0.435481420823689,0.48765120651764,-0.0421974704945321,0.0563833025077481,0.105240760894242,0.461477929310495,0.199514446984226,0.702901390803002,0.702932500397702,0.04,0.0679399781274554,335.354344162104,0.800236766091729,0.307921569756907
1802,-0.345013093312217,0.434496502763595,0.485814581106512,-0.0428855027910475,0.0558202669023252,0.106095937130175,0.460092975099807,0.199064941981186,0.702910525374614,0.702682397455622,0.04,0.0679323174005221,335.358612148994,0.800109259930128,0.307974559906909
1862,-0.338560048134238,0.404948960960774,0.430715818772672,-0.0635264716865099,0.0389291987396365,0.131751224208167,0.418544348779167,0.185579791889973,0.699717261529285,0.69517930919322,0.04,0.0674905775594135,333.785656080858,0.777638928861561,0.315387409883466
1922,-0.33210700295626,0.375401419157953,0.375617056438831,-0.0841674405819724,0.0220381305769478,0.157406511286159,0.376995722458526,0.172094641798759,0.692494761314139,0.687676220930818,0.04,0.0667587233661774,330.327586162849,0.748181814977661,0.324408609821568
1982,-0.325653957778281,0.345853877355132,0.320518294104991,-0.104808409477435,0.00514706241425915,0.18306179836415,0.335447096137886,0.158609491707546,0.68470689500461,0.680173132668415,0.04,0.0640921757391894,326.612140976133,0.720037573294273,0.333297335081255
2042,-0.319200912600302,0.316306335552311,0.26541953177115,-0.125449378372897,-0.0117440057484296,0.208717085442142,0.293898469817246,0.145124341616333,0.677053542459986,0.672670044406013,0.04,0.060037978491769,322.961778012532,0.693144197051177,0.342359364786782
2102,-0.312747867422323,0.28675879374949,0.210320769437309,-0.14609034726836,-0.0286350739111183,0.234372372520133,0.252349843496606,0.131639191525119,0.669486575238803,0.665166956143611,0.04,0.0550373479195229,319.352171546296,0.666802896418429,0.351906324665899
