time,bias_percent_1,bias_percent_2,bias_percent_3,bias_percent_4,bias_percent_5,bias_percent_6,bias_percent_8,bias_percent_9,normalized_power,power_SP,SP,CV,total_power_MW,fuel_fraction,thermal_efficiency
49,0,0,0,0,0,0,0,0,0.999799192714106,1,0.04,0.039917362807388,477.007634951043,0.999958020064482,0.350508245303429
109,0.0020469283110142,0.0138995302460581,-0.0283263696501662,0.0101101232229612,0.0195015964997341,0.00553081158071348,-0.0253909853717489,-0.0253483747289411,0.982244663388864,0.970920161509996,0.04,0.0471910556781906,468.38060293311,0.951238593709581,0.361796295235851
169,0.00455337114082738,0.030919363200415,-0.0630117202422064,0.0224898659449545,0.0433811024177758,0.0123032339244442,-0.0564819878677679,-0.0563872009276446,0.947839373611473,0.935312196012033,0.04,0.0553712391823902,451.932500676941,0.874470455261576,0.379737170390394
229,0.00705981397064068,0.0479391961547718,-0.0976970708342465,0.0348696086669478,0.0672606083358176,0.0190756562681751,-0.0875729903637869,-0.0874260271263479,0.911489321745363,0.899704230514069,0.04,0.0591842841900077,434.582546082775,0.800302271621617,0.39900001006965
289,0.00956625680045397,0.0649590291091288,-0.132382421426287,0.0472493513889411,0.0911401142538592,0.0258480786119059,-0.118663992859806,-0.118464853325051,0.875140082523575,0.864096265016105,0.04,0.0598129947126927,417.240039612094,0.73071799540626,0.41955688408751
349,0.0120726996302673,0.0819788620634857,-0.167067772018327,0.0596290941109344,0.115019620171901,0.0326205009556367,-0.149754995355825,-0.149503679523755,0.838717227558267,0.828488299518141,0.04,0.0582637002014071,399.862053330707,0.66585322006473,0.441251671709393
409,0.0145791424600804,0.0989986950178425,-0.201753122610367,0.0720088368329277,0.138899126089943,0.0393929232993673,-0.180845997851844,-0.180542505722458,0.802226237837684,0.792880334020178,0.04,0.0550837302630528,382.451759146329,0.606159188531997,0.463601301266178
469,0.0170855852898937,0.116018527972199,-0.236438473202407,0.0843885795549211,0.162778632007984,0.0461653456430983,-0.211937000347863,-0.211581331921162,0.765439282635681,0.757272368522214,0.04,0.0506289814078845,365.043451449359,0.552493064008983,0.485481190234583
529,0.019592028119707,0.133038360926556,-0.271123823794448,0.0967683222769143,0.186658137926026,0.052937767986829,-0.18290754384532,-0.18290754384532,0.726647504905725,0.72166440302425,0.04,0.0484257119421869,346.376424855844,0.516608242455257,0.492653611194806
589,0.0220984709495203,0.150058193880913,-0.305809174386488,0.109148064998908,0.210537643844068,0.0597101903305598,-0.156097066337897,-0.156097066337897,0.690123802994953,0.686056437526286,0.04,0.0464486356973732,329.134029352825,0.491330935414013,0.492213310294071
649,0.0246049137793336,0.16707802683527,-0.340494524978528,0.121527807720901,0.23441714976211,0.0664826126742906,-0.134413507743856,-0.134413507743856,0.654327359611525,0.650448472028323,0.04,0.0470761108966656,312.158118516944,0.466303132703325,0.491882053634216
709,0.0271113566091469,0.184097859789627,-0.375179875570568,0.133907550442894,0.258296655680151,0.0732550350180214,-0.113812557708891,-0.113812557708891,0.619019081669917,0.614840506530359,0.04,0.0493115471835434,295.197376245988,0.440501215538913,0.492402283419583
769,0.0296177994389602,0.201117692743984,-0.409865226162608,0.146287293164888,0.282176161598193,0.0800274573617522,-0.0903207189940696,-0.0903207189940696,0.583368947945318,0.579232541032395,0.04,0.0525606500011623,278.250539276296,0.414619547390271,0.493106716247529
829,0.0321242422687734,0.218137525698341,-0.396125589798738,0.158667035886881,0.306055667516235,0.086799879705483,-0.0598687634727349,-0.0598687634727349,0.547505132598196,0.543624575534431,0.04,0.05990940504518,261.08365069551,0.389449723289702,0.492587008341783
889,0.0346306850985867,0.235157358652698,-0.372820819792155,0.171046778608874,0.329935173434277,0.0935723020492138,-0.0287028055711148,-0.0287028055711148,0.511663783514084,0.508016610036468,0.04,0.0686748425964036,243.988166440154,0.366629980792344,0.488984917290632
949,0.0350901996173858,0.238277661360996,-0.36205881986925,0.173316398107906,0.334313082852584,0.0948139128122311,-0.0135581014188002,-0.0135581014188002,0.494083066252366,0.501488483028508,0.04,0.0525047000646666,235.724868578637,0.394734117659058,0.438788678600071
