time,bias_percent_1,bias_percent_2,bias_percent_3,bias_percent_4,bias_percent_5,bias_percent_6,bias_percent_8,bias_percent_9,normalized_power,power_SP,SP,CV,total_power_MW,fuel_fraction,thermal_efficiency
51,0,0,0,0,0,0,0,0,0.999813287560987,1,0.04,0.0399132216256095,477.014056471665,0.999983365629477,0.350504079780752
111,0.0150403132178462,-0.0230594389507803,-0.0228298798083716,-0.0214005944487903,-0.00938416971230754,-0.0170502144169321,0.0246490140414144,0.0269911386358058,0.983210848425579,0.974351355888267,0.04,0.0456536287951799,468.875642891362,0.960308461322468,0.358757999336676
171,0.0327347993564888,-0.0501881906575804,-0.0496885619358677,-0.0465777643885434,-0.0204243693738456,-0.0371092902015582,0.0536478540901372,0.0587454193838125,0.954056856183941,0.944176480462699,0.04,0.0515958355548678,454.939148116251,0.899980754472136,0.371428106137675
231,0.0504292854951315,-0.0773169423643806,-0.0765472440633637,-0.0717549343282967,-0.0314645690353838,-0.0571683659861841,0.0826466941388601,0.0904997001318194,0.923418750273863,0.914001605037131,0.04,0.0542163135666867,440.317745068651,0.840885134017859,0.384754926850352
291,0.0681237716337741,-0.104445694071181,-0.10340592619086,-0.09693210426805,-0.0425047686969219,-0.0772274417708102,0.111645534187583,0.122253980879826,0.892545022770871,0.883826729611562,0.04,0.0542915872250055,425.587611763043,0.785614378720484,0.398046885854023
351,0.0858182577724167,-0.131574445777981,-0.130264608318356,-0.122109274207803,-0.0535449683584601,-0.0972865175554361,0.140644374236306,0.154008261627833,0.861732651630596,0.853651854185994,0.04,0.0527235467710065,410.888282624651,0.734408441340972,0.411093654141096
411,0.103512743911059,-0.158703197484781,-0.157123290445852,-0.147286444147556,-0.0645851680199983,-0.117345593340062,0.169643214285028,0.18576254237584,0.830991787077117,0.823476978760426,0.04,0.0501550193912035,396.432739539784,0.68705464642611,0.42396783454191
471,0.121207230049702,-0.185831949191581,-0.183981972573348,-0.17246361408731,-0.0756253676815365,-0.137404669124688,0.198642054333751,0.217516823123846,0.801094514387092,0.793302103334858,0.04,0.0478753493573884,382.151378662377,0.639687646207957,0.438957166075366
531,0.138901716188345,-0.212960700898382,-0.210840654700844,-0.197640784027063,-0.0866655673430746,-0.157463744909314,0.227640894382474,0.249271103871853,0.771096019639833,0.763127227909289,0.04,0.046040246985506,367.760521430412,0.590999175236484,0.457228094607703
591,0.156596202326987,-0.240089452605182,-0.23769933682834,-0.222817953966816,-0.0977057670046128,-0.17752282069394,0.256639734431197,0.28102538461986,0.740673091354875,0.732952352483721,0.04,0.0436072037924453,353.265117434973,0.544586661181293,0.476637746319819
