time,bias_percent_1,bias_percent_2,bias_percent_3,bias_percent_4,bias_percent_5,bias_percent_6,bias_percent_8,bias_percent_9,normalized_power,power_SP,SP,CV,total_power_MW,fuel_fraction,thermal_efficiency
17,0,0,0,0,0,0,0,0,0.999260134630504,1,0.04,0.0401502160514906,476.737727108826,0.999234418510042,0.350563594314782
77,-0.0073077097602968,0.0032054309379854,0.00324587123419326,0.00602047903619075,0.0076961684754001,-0.00626871994123655,-0.00729171519877264,0.000136800079051625,0.999532560974984,0.998827262505135,0.04,0.0401536456396805,476.859485591309,0.998636063209464,0.350863229735168
137,-0.0330996265613444,0.0145187166014636,0.0147018873548757,0.0272692285756876,0.0348591160356356,-0.0283936138514832,-0.0330271806062052,0.000619623887469288,0.996174060690993,0.994688188993848,0.04,0.0413014685853782,475.242866936265,0.990244453110833,0.352636989346068
197,-0.0588915433623919,0.0258320022649416,0.0261579034755579,0.0485179781151844,0.062022063595871,-0.05051850776173,-0.0587626460136378,0.00110244769588689,0.992023462846093,0.99054911548256,0.04,0.0419368330245924,473.260720042479,0.981054088584317,0.354455879346328
257,-0.0846834601634395,0.0371452879284197,0.0376139195962403,0.0697667276546814,0.0891850111561065,-0.0726434016719766,-0.0844981114210705,0.00158527150430444,0.987766083263197,0.986410041971272,0.04,0.0420802640356683,471.229241737434,0.972451258284542,0.356056621024823
317,-0.110475376964487,0.0484585735918979,0.0490699357169226,0.0910154771941782,0.116347958716342,-0.0947682955822232,-0.110233576828503,0.00206809531272211,0.983492731372869,0.982270968459985,0.04,0.0419378323201323,469.190397391996,0.964636691370975,0.357388039781796
377,-0.136267293765534,0.0597718592553759,0.0605259518376049,0.112264226733675,0.143510906276577,-0.11689318949247,-0.135969042235936,0.00255091912113971,0.979221536428234,0.978131894948697,0.04,0.0416562393454674,467.152665673231,0.957624525792157,0.358441468039996
437,-0.162059210566582,0.0710851449188541,0.0719819679582872,0.133512976273172,0.170673853836813,-0.139018083402717,-0.161704507643368,0.00303374292955732,0.97496057694561,0.97399282143741,0.04,0.0413265862076462,465.119865834907,0.951367710761427,0.359228808630565
497,-0.187851127367629,0.0823984305823322,0.0834379840789695,0.154761725812669,0.197836801397049,-0.161142977312963,-0.187439973050801,0.00351656673797493,0.970714427531664,0.969853747926122,0.04,0.0410029450980599,463.094155942512,0.945785253159368,0.35977537833118
557,-0.213643044168677,0.0937117162458103,0.0948940001996518,0.176010475352166,0.224999748957284,-0.18326787122321,-0.213175438458234,0.00399939054639259,0.966484876420805,0.965714674414834,0.04,0.0407148516633472,461.076368894873,0.940779978444905,0.360113559513524
617,-0.239434960969725,0.105025001909288,0.106350016320334,0.197259224891662,0.25216269651752,-0.205392765133457,-0.238910903865666,0.00448221435481025,0.962271542298142,0.961575600903547,0.04,0.0404754000873107,459.066311615411,0.936252903729216,0.360277318808932
677,-0.265226877770772,0.116338287572766,0.117806032441016,0.218507974431159,0.279325644077755,-0.227517659043703,-0.264646369273099,0.0049650381632278,0.958072668226225,0.957436527392259,0.04,0.0402869817103677,457.063134182375,0.932113160429871,0.360298313990385
737,-0.29101879457182,0.127651573236245,0.129262048561699,0.239756723970656,0.306488591637991,-0.24964255295395,-0.290381834680531,0.00544786197164547,0.953885822394417,0.953297453880972,0.04,0.0401455774835798,455.065675126343,0.9282834239275,0.360203691592745
797,-0.316810711372867,0.138964858899723,0.140718064682381,0.261005473510153,0.333651539198226,-0.271767446864197,-0.316117300087964,0.00593068578006302,0.949708445834898,0.949158380369684,0.04,0.0400439420094154,453.072714893107,0.924701669172476,0.360015288020087
857,-0.342602628173914,0.150278144563201,0.152174080803063,0.28225422304965,0.360814486758462,-0.293892340774443,-0.341852765495397,0.00641350958848062,0.945539518454645,0.945019306858397,0.04,0.0399736719721772,451.083731213292,0.921323086186081,0.359749241303261
917,-0.361086835214665,0.158385999288693,0.160384225689552,0.297482493552956,0.380281265843297,-0.309748514743453,-0.360296515704057,0.0067595333178466,0.941677355571033,0.942052970841974,0.04,0.039592692390679,449.254627235255,0.919794101659206,0.358886080956951
977,-0.361086835214665,0.158385999288694,0.160384225689553,0.297482493552956,0.380281265843297,-0.309748514743453,-0.360296515704057,0.0067595333178466,0.94080864138636,0.942052970841974,0.04,0.0381857839214306,448.859284874189,0.926576327093354,0.355945649484859
1037,-0.361086835214665,0.158385999288693,0.160384225689552,0.297482493552956,0.380281265843297,-0.309748514743453,-0.360296515704057,0.0067595333178466,0.940921761399508,0.942052970841974,0.04,0.0375528760928859,448.915341987186,0.933718844295261,0.353266943206673
1097,-0.361086835214665,0.158385999288694,0.160384225689553,0.297482493552956,0.380281265843297,-0.309748514743453,-0.360296515704057,0.00675953331784666,0.941127278749828,0.942052970841974,0.04,0.0375611324265632,449.01344686884,0.939696757253203,0.351096334489926
1157,-0.361086835214665,0.158385999288693,0.160384225689552,0.297482493552956,0.380281265843297,-0.309748514743453,-0.360296515704057,0.0067595333178466,0.941323055355222,0.942052970841974,0.04,0.0378824050114442,449.106709987124,0.944468636608912,0.34939499488764
1217,-0.361086835214665,0.158385999288694,0.160384225689553,0.297482493552956,0.380281265843297,-0.309748514743453,-0.360296515704057,0.00675953331784666,0.941498394856893,0.942052970841974,0.04,0.0383170895531242,449.190183997985,0.948144194019375,0.348105226188987
1277,-0.361086835214665,0.158385999288694,0.160384225689552,0.297482493552956,0.380281265843297,-0.309748514743453,-0.360296515704057,0.0067595333178466,0.941649238450336,0.942052970841974,0.04,0.0387588165303621,449.261944359168,0.950862791578193,0.347165416292496
1337,-0.361086835214665,0.158385999288694,0.160384225689552,0.297482493552956,0.380281265843297,-0.309748514743453,-0.360296515704057,0.0067595333178466,0.941773332911609,0.942052970841974,0.04,0.0391543260097969,449.320934891538,0.952781476502564,0.346511797108019
1397,-0.361086835214665,0.158385999288694,0.160384225689552,0.297482493552956,0.380281265843297,-0.309748514743453,-0.360296515704057,0.0067595333178466,0.941870913015458,0.942052970841974,0.04,0.039480856237468,449.367286381487,0.954061035763049,0.346082763300348
1457,-0.361086835214665,0.158385999288694,0.160384225689553,0.297482493552956,0.380281265843297,-0.309748514743453,-0.360296515704057,0.0067595333178466,0.941944279092048,0.942052970841974,0.04,0.0397333671734291,449.402110214668,0.954852287040773,0.345822774680073
1517,-0.361086835214665,0.158385999288694,0.160384225689552,0.297482493552956,0.380281265843297,-0.309748514743453,-0.360296515704057,0.00675953331784666,0.941996924922571,0.942052970841974,0.04,0.0399167418116438,449.42707828267,0.955287095640971,0.345684574559781
1577,-0.361086835214665,0.158385999288694,0.160384225689553,0.297482493552956,0.380281265843297,-0.309748514743453,-0.360296515704057,0.0067595333178466,0.942032737311783,0.942052970841974,0.04,0.0400408047529948,449.444047361781,0.955474390216558,0.345629862071034
1637,-0.361086835214665,0.158385999288694,0.160384225689552,0.297482493552956,0.380281265843297,-0.309748514743453,-0.360296515704057,0.00675953331784666,0.942055558179251,0.942052970841974,0.04,0.0401171459436094,449.454845092849,0.955500012869866,0.345628897083381
1697,-0.361086835214665,0.158385999288694,0.160384225689553,0.297482493552956,0.380281265843297,-0.309748514743453,-0.360296515704057,0.0067595333178466,0.94206872025186,0.942052970841974,0.04,0.0401572347417626,449.461060174132,0.955428435927794,0.345659569971059
1757,-0.361086835214665,0.158385999288694,0.160384225689552,0.297482493552956,0.380281265843297,-0.309748514743453,-0.360296515704057,0.0067595333178466,0.942075065901305,0.942052970841974,0.04,0.0401713185552008,449.464043364804,0.955306083762169,0.345706135331813
1817,-0.352417858920202,0.153451539623346,0.150638882865079,0.295816245195379,0.37552374856413,-0.304896081670793,-0.360609019677529,0.00735268365842848,0.940308284853846,0.936776515247894,0.04,0.0410873006509421,448.536513901596,0.948056051545132,0.34763097371674
1877,-0.321821471998566,0.136035799627999,0.116243555249292,0.289935368639226,0.358732511108246,-0.287769847296698,-0.361711974878017,0.00944615544871743,0.924805931297658,0.918153730798202,0.04,0.0457920719994856,441.080646825648,0.910061727176853,0.356124480441507
1937,-0.291225085076931,0.118620059632653,0.0818482276335047,0.284054492083073,0.341941273652362,-0.270643612922603,-0.362814930078506,0.0115396272390064,0.905999876412516,0.89953094634851,0.04,0.0483050454179136,432.100300168514,0.869462967384879,0.365164167795274
1997,-0.260628698155295,0.101204319637307,0.0474529000177174,0.27817361552692,0.325150036196479,-0.253517378548508,-0.363917885278994,0.0136330990292953,0.886812624398318,0.880908161898818,0.04,0.0485755106765917,422.945460186575,0.831973866165824,0.373533329931051
2057,-0.23003231123366,0.0837885796419609,0.0130575724019302,0.272292738970768,0.308358798740595,-0.236391144174414,-0.365020840479483,0.0157265708195843,0.86763129944437,0.862285377449126,0.04,0.0475024953288472,413.793931970131,0.797918493518017,0.381048505892899
2117,-0.199435924312024,0.0663728396466148,-0.0213377552138572,0.266411862414614,0.291567561284711,-0.219264909800319,-0.365829535184474,0.0178200426098732,0.848291105190821,0.843662592999434,0.04,0.0456756908837077,404.677019653907,0.767448884566234,0.387448300218946
2177,-0.168839537390389,0.0489570996512688,-0.0557330828296444,0.260530985858461,0.274776323828827,-0.202138675426224,-0.349572751470734,0.0199135144001622,0.829047407582154,0.825039808549742,0.04,0.0440145510178499,395.396842282578,0.74115866481648,0.391991529624418
2237,-0.138243150468753,0.0315413596559226,-0.0901284104454318,0.254650109302309,0.257985086372944,-0.185012441052129,-0.336909648056453,0.0220069861904511,0.810232858423946,0.80641702410005,0.04,0.0423421432427795,386.40689692421,0.717808854666894,0.395540296184091
2297,-0.107646763547118,0.0141256196605766,-0.124523738061219,0.248769232746156,0.24119384891706,-0.167886206678034,-0.328209341009949,0.02410045798074,0.791050732310779,0.787794239650358,0.04,0.0408079567273782,377.410052028287,0.696584921441574,0.398101734754823
