time,bias_percent_1,bias_percent_2,bias_percent_3,bias_percent_4,bias_percent_5,bias_percent_6,bias_percent_8,bias_percent_9,normalized_power,power_SP,SP,CV,total_power_MW,fuel_fraction,thermal_efficiency
3,0,0,0,0,0,0,0,0,1.00359760546208,1,0.04,0.0418599618805883,478.147104453644,0.993589331857457,0.35359758203579
63,-0.00117771754447972,-0.000684909885488537,-0.000630092425014937,0.00167540231531552,0.00100662550899824,-0.0011612167161544,-1.36032246171567e-05,-0.000341416509375335,0.999844463214859,0.9974876958229,0.04,0.0401100286183226,477.016232662027,0.997248703416818,0.351466837887597
123,-0.0247320684340739,-0.0143831075952586,-0.0132319409253161,0.0351834486216254,0.0211391356889634,-0.0243855510392428,-0.000285667716960518,-0.00716974669688307,0.963365743419307,0.94724161228089,0.04,0.0534760058406386,459.246242957536,0.911275816555928,0.370297212870939
183,-0.048286419323668,-0.0280813053050286,-0.0258337894256171,0.0686914949279353,0.0412716458689285,-0.0476098853623314,-0.000557732209303822,-0.0139980768843906,0.913545797656952,0.896995528738881,0.04,0.06430700109706,435.444857513489,0.808622915955891,0.395677903072791
243,-0.0718407702132623,-0.0417795030147988,-0.0384356379259181,0.102199541234245,0.0614041560488936,-0.0708342196854199,-0.000829796701647183,-0.0208264070718982,0.861967175812,0.846749445196872,0.04,0.0694882857016355,410.834440284789,0.711988121189653,0.423983320459747
303,-0.0953951211028565,-0.0554777007245689,-0.0510374864262191,0.135707587540555,0.0815366662288588,-0.0940585540085084,-0.00110186119399049,-0.0276547372594059,0.810399023606086,0.796503361654863,0.04,0.07018439490724,386.231193628525,0.62338417925115,0.455246112982383
363,-0.118949471992451,-0.0691758984343391,-0.0636393349265201,0.169215633846865,0.101669176408824,-0.117282888331597,-0.00137392568633388,-0.0344830674469135,0.758598504627183,0.746257278112853,0.04,0.0669942071642446,361.777044453189,0.54389738857824,0.488740927992009
423,-0.142503822882045,-0.0828740961441092,-0.0762411834268212,0.202723680153175,0.121801686588789,-0.140507222654686,-0.00164599017867721,-0.0413113976344211,0.707343763761797,0.696011194570844,0.04,0.0610793722863371,337.318600589072,0.472034424442144,0.525074943451997
483,-0.166058173771639,-0.0965722938538792,-0.0888430319271221,0.236231726459484,0.141934196768754,-0.163731556977774,-0.00191805467102056,-0.0481397278219288,0.656083072792609,0.645765111028835,0.04,0.0534870430579155,312.770958022524,0.408038976021649,0.563221788846402
543,-0.189612524661233,-0.110270491563649,-0.101444880427423,0.269739772765794,0.162066706948719,-0.186955891300863,-0.0021901191633639,-0.0527042141737124,0.604636810347342,0.595519027486826,0.04,0.0455721737368,288.220329309802,0.351388164580237,0.602687462090452
