time,bias_percent_1,bias_percent_2,bias_percent_3,bias_percent_4,bias_percent_5,bias_percent_6,bias_percent_8,bias_percent_9,normalized_power,power_SP,SP,CV,total_power_MW,fuel_fraction,thermal_efficiency
40,0,0,0,0,0,0,0,0,0.999725470195932,1,0.04,0.0399438939341234,476.973247082186,0.999814940047433,0.350533133270834
100,-0.0142205188781562,-0.00162624662384053,0.0210378240714824,0.0149400787614952,0.0174598437484741,0.00880240435928431,-0.00140302956597878,-0.0235427694683351,0.98258895351569,0.970694955243048,0.04,0.0480152693379327,468.499604095806,0.956697458485922,0.359823301689317
160,-0.0355512971953904,-0.00406561655960127,0.052594560178706,0.0373501969037383,0.0436496093711852,0.0220060108982109,-0.00350757391494682,-0.0588569236708378,0.94118645636465,0.926737388107619,0.04,0.0604456170614916,448.648080037408,0.870593674826434,0.37865612160275
220,-0.0568820755126246,-0.00650498649536189,0.0841512962859297,0.0597603150459812,0.0698393749938963,0.0352096174371375,-0.00561211826391491,-0.0941710778733404,0.89615524463824,0.88277982097219,0.04,0.0681425614702477,427.197093941383,0.786160980254655,0.399274414418077
280,-0.0782128538298589,-0.00894435643112263,0.115708032393153,0.0821704331882241,0.0960291406166074,0.048413223976064,-0.00771666261288306,-0.129485232075843,0.851090939238164,0.838822253836762,0.04,0.071736213900631,405.698009881432,0.708173552116974,0.420937725731227
340,-0.0995436321470932,-0.0113837263668833,0.147264768500377,0.104580551330467,0.122218906239319,0.0616168305149905,-0.00982120696185117,-0.164799386278346,0.80617073636713,0.794864686701333,0.04,0.0725770542753975,384.26698570599,0.636189334532078,0.443814376135589
400,-0.120874410464327,-0.0138230963026441,0.178821504607601,0.12699066947271,0.14840867186203,0.0748204370539171,-0.0119257513108193,-0.170728896329594,0.759905194936146,0.750907119565905,0.04,0.0721239007338582,362.367717043872,0.572345689378109,0.46520648469097
460,-0.142205188781562,-0.0162624662384048,0.210378240714824,0.149400787614953,0.174598437484741,0.0880240435928435,-0.0140302956597874,-0.0914975415022833,0.713885676113651,0.706949552430476,0.04,0.0713905113252636,340.208472486699,0.526734127505794,0.474578810792259
520,-0.163535967098796,-0.0187018361741655,0.241934976822048,0.171810905757196,0.200788203107452,0.10122765013177,-0.0161348400087555,-0.0432199093861146,0.668250376956983,0.662991985295048,0.04,0.0718020701268503,318.465246310978,0.490539254560488,0.477026993115217
580,-0.18486674541603,-0.0211412061099263,0.273491712929271,0.194221023899439,0.226977968730163,0.114431256670697,-0.0182393843577236,-0.0204152789263381,0.623734433760015,0.619034418159619,0.04,0.0747885475135575,297.231699355973,0.459304297037135,0.47549865438153
640,-0.206197523733264,-0.023580576045687,0.305048449036495,0.216631142041682,0.253167734352874,0.127634863209623,-0.00964318535812574,-0.00964318535812574,0.579375100688564,0.57507685102419,0.04,0.0806694966307655,276.06997170341,0.4307351267413,0.470937806668551
700,-0.227528302050499,-0.0260199459814477,0.336605185143719,0.239041260183925,0.279357499975585,0.14083846974855,-0.00455483279538725,-0.00455483279538725,0.535467806987491,0.531119283888762,0.04,0.0886555384685585,255.122843717897,0.402609705012937,0.465607303399451
760,-0.248859080367733,-0.0284593159172085,0.368161921250942,0.261451378326168,0.305547265598296,0.154042076287476,-0.00215127663995918,-0.00215127663995918,0.491757534714012,0.487161716753333,0.04,0.0989110763313049,234.270939754108,0.373524952946278,0.460843510523987
820,-0.270189858684967,-0.0308986858529692,0.399718657358166,0.283861496468411,0.331737031221007,0.167245682826403,-0.00101592467521684,-0.00101592467521684,0.448261452209933,0.443204149617905,0.04,0.111357542395432,213.734018372215,0.343261220124562,0.45751315434553
880,-0.291520637002201,-0.0333380557887299,0.431275393465389,0.306271614610654,0.357926796843719,0.180449289365329,-0.000479624557700303,-0.000479624557700303,0.404965493821171,0.399246582482476,0.04,0.12748629673051,193.115126219464,0.309122703807149,0.459028938089221
940,-0.298630896441279,-0.0341511791006502,0.441794305501131,0.313741653991401,0.366656718717956,0.184850491544971,-0.000226294277561497,-0.000226294277561497,0.378330224568917,0.384594060104,0.04,0.116332086586029,180.467112792384,0.320304121165742,0.413990352032023
1000,-0.298630896441279,-0.0341511791006502,0.441794305501131,0.313741653991401,0.366656718717956,0.184850491544971,-0.00010662952279303,-0.00010662952279303,0.377853364147451,0.384594060104,0.04,0.0854945564565001,180.278501493069,0.361229592975153,0.366703701717744
1060,-0.298630896441279,-0.0341511791006502,0.441794305501131,0.313741653991401,0.366656718717956,0.184850491544971,-5.01041632851639e-05,-5.01041632851639e-05,0.378946009030668,0.384594060104,0.04,0.0724633714864056,180.806589754226,0.397792303112545,0.333973921061139
1120,-0.298630896441279,-0.0341511791006501,0.441794305501131,0.313741653991401,0.366656718717956,0.184850491544971,-2.34102985059856e-05,-2.34102985059856e-05,0.380416072014241,0.384594060104,0.04,0.0687865419260881,181.507609750131,0.425841033141151,0.31318575991543
1180,-0.298630896441279,-0.0341511791006501,0.441794305501131,0.313741653991401,0.366656718717956,0.184850491544972,-1.07943716937068e-05,-1.07943716937068e-05,0.381633512157963,0.384594060104,0.04,0.0687461700866451,182.08548624982,0.445910584149655,0.300042120161206
1240,-0.298630896441279,-0.0341511791006501,0.441794305501131,0.313741653991401,0.366656718717956,0.184850491544972,-4.83505810994663e-06,-4.83505810994663e-06,0.382490076824292,0.384594060104,0.04,0.069742216159114,182.491608489564,0.460129826009318,0.291418547916597
1300,-0.298630896441279,-0.0341511791006502,0.441794305501131,0.313741653991401,0.366656718717955,0.184850491544971,-2.02009105140102e-06,-2.02009105140102e-06,0.383081043496274,0.384594060104,0.04,0.0708175962759557,182.771865443369,0.470312926127969,0.285546673790519
1360,-0.298630896441279,-0.0341511791006501,0.441794305501131,0.313741653991401,0.366656718717956,0.184850491544971,-6.90401074640784e-07,-6.90401074640784e-07,0.383498033520003,0.384594060104,0.04,0.0717118769653853,182.969698420216,0.477673966800119,0.281450662728663
1420,-0.298630896441279,-0.0341511791006501,0.441794305501131,0.313741653991401,0.366656718717956,0.184850491544971,-6.23029841394561e-08,-6.23029841394561e-08,0.383798219438384,0.384594060104,0.04,0.0723989499429132,183.112149352718,0.48301611412557,0.278554524469849
1480,-0.298630896441279,-0.0341511791006501,0.441794305501131,0.313741653991401,0.366656718717956,0.184850491544971,2.34388137991601e-07,2.34388137991601e-07,0.384016231793901,0.384594060104,0.04,0.072912154138306,183.215612738104,0.486895390991208,0.276491313811413
1540,-0.298630896441279,-0.0341511791006502,0.441794305501131,0.313741653991401,0.366656718717956,0.184850491544971,3.74534435652094e-07,3.74534435652094e-07,0.384174819266843,0.384594060104,0.04,0.0732910487562922,183.290874079737,0.489710725462726,0.275014696498098
1600,-0.298630896441279,-0.0341511791006502,0.441794305501131,0.313741653991401,0.366656718717956,0.184850491544971,4.4073454506847e-07,4.4073454506847e-07,0.38429432105113,0.384594060104,0.04,0.0735711696490338,183.347744866037,0.491744803330677,0.273962089449347
1660,-0.298630896441279,-0.0341511791006502,0.441794305501131,0.313741653991401,0.366656718717955,0.184850491544971,4.72005114180161e-07,4.72005114180161e-07,0.384400035165131,0.384594060104,0.04,0.0738127156361095,183.397969170108,0.493111821521592,0.273277442364778
1720,-0.298630896441279,-0.0341511791006502,0.441794305501131,0.313741653991401,0.366656718717956,0.184850491544971,4.86776215031653e-07,4.86776215031653e-07,0.38447257864652,0.384594060104,0.04,0.0740219527754978,183.432316032033,0.493972715445582,0.272852265730639
1780,-0.298630896441279,-0.0341511791006501,0.441794305501131,0.313741653991401,0.366656718717956,0.184850491544972,4.93753555916804e-07,4.93753555916804e-07,0.384517203262106,0.384594060104,0.04,0.0741810646894841,183.45343031775,0.494514247690736,0.272584843628048
1840,-0.296555951732814,-0.0203553935589547,0.436328666083269,0.314593558947754,0.355410766850062,0.195410559365271,4.97049402740752e-07,4.97049402740752e-07,0.389152978442639,0.394930401354389,0.04,0.0678172375286374,185.761760967258,0.515209741112906,0.264927432131436
1900,-0.293443534670115,0.000338284753588425,0.428130206956477,0.315871416382282,0.338541839048221,0.21125066109572,2.68009793444512e-07,2.68009793444512e-07,0.404413890309597,0.410434913229973,0.04,0.0587385188513813,192.959188341189,0.554135976486516,0.255860823243947
1960,-0.290331117607417,0.0210319630661315,0.419931747829684,0.31714927381681,0.32167291124638,0.227090762826168,0.0101345333736069,3.90416004248277e-07,0.420810398756114,0.425939425105557,0.04,0.0559552739901771,200.902851635683,0.58765173599909,0.251200647227132
2020,-0.287218700544719,0.0417256413786748,0.411733288702892,0.318427131251339,0.30480398344454,0.242930864556617,0.024983841220792,4.48236424542011e-07,0.437290108428222,0.441443936981141,0.04,0.0560412609285665,208.761293778532,0.615141353059389,0.249361689866503
2080,-0.28410628348202,0.0624193196912179,0.4035348295761,0.319704988685867,0.287935055642699,0.258770966287066,0.0398331490679771,4.75548734313317e-07,0.453545665109971,0.456948448856724,0.04,0.0571569577666874,216.514619742271,0.637729735798224,0.249462479886322
2140,-0.280993866419322,0.0831129980037609,0.395336370449308,0.320982846120395,0.271066127840858,0.274611068017515,0.0546824569151623,4.8845009471639e-07,0.46948744340276,0.472452960732308,0.04,0.0584198073132118,224.118129030891,0.65704780277829,0.250630948238829
2200,-0.277881449356624,0.103806676316304,0.387137911322515,0.322260703554923,0.254197200039017,0.290451169747964,0.0695317647623474,4.9454423694177e-07,0.48520194063339,0.487957472607892,0.04,0.0594312771881867,231.614218594911,0.67470519660851,0.252235284061185
2260,-0.274769032293925,0.124500354628847,0.378939452195723,0.323538560989452,0.237328272237177,0.306291271478412,0.0843810726095326,4.97422892238798e-07,0.50080010694045,0.503461984483476,0.04,0.0601510190914569,239.055489022384,0.691605149832263,0.253977461392415
2320,-0.271656615231227,0.14519403294139,0.370740993068931,0.32481641842398,0.220459344435336,0.322131373208861,0.0992303804567177,4.98782666266485e-07,0.516343821285848,0.51896649635906,0.04,0.0606536845359703,246.471106309634,0.708178706779184,0.255727731607247
2380,-0.268544198168528,0.165887711253934,0.362542533942139,0.326094275858508,0.203590416633495,0.33797147493931,0.114079688303903,0.036118214345626,0.530992704696896,0.534471008234644,0.04,0.0618395402367182,253.453710238101,0.727254525933365,0.256074832151826
2440,-0.26543178110583,0.186581389566477,0.354344074815346,0.327372133293037,0.186721488831655,0.353811576669759,0.128928996151088,0.0909992184677636,0.546229645185926,0.549975520110227,0.04,0.0629740040153812,260.729778012367,0.750358414751404,0.255315131203016
2500,-0.262319364043132,0.20727506787902,0.346145615688554,0.328649990727565,0.169852561029814,0.369651678400208,0.143778303998273,0.145880222589901,0.561846302163795,0.565480031985811,0.04,0.0644870453606234,268.181217551891,0.773209054132669,0.254850860047607
2560,-0.259206946980433,0.227968746191563,0.337947156561762,0.329927848162094,0.152983633227973,0.385491780130657,0.158627611845458,0.200761226712039,0.577459625081191,0.580984543861395,0.04,0.066233479866316,275.629886226331,0.795327958150049,0.254644753442758
2620,-0.256094529917735,0.248662424504106,0.329748697434969,0.331205705596622,0.136114705426132,0.401331881861106,0.173476919692643,0.255642230834176,0.593009847339271,0.596489055736979,0.04,0.0679907237883693,283.048415298225,0.817041598164478,0.25454890644665
2680,-0.252982112855037,0.269356102816649,0.321550238308177,0.33248356303115,0.119245777624292,0.417171983591554,0.188326227539829,0.310523234956314,0.608509952086366,0.611993567612563,0.04,0.0696465992182138,290.443210229526,0.838690315995123,0.254456925904193
2740,-0.251944640500804,0.276253995587497,0.318817418599246,0.332909515509326,0.113622801690345,0.422452017501704,0.193275996822224,0.328816902997026,0.625152403139348,0.627498079488146,0.04,0.0700069974585126,298.391995666525,0.856925858430759,0.255857762203989
2800,-0.251944640500804,0.276253995587497,0.318817418599246,0.332909515509326,0.113622801690345,0.422452017501704,0.193275996822224,0.328816902997026,0.64107752861964,0.64300259136373,0.04,0.0701385384678316,305.981481095106,0.869595321802669,0.258542904896101
2860,-0.251944640500804,0.276253995587497,0.318817418599246,0.332909515509326,0.113622801690345,0.422452017501704,0.193275996822224,0.328816902997026,0.656481984259189,0.658507103239314,0.04,0.0697635960429077,313.32965218361,0.882238177966527,0.260957825827691
2920,-0.251944640500804,0.276253995587497,0.318817418599246,0.332909515509326,0.113622801690345,0.422452017501704,0.193275996822224,0.328816902997026,0.671849261944131,0.674011615114898,0.04,0.0690001954203492,320.661653921066,0.895724387407773,0.263043337275149
2980,-0.251944640500804,0.276253995587497,0.318817418599246,0.332909515509326,0.113622801690345,0.422452017501704,0.193275996822224,0.328816902997026,0.687261977420603,0.689516126990482,0.04,0.068083456038616,328.015416761467,0.909858985137207,0.264895660715956
3040,-0.251944640500804,0.276253995587497,0.318817418599246,0.332909515509326,0.113622801690345,0.422452017501704,0.193275996822224,0.328816902997026,0.702710641033643,0.705020638866066,0.04,0.0671379777614142,335.386184672969,0.924392971684187,0.26658960460394
3100,-0.251944640500804,0.276253995587497,0.318817418599246,0.332909515509326,0.113622801690345,0.422452017501704,0.193275996822224,0.328816902997026,0.718178582299469,0.720525150741649,0.04,0.0662090336290826,342.766044802818,0.939179182725992,0.268166183818123
3160,-0.251944640500804,0.276253995587497,0.318817418599246,0.332909515509327,0.113622801690345,0.422452017501704,0.193275996822224,0.328816902997026,0.733655926395034,0.736029662617233,0.04,0.0653076579937409,350.150335688794,0.95414431413408,0.269646729206544
3220,-0.251944640500804,0.276253995587497,0.318817418599246,0.332909515509326,0.113622801690345,0.422452017501704,0.193275996822224,0.328816902997026,0.749137947607689,0.751534174492817,0.04,0.0644338214401466,357.536834710595,0.969252440998928,0.271043229826572
3280,-0.251944640500804,0.276253995587497,0.318817418599246,0.332909515509326,0.113622801690345,0.422452017501704,0.193275996822224,0.328816902997026,0.764622476417562,0.767038686368401,0.04,0.063585051313524,364.92451906878,0.984484875445208,0.272363353056993
3340,-0.251944640500804,0.276253995587497,0.318817418599246,0.332909515509327,0.113622801690345,0.422452017501704,0.193275996822224,0.328816902997026,0.780108438423972,0.782543198243985,0.04,0.0627589320992832,372.312879345078,0.99983116500806,0.273612583321049
3400,-0.251944640500804,0.276253995587497,0.318817418599246,0.332909515509326,0.113622801690345,0.422452017501704,0.193275996822224,0.328816902997026,0.795595253606258,0.798047710119568,0.04,0.0619535397722969,379.701642800675,1.01528517063491,0.274795179217629
3460,-0.251944640500804,0.276253995587497,0.318817418599246,0.332909515509326,0.113622801690345,0.422452017501704,0.193275996822224,0.328816902997026,0.811082564253737,0.813552221995152,0.04,0.0611674485819759,387.09064166168,1.03084327799314,0.27591461470685
3520,-0.251944640500804,0.276253995587497,0.318817418599246,0.332909515509326,0.113622801690345,0.422452017501704,0.193275996822224,0.328816902997026,0.826570143952779,0.829056733870736,0.04,0.0603995406095282,394.479768059021,1.04650344080663,0.276973838525357
3580,-0.251944640500804,0.276253995587497,0.318817418599246,0.332909515509326,0.113622801690345,0.422452017501704,0.193275996822224,0.328816902997026,0.842057850472527,0.84456124574632,0.04,0.0596489138812206,401.868954821386,1.06226462535407,0.277975432389179
3640,-0.249083737233515,0.25137997696412,0.293621582845273,0.299618537777342,0.116043355554391,0.40653306107988,0.196342879450379,0.333140978461561,0.853209745364155,0.849729416371515,0.04,0.0599771533534724,407.102395487914,1.05754518108144,0.28285209744283
3700,-0.244792382332583,0.214068949029054,0.255827829214314,0.249682071179364,0.11967418635046,0.382654626447145,0.200943203392611,0.339627091658364,0.854990860442467,0.849729416371515,0.04,0.0615460774660808,407.917006631229,1.02746930298974,0.291714242031624
3760,-0.24050102743165,0.176757921093989,0.218034075583354,0.199745604581387,0.123305017146528,0.358776191814409,0.205543527334844,0.346113204855166,0.854648345943359,0.849729416371515,0.04,0.0610970550336245,407.748395842396,0.996941242544133,0.30052276409843
3820,-0.236209672530717,0.139446893158924,0.180240321952394,0.14980913798341,0.126935847942597,0.334897757181674,0.210143851277077,0.352599318051968,0.854140026051711,0.849729416371515,0.04,0.0589821534157682,407.506749944574,0.969494306208863,0.308847592447208
3880,-0.231918317629784,0.102135865223858,0.142446568321434,0.0998726713854328,0.130566678738666,0.311019322548938,0.214744175219309,0.35908543124877,0.853787723940752,0.849729416371515,0.04,0.0559507766770679,407.339924842085,0.944502257096574,0.316890087995373
