time,bias_percent_1,bias_percent_2,bias_percent_3,bias_percent_4,bias_percent_5,bias_percent_6,bias_percent_8,bias_percent_9,normalized_power,power_SP,SP,CV,total_power_MW,fuel_fraction,thermal_efficiency
34,0,0,0,0,0,0,0,0,0.999651266193307,1,0.04,0.0399686691758836,476.940614943261,0.99970040690393,0.350549308481762
94,0.0168001089569134,-0.00209350152482341,0.00586338400845477,0.0197766325916738,0.0142429264960366,-0.0176691264826434,-0.0115038736204734,0.00451912796207949,0.987070253040753,0.977312350195968,0.04,0.0462691253882207,470.674349354062,0.96859739844525,0.357052360819963
154,0.0464473600573491,-0.0057879159803939,0.0162105322586693,0.0546765724593337,0.0393775026655134,-0.0488499379226023,-0.0318048270683678,0.0124940596598668,0.949841671457874,0.93727532113003,0.04,0.0582670872838613,452.857041303078,0.893448319064215,0.372431464681642
214,0.0760946111577846,-0.00948233043596463,0.0265576805088838,0.0895765123269935,0.0645120788349898,-0.0800307493625611,-0.0521057805162622,0.0204689913576541,0.909435502209888,0.897238292064092,0.04,0.0663908448997556,433.569492474539,0.817151526097578,0.389861901096503
274,0.10574186225822,-0.0131767448915352,0.0369048287590983,0.124476452194653,0.0896466550044663,-0.11121156080252,-0.0724067339641565,0.0284439230554415,0.8688725167442,0.857201262998154,0.04,0.0711108861188187,414.2160023369,0.743983286815366,0.4090895348652
334,0.135389113358656,-0.0168711593471057,0.0472519770093129,0.159376392062313,0.114781231173943,-0.142392372242479,-0.0927076874120509,0.0364188547532288,0.828196361517391,0.817164233932216,0.04,0.0733781825246498,394.808791691533,0.674439338909888,0.430128874167345
394,0.165036364459091,-0.0205655738026765,0.0575991252595273,0.194276331929973,0.139915807343419,-0.173573183682438,-0.113008640859945,0.0443937864510162,0.787481243984339,0.777127204866278,0.04,0.0736084254511155,375.383515072768,0.608918006064221,0.452971686083077
454,0.194683615559527,-0.0242599882582471,0.0679462735097417,0.229176271797633,0.165050383512896,-0.204753995122396,-0.101715845424513,0.0523687181488035,0.745769508953198,0.73709017580034,0.04,0.0732087743614753,355.460630624112,0.549346534426724,0.475444463247124
514,0.224330866659962,-0.0279544027138176,0.0782934217599562,0.264076211665292,0.190184959682373,-0.235934806562355,-0.0480466714839673,0.0603436498465908,0.70269816722918,0.697053146734402,0.04,0.0735155864047578,334.92457938578,0.508733913958455,0.483738893367892
574,0.253978117760398,-0.0316488171693882,0.0886405700101708,0.298976151532952,0.215319535851849,-0.267115618002314,-0.0226952690818992,0.0683185815443781,0.661506343721216,0.657016117668464,0.04,0.0747105838317053,315.281167624224,0.478000055644209,0.484646141382754
634,0.283625368860833,-0.0353432316249588,0.0989877182603852,0.333876091400612,0.240454112021326,-0.298296429442273,-0.0107201713383896,0.0762935132421655,0.621093499454065,0.616979088602526,0.04,0.0778134298140042,296.004016320505,0.450779242842306,0.482490059626213
694,0.313272619961269,-0.0390376460805294,0.1093348665106,0.368776031268272,0.265588688190802,-0.329477240882232,-0.00506356253654792,0.0842684449399528,0.581095242121698,0.576942059536588,0.04,0.0827046527550418,276.923610014059,0.424114884913074,0.47976785444427
754,0.342919871061705,-0.0427320605361,0.119682014760814,0.403675971135931,0.290723264360279,-0.360658052322191,-0.00239158241392846,0.0922433766377401,0.541232118972293,0.53690503047065,0.04,0.0892422375545369,257.904236937956,0.396462746161669,0.477981148407906
814,0.37256712216214,-0.0464264749916707,0.130029163011029,0.438575911003591,0.315857840529755,-0.37949659029581,-0.00112943436272348,0.100218308335527,0.501073027783305,0.496868001404712,0.04,0.0972809381364531,238.727480815183,0.368572486671496,0.475920244141942
874,0.402214373262576,-0.0501208894472413,0.140376311261243,0.473475850871251,0.340992416699232,-0.354836065905172,-0.000533242011170629,0.108193240033315,0.460127335577031,0.456830972338773,0.04,0.106569533912906,219.50928626173,0.346714951781816,0.465194962596593
934,0.415061515406098,-0.0517218023779885,0.144860075503003,0.488599158147237,0.351884066372672,-0.338509719676888,-0.000251621298919633,0.111649043769023,0.430963330853544,0.439481593076867,0.04,0.101940235188382,205.542107773159,0.362796112695124,0.416287007945879
994,0.415061515406098,-0.0517218023779885,0.144860075503003,0.488599158147237,0.351884066372672,-0.356071874497615,-0.000118593103801511,0.111649043769023,0.429906459833936,0.439481593076867,0.04,0.0784384525915739,205.134345219432,0.423770801144549,0.355682113775734
1054,0.415061515406098,-0.0517218023779885,0.144860075503003,0.488599158147237,0.351884066372672,-0.389952393846267,-5.57553483546975e-05,0.111649043769023,0.433768250575514,0.439481593076867,0.04,0.0684431256438984,206.979831172923,0.466006641449124,0.326355246199698
1114,0.415061515406098,-0.0517218023779885,0.144860075503003,0.488599158147237,0.351884066372672,-0.420895465352613,-2.60730246471552e-05,0.111649043769023,0.436622103714968,0.439481593076867,0.04,0.0673161376322488,208.328897794311,0.488213493294223,0.313541054120537
1174,0.415061515406098,-0.0517218023779885,0.144860075503003,0.488599158147237,0.351884066372672,-0.436531360159424,-1.20521484943346e-05,0.111649043769023,0.437990301121628,0.439481593076867,0.04,0.068948263428949,208.969761374319,0.499164697211682,0.307605616039298
1234,0.415061515406098,-0.0517218023779885,0.144860075503003,0.488599158147237,0.351884066372672,-0.436531360159424,-5.42918698250993e-06,0.111649043769023,0.43849793990188,0.439481593076867,0.04,0.0707001377137758,209.210725606656,0.506021702553145,0.303787205239123
1294,0.415061515406098,-0.0517218023779885,0.144860075503003,0.488599158147237,0.351884066372672,-0.436531360159424,-2.30073632728551e-06,0.111649043769023,0.438847281167531,0.439481593076867,0.04,0.0718121148195897,209.376268803585,0.510472584716042,0.301376725221089
1354,0.415061515406098,-0.0517218023779885,0.144860075503003,0.488599158147237,0.351884066372672,-0.436531360159424,-8.22967887185125e-07,0.111649043769023,0.439075049344327,0.439481593076867,0.04,0.0725346222597992,209.48413718189,0.513328386301346,0.299854477265958
1414,0.415061515406098,-0.0517218023779885,0.144860075503003,0.488599158147237,0.351884066372672,-0.436531360159424,-1.2492281528673e-07,0.111649043769023,0.439220345141833,0.439481593076867,0.04,0.0730035387452394,209.552936783686,0.515160953393498,0.298885942711288
1474,0.415061515406098,-0.0517218023779885,0.144860075503003,0.488599158147237,0.351884066372672,-0.436531360159424,2.04808764559797e-07,0.111649043769023,0.439312882988241,0.439481593076867,0.04,0.0733059332913009,209.596757890704,0.51634224801623,0.29826450667413
1534,0.415061515406098,-0.0517218023779885,0.144860075503003,0.488599158147237,0.351884066372672,-0.436531360159424,3.60562195283697e-07,0.111649043769023,0.439372193465678,0.439481593076867,0.04,0.0735001724815258,209.62484754208,0.517107195290474,0.297863202969216
1594,0.415061515406098,-0.0517218023779885,0.144860075503003,0.488599158147237,0.351884066372672,-0.436531360159424,4.34134557365473e-07,0.111649043769023,0.439410440324377,0.439481593076867,0.04,0.073624842978007,209.642962813086,0.517604198394265,0.297602910878847
1654,0.415061515406098,-0.0517218023779885,0.144860075503003,0.488599158147237,0.351884066372672,-0.436531360159424,4.68887515532329e-07,0.111649043769023,0.439435180171736,0.439481593076867,0.04,0.0737049105896987,209.654680921768,0.517928029768821,0.297433460732674
1714,0.415061515406098,-0.0517218023779885,0.144860075503003,0.488599158147237,0.351884066372672,-0.436531360159424,4.85303572692554e-07,0.111649043769023,0.439451192697461,0.439481593076867,0.04,0.073756342597688,209.662265282324,0.518139785315458,0.297322659778465
1774,0.415061515406098,-0.0517218023779885,0.144860075503003,0.488599158147237,0.351884066372672,-0.436531360159424,4.93057932232076e-07,0.111649043769023,0.439461552154494,0.439481593076867,0.04,0.0737893387721634,209.667172021502,0.518279018453704,0.297249741883206
1834,0.409390543084446,-0.040762800044555,0.132645075943597,0.462166561444647,0.329531779127054,-0.426640103016334,4.96720814566136e-07,0.0997430259185228,0.439592885889512,0.437815245723034,0.04,0.0725087446008021,209.724221760565,0.513382307476587,0.300166602872882
1894,0.399382944869768,-0.0214233841620252,0.111089194368174,0.415520802557723,0.290086566340671,-0.409184943352058,4.98451029829955e-07,0.0787324061823467,0.437638383512323,0.434874632745681,0.04,0.0712815909075663,208.774849644356,0.497618463848558,0.308273625213883
1954,0.389375346655089,-0.00208396827949537,0.0895333127927523,0.368875043670799,0.250641353554287,-0.391729783687782,4.99268321771952e-07,0.0577217864461706,0.434540838797862,0.431934019768329,0.04,0.0688486380978597,207.293827855366,0.481314903802503,0.316454836681329
2014,0.37936774844041,0.0172554476030344,0.0679774312173299,0.322229284783875,0.211196140767904,-0.374274624023506,4.99654381250675e-07,0.0367111667099945,0.431365389338303,0.428993406790976,0.04,0.0650357815391445,205.779422966463,0.46653618229459,0.324094223299343
2074,0.369360150225732,0.0365948634855642,0.0464215496419076,0.275583525896951,0.17175092798152,-0.35681946435923,4.83175315550124e-07,0.0157005469738185,0.428306558243472,0.426052793813624,0.04,0.06037982349808,204.327801470119,0.452700806833868,0.331643026567978
2134,0.359352552011053,0.0559342793680941,0.0248656680664853,0.228937767010027,0.132305715195136,-0.339364304694954,4.92052611831428e-07,4.92052611831428e-07,0.425223320754644,0.423112180836271,0.04,0.0554780387159181,202.842135180735,0.439317411765923,0.339261387102821
2194,0.349344953796374,0.0752736952506239,0.00330978649106294,0.182292008123103,0.0928605024087527,-0.321909145030677,0.0241097941179357,3.44408985346036e-07,0.42120204880781,0.420171567858918,0.04,0.0516357580552513,200.924971432641,0.430242925514715,0.343142770646878
2254,0.339337355581695,0.0946131111331537,-0.0182460950843594,0.135646249236179,0.0534152896223691,-0.304453985366401,0.0710625569182083,4.26504238715445e-07,0.417892313910415,0.417230954881566,0.04,0.0481194679928402,199.364616368851,0.42618114657172,0.343722945029266
2314,0.329329757367017,0.113952527015683,-0.0398019766597816,0.0890004903492547,0.0139700768359856,-0.286998825702125,0.118015319718481,4.65283166913804e-07,0.415221878230568,0.414290341904213,0.04,0.0457150805595938,198.091679840009,0.421066195729344,0.345677040088581
2374,0.319322159152338,0.133291942898213,-0.061357858235204,0.0423547314623306,-0.0254751359503981,-0.269543666037849,0.164968082518753,4.82348670776522e-07,0.412439744659516,0.411349728926861,0.04,0.044055422800123,196.77022184192,0.414595273311281,0.348730317362861
