time,bias_percent_1,bias_percent_2,bias_percent_3,bias_percent_4,bias_percent_5,bias_percent_6,bias_percent_8,bias_percent_9,normalized_power,power_SP,SP,CV,total_power_MW,fuel_fraction,thermal_efficiency
35,0,0,0,0,0,0,0,0,0.999674882566231,1,0.04,0.0399626004819886,476.951579913249,0.999730268766088,0.350546896567542
95,0,0,0,0,0,0,0,0,0.999962421330203,1,0.04,0.0398994683894711,477.082708946807,1.00025629813301,0.350458871569368
155,0,0,0,0,0,0,0,0,0.999996148210494,1,0.04,0.0399397975732315,477.098241157628,1.00031530256821,0.350449608550462
215,0,0,0,0,0,0,0,0,1.00000101954888,1,0.04,0.0399714037209594,477.100504857606,1.00031559406671,0.35045116921371
275,0,0,0,0,0,0,0,0,1.00000268408455,1,0.04,0.0399904932082137,477.10129024575,1.00030237837088,0.35045637617927
335,0,0,0,0,0,0,0,0,1.00000360218855,1,0.04,0.0400013834770456,477.101723571489,1.00028235075863,0.350463711309746
395,0,0,0,0,0,0,0,0,1.00000397130481,1,0.04,0.0400071260813679,477.101895705038,1.00025902969727,0.350472008825677
455,0,0,0,0,0,0,0,0,1.00000390760446,1,0.04,0.0400096126606614,477.101862461901,1.00023527289476,0.350480308541033
515,0,0,0,0,0,0,0,0,1.00000355574403,1,0.04,0.0400100766737913,477.101692861065,1.0002131085316,0.35048795046677
575,0,0,0,0,0,0,0,0,1.00000304785067,1,0.04,0.0400093566171095,477.101449758054,1.00019373058119,0.350494562297841
635,0,0,0,0,0,0,0,0,1.00000248479951,1,0.04,0.0400080257618215,477.101180974389,1.00017765957237,0.350499996637925
695,0,0,0,0,0,0,0,0,1.00000193552774,1,0.04,0.0400064658010211,477.100919223951,1.00016493979219,0.350504261889513
755,0,0,0,0,0,0,0,0,1.00000144009956,1,0.04,0.0400049186784906,477.100683399033,1.00015531786897,0.350507460639409
815,0,0,0,0,0,0,0,0,1.00000101979422,1,0.04,0.0400035234995033,477.100483503624,1.00014837753712,0.350509746060145
875,0,0,0,0,0,0,0,0,1.00000067997875,1,0.04,0.0400023483939008,477.100322071954,1.00014364144214,0.350511287270173
935,0,0,0,0,0,0,0,0,1.00000041777791,1,0.04,0.040001413210188,477.100197512499,1.00014063419295,0.350512249686374
995,0,0,0,0,0,0,0,0,1.00000022441899,1,0.04,0.0400007077455899,477.100105788511,1.00013892315913,0.350512781954201
1055,0,0,0,0,0,0,0,0,1.00000008899214,1,0.04,0.0400002050684881,477.100041579876,1.00013813760729,0.350513010089713
1115,0,0,0,0,0,0,0,0,0.999999999901044,1,0.04,0.0399998708123367,477.099999400355,1.00013797591922,0.350513035767466
1175,0,0,0,0,0,0,0,0,0.99999994626334,1,0.04,0.0399996691784163,477.099974051787,1.00013820357496,0.350512937359252
1235,0,0,0,0,0,0,0,0,0.999999918518991,1,0.04,0.0399995667694082,477.099960984171,1.00013864638777,0.350512772568717
1295,0,0,0,0,0,0,0,0,0.999999908706765,1,0.04,0.0399995345778239,477.099956419862,1.00013918128227,0.35051258175418
1355,0,0,0,0,0,0,0,0,0.999999910525821,1,0.04,0.039999548844727,477.09995735922,1.00013972634587,0.350512391419341
1415,0,0,0,0,0,0,0,0,0.999999919195386,1,0.04,0.039999591019499,477.099961530136,1.00014023140181,0.350512217480055
1475,0,0,0,0,0,0,0,0,0.99999993125099,1,0.04,0.0399996473473328,477.099967302026,1.0001406696281,0.350512068138436
1535,0,0,0,0,0,0,0,0,0.999999944336428,1,0.04,0.0399997081590366,477.099973546555,1.00014103049672,0.350511946255147
1595,0,0,0,0,0,0,0,0,0.999999956933377,1,0.04,0.039999767116393,477.099979548189,1.00014131421029,0.350511851233432
1655,0,0,0,0,0,0,0,0,0.999999968175799,1,0.04,0.0399998204404454,477.099984899135,1.00014152738879,0.350511780453605
1715,0,0,0,0,0,0,0,0,0.999999977655664,1,0.04,0.0399998662426335,477.09998940737,1.00014167996065,0.350511730295018
1775,0,0,0,0,0,0,0,0,0.999999985277143,1,0.04,0.0399999039472745,477.099993029,1.00014178300369,0.350511696843049
1835,0,0,0,0,0,0,0,0,0.999999991138921,1,0.04,0.0399999338341036,477.099995812459,1.00014184735255,0.35051167633615
1895,0,0,0,0,0,0,0,0,0.999999995449284,1,0.04,0.0399999566845502,477.099997857465,1.00014188277936,0.350511665422806
1955,0,0,0,0,0,0,0,0,0.999999998464418,1,0.04,0.0399999735256143,477.099999286814,1.00014189759291,0.350511661281324
2015,0,0,0,0,0,0,0,0,1.00000000044768,1,0.04,0.0399999854526586,477.100000225838,1.00014189852052,0.350511661646104
2075,0,0,0,0,0,0,0,0,1.00000000164427,1,0.04,0.0399999935152798,477.100000791417,1.00014189077163,0.350511664777309
2135,0,0,0,0,0,0,0,0,1.00000000226781,1,0.04,0.0399999986518885,477.100001085216,1.00014187820375,0.350511669397719
2195,0,0,0,0,0,0,0,0,1.00000000249585,1,0.04,0.0400000016577236,477.100001191334,1.00014186353618,0.350511674616107
2255,0,0,0,0,0,0,0,0,1.00000000246685,1,0.04,0.0400000031794177,477.100001175835,1.00014184857708,0.350511679847316
2315,0,0,0,0,0,0,0,0,1.00000000228672,1,0.04,0.0400000037200164,477.100001089171,1.00014183443369,0.350511684740366
2375,0,0,0,0,0,0,0,0,1.00000000203144,1,0.04,0.0400000036574234,477.100000967069,1.00014182169933,0.350511689113569
2435,0,0,0,0,0,0,0,0,1.00000000175233,1,0.04,0.0400000032639859,477.100000833848,1.00014181061066,0.350511692901855
2495,0,0,0,0,0,0,0,0,1.00000000148407,1,0.04,0.0400000027222231,477.100000706051,1.000141801168,0.350511696117258
2555,0,0,0,0,0,0,0,0,1.00000000124293,1,0.04,0.040000002156083,477.100000591229,1.00014179323485,0.35051169881317
2615,0,0,0,0,0,0,0,0,1.00000000103958,1,0.04,0.0400000016345777,477.100000494468,1.00014178659941,0.350511701067553
2675,0,0,0,0,0,0,0,0,1.00000000087599,1,0.04,0.0400000011936594,477.100000417011,1.0001417810262,0.350511702963845
2735,0,0,0,0,0,0,0,0,1.00000000075,1,0.04,0.0400000008468531,477.100000356964,1.00014177628483,0.3505117045814
2795,0,0,0,0,0,0,0,0,1.00000000065657,1,0.04,0.0400000005917689,477.10000031261,1.00014177216867,0.350511705991372
2855,0,0,0,0,0,0,0,0,1.00000000059074,1,0.04,0.0400000004178451,477.100000281334,1.00014176850138,0.350511707253643
2915,0,0,0,0,0,0,0,0,1.00000000054642,1,0.04,0.0400000003113716,477.100000260422,1.00014176514169,0.35051170841572
2975,0,0,0,0,0,0,0,0,1.00000000051862,1,0.04,0.040000000257129,477.100000247273,1.00014176198003,0.350511709514102
3035,0,0,0,0,0,0,0,0,1.00000000050272,1,0.04,0.0400000002409889,477.100000239719,1.00014175893612,0.350511710575329
3095,0,0,0,0,0,0,0,0,1.00000000049511,1,0.04,0.0400000002506538,477.100000236155,1.00014175595381,0.350511711617897
3155,0,0,0,0,0,0,0,0,1.00000000049281,1,0.04,0.04000000027624,477.100000235088,1.00014175299629,0.350511712653613
3215,0,0,0,0,0,0,0,0,1.00000000049281,1,0.04,0.0400000003101572,477.100000235121,1.00014175004224,0.350511713688919
3275,0,0,0,0,0,0,0,0,1.00000000049449,1,0.04,0.0400000003467134,477.100000235931,1.00014174707955,0.350511714727822
3335,0,0,0,0,0,0,0,0,1.00000000049659,1,0.04,0.040000000382094,477.100000236929,1.00014174410454,0.350511715771186
3395,0,0,0,0,0,0,0,0,1.00000000049823,1,0.04,0.040000000414076,477.100000237675,1.00014174111831,0.350511716818294
3455,0,0,0,0,0,0,0,0,1.00000000049924,1,0.04,0.0400000004414728,477.10000023819,1.00014173812439,0.350511717867927
3515,0,0,0,0,0,0,0,0,1.0000000004993,1,0.04,0.0400000004637108,477.100000238225,1.00014173512796,0.350511718918085
3575,0,0,0,0,0,0,0,0,1.00000000049872,1,0.04,0.0400000004809001,477.100000237927,1.00014173213417,0.350511719967077
3635,0,0,0,0,0,0,0,0,1.00000000049696,1,0.04,0.0400000004935393,477.10000023708,1.00014172914873,0.350511721012738
3695,0,0,0,0,0,0,0,0,1.00000000049499,1,0.04,0.0400000005020974,477.100000235936,1.00014172617541,0.350511722053933
3755,0,0,0,0,0,0,0,0,1.0000000004919,1,0.04,0.0400000005072666,477.100000234642,1.0001417232191,0.350511723089057
3815,0,0,0,0,0,0,0,0,1.0000000004883,1,0.04,0.0400000005096817,477.100000233152,1.00014172028228,0.350511724117207
3875,0,0,0,0,0,0,0,0,1.0000000004846,1,0.04,0.0400000005101762,477.100000231171,1.00014171736679,0.350511725137521
3935,0,0,0,0,0,0,0,0,0.996318629232995,0.99341499167909,0.04,0.041617737373458,475.271267902582,0.990624532127738,0.352522756776722
3995,0,0,0,0,0,0,0,0,0.985838656492841,0.982126405986102,0.04,0.0443468149117092,470.254397892431,0.968432125029281,0.356794667191252
4055,0,0,0,0,0,0,0,0,0.974437255258747,0.970837820293114,0.04,0.0457465448944151,464.812572554437,0.945906744614971,0.361064026313493
4115,0,0,0,0,0,0,0,0,0.962910491753379,0.959549234600126,0.04,0.0461352051164276,459.312812676668,0.924665944249615,0.364987821738087
4175,0,0,0,0,0,0,0,0,0.951363773567747,0.948260648907138,0.04,0.0459266749959154,453.803827910429,0.904951038643986,0.368466278798694
4235,0,0,0,0,0,0,0,0,0.93981985474485,0.93697206321415,0.04,0.0454009723940233,448.296308505658,0.886781410488988,0.37145247678496
4295,0,0,0,0,0,0,0,0,0.928291701344542,0.925683477521162,0.04,0.044737845715925,442.79639478254,0.870087014768376,0.373934955732098
4355,0,0,0,0,0,0,0,0,0.91678845399345,0.914394891828174,0.04,0.0440524418036957,437.308415822043,0.854735324934858,0.375933353174362
4415,0,0,0,0,0,0,0,0,0.905315490796826,0.903106306135186,0.04,0.0434163500262149,431.834921904916,0.840553777950435,0.377491287038286
4475,0,0,0,0,0,0,0,0,0.893874828162455,0.891817720442198,0.04,0.0428701211200025,426.37683790369,0.827351119689589,0.37866783947052
4535,0,0,0,0,0,0,0,0,0.8824657875276,0.88052913474921,0.04,0.0424319167920124,420.933828058495,0.814935135216967,0.379529433993256
4595,0,0,0,0,0,0,0,0,0.871085735287995,0.869240549056222,0.04,0.042104115302658,415.504618192415,0.803125746088623,0.380142987094498
4655,0,0,0,0,0,0,0,0,0.859730852770554,0.857951963363234,0.04,0.0418785542483322,410.087392587276,0.791763611414789,0.380570881319268
4715,0,0,0,0,0,0,0,0,0.848396750503482,0.846663377670246,0.04,0.0417407782171493,404.680038610125,0.78071486257125,0.380867584749084
4775,0,0,0,0,0,0,0,0,0.837078895962643,0.835374791977258,0.04,0.0416733816949903,399.28039930378,0.769872801423303,0.381077836217398
4835,0,0,0,0,0,0,0,0,0.825773013488024,0.82408620628427,0.04,0.0416583860840325,393.88644140663,0.759157042022978,0.38123615683252
4895,0,0,0,0,0,0,0,0,0.814475314567646,0.812797620591282,0.04,0.0416790289149151,388.49636106839,0.748511016594698,0.381367284841533
4955,0,0,0,0,0,0,0,0,0.80318262600032,0.801509034898294,0.04,0.0417207030944717,383.108653885649,0.737898471005507,0.381487250360034
5015,0,0,0,0,0,0,0,0,0.791892465668908,0.790220449205306,0.04,0.0417716004472302,377.722124339369,0.727299434698284,0.381604818431361
5075,0,0,0,0,0,0,0,0,0.780602976240846,0.778931863512318,0.04,0.0418227652610949,372.335908128128,0.716706442964593,0.381722965677605
5135,0,0,0,0,0,0,0,0,0.769312902039616,0.76764327781933,0.04,0.0418680067007835,366.949406650647,0.70612069145946,0.381840445675347
5195,0,0,0,0,0,0,0,0,0.7580214767254,0.756354692126342,0.04,0.0419035645130201,361.562255886617,0.695548943310133,0.381953125803143
5255,0,0,0,0,0,0,0,0,0.746728325701972,0.745066106433353,0.04,0.0419276960046989,356.1742804125,0.685000932758109,0.382055159450313
5315,0,0,0,0,0,0,0,0,0.735433382721841,0.733777520740365,0.04,0.0419402113398237,350.785448506215,0.674487398838507,0.382139917349252
5375,0,0,0,0,0,0,-2.8421709430404e-17,-2.8421709430404e-17,0.724147551391639,0.722488935047378,0.04,0.0419475481230044,345.401220032765,0.663995052668889,0.382220256870343
5435,0,0,0,0,0,0,0,0,0.71288733106814,0.711200349354389,0.04,0.041988529405594,340.029014697001,0.653369253627883,0.382394784049192
5495,0,0,0,0,0,0,0,0,0.701624848763032,0.699911763661401,0.04,0.0420522179441886,334.655637732235,0.642576723708346,0.382673009684671
5555,0,0,0,0,0,0,0,0,0.690355500531095,0.688623177968413,0.04,0.0421141044199329,329.278970213654,0.631654123766986,0.383035772366833
5615,0,0,0,0,0,0,0,0,0.679078869572718,0.677334592275425,0.04,0.0421595802068822,323.89882939777,0.620644893424745,0.383460706668682
5675,0,0,0,0,0,0,0,0,0.667795156452685,0.666046006582437,0.04,0.042182148702713,318.515319350324,0.6095921668835,0.383924319841216
5735,0,0,0,0,0,0,0,0,0.656505045053882,0.654757420889449,0.04,0.0421808210591407,313.128762708913,0.598535877083722,0.384403603737132
5795,0,0,0,0,0,0,0,0,0.648757010237509,0.650053843517371,0.04,0.0393247002194763,309.506633824774,0.597716725083746,0.380477719552038
5855,0,0,0,0,0,0,0,0,0.648029292938413,0.650053843517371,0.04,0.0349959635969955,309.173776705474,0.609223758429573,0.372889793106667
5915,0,0,0,0,0,0,0,0,0.648051957151372,0.650053843517371,0.04,0.0333783159591214,309.186687979074,0.621403334881864,0.36559637737924
5975,0,0,0,0,0,0,0,0,0.648295642216213,0.650053843517371,0.04,0.0336031338299725,309.304357394891,0.63253830316005,0.359297243494167
6035,0,0,0,0,0,0,0,0,0.648644654464818,0.650053843517371,0.04,0.0348228424446914,309.471331232309,0.641737859043901,0.354337762394402
6095,0,0,0,0,0,0,0,0,0.649022311459533,0.650053843517371,0.04,0.0364073046932417,309.651516197653,0.648701681371142,0.350738034218318
6155,0,0,0,0,0,0,0,0,0.649377913058256,0.650053843517371,0.04,0.0379699524151145,309.820835367503,0.653464949754194,0.348371805074194
6215,0,0,0,0,0,0,0,0,0.649677587181585,0.650053843517371,0.04,0.0392961656127388,309.963282033044,0.656303541347468,0.347024533728893
6275,0,0,0,0,0,0,0,0,0.649906539287435,0.650053843517371,0.04,0.0402908969855015,310.071937327912,0.657620282724876,0.346451095953148
6335,0,0,0,0,0,0,0,0,0.650064712965747,0.650053843517371,0.04,0.0409401947570102,310.146866143516,0.657845557204757,0.346416147429041
6395,0,0,0,0,0,0,0,0,0.65016077177059,0.650053843517371,0.04,0.0412804033452556,310.192249893555,0.657372820020206,0.346715993508095
6455,0,0,0,0,0,0,0,0,0.650207298002922,0.650053843517371,0.04,0.0413739574976356,310.214108327007,0.656526085842495,0.347187623394635
6515,0,0,0,0,0,0,0,0,0.650217659804401,0.650053843517371,0.04,0.0412917336796125,310.218816403664,0.655549587127415,0.34771006693562
6575,0,0,0,0,0,0,0,0,0.650204202454594,0.650053843517371,0.04,0.0411012478925903,310.212251434229,0.65461074246008,0.348201384817312
6635,0,0,0,0,0,0,0,0,0.650177324401054,0.650053843517371,0.04,0.0408597056343331,310.199357150578,0.653810286225594,0.348613194743046
6695,0,0,0,0,0,0,0,0,0.650145104647181,0.650053843517371,0.04,0.0406108121455127,310.183968956932,0.653195641729539,0.34892392295449
6755,0,0,0,0,0,0,0,0,0.650113291359621,0.650053843517371,0.04,0.0403842897528586,310.168811082577,0.652775026248937,0.349131690045978
6815,0,0,0,0,0,0,0,0,0.650085511567703,0.650053843517371,0.04,0.0401972110455505,310.155598977773,0.652530694655747,0.349247540490347
6875,0,0,0,0,0,0,0,0,0.650063626097034,0.650053843517371,0.04,0.0400563524270511,310.14520785668,0.652430311511574,0.349289573216854
6935,0,0,0,0,0,0,0,0,0.650048141618378,0.650053843517371,0.04,0.0399609570768606,310.137870363889,0.652435939679837,0.349278296599347
6995,0,0,0,0,0,0,0,0,0.650038630944283,0.650053843517371,0.04,0.0399054227417692,310.133376940751,0.652510494066712,0.349233328914042
7055,0,0,0,0,0,0,0,0,0.65003411234457,0.650053843517371,0.04,0.0398816309602631,310.131255976203,0.652621817431235,0.349171369198754
7115,0,0,0,0,0,0,0,0,0.650033361888964,0.650053843517371,0.04,0.0398807551943574,310.130922801334,0.652744735964061,0.349105241601296
7175,0,0,0,0,0,0,0,0,0.650035143613256,0.650053843517371,0.04,0.0398945206485249,310.131788307162,0.652861561929909,0.34904374524911
7235,0,0,0,0,0,0,0,0,0.650038360843531,0.650053843517371,0.04,0.0399159539539452,310.133330793327,0.652961529451261,0.348992042881565
7295,0,0,0,0,0,0,0,0,0.650042136579259,0.650053843517371,0.04,0.0399397183216747,310.135133763127,0.653039610170358,0.348952344261146
7355,0,0,0,0,0,0,0,0,0.650045839002838,0.650053843517371,0.04,0.0399621407369753,310.136897699286,0.653095070832649,0.348924695865336
7415,0,0,0,0,0,0,0,0,0.650049068830244,0.650053843517371,0.04,0.0399810370358248,310.138433841039,0.653130037157322,0.34890774381257
7475,0,0,0,0,0,0,0,0,0.650051623155019,0.650053843517371,0.04,0.0399954290932264,310.139646764214,0.653148233388466,0.348899388006914
7535,0,0,0,0,0,0,0,0,0.650053449422455,0.650053843517371,0.04,0.0400052229331578,310.140512386793,0.653153983077582,0.348897290454464
7595,0,0,0,0,0,0,0,0,0.654159604161818,0.657732544478358,0.04,0.0370321380418862,312.18620441651,0.665094792329109,0.344893362581031
7655,0,0,0,0,0,0,0,0,0.666645131913456,0.670896031840049,0.04,0.0328120626318505,318.161734793464,0.690984788398475,0.338325035082157
7715,0,0,0,0,0,0,0,0,0.680008362670218,0.68405951920174,0.04,0.0315610735786761,324.538713631273,0.716437749092902,0.332845527741356
7775,0,0,0,0,0,0,0,0,0.693465013271815,0.697223006563432,0.04,0.0319718856697153,330.959449608216,0.740280624371226,0.328498264406404
7835,0,0,0,0,0,0,0,0,0.706983020854024,0.710386493925123,0.04,0.0331125679256572,337.40923166482,0.762108550817618,0.325308044307865
7895,0,0,0,0,0,0,0,0,0.720518143701734,0.723549981286815,0.04,0.0344701308199517,343.866756783106,0.78171442288369,0.323218897041714
7955,0,0,0,0,0,0,0,0,0.73402036514331,0.736713468648506,0.04,0.0357563458883821,350.30824861972,0.799199438995597,0.322069700619446
8015,0,0,0,0,0,0,0,0,0.747459392631935,0.749876956010198,0.04,0.036823267985071,356.719446145955,0.814892322774811,0.321648281246496
8075,0,0,0,0,0,0,0,0,0.760826133914199,0.763040443371889,0.04,0.0376175790441145,363.096155382504,0.829217159899412,0.321742213911669
8135,0,0,0,0,0,0,0,0,0.774125339335453,0.776203930733581,0.04,0.0381459815819472,369.440710837117,0.842593805650675,0.322167083386463
8195,0,0,0,0,0,0,0,0,0.787368338946828,0.789367418095272,0.04,0.0384476209372683,375.758544608079,0.855384604607865,0.322776651492412
8255,0,0,0,0,0,0,0,0,0.800568170941748,0.802530905456963,0.04,0.0385741720533658,382.055896427211,0.867875368197679,0.323462709775091
8315,0,0,0,0,0,0,0,0,0.813737176974307,0.815694392818655,0.04,0.0385773375744247,388.338631394137,0.880275523950473,0.324150462447711
8375,0,0,0,0,0,0,0,0,0.826885774745062,0.828857880180346,0.04,0.0385021044201069,394.611697640095,0.892727838953817,0.324792171817979
8435,0,0,0,0,0,0,0,0,0.840022139132214,0.842021367542038,0.04,0.0383840001016809,400.878987759207,0.905321352389337,0.325360784000551
8495,0,0,0,0,0,0,0,0,0.853152324719379,0.855184854903729,0.04,0.0382488991662099,407.143364306231,0.918104548710424,0.325844127353746
8555,0,0,0,0,0,0,0,0,0.866280483216916,0.868348342265421,0.04,0.0381140616330151,413.406806578254,0.931097245322287,0.326240036737229
8615,0,0,0,0,0,0,0,0,0.879409260883799,0.881511829627112,0.04,0.0379897903401566,419.670565053233,0.944300460047833,0.326552478718764
8675,0,0,0,0,0,0,0,0,0.892540145170511,0.894675316988804,0.04,0.0378812315153462,425.935328117935,0.957704087015387,0.326788675791466
8735,0,0,0,0,0,0,0,0,0.905673783373013,0.907838804350495,0.04,0.0377899375126786,432.201402235452,0.971292587007634,0.326957100759579
8795,0,0,0,0,0,0,0,0,0.918810275438792,0.921002291712187,0.04,0.0377151791540349,438.468850313368,0.985048847534187,0.327066192136242
8855,0,0,0,0,0,0,0,0,0.931949477653655,0.934165779073878,0.04,0.0376549259156111,444.737587339646,0.998956530901474,0.327123633515783
8915,0,0,0,0,0,0,0,0,0.940865633413159,0.939650565474583,0.04,0.0394841958293416,448.90811584818,1.00171084509994,0.329283339560659
8975,0,0,0,0,0,0,0,0,0.941856002840082,0.939650565474583,0.04,0.0425866369582158,449.360074533836,0.989271854444341,0.333759399948204
9035,0,0,0,0,0,0,0,0,0.941695634021848,0.939650565474583,0.04,0.0440894212711818,449.280709907807,0.976501028376421,0.338064636644411
9095,0,0,0,0,0,0,0,0,0.941382215095557,0.939650565474583,0.04,0.0443995520616904,449.130870126791,0.965450229327292,0.341820175410323
9155,0,0,0,0,0,0,0,0,0.941060652890477,0.939650565474583,0.04,0.0440479435188675,448.977537269319,0.956335867092504,0.344960084485935
9215,0,0,0,0,0,0,0,0,0.94075782431287,0.939650565474583,0.04,0.0433847531377248,448.83326125817,0.949084286377489,0.347484091520915
9275,0,0,0,0,0,0,0,0,0.940485490504283,0.939650565474583,0.04,0.042621155522631,448.703607728706,0.943533901556949,0.349427216388978
9335,0,0,0,0,0,0,0,0,0.94025099865755,0.939650565474583,0.04,0.0418802827709724,448.592051550726,0.939470687072383,0.350851240573161
9395,0,0,0,0,0,0,0,0,0.940057614378128,0.939650565474583,0.04,0.0412288555894565,448.500116353766,0.936652700945521,0.351834681069126
9455,0,0,0,0,0,0,0,0,0.939904933184724,0.939650565474583,0.04,0.0406966804519701,448.427587169212,0.934833271805317,0.352462435364981
9515,0,0,0,0,0,0,0,0,0.939789845121403,0.939650565474583,0.04,0.0402897155531323,448.372959562038,0.933779356871227,0.352817258368577
9575,0,0,0,0,0,0,0,0,0.939707520960787,0.939650565474583,0.04,0.0399993792995487,448.33392080963,0.933283867644436,0.352973837128993
9635,0,0,0,0,0,0,0,0,0.939652331436066,0.939650565474583,0.04,0.0398092541570025,448.307782259795,0.933172243588606,0.352995477726434
9695,0,0,0,0,0,0,0,0,0.939618535097464,0.939650565474583,0.04,0.0396997631236833,448.291805822269,0.933304444518222,0.352932898547934
9755,0,0,0,0,0,0,0,0,0.939600770826897,0.939650565474583,0.04,0.0396512767352092,448.283438063608,0.933573567344917,0.352824572083888
9815,0,0,0,0,0,0,0,0,0.93959435702445,0.939650565474583,0.04,0.039645982838591,448.280451505374,0.933902299543635,0.352698028603625
9875,0,0,0,0,0,0,0,0,0.939595430410893,0.939650565474583,0.04,0.0396688483531994,448.28100989687,0.934238222707408,0.352571648476635
9935,0,0,0,0,0,0,0,0,0.939600970170141,0.939650565474583,0.04,0.0397079384258061,448.283678474571,0.934548756600868,0.352456593333274
9995,0,0,0,0,0,0,0,0,0.93960873813006,0.939650565474583,0.04,0.0397543222630625,448.287395093574,0.934816311537328,0.352358637596238
10055,0,0,0,0,0,0,0,0,0.939617173771556,0.939650565474583,0.04,0.0398017366772865,448.291420347666,0.935033990965452,0.352279770336558
10115,0,0,0,0,0,0,0,0,0.939625268480788,0.939650565474583,0.04,0.0398461346974193,448.295276802236,0.935202017015771,0.352219506833063
10175,0,0,0,0,0,0,0,0,0.939632439830214,0.939650565474583,0.04,0.0398852050934385,448.298689382868,0.93532491885303,0.352175906001959
10235,0,0,0,0,0,0,0,0,0.939638415564784,0.939650565474583,0.04,0.0399179216423762,448.301530469687,0.935409440958211,0.352146315657106
10295,0,0,0,0,0,0,0,0,0.935431655965301,0.932084144793349,0.04,0.0419468629274888,446.211114291379,0.924436664788211,0.354664645104556
10355,0,0,0,0,0,0,0,0,0.923352062421636,0.919113137911234,0.04,0.0453319477380003,440.42846405886,0.899016023259851,0.359966945481445
10415,0,0,0,0,0,0,0,0,0.910222379825995,0.906142131029119,0.04,0.0470274191067726,434.161855198384,0.873415564311478,0.365245954055922
10475,0,0,0,0,0,0,0,0,0.896960490825706,0.893171124147005,0.04,0.0474389025230487,427.834276596437,0.84941470735733,0.370092663242845
10535,0,0,0,0,0,0,0,0,0.883679819397645,0.88020011726489,0.04,0.0470903477377946,421.498028279542,0.827250874633621,0.374380300601902
10595,0,0,0,0,0,0,0,0,0.870402485417569,0.867229110382775,0.04,0.0463382802607085,415.163501015346,0.80693959058881,0.378035703215802
10655,0,0,0,0,0,0,0,0,0.857142632284417,0.85425810350066,0.04,0.0454155104785032,408.837415454558,0.788403678859263,0.381027804480734
10715,0,0,0,0,0,0,0,0,0.843911658197656,0.841287096618546,0.04,0.0444751651143616,402.525182462465,0.771491541768463,0.383368621086861
10775,0,0,0,0,0,0,0,0,0.830717018654529,0.828316089736431,0.04,0.0436150174094741,396.230332134921,0.755998418906562,0.385107084050554
10835,0,0,0,0,0,0,0,0,0.817562334748674,0.815345082854316,0.04,0.0428917106537547,389.954553377772,0.741690040291839,0.386319139415904
10895,0,0,0,0,0,0,0,0,0.804447631050101,0.802374075972202,0.04,0.0423305305563387,383.697838856601,0.728325077422113,0.387096073140252
10955,0,0,0,0,0,0,0,0,0.791370204406995,0.789403069090087,0.04,0.0419335969875947,377.458878173877,0.715673150123889,0.387533809027543
11015,0,0,0,0,0,0,0,0,0.778325432286177,0.776432062207972,0.04,0.0416869470420265,371.235456157421,0.70352808873133,0.387723998705221
11075,0,0,0,0,0,0,0,0,0.765307537270978,0.763461055325857,0.04,0.041566728755987,365.024806882911,0.691716419991439,0.3877474684551
11135,0,0,0,0,0,0,-2.8421709430404e-17,-2.8421709430404e-17,0.752310340104073,0.750490048443743,0.04,0.0415443763099027,358.823984908642,0.680101219400554,0.387670351199559
11195,0,0,0,0,0,0,0,0,0.73933495065497,0.737519041561628,0.04,0.0415935295064755,352.633746986212,0.668568751633634,0.387554223377991
11255,0,0,0,0,0,0,0,0,0.726400725989725,0.724548034679513,0.04,0.0417255096286261,346.462991411638,0.656889020088323,0.387542667664068
11315,0,0,0,0,0,0,0,0,0.713473391978419,0.711577027797398,0.04,0.0419132732583559,340.295351460167,0.64495136135736,0.387689223341899
11375,0,0,0,0,0,0,0,0,0.700542257064081,0.698606020915284,0.04,0.0421108503901768,334.125861322639,0.632764065770478,0.387992168583804
11435,0,0,0,0,0,0,0,0,0.687603433866401,0.685635014033169,0.04,0.0422862953457036,327.952676537274,0.620366482469393,0.388434262416117
11495,0,0,0,0,0,0,0,0,0.67465486017444,0.672664007151054,0.04,0.0424209009931622,321.774829512174,0.607813631901489,0.388988094215498
11555,0,0,0,0,0,0,0,0,0.661695790045778,0.659693000268939,0.04,0.0425063523415762,315.591974435838,0.595167592474692,0.38962009813038
11615,0,0,0,0,0,0,0,0,0.635689546566229,0.622558596550685,0.04,0.0536581944384172,302.910266836591,0.545066773074746,0.408337213964807
11675,0,0,0,0,0,0,0,0,0.600614979441535,0.599894441181132,0.04,0.0572197626989303,286.484230007165,0.500807972410942,0.42032397536647
11735,0,0,0,0,0,0,0,0,0.597624552375775,0.599894441181132,0.04,0.0395714426432636,285.119584957018,0.51167955776028,0.4094337694581
11795,0,0,0,0,0,0,0,0,0.596970454444758,0.599894441181132,0.04,0.0297443261733067,284.810798009419,0.528071727165551,0.396294651340344
11855,0,0,0,0,0,0,0,0,0.596672297327423,0.599894441181132,0.04,0.0261857829972978,284.671522947923,0.546981571575736,0.382407152204507
11915,5.6843418860808e-17,5.6843418860808e-17,5.6843418860808e-17,5.6843418860808e-17,5.6843418860808e-17,5.6843418860808e-17,0,0,0.596744526221526,0.599894441181132,0.04,0.0265027266773905,284.708752266288,0.566203899515181,0.369472941576971
11975,0,0,0,0,0,0,0,0,0.597127033678786,0.599894441181132,0.04,0.0288483323460845,284.893361548497,0.58372622482835,0.358614463018738
12035,0,0,0,0,0,0,0,0,0.597722134272671,0.599894441181132,0.04,0.0320117045600786,285.178484332321,0.598056261559752,0.35037199905042
12095,0,0,0,0,0,0,0,0,0.59840400830687,0.599894441181132,0.04,0.0352589706939686,285.503996432127,0.608409682072123,0.344802774199544
