time,bias_percent_1,bias_percent_2,bias_percent_3,bias_percent_4,bias_percent_5,bias_percent_6,bias_percent_8,bias_percent_9,normalized_power,power_SP,SP,CV,total_power_MW,fuel_fraction,thermal_efficiency
9,0,0,0,0,0,0,0,0,0.99882135613262,1,0.04,0.0399272970199048,476.632137852421,0.999342289280543,0.350448118399673
69,0,0,0,0,0,0,0,0,0.999903974657367,1,0.04,0.0398951910756398,477.055803985169,1.00014974809885,0.350476441236019
129,0,0,0,0,0,0,0,0,0.999989185027364,1,0.04,0.0399219314637309,477.095030142211,1.00030416500041,0.350451151861806
189,0,0,0,0,0,0,0,0,0.999999730088652,1,0.04,0.039959484328743,477.099901507278,1.00031793417479,0.350449906194607
249,0,0,0,0,0,0,0,0,1.00000208634517,1,0.04,0.0399834634786324,477.10100765982,1.00030917823986,0.350453786285344
309,0,0,0,0,0,0,0,0,1.00000327690258,1,0.04,0.0399974415210944,477.101570337833,1.000291625739,0.350460349153856
369,0,0,0,0,0,0,0,0,1.00000387244429,1,0.04,0.0400051289357984,477.101850151473,1.00026933938145,0.350468363080252
429,0,0,0,0,0,0,0,0,1.0000039791554,1,0.04,0.0400088447177311,477.101897690433,1.00024547067574,0.350476761175446
489,0,0,0,0,0,0,0,0,1.00000373451173,1,0.04,0.040010063001292,477.101778764541,1.00022242333751,0.350484749571264
549,0,0,0,0,0,0,0,0,1.0000032798121,1,0.04,0.0400097722823456,477.101560651649,1.00020173913487,0.350491837374948
609,0,0,0,0,0,0,0,0,1.00000273067698,1,0.04,0.0400086492339853,477.10129829465,1.00018420592982,0.350497788750421
669,0,0,0,0,0,0,0,0,1.00000216868298,1,0.04,0.0400071516881946,477.101030257856,1.00017005147758,0.350502552097746
729,-0.0375,-0.0375,0.0374999346098525,0.0374999999999999,-0.0375,0.0374999999999999,-0.0374999841197177,0.0374985728546937,0.998948286225871,1,0.04,0.0402463262951085,476.606666702015,1.00158570731294,0.349644475536123
789,-0.25,-0.25,0.249999564065684,0.25,-0.25,0.25,-0.249999894131451,0.249990485697958,1.00199131968052,1,0.04,0.0392784014984674,478.026894571971,0.998833544139608,0.351652645292471
849,-0.249999996782853,-0.25,0.249999611439799,0.25,-0.249999999674071,0.25,-0.249999910011734,0.245469640017455,1.00010654797173,1,0.04,0.0393219175378855,477.159536125076,0.997605788430822,0.351446581725301
909,-0.249999978552357,-0.25,0.249999879893118,0.25,-0.249999997827138,0.25,-0.25,0.219851514494608,1.00024548279905,1,0.04,0.0387832795065931,477.205281243503,0.995622647645865,0.352180374236616
969,-0.249999981769503,-0.17500028157884,0.175000354001126,0.175000049585767,-0.174999998153068,0.249987245908139,-0.175,0.14937380910453,1.00014140355485,1,0.04,0.0383940921635198,477.125720721878,0.996044817144583,0.351972412775651
1029,-0.25,0.249998122807735,-0.249996959386826,-0.249999669428218,0.25,0.249914972720929,0.25,-0.249999854772574,1.00006375870954,1,0.04,0.0392907277190374,477.100107396712,0.997537243553353,0.351426956481452
1089,-0.249999670957816,0.174998419568208,-0.249997415267856,-0.174999915212097,0.175000000539373,0.17492772681279,0.175,-0.249999598005822,1.00455783532379,1,0.04,0.0337928218548897,479.369683707345,0.993873680511272,0.354400275900098
1149,-0.249997806385442,-0.249999898789113,-0.249999998593695,0.249998692012591,-0.249999996404179,-0.25,-0.25,-0.249998142994223,1.02338842157412,1,0.04,0.0106954292320821,487.906882669423,0.859462888152845,0.417123340978679
1209,-0.249998115578156,-0.249999809232149,-0.24999998704673,0.174998888210702,-0.249999958051434,-0.175008591819576,-0.25,-0.249998206242921,1.00405053957319,1,0.04,0.00958386604509136,479.04593384991,0.816986625114545,0.430840863600696
1269,-0.249999867670201,-0.249999301742689,-0.249999921613928,-0.25,-0.249999740719217,0.249942721202824,-0.25,-0.249998564652214,1.00363015097412,1,0.04,0.00836453180216053,478.741540462443,0.795249025784037,0.442336363706315
1329,-0.194925525902914,-0.249994776061779,-0.175032981913369,-0.227105528617317,-0.174999789688435,0.249945378848171,-0.17531190307797,-0.175001291439521,0.986973691013192,1,0.04,0.0161761915231862,470.578102942059,0.813971630852378,0.42479277555392
1389,0.117162410778382,-0.249969130536625,0.249779676389797,-0.0973701907821141,0.249999932819328,0.249960438838469,0.247920646146867,0.249983256765737,0.954353436862921,1,0.04,0.0447822852017966,455.46961020969,1.11422390660408,0.300359663590626
1449,0.137088049161625,-0.249973689721034,0.174812864076372,-0.0452647018743941,0.249574783944029,0.174966597034981,0.248209452775957,0.249830417022549,0.989350947457523,1,0.04,0.0458692995185679,472.269780721715,1.22850791078362,0.282466452726075
1509,0.25,-0.249999525099357,-0.249999072366371,0.249999735269353,0.247165606983997,-0.249998506518121,0.249846023674134,0.248964325144484,1.00271240548059,0.997146471972162,0.04,0.0487927914185195,478.248990379978,1.21939357249831,0.288180663315665
1569,0.187776383479113,-0.249999595130463,-0.249932250583337,0.249759527328523,0.245848752243414,-0.249998618923787,0.174869351169348,0.174120402804166,0.993953499474111,0.978122951786579,0.04,0.0579609662929608,474.471785334425,1.15506558513913,0.301827234111535
1629,-0.164824110139245,-0.249999991973395,-0.249553593812811,0.248398348997156,0.238386575380111,-0.249999255889228,-0.249998459691104,-0.249995157124303,0.992330115287842,0.959099431600995,0.04,0.0509170387583753,472.84832149655,0.95901901313447,0.362284130494572
1689,-0.124906989629924,-0.17500587384464,-0.174620554740889,0.173893030263051,0.165128901112213,-0.24999890080732,-0.249998690737439,-0.17501531829955,0.950287411229591,0.940075911415412,0.04,0.054700636829279,453.208786886598,0.862741819101494,0.385986528943031
1749,0.101290026589562,0.249960795551636,0.25,-0.248303775896879,-0.249997919739207,-0.249996888676503,-0.25,0.249870435040714,0.918755647039057,0.921052391229828,0.04,0.0655044337555833,438.340120048229,0.874162507175557,0.368445895517637
1809,0.0996615306234941,0.249798782722256,0.249717090600523,-0.173558689523866,-0.24999822679703,-0.248078221895159,-0.175,0.249591751667771,0.905162873419409,0.902028871044244,0.04,0.065620261049588,431.427595488305,0.85049500884068,0.372726977454774
1869,0.0904333868157737,0.24888071002243,0.248113937336821,0.249996799923209,-0.249999966791361,-0.237205776800875,0.25,0.248012545887765,0.877219458432967,0.883005350858661,0.04,0.0787788035868064,418.580212276204,0.883878185430177,0.34796932024078
1929,0.114368378793408,0.174048603519065,0.173396846736298,0.17499742999249,-0.174999971772657,-0.164124983669802,0.249999996834549,0.1733106640046,0.869923603136501,0.863981830673077,0.04,0.0735907372501764,415.085016057306,0.866971672042862,0.351792701642403
1989,0.25,-0.25,-0.25,-0.249998999614918,0.25,0.249999510739608,0.249999978896991,-0.25,0.863239764993461,0.844958310487493,0.04,0.0554192431117637,411.372542928907,0.772599788499478,0.391232921490699
2049,0.175000001674051,-0.175,-0.175,-0.175001455649216,0.175000045979622,0.249997348123552,0.242340961295339,-0.175000001280015,0.829861864521147,0.82593479030191,0.04,0.0592397573133802,395.685538006749,0.722629087550164,0.402336482539177
2109,-0.249999988839663,0.25,0.25,0.2499846268231,-0.249999693469186,0.249985093299232,0.198939861552645,0.249999991466567,0.800366349625801,0.806911270116326,0.04,0.0717680031036778,382.090001915991,0.762479924007846,0.368206911923226
2169,-0.249999962796397,0.25,0.228860482230835,0.17498700229655,-0.174999852889901,0.174987394035006,0.131599366651602,0.175002413207436,0.795472352514573,0.787887749930742,0.04,0.0606527785877317,379.950583875675,0.747303173758631,0.373581159603864
2229,-0.249999815217891,0.25,0.109069881538898,-0.249999536687233,0.249999243726047,-0.249999568462273,-0.096755899752344,-0.096755899752344,0.787284099609302,0.768864229745159,0.04,0.038956639781762,375.185697680091,0.605771698454563,0.455084424082259
2289,-0.249999822782732,0.175,0.0552093993080634,-0.249999606184148,0.174999358834017,-0.249997564016514,-0.0756944597807312,-0.0756944597807312,0.752513919846811,0.749840709559575,0.04,0.0237110574540885,358.992293454735,0.571063639455128,0.461907796873048
2349,-0.24999986565016,-0.25,-0.25,-0.25,-0.249999988887484,-0.249986205490542,-0.103929896458899,-0.103929896458899,0.69122658749661,0.730817189373992,0.04,1.8221037479591e-10,329.473712130575,0.659696375794026,0.366970663537213
2409,-0.249997854989646,-0.2499996686052,-0.249999995818663,-0.249998548202488,-0.249992344744762,-0.249988269395998,-0.172384535538159,-0.172384535538159,0.696155348394177,0.711793669188408,0.04,1.66544363442647e-10,332.221958183731,0.814159004280687,0.299829098967008
2469,-0.249986461246732,-0.249997790701337,-0.249999972124421,-0.249990321349919,-0.249949027936003,-0.249999964860244,-0.24999999429472,-0.249994919084018,0.701639079653744,0.692770149002824,0.04,3.11651584182978e-08,334.762270360652,0.803871382204402,0.305988153459087
2529,-0.174988581981581,-0.249997274222453,-0.175000109995554,-0.175015457550065,-0.198504526863032,-0.174999972704227,-0.214911083319967,-0.181136445571022,0.71257172363126,0.673746628817241,0.04,7.74150382037568e-06,340.523297278327,0.644693490511161,0.388104091427469
2589,0.249999400520941,-0.249994347508777,0.249999108734694,0.249842103982441,0.0930143125504734,0.249999982846538,-0.0160739211297005,0.209061571002625,0.630624057628138,0.654723108631657,0.04,0.0872890332247868,301.188227838937,0.718004289990655,0.308223416676743
2649,0.249993383775175,-0.249995140859543,0.175003350767758,0.174865788430419,0.0455265649324537,0.174999986899366,0.0238341723498885,0.14020513221644,0.640875625659234,0.635699588446073,0.04,0.0740737667779237,306.101939433076,0.730032936464283,0.308090497272153
2709,0.249959288882496,-0.249999636513884,-0.249972611044877,-0.249999999697706,-0.223570671569659,-0.249999990134609,0.249980035400893,-0.249981354238607,0.656870984012728,0.61667606826049,0.04,0.0348788003997137,313.219026081698,0.547369545497025,0.420457574460527
2769,0.226523290180298,-0.249999304190276,-0.249965768093512,-0.175000002544686,-0.227535011222293,-0.175001171186923,0.249982989561324,-0.249982836686999,0.609203642252806,0.597652548074906,0.04,0.0433519994931351,290.210384436791,0.464010607757498,0.459557349200174
2829,0.0937192975345054,-0.249997421023167,-0.249926991369108,0.249999981322425,-0.249999602587218,0.249992136183299,0.249999729803769,-0.249991237227884,0.575626828153599,0.578629027889322,0.04,0.0545175279307447,274.566519510839,0.478704858438835,0.421438705761992
2889,0.117160122288119,-0.249997790023186,-0.174956289175616,0.202845876017899,-0.248678830630383,0.174994196079386,0.249999763833378,-0.182876239752437,0.562052541686896,0.559605507703739,0.04,0.047569493373301,267.981557758015,0.464221097963407,0.424164882160975
2949,0.249991462558596,-0.249999881023294,0.249877689920837,-0.0643607207077516,-0.241194456208319,-0.249994131176122,0.24999995666783,0.197442079275095,0.53846489635566,0.545103461333006,0.04,0.0579166894496904,256.853333039478,0.490149355543048,0.385044962566964
3009,0.249841740579755,-0.231763067126154,0.249877734010373,-0.0172066126360131,-0.167528301297689,-0.174995025321227,0.249909680860372,0.205325767334501,0.551213691919142,0.556223099913092,0.04,0.0516431001307596,262.638961300227,0.518822671194072,0.371958838657537
3069,0.248993316032993,-0.12842112170903,0.249877983851074,0.249999999770505,0.249913243195884,0.249999907856512,0.249398117951448,0.249999999671138,0.546402411085915,0.567342738493178,0.04,0.0773589504497227,261.00573574893,0.653829555346957,0.293318988919034
3129,0.249114029708468,-0.146502640142082,0.244118161230113,0.191032238256292,0.175210563274493,0.19109093580191,0.174488400258731,0.249997552140871,0.573962771386007,0.578462377073264,0.04,0.0608378603657346,274.391947877873,0.710819341381899,0.283639559707015
3189,0.249798073869491,-0.248964577929377,0.211479166378001,-0.143118410324249,-0.248104622946723,-0.142726572507505,-0.0592988852608704,0.249983682802695,0.609615031693012,0.58958201565335,0.04,0.0201832868855536,290.620080991894,0.614125712701856,0.347714670600423
3249,0.249828362789067,-0.248251064922848,0.217257291421301,-0.133482959870342,-0.248388193463648,-0.118711879423409,-0.0622819365795127,0.17498770988418,0.60365519832065,0.600701654233436,0.04,0.0208792672257813,288.258994323155,0.588556533209029,0.359873078070801
3309,0.25,-0.244207824552521,0.25,-0.0788820739648712,-0.249995093059559,0.0173713813864653,0.249998557186162,-0.0857984230756917,0.602729440919571,0.611821292813522,0.04,0.0315615779784368,287.780852676431,0.598477975568684,0.353320143901051
3369,0.249990918961671,-0.239141255357745,0.249999999525907,-0.0295497630603967,-0.249995829100625,0.0522656144177802,0.249998773608238,-0.1127123206223,0.618813897112451,0.622940931393609,0.04,0.0279989018152886,295.20295797569,0.62601592515097,0.34648943738368
3429,0.249939459744476,-0.21043069658735,0.24999999683938,0.249999998731626,-0.25,0.249999601595231,0.25,-0.134562548192258,0.623142985801437,0.634060569973695,0.04,0.0432785826634011,297.498831858097,0.6864897872587,0.318424048939943
3489,0.174951117082396,-0.216366092099248,0.249980871297067,0.174999998921882,-0.175000000004023,0.249996741666176,0.2499999958631,-0.142071580169553,0.639435605011658,0.645180208553781,0.04,0.0407502987586195,305.173325145686,0.724980891395496,0.309296272549688
3549,-0.249982824669389,-0.25,0.249872493223961,-0.25,0.249999999973179,0.24998053540153,0.249999972420663,0.093970682254463,0.658976887422249,0.656299847133867,0.04,0.0319579450894343,314.847305488613,0.7325331515422,0.315811087576316
3609,-0.174985401146508,-0.25,0.174891619293434,-0.175002134134207,0.249999999977202,0.1749834550913,0.249999973899401,0.0423750945887762,0.669541329603586,0.667419485713953,0.04,0.0318030773483074,319.943139909874,0.7300811997733,0.322000327788643
3669,0.249999998816485,-0.25,-0.249999999646216,0.24998577243862,0.25,-0.25,0.249999982278912,-0.175123519803476,0.678067882117415,0.678539124294039,0.04,0.030106671731943,323.475435872394,0.721148122129471,0.329588087292161
3729,0.199450612152392,-0.175007320717444,-0.249999979639693,0.194461379595387,0.249993022330656,-0.175023050568362,0.249999984735097,-0.127256620917728,0.685748508037175,0.689658762874125,0.04,0.0338371245742438,326.930490626887,0.732540619830208,0.327927917392291
3789,-0.0869959122774709,0.249951195217037,-0.2499998662694,-0.120176846516269,0.249953482204372,0.249846329544253,0.249999998653477,0.249979114162011,0.689325122488113,0.700778401454211,0.04,0.0460575342678795,329.261762102171,0.807903376508541,0.299458435379166
3849,-0.111442492506705,0.19047274899582,-0.17499988632899,-0.0646503947877202,0.249959878765722,0.24986837775834,0.249995810186868,0.249982178215712,0.707643120390147,0.711898040034297,0.04,0.0489310618450823,337.555737770471,0.836862601767448,0.296378032418092
3909,-0.249973113805702,-0.146571779591079,0.25,0.24999949834072,0.249996125946707,0.249993317638166,0.249972075542749,0.249999541186683,0.719983204772691,0.723017678614384,0.04,0.0553836361114513,343.702113725551,0.866151604304625,0.291570086141312
3969,-0.175293767443363,-0.0870927428157482,0.249935468374331,0.235741557978056,0.249996692800126,0.249994319992441,0.249974567862816,0.249954453529469,0.734233862537684,0.73413731719447,0.04,0.0576629543839755,350.250389345908,0.874722628025287,0.294213733850435
4029,0.247889195276555,0.249955132244461,0.249569789162206,0.154946562589624,0.249999904969499,0.25,0.249988691009863,0.249698956805255,0.737046343455697,0.745256955774556,0.04,0.076193003474227,351.821067267221,0.923157487375537,0.280027524761158
4089,0.248205815985072,0.249892500034457,0.249594054025721,0.16898944612128,0.249999919224074,0.20231412481973,0.249990370395315,0.249720639831863,0.754270960903956,0.756376594354642,0.04,0.0713990452549608,360.02392663334,0.946158913383387,0.279590206924056
4149,0.25,0.249537584177763,0.249731554918976,0.248565786133995,0.25,-0.0679058345351349,0.249999886912875,0.24984351031597,0.768675383884888,0.767496232934728,0.04,0.067785901302709,366.773576253738,0.94129118510362,0.286304862854127
4209,0.25,0.249606946551098,0.249765617714358,0.248780918213896,0.249980303148719,-0.0202199593548646,0.249999700292241,0.249794991904682,0.775987227465685,0.778615871514814,0.04,0.0679293985037344,370.224832667502,0.949531654510503,0.286490862180419
4269,0.25,0.25,0.249958640221522,0.25,0.249868687658126,0.25,0.249998642775314,0.249520054240721,0.78257814763944,0.7897355100949,0.04,0.0697634714417796,373.510718760388,0.98948431600087,0.277363194725648
4329,0.225211856921129,0.25,0.249957243401451,0.248662723845917,0.185102218174025,0.175002137822708,0.249998846359017,0.174592046104613,0.801210298786232,0.800855148674987,0.04,0.0625123650920438,382.74361167826,1.013123747052,0.277587644639548
4389,0.0847457128075238,0.25,0.249949328087715,0.241084825639446,-0.181907775569209,-0.249985747848614,0.25,-0.00139367203736783,0.826889858308168,0.811974787255073,0.04,0.0452499999077746,394.377889602867,0.923520294407988,0.313776772410616
4449,0.109533172410201,0.175013663453424,0.249956928874558,0.241519756434604,-0.192102979624705,-0.249987885671322,0.175007266302948,-0.000673723585873168,0.827770810291742,0.823094425835159,0.04,0.041821641285379,395.210151299243,0.889833105897935,0.326342929733101
4509,0.249995443492036,-0.249908910310509,0.25,0.243984364273834,-0.249875802605849,-0.25,-0.00628510937232243,0.24998886066918,0.832489507595178,0.834214064415245,0.04,0.0293194277439962,397.342578838824,0.869908963733723,0.335618565239671
4569,0.24999612696823,-0.174997506171856,0.249999896494488,0.244886709632759,-0.249894432214971,-0.25,-0.0244102017288882,0.249263633208149,0.845246592999321,0.845333702995331,0.04,0.0281976388234386,403.252706702728,0.87135894284826,0.34004381085283
4629,0.25,0.249500450613848,0.249999309963255,0.25,-0.25,-0.25,-0.0438325576243488,0.245154010928971,0.851544184203089,0.856453341575417,0.04,0.0400138460331657,406.395995916012,0.896757374738332,0.332988426871653
4689,0.249739844688168,0.249575379487914,0.175134546881059,0.249946812896417,-0.175000264011703,-0.175,-0.054453912795559,0.245682079927685,0.862224617819799,0.864134505340026,0.04,0.0411214833636325,411.218274478016,0.915666094046531,0.329981771392121
4749,0.248265631254451,0.249999976440961,-0.24909911058472,0.249645419309444,0.24999823992198,0.25,-0.0527330463336557,0.248674470920397,0.850990106178651,0.852330978483594,0.04,0.0532299369008482,406.03752089236,0.929744474685704,0.320890779082217
4809,0.248525786566283,0.249999420637245,-0.249086939967142,0.249698606413027,0.249998503933683,0.249999995999321,-0.0326210923794611,0.248600158123483,0.845137042686252,0.840527451627163,0.04,0.058387980742816,403.135169944064,0.908515087873432,0.326041753591234
4869,0.25,0.249996271082854,-0.2490179731342,0.25,0.25,0.249999973328805,0.249998500943699,0.248179052274309,0.827435644770088,0.828723924770731,0.04,0.0664316627142582,394.791758083603,0.902773081191583,0.32132473121434
4929,0.175,0.22561652660878,-0.249113216969209,0.249998286597116,0.25,0.249449549606773,0.247023471636677,0.173452583553001,0.822543964071406,0.816920397914299,0.04,0.0643506504343539,392.658781470861,0.884377527635721,0.32623630706902
4989,-0.25,0.0874646412556982,-0.249652932034263,0.249988577314107,0.25,0.246330481848592,0.230164972230219,-0.00344417816377588,0.818875626506316,0.805116871057868,0.04,0.0472571399917676,390.549067531015,0.797683400824664,0.359749108763942
5049,-0.214237944121673,0.0687112370803368,-0.249704992229123,0.249877517282099,0.175,0.246880909571303,0.233140226395687,-0.00163034259029584,0.79933817885693,0.793313344201436,0.04,0.0451290747082978,381.424425706437,0.756569742676969,0.370436872254616
5109,-0.0115862941444848,-0.0375580532467113,-0.25,0.249248177100724,-0.25,0.25,0.25,0.249972970803269,0.782119688305696,0.781509817345005,0.04,0.0412541950054644,373.088528052727,0.734004286711161,0.373480537627747
5169,-0.00600484406256248,-0.0349530380210557,-0.25,0.249355119521142,-0.175,0.249193864733783,0.249450689211487,0.249977025182778,0.771870344718955,0.769706290488573,0.04,0.0413941862566595,367.998970891906,0.718834423873764,0.376159828541597
5229,0.0256233730683309,-0.020191285075673,-0.25,0.249961126570178,0.25,0.244625764891888,0.246337928076583,0.25,0.75314193809031,0.757902763632142,0.04,0.0512835974120346,359.358523472079,0.742507536459029,0.355616382944917
5289,0.0592786055484941,-0.014909790091319,-0.249980762937834,0.249848656960573,0.241517574542305,0.245431900158105,0.171891253267875,0.175661627802176,0.751114493854337,0.74609923677571,0.04,0.0470069223903618,358.725577531191,0.738100779946642,0.357109460396174
5349,0.249991589602752,0.015018681486687,-0.24987175291889,0.249211329172811,0.193450496948698,0.25,-6.98163385479655e-05,-6.98163385479655e-05,0.738093794663577,0.734295709919278,0.04,0.0557755376211614,351.973789473646,0.679689989912104,0.380499531449535
5409,0.174992867170238,-0.0247341207363161,-0.249884400030788,0.249329629796889,0.128916814457798,0.24571513572953,-3.27149288517844e-05,-3.27149288517844e-05,0.723977461648611,0.722492183062847,0.04,0.0484589908675701,345.447727026575,0.667777724445537,0.380106317566759
5469,-0.249999893280677,-0.25,-0.249956066998211,0.25,-0.236774052990639,0.221434238196864,0.243388183425151,-0.00968818880816948,0.724659371219521,0.710688656206415,0.04,0.0139420357968384,346.12888281501,0.601865645481303,0.422564454870119
5529,-0.175028628788027,-0.1750050484846,-0.249962554276378,0.249999186469445,-0.184818198102625,0.225719092941085,0.244379935561319,-0.0454450263175462,0.705990192168396,0.698885129349984,0.04,0.016742469722036,336.906763682963,0.558148125848751,0.443521763456291
5589,0.249808536670319,0.249966343435997,-0.249999315519328,0.249994576462967,0.10959831292945,0.249999936491667,0.249999864332936,-0.0721859784096142,0.669706953520219,0.687081602493552,0.04,0.0609958895985021,319.589055412336,0.652659655290327,0.359798880038893
5649,0.249828665411444,0.249967651737698,-0.178213678658212,0.249954813518096,0.126224530165231,0.24999599370428,0.249999377752549,-0.0609526752630063,0.673978244445925,0.675278075637121,0.04,0.0619446452202768,321.391408800136,0.677391974664187,0.348617265914896
5709,0.249942728277825,0.249975065447337,0.228571596888112,0.249729490163822,0.220439761167987,0.249973651242417,0.249996620463692,0.249999652488344,0.653104756954095,0.663474548780689,0.04,0.0856638120488803,311.696859026369,0.726113168173723,0.315415324206462
5769,0.249813198420096,0.230569125337168,0.231784881992488,0.175429987296376,0.150097744397505,0.215912996778,0.249787234129868,0.249957491358497,0.652646086884169,0.651671021924257,0.04,0.0813185763319714,311.520617436081,0.73869178954292,0.309869049020201
5829,0.249079195892968,0.120602131379538,0.249993497583953,-0.245600528952485,-0.24850701730189,0.0229026214796385,0.248600711571533,0.249718578289365,0.65649297597162,0.639867495067826,0.04,0.0567000104480358,312.948640924998,0.66033548041608,0.348227538667743
5889,0.249216092136925,0.14001088980657,0.24996444738853,-0.231731010002784,-0.174106713385042,-0.0179897707702204,0.248794034233508,0.249760506155778,0.634697556261106,0.628063968211394,0.04,0.0655512277509404,302.645802765991,0.606837525789666,0.366451836558527
5949,0.249991837519346,0.249993854226416,0.249799829614465,-0.15313706928781,0.247495008810428,-0.249713326852753,0.24988952931803,0.24999809739879,0.616953669056027,0.616260441354963,0.04,0.0782154434596514,294.23579454082,0.591964377657564,0.365220046757902
6009,0.175005484489365,0.175005181783475,0.174840425091781,-0.167562523411875,0.172875854931441,-0.249756275054212,0.249905255249636,0.175009479007142,0.605859142608455,0.604456914498531,0.04,0.0665533323680154,289.210804600321,0.588546476863256,0.361067522219306
6069,-0.249917182680526,-0.249930628726524,-0.249929533870098,-0.249306763448243,-0.249966017049484,-0.249999648195814,0.249994368862071,-0.0205205264671379,0.603120914249896,0.5926533876421,0.04,1.78559242372859e-08,287.116635633003,0.4706779371338,0.448217894625702
6129,-0.174960700667405,-0.249941004491254,-0.174940279095861,-0.202436340072167,-0.249955962003172,-0.249996465711253,0.17499521353276,-0.0245322249025324,0.570296140656339,0.582620389814133,0.04,9.73764415486157e-08,272.122998337472,0.512441354600755,0.390189657132189
6189,0.249792697406943,-0.249999800491391,0.249998831291482,0.0631627257255972,-0.249898983407401,-0.249978431632074,-0.165788533967417,0.249995268093176,0.551707880027809,0.582620389814133,0.04,0.0222145676581863,263.686085443996,0.553820884392995,0.349842494007248
6249,0.24982039291156,-0.249993202972117,0.228873135136288,0.0911883168667576,-0.174914135896291,-0.174981666887263,-0.234565403039269,0.174998086822433,0.580202110077106,0.582620389814133,0.04,0.0236395551560765,276.541430588012,0.568349436721435,0.35751926395826
6309,0.24997733410439,-0.249955817029562,0.109160856923525,0.25,0.25,0.25,-0.25,-0.249985940378447,0.577307446116642,0.582620389814133,0.04,0.0479458720790361,275.43852850855,0.61025247047591,0.33164222454625
6369,0.249930760343788,-0.174992362662765,0.0552867283849961,0.196528152693445,0.226471672225235,0.25,-0.175000367311196,-0.175018940660465,0.577567547807898,0.582620389814133,0.04,0.0534931118980266,275.267932065508,0.63417554162363,0.318933991424871
6429,0.249666842367044,0.24980054541575,-0.25,-0.106478982043701,0.0931444815015666,0.25,0.249997551258695,0.249794057741435,0.572024156980084,0.582620389814133,0.04,0.0645568521342733,273.175781394913,0.709564276563373,0.282881878775227
6489,0.174716852964231,0.17483109983992,-0.249928645618346,-0.128007134737146,0.0416738762470849,0.175080572072369,0.249878623073088,0.174826563704788,0.587453407028517,0.582620389814133,0.04,0.0600423157277386,280.758793673268,0.705763244888913,0.292300128857379
6549,-0.249999753651711,-0.249995758423115,-0.249524304122304,-0.25,-0.249992886861645,-0.249462852850875,0.249204696687982,-0.210141799247413,0.630191679668018,0.582620389814133,0.04,8.73517208099654e-05,300.276481440012,0.472922077241598,0.466537336987669
6609,-0.175238222016828,-0.175123575990377,-0.17460021052194,-0.175016733186439,-0.175000911498678,-0.174543424923244,0.174342994687889,-0.249756059486059,0.584778128114597,0.582620389814133,0.04,2.45616045093178e-06,278.97493242569,0.399788932016433,0.512730427082414
6669,0.248410457247511,0.249152124461805,0.249969653213458,0.249888445423743,0.249953615558135,0.25,-0.249873316645973,-0.249997697540697,0.553846570108695,0.582620389814133,0.04,0.0752266660662272,264.423613529496,0.591584782719651,0.32842629270406
6729,0.248648888660384,0.174279305792535,0.249974205231439,0.174905178610182,0.175107964780615,0.249986924476425,-0.249892319149077,-0.24999804045415,0.57596973208646,0.582620389814133,0.04,0.0567767430829258,275.048470672616,0.66640989311775,0.303265128538832
6789,0.25,-0.25,0.25,-0.25,-0.249017389625327,0.249912829842836,-0.249288323079092,-0.249288323079092,0.600721199395718,0.582620389814133,0.04,0.0146794531862867,286.522299224922,0.598431508585353,0.35180228174445
6849,0.175,-0.25,0.206402990226171,-0.220260222871437,-0.249164288541449,0.17492590536641,-0.249999971224717,-0.226586684511805,0.585367943208321,0.582620389814133,0.04,0.0226672953022719,279.211576648793,0.562492928355063,0.36472961684451
6909,-0.25,-0.25,-0.0406467318255303,-0.0517348191429113,-0.249996715732801,-0.25,-0.249999808164782,-0.0939113228398794,0.587257581406786,0.582620389814133,0.04,5.44069000747127e-06,280.019379897354,0.504758168464445,0.407623684251028
6969,-0.25,-0.25,0.00295027794829929,-0.00647556153339201,-0.249865456285265,-0.175000355621892,-0.174999836940064,-0.105991223118735,0.584558360792077,0.582620389814133,0.04,1.5792784311648e-05,279.358062377711,0.498571044542812,0.411707552234473
7029,-0.25,-0.25,0.25,0.249993564920551,-0.24912165274923,0.249997629187387,0.25,-0.174443991365585,0.556395967822592,0.582620389814133,0.04,0.0405492079005996,265.994738434237,0.616755047566203,0.316894724886654
7089,-0.175006048199786,-0.175000185023735,0.249999630782418,0.249994530182468,-0.174253404836845,0.249616254797881,0.249982420350839,-0.185777392660747,0.58060034691225,0.582620389814133,0.04,0.0439736302150372,277.027821932537,0.656183276099334,0.310207937557916
7149,0.249959678668096,0.249998766508432,0.249997538549453,0.25,0.25,0.24745513325735,0.249882802338926,-0.25,0.567617925518191,0.582620389814133,0.04,0.0896845281534141,270.997492096755,0.76201244356979,0.261311115984786
7209,0.249965726867882,0.249998948870299,0.249997907767035,0.25,0.249995892521261,0.172847085910789,0.243064128141773,-0.25,0.584187109060683,0.582620389814133,0.04,0.0879106906512969,278.895737636128,0.77961180672424,0.262856151863985
7269,0.25,0.249999982254214,0.25,0.25,0.249972616808405,-0.249931849053055,0.20442497435791,-0.25,0.594844871464316,0.582620389814133,0.04,0.0821113841659908,283.711030080683,0.717641060811895,0.290484937159079
7329,0.249987487373913,0.249999963859166,0.249999999274932,0.249998574205817,0.232747141355864,-0.17494210269273,0.211261221415016,-0.204175509362207,0.586677026457708,0.582620389814133,0.04,0.0850833319931181,279.715889320412,0.674375958330831,0.304768259160349
7389,0.249916582492753,0.249999859620558,0.249999995166215,0.249990494705449,0.135136113791467,0.249999793349111,0.249999954738613,-0.0682232316717281,0.576840054518522,0.582620389814133,0.04,0.0877762084586794,275.336564470339,0.70048590039359,0.288814615756058
7449,0.249848114484748,0.174999880686513,0.211088291556159,0.2499892711468,0.0773657966369309,0.22872284869945,0.174999961918219,-0.0204897469209689,0.583891759495955,0.582620389814133,0.04,0.0776060560883086,278.77179206677,0.70512225693343,0.290495279761039
7509,0.249460129106048,-0.249999999939743,-0.00941136223415811,0.249982337647788,-0.249999333905439,0.108153495684703,-0.0242047053851711,0.25,0.594619989095914,0.582620389814133,0.04,0.0429237624014331,283.679965638889,0.644104277689659,0.323613893404242
7569,0.247678451496963,-0.215015957381538,0.0295003415837771,0.17498498700062,-0.175022163721938,0.104511471900251,-0.0114331699961711,0.249896083565161,0.587284390300771,0.582620389814133,0.04,0.0489000202121666,280.091380723466,0.606092599855002,0.33955915115719
7629,0.237582278378813,-0.016773049551708,0.249999996552077,-0.25,0.249848467317903,0.0838733371216891,0.249999811239645,0.249307223767742,0.573640044257925,0.582620389814133,0.04,0.0683687953970272,273.837048428424,0.636777639760214,0.315979622914206
7689,0.239351767053576,0.0232399577584058,0.249999997069265,-0.249998645376819,0.249758330700788,0.108640198363495,0.249987452604007,0.24941114020258,0.582182072705755,0.582620389814133,0.04,0.0665533575685631,277.743482861807,0.649132251745493,0.31438756943353
7749,0.249378869543901,0.249980332515718,0.25,-0.249990969178792,0.249247556537138,0.248985745400396,0.249917420335391,0.25,0.580146508141506,0.582620389814133,0.04,0.0799473108770743,276.807265808433,0.660812169052529,0.307789733640273
7809,0.24848180980965,0.174983282641119,0.175126206253067,-0.249990222241779,0.174360442730477,0.249137883590337,0.17507474832624,0.177136059670794,0.584598317136104,0.582620389814133,0.04,0.069330127389341,279.375106872847,0.665285126463393,0.308556406983953
7869,0.243398471315557,-0.249999999981605,-0.249158624979555,-0.249985989598707,-0.249999868840604,0.25,-0.00723778403298651,-0.00723778403298651,0.608536215220419,0.582620389814133,0.04,0.0121501900148423,290.35345674875,0.524785284808504,0.406536953511297
7929,0.170023780336836,-0.175009366362619,-0.174450907889808,-0.175011971910773,-0.249999572799814,0.249999822380656,-0.0430690263164334,0.00675707209090207,0.587156427058025,0.582620389814133,0.04,0.0175687678060233,280.071955366412,0.475001059446128,0.433241171488399
7989,-0.245766135209244,0.249937557478301,0.248892822285423,0.249840794987518,-0.249997895235336,0.249998815871039,-0.0706255931478999,0.249997382206278,0.562697306360232,0.582620389814133,0.04,0.0520026855359751,268.818641198497,0.578960325357722,0.341165615465885
8049,-0.222023122753665,0.249946573638659,0.248406911670295,0.249864674573924,-0.175003252573439,0.249987341206285,-0.0722680170331863,0.213100862741509,0.579486981987645,0.582620389814133,0.04,0.045803568375413,276.559187135464,0.612387164247667,0.331830794679863
8109,-0.0874793855053844,0.249997665214022,0.245653418184568,0.249999992230225,0.249966389177307,0.249922318106013,-0.0567330068253925,0.0040205857744867,0.578424659485272,0.582620389814133,0.04,0.0647902055981579,275.931523873849,0.635417837138281,0.319077803481861
8169,-0.0368584611999353,0.249929293018885,0.246304129179851,0.249965323449635,0.249971309326851,0.249933605298846,-0.027664489562282,-0.027664489562282,0.581306037510369,0.582620389814133,0.04,0.0621975034827093,277.489700325751,0.652553481240188,0.312453528384922
8229,0.249993443197609,0.249541850579778,0.249991491486454,0.249768867026295,0.249999190174263,0.249997566058237,0.249999661258949,-0.0130674537497859,0.572329766501879,0.582620389814133,0.04,0.0799098247201455,273.170122612831,0.693804438009432,0.289301576547107
8289,0.197255427822481,0.174617612606076,0.249992767706843,0.249803536972351,0.175001279156177,0.249997805593606,0.175005599489812,-0.00617233497689806,0.58175877557409,0.582620389814133,0.04,0.0720283532358121,277.856422789966,0.71774041393212,0.284451164234499
8349,-0.101593325969911,-0.249953069244899,0.249999999622381,0.25,-0.249986883279646,0.249999162960694,-0.00311130383986986,0.249999998252923,0.594725665248911,0.582620389814133,0.04,0.0388972582153746,283.905060792133,0.654890443534377,0.318536465951416
8409,-0.0488848506893734,-0.187692734444809,0.249974370884459,0.24999886618172,-0.175030311296562,0.24999565649866,-0.00154053229907116,0.249991954359628,0.587369605087669,0.582620389814133,0.04,0.0487926958493873,280.117259736336,0.617463078327795,0.3333370224368
8469,0.249796509233672,0.165115829422366,0.249829141369565,0.249992441211467,0.249723596607576,0.249975786547138,0.249869271953212,0.249946372297619,0.566812280468308,0.582620389814133,0.04,0.0894854156587324,270.597143319718,0.689224114612932,0.28848113600327
8529,0.243256986028972,0.10285097187391,0.249849387396272,0.249896419788656,0.174765057116439,0.174979418565067,0.17488888116023,0.249954410456666,0.581282253822818,0.582620389814133,0.04,0.0755549796774368,277.745288811813,0.726231055223719,0.281013096819661
8589,0.206199687869007,-0.249983220900676,0.249964114880945,0.249352298392725,-0.25,-0.25,-0.000510706262094224,0.249999960024596,0.60057166457232,0.582620389814133,0.04,0.038515329341604,286.37100338803,0.630517841966941,0.333723152155541
8649,0.1720167949012,-0.195443771798334,0.174974312311823,0.174465254121917,-0.175013343897344,-0.249999861366387,-0.000395925673915258,0.249988013851688,0.58720098876365,0.582620389814133,0.04,0.0425216001524685,280.098406767229,0.584376893381888,0.352186155245282
8709,-0.0216862652497075,0.113613106448275,-0.249967902246537,-0.249894663412664,0.249911040684371,-0.249999075775915,0.249807742273513,0.249920318871877,0.584334186998637,0.582620389814133,0.04,0.0293393895643831,279.126837711013,0.573116815119682,0.357859969781462
8769,0.0189418185100668,0.0590711404810335,-0.208750869423026,-0.249909814125376,0.243698158647479,-0.249981864937867,0.249836580932486,0.249932271041095,0.5850144069044,0.582620389814133,0.04,0.029594899883134,279.119705748031,0.556236903224888,0.368710390409461
8829,0.249167626482121,-0.25,0.0248123165768667,-0.249995668164076,0.208491827105094,-0.249884336855594,0.25,0.25,0.579708917987371,0.582620389814133,0.04,0.0334129919527354,276.566604015563,0.566915002646127,0.358456502575219
8889,0.20564496603959,-0.25,-0.0163782626294483,-0.249995651770674,0.139718073692957,-0.249901686217736,0.242728319305234,0.175,0.583506420489874,0.582620389814133,0.04,0.0248713047368573,278.829424829945,0.568524893576314,0.36036598705136
8949,-0.0409834431347513,-0.25,-0.249791544798566,-0.249995558874724,-0.249999862309152,-0.249999999269874,0.201522128701562,-0.103006241964336,0.57668041556841,0.582620389814133,0.04,1.96205368043721e-08,274.75359965918,0.486127469680492,0.415286587338116
9009,-0.0723359266645386,-0.24284041250795,-0.249798570138482,-0.249996206478672,-0.175034175480321,-0.175000250457972,0.208639557605133,-0.179176403757701,0.566521865506912,0.582620389814133,0.04,8.58318107607495e-09,270.592488207701,0.581555181536852,0.341884556090838
9069,-0.25,-0.202269416719668,-0.249838380398003,-0.249999876234373,0.249771383216386,0.249998326142805,0.248971654725368,-0.249997035307043,0.570562171792822,0.582620389814133,0.04,0.0153445692952424,272.795131806911,0.554173022906151,0.361697836927423
9129,-0.186418210590242,-0.134429029618302,-0.174874901501376,-0.175002997239378,0.249805656588739,0.24999504678194,0.249125276863824,-0.249955685957296,0.586168346657182,0.582620389814133,0.04,0.0201281113439604,279.853675152818,0.548183984661108,0.375110609302588
9189,0.173878596065052,0.249999830622771,0.249918145579511,0.249979317065594,0.249999872365408,0.249976463737035,0.249995802315081,-0.249721372975393,0.555453656153821,0.582620389814133,0.04,0.0762309743210636,265.306839002828,0.734087905088514,0.265555348494594
9249,0.110308451222467,0.249999856029356,0.249736419630633,0.249982419505755,0.249999309872282,0.235360760166881,0.17499762052412,-0.225563672536212,0.580634745405506,0.582620389814133,0.04,0.0737485928530468,277.247172261354,0.783411386816292,0.260035068953534
9309,-0.249922369552179,0.25,0.248706639253657,0.25,0.249996122411236,0.152538439936011,-0.249992076291323,-0.0886700367141843,0.596652293416578,0.584726463065502,0.04,0.0629370975475359,284.678506152418,0.723253689435429,0.289213590248795
9369,-0.174941411678726,0.17501088925317,0.173907068767029,0.195409833998866,0.207712307242777,0.11885641379198,-0.174993264847624,-0.112869531207057,0.599938340071559,0.598766951407961,0.04,0.0555954904086132,286.516613890507,0.70561215202794,0.298358513439034
9429,0.249950682937507,-0.249927404978868,-0.249957163990535,-0.113934440007557,-0.0318959787118201,-0.0720084010241956,0.25,-0.199247654048384,0.625617012219097,0.61280743975042,0.04,0.0208501606305964,298.450533790824,0.660065352118338,0.332230958933872
9489,0.216903719991748,-0.174938294232038,-0.249963589328488,-0.134344215542312,-0.0645838931824815,-0.0987070456141736,0.175,-0.17500003236769,0.631627830496692,0.62684792809288,0.04,0.0171387693350488,301.592259832502,0.638406381681162,0.347118410192533
9549,0.0296375966324467,0.25,-0.249999999576887,-0.249999610239257,-0.249815408516229,-0.249999364957383,-0.242885712656714,0.249999784215402,0.64679669455309,0.640888416435339,0.04,0.0132229571464886,308.46410680045,0.604067694478312,0.375209393314326
9609,-0.0122546416987267,0.175000559772946,-0.175060013471591,-0.174999958949842,-0.174843097238794,-0.174999460213775,-0.24983256846377,0.174999913000458,0.653470856560706,0.654928904777798,0.04,0.0172766404656589,311.047947023912,0.602324705734911,0.379447187742286
9669,-0.249643992242042,-0.249996268180358,0.249599907791749,0.249998065023512,0.25,0.25,-0.248883789758469,-0.24999935721756,0.657828772738226,0.668969393120257,0.04,0.0283788485297217,314.394064454667,0.705295914104088,0.327534948438219
9729,-0.249697040560735,-0.190578381544973,0.174659921622987,0.233965710730811,0.25,0.249992335176807,-0.210013866403473,-0.175009300621735,0.67432481954558,0.683009881462717,0.04,0.0329571994631485,321.627455822743,0.749535863612767,0.315293758718652
9789,-0.249997647699991,0.146122976055541,-0.25,0.143115703072168,0.25,0.249948901178713,0.0102490326081711,0.249934353421274,0.682786992521743,0.697050369805176,0.04,0.0400836457407501,326.07475279209,0.844455213098845,0.283723447899682
9849,-0.174998863821182,0.109660680933512,-0.249997831435708,0.0841530797469568,0.249808643704077,0.174956566001906,-0.0122808188005982,0.174944200408083,0.712210003764187,0.711090858147635,0.04,0.0379817860213021,340.499311342597,0.877726474741051,0.28504387677215
9909,0.249994244825402,-0.0969589914246558,-0.249985542904717,-0.249968452429241,0.248724291360512,-0.25,-0.139949976783624,-0.25,0.740692693668186,0.725131346490095,0.04,0.026463761547027,352.983355291973,0.788921505306224,0.328757075568209
9969,0.249995107196096,-0.11979494016143,-0.249950671219282,-0.175505980407894,0.248913177791131,-0.25,-0.0971963814814678,-0.24700968079178,0.739619027965086,0.739171834832554,0.04,0.0322728893947107,352.68948417037,0.765271614176912,0.338634796889897
10029,0.249999993963365,-0.249198649669815,-0.249753065001814,0.246448027713074,0.249983534231307,-0.25,0.145073991897415,-0.230064538611867,0.743202073021875,0.753212323175013,0.04,0.0390863746858366,354.874477099317,0.820597260946067,0.317760111260994
10089,0.24999999486886,-0.174318878937009,-0.174790214620856,0.171981867935194,0.175076204397608,-0.249999394505279,0.0858179533514528,-0.158054857820087,0.764314002398398,0.767252811517473,0.04,0.0382946262149565,364.718463701575,0.848449909716312,0.315853881534439
10149,0.25,0.249999821882221,0.24999927087124,-0.249993037472795,-0.24939866466002,-0.249995963368527,-0.249966265075669,0.25,0.777903923468854,0.781293299859932,0.04,0.0453437004228202,371.28291463488,0.87451317553695,0.311955957580742
10209,0.175005731035513,0.249896763647845,0.249809478609018,-0.249026523980035,-0.227680776415684,-0.174996568863248,-0.174972106426159,0.249999381980191,0.791165107928083,0.795333788202391,0.04,0.0507341875422082,377.314272114219,0.887027224034906,0.312551048470723
10269,-0.249961793096576,0.249312766986383,0.248733989123092,-0.243549614187732,-0.104612743031108,0.25,0.249994792587728,0.249995879867937,0.800909889298565,0.809374276544851,0.04,0.0549150546962996,382.48273183417,0.952750559963469,0.294976417081657
10329,-0.174967726797074,0.178568086902959,0.173923890754628,-0.244517172059572,-0.0514249424673008,0.249994851315732,0.249995572978826,0.174996873813914,0.824764794661147,0.82341476488731,0.04,0.051715948759042,393.89490705154,0.970360638821682,0.298264708916098
10389,0.249998648900102,-0.222318433569775,-0.25,-0.25,0.249972594060938,0.249965675438214,0.249999995195047,-0.249997493825553,0.846245224116586,0.837455253229769,0.04,0.0445189487440962,403.578911831729,0.917867138786472,0.323074975187345
10449,0.249998327631456,-0.226470668534309,-0.175000024293022,-0.175001730637098,0.174976737729011,0.249964772056738,0.249995282791699,-0.249997782484,0.850843580685013,0.851495741572228,0.04,0.0445788047216282,405.804178726335,0.909289374520366,0.327920883135994
10509,0.249996507109131,-0.25,0.249999838046518,0.249988462419344,-0.249999781485245,0.249959652895042,0.249968579172725,-0.249999418215204,0.858228561190916,0.865536229914688,0.04,0.0502525722419559,409.664728429983,0.949812737694739,0.316916798619761
10569,0.174997761184237,-0.249122622326624,0.24999986233954,0.249989787939151,-0.249999814262458,0.174981243015548,0.249973292296816,-0.249999419460133,0.877041030480414,0.879576718257147,0.04,0.0433196416881025,418.812029563174,0.975758660400568,0.315378010480641
10629,-0.249995132390159,-0.244150815510828,0.25,0.249997299218054,-0.25,-0.24989641296825,0.25,-0.249999426514732,0.907208403574767,0.893617206599606,0.04,0.0249913004781751,432.697462909617,0.917954095422263,0.346352288268554
10689,-0.2499831343093,-0.245028193184204,0.175047838523784,0.221456066691892,-0.249999995188223,-0.249904664427201,0.24999979426323,-0.174999513431583,0.907237507703141,0.907657694942066,0.04,0.0248928155842195,433.074465738046,0.904801909602924,0.351693017604638
10749,-0.249915145184427,-0.25,-0.249681076508106,0.0597224157103134,-0.24999996792149,-0.249951422694592,0.249998628421536,0.249999994039591,0.929124042524534,0.921698183284525,0.04,0.0202821695566468,443.043461739739,0.875239453239605,0.371941057840167
10809,-0.174928434353705,-0.249995526262593,-0.17486533554214,0.0882633910624261,-0.249998834238302,-0.249955698125873,0.249935465762767,0.249998674209406,0.933571796040362,0.935738671626984,0.04,0.0218573184177101,444.662916998276,0.882088588048131,0.37040205326451
10869,0.249996260353715,-0.249970175083955,0.249090529931665,0.249995584724398,-0.249992410033572,-0.249979925569801,0.249577544029741,0.249991195171696,0.921016906637381,0.949779159969444,0.04,0.0357507686789101,440.165705012512,1.05687874259837,0.306017114246027
10929,0.17499682855748,-0.174974648821538,0.200478623442729,0.249996237676855,-0.199804283902415,-0.249887547614134,0.249640902131146,0.174992536370399,0.956468622332239,0.963819648311903,0.04,0.0361321297658843,456.683118705303,1.12732791601364,0.29765924299076
10989,-0.24999995162118,0.249999999998827,-0.0749888466612448,0.249999937740781,0.084595097507473,-0.249364072532022,0.24999993137244,-0.249999863503615,0.983068882123301,0.975754063402993,0.04,0.0364630352505666,468.940224686305,1.1064553093567,0.311414110030481
11049,-0.180860769621357,0.175020821534706,-0.0375408879103575,0.174999962087369,0.0344058328847032,-0.206576929110763,0.249999598250854,-0.174999897455055,0.978872821490976,0.975754063402993,0.04,0.0442202202096043,466.884205079755,1.07906788632545,0.317917979890235
11109,0.210927928377643,-0.249861189761974,0.174664211678004,-0.24999989994863,-0.24999999997766,0.0358835502763699,0.249997710561867,0.24999991015345,0.974890643308442,0.975754063402993,0.04,0.047517874034965,465.1918483694,1.08846720367718,0.314030206105961
11169,0.216784505478733,-0.249881900415789,0.110964579930099,-0.17499991588874,-0.24998867760708,-0.00699593576617531,0.249997445393478,0.249968198451385,0.979916744929939,0.975754063402993,0.04,0.0490865233046121,467.589165026794,1.07105441030729,0.320780220488625
11229,0.249971775718241,-0.249999260787411,-0.2499999999747,0.249999993783966,-0.249924517507126,-0.249979690007265,0.249995942772606,0.24978849880635,0.982141873433332,0.975754063402993,0.04,0.0472920899461921,468.509931359851,1.03260452645799,0.333379931648937
11289,0.174976118914235,-0.249986712080687,-0.249850093056963,0.174999994999976,-0.249779306262702,-0.174982761853609,0.174997622588906,0.24939672394413,0.981246215192929,0.975754063402993,0.04,0.0441086333852842,468.518956890527,1.00523108420668,0.342464796004183
11349,-0.249999269641795,-0.249915602742584,-0.249000620523118,-0.249999998109299,-0.248956442544299,0.249999831017112,-0.249992858452066,0.24717666639155,0.998808279346978,0.975754063402993,0.04,0.0286103559891938,476.098330013228,0.888316455477032,0.393807177417841
11409,-0.249999379189459,-0.249824035645118,-0.249133927333376,-0.249998720105096,-0.249112961416178,0.17503271876207,-0.174993945175336,0.172601830409925,0.984309258935487,0.975754063402993,0.04,0.024062760220909,469.945630089035,0.839362193794641,0.411389201560386
11469,-0.249999999959553,-0.249305155426146,-0.249889332591505,-0.249991478081282,-0.249999901690158,-0.249780917349838,0.249999896726131,-0.249988906819283,0.987198529143329,0.975754063402993,0.04,0.0136686833611821,470.550661958874,0.760695779997812,0.454516923086328
11529,-0.175000017935834,-0.249407090507868,-0.249904479503644,-0.174996546417609,-0.249999916436634,-0.203023477810704,0.249999311059456,-0.249990570140219,0.977205219733932,0.975754063402993,0.04,0.0123919828228116,465.463601358412,0.742046334347159,0.460902833047317
11589,0.249999880198571,-0.249984722637626,-0.249990312005767,0.249974733009872,-0.25,0.0619353462443936,0.24999599228163,-0.249999995625526,0.943191150405222,0.975754063402993,0.04,0.0256737397723573,450.812231395207,0.931129635105202,0.355746157509353
11649,0.174999898168785,-0.174987014241982,-0.174995355862629,0.174978697421111,-0.175,0.0901443576176948,0.249996048588133,-0.249999784252165,0.961500886242859,0.975754063402993,0.04,0.0305035140146491,458.315006764488,1.01298236003579,0.33244275395024
11709,-0.25,0.25,0.249976062281824,-0.249998837581867,0.25,0.249995422066402,0.249996367658319,-0.249998586469783,0.962437479146521,0.975754063402993,0.04,0.0452753398605123,459.43320673204,1.11881580952674,0.301729979641586
11769,-0.249999341067766,0.24123934191925,0.24997965293955,-0.249988431918517,0.249997234030153,0.174996108756442,0.249996297457615,-0.175010522279667,0.971668095536456,0.973011199572932,0.04,0.0522544017762054,463.522309741505,1.14736848729459,0.296839984691416
11829,-0.249995607118438,0.191595612795001,0.25,-0.249929466492872,0.249981560201022,-0.25,0.249995899653627,0.249921841464324,0.961251429044447,0.954725440705854,0.04,0.0603445184861158,458.532088235091,1.12306649227331,0.29999840075439
11889,-0.249996266050672,0.151504464990245,0.249998075819795,-0.249937674478658,0.174984326170868,-0.175000253825003,0.249995830128731,0.249933498280377,0.947635970473835,0.936439681838776,0.04,0.0690748647538852,452.041782513231,1.0608954864753,0.313083841078616
11949,-0.25,-0.0756787059033708,0.24998717213197,-0.24998418639811,-0.25,0.249998307833312,0.249995436154315,0.249999553571345,0.932565579691608,0.918153922971699,0.04,0.0691786159017046,444.678082420738,0.976964392952012,0.334442656981646
12009,-0.241403217233519,-0.0841101706932501,0.249989096312174,-0.249926805655597,-0.175,0.249997250932038,0.249442271513181,0.239223043106331,0.909469270477967,0.899868164104621,0.04,0.0718853182538392,433.634255435291,0.909911924933587,0.350169972450306
12069,-0.192688114890128,-0.131888471169233,0.25,-0.249601648114689,0.25,0.24999126182482,0.246307671880091,0.178156150471251,0.885535342051996,0.881582405237544,0.04,0.0756608563965812,422.423658128153,0.880300859419149,0.352591455463006
