time,bias_percent_1,bias_percent_2,bias_percent_3,bias_percent_4,bias_percent_5,bias_percent_6,bias_percent_8,bias_percent_9,normalized_power,power_SP,SP,CV,total_power_MW,fuel_fraction,thermal_efficiency
21,0,0,0,0,0,0,0,0,0.999395965691664,1,0.04,0.0400372363434175,476.843875106871,0.999389211905871,0.350587338838446
81,0.00503903691932089,0.00783539570426501,0.00344232531081389,0.00718874646791005,-0.00457582867350686,0.0105595859536975,0.0124875992856974,0.00812827646690096,0.994825208706748,0.990954028449116,0.04,0.0430287319318611,474.469184456399,0.990681806242093,0.351907481818919
141,0.019436285260238,0.0302222405735936,0.0132775404845679,0.0277280220905097,-0.0176496248835263,0.04072983153569,0.04816645438769,0.0313519235151894,0.9711349493266,0.96510839544659,0.04,0.0525631895331726,463.124953780889,0.955035995134764,0.356314189733783
201,0.0338335336011552,0.0526090854429223,0.023112755658322,0.0482672977131098,-0.0307234210935455,0.0709000771176827,0.0838453094896826,0.0545755705634779,0.945150671732019,0.939262762444064,0.04,0.0597425462459283,450.722990081164,0.917928187065176,0.360790987972672
261,0.0482307819420723,0.0749959303122508,0.0329479708320761,0.0688065733357097,-0.0437972173035649,0.101070322699675,0.119524164591675,0.0777992176117663,0.9189672696144,0.913417129441538,0.04,0.0647910319219575,438.231306558314,0.882665904295987,0.364805792009033
321,0.0626280302829894,0.0973827751815794,0.0427831860058302,0.0893458489583097,-0.0568710135135842,0.131240568281668,0.155203019693668,0.101022864660055,0.892939240161007,0.887571496439012,0.04,0.068456673841398,425.815572303865,0.848961030063938,0.368543249543766
381,0.0770252786239065,0.119769620050908,0.0526184011795842,0.10988512458091,-0.0699448097236036,0.161410813863661,0.19088187479566,0.124246511708343,0.867107754598092,0.861725863436486,0.04,0.0714000286995739,413.49184738546,0.815434381316292,0.372591213203952
441,0.0914225269648235,0.142156464920237,0.0624536163533381,0.130424400203509,-0.083018605933623,0.191581059445653,0.226560729897653,0.147470158756632,0.841291758407621,0.83588023043396,0.04,0.073802057640471,401.174975085963,0.781729658154939,0.377078630894267
501,0.105819775305741,0.164543309789565,0.0722888315270923,0.150963675826109,-0.0960924021436424,0.221751305027646,0.262239584999646,0.17069380580492,0.815302470038198,0.810034597431434,0.04,0.0758251236203218,388.766017614037,0.748147916281706,0.381817211387567
561,0.120217023646658,0.186930154658894,0.0821240467008464,0.171502951448709,-0.109166198353662,0.251921550609638,0.297918440101638,0.193917452853209,0.787640319265423,0.784188964428908,0.04,0.0785924063980442,375.563780097655,0.722236711373396,0.382083970358053
621,0.134614271987575,0.209316999528223,0.0919592618746004,0.192042227071309,-0.122239994563681,0.282091796191631,0.333597295203631,0.217141099901497,0.760487747313009,0.758343331426382,0.04,0.0817899063949905,362.616361136527,0.705852136601315,0.377475125396601
681,0.149011520328492,0.231703844397551,0.101794477048355,0.212581502693909,-0.1353137907737,0.312262041773624,0.369276150305623,0.240364746949786,0.734114736994778,0.732497698423856,0.04,0.0858494972047036,350.038649881608,0.694082575166272,0.370560850687087
741,0.163408768669409,0.25409068926688,0.111629692222109,0.233120778316509,-0.14838758698372,0.342432287355616,0.404955005407616,0.263588393998074,0.708184893589137,0.70665206542133,0.04,0.0907740442576761,337.669831896482,0.683565816186312,0.362966548372251
801,0.177806017010326,0.276477534136208,0.121464907395863,0.253660053939109,-0.161461383193739,0.372602532937609,0.440633860509608,0.286812041046362,0.682439944075467,0.680806432418803,0.04,0.0962766353461825,325.387678901666,0.672726568686235,0.35539981727194
861,0.192203265351243,0.298864379005537,0.131300122569617,0.274199329561709,-0.174535179403758,0.402772778519602,0.476312715611601,0.310035688094651,0.656738405947556,0.654960799416277,0.04,0.102058900347103,313.125502990344,0.661065387111413,0.348039630332027
921,0.201561476772839,0.313415828170601,0.137693012432557,0.287549858716399,-0.183033146940271,0.422383438147897,0.499503971427896,0.325131058676038,0.634805908021661,0.638161137964635,0.04,0.104068705649067,302.796925548537,0.660763073552738,0.33671337888555
981,0.201561476772839,0.313415828170601,0.137693012432557,0.287549858716399,-0.183033146940271,0.422383438147897,0.499503971427896,0.325131058676038,0.632129412458132,0.638161137964635,0.04,0.0957004688537156,301.59531762935,0.696034109759299,0.318382176897657
1041,0.201561476772839,0.313415828170601,0.137693012432557,0.287549858716399,-0.183033146940271,0.422383438147897,0.499503971427896,0.325131058676038,0.633675233900152,0.638161137964635,0.04,0.0908301495085668,302.340442752264,0.726559007723324,0.305759549321113
1101,0.201561476772839,0.313415828170601,0.137693012432557,0.287549858716399,-0.183033146940271,0.422383438147897,0.499503971427896,0.325131058676038,0.635231086886313,0.638161137964635,0.04,0.0892465317072639,303.079128434448,0.747094940222345,0.298081423016343
1161,0.201561476772839,0.313415828170601,0.137693012432557,0.287549858716399,-0.183033146940271,0.422383438147897,0.499503971427896,0.325131058676038,0.636301994752205,0.638161137964635,0.04,0.0891087468288546,303.586445238586,0.760216929353485,0.293426623721602
1221,0.201561476772839,0.313415828170601,0.137693012432557,0.287549858716399,-0.183033146940271,0.422383438147897,0.499503971427896,0.325131058676038,0.636985071101053,0.638161137964635,0.04,0.0894207585133152,303.909810685745,0.768514269397462,0.29056778355526
1281,0.201561476772839,0.313415828170601,0.137693012432557,0.287549858716399,-0.183033146940271,0.422383438147897,0.499503971427896,0.325131058676038,0.637409740751479,0.638161137964635,0.04,0.0897874727468873,304.110809705803,0.77379187014542,0.288776847714936
1341,0.201561476772839,0.313415828170601,0.137693012432557,0.287549858716399,-0.183033146940271,0.422383438147897,0.499503971427896,0.325131058676038,0.637673694554259,0.638161137964635,0.04,0.090086899108466,304.235760923209,0.777195962912771,0.28763014581992
1401,0.201561476772839,0.313415828170601,0.137693012432557,0.287549858716399,-0.183033146940271,0.422383438147897,0.499503971427896,0.325131058676038,0.637840379501428,0.638161137964635,0.04,0.0903022291474453,304.314693616959,0.779424962275582,0.286881992207678
1461,0.201561476772839,0.313415828170601,0.137693012432557,0.287549858716399,-0.183033146940271,0.422383438147897,0.499503971427896,0.325131058676038,0.63794787885983,0.638161137964635,0.04,0.0904487543507845,304.365616421522,0.780901950120469,0.286387302208042
1521,0.201561476772839,0.313415828170601,0.137693012432557,0.287549858716399,-0.183033146940271,0.422383438147897,0.499503971427896,0.325131058676038,0.638018461056996,0.638161137964635,0.04,0.0905461900693407,304.399059852926,0.781888159767479,0.286057505033805
1581,0.201561476772839,0.313415828170601,0.137693012432557,0.287549858716399,-0.183033146940271,0.422383438147897,0.499503971427896,0.325131058676038,0.63806534928786,0.638161137964635,0.04,0.0906105140046285,304.421279699839,0.782549546672316,0.285836601336245
1641,0.201561476772839,0.313415828170601,0.137693012432557,0.287549858716399,-0.183033146940271,0.422383438147897,0.499503971427896,0.325131058676038,0.638096688762093,0.638161137964635,0.04,0.0906529607372531,304.43613212755,0.782994220904248,0.285688208196393
1701,0.201561476772839,0.313415828170601,0.137693012432557,0.287549858716399,-0.183033146940271,0.422383438147897,0.499503971427896,0.325131058676038,0.638117688223959,0.638161137964635,0.04,0.0906810098563564,304.446084431492,0.783293782415642,0.285588285939981
1761,0.201561476772839,0.313415828170601,0.137693012432557,0.287549858716399,-0.183033146940271,0.422383438147897,0.499503971427896,0.325131058676038,0.638131768493617,0.638161137964635,0.04,0.0906995572278439,304.452757517495,0.783496058186822,0.285520813525772
1821,0.207565499358661,0.309047564165151,0.143000154438401,0.276183249322481,-0.179989947989069,0.404715418200546,0.498165623372697,0.320180855773244,0.638902405262935,0.638943425160336,0.04,0.0897959985420845,304.841439193137,0.783867441491792,0.285749877913212
1881,0.224719849603864,0.296566809863866,0.158163417312242,0.243707222482715,-0.171295093842777,0.354235361208114,0.494341771786413,0.306037418908116,0.641520803362144,0.641178531433767,0.04,0.0875231052151232,306.090035164668,0.782661226418045,0.287362470330479
1941,0.241874199849067,0.284086055562582,0.173326680186084,0.211231195642949,-0.162600239696486,0.303755304215682,0.490517920200129,0.291893982042989,0.644032193584908,0.643413637707197,0.04,0.0854850314420716,307.287250456584,0.779566457147393,0.289631686777755
2001,0.25902855009427,0.271605301261297,0.188489943059925,0.178755168803183,-0.153905385550194,0.25327524722325,0.486694068613844,0.277750545177861,0.646437344742447,0.645648743980628,0.04,0.0834833836868216,308.434060737924,0.775251877337298,0.292330534991145
2061,0.276182900339473,0.259124546960012,0.203653205933766,0.146279141963417,-0.145210531403902,0.202795190230818,0.48287021702756,0.263607108312734,0.648774936352598,0.647883850254058,0.04,0.0814328156962347,309.548926670196,0.770202168787495,0.295310739780634
2121,0.293337250584676,0.246643792658728,0.218816468807607,0.113803115123651,-0.136515677257611,0.152315133238386,0.479046365441276,0.249463671447606,0.651074763347647,0.650118956527489,0.04,0.0793111637619057,310.645958269016,0.764698178416543,0.29849037260263
2181,0.310491600829879,0.234163038357443,0.233979731681448,0.0813270882838844,-0.127820823111319,0.101835076245954,0.475222513854992,0.235320234582479,0.653354033958683,0.652354062800919,0.04,0.0771198337861911,311.733278857392,0.758893148688268,0.30182639169445
2241,0.327645951075082,0.221682284056158,0.24914299455529,0.0488510614441184,-0.119125968965027,0.0513550192535221,0.471398662268708,0.221176797717351,0.655621712093945,0.654589169074349,0.04,0.0748655138689776,312.815118164035,0.752872043830451,0.30529608805143
2301,0.344800301320285,0.209201529754874,0.264306257429131,0.0163750346043524,-0.110431114818736,0.000874962261090218,0.467574810682424,0.207033360852224,0.6578824246386,0.65682427534778,0.04,0.0725539545800493,313.893660901681,0.746684676981812,0.308887250121857
2361,0.361954651565489,0.196720775453589,0.279469520302972,-0.0161009922354136,-0.101736260672444,-0.0496050947313418,0.46375095909614,0.192889923987096,0.660134660568548,0.65905938162121,0.04,0.070189081927182,314.968692900833,0.740359435991949,0.312593143980925
2421,0.379109001810692,0.184240021152305,0.294632783176813,-0.0485770190751797,-0.0930414065261524,-0.100085151723774,0.459927107509855,0.178746487121969,0.662390465605894,0.661294487894641,0.04,0.0677716147288277,316.044431935137,0.733923061587926,0.316411518632454
2481,0.396263352055895,0.17175926685102,0.309796046050654,-0.0810530459149458,-0.0843465523798607,-0.150565208716205,0.456103255923571,0.164603050256841,0.664642462205845,0.663529594168071,0.04,0.0653028797527484,317.118829652732,0.727385604310295,0.320340614706593
2541,0.413417702301098,0.159278512549735,0.324959308924496,-0.113529072754712,-0.0756516982335691,-0.201045265708637,0.452279404337287,0.150459613391714,0.666892855949275,0.665764700441502,0.04,0.0627824898145316,318.192482125701,0.720754938317016,0.324382161999449
2601,0.430572052546301,0.14679775824845,0.340122571798337,-0.146005099594478,-0.0669568440872773,-0.251525322701069,0.448455552751003,0.136316176526586,0.66916000901909,0.667999806714932,0.04,0.0602155913904499,319.264358956656,0.714002946859493,0.328552753243059
2661,0.447726402791504,0.134317003947166,0.355285834672178,-0.178481126434244,-0.0582619899409856,-0.302005379693501,0.444631701164719,0.122172739661459,0.671413094329398,0.670234912988363,0.04,0.0575840756686022,320.335888605851,0.707198255667769,0.332827415620143
2721,0.458876730450886,0.126204513651331,0.365141955540175,-0.199590543880092,-0.0526103347458961,-0.334817416738582,0.442146197633634,0.112979505699126,0.673070038337359,0.672470019261793,0.04,0.0557408734190233,321.126809866348,0.701392620426051,0.336410892374019
2781,0.458876730450886,0.126204513651331,0.365141955540175,-0.199590543880092,-0.0526103347458961,-0.334817416738582,0.442146197633634,0.112979505699126,0.674506023260877,0.674705125535224,0.04,0.0548080240543955,321.809077089881,0.701783742415554,0.336937743498078
2841,0.458876730450886,0.126204513651331,0.365141955540175,-0.199590543880092,-0.0526103347458961,-0.334817416738582,0.442146197633634,0.112979505699126,0.676630071190623,0.676940231808654,0.04,0.0540622192022003,322.83818249432,0.703739346353547,0.337075926302227
2901,0.458876730450886,0.126204513651331,0.365141955540175,-0.199590543880092,-0.052610334745896,-0.334817416738582,0.442146197633634,0.112979505699126,0.678897429253857,0.679175338082085,0.04,0.0536762055138252,323.919932672103,0.705583384113408,0.337321485952096
2961,0.458876730450886,0.126204513651331,0.365141955540175,-0.199590543880092,-0.052610334745896,-0.334817416738582,0.442146197633634,0.112979505699126,0.681142765208519,0.681410444355515,0.04,0.0534685882463829,324.990965651244,0.707308259577021,0.337611502719739
