time,bias_percent_1,bias_percent_2,bias_percent_3,bias_percent_4,bias_percent_5,bias_percent_6,bias_percent_8,bias_percent_9,normalized_power,power_SP,SP,CV,total_power_MW,fuel_fraction,thermal_efficiency
32,0,0,0,0,0,0,0,0,0.99962827658659,1,0.04,0.0399795497497781,476.929970802721,0.999670018279324,0.350552141073952
92,0,0,0,0,0,0,0,0,0.999958111186486,1,0.04,0.039898003618109,477.080725039263,1.00024848295333,0.350460152423462
152,0,0,0,0,0,0,0,0,0.99999561882364,1,0.04,0.0399378385981077,477.097996697888,1.00031457170203,0.350449685035138
212,0,0,0,0,0,0,0,0,1.00000090028302,1,0.04,0.0399701574429461,477.100448771637,1.00031599545963,0.350450987391949
272,0,0,0,0,0,0,0,0,1.00000262203968,1,0.04,0.0399897654492721,477.101260910075,1.00030323326145,0.350456055119639
332,0,0,0,0,0,0,0,0,1.00000357008597,1,0.04,0.0400009808367908,477.101708458132,1.00028345712567,0.350463312576345
392,0,0,0,0,0,0,0,0,1.00000396428208,1,0.04,0.0400069287353866,477.101892526739,1.00026022672905,0.35047158707396
452,0,0,0,0,0,0,0,0,1.0000039188296,1,0.04,0.0400095447305926,477.101867933887,1.00023643621425,0.350479904936571
512,0,0,0,0,0,0,0,0,1.00000357803224,1,0.04,0.0400100873374932,477.101703556067,1.0002141574332,0.350487590774855
572,0,0,0,0,0,0,0,0,1.00000307537342,1,0.04,0.0400094110585094,477.101462842275,1.00019462290195,0.350494259217217
632,0,0,0,0,0,0,0,0,1.0000025131729,1,0.04,0.0400081002503304,477.101194593271,1.00017838234884,0.350499753354993
692,0,0,0,0,0,0,0,0,1.00000196171994,1,0.04,0.04000654495173,477.100931742041,1.00016549948768,0.350504074942783
752,-0.13333313866984,-0.133333333333333,0.133333261413547,0.133332048689521,-0.13333299433194,0.133333333333333,-0.13333332976814,0.133322900976079,0.999730236196407,1,0.04,0.0397339994827284,476.974812060043,1.00234200190741,0.349650531321947
812,-0.249999635005949,-0.25,0.249999865150401,0.249997591292851,-0.249999364372388,0.25,-0.249999993315262,0.249980439330148,1.00052163043138,1,0.04,0.0395479516965454,477.33648490333,0.997872498210323,0.351482942472341
872,-0.249998333140015,0.0166375090757341,0.249999094096735,0.249998822211874,-0.249999703373781,0.24999999998148,-0.249999084315095,0.212635135931333,0.995752652929302,1,0.04,0.0446700304847998,475.025603086497,1.00771934346094,0.346363483810517
932,-0.249997194007323,0.249945329517001,0.249998419424777,0.249999899266018,-0.25,0.249999999965275,-0.249998288939949,0.17995799545737,0.996800124527386,1,0.04,0.048107524166867,475.605685520597,1.03613708800418,0.337275266873436
992,0.0166396709270956,-0.0166917453147878,-0.0166674042684373,0.249999926073338,-0.25,-0.0166666666828718,-0.249999023405791,-0.0493525369110473,1.01575151309642,1,0.04,0.0318266106722323,484.797125395099,1.00056947056486,0.35601431817352
1052,0.249946927744712,-0.249999185792603,-0.25,0.249999949529742,-0.25,-0.25,-0.249999666063402,-0.249999252733413,1.00949087457802,1,0.04,0.022576060340446,481.487801711371,0.897348631290071,0.394256407705508
1112,-0.0166914266833778,-0.242134146089818,-0.249997162948762,-0.0166641964484859,0.0166648958711621,-0.249999995419603,-0.249999844162921,-0.249999651275593,1.00697493350086,1,0.04,0.0121344275237745,480.493829955761,0.868913130972186,0.406318064646448
1172,-0.249999986807956,-0.235252236349881,-0.249994680528928,-0.249995324179435,0.249996679758429,-0.249999991411755,-0.25,-0.25,1.00520120865412,1,0.04,0.00804913867367197,479.426504451885,0.807604264377178,0.436192418258943
1232,-0.249999993843713,-0.24311741440142,-0.249996403140209,0.0166688487162635,-0.016668215486533,-0.249999995992152,-0.0431284769905711,-0.25,0.994126842602175,1,0.04,0.0109582317957416,474.253177208396,0.81475101911757,0.427700751155649
1292,-0.25,-0.249999445196516,-0.24999791042508,0.25,-0.249999998825875,-0.25,0.137884105642679,-0.25,0.994030015439841,1,0.04,0.0131396166526579,474.238970607429,0.858991973208782,0.405660582504848
1352,-0.113493795031623,0.0153571562606962,0.0166639627261707,0.249999897754207,0.0166666672145918,0.0155193194182702,-0.0689873993380812,0.0166005087022821,0.953639217660157,1,0.04,0.0360844206701065,454.785978505009,1.00298140995585,0.333172278764919
1412,0.00594913431570603,0.247544182535757,0.249993101733515,0.249999808289139,0.25,0.247848723909257,-0.249999966196246,0.249875953816779,0.974468321149193,0.993832499285917,0.04,0.0521474542352777,465.135796247469,1.22358415079423,0.279319076143377
1472,-0.130455384594999,-0.0178101463504836,0.249995829020532,-0.0166632469588299,0.249987621230405,0.185295021829434,0.0166383904305828,0.249942111781164,0.988091901411084,0.98226843544701,0.04,0.0551388020702831,471.496697008441,1.23423127632599,0.28069636166741
1532,-0.249809338641867,-0.249995184125944,0.24999821539667,-0.249993420300803,0.249976789807009,0.13056053250959,0.249946952479059,0.25,0.982362523328713,0.970704371608104,0.04,0.0605043672259157,468.547562816308,1.15396368304657,0.298343251335995
1592,-0.147086493787427,-0.0985761010419542,-0.0166674994815537,-0.249996929473708,-0.0155844669052944,-0.072191368513536,0.249975244490227,-0.0166666666666667,0.983563465191343,0.959140307769197,0.04,0.0542300687171308,469.324317412265,1.05455686574027,0.327007512430883
1652,-0.0572040045397916,0.0339155966565372,-0.25,-0.25,-0.24795056652856,-0.249599281908771,0.25,-0.25,0.96483931503046,0.947576243930291,0.04,0.050709455898908,460.093438698724,0.90281790902416,0.37445579040455
1712,-0.0230923610476533,0.1491326695548,0.0166666666666666,0.0166600579912836,0.0176230689533389,0.016847763818357,0.25,-0.248805254784967,0.9250967073491,0.936012180091385,0.04,0.0740477149726361,441.246162255661,0.891211866578288,0.363793266903868
1772,0.00675532700796782,0.249947608340781,0.25,0.249987608733657,0.25,0.249988928829594,0.25,-0.247759852721813,0.915822007202989,0.924448116252478,0.04,0.0811776546012274,436.975133681628,0.977432304554717,0.328491935171914
1832,0.136458552085993,0.249961283526622,0.249531635880812,0.249993989014714,0.249987763020674,0.249804131819259,0.25,0.0177120687298205,0.904532426302928,0.912884052413572,0.04,0.0830947867507973,431.40644606737,1.00996803143472,0.313858344069151
1892,0.249948874029266,0.249973249314232,0.249121817276522,0.249999571760638,0.249977055663764,0.249642434435216,0.25,0.25,0.899051416764228,0.901319988574665,0.04,0.083632386520041,428.93644290556,1.05025131685499,0.300091978942278
1952,0.088108909226227,0.0449409078056273,-0.0170764717964594,-0.0166668529515098,-0.016617913082603,0.249827131743064,0.130935594924415,0.249999381956339,0.911204187147578,0.889755924735759,0.04,0.0577775631649,434.939759169426,0.992653723605176,0.321948206374612
2012,-0.0535010599764316,-0.134462391014402,-0.249999974735318,-0.249999974574639,-0.249888510735674,0.249988741887432,0.0267542404832783,0.249998841168135,0.898807848003382,0.878191860896852,0.04,0.0399635494146785,428.54073520343,0.814949950121059,0.386381077370522
2072,-0.158259390702162,0.0705560784049832,0.0166666769011116,-0.249991902707062,-0.249947943462844,0.211191160730403,0.145818643550357,0.249999449683395,0.865794621700654,0.866627797057946,0.04,0.0486799616676116,412.853568583449,0.770963382813001,0.393474840115055
2132,-0.249922930087176,0.249947239146945,0.249999997082988,-0.249984839822932,-0.249999947099118,0.177243277218002,0.249999996234051,0.249999982134247,0.854892811929922,0.85506373321904,0.04,0.04951424474362,407.829981458321,0.789996236104451,0.379322674300039
2192,-0.249950225693759,0.0307658505645074,0.248772956106291,0.0166737414159649,-0.249999618714046,0.216033359703569,0.249999973008439,0.249833770277674,0.844521769611341,0.843499669380133,0.04,0.0474017926874525,402.840844787766,0.781583911780749,0.378715049061633
2252,-0.249974109349519,-0.161017864445126,0.247699295251681,0.25,-0.249999331377108,0.24997468187844,0.249999952686029,0.249688334903173,0.833827886831579,0.831935605541227,0.04,0.0467222799746656,397.72124456286,0.770297432849164,0.379380509576932
2312,-0.249987582111067,0.0581916632517036,-0.017740328882549,-0.0166663267789976,0.0166181253324327,-0.0146287616252138,0.24999540975448,-0.01681210987817,0.834332647400967,0.82037154170232,0.04,0.0289178731371053,398.088447960227,0.727221496123571,0.402223595183856
2372,-0.249999370777421,0.24999999998643,-0.25,-0.24999936271062,0.249908399953281,-0.246156774690911,0.249991434689375,-0.0690324159461161,0.814707759483431,0.808807477863414,0.04,0.0214767035142616,388.530180672358,0.663924004698874,0.429992682700373
2432,-0.0465235679513025,-0.0166579228274281,-0.25,-0.249973971485245,-0.0167094133551358,-0.247069300825173,0.249996000739034,-0.102709505990552,0.810457416206688,0.797243414024507,0.04,0.00646709717171628,386.727121308464,0.614221141278733,0.462630803335785
2492,0.131517759521551,-0.249983605289554,-0.25,-0.249951754163042,-0.25,-0.247867761192653,0.249999996032486,-0.167436606386592,0.785374318606475,0.785679350185601,0.04,2.62737643821791e-06,374.466418471178,0.566260579781521,0.485904838848196
2552,0.194430184296403,0.0166743175315415,0.0166666666666665,-0.247031906503288,0.0159356203913874,0.0176614441210597,0.249999904629494,0.0373788030025852,0.740107953255494,0.774115286346695,0.04,0.0352626536717466,353.456073018591,0.655088370741323,0.39645165438493
2612,0.249478555974399,0.25,0.25,-0.244477039801003,0.248629288233851,0.249999498770558,0.249999824651876,0.24999929706801,0.754537964529636,0.780868832634477,0.04,0.0545852722881513,360.365047247465,0.876442438496154,0.302116147987329
2672,0.249723840816217,0.159039471070039,-0.0166631677764231,-0.247373975851025,0.133835522459959,0.249974744248079,0.249999918170875,-0.000831419620846305,0.806067738323734,0.803650287783112,0.04,0.0370842857448454,384.989797165838,0.936064470290909,0.302202557356716
2732,0.249938465052808,0.0794490082563224,-0.249993439580793,-0.249908794894795,0.0333909774078026,0.24995308404091,0.25,-0.220308296723596,0.821186514602471,0.814281633519142,0.04,0.0360357671970853,391.719180229461,0.874507019951257,0.329129047700495
2792,0.249885261760787,-0.0254728797059063,-0.249977446619936,-0.183417364428265,-0.117750877209692,0.116835426516186,-0.0166666666666667,-0.233315513135365,0.830964041442462,0.814281633519142,0.04,0.0268957855347967,396.582727801649,0.816965137096801,0.356685083766527
2852,0.249838708880269,-0.117279531672856,-0.249963452779185,-0.125237362770052,-0.25,0.00035747618205221,-0.25,-0.244696827495664,0.823850142444144,0.814281633519142,0.04,0.0187301311638326,392.925205313952,0.717147560349115,0.402583563481518
2912,0.24965239150476,0.0786028850973689,0.0166837220363801,0.074234844928304,-0.25,-0.132665685537651,-0.0555394180510014,0.0191305059010846,0.793286967214041,0.814281633519142,0.04,0.0453382676043588,378.25558697638,0.755127937383807,0.368060735470117
2972,0.24948936380119,0.249999999771316,0.25,0.248773026664365,-0.25,-0.249060952042391,0.114613591154372,0.24997942262324,0.801944520703089,0.814281633519142,0.04,0.0555721075622552,382.784352716147,0.883211373145841,0.318452160764058
3032,0.23707771181315,0.24999999989328,0.246197762998627,0.24942741244337,0.0035430803530229,0.0171047850260408,0.186795903833889,0.246172751810602,0.803738749463911,0.814281633519142,0.04,0.0710951433399263,383.390994008946,0.927986123066522,0.303567379248713
3092,0.226217516323615,0.25,0.242870805622425,0.25,0.225393275661918,0.249999804960919,0.249955427428466,0.242841914849543,0.808105080188472,0.814281633519142,0.04,0.0774148838607046,385.639048273623,0.990863354945931,0.28597094561612
3152,0.23889644273438,0.0172482184107072,-0.0197447342048928,0.212593387601187,0.00115080540132055,0.249981025023297,0.249944812487559,-0.0200070336663074,0.835136091813852,0.821877747106989,0.04,0.0546960395589029,398.783675835343,0.968382531016569,0.302583402427462
3212,0.249990503343799,-0.186409590479924,-0.249533331553796,0.179862601752226,-0.195061356076702,0.249964592577877,0.249935524414265,-0.15975492153995,0.844652984524548,0.836120460084202,0.04,0.0406559409559378,402.950390397573,0.869913384623513,0.340353518133202
3272,-0.0166701711084539,0.04629785948984,0.0168844349205212,0.217249886366566,-0.224261291735314,0.192235199529364,0.24988376741851,0.0166667303117509,0.841192806060147,0.850363173061416,0.04,0.0445245291147966,401.272406628652,0.880436247607125,0.33488528026859
3332,-0.249998261254175,0.249916878213383,0.249999980585549,0.249963760404114,-0.249811235436598,0.141721980611915,0.249838480047224,0.25,0.856805261846515,0.864605886038629,0.04,0.0429635967507209,408.970460722798,0.954094026221501,0.314960027992152
3392,-0.249999188585282,0.249961209832912,0.249995813039554,-0.0166188582542281,0.016754747703655,-0.0669178389842559,0.249923372721646,0.221943120768567,0.879068602054647,0.878848599015842,0.04,0.0366236748541953,419.57209576018,0.971220513142106,0.317426680024407
3452,-0.25,0.25,0.249992166436807,-0.249878649580278,0.249999982951377,-0.249477681130905,0.249997653811764,0.197393351441064,0.893762446980321,0.893091311993055,0.04,0.0343579552808329,426.501751513449,0.961237017196698,0.326020574355679
3512,-0.25,-0.0166666666666667,-0.0166703189172961,-0.249836049083467,-0.0161209078713631,-0.249756251169259,0.0682845181400074,-0.0412158149116446,0.927585653071249,0.891409892525495,0.04,0.00861292242399546,442.844292831142,0.869629743249176,0.374172049875043
3572,-0.25,-0.25,-0.249999993602137,-0.249798773648757,-0.24897668734126,-0.249999999952818,-0.0907144755727799,-0.17328557679989,0.883502540691403,0.875794857168759,0.04,6.2500786706097e-08,421.252649654329,0.7427635095745,0.416722319988419
3632,0.0166666664769587,-0.25,-0.24999999701433,-0.249904956147458,-0.249508751862065,-0.248678262045505,-0.175666755267297,-0.249991497703458,0.856150071378122,0.860179821812022,0.04,7.69244303990134e-08,408.413271588135,0.749375307234899,0.400456312577707
3692,0.249999999644298,-0.25,-0.25,-0.24999786583382,-0.249974308317769,-0.247521741376605,-0.25,-0.249985077157503,0.856100423328548,0.844564786455285,0.04,7.2467155534438e-06,408.434998698512,0.715540552093865,0.419414435621587
3752,0.249999999834006,-0.249999896634714,0.0166657932478192,0.016667662610884,0.0166786561183744,-0.0174408114861895,-0.25,0.0166736306598321,0.802970039271042,0.828949751098548,0.04,0.0410440037269347,382.6508802725,0.729016376892075,0.385673774716433
3812,0.25,-0.249999806190089,0.249998362339661,0.25,0.25,0.183880002167924,-0.25,0.25,0.800936275964862,0.813334715741812,0.04,0.0594186353984193,382.213086615511,0.871972283446486,0.322075395259041
3872,0.249997678040067,-0.249997212851264,0.159525539067584,0.25,0.249999987198701,-0.0475226081946204,-0.249999998088691,0.25,0.803993109037533,0.797719680385075,0.04,0.0590097528766283,383.56810522711,0.869279397713176,0.324218488424528
3932,0.249995646325125,-0.249994943679793,0.0803618187045162,0.25,0.249999975997564,-0.249999892261847,-0.249999996416295,0.25,0.790929610100227,0.782104645028338,0.04,0.0631928977648378,377.19636317678,0.808511807810139,0.34279604777145
3992,-0.0166686983816081,-0.249997614404043,-0.0958311512712259,-0.0166666665229242,-0.0166593437712272,-0.249999854121525,-0.249999998327604,0.229167542269169,0.785538076269649,0.766489609671601,0.04,0.0364865281919514,374.898064503615,0.737915608692724,0.373302740118132
4052,-0.25,-0.249999951287762,-0.25,-0.249999999730483,-0.24998624856892,-0.249999820748743,-0.25,0.210939141754692,0.775318684723033,0.750874574314865,0.04,0.0179705581298565,370.093228964475,0.538605920273301,0.504887586552262
4112,0.0166666666666666,-0.249838280303978,-0.249999999995085,-0.00738790566856801,-0.249993582665496,-0.249999891950077,0.0166666666666666,-0.0348943625940103,0.720725238788142,0.735259538958128,0.04,0.0216403425847697,344.160098253775,0.521486854899572,0.484921932970235
4172,0.25,-0.249696818193167,-0.249999999990784,0.204897676635608,-0.25,-0.249999954251244,0.25,-0.249998678899124,0.714090342251573,0.719644503601391,0.04,0.0265036750725584,340.515093912744,0.590802597990174,0.423495351244244
4232,0.132162529070124,0.00942468753273727,0.0166666666709675,0.228941580693696,-0.180923200754379,0.016666688016086,0.24999999990976,-0.249989071393424,0.682640767224065,0.704029468244654,0.04,0.0515012371511717,325.470879000281,0.655564067939782,0.364797347316486
4292,0.0290547420064834,0.236156005042904,0.25,0.249979996744524,-0.120481001414461,0.25,0.249999999830799,-0.249980664825937,0.681831063140879,0.688414432887918,0.04,0.0707908011682717,325.31384307995,0.739286849222988,0.323328687751331
4352,0.146892212936359,-0.0231271976092968,-0.0166666666666666,0.249990665147444,0.0771087240868538,-0.0166666666666666,-0.0166666631699719,-0.249990895023,0.688265428741519,0.672799397531181,0.04,0.0548610836763974,328.431497391142,0.703596957417651,0.342985313312385
4412,0.25,-0.249999999929972,-0.25,0.25,0.249999733900504,-0.25,-0.249999993295647,-0.249999846445431,0.670988611051464,0.657184362174444,0.04,0.0475545876578887,319.871081191576,0.58605241010743,0.401045085053642
4472,0.25,-0.24999999996732,-0.25,0.25,0.0387097342877086,-0.0996992080879085,-0.079768433862078,-0.0823647044661952,0.63677067200562,0.641569326817707,0.04,0.051652162627827,303.586985841961,0.568526364798307,0.392362250741806
4532,0.25,-0.25,-0.25,0.25,-0.146169015373488,0.0318139848351716,0.0691841806422943,0.0643160447656364,0.626927213663377,0.625954291460971,0.04,0.0479130596112042,299.049997942865,0.587542113925892,0.373989559670112
4592,-0.0158881697412264,0.0166666521143096,0.0160681212613481,0.248955699012525,-0.201347705431434,0.148179764594218,0.165619278750663,0.0856687370928053,0.606494710697193,0.610339256104234,0.04,0.0696638701599147,289.154448912079,0.58485846174687,0.363273549462603
4652,-0.248540318264799,0.24999997271433,0.248877727365028,0.248041935648485,-0.249629059232137,0.249999821883384,0.249999989595485,0.104352342879078,0.595113955293414,0.594724220747497,0.04,0.0785009951204561,283.871688943337,0.606327046963233,0.344009009157781
4712,-0.24931881519024,0.249999987266688,0.248703354826809,-0.017580430030707,0.0168397078075491,0.249999916878844,0.249999995143785,-0.0846349459954526,0.58753311264705,0.57910918539076,0.04,0.0734491503769674,280.244507086131,0.574598986034393,0.358366107905378
4772,-0.25,0.25,0.248550778855867,-0.25,0.249999878967274,0.249999999999871,0.249999999998547,-0.0699552095158329,0.567094474523883,0.563494150034023,0.04,0.0744530967515296,270.416092003042,0.540808805149789,0.367403639840451
4832,0.0166666666666665,0.246432802204373,0.249323696799405,-0.25,-0.0160787527097974,0.249990348017129,0.249998976261575,-0.0330515606131517,0.560614024630979,0.564025080391266,0.04,0.0629203203506684,267.546475584573,0.541513450253488,0.363031794489825
4892,0.25,0.2433115041332,0.25,-0.25,-0.248897555427235,0.249981902532229,0.249998080491725,-0.0156154511448154,0.572002983978565,0.57868373074824,0.04,0.0514345780292747,273.010117836462,0.575705546522508,0.348444011615209
4952,-0.0166666665566938,0.158332600746873,0.249999791817145,-0.0878687529947555,0.00260690703513831,0.24999088905023,0.249999096216252,-0.00737697018195306,0.582836150141209,0.593342381105215,0.04,0.046923469440722,278.171129843324,0.627146978329296,0.325909782652679
5012,-0.249999999793801,0.0839760602838376,0.249999609657147,0.0539960881348335,0.222673311689715,0.249998752253481,0.249999984975214,-0.00404105761416061,0.60220572385351,0.608001031462189,0.04,0.0393118665778423,287.436028184082,0.674886031646006,0.312943142918843
5072,0.0166467741001801,0.172522051651344,0.249999817797464,-0.108134475530396,0.147871680915982,0.249994016472809,0.249999992988433,0.0167372662764851,0.615675954317285,0.622659681819163,0.04,0.0441077724462985,293.842325475428,0.70942520620365,0.304342366698586
5132,0.249962701257413,0.249999794097912,0.249999999920241,-0.249998718737471,0.0824202539889651,0.249989872664721,0.25,0.249821630238601,0.629465363523832,0.637318332176137,0.04,0.0538093818074188,300.516583779052,0.777841429689551,0.283878203719624
5192,0.249974388712905,0.249999901770946,0.225873175969938,0.0166671432824793,0.171780139586396,-0.0166713923978359,0.249999996173816,-0.00080624330920922,0.65812090131443,0.651976982533112,0.04,0.052972135059348,314.013987876594,0.779585174025154,0.29596482537602
5252,0.249984615236461,0.249999995984851,0.204762205013422,0.249999772549936,0.249970039484149,-0.249999999327573,0.249999992825906,-0.00038057679530231,0.66478339921925,0.666635632890086,0.04,0.0595449750870621,317.242343928702,0.77561154621225,0.300539500756125
5312,-0.016673846222985,-0.0166650223872334,0.0261411478756912,-0.0166659972183457,-0.0166761253188821,-0.249999999677463,-0.00307077441490737,-0.00307077441490737,0.699599618621258,0.68129428324706,0.04,0.00843054203665535,333.873539628131,0.749282261055878,0.327409462398415
5372,-0.25,-0.249996913462807,-0.130152277119823,-0.249998545765592,-0.249991519521534,-0.249999999983616,-0.0485653710199744,-0.0485653710199744,0.675321467772645,0.695952933604034,0.04,3.068882945815e-10,322.282738816471,0.808350749019625,0.292948903579023
5432,-0.249933303090502,-0.249998559615977,-0.194067920253284,-0.249999321357276,-0.249996042443383,-0.249994375148785,-0.124990633885853,-0.124990633885853,0.693511971251084,0.710611583961009,0.04,2.62995868070141e-10,331.054963193638,0.923944313225017,0.263274612811417
5492,-0.249874943294691,-0.25,-0.249994107995061,-0.25,-0.25,-0.249989453418308,-0.215967721784172,-0.215967721784172,0.720019744315033,0.725270234317983,0.04,2.96293566817227e-10,343.751788445486,0.984528338639718,0.256549646905518
5552,-0.0311414315089454,-0.249999999073602,-0.244462472892154,-0.0269531728914119,0.016665925806858,0.0166675511438568,-0.187560143159417,-0.154227166088257,0.788560493877356,0.739928884674957,0.04,0.0135838837935114,375.083445992239,0.852283712786238,0.323369000656912
5612,0.160250391303582,-0.249999998263003,-0.239622292177109,0.168212800828603,0.249998610887859,0.249992430135751,-0.132927086130117,-0.0704260178340367,0.745849699246522,0.746769588174878,0.04,0.0429027706406294,355.946810435834,0.897109849436054,0.291537319965331
5672,0.108277191658818,-0.248356637686618,-0.245157067488627,0.211832608066212,0.249999351698616,0.0673949106348581,-0.128919492955812,-0.166198794428293,0.757289585533917,0.746769588174878,0.04,0.0413358242809857,361.377706379059,0.860228389713907,0.308675572396639
5732,0.0628006419696504,-0.246918697182281,-0.249999995886206,0.24999993939912,0.249999999908028,-0.092377918928423,-0.125412848928296,-0.249999973948267,0.755011876830131,0.746769588174878,0.04,0.0413494873760769,360.15247120816,0.792794398837096,0.33379551895212
5792,-0.101905718763446,0.0180712708144486,-0.249999995887978,0.249374643508108,0.249996704496262,-0.176336397546873,0.0210026088866084,-0.233474149359412,0.746214467227128,0.746769588174878,0.04,0.0456191754910628,355.960779624367,0.775088531417365,0.337446955844531
5852,-0.246023784404906,0.249937492811587,-0.249999995889529,0.248827509603473,0.249993821010967,-0.249800066338017,0.149116134474649,-0.219014052844163,0.74706450706711,0.746769588174878,0.04,0.0454604053473595,356.450893098082,0.783605283602445,0.334238926533455
5912,0.0185170183119182,0.249909443073997,0.0166586177303996,-0.0165364047664691,-0.016669458845997,-0.247411517555904,0.202919437895474,-0.234230389890285,0.748091698383958,0.746769588174878,0.04,0.0486505840490889,356.894269334511,0.773286512698576,0.339120321528535
5972,0.249990220689139,0.249884899553606,0.249984904647837,-0.248729829840168,-0.249999828720841,-0.245321537371556,0.249997328388696,-0.247544684805642,0.749224804452818,0.746769588174878,0.04,0.0511147971544987,357.459755459944,0.760565874373318,0.34533849733385
6032,-0.0166459532300119,0.249255066185031,0.249840103134022,0.0172591816591369,0.00797239366624945,0.0188172043514389,-0.000790989322122186,0.0177840366974201,0.7376224539228,0.746769588174878,0.04,0.0662599613238007,351.800686382459,0.775196069747757,0.333456967684964
6092,-0.249952605409269,0.248703961987527,0.249713401809433,0.249999566721029,0.233698088254954,0.249938603359059,-0.220230767319088,0.2499466680126,0.741760291395583,0.746769588174878,0.04,0.0649972628200548,353.971723775079,0.833001153496674,0.31223216775571
6152,-0.117950959313142,0.085461640714212,-0.0167821843201101,-0.00699817816599841,-0.0242684029253045,0.0158063188302239,0.0305581647930469,0.249975109215539,0.756393808990531,0.746769588174878,0.04,0.0417565654574674,361.031712798191,0.816348469607799,0.324955913866536
6212,-0.00244951897903036,-0.0573753903999387,-0.24996582218346,-0.231871204942147,-0.24998908270803,-0.189059430132507,0.249998480391165,0.249999995268111,0.757801909092284,0.746769588174878,0.04,0.0312122558669436,361.284741195765,0.705038602247574,0.37652290413605
6272,0.132173159182908,-0.16010719787991,0.0166826163143852,-0.241536591768552,-0.249994629129343,0.0451055992714967,0.249729968155445,-0.0166581028735508,0.742782838094841,0.746769588174878,0.04,0.0344335772318609,354.242136366398,0.691738366406461,0.376281642151365
6332,0.249968002574604,-0.249997529424886,0.25,-0.249993805241655,-0.249999482247991,0.25,0.24949501994919,-0.245503083257987,0.744410511294362,0.746769588174878,0.04,0.0377801807754175,355.189240007666,0.713781047925008,0.365636433995697
6392,0.112801187058995,-0.249991815932987,0.158824716319054,0.0166567063544396,-0.249999758382396,-0.0162619988849217,0.249761449199587,-0.249992504748445,0.749729305085325,0.746769588174878,0.04,0.0280081420869643,357.761212609562,0.712054641100163,0.369176976511129
6452,-0.00721977651716293,-0.249986816627575,0.0790463430982255,0.249975904001023,-0.25,-0.249241247909228,0.249994574793685,-0.249999999999269,0.749004732625433,0.746769588174878,0.04,0.0237729180793592,357.289539977543,0.684070780830104,0.383772576416793
6512,-0.136702185962762,-0.249993847759535,0.167926174243586,0.249988755200477,-0.24989117015269,-0.24964590027934,0.249997266246902,0.0166666665292201,0.739937477065354,0.746769588174878,0.04,0.0311503947629809,352.962167250251,0.703086725066322,0.368870509478892
6572,-0.249999294227662,-0.25,0.245696026495777,0.25,-0.249795944036294,-0.249999971103188,0.249999621268467,0.249999999741648,0.743999983515563,0.746769588174878,0.04,0.0345807012011936,354.982308899861,0.734787164844608,0.354976681119232
6632,0.0166669837770978,-0.249969596315958,-0.0186352220225866,0.249998373746829,-0.249904304148458,-0.249999986514821,0.249999767928081,0.249999998099991,0.744708260844458,0.746769588174878,0.04,0.0348767245755241,355.264698027624,0.744749709029616,0.350506752211652
6692,0.249999977031262,-0.249942993092421,-0.249925064476155,0.249996950775304,-0.249999119246602,-0.25,0.249999896255244,0.249999996663542,0.744457523835846,0.746769588174878,0.04,0.0363323463501191,355.211450780387,0.762755325881843,0.342181389093865
6752,0.249999989281256,0.0165806460026909,-0.249965030088872,0.249998577028475,0.0166670776849193,0.0166666302186558,0.249999928920614,0.114776673396375,0.733163397519158,0.746769588174878,0.04,0.0552069472576866,349.811608839603,0.806514710897694,0.31869599131784
6812,0.25,0.249788830210914,-0.25,0.25,0.25,0.24999993165998,0.249999957502813,-0.00354373446239697,0.741168372565861,0.746769588174878,0.04,0.0695081302955753,353.701834210971,0.866471587539018,0.299942261688881
6872,0.24782239466965,-0.0167639041325979,-0.144955838752971,0.249952574428404,0.25,0.193329438643896,0.249991049274252,0.131679409392349,0.745958836781034,0.746769588174878,0.04,0.0671800805165918,355.910674674008,0.875530403664015,0.298692596455408
6932,0.245916990005594,-0.249997546683171,-0.0530421976618206,0.249911077053257,0.25,0.143742757254822,0.249983254574262,0.249999660265251,0.749445779376798,0.746769588174878,0.04,0.0639474382404374,357.578701302381,0.867839570120517,0.302751895302174
6992,0.246113958309725,0.01278190323213,0.108576839689727,-0.0167080007455894,0.25,-0.0662499509121523,0.249934154846475,0.249999790972232,0.752247895108235,0.746769588174878,0.04,0.0680168183222151,358.927678019079,0.841976950285481,0.31322860993468
7052,0.246286305575839,0.242713921908018,0.24999349737233,-0.24999969381958,0.25,-0.249993570558255,0.249891192584662,0.24999990534084,0.752764141577035,0.746769588174878,0.04,0.0684252088015724,359.110725114897,0.799242566664293,0.330144788659676
7112,0.248266942602058,0.246454911580197,0.249996518085055,0.0166097182807731,0.249999581011237,-0.249996976571222,0.248280095078861,0.249999773614639,0.746813340568836,0.746769588174878,0.04,0.0722022123849691,356.237407163446,0.782671592551133,0.334437236601756
7172,0.25,0.249728277543353,0.24999916120869,0.249892953868582,0.249999214396068,-0.249999956832569,0.246870384761284,0.249999658354213,0.743335038607829,0.746769588174878,0.04,0.0722791259260778,354.654549969863,0.803016764080994,0.324515616018239
7232,0.24995305423712,0.2490666981534,0.249950259501446,0.215496700871241,0.249948628950115,-0.249999979855199,0.248539512888599,0.249702450426347,0.74476162485191,0.746769588174878,0.04,0.0676476529686302,355.338626685447,0.818434418329834,0.319016547743722
7292,0.2499119766946,0.24848781618719,0.249907470507608,0.185399979498567,0.249904366684907,-0.25,0.25,0.249442393489463,0.745719027325394,0.746769588174878,0.04,0.0658593714524374,355.78527342518,0.825834740952711,0.316555231712808
7352,0.24995892245748,-0.00914629396527903,-0.0167092379106455,-0.0468015980842604,0.249530959963436,-0.25,0.25,0.249735274065172,0.752966824843877,0.746769588174878,0.04,0.0439785639522345,359.385063437105,0.815752410441256,0.323710162497163
7412,0.25,-0.23457614034869,-0.249998857776617,-0.249977978469235,0.24920422908215,-0.25,0.25,0.249991544568918,0.756324850401448,0.746769588174878,0.04,0.0282338919261302,360.723913379944,0.736392503805339,0.359931827291826
7472,0.249705142390961,-0.242783010447931,0.0166669582921332,-0.189853128334831,-0.0170380264283302,0.016646641979959,0.159398870748227,0.184044566640586,0.749242720779196,0.746769588174878,0.04,0.0350999984473184,357.434147238321,0.709512411219678,0.370161051071339
7532,0.249447141983052,-0.249964021784768,0.24999954735229,-0.137243884467227,-0.25,0.249962453712423,0.080122882652926,0.126340960953295,0.746374969027147,0.746769588174878,0.04,0.0387809719775954,356.090555891559,0.707294002759002,0.369926255333467
7592,0.249741923278326,-0.249728147007266,0.249997257343299,0.0691603242533569,0.0164311155138217,0.249282307548404,-0.0534645032447705,-0.0534645032447705,0.747813374084585,0.746769588174878,0.04,0.0419392547055157,356.755548096094,0.705651628577334,0.371479680956746
7652,0.249999856911691,-0.249521756576951,0.249995253585431,0.249764006883868,0.249558341588416,0.248687179654887,-0.0486230201307894,-0.0486230201307894,0.740483423537206,0.746769588174878,0.04,0.0490049795589714,353.321601132029,0.749792210649289,0.346245343725442
7712,-0.0166168499788893,-0.249188738612954,-0.0166242180711538,0.249866139013153,-0.0168727739254059,0.017776643772653,-0.0392857282710161,0.0144113352603598,0.760648537006612,0.746769588174878,0.04,0.0178578448127989,362.911704881794,0.733560897328799,0.363512608290339
7772,-0.249906468508147,-0.248897347894456,-0.249916255770666,0.249955504626276,-0.25,-0.184270075124302,-0.0722763591824189,0.245770637067846,0.758246621150023,0.746769588174878,0.04,0.00314346466139435,361.806563965647,0.617817802679665,0.430299359274032
7832,-0.249954603867933,-0.249485429017413,-0.249537000762426,-0.0166874285573167,0.0166666666666667,0.0473406316086591,0.016657809543189,0.247439692424278,0.735914139890147,0.746769588174878,0.04,0.0128837250716955,350.724083072037,0.617668538275171,0.417219678610058
7892,-0.249996722307746,-0.25,-0.249205152630217,-0.249999995092961,0.25,0.25,0.249983392893479,0.248900115861156,0.740337939687233,0.746769588174878,0.04,0.0196567507827451,353.306322483073,0.684131241382046,0.379460576595397
7952,0.016668184913222,0.0166666666666666,0.0170139010723989,0.0165858886944345,0.249999957750157,0.249787091557736,0.249954138940369,0.249486714502047,0.70984050967705,0.746769588174878,0.04,0.0464297756896911,338.49711176772,0.791354363928726,0.314295846737593
8012,0.249999978731569,0.25,0.249955573062187,0.249848537008406,0.249999920781544,0.249600796670755,0.249928541731397,0.249999988312826,0.731067984612617,0.746769588174878,0.04,0.0669734438091737,349.011140555289,0.955039622725826,0.268517488388155
8072,-0.0166390286576573,0.25,-0.0162977703245044,-0.0167371002724426,0.249999741987247,0.249597805696027,0.249929879734557,0.249996058169519,0.748971552959825,0.732355473289085,0.04,0.0604035040079783,357.377187232624,0.934506620382531,0.280995341649034
8132,-0.24994816012323,0.25,-0.24926944578786,-0.249999532893185,0.249999585542237,0.249595188593141,0.249931050487323,0.249992619294125,0.727350274726229,0.705329007878221,0.04,0.0660354301786799,346.687489868306,0.777213770053108,0.32775729019333
8192,-0.15411100958997,0.249988422993294,0.0170075919656655,-0.0939610335565292,0.249999806586377,-0.0168333538740828,0.2499658874302,-0.0166687119611003,0.700221041115277,0.678302542467357,0.04,0.0795118159216264,333.931012227788,0.659311911156964,0.372152129491278
8252,-0.0702535028733683,0.249978293112426,0.25,0.0425726533630443,0.25,-0.249958328532904,0.249996369755218,-0.0614681766748584,0.661282715632264,0.651276077056494,0.04,0.0889108421263438,315.185543105225,0.559287250295877,0.414081708229402
8312,0.100369792603066,0.249989870119132,0.25,0.00971295401847396,0.2421565291246,0.0166583500327472,0.24892201721461,0.0165242837656257,0.629241625485923,0.638663726531424,0.04,0.0883550582341473,299.918330924075,0.563060314396334,0.391383730400484
8372,0.249665176144946,0.25,0.25,-0.019039282908025,0.235293492108624,0.249947943777692,0.247981958741578,0.249730736768793,0.624500141274608,0.638663726531424,0.04,0.0804658650444027,298.073081714623,0.676731433452348,0.323639174305856
8432,0.249168008058595,0.249973261105885,0.24999670529354,0.124448334642922,0.243136962984025,0.249944788736241,0.249058247412736,0.247106345968168,0.632332208999998,0.638663726531424,0.04,0.0798486456921402,301.699737327425,0.722972785563327,0.306625068777611
8492,0.248732985983037,0.249949864573535,0.249993822425387,0.25,0.25,0.249942028074971,0.25,0.244810004017622,0.634267480843192,0.638663726531424,0.04,0.0830506249646873,302.630390910779,0.754790291383577,0.294605540244542
8552,0.203872337689868,0.249976015061348,0.249997117131847,-0.0166666666666666,-0.0166666666666666,-0.0166806690896592,0.0851913666533547,-0.00148308198745439,0.660135788576248,0.638663726531424,0.04,0.0508004971104713,315.28479820267,0.714703698786814,0.324139291012624
8612,0.164619270433344,0.249998896738185,0.25,-0.25,-0.25,-0.249975529108711,-0.00516434401561847,-0.00516434401561847,0.652294138343799,0.638663726531424,0.04,0.0367426125795644,311.031991643281,0.584180058003518,0.391212758711464
8672,0.182672324968956,-0.0166670922014525,0.25,-0.249999999909558,-0.249999999894456,-0.249178231469596,0.10414970070956,0.0166666327591339,0.637227350169844,0.638663726531424,0.04,0.0240618117414553,303.962137236011,0.564419884051476,0.395705293998822
8732,0.198468747687616,-0.249999832523635,0.25,-0.249999999830421,-0.249999999802105,-0.24848059603537,0.246919852914764,0.249999936423376,0.638348471168613,0.638663726531424,0.04,0.019510065396895,304.644532873198,0.586982623536234,0.381349182732349
8792,0.225951975594757,-0.249999921844363,0.249870354328064,0.0166666667458038,-0.249880071829148,0.0170749385166149,0.24856259802689,-0.0166665199765051,0.630895570680501,0.638663726531424,0.04,0.0298456027241965,301.084549418944,0.609391822889646,0.36303335026046
8852,0.249999800013505,-0.25,0.249756914365121,0.25,-0.249775134852812,0.249436031249601,0.25,-0.10354664589104,0.632730187435357,0.638663726531424,0.04,0.0443740728190655,301.938795652664,0.656670733156184,0.337851564109759
8912,0.249999906672969,-0.249692802143423,0.0362029392664864,0.249995329383053,0.0159005823565325,0.249735775906294,0.249999999900139,0.0165840767179085,0.63103706358515,0.638663726531424,0.04,0.049720832091306,300.940536391591,0.684278575754115,0.323148708250608
8972,0.25,-0.249424004018917,-0.150656788944819,0.249991242593225,0.248366834914708,0.249998052480901,0.24999999981276,0.249844854506679,0.634729469094521,0.638663726531424,0.04,0.0516541277101402,302.90300917204,0.733087907719323,0.303600308290898
9032,-0.0162275265628347,0.016934811836844,0.0304540638162991,-0.015260539501214,0.249237856293531,0.249999091157754,0.249999999912621,-0.0167169433453459,0.647350201165496,0.638663726531424,0.04,0.05081604168907,308.951772492947,0.714709107471888,0.31762600420709
9092,-0.249176612305315,0.249998775710635,0.188926059982277,-0.247355848833848,0.25,0.25,0.25,-0.0444467952795825,0.642309193465961,0.638663726531424,0.04,0.0548634890773217,306.403739679996,0.67786720172655,0.332126949465887
9152,0.0170460493293781,0.249979743992201,-0.0320690556718849,-0.248756159410866,-0.0166662623486202,0.249998685736763,-0.0166096996020206,0.11869658812245,0.647581986682973,0.638663726531424,0.04,0.0415292901511088,309.026192168326,0.64682198469416,0.351046941979615
9212,0.249990878259735,0.249963091238571,-0.225439781869277,-0.249981431165757,-0.249999241903663,0.24999753575643,-0.0099701998997003,0.249998533905719,0.642195298498238,0.638663726531424,0.04,0.0411910270395893,306.377181828094,0.618051768029767,0.364238828263081
9272,-0.00431296962391923,-0.0166838907553334,-0.0813738380334563,-0.249991295014983,-0.249894393322201,0.249963582253024,-0.00678784652701196,0.249999315822669,0.64496769641085,0.638663726531424,0.04,0.0236369396529692,307.769439243723,0.594267263940976,0.380538290051562
9332,-0.226828836522117,-0.25,0.0446838628228867,-0.249999925883055,-0.249802650813422,0.249933872937543,-0.0339864119469256,0.25,0.642194735079108,0.638663726531424,0.04,0.0105436130219823,306.568759622444,0.526248439388094,0.428047290226005
9392,0.0274798762896789,-0.249219693199392,0.154185785504899,0.0166236684438327,-0.136058448503472,0.249969140704187,-0.0852635338023,0.249570703146768,0.617044426652079,0.638663726531424,0.04,0.0282349278933718,294.576925790185,0.558465434507426,0.38757620293494
9452,0.25,-0.248536924748859,0.24999996785166,0.249919313479859,-0.0365322714822662,0.25,-0.115837983813897,0.24919506840019,0.626617395577871,0.638663726531424,0.04,0.0433212315981292,299.107788282276,0.671888601427815,0.327103449789436
9512,0.249983681056234,0.017349435117199,0.249999984997442,0.249881746908216,0.116284936466249,0.249998527580581,0.016663870665374,-0.0170423014132445,0.634128105266579,0.638663726531424,0.04,0.059845252766996,302.507264259599,0.701186170560659,0.316998452690591
9572,0.249969401980439,0.25,0.25,0.249848876158028,0.2499999934212,0.249997239213589,0.249940580879843,-0.0904184333960446,0.632481119345297,0.638663726531424,0.04,0.075701978217261,301.820087071852,0.747685668074778,0.296608614572305
9632,0.249982052210506,0.25,0.249999999502232,0.249929115079373,0.249989909747209,0.249998711633008,0.249972268947152,0.0166057466859895,0.635821986673862,0.638663726531424,0.04,0.0783608185739463,303.18566973368,0.765010950812621,0.291202899267312
9692,0.249993121161816,0.25,0.249999999066684,0.249999324135549,0.249981086532468,0.25,0.249999996006047,0.24988577503623,0.634991668091495,0.638663726531424,0.04,0.0814391894449204,303.013161381005,0.802798202690693,0.277338254106495
9752,0.249996703259897,0.0543161590352406,-0.0163524765793584,0.249941350985066,-0.0166749892016738,-0.0166666666666666,0.249999998136155,0.249946626509054,0.650627251528523,0.638663726531424,0.04,0.0576899497730792,310.610846577661,0.779204266284937,0.292900404769502
9812,0.249999837595717,-0.116907201808924,-0.249410892769646,0.249890624478394,-0.249999055469048,-0.25,0.25,0.249999871547775,0.652506624012023,0.638663726531424,0.04,0.0414853001353368,311.182116804986,0.667675889727449,0.342455080207009
9872,-0.0166667424553319,0.0786276017365195,-0.249673802553387,-0.0167177085767494,0.0166670492087867,-0.249998884656274,0.24999999974483,0.249999940055628,0.64368090209176,0.638663726531424,0.04,0.0387116171935436,307.066608570674,0.625383985923244,0.360778386978289
9932,-0.25,0.249720554838783,-0.24990384861416,-0.25,0.249999890801892,-0.249997908730513,0.249999999521556,0.25,0.647442022781196,0.646578657028689,0.04,0.0269635239344521,309.011612899001,0.608697353533091,0.373016517854121
9992,-0.25,0.234625988765159,-0.24994943202591,0.01665667259574,0.249999949040883,0.0166676425924273,0.247310189052835,-0.0166666666666667,0.655341241885388,0.661419151711061,0.04,0.0273060941157306,312.754336990015,0.628787810003713,0.365471826282503
10052,-0.25,0.221418243450738,-0.249989317511191,0.249981261117013,0.25,0.25,0.244956604892704,-0.0516743502846553,0.666311958368259,0.676259646393432,0.04,0.0326232481232906,318.070519311083,0.700949190819383,0.333419929624059
10112,0.0165264612911174,-0.0300037004593549,-0.249980264804488,-0.0108766701641188,0.249932233792235,0.249995856061804,0.247646415616595,-0.0738367107091693,0.689376407414488,0.691100141075804,0.04,0.0234821582694043,329.073762254646,0.731453724824113,0.330568202985102
10172,0.249737114920845,-0.249997901380687,-0.249972343686124,-0.239127360035108,0.24987293836044,0.249992230115882,0.25,-0.108586265119258,0.703502241583602,0.705940635758175,0.04,0.0210697237794881,335.726658211214,0.736543305561911,0.334920875088828
10232,-0.0167893020158568,-0.249998983438492,-0.249983801610498,-0.24487689527818,-0.0167259620984613,-0.0166554116740218,-0.0154127689317258,-0.155449251098776,0.733781748611224,0.720781130440547,0.04,1.15628330170114e-06,349.324458030476,0.703183758296153,0.365018468908996
10292,-0.249999916835471,-0.249999930239072,-0.249993827294325,-0.249907738615868,-0.25,-0.249972098240188,-0.230062826667078,-0.230062826667078,0.694222808425369,0.735621625122918,0.04,1.91780907409551e-10,331.482718523808,0.934872986570289,0.260533130131958
10352,0.0166084241589717,-0.249999904873584,0.0166044327212148,0.0165940277316332,0.0166630775221778,0.0166796874879122,-0.161508191035845,0.0166864768907851,0.816487519828355,0.75046211980529,0.04,0.0137681239403753,388.808130041013,0.889487499939366,0.321181235598955
10412,0.249890722529109,-0.249999882678781,0.249877910234812,0.249783073285697,0.249993270354084,0.25,-0.0861350341635958,0.249998548012363,0.753539918382429,0.765302614487661,0.04,0.0534326398944411,359.792783286855,1.03300471264108,0.255920350284143
10472,0.249947246114156,-0.00535398338861387,0.130445825407379,0.24940959228113,-0.0166698071680943,0.00741857445238702,0.0929346020246716,0.249997530194145,0.782181993213898,0.780143109170033,0.04,0.0556975871647643,373.373294451258,1.04663134903652,0.262122432365376
10532,0.249996704251072,0.208711178490282,0.025942751183374,0.249082796402134,-0.25,-0.204840172901774,0.249620533689406,0.249996639603205,0.799645138480024,0.794983603852404,0.04,0.0598093917203472,381.616717339509,1.01773755490387,0.27551564639873
10592,-0.0166682046828329,0.0826200794980873,-0.12118539915314,-0.0170946950123373,-0.24968863242627,-0.228925414020828,-0.0162122997999828,-0.0166384627251303,0.838721553551349,0.809824098534776,0.04,0.0308285379782631,400.601426874407,0.933256393278468,0.315403271987789
10652,-0.25,-0.027709632120083,-0.249922530697591,-0.25,-0.249416185799256,-0.25,-0.248816029103198,-0.249944177262423,0.844565922150797,0.824664593217147,0.04,0.00545048738594487,402.720446918309,0.726680537630724,0.407206617991984
10712,0.0165635986564511,0.12040132936064,-0.249963847658876,-0.25,-0.249727199841412,-0.249999679876113,0.0172191864185078,-0.249970009290407,0.827091553310529,0.839505087899519,0.04,0.016074427378259,394.356402336135,0.718367150795007,0.403363974253093
10772,0.249806747480846,0.249998420656272,-0.25,-0.25,-0.249999337128299,-0.249999399767711,0.25,-0.249992612314893,0.844591099851837,0.85434558258189,0.04,0.0217318242312567,403.192393220227,0.820876533570298,0.360901897619215
10832,-0.0167563718850911,0.249852043878725,-0.249999791937601,0.0165727040436202,-0.114335612168488,0.0166476158857301,0.249999765138281,0.0166689687843304,0.843798218448783,0.869186077264262,0.04,0.0358569752730372,402.608588571574,0.915086067355557,0.323277715471813
10892,-0.249999101330286,0.249723964198371,-0.249999609883001,0.249823820081788,0.00437014717134559,0.249963754582492,0.249999559634276,0.24999785224615,0.869480421685703,0.884026571946634,0.04,0.040691108319274,415.057595392053,1.04876216149221,0.290794395449976
10952,-0.2499995806208,-0.01094655990177,-0.249993985831883,-0.016747701410847,0.1353726996692,0.249983085471829,0.249999794495964,-0.0166676689517965,0.908881980134124,0.898867066629005,0.04,0.033937759579519,433.952979338368,1.05914337374569,0.301052748957692
11012,-0.25,-0.239033268489394,-0.249989064787155,-0.249997782716903,0.249999933104823,0.25,0.249999999999942,-0.25,0.908831269822778,0.895790761536582,0.04,0.0359795723015104,433.399606187918,0.959484590795341,0.331898419442533
11072,0.0166666666666666,0.0181983690602517,-0.249993895635915,-0.24998238476168,-0.0166570907340345,-0.0166486494649724,0.249999999999973,0.0166560117709331,0.877525861515095,0.877037256641215,0.04,0.0490338694754673,418.454130061651,0.91796825211726,0.334946059982357
11132,0.25,0.243276051916192,-0.249998122628581,-0.24996891155086,-0.249981986593035,-0.249966217746823,0.25,0.249980022070499,0.864411213590698,0.858283751745847,0.04,0.0595058613320258,412.324586041184,0.904072955738515,0.335112347342704
11192,0.25,-0.0198045091057772,0.016662529961359,-0.249985492057068,-0.249991270394995,-0.249979151300353,0.24999998804225,0.104637738784706,0.852439594460924,0.83953024685048,0.04,0.0616002241385264,406.584259989719,0.84037838215051,0.355492437307867
11252,0.25,-0.25,0.249990600977557,-0.25,-0.24999939372171,-0.249990468159691,0.249999977579218,-0.0225367590903639,0.830933822845654,0.820776741955112,0.04,0.061637436448419,396.250038363882,0.765678623591725,0.380257221940851
11312,-0.016562059044667,-0.249999985668645,-0.0166710528771404,-0.25,0.0166669495965351,-0.249987163717148,0.249999989536968,-0.143850487575503,0.815832768430781,0.802023237059744,0.04,0.0455668929137704,389.204478748924,0.702435015814547,0.407123670045127
11372,-0.24980386070875,-0.249999973128709,-0.25,-0.25,0.25,-0.249984272329922,0.25,-0.25,0.796514235211307,0.783269732164376,0.04,0.0327428188420968,379.921782571482,0.593635651872052,0.470250098448302
11432,-0.249901844298775,-0.249999987460064,-0.249998058913559,-0.249999916649657,-0.0166409789854611,-0.24999266042063,-0.0166666666666667,-0.249998119262729,0.784340652901355,0.764516227269009,0.04,0.00889945734161601,374.134350932059,0.506971439892855,0.542249008594258
11492,-0.249987579940047,-0.25,-0.249996360462922,-0.249999843718108,-0.24995183559774,-0.25,-0.25,-0.249996473617617,0.727651302655484,0.745762722373641,0.04,5.61649126784229e-07,346.929621182481,0.51558939093996,0.494415509345667
11552,0.0166724584071342,0.0166666666666666,0.0166678474437661,0.0166666924796605,0.0166890956023301,0.0166666633895854,0.0166666657258311,-0.084421367439703,0.661210400162056,0.727009217478274,0.04,0.0499315858805923,315.303668552313,0.62411941340955,0.371206872758694
11612,0.249999991960917,0.25,0.249999029362118,0.249999911652708,0.249999910402391,0.249999993855473,0.249999998235933,0.0604568504659716,0.686729140972224,0.708255712582906,0.04,0.0787656050017025,327.850291870605,0.853333422299511,0.28230040099715
11672,-0.0166654566301444,0.249999995296665,0.249999543771119,0.249999958771264,0.249999958187783,0.249999989506089,0.249999960580812,-0.105120136449213,0.698422101684563,0.689502207687538,0.04,0.0809387621040512,333.231961902064,0.854274810295672,0.286618174528243
11732,-0.249997724147323,0.249999991181246,0.249999993878994,0.25,0.25,0.249999985700378,0.249999927632581,-0.25,0.683936972153697,0.670748702792171,0.04,0.0883999505359545,326.100388537424,0.764525684968947,0.313410766814193
11792,-0.249998739030422,0.219086915462505,-0.0166666695231362,-0.0166567797538406,0.0475360387880763,-0.0166666588129272,0.249996807622041,0.0166666666666667,0.666073981993126,0.651995197896803,0.04,0.0698531087898869,317.714596045877,0.69221551859934,0.337248876830514
11852,-0.249999627053134,0.192037974208607,-0.25,-0.249981462038451,-0.129619927272357,-0.249999972762069,0.249994077612819,0.25,0.664107901593665,0.655429570938647,0.04,0.0408134729414822,316.86395204647,0.601644024066128,0.38697945043214
11912,-0.249999825958129,-0.0437152951052537,0.0166666159945014,0.0166753177153894,-0.193822597750538,0.016666679377701,0.249997236219316,0.249994423582374,0.663986470695247,0.678278337175551,0.04,0.0375925225273646,316.769768011948,0.633793231500228,0.367240699487126
11972,-0.25,-0.249999405754882,0.24999990498969,0.25,-0.249999934418946,0.25,0.25,0.249989544216951,0.690446969164976,0.701127103412456,0.04,0.0336526125772749,329.669374860724,0.729507046346547,0.332050233311407
12032,-0.249999902594763,0.0166642228655946,0.249997685568941,0.249998535374818,-0.249996809514542,0.24999658673634,0.249999938905631,0.249994890795858,0.708863713728002,0.72397586964936,0.04,0.0375063856225145,338.32159085084,0.798412790323121,0.311355760355037
12092,-0.24999981736518,0.249994897908511,0.249995743575786,0.249997253827784,-0.249994075223189,0.249993600130638,0.249999885448059,0.249999569052402,0.73570115025676,0.746824635886264,0.04,0.0415218190857277,351.249922794114,0.885032101767864,0.291616363591972
