time,bias_percent_1,bias_percent_2,bias_percent_3,bias_percent_4,bias_percent_5,bias_percent_6,bias_percent_8,bias_percent_9,normalized_power,power_SP,SP,CV,total_power_MW,fuel_fraction,thermal_efficiency
26,0,0,0,0,0,0,0,0,0.99958414179075,1,0.04,0.0400197234982025,476.902770193328,0.999450516730717,0.350609132785982
86,-0.00652299766447152,-0.0045339832538998,-0.000263284754931988,0.00176345890638288,0.0121870076720966,0.0119408317981259,0.00213313839515729,0.00323825106601134,0.993380229170242,0.987519475171322,0.04,0.0431662339214975,473.773161394576,0.984589398511673,0.353565577224848
146,-0.0215760691978675,-0.01499702153213,-0.000870864958621155,0.00583297945957418,0.0403108715307809,0.0394965974861092,0.00705576546090504,0.0107111381414222,0.967271238413592,0.958718264028219,0.04,0.0514124445522318,461.258321345166,0.934040154024679,0.362855193646635
206,-0.0366291407312633,-0.0254600598103602,-0.00147844516231032,0.00990250001276547,0.0684347353894652,0.0670523631740924,0.0119783925266528,0.0181840252168331,0.938209037661537,0.929917052885116,0.04,0.0566750718012841,447.386168128315,0.88198814144925,0.372712950411861
266,-0.0516822122646594,-0.0359230980885904,-0.0020860253659996,0.0139720205659568,0.0965585992481496,0.0946081288620753,0.0169010195924005,0.0256569122922439,0.908804921459301,0.901115841742013,0.04,0.0592823696451731,433.356984263094,0.833163284014035,0.382182109710298
326,-0.0667352837980551,-0.0463861363668206,-0.00269360556968877,0.0180415411191482,0.124682463106834,0.122163894550059,0.0218236466581482,0.0331297993676548,0.87940939961329,0.872314630598909,0.04,0.060146968333886,419.332600776215,0.787950243540505,0.391033990450309
386,-0.0817883553314509,-0.0568491746450509,-0.00330118577337782,0.0221110616723395,0.152806326965518,0.149719660238042,0.0267462737238959,0.0406026864430656,0.850046203336073,0.843513419455806,0.04,0.0599315015215737,405.323713687986,0.746179778058156,0.399128935854554
446,-0.096841426864847,-0.0673122129232811,-0.0039087659770671,0.0261805822255308,0.180930190824203,0.177275425926025,0.0316689007896437,0.0480755735184765,0.820727192913183,0.814712208312703,0.04,0.0590860158290087,391.336036123369,0.707614746209473,0.406356904397625
506,-0.111894498398243,-0.0777752512015113,-0.00451634618075639,0.0302501027787221,0.209054054682887,0.204831191614008,0.0365915278553914,0.0555484605938873,0.791467966944574,0.7859109971696,0.04,0.0579553116628263,377.376944227732,0.671925063127479,0.412675987316322
566,-0.126947569931639,-0.0882382894797415,-0.00512392638444544,0.0343196233319134,0.237177918541571,0.232386957301991,0.0415141549211391,0.0630213476692981,0.762256717391897,0.757109786026497,0.04,0.0567712341935768,363.440518736239,0.638778848550284,0.418058918523207
626,-0.142000641465035,-0.0987013277579717,-0.00573150658813461,0.0383891438851048,0.265301782400256,0.259942722989974,0.0464367819868868,0.070494234744709,0.733076274886452,0.728308574883394,0.04,0.0556181637309256,349.518819795235,0.60797322648165,0.422416415550217
686,-0.157053712998431,-0.109164366036202,-0.00633908679182377,0.0424586644382961,0.29342564625894,0.287498488677957,0.0513594090526345,0.0779671218201198,0.704188784846393,0.699507363740291,0.04,0.0545927222547982,335.722076332687,0.579118329306622,0.42595847740272
746,-0.172106784531827,-0.119627404314432,-0.00694666699551306,0.0465281849914874,0.321549510117624,0.31505425436594,0.0562820361183822,0.0854400088955306,0.67443472983882,0.670706152597188,0.04,0.054709329179043,321.538769840638,0.553910729546119,0.426528685657078
806,-0.187159856065222,-0.130090442592662,-0.00755424719920222,0.0505977055446787,0.349673373976309,0.342610020053924,0.0612046631841299,0.0929128959709415,0.645200793139808,0.641904941454084,0.04,0.0557688473895703,307.594201953648,0.531996702360165,0.424838513811901
866,-0.202212927598618,-0.140553480870893,-0.00816182740289139,0.0546672260978701,0.377797237834993,0.370165785741907,0.0661272902498776,0.100385783046352,0.616236050024725,0.613103730310981,0.04,0.0577869203711628,293.77651437994,0.511514379495805,0.422001410953085
926,-0.210743001467543,-0.146482535895223,-0.00850612285164863,0.0569732877446784,0.393734094021581,0.385780719631764,0.068916778920468,0.104620419055752,0.594295518766775,0.596783043996556,0.04,0.0544340545183718,283.489883967121,0.507613301909324,0.410354545319377
