time,bias_percent_1,bias_percent_2,bias_percent_3,bias_percent_4,bias_percent_5,bias_percent_6,bias_percent_8,bias_percent_9,normalized_power,power_SP,SP,CV,total_power_MW,fuel_fraction,thermal_efficiency
49,0,0,0,0,0,0,0,0,0.999799192714106,1,0.04,0.039917362807388,477.007634951043,0.999958020064482,0.350508245303429
109,0.0252398357045663,-0.0246726647415126,0.00747624496691276,0.00929435864562993,0.0255735171070978,-0.0148935543785401,0.0225693111986964,0.0287080831289001,0.996128884345906,0.996632487028953,0.04,0.042015059688643,475.217349703773,1.00144543316778,0.34867408813225
169,0.0561457569754639,-0.0548840909556094,0.0166308306406835,0.0206752059668095,0.0568880278504829,-0.0331305597400178,0.0502052024624064,0.0638608379806146,0.991863413350867,0.992509001758284,0.04,0.0442952816650336,473.185330256892,1.0050076663435,0.345952579995587
229,0.0870516782463612,-0.0850955171697063,0.0257854163144541,0.0320560532879889,0.0882025385938678,-0.0513675651014954,0.0778410937261163,0.099013592832329,0.987819027302096,0.988385516487615,0.04,0.0464613902111478,471.256701077417,1.00842148992373,0.343376146826283
289,0.117957599517259,-0.115306943383803,0.0349400019882249,0.0434369006091686,0.119517049337253,-0.069604570462973,0.105476984989826,0.134166347684043,0.983848557055703,0.984262031216945,0.04,0.0484917699325698,469.36294836769,1.01103043804039,0.341113768178216
349,0.148863520788157,-0.1455183695979,0.0440945876619955,0.054817747930348,0.150831560080638,-0.0878415758244507,0.133112876253536,0.169319102535758,0.979900726090517,0.980138545946276,0.04,0.0503387339809762,467.479230666833,1.01260799001638,0.339215467588884
409,0.179769442059054,-0.175729795811997,0.0532491733357663,0.0661985952515275,0.182146070824023,-0.106078581185928,0.160748767517246,0.204471857387472,0.975944866110874,0.976015060675607,0.04,0.0519706620339278,465.591769718685,1.01315895747287,0.337662150842866
469,0.210675363329952,-0.205941222026094,0.0624037590095371,0.077579442572707,0.213460581567408,-0.124315586547406,0.188384658780956,0.239624612239187,0.971982926878689,0.971891575404937,0.04,0.0533789455188796,463.701098026515,1.01280293946286,0.336409187002327
529,0.241581284600849,-0.236152648240191,0.0715583446833077,0.0889602898938865,0.244775092310793,-0.142552591908884,0.216020550044666,0.274777367090901,0.96796812618419,0.967768090134268,0.04,0.0545702173875601,461.785628589868,1.01161765744648,0.335412070872238
589,0.272487205871747,-0.266364074454288,0.0807129303570786,0.100341137215066,0.276089603054178,-0.160789597270361,0.243656441308376,0.309930121942615,0.963937552792751,0.963644604863599,0.04,0.0555528612193224,459.862462444522,1.00983291727708,0.334605529526431
649,0.303393127142644,-0.296575500668385,0.0898675160308492,0.111721984536246,0.307404113797563,-0.179026602631839,0.271292332572086,0.34508287679433,0.959883812379719,0.959521119592929,0.04,0.0563535979398408,457.928242292407,1.00758217804434,0.333942449301697
709,0.334299048413542,-0.326786926882482,0.0990221017046198,0.123102831857425,0.338718624540948,-0.197263607993317,0.298928223835796,0.380235631646044,0.955808782602791,0.95539763432226,0.04,0.0569962483580569,455.983890117472,1.00499863109811,0.333379357612291
769,0.365204969684439,-0.356998353096579,0.108176687378391,0.134483679178605,0.370033135284333,-0.215500613354795,0.326564115099506,0.415388386497759,0.951715915227789,0.951274149051591,0.04,0.0575042128501233,454.031055837253,1.00219661380155,0.332879695088801
829,0.396110890955337,-0.387209779310676,0.117331273052161,0.145864526499784,0.401347646027719,-0.233737618716272,0.354200006363215,0.450541141349473,0.947608773787541,0.947150663780921,0.04,0.0578996686741285,452.071437160743,0.999268988841421,0.332414021756746
889,0.427016812226234,-0.417421205524773,0.126485858725932,0.157245373820964,0.432662156771104,-0.25197462407775,0.381835897626925,0.485693896201188,0.943502252951145,0.943027178510252,0.04,0.0582015756037019,450.113743946067,0.996289971279779,0.331964154904852
949,0.432682897792566,-0.422959966997357,0.12816419943279,0.159331862496513,0.438403150407391,-0.255318075060687,0.386902477691939,0.492138567924002,0.94219142471297,0.942271206210629,0.04,0.0567029139754728,449.515783647248,0.995902270688033,0.331652212762722
1009,0.432682897792565,-0.422959966997357,0.12816419943279,0.159331862496513,0.438403150407391,-0.255318075060687,0.386902477691939,0.492138567924002,0.941819590910309,0.942271206210629,0.04,0.0553160869958663,449.340327324185,0.997981610390101,0.330832018667936
1069,0.432682897792565,-0.422959966997357,0.12816419943279,0.159331862496513,0.438403150407391,-0.255318075060687,0.386902477691939,0.492138567924002,0.941717441613904,0.942271206210629,0.04,0.0544298343507286,449.293394402595,1.00120900127591,0.329731140227926
1129,0.432682897792566,-0.422959966997357,0.12816419943279,0.159331862496513,0.438403150407391,-0.255318075060687,0.386902477691939,0.492138567924002,0.941771091455822,0.942271206210629,0.04,0.0539546020179763,449.319709169857,1.0043646269929,0.328714405277626
1189,0.432682897792566,-0.422959966997357,0.12816419943279,0.159331862496513,0.438403150407391,-0.255318075060687,0.386902477691939,0.492138567924002,0.941873082425338,0.942271206210629,0.04,0.0537514566146632,449.368489648258,1.00696990644905,0.327899534663736
1249,0.432682897792566,-0.422959966997357,0.12816419943279,0.159331862496513,0.438403150407391,-0.255318075060687,0.386902477691939,0.492138567924002,0.941973575171737,0.942271206210629,0.04,0.0536990832518438,449.416328167471,1.00895487634462,0.327289279292673
1309,0.432682897792566,-0.422959966997357,0.12816419943279,0.159331862496513,0.438403150407391,-0.255318075060687,0.386902477691939,0.492138567924002,0.94205614729268,0.942271206210629,0.04,0.0537172437700034,449.455561710738,1.01040428787424,0.326848318171184
1369,0.432682897792566,-0.422959966997357,0.12816419943279,0.159331862496513,0.438403150407391,-0.255318075060687,0.386902477691939,0.492138567924002,0.942118754304998,0.942271206210629,0.04,0.0537609195372648,449.485281646392,1.01143788555278,0.32653589939949
1429,0.432682897792565,-0.422959966997357,0.12816419943279,0.159331862496513,0.438403150407391,-0.255318075060687,0.386902477691939,0.492138567924002,0.94216430237632,0.942271206210629,0.04,0.0538080679172994,449.50689265953,1.01216513355913,0.326316969373976
1489,0.432682897792566,-0.422959966997357,0.12816419943279,0.159331862496513,0.438403150407391,-0.255318075060687,0.386902477691939,0.492138567924002,0.942196699313645,0.942271206210629,0.04,0.0538495832694941,449.522259714623,1.0126729556493,0.326164482207461
1549,0.432682897792565,-0.422959966997357,0.12816419943279,0.159331862496513,0.438403150407391,-0.255318075060687,0.386902477691939,0.492138567924002,0.942219452983079,0.942271206210629,0.04,0.053882857209267,449.533050989812,1.01302605937009,0.326058620441643
1609,0.432682897792565,-0.422959966997357,0.12816419943279,0.159331862496513,0.438403150407391,-0.255318075060687,0.386902477691939,0.492138567924002,0.942235319973756,0.942271206210629,0.04,0.0539081585366678,449.540575473956,1.01327103162702,0.325985247664664
1669,0.432682897792566,-0.422959966997357,0.12816419943279,0.159331862496513,0.438403150407391,-0.255318075060687,0.386902477691939,0.492138567924002,0.942246340274616,0.942271206210629,0.04,0.0539267854693181,449.545801278555,1.01344080780043,0.325934426014034
1729,0.432682897792566,-0.422959966997357,0.12816419943279,0.159331862496513,0.438403150407391,-0.255318075060687,0.386902477691939,0.492138567924002,0.942253976990848,0.942271206210629,0.04,0.053940214800167,449.549422508476,1.01355843856187,0.325899224172413
1789,0.432682897792565,-0.422959966997357,0.12816419943279,0.159331862496513,0.438403150407391,-0.255318075060687,0.386902477691939,0.492138567924002,0.942259262351046,0.942271206210629,0.04,0.0539497623337059,449.55192871289,1.01363996544256,0.325874828873915
1849,0.385156857165415,-0.37387275902544,0.11674259187484,0.142706879479905,0.413057318284015,-0.216558893114969,0.348843023894774,0.485753545318004,0.939449439514418,0.935822839115021,0.04,0.0549245694293258,448.161401937304,0.998740643605697,0.329713251741521
1909,0.326961705377068,-0.313765973753705,0.102756949967147,0.122349757418752,0.382021605479882,-0.169098670324294,0.302239611081918,0.477935150290251,0.931968249236191,0.927926879406113,0.04,0.0560119981520668,444.577273665951,0.974045583906472,0.335368796848739
1969,0.268766553588721,-0.253659188481969,0.0887713080594536,0.1019926353576,0.350985892675749,-0.121638447533619,0.255636198269063,0.470116755262498,0.923701005732918,0.920030919697206,0.04,0.055785664874571,440.631817944504,0.950803371449737,0.34051779895802
2029,0.210571401800374,-0.193552403210234,0.0747856661517603,0.081635513296447,0.319950179871615,-0.0741782247429436,0.209032785456207,0.462298360234746,0.915459586360654,0.912134959988298,0.04,0.0547106888415345,436.700701811502,0.929808490475252,0.345100078877321
2089,0.152376250012027,-0.133445617938499,0.0608000242440669,0.0612783912352943,0.288914467067482,-0.0267180019522685,0.162429372643352,0.454479965206993,0.907334783571358,0.90423900027939,0.04,0.0532083283908392,432.831086816292,0.910467344443643,0.349308173424139
2149,0.0941810982236801,-0.0733388326667636,0.0468143823363736,0.0409212691741416,0.257878754263349,0.0207422208384066,0.115825959830497,0.44666157017924,0.899288648110355,0.896343040570482,0.04,0.0515551849415097,428.986659528073,0.892182840732681,0.353300780530142
2209,0.0359859464353332,-0.0132320473950283,0.0328287404286802,0.020564147112989,0.226843041459215,0.068202443629082,0.0692225470176413,0.438843175151488,0.8912988564944,0.888447080861574,0.04,0.0497865185272528,425.171471589558,0.874612276073483,0.357193233925047
2269,-0.022209205353014,0.0468747378767069,0.0188430985209869,0.000207025051836126,0.195807328655082,0.115662666419757,0.0226191342047859,0.431024780123735,0.883311291834005,0.880551121152666,0.04,0.0479385144367196,421.364693946212,0.857628336087243,0.361005399760353
2329,-0.0804043571413609,0.106981523148442,0.00485745661329349,-0.0201500970093166,0.164771615850949,0.163122889210432,4.53102047233882e-07,0.423206385095982,0.87460291372495,0.872655161443758,0.04,0.0465044406399843,417.247098122512,0.842772652549495,0.363778951289535
2389,-0.138599508929708,0.167088308420177,-0.00912818529439983,-0.0405072190704693,0.133735903046815,0.210583112001108,4.75242187862169e-07,0.415387990068229,0.866346682093044,0.864759201734851,0.04,0.0452657546176803,413.315433792502,0.832132574434367,0.364958746195619
2449,-0.196794660718055,0.227195093691913,-0.0231138272020931,-0.0608643411316219,0.102700190242682,0.258043334791783,4.88305283712858e-07,0.407569595040477,0.858479022956051,0.856863242025943,0.04,0.0443579742277281,409.514928091931,0.822015928649502,0.366053177329773
2509,-0.254989812506402,0.287301878963648,-0.0370994691097866,-0.0812214631927748,0.0716644774385487,0.305503557582458,4.94475828773863e-07,0.399751200012724,0.850566827350186,0.848967282317035,0.04,0.0436152536430316,405.742807114227,0.812210049684339,0.367060073286241
