time,bias_percent_1,bias_percent_2,bias_percent_3,bias_percent_4,bias_percent_5,bias_percent_6,bias_percent_8,bias_percent_9,normalized_power,power_SP,SP,CV,total_power_MW,fuel_fraction,thermal_efficiency
53,0,0,0,0,0,0,0,0,0.999826158240441,1,0.04,0.0399095806184678,477.019946416568,1.00000717992864,0.3505000605879
113,-0.00946379737948553,0.0237458449573365,0.0218054010631985,0.00351566417709751,0.0043452651443863,0.0111433131271007,0.0079933222186873,0.0114867744786646,0.9905395568521,0.987524564457841,0.04,0.0446669886685877,472.480597337574,0.985346962987169,0.352329877325798
173,-0.020177530261922,0.0506279335882832,0.0464907607573853,0.00749566135871714,0.00926443323237049,0.0237583845917427,0.0170423662398427,0.0244906701148885,0.976600661639986,0.973401429881812,0.04,0.0492927727321616,465.822854507001,0.9653775121135,0.35455065388998
233,-0.0308912631443584,0.0775100222192301,0.0711761204515723,0.0114756585403369,0.014183601320355,0.0363734560563848,0.0260914102609981,0.0374945657511125,0.962309606285266,0.959278295305783,0.04,0.0524990616496612,459.004137763444,0.946160572056244,0.356456411331463
293,-0.0416049960267948,0.104392110850177,0.0958614801457592,0.0154556557219565,0.0191027694083394,0.048988527521027,0.0351404542821535,0.0504984613873366,0.948005125821215,0.945155160729753,0.04,0.054718882586575,452.179648412855,0.928000162744439,0.358028530289873
353,-0.0523187289092311,0.131274199481124,0.120546839839946,0.0194356529035764,0.0240219374963239,0.0616035989856691,0.0441894983033089,0.0635023570235605,0.933733571673355,0.931032026153724,0.04,0.0562879763735739,445.370908985845,0.910794168403634,0.359299225560051
413,-0.0630324617916675,0.158156288112071,0.145232199534133,0.0234156500851961,0.0289411055843083,0.0742186704503113,0.0532385423244643,0.0765062526597846,0.919485881289506,0.916908891577695,0.04,0.0574198249381904,438.573504355384,0.894381295819579,0.360308376712639
473,-0.073746194674104,0.185038376743017,0.16991755922832,0.0273956472668158,0.0338602736722926,0.0868337419149534,0.0622875863456198,0.0895101482960086,0.905257759235282,0.902785757001666,0.04,0.0582418115689271,431.785411349241,0.878636978377866,0.361088089992588
533,-0.0844599275565403,0.211920465373964,0.194602918922507,0.0313756444484357,0.038779441760277,0.0994488133795955,0.0713366303667752,0.102514043932233,0.891046429412603,0.888662622425637,0.04,0.058832885086412,425.005307277515,0.863454840782143,0.361667430771801
593,-0.0951736604389769,0.238802554004911,0.219288278616694,0.0353556416300553,0.0436986098482614,0.112063884844238,0.0803856743879306,0.115517939568457,0.876848687106395,0.874539487849608,0.04,0.0592421173733086,418.231657940517,0.848746407788115,0.362070907574006
653,-0.105887393321413,0.265684642635858,0.243973638310881,0.0393356388116751,0.0486177779362459,0.12467895630888,0.089434718409086,0.128521835204681,0.862660572846627,0.860416353273578,0.04,0.0594987919770176,411.462566742608,0.834445434994103,0.36231562545971
713,-0.11660112620385,0.292566731266805,0.268658998005068,0.0433156359932948,0.0535369460242301,0.137294027773522,0.0984837624302415,0.141525730840905,0.848477550722277,0.846293218697549,0.04,0.0596191549033296,404.695867436034,0.820511866929317,0.362408670372786
773,-0.127314859086286,0.319448819897752,0.293344357699255,0.0472956331749145,0.0584561141122147,0.149909099238164,0.107532806451397,0.154529626477129,0.833656536422156,0.83217008412152,0.04,0.060095396151873,397.616292977361,0.808788548516047,0.361230036306526
833,-0.138028591968722,0.346330908528699,0.318029717393441,0.0512756303565344,0.0633752822001991,0.162524170702806,0.116581850472552,0.167533522113353,0.818610689285793,0.818046949545491,0.04,0.0610768841533877,390.441650689181,0.803053604016317,0.35724510023029
893,-0.148742324851159,0.373212997159646,0.342715077087628,0.055255627538154,0.0682944502881835,0.175139242167449,0.125630894493708,0.180537417749577,0.804069666149605,0.803923814969462,0.04,0.0626053116536675,383.507654714381,0.800838926720986,0.351871050951872
953,-0.14999226035411,0.376349240833256,0.345595035718617,0.0557199605426763,0.0688683532317816,0.17661100050499,0.126686616296176,0.182054538907136,0.798538067619005,0.802276115935592,0.04,0.0585461103689554,380.978011462233,0.818176038245107,0.342143135190851
1013,-0.14999226035411,0.376349240833256,0.345595035718617,0.0557199605426764,0.0688683532317816,0.17661100050499,0.126686616296176,0.182054538907136,0.799090969145586,0.802276115935592,0.04,0.0552472094630868,381.254839864873,0.839186821237908,0.333819257531116
1073,-0.14999226035411,0.376349240833256,0.345595035718617,0.0557199605426763,0.0688683532317816,0.17661100050499,0.126686616296176,0.182054538907136,0.800115766505701,0.802276115935592,0.04,0.0543054994745195,381.742455112683,0.854160533252008,0.328386759187783
1133,-0.14999226035411,0.376349240833256,0.345595035718617,0.0557199605426764,0.0688683532317816,0.17661100050499,0.126686616296176,0.182054538907136,0.800870876683788,0.802276115935592,0.04,0.0544344206021188,382.100322102782,0.863988610625512,0.324955627643856
1193,-0.14999226035411,0.376349240833256,0.345595035718617,0.0557199605426763,0.0688683532317816,0.17661100050499,0.126686616296176,0.182054538907136,0.801362610596713,0.802276115935592,0.04,0.0548687841116331,382.333184250792,0.870367798466683,0.322770515111852
1253,-0.14999226035411,0.376349240833256,0.345595035718617,0.0557199605426763,0.0688683532317816,0.17661100050499,0.126686616296176,0.182054538907136,0.801675636094271,0.802276115935592,0.04,0.0553037859991553,382.481409662591,0.874541990717137,0.321354466720126
1313,-0.14999226035411,0.376349240833256,0.345595035718617,0.0557199605426764,0.0688683532317817,0.17661100050499,0.126686616296176,0.182054538907136,0.801876169419825,0.802276115935592,0.04,0.0556511685556273,382.576389416394,0.877309065737417,0.320420447966723
1373,-0.14999226035411,0.376349240833256,0.345595035718617,0.0557199605426764,0.0688683532317817,0.17661100050499,0.126686616296176,0.182054538907136,0.802006814884987,0.802276115935592,0.04,0.0559048211166569,382.638286296919,0.879165416306895,0.319795614052017
1433,-0.14999226035411,0.376349240833256,0.345595035718617,0.0557199605426763,0.0688683532317816,0.17661100050499,0.126686616296176,0.182054538907136,0.8020934265815,0.802276115935592,0.04,0.0560826466325443,382.679331776705,0.880421698659341,0.319373549973736
1493,-0.14999226035411,0.376349240833256,0.345595035718617,0.0557199605426764,0.0688683532317816,0.17661100050499,0.126686616296176,0.182054538907136,0.802151618784298,0.802276115935592,0.04,0.0562050415411051,382.706914248044,0.881276589486934,0.319086735826101
1553,-0.14999226035411,0.376349240833256,0.345595035718617,0.0557199605426764,0.0688683532317816,0.17661100050499,0.126686616296176,0.182054538907136,0.802191049287121,0.802276115935592,0.04,0.0562886468775376,382.725605747784,0.881860227667044,0.318891129833199
1613,-0.14999226035411,0.376349240833256,0.345595035718617,0.0557199605426763,0.0688683532317816,0.17661100050499,0.126686616296176,0.182054538907136,0.802217890627891,0.802276115935592,0.04,0.05634560534217,382.73833024164,0.882259476411224,0.318757419468239
1673,-0.14999226035411,0.376349240833256,0.345595035718617,0.0557199605426763,0.0688683532317816,0.17661100050499,0.126686616296176,0.182054538907136,0.802236202663058,0.802276115935592,0.04,0.0563843844432888,382.747011514041,0.882533009853839,0.318665851190341
1733,-0.14999226035411,0.376349240833256,0.345595035718617,0.0557199605426763,0.0688683532317816,0.17661100050499,0.126686616296176,0.182054538907136,0.802248707471514,0.802276115935592,0.04,0.0564107829789358,382.752939763133,0.882720718351383,0.31860302230833
1793,-0.14999226035411,0.376349240833256,0.345595035718617,0.0557199605426764,0.0688683532317817,0.17661100050499,0.126686616296176,0.182054538907136,0.802257249625561,0.802276115935592,0.04,0.0564287489770048,382.756989425671,0.882849804627786,0.318559808066541
1853,-0.12424024960783,0.340612400946293,0.333115590694648,0.029907596391825,0.0598501782883955,0.177052321163127,0.0965679922067913,0.153846851960376,0.805708874958343,0.804651511950494,0.04,0.0532125905396777,384.432945955845,0.879320728775683,0.321238777722152
1913,-0.0950870298950613,0.30015560107426,0.318987917082607,0.000686052070106371,0.0496409236355054,0.177551929455358,0.0624714366339032,0.12191362145461,0.809019366840941,0.807340639514535,0.04,0.0500514220642807,386.006309325352,0.870286819887282,0.325901735540112
1973,-0.065933810182292,0.259698801202226,0.304860243470567,-0.0285354922516121,0.0394316689826154,0.178051537747589,0.028374881061015,0.0899803909488434,0.812049136077172,0.810029767078575,0.04,0.0466618315932809,387.434293437587,0.858843814290838,0.331465661211718
