time,bias_percent_1,bias_percent_2,bias_percent_3,bias_percent_4,bias_percent_5,bias_percent_6,bias_percent_8,bias_percent_9,normalized_power,power_SP,SP,CV,total_power_MW,fuel_fraction,thermal_efficiency
33,0,0,0,0,0,0,0,0,0.999636165810251,1,0.04,0.039974824303135,476.933619100827,0.999679123868012,0.350551629606346
93,0.00232393011538102,-0.0126465693452325,-0.00780843159716301,0.0195783070443397,0.00198510241262875,0.0176811964829724,-0.00680618482068621,-0.0151458565970256,0.998411568613893,0.996664325012693,0.04,0.0406774087863191,476.306529258783,0.994739993630432,0.351828998466195
153,0.00654925759789194,-0.0356403317911102,-0.0220055799556415,0.0551752289431389,0.0055943795264991,0.049828826452013,-0.019181066312843,-0.0426837776825267,0.992870273071192,0.990599461399408,0.04,0.0421091844577684,473.649897932038,0.981115738459577,0.354725069018271
213,0.0107745850804027,-0.0586340942369875,-0.0362027283141198,0.0907721508419382,0.00920365664036944,0.0819764564210536,-0.0315559478049996,-0.0702216987680279,0.986640663193128,0.984534597786123,0.04,0.0426195398238592,470.676193165629,0.967745487028218,0.35736807582391
273,0.0149999125629137,-0.0816278566828649,-0.050399876672598,0.126369072740738,0.01281293375424,0.114124086390094,-0.0439308292971564,-0.097759619853529,0.980330897688542,0.978469734172838,0.04,0.0424685897903091,467.665657981989,0.955764615644132,0.359533371940856
333,0.0192252400454246,-0.104621619128743,-0.0645970250310763,0.161965994639537,0.0164222108681104,0.146271716359135,-0.0563057107893131,-0.12529754093903,0.97401977466721,0.972404870559553,0.04,0.0419747463060374,464.654700750079,0.945272033752858,0.361183749439649
393,0.0234505675279354,-0.12761538157462,-0.0787941733895547,0.197562916538336,0.0200314879819807,0.178419346328176,-0.0686805922814699,-0.152835462024531,0.967724545045765,0.966340006946269,0.04,0.0413447256322386,461.651414485112,0.936199921374463,0.36232662322701
453,0.0276758950104463,-0.150609144020498,-0.092991321748033,0.233159838437136,0.0236407650958511,0.210566976297216,-0.0810554737736266,-0.180373383110032,0.961454215329975,0.960275143332984,0.04,0.0407023771766791,458.660061481399,0.928415010435008,0.362997344337408
513,0.0319012224929572,-0.173602906466375,-0.107188470106511,0.268756760335935,0.0272500422097215,0.242714606266257,-0.0934303552657834,-0.207911304195534,0.955213105642023,0.954210279719699,0.04,0.0401169620904494,455.682667144748,0.921748457923382,0.363249283352107
573,0.0361265499754682,-0.196596668912252,-0.12138561846499,0.304353682234734,0.0308593193235919,0.274862236235298,-0.10580523675794,-0.235449225281035,0.949002693274763,0.948145416106414,0.04,0.0396208373742302,452.719886956269,0.916024647311389,0.363142508672524
633,0.040351877457979,-0.21959043135813,-0.135582766823468,0.339950604133534,0.0344685964374623,0.307009866204338,-0.118180118250097,-0.262987146366536,0.942817373136672,0.942080552493129,0.04,0.0392214754992235,449.769098426905,0.91106793067831,0.362738397586805
693,0.0445772049404899,-0.242584193804007,-0.149779915181946,0.375547526032333,0.0380778735513328,0.339157496173379,-0.130554999742254,-0.290525067452037,0.936658353144859,0.936015688879844,0.04,0.0389133619150234,446.830821099776,0.906727856879758,0.362093592401943
753,0.0488025324230008,-0.265577956249885,-0.163977063540425,0.411144447931132,0.0416871506652031,0.37130512614242,-0.14292988123441,-0.318062988537538,0.930522249177804,0.929950825266559,0.04,0.03868580985016,443.903456361546,0.902860760548678,0.361262118529723
813,0.0530278599055116,-0.288571718695762,-0.178174211898903,0.446741369829931,0.0452964277790736,0.40345275611146,-0.155304762726567,-0.345600909623039,0.924405994266853,0.923885961653274,0.04,0.0385255183811832,440.98553720554,0.899341073005352,0.360291979613013
873,0.0572531873880226,-0.31156548114164,-0.192371360257381,0.482338291728731,0.0489057048929441,0.435600386080501,-0.167679644218724,-0.37313883070854,0.918306171655122,0.917821098039989,0.04,0.0384187326882483,438.075427556743,0.896063044608754,0.359223717749499
933,0.0591545847551524,-0.321912674242285,-0.198760077018696,0.49835690658319,0.0505298795941856,0.450066819566569,-0.173248340890194,-0.385530895197016,0.913752339165704,0.915091909414011,0.04,0.0375822198635856,435.939245797853,0.898505074880482,0.356500472978706
993,0.0591545847551524,-0.321912674242285,-0.198760077018696,0.49835690658319,0.0505298795941857,0.450066819566569,-0.173248340890194,-0.385530895197016,0.913241326694516,0.915091909414011,0.04,0.0362212007139262,435.707500761558,0.909274245205616,0.352090917870105
1053,0.0591545847551524,-0.321912674242285,-0.198760077018696,0.49835690658319,0.0505298795941857,0.450066819566569,-0.173248340890194,-0.385530895197016,0.913387793673903,0.915091909414011,0.04,0.0358069734673843,435.779168483394,0.919907470687865,0.348078337746225
1113,0.0591545847551524,-0.321912674242285,-0.198760077018696,0.49835690658319,0.0505298795941856,0.450066819566569,-0.173248340890194,-0.385530895197016,0.913654838693749,0.915091909414011,0.04,0.0360465597830065,435.907030113813,0.929105683647421,0.344733455526195
1173,0.0591545847551524,-0.321912674242285,-0.198760077018696,0.49835690658319,0.0505298795941857,0.450066819566569,-0.173248340890194,-0.385530895197016,0.913950489770238,0.915091909414011,0.04,0.0366209311640841,436.048124499428,0.936562758927221,0.342099322782982
1233,0.0591545847551524,-0.321912674242285,-0.198760077018696,0.49835690658319,0.0505298795941857,0.450066819566569,-0.173248340890194,-0.385530895197016,0.914235173856521,0.915091909414011,0.04,0.0373191211678302,436.183750977037,0.942274374692773,0.340131440688171
1293,0.0591545847551524,-0.321912674242285,-0.198760077018696,0.49835690658319,0.0505298795941856,0.450066819566569,-0.173248340890194,-0.385530895197016,0.914486256765833,0.915091909414011,0.04,0.0380133281522716,436.303218076151,0.946402614974265,0.338740528623627
1353,0.0591545847551525,-0.321912674242285,-0.198760077018696,0.49835690658319,0.0505298795941857,0.450066819566569,-0.173248340890194,-0.385530895197016,0.914693144655249,0.915091909414011,0.04,0.0386328762378302,436.401555929838,0.949196110937783,0.337819734656862
1413,0.0591545847551525,-0.321912674242285,-0.198760077018696,0.49835690658319,0.0505298795941857,0.450066819566569,-0.173248340890194,-0.385530895197016,0.914853874956129,0.915091909414011,0.04,0.0391453527839429,436.477882847195,0.950931238335738,0.337262305154352
1473,0.0591545847551524,-0.321912674242285,-0.198760077018696,0.49835690658319,0.0505298795941856,0.450066819566569,-0.173248340890194,-0.385530895197016,0.914971881537083,0.915091909414011,0.04,0.0395429721301352,436.533865870588,0.951873357707803,0.33697171356039
1533,0.0591545847551524,-0.321912674242285,-0.198760077018696,0.49835690658319,0.0505298795941857,0.450066819566569,-0.173248340890194,-0.385530895197016,0.915053385380817,0.915091909414011,0.04,0.0398327174986239,436.57249015367,0.95225511157171,0.336866426568556
1593,0.0591545847551524,-0.321912674242285,-0.198760077018696,0.498356906583191,0.0505298795941856,0.450066819566569,-0.173248340890194,-0.385530895197016,0.915105482762069,0.915091909414011,0.04,0.0400293493868772,436.59716949754,0.952267192735609,0.336881195573743
1653,0.0591545847551525,-0.321912674242285,-0.198760077018696,0.49835690658319,0.0505298795941857,0.450066819566569,-0.173248340890194,-0.385530895197016,0.915135527810157,0.915091909414011,0.04,0.0401507607678955,436.611326139571,0.952057358257827,0.336966370319775
1713,0.0591545847551524,-0.321912674242285,-0.198760077018696,0.49835690658319,0.0505298795941856,0.450066819566569,-0.173248340890194,-0.385530895197016,0.915149462746605,0.915091909414011,0.04,0.0402148160372417,436.617869518922,0.951733996573219,0.337085909947979
1773,0.0591545847551524,-0.321912674242285,-0.198760077018696,0.49835690658319,0.0505298795941857,0.450066819566569,-0.173248340890194,-0.385530895197016,0.915152570891621,0.915091909414011,0.04,0.0402377318650027,436.619284358699,0.951372109142691,0.337215225010154
1833,0.0707194335850238,-0.301372456108154,-0.194186183212063,0.479482580150344,0.0358178824803376,0.436233931556726,-0.149191622591786,-0.383773962173164,0.910639634052998,0.907757905898021,0.04,0.0423170177909437,434.377446396543,0.941804068688544,0.33889205071337
1893,0.0917464314575175,-0.26402660495519,-0.185870012654547,0.445165622999715,0.00906879681879593,0.411083226084284,-0.1054521347765,-0.380579538493435,0.89822564124698,0.894423354050767,0.04,0.0462130911099718,428.439602284011,0.919318267936575,0.342435194336334
1953,0.112773429330011,-0.226680753802226,-0.177553842097032,0.410848665849086,-0.0176802888427459,0.385932520611842,-0.0617126469612126,-0.377385114813705,0.885000510336162,0.881088802203513,0.04,0.0490524080892414,422.12765466799,0.89527227919167,0.346452216137948
2013,0.133800427202504,-0.189334902649261,-0.169237671539516,0.376531708698457,-0.0444293745042877,0.3607818151394,-0.0179731591459258,-0.374190691133975,0.871575157015182,0.867754250356259,0.04,0.0509592986484713,415.721195713971,0.87141600148241,0.350534940224981
2073,0.154827425074998,-0.151989051496297,-0.160921500982001,0.342214751547827,-0.0711784601658294,0.335631109666958,0.0257663286693611,-0.370996267454246,0.858048991623484,0.854419698509005,0.04,0.0520673533673415,409.273619831107,0.848604115150398,0.354375178869754
2133,0.175854422947491,-0.114643200343332,-0.152605330424485,0.307897794397198,-0.0979275458273711,0.310480404194516,0.069505816484648,-0.367801843774516,0.844494729343101,0.841085146661751,0.04,0.0526755476371061,402.800666840492,0.827003899250458,0.357879893906359
2193,0.196881420819985,-0.0772973491903679,-0.14428915986697,0.273580837246569,-0.124676631488913,0.285329698722074,0.113245304299935,-0.364607420094786,0.831091012618255,0.827750594814497,0.04,0.0529457167725648,396.408058931897,0.806326448251226,0.361232025295164
2253,0.217908418692479,-0.0399514980374036,-0.135972989309454,0.23926388009594,-0.151425717150455,0.260178993249632,0.156984792115222,-0.332033553877558,0.817216379108501,0.814416042967243,0.04,0.0537186489882055,389.786989908851,0.788220744625517,0.363357521985373
2313,0.238935416564972,-0.00260564688443912,-0.127656818751939,0.20494692294531,-0.178174802811996,0.23502828777719,0.200724279930509,-0.297546043020002,0.803883325383791,0.801081491119989,0.04,0.0545493648019774,383.427208028446,0.770831179020664,0.365492383029023
2373,0.259962414437466,0.0347402042685253,-0.119340648194423,0.170629965794681,-0.204923888473538,0.209877582304748,0.244463767745796,-0.260976176202532,0.790626274705537,0.787746939272735,0.04,0.0555705540045923,377.102423556342,0.75305637448684,0.367948054286938
2433,0.280989412309959,0.0720860554214897,-0.111024477636908,0.136313008644052,-0.23167297413508,0.184726876832306,0.288203255561082,-0.222001494444974,0.777371920775561,0.774412387425482,0.04,0.0566441119002486,370.77871477938,0.734793134855196,0.37076982413074
2493,0.302016410182453,0.109431906574454,-0.102708307079392,0.101996051493423,-0.258422059796622,0.159576171359864,0.331942743376369,-0.180440904092253,0.76410791245338,0.761077835578228,0.04,0.0576337806981512,364.450371297784,0.716085404783237,0.373962669464318
2553,0.323043408054946,0.146777757727418,-0.0943921365218769,0.0676790943427934,-0.285171145458163,0.134425465887422,0.375682231191656,-0.136364488838865,0.750834225576619,0.747743283730974,0.04,0.0584097526221671,358.117416342291,0.696992928054044,0.377530242707286
2613,0.34407040592744,0.184123608880383,-0.0860759659643613,0.0333621371921641,-0.311920231119705,0.10927476041498,0.419421719006943,-0.0901377791616851,0.737542612222123,0.73440873188372,0.04,0.0588508985949122,351.77573547398,0.677595482237889,0.381460922096286
2673,0.365097403799933,0.221469460033347,-0.0777597954068459,-0.000954819958465009,-0.338669316781247,0.0841240549425377,0.46316120682223,-0.0456847547311053,0.724115028394278,0.721074180036466,0.04,0.0590013581842499,345.365261731894,0.658300296162053,0.385486592960916
2733,0.374559552842555,0.238275093052181,-0.0740175186559638,-0.0163974506762481,-0.350706405328941,0.0728062374799389,0.482843976339109,-0.0215795839010951,0.710429941246723,0.707739628189212,0.04,0.0591170673317471,338.838174859655,0.641084757306764,0.388357376855577
2793,0.374559552842555,0.238275093052181,-0.0740175186559638,-0.0163974506762481,-0.350706405328941,0.0728062374799389,0.482843976339109,-0.0101931614767239,0.696766642970041,0.694405076341958,0.04,0.0591642797316797,332.318820461207,0.625548950803027,0.390344724239066
2853,0.374559552842555,0.238275093052181,-0.0740175186559638,-0.0163974506762481,-0.350706405328941,0.0728062374799389,0.482843976339109,-0.00481462188606925,0.68318158194193,0.681070524494704,0.04,0.0593283419229496,325.838429722404,0.611768998920477,0.391353763715269
2913,0.374559552842555,0.238275093052181,-0.0740175186559638,-0.0163974506762481,-0.350706405328941,0.0728062374799389,0.482843976339109,-0.00227399173486206,0.669709518957013,0.66773597264745,0.04,0.0596650109812214,319.411606059326,0.599023237199389,0.391797534729076
2973,0.374559552842555,0.238275093052181,-0.0740175186559638,-0.0163974506762482,-0.350706405328941,0.0728062374799389,0.482843976339109,-0.00107388872240202,0.656303226738005,0.654401420800196,0.04,0.0601770415214681,313.015831418754,0.586821574073248,0.391935775935307
3033,0.374559552842555,0.238275093052181,-0.0740175186559639,-0.0163974506762482,-0.350706405328941,0.0728062374799388,0.482843976339109,-0.00050700288923762,0.642930035302434,0.641066868952942,0.04,0.0608290744229377,306.635659402061,0.574907777105348,0.391903508281336
3093,0.374559552842555,0.238275093052181,-0.0740175186559638,-0.0163974506762482,-0.350706405328941,0.0728062374799389,0.482843976339109,-0.000239226252906544,0.629572601718743,0.627732317105688,0.04,0.0615822757913755,300.262910814906,0.56315759704286,0.391765708772138
3153,0.374559552842555,0.238275093052181,-0.0740175186559638,-0.0163974506762481,-0.350706405328941,0.0728062374799389,0.482843976339109,-0.000112738126423616,0.616222287278057,0.614397765258434,0.04,0.0624068665039011,293.893511311655,0.551513686851527,0.391551037624563
3213,0.374559552842555,0.238275093052181,-0.0740175186559638,-0.0163974506762482,-0.350706405328941,0.0728062374799389,0.482843976339109,-5.29896496338439e-05,0.602874969066564,0.60106321341118,0.04,0.0632833658125516,287.525520050692,0.539951137785797,0.391270056683504
3273,0.374559552842555,0.238275093052181,-0.0740175186559638,-0.0163974506762482,-0.350706405328941,0.0728062374799389,0.482843976339109,-2.47666015265349e-05,0.589528769166201,0.587728661563926,0.04,0.0642004256664122,281.158054597788,0.528460162282428,0.390924556513984
3333,0.374559552842555,0.238275093052181,-0.0740175186559638,-0.0163974506762482,-0.350706405328941,0.0728062374799389,0.482843976339109,-1.14350408363121e-05,0.576182853254131,0.574394109716672,0.04,0.0651522302785124,274.790718215164,0.517037694102032,0.390512130941845
3393,0.374559552842555,0.238275093052181,-0.0740175186559638,-0.0163974506762482,-0.350706405328941,0.0728062374799389,0.482843976339109,-5.13768734844958e-06,0.562836881991268,0.561059557869418,0.04,0.0661364741890516,268.423352572858,0.50568351373535,0.390028351666694
3453,0.374559552842555,0.238275093052181,-0.0740175186559638,-0.0163974506762482,-0.350706405328941,0.0728062374799389,0.482843976339109,-2.16304230331387e-06,0.549490703613389,0.547725006022164,0.04,0.0671530001691533,262.055889661428,0.494398630658371,0.389467606789311
3513,0.374559552842555,0.238275093052181,-0.0740175186559638,-0.0163974506762482,-0.350706405328941,0.0728062374799388,0.482843976339109,-7.57926144341566e-07,0.536144195983586,0.53439045417491,0.04,0.0682029050546533,255.688268343645,0.48318476436393,0.38882326824159
3573,0.374559552842555,0.238275093052181,-0.0740175186559638,-0.0163974506762482,-0.350706405328941,0.0728062374799389,0.482843976339109,-9.41994172037929e-08,0.522797261045353,0.521055902327657,0.04,0.0692879093891267,249.320440819667,0.472044247955216,0.388087676705979
3633,0.363259768956421,0.240033179878356,-0.057768272420697,-0.000728273143548392,-0.355552323516575,0.0531880589698026,0.476580614051642,2.19321401344969e-07,0.51316229006693,0.515055353996392,0.04,0.0663329153623886,244.810645684147,0.472653928061273,0.380576268947021
3693,0.342714707345269,0.243229701380491,-0.0282241883565755,0.0277611405522695,-0.364363083857729,0.0175186434968275,0.465192682619885,3.6741744696809e-07,0.512850171468219,0.515055353996392,0.04,0.0598487946334167,244.68572983242,0.486629479631566,0.369457854200398
3753,0.322169645734116,0.246426222882627,0.0013198957075461,0.0562505542480873,-0.373173844198882,-0.0181507719761475,0.453804751188127,4.37372732029436e-07,0.513548408116911,0.515055353996392,0.04,0.0566630467135836,245.019303692856,0.497119811063553,0.362154517349667
3813,0.301624584122964,0.249622744384762,0.0308639797716676,0.0847399679439052,-0.381984604540036,-0.0538201874491225,0.442416819756369,4.70417110411699e-07,0.514134274969351,0.515055353996392,0.04,0.0553355706680682,245.297364209057,0.503753134168999,0.357791316965612
3873,0.281079522511811,0.252819265886898,0.0604080638357891,0.113229381639723,-0.39079536488119,-0.0894896029220976,0.431028888324611,4.71612015766089e-07,0.514536241442174,0.515055353996392,0.04,0.0546991378398965,245.487748366192,0.507602949406215,0.355353307399286
3933,0.260534460900659,0.256015787389033,0.0899521478999106,0.141718795335541,-0.399606125222343,-0.125159018395073,0.419640956892853,4.86590529369902e-07,0.514781960825368,0.515055353996392,0.04,0.054192033552276,245.60390134164,0.509678614254208,0.354073583298444
3993,0.239989399289506,0.259212308891169,0.119496231964032,0.170208209031359,-0.408416885563497,-0.160828433868048,0.408253025461096,0.0268285149836078,0.514027300591056,0.515055353996392,0.04,0.0547046142286428,245.231855612581,0.512741098107299,0.351425629527772
4053,0.219444337678354,0.262408830393304,0.149040316028154,0.198697622727177,-0.41722764590465,-0.196497849341023,0.396865094029338,0.082468676049971,0.513603743102966,0.515055353996392,0.04,0.0553920313289248,245.04135275062,0.521309486222058,0.345380989809524
4113,0.198899276067202,0.26560535189544,0.178584400092275,0.227187036422994,-0.426038406245804,-0.232167264813998,0.38547716259758,0.138108837116334,0.513841555711325,0.515055353996392,0.04,0.0567772869203824,245.155886873314,0.529141683834518,0.34042780737319
4173,0.178354214456049,0.268801873397575,0.208128484156397,0.255676450118812,-0.434849166586958,-0.267836680286973,0.374089231165822,0.193748998182697,0.514054830830348,0.515055353996392,0.04,0.0586790637793948,245.256804586265,0.535528006997275,0.336506574310767
4233,0.157809152844896,0.271998394899711,0.237672568220518,0.28416586381463,-0.443659926928111,-0.303506095759948,0.362701299734065,0.24938915924906,0.514163893531774,0.515055353996392,0.04,0.0606803848266688,245.308134813562,0.541055784299812,0.333138313103186
4293,0.137264091233744,0.275194916401846,0.26721665228464,0.312655277510448,-0.452470687269265,-0.339175511232923,0.351313368302307,0.305029320315423,0.514207531195769,0.515055353996392,0.04,0.062601503292939,245.328610377909,0.546210598507261,0.330021893958761
4353,0.116719029622591,0.278391437903982,0.296760736348761,0.341144691206266,-0.461281447610418,-0.374844926705898,0.339925436870549,0.360669481381786,0.514222996299887,0.515055353996392,0.04,0.0644112562362888,245.335860831757,0.551228463102408,0.327027350258925
4413,0.0961739680114389,0.281587959406117,0.326304820412883,0.369634104902083,-0.470092207951572,-0.410514342178873,0.328537505438791,0.41630964244815,0.514228523684312,0.515055353996392,0.04,0.0661265893725645,245.338453938559,0.556198041492372,0.32410881660672
4473,0.0756289064002864,0.284784480908253,0.355848904477004,0.398123518597901,-0.478902968292726,-0.446183757651848,0.317149574007033,0.471949803514513,0.514230322878982,0.515055353996392,0.04,0.0677678846317575,245.33929134183,0.561150649206971,0.321249391024047
4533,0.0663836286752678,0.286222915584214,0.369143742305859,0.410943754761019,-0.482867810446245,-0.462234994614687,0.312025004862742,0.496987875994376,0.514832879190005,0.515055353996392,0.04,0.0686072898613802,245.633432195161,0.564573821302463,0.319684379646441
4593,0.0663836286752678,0.286222915584214,0.369143742305859,0.410943754761019,-0.482867810446245,-0.462234994614687,0.312025004862742,0.496987875994376,0.515181905858883,0.515055353996392,0.04,0.069389714564092,245.793493183461,0.564127055090854,0.320146036416996
4653,0.0663836286752678,0.286222915584214,0.369143742305859,0.410943754761019,-0.482867810446245,-0.462234994614687,0.312025004862742,0.496987875994376,0.515120872606243,0.515055353996392,0.04,0.0698162848546496,245.763449506843,0.563553675442792,0.320432592730519
4713,0.0663836286752678,0.286222915584214,0.369143742305859,0.410943754761019,-0.482867810446245,-0.462234994614687,0.312025004862742,0.496987875994376,0.51505289934931,0.515055353996392,0.04,0.0699267144333407,245.731419593838,0.563455372152403,0.320446728335145
4773,0.0663836286752678,0.286222915584214,0.369143742305859,0.410943754761019,-0.482867810446245,-0.462234994614687,0.312025004862742,0.496987875994376,0.515033971783654,0.515055353996392,0.04,0.0699315337125785,245.722685832084,0.563563654787473,0.320373770879333
4833,0.0663836286752678,0.286222915584214,0.369143742305859,0.410943754761019,-0.482867810446245,-0.462234994614687,0.312025004862742,0.496987875994376,0.515037496410148,0.515055353996392,0.04,0.0699257628260584,245.724443658992,0.563682732497406,0.320308383446544
4893,0.0663836286752678,0.286222915584214,0.369143742305859,0.410943754761019,-0.482867810446245,-0.462234994614687,0.312025004862742,0.496987875994376,0.515044005419556,0.515055353996392,0.04,0.0699269769746822,245.72753868689,0.563763451430171,0.320266555974246
4953,0.0663836286752679,0.286222915584214,0.369143742305859,0.410943754761019,-0.482867810446245,-0.462234994614687,0.312025004862742,0.496987875994376,0.515048214570995,0.515055353996392,0.04,0.0699314161124189,245.729527150312,0.563813659998953,0.320240627104116
5013,0.0663836286752678,0.286222915584214,0.369143742305859,0.410943754761019,-0.482867810446245,-0.462234994614687,0.312025004862742,0.496987875994376,0.515050453145901,0.515055353996392,0.04,0.0699354211239587,245.730584068069,0.56384695561212,0.320223093958549
5073,0.0663836286752678,0.286222915584214,0.369143742305859,0.410943754761019,-0.482867810446245,-0.462234994614687,0.312025004862742,0.496987875994376,0.515051730198584,0.515055353996392,0.04,0.0699380858573096,245.731188502918,0.563871014046997,0.320210218775496
5133,0.0663836286752678,0.286222915584214,0.369143742305859,0.410943754761019,-0.482867810446245,-0.462234994614687,0.312025004862742,0.496987875994376,0.51505258001897,0.515055353996392,0.04,0.0699396883861978,245.73159159394,0.56388925257502,0.320200387090267
5193,0.0663836286752678,0.286222915584214,0.369143742305859,0.410943754761019,-0.482867810446245,-0.462234994614687,0.312025004862742,0.496987875994376,0.515053191588155,0.515055353996392,0.04,0.0699406301810542,245.73188182034,0.563903383190789,0.320192741494382
5253,0.0663836286752678,0.286222915584214,0.369143742305859,0.410943754761019,-0.482867810446245,-0.462234994614687,0.312025004862742,0.496987875994376,0.515053632902917,0.515055353996392,0.04,0.0699411670475617,245.732091198304,0.56391454059248,0.32018667909842
5313,0.0663836286752678,0.286222915584214,0.369143742305859,0.410943754761019,-0.482867810446245,-0.462234994614687,0.312025004862742,0.496987875994376,0.515053945828999,0.515055353996392,0.04,0.069941438185458,245.732239623971,0.563923576239049,0.320181742198741
5373,0.0663836286752678,0.286222915584214,0.369143742305859,0.410943754761019,-0.482867810446245,-0.462234994614687,0.312025004862742,0.496987875994376,0.515054165377023,0.515055353996392,0.04,0.0699415253323757,245.732343750064,0.563931119041002,0.320177595312556
5433,0.0569005070173389,0.284177893263158,0.36968446035636,0.383136113073623,-0.470609746778012,-0.429087200292241,0.31232107134048,0.471674835155871,0.515416927422592,0.515055353996392,0.04,0.0694599370345353,245.909415615445,0.563037806162368,0.32091666973349
5493,0.0396584676392864,0.280459670861239,0.370667584084544,0.332576764551085,-0.448322358290316,-0.36881848334234,0.312859374027277,0.425651124540407,0.515560708802226,0.515055353996392,0.04,0.0686482886945808,245.973391338278,0.560012486495958,0.322734277968144
5553,0.0224164282612339,0.27674144845932,0.371650707812727,0.282017416028546,-0.426034969802621,-0.308549766392439,0.313397676714074,0.379627413924943,0.51544298682926,0.515055353996392,0.04,0.0674913369747591,245.91692632482,0.557429148936492,0.324155521321005
5613,0.00517438888318134,0.273023226057401,0.372633831540911,0.231458067506007,-0.403747581314925,-0.248281049442538,0.31393597940087,0.333603703309479,0.515358538488239,0.515055353996392,0.04,0.0660739865204282,245.877144316828,0.555469699609315,0.32524637375299
5673,-0.0120676504948711,0.269305003655481,0.373616955269094,0.180898718983469,-0.381460192827229,-0.188012332492636,0.314474282087667,0.287579992694015,0.515328272826648,0.515055353996392,0.04,0.0645678294353138,245.86301290034,0.553789575339843,0.326214378444904
5733,-0.0293096898729237,0.265586781253562,0.374600078997278,0.13033937046093,-0.359172804339534,-0.127743615542735,0.315012584774463,0.241556282078551,0.515322898018807,0.515055353996392,0.04,0.0630381021300523,245.860555292277,0.552179943245005,0.327162039346955
5793,-0.0465517292509763,0.261868558851643,0.375583202725461,0.0797800219383916,-0.336885415851838,-0.0674748985928342,0.31555088746126,0.195532571463087,0.515324834402985,0.515055353996392,0.04,0.06148894944816,245.861499617987,0.550568351279527,0.328120949498991
5853,-0.0637937686290287,0.258150336449724,0.376566326453645,0.0292206734158532,-0.314598027364142,-0.00720618164293279,0.316089190148056,0.149508860847623,0.515326405883917,0.515055353996392,0.04,0.0599079888291228,245.862222436339,0.548943645969888,0.329093054672263
5913,-0.0810358080070812,0.254432114047805,0.377549450181828,-0.0213386751066854,-0.292310638876447,0.0530625353069682,0.316627492834853,0.103485150232159,0.51532202784761,0.515055353996392,0.04,0.058279841267795,245.860067965629,0.547330367268053,0.330060177630084
5973,-0.0982778473851337,0.250713891645886,0.378532573910012,-0.0718980236292239,-0.270023250388751,0.113331252256869,0.317165795521649,0.0574614396166955,0.51530755765098,0.515055353996392,0.04,0.0565888501354393,245.853077377841,0.545781928262035,0.330987180732293
6033,-0.115519886763186,0.246995669243966,0.379515697638195,-0.122457372151763,-0.247735861901055,0.173599969206771,0.317704098208446,0.0114377290012316,0.515282571115781,0.515055353996392,0.04,0.0548232177777943,245.841082301309,0.544362696660168,0.331833920931412
6093,-0.132761926141239,0.243277446842047,0.380498821366379,-0.173016720674301,-0.22544847341336,0.233868686156672,0.318242400895242,4.99999999999975e-07,0.514358819372965,0.515055353996392,0.04,0.0541604053395343,245.395983032764,0.546166758894287,0.330139022671339
6153,-0.150003965519291,0.239559224440128,0.381481945094562,-0.22357606919684,-0.203161084925664,0.294137403106573,0.318780703582039,5.00000000000044e-07,0.514167979302815,0.515055353996392,0.04,0.0535498224374286,245.309685074015,0.551386732878495,0.326898598790741
6213,-0.167246004897344,0.235841002038209,0.382465068822746,-0.274135417719378,-0.180873696437968,0.354406120056474,0.319319006268835,5.00000000000021e-07,0.514229094212081,0.515055353996392,0.04,0.0534801190651969,245.339318766567,0.556497289232169,0.323935674026807
6273,-0.184488044275396,0.23212277963629,0.383448192550929,-0.324694766241917,-0.158586307950273,0.414674837006375,0.319857308955632,5.0000000000001e-07,0.514301957441585,0.515055353996392,0.04,0.0537563375785613,245.373980911721,0.561160348833034,0.321289260283678
6333,-0.19224696199552,0.230449579555426,0.383890598228612,-0.347446473077059,-0.14855698313081,0.441795759633831,0.32009954516469,5.00000000000005e-07,0.512531167547547,0.510523807191755,0.04,0.0560087197564629,244.480262953689,0.556996370009265,0.322512175978017
6393,-0.19224696199552,0.230449579555426,0.383890598228612,-0.347446473077059,-0.14855698313081,0.441795759633831,0.32009954516469,5.00000000000002e-07,0.504963891617922,0.502284631183323,0.04,0.0607393179147319,240.851643227287,0.540800895706398,0.327240379551219
6453,-0.19224696199552,0.230449579555426,0.383890598228612,-0.347446473077059,-0.14855698313081,0.441795759633831,0.32009954516469,5.00000000000001e-07,0.496383022579547,0.494045455174891,0.04,0.0635051130274535,236.755384315958,0.525523306325431,0.33102634559587
6513,-0.19224696199552,0.230449579555426,0.383890598228612,-0.347446473077059,-0.14855698313081,0.441795759633831,0.32009954516469,5.00000000000001e-07,0.487728478665642,0.485806279166459,0.04,0.0648309018431821,232.62674587222,0.512756053232549,0.333352353617139
6573,-0.19224696199552,0.230449579555426,0.383890598228612,-0.347446473077059,-0.14855698313081,0.441795759633831,0.32009954516469,5e-07,0.479164517480767,0.477567103158027,0.04,0.0654447252652579,228.541723927802,0.502147220400409,0.334417589599568
6633,-0.19224696199552,0.230449579555426,0.383890598228612,-0.347446473077059,-0.14855698313081,0.441795759633831,0.32009954516469,5e-07,0.4707022028643,0.469327927149595,0.04,0.065795786057748,224.505092605706,0.493078787820235,0.334552711014139
6693,-0.19224696199552,0.230449579555426,0.383890598228612,-0.347446473077059,-0.14855698313081,0.441795759633831,0.32009954516469,5e-07,0.462321094564576,0.461088751141163,0.04,0.0661121316767342,220.507011086352,0.485016269867995,0.334057149964292
6753,-0.19224696199552,0.230449579555426,0.383890598228612,-0.347446473077059,-0.14855698313081,0.441795759633831,0.32009954516469,5e-07,0.453997429554912,0.452849575132731,0.04,0.0664905255222784,216.536161089207,0.47756724096751,0.333158256670715
6813,-0.19224696199552,0.230449579555426,0.383890598228612,-0.347446473077059,-0.14855698313081,0.441795759633831,0.32009954516469,5e-07,0.445711222166226,0.444610399124299,0.04,0.0669587902893459,212.583043045465,0.470468472173682,0.332011227814403
6873,-0.19224696199552,0.230449579555426,0.383890598228612,-0.347446473077059,-0.14855698313081,0.441795759633831,0.32009954516469,5e-07,0.437447676049854,0.436371223115868,0.04,0.0675130462877187,208.640639314769,0.463556252398201,0.330712901760468
6933,-0.19224696199552,0.230449579555426,0.383890598228612,-0.347446473077059,-0.14855698313081,0.441795759633831,0.32009954516469,5e-07,0.429196767586581,0.428132047107436,0.04,0.0681380358756849,204.704201993453,0.456736366723451,0.329318281957356
6993,-0.19224696199552,0.230449579555426,0.383890598228612,-0.347446473077059,-0.14855698313081,0.441795759633831,0.32009954516469,5e-07,0.420952228445266,0.419892871099004,0.04,0.0688171822547222,200.770765069422,0.449959342101998,0.32785504966542
7053,-0.19224696199552,0.230449579555426,0.383890598228612,-0.347446473077059,-0.14855698313081,0.441795759633831,0.32009954516469,5e-07,0.412710438117684,0.411653695090572,0.04,0.0695366796364737,196.838618987058,0.44320234286484,0.32633446125687
7113,-0.19224696199552,0.230449579555426,0.383890598228612,-0.347446473077059,-0.14855698313081,0.441795759633831,0.32009954516469,5e-07,0.404469499500588,0.40341451908214,0.04,0.0702866230238375,192.906869990114,0.436457026776349,0.324758764766472
7173,-0.19224696199552,0.230449579555426,0.383890598228612,-0.347446473077059,-0.14855698313081,0.441795759633831,0.32009954516469,5e-07,0.39622854388719,0.395175343073708,0.04,0.0710606075727084,188.975108167885,0.429722089737343,0.323125773342612
7233,-0.169612682819486,0.221190702529752,0.356160533788992,-0.319795794635732,-0.147057524105587,0.425366052387302,0.325357305712335,5e-07,0.388058828205828,0.386936167065276,0.04,0.0718118638653073,185.072531536607,0.422622583277876,0.321768807897217
7293,-0.128459447953969,0.20435638066489,0.305742234807864,-0.26952183383332,-0.144331234968819,0.395493857393614,0.334916870344415,5e-07,0.379808881148294,0.378696991056844,0.04,0.0735130583570852,181.142846672413,0.41583608277955,0.320076429393179
7353,-0.0873062130884526,0.187522058800028,0.255323935826736,-0.219247873030907,-0.141604945832051,0.365621662399926,0.344476434976496,5e-07,0.3717707766202,0.370457815048412,0.04,0.0756748159758246,177.307753944955,0.407949120796716,0.319356972991397
7413,-0.0461529782229361,0.170687736935165,0.204905636845608,-0.168973912228495,-0.138878656695284,0.335749467406237,0.354035999608577,5e-07,0.363674555445715,0.36221863903998,0.04,0.0781592863518899,173.444448625767,0.399056712490674,0.319359956128283
7473,-0.00499974335741945,0.153853415070303,0.154487337864481,-0.118699951426083,-0.136152367558516,0.305877272412549,0.363595564240657,5e-07,0.355509548651342,0.353979463031548,0.04,0.080743767872281,169.548459686709,0.389586889231969,0.319774767465214
7533,0.0361534915080971,0.137019093205441,0.104069038883353,-0.0684259906236703,-0.133426078421748,0.276005077418861,0.373155128872738,5e-07,0.347297703004287,0.345740287023116,0.04,0.0833100432816202,165.630308259756,0.379868894191657,0.320376574752403
7593,0.0773067263736137,0.120184771340579,0.0536507399022253,-0.018152029821258,-0.13069978928498,0.246132882425173,0.382714693504819,5e-07,0.339060566242728,0.337501111014685,0.04,0.0858023121918717,161.700242311587,0.370096257986152,0.321033721304304
7653,0.11845996123913,0.103350449475717,0.00323244092109752,0.0321219309811544,-0.127973500148212,0.216260687431484,0.392274258136899,5e-07,0.330813530978724,0.329261935006253,0.04,0.0881831068338875,157.765542754958,0.360356231350361,0.321687951979175
7713,0.159613196104647,0.0865161276108544,-0.0471858580600302,0.0823958917835669,-0.125247211011444,0.186388492437796,0.40183382276898,5e-07,0.322562627016933,0.321022758997821,0.04,0.0904107815435335,153.828994766233,0.350678530561676,0.322317362247089
7773,0.200766430970164,0.0696818057459923,-0.0976041570411579,0.132669852585979,-0.122520921874676,0.156516297444108,0.411393387401061,5e-07,0.314300611959902,0.312783582989389,0.04,0.0924362440790298,149.887040374792,0.341108398128026,0.322869000003154
7833,0.24191966583568,0.0528474838811301,-0.148022456022286,0.182943813388392,-0.119794632737909,0.126644102450419,0.420952952033141,5e-07,0.306015654862826,0.304544406980957,0.04,0.094243973705708,145.934109516038,0.33176321428802,0.323208860921818
7893,0.283072900701197,0.036013162016268,-0.198440755003413,0.233217774190804,-0.117068343601141,0.0967719074567311,0.430512516665222,5e-07,0.297728731634048,0.296305230972525,0.04,0.0961420023957032,141.980498461218,0.32272652807252,0.323257572307324
7953,0.324226135566713,0.0191788401514058,-0.248859053984541,0.283491734993216,-0.114342054464373,0.0668997124630428,0.440072081297303,5e-07,0.289358389828427,0.288066054964093,0.04,0.0980773775269335,137.985803656822,0.314210323169905,0.322677463381396
8013,0.36537937043223,0.00234451828654358,-0.296829048059828,0.333765695795629,-0.111615765327605,0.0370275174693546,0.449631645929383,5e-07,0.280845442436764,0.279826878955661,0.04,0.0994565023120148,133.961001066278,0.306929302073613,0.320696860757301
8073,0.406532605297747,-0.0144898035783186,-0.289916044964264,0.384039656598041,-0.108889476190837,0.00715532247566631,0.459191210561464,5e-07,0.272269414491206,0.271587702947229,0.04,0.106090633712973,129.831291171668,0.301335265957018,0.316580449449671
8133,0.425051560987229,-0.0220652484175066,-0.285996548678778,0.406662938959127,-0.107662646079292,-0.00628716527149345,0.4634930146459,5e-07,0.265258938240136,0.267880073743435,0.04,0.10431616484142,126.539798215338,0.307255264542168,0.302609446369176
8193,0.425051560987229,-0.0220652484175066,-0.291553555161201,0.406662938959127,-0.107662646079292,-0.00628716527149339,0.4634930146459,5e-07,0.265308508485502,0.267880073743435,0.04,0.0925687570996525,126.587647666904,0.324278112229974,0.286832507636559
8253,0.425051560987229,-0.0220652484175066,-0.30094476272413,0.406662938959127,-0.107662646079292,-0.00628716527149345,0.4634930146459,5e-07,0.266533487634553,0.267880073743435,0.04,0.0881927957120431,127.172057874985,0.334869286376112,0.279042952627423
8313,0.425051560987229,-0.0220652484175066,-0.30879207901485,0.406662938959127,-0.107662646079292,-0.00628716527149345,0.4634930146459,5e-07,0.267358345821837,0.267880073743435,0.04,0.0881624269761913,127.560844636616,0.339384822450858,0.276172000654199
8373,0.425051560987229,-0.0220652484175066,-0.31382340278537,0.406662938959127,-0.107662646079292,-0.00628716527149339,0.4634930146459,5e-07,0.267682557008941,0.267880073743435,0.04,0.0891695202425598,127.712690229962,0.34105575097732,0.275146094335556
8433,0.425051560987229,-0.0220652484175066,-0.316721090486151,0.406662938959127,-0.107662646079292,-0.00628716527149339,0.4634930146459,5e-07,0.267779926997943,0.267880073743435,0.04,0.0899471640502992,127.758201423655,0.341797572991694,0.274646766860423
8493,0.425051560987229,-0.0220652484175066,-0.31836461583327,0.406662938959127,-0.107662646079292,-0.00628716527149345,0.4634930146459,5e-07,0.267813987681449,0.267880073743435,0.04,0.0903679171483895,127.774249245535,0.342251583593658,0.274316889650897
8553,0.425051560987229,-0.0220652484175066,-0.31932261388152,0.406662938959127,-0.107662646079292,-0.00628716527149339,0.4634930146459,5e-07,0.267835320339206,0.267880073743435,0.04,0.0905772142378438,127.784379759298,0.342560962839171,0.274090873533255
8613,0.425051560987229,-0.0220652484175066,-0.319896746572466,0.406662938959127,-0.107662646079292,-0.00628716527149339,0.4634930146459,5e-07,0.267851553628916,0.267880073743435,0.04,0.0906883662702564,127.792084615321,0.342762840355935,0.273945958625601
8673,0.425051560987229,-0.0220652484175066,-0.320244855183923,0.406662938959127,-0.107662646079292,-0.00628716527149339,0.4634930146459,5e-07,0.267862716942695,0.267880073743435,0.04,0.0907534964013045,127.797371979602,0.342887421142309,0.273857756564899
8733,0.425051560987229,-0.0220652484175066,-0.320456034426421,0.406662938959127,-0.107662646079292,-0.00628716527149339,0.4634930146459,5e-07,0.267869608670245,0.267880073743435,0.04,0.0907932856162946,127.800631697045,0.342962553102857,0.273804746959529
8793,0.425051560987229,-0.0220652484175066,-0.32058406323208,0.406662938959127,-0.107662646079292,-0.00628716527149345,0.4634930146459,5e-07,0.267873639878215,0.267880073743435,0.04,0.090817297437236,127.802537566906,0.343008324627452,0.273772292720375
8853,0.425051560987229,-0.0220652484175066,-0.320662017665697,0.406662938959127,-0.107662646079292,-0.00628716527149339,0.4634930146459,5e-07,0.26787598114409,0.267880073743435,0.04,0.0908313113539627,127.803644629723,0.343037054399607,0.273751735253333
8913,0.425051560987229,-0.0220652484175066,-0.320710031684148,0.406662938959127,-0.107662646079292,-0.00628716527149345,0.4634930146459,5e-07,0.267877361571189,0.267880073743435,0.04,0.0908391726781239,127.804297554915,0.343055800792208,0.273738174473864
8973,0.425051560987229,-0.0220652484175066,-0.32074018710626,0.406662938959127,-0.107662646079292,-0.00628716527149339,0.4634930146459,5e-07,0.267878188006258,0.267880073743435,0.04,0.0908433515172191,127.804688523168,0.343068600563513,0.273728798762634
9033,0.420791102692823,-0.0349912436486414,-0.320602574436607,0.388971020911721,-0.0971394633770911,-0.0141069549931333,0.429810726111434,5e-07,0.268661383571097,0.267880073743435,0.04,0.0866938471463412,128.192010447891,0.341451673753114,0.275858511856456
9093,0.413044814884812,-0.0584930531597957,-0.317683871992319,0.356803897189164,-0.0780064039185445,-0.0283247544870241,0.368570201503312,5e-07,0.269393527548855,0.267880073743435,0.04,0.0808216997804891,128.528397489324,0.333086090864574,0.283528859788652
9153,0.4052985270768,-0.0819948626709501,-0.311903238514711,0.324636773466607,-0.058873344459998,-0.0425425539809148,0.307329676895191,5e-07,0.269299792545261,0.267880073743435,0.04,0.0737512154369186,128.481621734952,0.324251863870018,0.291147593566625
9213,0.397552239268789,-0.105496672182104,-0.305061233761386,0.29246964974405,-0.0397402850014514,-0.0567603534748055,0.24608915228707,5e-07,0.269175148789991,0.267880073743435,0.04,0.0648506603261846,128.422898870757,0.316275087172927,0.298354203601339
9273,0.389805951460778,-0.128998481693259,-0.298016165692263,0.260302526021493,-0.0206072255429049,-0.0709781529686962,0.184848627678948,5e-07,0.26914723619228,0.267880073743435,0.04,0.054761166661997,128.410193183923,0.30865368361026,0.305691041238202
