time,bias_percent_1,bias_percent_2,bias_percent_3,bias_percent_4,bias_percent_5,bias_percent_6,bias_percent_8,bias_percent_9,normalized_power,power_SP,SP,CV,total_power_MW,fuel_fraction,thermal_efficiency
3,0,0,0,0,0,0,0,0,1.00359760546208,1,0.04,0.0418599618805883,478.147104453644,0.993589331857457,0.35359758203579
63,-0.00082490133188594,-0.000711037693084108,0.000447615237981381,0.000999443106742433,-0.0002817736541042,0.000560641848885439,-0.000272786001145676,-0.000529550468720117,0.999875395862566,0.99887028306154,0.04,0.0399950217479886,477.03273986795,0.998806845726524,0.350930691922923
123,-0.0173229279696048,-0.0149317915547655,0.00939991999760753,0.0209883052415911,-0.00591724673618751,0.0117734788265934,-0.00572850602406021,-0.0111205598431237,0.983611508532265,0.976275944292335,0.04,0.0458073741765055,469.11282730345,0.959825906567148,0.359119937553735
183,-0.0338209546073236,-0.0291525454164467,0.0183522247572338,0.0409771673764399,-0.0115527198182707,0.0229863158043014,-0.0111842260469747,-0.0217115692175273,0.961279713283536,0.953681605523129,0.04,0.0499854480387702,458.443990195852,0.912786341905796,0.369038628072923
243,-0.0503189812450424,-0.043373299278128,0.02730452951686,0.0609660295112886,-0.0171881929003538,0.0341991527820095,-0.0166399460698892,-0.0323025785919307,0.938188898851944,0.931087266753924,0.04,0.0515331529069901,447.425394506948,0.867983622515028,0.378759709840865
303,-0.0668170078827612,-0.0575940531398094,0.0362568342764862,0.0809548916461374,-0.022823665982437,0.0454119897597174,-0.0220956660928037,-0.0428935879663342,0.914994813002404,0.908492927984719,0.04,0.0513080673108634,436.359626008862,0.826616489633464,0.387878022367044
363,-0.08331503452048,-0.0718148070014906,0.0452091390361124,0.100943753780986,-0.0284591390645203,0.0566248267374255,-0.0275513861157182,-0.0534845973407376,0.891829810663776,0.885898589215514,0.04,0.0500257884176856,425.312257347603,0.788891608503666,0.396136845519202
423,-0.0998130611581988,-0.0860355608631721,0.0541614437957387,0.120932615915835,-0.0340946121466035,0.0678376637151334,-0.0330071061386326,-0.0640756067151411,0.868847739649537,0.863304250446308,0.04,0.0481539118924933,414.357218938037,0.754477060520332,0.403537171881331
483,-0.116311087795918,-0.100256314724853,0.0631137485553648,0.140921478050683,-0.0397300852286868,0.0790505006928414,-0.0384628261615472,-0.0746666160895447,0.845590763770253,0.840709911677103,0.04,0.046356460252356,403.268714373247,0.72322128521916,0.40971136171882
543,-0.132809114433637,-0.114477068586535,0.0720660533149911,0.160910340185532,-0.04536555831077,0.0902633376705494,-0.0439185461844617,-0.0852576254639482,0.822718077765695,0.818115572907898,0.04,0.0444580111044532,392.327701494256,0.694646659507028,0.414991975077979
603,-0.149307141071355,-0.128697822448216,0.0810183580746175,0.180899202320381,-0.0510010313928532,0.101476174648257,-0.0493742662073762,-0.0958486348383517,0.799393477772903,0.795521234138693,0.04,0.0427521340787777,381.26296123741,0.669306651469286,0.418556559039495
663,-0.165805167709074,-0.142918576309897,0.0899706628342436,0.20088806445523,-0.0566365044749364,0.112689011625965,-0.0548299862302907,-0.106439644212755,0.776787158486602,0.772926895369488,0.04,0.0411445768600527,370.432909339026,0.645876372049678,0.421419707843119
