time,bias_percent_1,bias_percent_2,bias_percent_3,bias_percent_4,bias_percent_5,bias_percent_6,bias_percent_8,bias_percent_9,normalized_power,power_SP,SP,CV,total_power_MW,fuel_fraction,thermal_efficiency
5,0,0,0,0,0,0,0,0,0.997207655087548,1,0.04,0.0412449819449484,475.751719182144,0.999887531240721,0.349610035039928
65,0,0,0,0,0,0,0,0,0.999889150426492,1,0.04,0.0398971309425225,477.048977299813,1.00012252181066,0.350480966772883
125,0,0,0,0,0,0,0,0,0.999987444921849,1,0.04,0.0399190734085591,477.094228642356,1.00030115176177,0.350451618791675
185,0,0,0,0,0,0,0,0,0.999999460476219,1,0.04,0.0399574151863117,477.099775971303,1.00031802926285,0.350449780670164
245,0,0,0,0,0,0,0,0,1.00000198089502,1,0.04,0.0399822263478581,477.10095790423,1.0003100920104,0.350453429602415
305,0,0,0,0,0,0,0,0,1.00000321726046,1,0.04,0.0399967377637492,477.101542190446,1.00029298131516,0.350459853541356
365,0,0,0,0,0,0,0,0,1.00000384927409,1,0.04,0.0400047600342429,477.101839357498,1.00027090580592,0.350467806317714
425,0,0,0,0,0,0,0,0,1.00000398462008,1,0.04,0.0400086878719343,477.101900480527,1.00024705828858,0.350476206941062
485,0,0,0,0,0,0,0,0,1.00000375880242,1,0.04,0.0400100377383178,477.101790471899,1.00022389895325,0.350484241106577
545,0,0,0,0,0,0,0,0,1.00000331419126,1,0.04,0.040009823691672,477.10157714905,1.00020302529527,0.350491398797155
605,0,0,0,0,0,0,0,0,1.00000276824809,1,0.04,0.0400087396651135,477.101316247327,1.00018527002754,0.350497429044355
665,0,0,0,0,0,0,0,0,1.00000220529309,1,0.04,0.0400072564876406,477.101047751229,1.00017089148644,0.350502270574307
725,0.0208330475494718,0.0208326022620887,0.0208333333333334,0.020831924962436,0.0166423541261904,0.020833223208169,-0.0108010119217828,0.0208331978407983,0.999613326111323,1,0.04,0.0423260820147193,476.855160184209,1.00055016417504,0.350188834912983
785,0.249996570593662,0.249991227145064,0.25,0.249983099549233,0.199708249514285,0.249998678498028,-0.129612143061394,0.24999837408958,0.979485731382264,1,0.04,0.0690407307612848,467.497233789665,1.10293227541172,0.311447519244354
845,0.249994681663356,0.221299553296682,0.208334159883069,0.213683758855976,0.203899228721428,0.249998788623192,-0.0979780917333061,0.249992693546861,0.9941194482907,1,0.04,0.0635193614319946,474.355858265078,1.1561618562702,0.301467366802959
905,0.249973903429983,-0.0943088590355252,-0.249990081403173,-0.185608988769845,0.25,0.25,0.249996472875661,0.249930207576951,1.00906237544111,1,0.04,0.0469315786416925,481.419387709073,1.13327244144128,0.312136045987477
965,0.208310947356608,-0.0889746818226483,-0.249990903660322,-0.149308239705692,0.25,0.249963998394839,0.249996766802689,0.208284256320489,1.00504879579514,1,0.04,0.0506205477949943,479.609432506947,1.10069941727098,0.320164853911395
1025,-0.249981569450523,-0.0302987324810002,-0.249999948488958,0.25,0.25,0.249567980738064,0.25,-0.249821207500588,1.01434006228438,1,0.04,0.0435780501716066,483.905863372061,1.02393830709435,0.347249612473942
1085,-0.249930578612378,-0.017958598799012,-0.208338148554146,0.208494053909855,0.208339599020738,0.207937315676558,0.2499945818542,-0.208173237112161,1.003239834465,1,0.04,0.0414983622064055,478.66757586875,0.98989322779053,0.355304193482419
1145,-0.249369679392775,0.117782871702861,0.24994165072878,-0.248071353081735,-0.249924811751146,-0.25,0.249934982250396,0.249954437160547,1.00472527252003,1,0.04,0.0319202134953767,479.305298968296,0.973710250581757,0.361690552238495
1205,-0.24939979829186,0.0871342990609562,0.24994625275595,-0.206603663083293,-0.249931077438551,-0.208334876698859,0.208274570139231,0.249952181176626,1.0024946684784,1,0.04,0.0317073708918616,478.225120641333,0.956441611013966,0.367391072930607
1265,-0.249731106181792,-0.25,0.249996875054817,0.249540926899568,-0.25,0.249981479613691,-0.249989963083592,0.249927365353499,1.00245905424587,1,0.04,0.0338384224395181,478.269206209879,0.945951314844972,0.371499565725386
1325,-0.215038030421727,-0.249999998656793,0.208330475059949,0.207934506573584,-0.25,0.249981940263346,-0.249990776653266,0.229655324266939,0.999414131304794,0.997910158842552,0.04,0.0302473276626235,477.096169121101,0.944470381314161,0.371169483623809
1385,0.166585802938986,-0.24999998388152,-0.249999924883604,-0.249736117012235,-0.25,0.249987007409549,-0.249999725919686,0.00666287231477406,0.993249240026832,0.972832064953173,0.04,0.0201984097113985,473.68380724437,0.841360095627267,0.41367693283927
1445,0.131870975230802,-0.208386610946239,-0.208341440856867,-0.249758082257584,-0.249999994259064,0.249988090122252,-0.249999746977347,0.0269409642775557,0.954744135717889,0.947753971063794,0.04,0.0260594152819677,455.482691727216,0.784149852995659,0.426803025534554
1505,-0.249992129559229,0.249360491341857,0.249901883437237,-0.24999969995642,-0.249999931108769,0.249999999961993,-0.249999978611622,0.249999975868154,0.914285438897386,0.922675877174415,0.04,0.0462028974996557,436.158242314473,0.821788949717851,0.38997652323889
1565,-0.243059782818378,0.248794717281068,0.249910059817467,-0.208443469115703,-0.208333270609119,0.249999999960692,-0.208337760553492,0.208342055048104,0.901120369019071,0.897597783285036,0.04,0.0484541625710935,429.768377423318,0.810716569263023,0.389511320168489
1625,-0.166803968669016,0.242571202612383,0.25,0.248675070132181,0.249999994887022,0.24999999994638,0.249946638085937,-0.249895073972442,0.865954322990858,0.872519689395657,0.04,0.0750462631185874,413.001811931867,0.839785439992828,0.361358514827657
1685,-0.132070304613264,0.206381773643499,0.208333333333333,0.248321721677937,0.249999991009381,0.221031881939138,0.249948852767721,-0.249903583758172,0.850331645738281,0.847441595506278,0.04,0.0714772721113195,405.683936033592,0.834648382354946,0.357140359502371
1745,0.25,-0.191701945014218,-0.25,0.244434888681246,0.249999948355331,-0.0976174161405204,0.249973214267341,-0.236629375487241,0.837428104562017,0.822363501616899,0.04,0.052493693385512,399.439542901867,0.755833856588342,0.388310729388554
1805,0.249999993733916,-0.15489369336981,-0.25,0.203232888502361,0.208333285992387,-0.068649299118164,0.249975446406796,-0.186885457600947,0.804590952116255,0.799375248884969,0.04,0.0553918703988008,383.71210412575,0.70423840303176,0.400350588659181
1865,0.249999924806993,0.249997074718682,-0.25,-0.249989113465369,-0.25,0.249999988127757,0.249999999940794,0.249999736356309,0.792162780440856,0.799375248884969,0.04,0.0509256086060086,378.101297343818,0.737411315633305,0.37674981367024
1925,0.249999931073077,0.220912769586629,-0.218820100474011,-0.208323354281645,-0.208334656589513,0.249999935999145,0.249999991028396,0.249999758326617,0.798789281482967,0.799375248884969,0.04,0.0469328615868407,381.094776823268,0.746986559204492,0.374864992871887
1985,0.25,-0.0990145868659563,0.124158794311863,0.249999996739318,0.249984120925844,0.249999362584407,0.249999892992012,0.25,0.785200526073792,0.799375248884969,0.04,0.0649841447669255,374.686006533761,0.817679618724368,0.336696791007541
2045,0.249998366345665,-0.06993003796046,0.134645561452541,0.249998810697142,0.249985297084025,0.249999415702373,0.249999901020655,0.249997782103886,0.795084654340312,0.799375248884969,0.04,0.0608135783056258,379.380932337461,0.855149822537949,0.325977756036119
2105,0.249980396147984,0.25,0.25,0.249985764233208,0.249998234824011,0.25,0.249999989335728,0.249973385246635,0.79262878252684,0.799375248884969,0.04,0.0739210005434826,378.154697748953,0.892593441319951,0.31129380993715
2165,0.249982029802318,0.249998818530675,0.234306037843137,0.249986928746776,0.24999838192201,0.249993779198096,0.208333323557751,0.208612842187003,0.796237317241062,0.799375248884969,0.04,0.0700805183970083,380.282278556587,0.920076446910139,0.303694446583228
2225,0.25,0.249985822368105,0.0616724541176484,0.249999738396024,0.25,0.249925350377157,-0.00385967241434941,-0.00385967241434941,0.804752327782847,0.799375248884969,0.04,0.0635729195556058,383.865585200677,0.865800697977148,0.325773626661594
2285,0.25,0.249961744214855,0.0357557302107417,0.249998563876548,0.208333784697214,0.24993157117906,-0.00182290783554485,-0.00182290783554485,0.798769736127883,0.799375248884969,0.04,0.061348229482853,381.161361867145,0.862439022971878,0.324739522205822
2345,0.25,0.249696884529102,-0.249328232765231,0.249985644162312,-0.249994583633431,0.25,0.249995729522151,-0.000866625852096585,0.802372062217939,0.799375248884969,0.04,0.0464027162171818,382.914342698408,0.84023956881677,0.334852218447828
2405,0.249689216158959,0.249722144151676,-0.249384210960888,0.249882725027848,-0.249995034997312,0.249999948736797,0.248784289552213,-0.00040909930620146,0.801681652677728,0.799375248884969,0.04,0.0473058995451138,382.480412029517,0.824361007897884,0.340915253538677
2465,0.246270593907515,0.25,-0.249999971113115,0.248750614548738,-0.25,0.249999384841566,0.235458449882893,-0.000192980094302261,0.801314278473568,0.799375248884969,0.04,0.0467614602994585,382.298524674761,0.811718856784285,0.346060207043652
2525,0.24658137443617,0.249999066392076,-0.208333306853688,0.216129197240887,-0.208333693679133,0.249998992764816,0.236670245725986,0.0207426153270505,0.800298416383852,0.799375248884969,0.04,0.0481643069728257,381.669655801501,0.803961858058327,0.348824406753098
2585,0.249999960251379,0.249988796704915,0.25,-0.142706393145476,0.249995675850406,0.249994679920566,0.25,0.249976046182659,0.78603080529749,0.799375248884969,0.04,0.0641601882253859,375.135429103732,0.87004659884257,0.316810994680161
2645,0.249999963563764,0.249988423126794,0.232698375748396,-0.109981210133905,0.249996015280894,0.249995117321778,0.249998940476558,0.249977163343836,0.796450775971787,0.799375248884969,0.04,0.0626216654353424,379.996822251933,0.900770856849244,0.30997046466601
2705,0.25,0.249984313767469,0.0423805089807518,0.249995802993368,0.249999749016256,0.249999928735108,0.2499872857187,0.249989452116778,0.796594289251028,0.799375248884969,0.04,0.0681829645943515,380.077704974341,0.917601256910972,0.304349835613105
2765,0.249999994091426,0.249984943207309,0.0180155657579431,0.249996152734624,0.249999364530338,0.208333268009271,0.249988327143467,0.249990331107047,0.798304073661175,0.799375248884969,0.04,0.067856376138527,381.001642493047,0.926974240646141,0.302004808861708
2825,0.249999929097117,0.249991867045557,-0.249998809692952,0.24999999988844,0.249995135185235,-0.249999999974933,0.249999782815899,0.25,0.810106793099075,0.799375248884969,0.04,0.0544421820980796,386.449404505067,0.879169292513342,0.322979388527545
2885,0.249999904953941,0.2083258782449,-0.249998497022737,0.249999999897737,0.249995531616311,-0.249999943701871,0.208333729244617,0.249999766501279,0.802951420687274,0.799375248884969,0.04,0.0558028350900203,383.213486745726,0.849033659315477,0.331642785039421
2945,0.249999639379004,-0.249999998562335,-0.249995057650375,0.25,0.249999892358148,-0.249999324698193,-0.000549838953812027,0.249997198015344,0.808116495077528,0.799375248884969,0.04,0.0352011794258617,385.556907609403,0.787273451978298,0.35984672788019
3005,0.208333002764087,-0.208334202986161,-0.249995074469673,0.24999999384039,0.208333234661636,-0.249999380973344,-0.00686221033767164,0.249997431514066,0.801648249572157,0.799375248884969,0.04,0.0321826361923356,382.453962058328,0.764045593783882,0.367802405393064
3065,-0.25,0.249989548351757,-0.249995259481945,0.249999926084676,-0.25,-0.25,0.25,0.25,0.800962238572002,0.799375248884969,0.04,0.0232857807853143,382.148276791421,0.74554194006,0.376629646283127
3125,-0.208333333333333,0.249990360949638,-0.208328990979938,0.249999928832564,-0.208333333333333,-0.208333339098973,0.208334894590523,0.25,0.80095644126291,0.799375248884969,0.04,0.0238349995305006,382.160275702978,0.733629015931983,0.382757507653563
3185,0.25,0.249999299526332,0.249999962542136,0.249999959059334,0.25,0.249999930812324,-0.073265509384605,0.25,0.777714484436038,0.799375248884969,0.04,0.0700706424998491,371.065600965112,0.829736452199852,0.328598216463737
3245,0.249998649811534,0.249999219460069,0.249999965663625,0.24999696590571,0.25,0.249999861946523,-0.0473516639542562,0.249997860954736,0.792583904171626,0.799375248884969,0.04,0.0628816996961878,378.200970793268,0.89204856235779,0.311522068528307
3305,0.249983797738409,0.24999833873117,0.25,0.249964041215849,0.25,0.249999104422707,-0.022366972328604,0.249974331456832,0.796638286786466,0.799375248884969,0.04,0.0645696804866144,380.091382796349,0.914085293152798,0.305531490244935
3365,0.249984453214094,0.249998477170239,0.249998768272895,0.235160341353671,0.249999844181278,0.249999179054148,-0.0105650956685119,0.208311769823413,0.798302741676982,0.799375248884969,0.04,0.0649920547087635,381.100249227444,0.924787268735899,0.302797347721876
3425,0.249991663446631,0.25,0.24998521927474,0.0723196428697173,0.249998130175338,0.25,-0.00499031032450444,-0.00499031032450444,0.803672139181921,0.799375248884969,0.04,0.0612391150425094,383.376984602315,0.888188416481239,0.317157954733859
3485,0.249989832974768,0.208333333333333,0.247422830089043,0.0454617550974583,0.24999828599406,0.249995776881276,-0.00235698068321661,-0.00235698068321661,0.799409580301736,0.799375248884969,0.04,0.0603296922797459,381.408113808631,0.882455304610931,0.317579079724806
3545,0.249969697784271,-0.25,0.21923654904638,-0.24997501039739,0.25,0.249949322575316,-0.00144403641513212,-0.00144403641513212,0.808319094711723,0.799375248884969,0.04,0.0372460041156814,385.72060215044,0.847571851470037,0.334388233741583
3605,0.249958503973813,-0.208333333333333,0.180133503292515,-0.208310426197608,0.25,0.208288870922331,-0.00275340910031919,-0.00275340910031919,0.803124489884201,0.799375248884969,0.04,0.0390829102963981,383.234508499395,0.81779829692744,0.344328588963146
3665,0.249835372058771,0.25,-0.25,0.25,0.25,-0.24997609726051,0.249982663767068,-0.00240905635248467,0.797055107845594,0.799375248884969,0.04,0.0485000736889433,380.287642355621,0.807414650185553,0.346075029085271
3725,0.249849091053874,0.208333333333333,-0.229536513157204,0.208333597588441,0.213054752447309,-0.208311426573167,0.234565094668203,0.0197190132929819,0.799466301536929,0.799375248884969,0.04,0.0449073811212024,381.350027957666,0.808783797460401,0.346454348313315
3785,0.25,-0.25,-0.00443815788644258,-0.249996828938704,-0.193342970632292,0.249999950987598,0.0649718345806898,0.249950212804345,0.806787789000086,0.799375248884969,0.04,0.0235223443806064,385.087422368972,0.783109726246435,0.361319493167187
3845,0.25,-0.249999918214484,-0.024901644729239,-0.208330426527146,-0.198054628740995,0.249999955071965,0.0803907887895402,0.208288936714117,0.801603364594337,0.799375248884969,0.04,0.0256418691791871,382.556758001935,0.762317711522934,0.368735154538921
3905,0.25,-0.249999018573813,-0.25,0.25,-0.249882867936733,0.25,0.249999285086895,-0.0573766828773588,0.797520672419608,0.799375248884969,0.04,0.0298199434897163,380.477783089202,0.746992205607421,0.374255256217957
3965,0.249999988226692,-0.249999100359329,-0.208333675079818,0.25,-0.208225962275339,0.249999983339562,0.208333286501713,-0.0871010585685197,0.798610447145155,0.799375248884969,0.04,0.0272546456049723,381.160883552867,0.752881149919399,0.371994550305724
4025,0.2499998587203,-0.25,0.249995899042177,0.25,0.25,0.249999800074743,-0.110629078709695,-0.110629078709695,0.788563823845824,0.799375248884969,0.04,0.0470377309416575,376.176278038913,0.791368018225125,0.349275068419489
4085,0.249999847890819,-0.249999784342136,0.249996240788663,0.208333333340117,0.25,0.249999816735181,-0.116194704358535,-0.116194704358535,0.795493744387714,0.799375248884969,0.04,0.0425595946083591,379.581884318616,0.82385625144327,0.338539004022361
4145,0.249999728766529,-0.249997412105627,0.25,-0.249999999918596,0.25,0.25,-0.117318837112784,0.25,0.794250652965464,0.799375248884969,0.04,0.0384048381109476,379.130717837388,0.848510673800019,0.328311684624632
4205,0.249999751369318,-0.208331023051743,0.249999295670984,-0.24999999992538,0.25,0.208351212819803,-0.118404706920634,0.249999699107514,0.80017724344883,0.799375248884969,0.04,0.0416775271601607,381.88962254225,0.85002678174661,0.330110945196483
4265,0.25,0.249999256540979,0.24999154805181,-0.25,0.25,-0.249785446162366,-0.113608553986575,0.249996389290167,0.805065978581815,0.799375248884969,0.04,0.0493694018134538,384.036356765394,0.825753574753416,0.341724844721332
4325,0.25,0.24999927601608,0.208354706851958,-0.20833335160599,0.208333502329238,-0.208136946699173,-0.0982070100589928,0.208330746659213,0.80133522721111,0.799375248884969,0.04,0.0495839743870689,382.451991354604,0.810431703388026,0.346748970979349
4385,0.25,0.249999490242186,-0.249650546346413,0.249999780728119,-0.249997972049149,0.249996547395952,-0.0813977940672278,-0.0813977940672278,0.803979382588314,0.799375248884969,0.04,0.043614015835153,383.558205419193,0.767787964508265,0.367066418381775
4445,0.25,0.249999308517222,-0.249679667484212,0.208333156124557,-0.21146291156441,0.230534637142081,-0.069233314701775,-0.069233314701775,0.800100903722286,0.799375248884969,0.04,0.0404934576920457,381.726828671293,0.758355992628102,0.369857336317975
4505,0.25,0.249997309542613,-0.25,-0.249999714514632,0.212422753767717,0.0164536243495065,-0.0672507035333109,-0.0672507035333109,0.802331428932576,0.799375248884969,0.04,0.0293042845725347,382.80049431486,0.743846224317347,0.378132497613114
4565,0.208333333333333,0.208331014615349,-0.249996284276898,-0.24999767741336,0.173887525564658,0.0359158223203809,-0.0803355831170493,-0.0803355831170493,0.800571268595567,0.799375248884969,0.04,0.0273383760378519,381.880518860556,0.73358104456847,0.382502325107578
4625,-0.25,-0.249998229584548,-0.249955411322777,-0.249975269299364,-0.24999998466899,0.25,-0.120549345092788,-0.120549345092788,0.794845400060197,0.799375248884969,0.04,1.09038454691851e-09,378.86608713718,0.689890693931086,0.403515407624622
4685,-0.25,-0.249998375236673,-0.249959105856451,-0.249977327992604,-0.208341871786214,0.249996893979856,-0.194285314372808,-0.194285314372808,0.783674939755723,0.799375248884969,0.04,4.35182259333706e-10,373.953799284365,0.773907293995467,0.355045233284827
4745,-0.25,-0.249999977410047,-0.249999745726861,-0.24999997361824,0.249897369924318,0.249962727758275,0.249999987351236,-0.249958330226983,0.796093091675454,0.799375248884969,0.04,0.0149073456261796,379.961606901872,0.729790426688137,0.382557067712073
4805,-0.208342308808756,-0.249995062830222,-0.249998664100338,-0.249999833566978,0.249905922430625,0.249965833778418,0.249983817787202,-0.249961581872082,0.796881038898767,0.799375248884969,0.04,0.0165809623879267,380.373853095386,0.742603705001303,0.376364125583138
4865,0.249892294294928,-0.249941002452143,-0.249986766208588,-0.249998293003095,0.25,0.25,0.249805952582823,-0.249997349968163,0.783292455041021,0.799375248884969,0.04,0.029816459153379,373.586284791423,0.820313480150469,0.334630676843199
4925,0.249893950827759,-0.239588700445694,-0.249987869024539,-0.208392278769312,0.218480596850768,0.249999989608493,0.221572238916131,-0.208331280383923,0.794989921836394,0.799375248884969,0.04,0.0333563216321281,379.277257501015,0.861106748743565,0.323634256613144
4985,0.249912172688902,-0.125713378374756,-0.25,0.249273877802299,-0.128232837790783,0.249999875301914,-0.0889986114174779,0.249995485042722,0.791299194376815,0.799375248884969,0.04,0.0460487322805244,377.624555541671,0.913720868094061,0.303669629586545
5045,0.249919491631493,-0.101444076467417,-0.208333418044604,0.249334387985441,-0.138379950007368,0.249999885693421,-0.0659464475243701,0.249952919674732,0.800402279458094,0.799375248884969,0.04,0.0534028582133046,381.851267279552,0.918932327585435,0.305327120870804
5105,0.25,0.165518244513317,0.24999898346475,0.25,-0.249998184389801,0.25,0.187627355299817,0.249484700626833,0.790439109790082,0.799375248884969,0.04,0.0785613847216293,377.20020378812,0.963292620899333,0.287718880294431
5165,0.249999999999983,0.172558168687068,0.208333281894463,0.249999988051889,-0.249992711127719,0.208344014917615,0.192823747574551,0.24952630780974,0.800615877961413,0.799375248884969,0.04,0.0762162101238995,382.115531554378,0.96976557650114,0.289522688347628
5225,0.249999999999801,0.249997334598326,-0.249989435378698,0.249999856622668,-0.249932505244812,-0.249871820988615,0.249984062596629,0.249983986821716,0.81350874032318,0.799375248884969,0.04,0.0615932872048897,388.100981089563,0.903286815570988,0.31569939207468
5285,0.249877537250917,0.249996183196456,-0.249978732554545,0.235519103793247,-0.231650815727,-0.208329937565699,0.2499850071831,0.249985316261916,0.806741569757045,0.799375248884969,0.04,0.0652331840379144,384.776330277245,0.849275748983587,0.332900388204743
5345,0.248530447013193,0.249983517775892,-0.249861001488867,0.0762308226696133,-0.0305522310310682,0.248630780086375,0.249995397634279,0.249999940104108,0.796891323760333,0.799375248884969,0.04,0.0711257520013734,380.263899180553,0.85122992092716,0.328241049537827
5405,0.206993532191838,0.20831822463335,-0.249869354265389,0.0609311160673054,-0.00717406507733244,0.248733703729231,0.208329135562418,0.208333278428766,0.802131631236529,0.799375248884969,0.04,0.0622140664221168,382.972628304637,0.841616142061883,0.33435541028588
5465,-0.249912530843065,-0.249999999934611,-0.249961234807131,-0.107365656558081,0.249985760413763,0.249865863800638,-0.0722780249681666,-0.0722780249681666,0.822105763656085,0.799375248884969,0.04,0.0222058437723315,392.368566752112,0.703070164923266,0.410062651474516
5525,-0.208278794743258,-0.249897698009108,-0.208562951633321,-0.0954711249392113,0.249982421279914,0.249872531735016,-0.0449881346253449,-0.073268543028667,0.803659359341622,0.799375248884969,0.04,0.0177047584080484,383.478360722436,0.651252477375088,0.432659406404311
5585,0.249692302354622,-0.248772376828581,0.246818163278588,0.0353687228683514,0.249945690807569,0.249945879013168,0.25,-0.0887295547512704,0.773760565305169,0.799375248884969,0.04,0.0477566184813663,369.153975966937,0.774091261078057,0.350404812355201
5645,0.249712024104753,-0.207208012092866,0.247083316338705,0.0498817210138951,0.249950216573605,0.249946553699703,0.249996344271794,-0.0920534056571848,0.793589566992824,0.799375248884969,0.04,0.0424492075556434,378.701564839621,0.833655977833476,0.333783533040984
5705,0.249928963356187,0.25,0.25,0.209524700614874,0.25,0.249953975251585,0.249956131261528,0.0235948671203561,0.787264996324798,0.799375248884969,0.04,0.0656842618841807,375.684211999924,0.893021730725015,0.309111806729364
5765,0.249931377725646,0.25,0.25,0.212863207841884,0.25,0.249957786686934,0.249959786989734,0.0424613448899445,0.796537765200217,0.799375248884969,0.04,0.0653368520961119,379.963014164237,0.92214677763952,0.30275822295312
5825,0.249957935789696,0.25,0.25,0.249586787338989,0.25,0.249999712475777,0.25,0.249992600355418,0.793358345077869,0.799375248884969,0.04,0.0703510749287219,378.598028711416,0.955558159593266,0.291122585283979
5885,0.249961441140555,0.25,0.208335152737675,0.249621221727407,0.208335231699416,0.24999822378452,0.25,0.20842125261738,0.798801931961478,0.799375248884969,0.04,0.0689280857720982,381.432684103686,0.968000218332709,0.28953236980728
5945,0.25,0.25,-0.249978167147901,0.25,-0.249977219607007,0.249981848180703,0.25,-0.00467562637981474,0.815826795007713,0.799375248884969,0.04,0.0505103430794461,389.16641460141,0.878899830901786,0.325349878278629
6005,0.25,0.249992866940918,-0.249979986552243,0.249988752595697,-0.249977615594093,0.249983334080338,0.249998667132719,-0.00220833521831071,0.804524101356279,0.799375248884969,0.04,0.0541547694721924,383.800116799185,0.833576006774791,0.338309795958262
6065,0.25,0.249914403291021,-0.25,0.249865031148357,-0.249981971452037,0.249999678976318,0.249984005592634,-0.00104287492731258,0.801735458012949,0.799375248884969,0.04,0.0517268792662892,382.495938133516,0.815306172688339,0.344715469636723
6125,0.249999986218588,0.240421134839598,-0.208333334125115,0.249876142137845,-0.249982966210284,0.249999699227663,0.249984589561504,-0.000492353079271245,0.800724051190385,0.799375248884969,0.04,0.0499612651789855,382.011939227968,0.805633444399467,0.348412819281311
6185,0.249999834623058,0.135995181873946,0.249999990498622,0.24999836302221,-0.249993908551,0.249999921992457,0.249991013219082,-0.000232306226760474,0.794997795403318,0.799375248884969,0.04,0.0571787164838766,379.282468386758,0.824337455101487,0.338074498011418
6245,0.24999984840447,0.103841800974681,0.249999987791915,0.208332657971311,-0.208327872223627,0.234744445071722,0.249991761792846,-0.000109469353037726,0.797322552522815,0.799375248884969,0.04,0.0537381719552893,380.407463466896,0.839962677301161,0.332769654794384
6305,0.25,-0.249845388917229,0.249999958018138,-0.249990097588584,0.249998527377476,0.0669341989436358,0.249999996104255,0.249867971662363,0.795498480427908,0.799375248884969,0.04,0.041430481437032,379.748875047317,0.849060910965665,0.328633872925157
6365,0.249999987332364,-0.20819160650746,0.24998399992802,-0.208324267701646,0.208332033046484,0.0821894007689115,0.208504769980132,0.249878966076104,0.801032057245103,0.799375248884969,0.04,0.0432474715826103,382.381597011332,0.844608898529503,0.332656494204744
6425,0.249999847988367,0.25,0.249808460936715,0.249999861054677,-0.249999404594433,0.249996620846943,-2.08261966535065e-05,0.249999904627262,0.797827353452294,0.799375248884969,0.04,0.0616771427814906,380.570539432194,0.83217141671031,0.336029222798369
6485,0.249999828547468,0.249859723178815,0.208157755858655,0.249999872633454,-0.249999453735221,0.249996902432351,-9.57373584738538e-06,0.20833364476387,0.798118514763294,0.799375248884969,0.04,0.0571239473246006,380.85019834221,0.843551553319459,0.331739536025782
6545,0.249999614697581,0.248316678145773,-0.25,0.25,-0.249999994283879,0.249999999871832,-4.25847426430274e-06,-4.25847426430274e-06,0.807644312452784,0.799375248884969,0.04,0.0415974833129204,385.324470747619,0.791932045555199,0.35751424420241
6605,0.208332980139449,0.206869983736037,-0.249939549410824,0.25,-0.20833332944911,0.249958755473185,-1.74773342007917e-06,-1.74773342007917e-06,0.801167839848292,0.799375248884969,0.04,0.0418711179833386,382.109301143283,0.772495820532429,0.363451233468887
6665,-0.25,-0.249043654771065,-0.249274592929891,0.25,0.249999983733347,0.249505067088072,-0.00684300495226756,0.25,0.798243564387468,0.799375248884969,0.04,0.0241951309736332,381.327283285756,0.771740755551012,0.363062270888398
6725,-0.208333333333333,-0.24912335020681,-0.2076683768524,0.249999982478545,0.249999985088902,0.249546143909322,-0.0301291562173105,0.216519730873102,0.800367464149598,0.799375248884969,0.04,0.0230288073463961,382.214851546623,0.758295785097814,0.370359588162418
6785,0.25,-0.25,0.25,0.249999789742539,0.25,0.249997988943063,-0.0541996609100957,-0.0541996609100957,0.787880362541628,0.799375248884969,0.04,0.0470002291364667,375.777342486179,0.798265503519959,0.345889919352076
6845,0.249998309499598,-0.208477832603278,0.25,0.222321425949133,0.218952236433313,0.249998156531141,-0.0607625443219405,-0.0607625443219405,0.795820057917946,0.799375248884969,0.04,0.042455227215352,379.802287716472,0.832213738258343,0.3353338319379
6905,0.249979713995171,0.248266008760659,0.25,-0.0821405757783348,-0.122573162800239,0.25,-0.060313172451849,-0.060313172451849,0.803274919797899,0.799375248884969,0.04,0.043015747552511,383.211282227694,0.82115212231665,0.342901467206025
6965,0.249977198923371,0.248410497820647,0.25,-0.0961267288600669,-0.0915257692441846,0.235038996963529,-0.0547881723375988,-0.0547881723375988,0.800144492684757,0.799375248884969,0.04,0.045449768108145,381.738227464006,0.813084872374253,0.34497247765654
7025,0.249949533133567,0.249999877480514,0.25,-0.249974412759121,0.249995559872412,0.0704679635623534,0.249985757178478,0.249995768323681,0.78167389477101,0.799375248884969,0.04,0.0567902428724366,373.209480999985,0.871712910810291,0.314581997680012
7085,0.24995373870577,0.249999834964479,0.249999996547843,-0.224331373344158,0.249995929874604,0.085426766881239,0.249986797430803,0.249996003894708,0.798510188761967,0.799375248884969,0.04,0.0559584367759055,380.959548444294,0.895949543524242,0.312428027574644
7145,0.25,0.249999367288091,0.249999958574121,0.0577420602204305,0.24999999989871,0.24997360338898,0.249998240206383,0.249998595176009,0.794388495056398,0.799375248884969,0.04,0.0689081507062676,379.039352410188,0.918483914910472,0.303226688172889
7205,0.25,0.249999347085015,0.208539286409503,0.0737631862327792,0.249999999907151,0.249975803010178,0.249998386853781,0.249994822896964,0.79793334515394,0.799375248884969,0.04,0.0688897473265146,380.706923457457,0.931497312107376,0.300305886446231
7265,0.25,0.249999124851176,-0.247528107401302,0.249995572368613,0.25,0.249999998843357,0.249999999975165,0.24995332782747,0.802725882643961,0.799375248884969,0.04,0.0630072169135877,383.004091639302,0.920643864582343,0.305679579038899
7325,0.24999813996977,0.208332531692048,-0.206067431784527,0.233926242970747,0.208333355861292,0.208333332273077,0.235582978644659,0.249957217171098,0.801213931282701,0.799375248884969,0.04,0.0631645150684533,382.475715074769,0.908571674194179,0.309313837080394
7385,0.24997767963724,-0.249999993058365,0.25,0.057163619594229,-0.249999729664502,-0.25,0.0769957440090893,0.249999999951009,0.819150863595644,0.799375248884969,0.04,0.0351093387583201,390.722701759063,0.813429133451605,0.352942208356508
7445,0.249979534367131,-0.249999993636834,0.249999995290466,0.0732333179613765,-0.249996740137803,-0.208333333333333,0.0497460986749986,0.249998122134348,0.804476980423631,0.799375248884969,0.04,0.0370876041540178,383.799834185573,0.764785138548846,0.368739802717948
7505,0.249999936395921,-0.25,0.249999943485595,0.25,-0.249963855344114,0.25,-0.0054999943849074,0.249977466151076,0.792082290990462,0.799375248884969,0.04,0.04813700135353,377.925614182123,0.784922924308837,0.353780580841044
7565,0.249999941693695,-0.208333333333333,0.239495386324075,0.24999999963715,-0.249966862751842,0.249999797484265,-0.00259987213145005,0.249979341468614,0.797723270983075,0.799375248884969,0.04,0.0429264986768609,380.63536690897,0.80103144939155,0.349151769568233
7625,0.249999999969215,0.25,0.123945257547353,0.249999995645806,-0.249999944236848,0.249997569811179,-0.00122782299175424,0.249999969961538,0.795422581753615,0.799375248884969,0.04,0.0542126456913561,379.480053769425,0.822515475976625,0.338999885559385
7685,0.249999997002027,0.239492468357427,0.092783159124466,0.208377342491708,-0.208333283593809,0.249997772010083,-0.00057971594441057,0.24999995970931,0.797757657422148,0.799375248884969,0.04,0.0529525940420977,380.591606342954,0.835524387269214,0.334699259654639
7745,0.249999964362966,0.123909620289121,-0.249999923527295,-0.249471842203371,0.249999983479616,0.249999996198026,-0.00041174615957948,0.249999846934798,0.804250791171205,0.799375248884969,0.04,0.0387597414816389,383.809873557115,0.819169479305243,0.344268316775798
7805,0.249999967332718,0.13441271374262,-0.249971713927252,-0.249507622480379,0.208333318324777,0.249999996510146,-0.000403331729900339,0.249999856564306,0.801643413731966,0.799375248884969,0.04,0.040966244743035,382.514547521669,0.801776004786313,0.350549682530928
7865,0.25,0.249946741731108,-0.249661408326777,-0.249901205527468,-0.24999999837845,0.249999999943471,-0.00286526810377319,0.249999962488885,0.807420479691481,0.799375248884969,0.04,0.0338312459259987,385.194736952106,0.760252327372061,0.372286478212007
7925,0.208333384378751,0.249949981640194,-0.232211562055702,-0.20826235450178,-0.211220549256154,0.20834216084483,0.0111259104387279,0.208450199237883,0.801929192775267,0.799375248884969,0.04,0.0339288193160323,382.676224923085,0.739296127120057,0.380336255283949
7985,-0.24999938745499,0.249985620640143,-0.0402632530738799,0.249765006780784,0.215353391089095,-0.249894069240221,0.249988329517421,-0.0230221093035678,0.794209886260852,0.799375248884969,0.04,0.0364517242302344,378.963900552327,0.741220860513984,0.375668589909235
8045,-0.208352094322975,0.249982852998158,-0.0160760524129445,0.224930959671531,0.21824049611355,-0.208241062997857,0.249333980068952,-0.0363771193012881,0.797248800161161,0.799375248884969,0.04,0.0318787008280361,380.431239202881,0.755052068245379,0.370214945101643
8105,0.249768130129189,0.249952408936321,0.249983154857346,-0.0482435585302584,0.249998651382558,0.249942005668138,0.242136136135792,0.135253463819098,0.778401661029654,0.799375248884969,0.04,0.0622124517625806,371.485676207363,0.844428404244101,0.323246562951589
8165,0.249561024021425,0.249956320729216,0.249984557182458,-0.0233899315093066,0.249998664802793,0.249946838435553,0.20112489474557,0.144814930295372,0.795173953944562,0.799375248884969,0.04,0.0580530126543135,379.531812223043,0.892472027174736,0.312469942564096
8225,0.247282856836027,0.249999350451054,0.249999982758688,0.24999996572116,0.249998812425372,0.249999998877107,-0.00970402548465343,0.249991061534383,0.795119686781157,0.799375248884969,0.04,0.0665868289084041,379.36555032172,0.901031575706175,0.30936598162899
8285,0.246939515678206,0.249946216808458,0.208333627860632,0.208337248904803,0.249992454714067,0.249998819035675,-0.00458357186248434,0.249822241439033,0.79699279429549,0.799375248884969,0.04,0.0653063937511148,380.323246697104,0.918091925481802,0.304383691860227
8345,0.243162762942168,0.249361746739897,-0.249996276017986,-0.249952636075133,0.249922519889719,0.249985840779926,-0.00218156350860846,0.247965220390183,0.810921619250139,0.799375248884969,0.04,0.0445670673369124,386.935609795106,0.874425647483976,0.325140065446347
8405,0.211495683786862,0.249409168853088,-0.249996206535964,-0.249914550910828,0.24992329018254,0.208320385976838,-0.00103022892709249,0.248134774478007,0.804185020876647,0.799375248884969,0.04,0.0487476661056187,383.701365920951,0.83657429021787,0.337010558819316
8465,-0.136842186921502,0.249930812098183,-0.249995442233714,-0.249495614103466,0.249931763403575,-0.249999616857139,-0.00448631231111173,0.249999869444067,0.813502471221948,0.799375248884969,0.04,0.0243216011170955,388.153570843136,0.763046885104002,0.373772235724763
8525,-0.111009047039316,0.249915276452922,-0.249995822047571,-0.249526914099756,0.249937310512814,-0.249999647232642,-0.00521291375263128,0.249998568426981,0.80331034800408,0.799375248884969,0.04,0.0237885729615892,383.218638047774,0.724912678148709,0.388432539402285
8585,0.17315549166473,0.249744384355054,-0.25,-0.249871214058951,0.249998328714447,-0.249999981363176,0.189486168429599,0.249984257239036,0.792201326524004,0.799375248884969,0.04,0.0359752010149654,377.950419992126,0.754347836332712,0.368144112574592
8645,0.179559149396943,0.208206166254271,-0.25,-0.249871143279039,0.226787881291203,-0.208335102682097,0.194528987727133,0.249985569135783,0.798492495714213,0.799375248884969,0.04,0.0345864977593011,380.897175821166,0.766668215917443,0.365052199899066
8705,0.249999384451282,-0.248714232854347,-0.25,-0.249870364700003,-0.0285270403644782,0.24997856280978,0.25,0.25,0.802310397149975,0.799375248884969,0.04,0.0298106868612593,382.914210843738,0.755872901368725,0.372226582343254
8765,0.208332836165891,-0.24881184464625,-0.25,-0.24988116764167,-0.0469831203341051,0.249976958963108,0.208334601134545,0.208333333333333,0.798860501391439,0.799375248884969,0.04,0.0277833983584284,381.359579218072,0.755089399713317,0.371100006984856
8825,-0.249999194973409,-0.249885574357186,-0.25,-0.25,-0.25,0.249959316649724,-0.155671673774646,-0.155671673774646,0.801252586726813,0.799375248884969,0.04,2.46021894721241e-09,381.891121541633,0.65599416789801,0.427754177589532
8885,-0.208338197815698,-0.249895109827421,-0.208352295475495,-0.249989016395432,-0.208336860332674,0.249960212611839,-0.224163273985917,-0.230718920291173,0.782088847978785,0.79807569405879,0.04,1.54941458702426e-09,373.139798851247,0.734449504997455,0.373305429827108
8945,0.249932770919119,-0.25,0.249772454294063,-0.249868196745188,0.24995767600791,0.249970068195112,0.0598733624090636,-0.249940548690653,0.760674910823445,0.782481036144647,0.04,0.0430218808471243,362.704519623875,0.75951413476183,0.350890639522622
9005,0.249935706578285,-0.249992630462182,0.249790486193489,-0.249878767348079,0.249952552452354,0.249972562181626,0.0757171607269098,-0.249933539984809,0.765935471166241,0.766886378230505,0.04,0.0453105142429481,365.307307735772,0.789353986442758,0.340048786806035
9065,0.249967998829111,-0.249911565546181,0.249988837087178,-0.249995043979878,0.249896193341241,0.24999999603328,0.249998942223216,-0.249856444220516,0.75130376009378,0.751291720316362,0.04,0.0569400652490648,358.391286604014,0.792184798224324,0.332418828342301
9125,0.249970665575118,-0.249918934875221,0.249989767329913,-0.249994639492222,0.24990482589023,0.249996794784176,0.211994000177802,-0.208201740642228,0.740381460684526,0.735697062402219,0.04,0.0632409805858287,353.077673392408,0.768542959311217,0.33756451272515
9185,0.249999999781194,-0.249999997494664,0.25,-0.249990190128007,0.249999783929114,0.249961581044027,-0.20606036232175,0.24999999871894,0.724200556012098,0.721401959314255,0.04,0.0663565590877799,345.466424755454,0.745488066891899,0.34050212431139
9245,0.249999999798914,-0.249999943147879,0.208333606337869,-0.208324415607328,0.249999801935021,0.249964782623691,-0.168055332128271,0.249999998825695,0.722295077708131,0.721401959314255,0.04,0.0625174636211279,344.470583751813,0.737478222476262,0.343208169576249
9305,0.24999999999384,-0.249999345333253,-0.249996723945567,0.249999104120139,0.25,0.25,0.25,0.25,0.715235108302574,0.721401959314255,0.04,0.0595954086913322,341.384112961098,0.769274908388916,0.326074183540769
9365,0.249998970812297,-0.249999399861508,-0.249996996950103,0.249999178776794,0.249999994433887,0.208333339597275,0.208333333750525,0.249999923306581,0.721662598413775,0.721401959314255,0.04,0.0543057782530571,344.510587199564,0.774634260535139,0.326783822106581
9425,0.249987649815322,-0.249999999672321,-0.25,0.25,0.249999933206641,-0.249999924832703,-0.0909503908162143,0.249999079678978,0.73309813507251,0.721401959314255,0.04,0.038759225995485,349.671887891523,0.701802164460101,0.366100811284804
9485,0.249988448979376,-0.208333333032961,-0.25,0.208333333333333,0.249999938772754,-0.249999931096645,-0.0746608691684952,0.248624598516807,0.723256174853664,0.721401959314255,0.04,0.0366158289319755,345.071015867793,0.678761945997218,0.373547360972941
9545,0.249997239783968,0.25,-0.25,-0.25,0.25,-0.25,-0.0712769866910549,0.233505305732925,0.72269629811634,0.721401959314255,0.04,0.0363317804238112,344.783535854808,0.670487187820825,0.377842418144772
9605,0.249997469801971,0.249999585494609,-0.208346590330977,-0.25,0.224043952195289,-0.249999883104729,-0.0756674382797553,0.234879838238952,0.722327958394906,0.722815071124627,0.04,0.034357028273071,344.657867550239,0.666747653672245,0.379823102478428
9665,0.25,0.249995025935306,0.249840916028274,-0.25,-0.0614725736565284,-0.24999859725675,-0.0847283216499027,0.249999695805251,0.733581881983697,0.739772412849086,0.04,0.0349547610592452,350.085150943631,0.698676721773848,0.36817313261768
9725,0.208333923568598,0.249995366090337,0.249854173025918,-0.208333334795516,-0.0771831925184843,-0.249998714152021,-0.0682803269786726,0.20833663767441,0.750222435883187,0.756729754573545,0.04,0.0290291188934682,358.115245248024,0.740333371899072,0.355426790165644
9785,-0.249992917176828,0.249999107795677,0.25,0.249999982453812,-0.25,-0.25,0.249999996968545,-0.123857407791659,0.767250227117033,0.773687096298004,0.04,0.0222813695657711,366.280828232406,0.762495617094504,0.352964893753642
9845,-0.208327170216772,0.208332585696212,0.211662728356544,0.249999962186609,-0.249862722381195,-0.21940170262333,0.2083333305545,-0.160618898620491,0.785228609597433,0.790644438022463,0.04,0.0187707006389386,374.915953415077,0.792828008598392,0.3474638383703
9905,0.249996046343849,-0.249999157397903,-0.210047259721475,0.249999739247378,-0.248352668574345,0.117179568520042,-0.208185542782931,0.25,0.800255491389501,0.807601779746922,0.04,0.0170169529447676,382.063433423611,0.820312246144447,0.342224387925643
9965,0.249996078822715,-0.249999192446198,-0.171710378552788,0.249997705976334,-0.206823384012518,0.086581271143372,-0.249999909015567,0.208335094381097,0.819713426955746,0.82455912147138,0.04,0.018235528233483,391.449949363319,0.851822266362931,0.337661798468273
10025,0.249996436090238,-0.249999577977435,0.249995314302763,0.249975339994855,0.249998746167574,-0.25,-0.2499989081868,-0.249978867426833,0.838853411498934,0.841516463195839,0.04,0.0284387006258521,400.166632538757,0.875218792108755,0.335953302719751
10085,0.208330066416052,-0.249999613145983,0.249995704775334,0.208310728328617,0.208332183986943,-0.249984463337127,-0.249994591449956,-0.249980628474597,0.852177315458801,0.858473804920298,0.04,0.0271452380158109,406.755852394641,0.911651194577429,0.327838369550854
10145,-0.25,-0.25,0.249999999973614,-0.25,-0.25,-0.249813560045526,-0.249947107344665,-0.25,0.889162653947179,0.875431146644757,0.04,5.02911502775089e-05,424.101521836225,0.833998388117137,0.373645103970667
10205,-0.249990181483392,-0.208333333333333,0.24999827731655,-0.25,-0.208333341460127,-0.249828364934721,-0.249951373003404,-0.208333338677518,0.895905157555397,0.892388488369216,0.04,0.00261235182543915,427.457428950931,0.793254240098384,0.395945255560782
10265,-0.249882177800707,0.25,0.249979328088844,-0.25,0.249999902478478,-0.249991218715866,-0.249998295249535,0.249999935869781,0.873753611944233,0.909345830093675,0.04,0.0294171145882101,417.316659833966,0.976712046791927,0.313945205211223
10325,-0.208225406999444,0.25,0.208314384086163,-0.249998432057136,0.249989464976963,-0.208325439211975,-0.208331772570285,0.249999941213966,0.914757988211089,0.926303171818134,0.04,0.0311474401616221,436.466714063453,1.06343846941896,0.301573682124539
10385,0.249999071814442,0.25,-0.249999999943331,-0.249981184685636,0.249874652460296,0.249998135330821,0.249999976901468,0.25,0.922052035860027,0.943260513542593,0.04,0.0505716878033032,440.236077240173,1.18916706120707,0.27201786970071
10445,0.249999149163239,0.208333333333333,-0.219858723230863,-0.249928950865414,0.208225832195917,0.249998288218745,0.249999967247752,0.249999997202844,0.954465617737358,0.960217855267052,0.04,0.0531858291753345,455.681836304936,1.24547905309986,0.268831382958619
10505,0.25,-0.25,0.111695320606286,-0.249354378842971,-0.249911190712246,0.249999969985906,0.249999861056865,0.249999966434133,0.984562578566517,0.974396565126324,0.04,0.0492770193159998,469.685523297323,1.21631142223221,0.283737714137189
10565,0.208333333333333,-0.230959442326019,0.0815575885159449,-0.249358840756951,-0.249918591486226,0.249891106819714,0.224842806903932,0.231097674178607,0.972286534485136,0.958010324468547,0.04,0.0602192290169573,463.989548278444,1.13682819749542,0.299894179606038
10625,-0.25,-0.0215133079122319,-0.249957464477816,-0.249407921810735,-0.25,0.248693611991595,-0.0518847887783337,0.0231724593678196,0.973439507654171,0.94162408381077,0.04,0.0485051115258175,464.182856555899,0.964250353726149,0.353715398197335
10685,-0.249999967027925,0.00111273969334991,-0.208294391816379,-0.249456010881943,-0.249978528273379,0.207135810992296,-0.0267277231191164,0.0022154728927627,0.938842335217082,0.925237843152993,0.04,0.0503115906646038,447.878640379751,0.86084114787419,0.382289182845222
10745,-0.249999604335103,0.24999926335475,0.249999407459435,-0.249984990665229,-0.249742339280547,-0.25,0.249999999132274,-0.228311378332863,0.913618944017123,0.908851602495216,0.04,0.0564068908732316,435.633443191321,0.821054893209772,0.389855526771636
10805,-0.249999627322668,0.249999301736244,0.208332900849192,-0.222263074916592,-0.20809730704586,-0.208344750067706,0.249998132771492,-0.188452126391565,0.897057292377394,0.892465361837439,0.04,0.0525366441935591,427.492901355726,0.790701141457072,0.397256688533578
10865,-0.249999880185886,0.24999972393268,-0.249998671863479,0.0826779983184123,0.249998047535697,0.249862999187525,0.249977602802887,0.249999644962703,0.861689040712308,0.876079121179662,0.04,0.0649576245710883,411.357734583858,0.865239181008532,0.349331835893126
10925,-0.249977490709948,0.212948912231344,-0.216055823475125,0.0549548318061243,0.241151610832945,0.249874415921898,0.249979047988335,0.249999674549144,0.861049267390591,0.859692880521885,0.04,0.062331187344927,410.708774999075,0.870585216615119,0.346638957583146
10985,-0.249731206474639,-0.194610016483358,0.157315508796763,-0.249999999829044,0.143840807102674,0.25,0.249994945028264,0.25,0.854134762835818,0.843306639864108,0.04,0.0560149485226328,407.448613915281,0.81882548431814,0.365625241478997
11045,-0.208116979097973,-0.176684682563729,0.165039216397033,-0.208334421153909,0.111023463282485,0.249998033849253,0.249983209154146,0.25,0.832952454417481,0.826920399206331,0.04,0.057123410238314,397.498234092426,0.778287160400839,0.375275328731186
11105,0.249639522045346,0.0204939905521901,0.25,0.249986944272575,-0.249967318739586,0.249976406191037,0.24985411453885,0.25,0.806292384554189,0.810534158548554,0.04,0.0813954599019295,384.485269230342,0.797111907479753,0.35441744044682
11165,0.249669561046085,-0.00204717532715915,0.249999778081053,0.24998803224986,-0.249943722078309,0.249978078367427,0.20820165623353,0.249999515502441,0.797453257671825,0.794147917890776,0.04,0.0753194627376408,380.504501720348,0.788815872517326,0.35443682263412
11225,0.249999990054213,-0.25,0.249997336972634,0.25,-0.249684158804255,0.249996472307712,-0.0658808247485746,0.249994186029296,0.787233578811908,0.777761677232999,0.04,0.0627614013936574,375.395306162297,0.719067691054711,0.38359570750921
11285,0.208353399037016,-0.218484540014038,0.249997558539556,0.217391807188475,-0.249709505040487,0.249996749903361,-0.03111948661152,0.249527445031105,0.764425892438834,0.761375436575222,0.04,0.0609299901772515,364.53480246916,0.691441903135419,0.387380698624235
11345,-0.249759102152148,0.128185519831544,0.249999995775695,-0.141298313738298,-0.249988313639036,0.249999803455503,-0.0147216260079118,0.244393294050999,0.752888340311368,0.744989195917445,0.04,0.0425660357397233,359.144445432382,0.6507983736601,0.405487407165367
11405,-0.24976762990586,0.138336726512248,0.249981689693923,-0.15035678759344,-0.24998928750245,0.208333153167545,-0.00697498224280061,0.244860412168817,0.731889647307234,0.728602955259668,0.04,0.0391581766178689,349.063745181122,0.62079601799845,0.413152607234068
11465,-0.249861435196689,0.25,0.249780322794424,-0.25,-0.25,-0.25,-0.0137733958731619,0.24999871146482,0.721439460173344,0.712216714601891,0.04,0.0172997158014333,344.191277708092,0.574553412326842,0.440173738716267
11525,-0.208207021303659,0.208333333517843,0.249798326177905,-0.208333333352554,-0.208333333333333,-0.230630388484636,-0.0180600175347534,0.237289283980919,0.699791308987883,0.695830473944114,0.04,0.0198969783718383,333.826712704861,0.54589720196829,0.449329460044615
11585,0.249991531519668,-0.249999997785882,0.249996363396188,0.249999999769349,0.25,-0.0175646618156311,0.249999792151211,0.097485581658007,0.663827458838457,0.679444233286337,0.04,0.0645263452728411,316.690008645474,0.624467178685425,0.372631376602633
11645,0.227943156403792,-0.237801126761632,0.249996666446506,0.249999999784313,0.249993156535078,0.00467430840920201,0.249999809471943,0.0973424573254574,0.662033364868505,0.66305799262856,0.04,0.0616426616200112,315.741659578003,0.649647401291274,0.357115629648348
11705,-0.014588969870836,-0.103613545494879,0.25,0.249999999948912,0.249917878420934,0.249302980882366,0.25,0.0957680896674125,0.646145781239926,0.646671751970783,0.04,0.0682715359041399,308.187349126206,0.653184656960411,0.34668376850267
11765,-0.0342059172574747,-0.0741796893247761,0.249998949026088,0.21562723282261,0.249924717526666,0.249310316937635,0.249999871289347,0.0669540821951281,0.631968746559558,0.630285511313006,0.04,0.0702971654201902,301.468143162824,0.643421888543114,0.344270865384327
11825,-0.2499923385105,0.249592728546354,0.24998738831305,-0.162473205566713,0.249999947689719,0.249391013545596,0.249998455472159,-0.00525301269094567,0.6190436570354,0.613899270655229,0.04,0.0666231615452633,295.234113855758,0.60881169344147,0.356318383193939
11885,-0.249992976967958,0.249623135848623,0.249988417015272,-0.128100438436154,0.249999952048909,0.249441733575665,0.208332021144236,-0.00248107190569373,0.600439600477432,0.597513029997452,0.04,0.0678136463461209,286.399850222278,0.586017050818296,0.359101492636056
11945,-0.25,0.249957616173582,0.249999732739705,0.25,0.25,0.249999653906431,-0.00117170611767247,-0.00117170611767247,0.581903886495749,0.581126789339675,0.04,0.0795635183254898,277.420168141652,0.557480573342501,0.365647803482639
12005,-0.25,0.249955251939267,0.249999755011396,0.208333366961394,0.249999963235877,0.249999682747561,-0.00055320833581471,-0.00055320833581471,0.56455570208048,0.564740548681897,0.04,0.0738074022453599,269.22163665008,0.557878580978603,0.354588746846632
12065,-0.25,0.249929245361798,0.25,-0.249999596463273,0.249999558830519,0.25,0.249999080800262,0.119212291258607,0.541569268902761,0.54835430802412,0.04,0.0654504692049635,258.291304868296,0.565597900315446,0.335549560285861
