time,bias_percent_1,bias_percent_2,bias_percent_3,bias_percent_4,bias_percent_5,bias_percent_6,bias_percent_8,bias_percent_9,normalized_power,power_SP,SP,CV,total_power_MW,fuel_fraction,thermal_efficiency
14,0,0,0,0,0,0,0,0,0.999633628841516,1,0.04,0.040196590831846,476.847368431528,0.998705057546507,0.350830075834518
74,-0.00647132421135041,-0.00169897548641518,-0.00826030410162821,-0.000951069713866787,0.00416850514073917,0.00268992475830055,0.0017811122805067,-0.000256896096123114,0.999367970848524,0.998298556470607,0.04,0.0400031663456936,476.789311154566,0.998101966183324,0.350999320589844
134,-0.0342055708314239,-0.00898029899962319,-0.0436616073943205,-0.005027082773296,0.0220335271724788,0.0142181737224457,0.00941445062553544,-0.00135787936522223,0.993849369528649,0.991006655630352,0.04,0.0408608915120562,474.111228415841,0.982478629010749,0.35457801533548
194,-0.0619398174514973,-0.016261622512831,-0.079062910687013,-0.0091030958327251,0.0398985492042183,0.0257464226865909,0.0170477889705642,-0.00245886263432141,0.986699006895204,0.983714754790097,0.04,0.0410248418617261,470.695797634763,0.964258609601017,0.358675301445917
254,-0.0896740640715708,-0.023542946026039,-0.114464213979705,-0.0131791088921543,0.0577635712359579,0.037274671650736,0.0246811273155928,-0.00355984590342058,0.979312051234787,0.976422853949842,0.04,0.0404204225748324,467.170761354845,0.946320027375769,0.362737369166478
314,-0.117408310691644,-0.030824269539247,-0.149865517272398,-0.0172551219515835,0.0756285932676974,0.048802920614881,0.0323144656606216,-0.0046608291725197,0.971876912580526,0.969130953109587,0.04,0.0393929770198073,463.623201589244,0.929183313589085,0.366621927106677
374,-0.145142557311717,-0.0381055930524549,-0.18526682056509,-0.0213311350110126,0.093493615299437,0.0603311695790263,0.0399478040056503,-0.00576181244161882,0.964407649029949,0.961839052269331,0.04,0.038191931703575,460.059341653253,0.913027210404624,0.37024125479354
434,-0.172876803931791,-0.0453869165656629,-0.220668123857783,-0.0254071480704417,0.111358637331177,0.0718594185431715,0.047581142350679,-0.00686279571071793,0.956896892196102,0.954547151429076,0.04,0.0369423721381827,456.475621918557,0.898093872126261,0.373465537327839
494,-0.200611050551864,-0.0526682400788708,-0.256069427150475,-0.029483161129871,0.129223659362916,0.0833876675073166,0.0552144806957077,-0.00796377897981711,0.949357944079851,0.947255250588821,0.04,0.0357083600610174,452.878726347825,0.884602366738916,0.376173761498185
554,-0.228345297171938,-0.0599495635920787,-0.291470730443167,-0.0335591741893001,0.147088681394656,0.0949159164714619,0.0628478190407365,-0.00906476224891622,0.941834090362906,0.939963349748566,0.04,0.0345495996257319,449.28938216509,0.872556131590699,0.378344527705574
614,-0.256079543792011,-0.0672308871052866,-0.32687203373586,-0.0376351872487293,0.164953703426395,0.106444165435607,0.0704811573857652,-0.0101657455180154,0.93434584239659,0.932671448908311,0.04,0.0335188590690299,445.716899099519,0.861753548014203,0.380041213837694
674,-0.283813790412085,-0.0745122106184946,-0.362273337028552,-0.0417112003081585,0.182818725458135,0.117972414399752,0.0781144957307939,-0.0112667287871145,0.926850419150452,0.925379548068056,0.04,0.0326125022063722,442.140601954797,0.852131417959819,0.381248809737669
734,-0.311548037032158,-0.0817935341317025,-0.397674640321244,-0.0457872133675876,0.200683747489874,0.129500663363897,0.0857478340758226,-0.0123677120562136,0.919325446345086,0.918087647227801,0.04,0.0317887256419004,438.550257434832,0.843850619646981,0.381863784997475
794,-0.339282283652231,-0.0890748576449104,-0.433075943613937,-0.0498632264270168,0.218548769521614,0.141028912328042,0.0933811724208513,-0.0134686953253128,0.911788334052879,0.910795746387545,0.04,0.0310291180592651,434.95428746744,0.837027049582874,0.381820110906452
854,-0.367016530272305,-0.0963561811581185,-0.468477246906629,-0.053939239486446,0.236413791553353,0.152557161292188,0.10101451076588,-0.0145696785944119,0.904258049899381,0.90350384554729,0.04,0.030338166401894,431.361702284299,0.831655758267633,0.381112033580848
914,-0.388279452681028,-0.101938529184911,-0.495618246097694,-0.0570641828320083,0.250110308444353,0.161395485498032,0.106866736830402,-0.015413765767388,0.897529019221991,0.897913388236428,0.04,0.0296136058571231,428.143236998104,0.829283436255981,0.379350598394071
974,-0.388279452681028,-0.101938529184911,-0.495618246097694,-0.0570641828320083,0.250110308444354,0.161395485498032,0.106866736830402,-0.0154137657673879,0.895324765864422,0.897913388236428,0.04,0.0285052704891301,427.152710165253,0.842568413162397,0.372505482064669
1034,-0.388279452681028,-0.101938529184911,-0.495618246097693,-0.0570641828320083,0.250110308444354,0.161395485498032,0.106866736830402,-0.015413765767388,0.894770225466786,0.897913388236428,0.04,0.0281528629543244,426.892405735542,0.860555072073529,0.364497401473833
1094,-0.388279452681028,-0.101938529184911,-0.495618246097693,-0.0570641828320083,0.250110308444354,0.161395485498032,0.106866736830402,-0.015413765767388,0.894649360218349,0.897913388236428,0.04,0.0286043878795071,426.837685634426,0.880076825689637,0.356366480119102
1154,-0.388279452681028,-0.101938529184911,-0.495618246097694,-0.0570641828320083,0.250110308444354,0.161395485498032,0.106866736830402,-0.0154137657673879,0.894854083160345,0.897913388236428,0.04,0.029654631427566,426.937567157679,0.89899159968418,0.348950169515906
1214,-0.388279452681028,-0.101938529184911,-0.495618246097693,-0.0570641828320083,0.250110308444353,0.161395485498032,0.106866736830402,-0.015413765767388,0.895286209344762,0.897913388236428,0.04,0.0310925416086136,427.145123606583,0.915728295035153,0.342738976399014
1274,-0.388279452681028,-0.101938529184911,-0.495618246097694,-0.0570641828320083,0.250110308444354,0.161395485498032,0.106866736830402,-0.015413765767388,0.89584349881901,0.897913388236428,0.04,0.0327252481639787,427.41161267545,0.929328223967642,0.337933982895926
1334,-0.388279452681028,-0.101938529184911,-0.495618246097694,-0.0570641828320083,0.250110308444354,0.161395485498032,0.106866736830402,-0.0154137657673879,0.896434793816613,0.897913388236428,0.04,0.0343893800031752,427.693674175409,0.939409277395703,0.334528141874753
1394,-0.388279452681028,-0.101938529184911,-0.495618246097694,-0.0570641828320083,0.250110308444353,0.161395485498032,0.106866736830402,-0.0154137657673879,0.89699036270045,0.897913388236428,0.04,0.0359577329345869,427.95823626634,0.946055009597103,0.332383667528824
1454,-0.388279452681028,-0.101938529184911,-0.495618246097694,-0.0570641828320083,0.250110308444354,0.161395485498032,0.106866736830402,-0.015413765767388,0.897465264935087,0.897913388236428,0.04,0.0373415190260626,428.184053059431,0.949669552683229,0.331293298322111
1514,-0.388279452681028,-0.101938529184911,-0.495618246097693,-0.0570641828320083,0.250110308444354,0.161395485498032,0.106866736830402,-0.0154137657673879,0.897837363876241,0.897913388236428,0.04,0.0384886955628568,428.360729190898,0.950834695162926,0.33102386494868
1574,-0.388279452681028,-0.101938529184911,-0.495618246097693,-0.0570641828320083,0.250110308444354,0.161395485498032,0.106866736830402,-0.015413765767388,0.898102540028738,0.897913388236428,0.04,0.0393793885166609,428.486414831405,0.950191121960437,0.331345262205646
1634,-0.388279452681028,-0.101938529184911,-0.495618246097694,-0.0570641828320083,0.250110308444354,0.161395485498032,0.106866736830402,-0.015413765767388,0.898269014330404,0.897913388236428,0.04,0.0400197633944569,428.565083889878,0.948352251710683,0.3320486981303
1694,-0.388279452681028,-0.101938529184911,-0.495618246097694,-0.0570641828320083,0.250110308444354,0.161395485498032,0.106866736830402,-0.015413765767388,0.898352155043757,0.897913388236428,0.04,0.0404336036466244,428.60418702869,0.945853267125405,0.332956361757436
1754,-0.388279452681028,-0.101938529184911,-0.495618246097693,-0.0570641828320083,0.250110308444354,0.161395485498032,0.106866736830402,-0.015413765767388,0.89837032790267,0.897913388236428,0.04,0.0406577251947016,428.612416768895,0.943121101972671,0.333927328029596
1814,-0.374513242651432,-0.0943040187558732,-0.48578118331686,-0.0623982105196416,0.246075735507729,0.160798784503707,0.112731662236051,-0.0176476190989508,0.897046951202546,0.896131625235635,0.04,0.0415844759781114,427.866594070378,0.938922435605337,0.334836920932036
1874,-0.315515199667453,-0.0615846883457112,-0.443622342827576,-0.0852583291809267,0.228784708636479,0.15824149452803,0.137867056831689,-0.0272212762342207,0.888599831936792,0.888495498089379,0.04,0.045283988346791,423.890219885488,0.937441229515072,0.332249260149013
1934,-0.256517156683472,-0.028865357935549,-0.401463502338291,-0.108118447842212,0.211493681765229,0.155684204552352,0.163002451427327,-0.0367949333694903,0.881164742670187,0.880859370943123,0.04,0.048914200575791,420.345859377386,0.935816090032698,0.330043316105424
1994,-0.197519113699492,0.00385397247461299,-0.359304661849007,-0.130978566503497,0.194202654893979,0.153126914576674,0.188137846022965,-0.04636859050476,0.874030948182979,0.873223243796867,0.04,0.0526197744982252,416.944637343994,0.931763425018327,0.32879666954023
2054,-0.138521070715512,0.0365733028847752,-0.317145821359722,-0.153838685164782,0.176911628022729,0.150569624600996,0.213273240618603,-0.0559422476400299,0.867130278642082,0.865587116650611,0.04,0.0564849341554899,413.652988628639,0.923678015324508,0.329056319431978
2114,-0.0795230277315322,0.0692926332949373,-0.274986980870437,-0.176698803826068,0.159620601151479,0.148012334625318,0.238408635214241,-0.0655159047752996,0.860074952764858,0.857950989504355,0.04,0.0603606434883545,410.284165059375,0.911564246321388,0.330713671805243
2174,-0.020524984747552,0.102011963705099,-0.232828140381152,-0.199558922487353,0.142329574280229,0.14545504464964,0.263544029809879,-0.0750895619105692,0.85269832704325,0.850314862358099,0.04,0.0636888013756328,406.762969948098,0.897299195419776,0.333087862508941
2234,0.038473058236428,0.134731294115262,-0.190669299891868,-0.222419041148638,0.125038547408979,0.142897754673963,0.288679424405517,-0.084663219045839,0.845201735815312,0.842678735211843,0.04,0.066252464868666,403.18600638625,0.882046933627557,0.335867848402345
2294,0.0974711012204081,0.167450624525424,-0.148510459402583,-0.245279159809923,0.107747520537729,0.140340464698285,0.313814819001155,-0.0942368761811088,0.837794321428969,0.835042608065587,0.04,0.0681650499200761,399.653752613683,0.865781244834686,0.33918012656411
2354,0.156469144204388,0.200169954935586,-0.106351618913298,-0.268139278471208,0.0904564936664793,0.137783174722607,0.338950213596793,-0.103810533316378,0.830461935791029,0.827406480919331,0.04,0.0696749361719318,396.1542086559,0.847651192473379,0.343401172048157
2414,0.215467187188368,0.232889285345748,-0.0641927784240138,-0.290999397132493,0.0731654667952294,0.135225884746929,0.364085608192431,-0.113384190451648,0.823003099023981,0.819770353773075,0.04,0.0705391262472218,392.595130177545,0.828170785973177,0.348321015598075
2474,0.274465230172348,0.26560861575591,-0.0220339379347292,-0.313859515793779,0.0558744399239794,0.132668594771251,0.389221002788069,-0.122957847586918,0.81548099430735,0.812134226626819,0.04,0.0704482572901327,389.005893943965,0.807917364467271,0.353788665679458
2534,0.333463273156328,0.298327946166072,0.0201249025545554,-0.336719634455064,0.0385834130527296,0.130111304795573,0.414356397383707,-0.132531504722188,0.807827778360568,0.804498099480563,0.04,0.0693270421349004,385.352712030054,0.787406463511972,0.359595394310472
2594,0.392461316140308,0.331047276576234,0.0622837430438401,-0.359579753116349,0.0212923861814797,0.127554014819896,0.439491791979345,-0.142105161857457,0.799892878354523,0.796861972334307,0.04,0.067431301116594,381.56469804101,0.768081514507498,0.3650190669886
2654,0.451459359124288,0.363766606986396,0.104442583533125,-0.382439871777634,0.00400135931022965,0.124996724844218,0.464627186574983,-0.0876530718962485,0.790049898818699,0.789225845188051,0.04,0.0663351904344062,376.858923936389,0.75783811309684,0.365390319405309
2714,0.496691192078673,0.388851426967521,0.136764361241576,-0.399965962751286,-0.00925509462439516,0.123036135862865,0.483897655764972,-0.0414039305476755,0.781208487017107,0.781589718041795,0.04,0.0652295673244746,372.657547356381,0.758233732547688,0.361128277211403
2774,0.496691192078673,0.388851426967521,0.136764361241576,-0.399965962751286,-0.00925509462439516,0.123036135862865,0.483897655764972,-0.0195574857723374,0.77385276237135,0.773953590895539,0.04,0.0634859782025748,369.170869815026,0.759081707620741,0.357349826173558
2834,0.496691192078673,0.38885142696752,0.136764361241576,-0.399965962751286,-0.00925509462439527,0.123036135862865,0.483897655764972,-0.00923800758443781,0.766559829531103,0.766317463749283,0.04,0.0629865483843761,365.666918905435,0.757954511114637,0.354484464427695
2894,0.496691192078673,0.388851426967521,0.136764361241576,-0.399965962751286,-0.00925509462439516,0.123036135862865,0.483897655764972,-0.00436344184302446,0.759165820676763,0.758681336603027,0.04,0.0630641275013013,362.139046699056,0.755159903842429,0.352363656305291
2954,0.496691192078673,0.388851426967521,0.136764361241576,-0.399965962751286,-0.00925509462439516,0.123036135862865,0.483897655764972,-0.00206087038452664,0.751726496482766,0.751045209456771,0.04,0.0634069940218077,358.589346020083,0.751068455240284,0.350810461852789
3014,0.496691192078673,0.38885142696752,0.136764361241576,-0.399965962751286,-0.00925509462439527,0.123036135862865,0.483897655764972,-0.00097321780262064,0.744235778078214,0.743409082310515,0.04,0.0638605503492748,355.015133229948,0.745999841726021,0.349673569656628
3074,0.496691192078673,0.388851426967521,0.136764361241576,-0.399965962751286,-0.00925509462439516,0.123036135862865,0.483897655764972,-0.00045944953951849,0.736701006566792,0.735772955164259,0.04,0.0643484697142394,351.419990058995,0.740238360422689,0.348826564857466
3134,0.496691192078673,0.388851426967521,0.136764361241576,-0.399965962751286,-0.00925509462439516,0.123036135862865,0.483897655764972,-0.000216763747602721,0.729133591805792,0.728136828018003,0.04,0.0648380010605174,347.809359317568,0.734003197663438,0.348175324290511
3194,0.496691192078673,0.388851426967521,0.136764361241576,-0.399965962751286,-0.00925509462439527,0.123036135862865,0.483897655764972,-0.000102127640570301,0.721543297268657,0.720500700871747,0.04,0.0653183323540625,344.187879693409,0.727450356096555,0.347653726056513
3254,0.496691192078673,0.388851426967521,0.136764361241576,-0.399965962751286,-0.00925509462439527,0.123036135862865,0.483897655764972,-4.79776347881452e-05,0.713937288777255,0.712864573725491,0.04,0.0657882016844622,340.5589510216,0.720687557797816,0.347216177349133
3314,0.496691192078673,0.388851426967521,0.136764361241576,-0.399965962751286,-0.00925509462439516,0.123036135862865,0.483897655764972,-2.23991045842529e-05,0.706320518161977,0.705228446579235,0.04,0.0662497722619305,336.924919574023,0.713788594570125,0.346831237475255
3374,0.496691192078673,0.388851426967521,0.136764361241576,-0.399965962751286,-0.00925509462439516,0.123036135862865,0.483897655764972,-1.03167197729837e-05,0.698696376926167,0.697592319432979,0.04,0.066705984024094,333.287393555419,0.706803988561125,0.346477128676972
3434,0.496691192078673,0.388851426967521,0.136764361241576,-0.399965962751286,-0.00925509462439516,0.123036135862865,0.483897655764972,-4.60943238923464e-06,0.691067150074272,0.689956192286723,0.04,0.0671595242413919,329.647457141978,0.699768484825796,0.346138595251099
3494,0.496691192078673,0.388851426967521,0.136764361241576,-0.399965962751286,-0.00925509462439527,0.123036135862865,0.483897655764972,-1.91351351315975e-06,0.683434413274232,0.682320065140467,0.04,0.0676125634287322,326.005855519649,0.692706086901618,0.34580484444681
3554,0.496691192078673,0.388851426967521,0.136764361241576,-0.399965962751286,-0.00925509462439527,0.123036135862865,0.483897655764972,-6.4005764915844e-07,0.675799255895934,0.674683937994211,0.04,0.0680667794812056,322.363104270698,0.68563335901856,0.34546819095809
3614,0.492273850255196,0.390461393090502,0.139614613560435,-0.388315775388696,-0.012384312625862,0.124561455775532,0.480633127512321,-3.85225466183803e-08,0.66858629787968,0.668829573848748,0.04,0.0682939489122082,318.950323147064,0.681017717092915,0.344127446773034
3674,0.473342385297437,0.39736124790328,0.151829980641257,-0.338386400977594,-0.0257952469178621,0.131098541115535,0.466642292143817,2.4562116799057e-07,0.666872566384962,0.668829573848748,0.04,0.0666823527845564,318.163346097252,0.691189453698249,0.338226567942952
3734,0.454410920339678,0.404261102716058,0.164045347722078,-0.288457026566493,-0.0392061812098622,0.137635626455539,0.452651456775313,3.79840518134633e-07,0.667081942847985,0.668829573848748,0.04,0.0659385420655993,318.267832753983,0.702379466957421,0.332947390920795
3794,0.435479455381919,0.411160957528836,0.1762607148029,-0.238527652155391,-0.0526171155018623,0.144172711795542,0.438660621406809,4.43240949067578e-07,0.667423828725503,0.668829573848748,0.04,0.0661572225214526,318.430067222383,0.711455957922679,0.328867323787922
3854,0.41654799042416,0.418060812341613,0.188476081883722,-0.18859827774429,-0.0660280497938625,0.150709797135545,0.424669786038305,4.73189049979768e-07,0.667623630943131,0.668829573848748,0.04,0.0667681196851489,318.524311003144,0.719032561232658,0.325498284106065
3914,0.397616525466401,0.424960667154391,0.200691448964544,-0.138668903333188,-0.0794389840858627,0.157246882475548,0.410678950669801,4.87335464050602e-07,0.667717869567662,0.668829573848748,0.04,0.0674633716971306,318.56868074729,0.725858741754731,0.322482121154025
3974,0.378685060508642,0.431860521967169,0.212906816045366,-0.0887395289220869,-0.0928499183778628,0.163783967815551,0.396688115301298,4.94017725194648e-07,0.667760097502207,0.668829573848748,0.04,0.0681406017669029,318.588561529558,0.732345556857675,0.319645654185072
4034,0.359753595550882,0.438760376779946,0.225122183126188,-0.0388101545109853,-0.106260852669863,0.170321053155554,0.382697279932794,4.97174186879824e-07,0.667779518398926,0.668829573848748,0.04,0.0687810168735149,318.597710833115,0.738678431973087,0.316914352934662
4094,0.340822130593123,0.445660231592724,0.23733755020701,0.011119219900116,-0.119671786961863,0.176858138495557,0.36870644456429,4.98665186730804e-07,0.667788534466799,0.668829573848748,0.04,0.069388862872855,318.601955006349,0.744939570806969,0.314254907356478
4154,0.321890665635364,0.452560086405502,0.249552917287832,0.0610485943112177,-0.133082721253863,0.18339522383556,0.354715609195786,4.99369481848994e-07,0.66779204654351,0.668829573848748,0.04,0.0699710908623577,318.60359840443,0.751169855406229,0.311650050456552
4214,0.302959200677605,0.45945994121828,0.261768284368653,0.110977968722319,-0.146493655545863,0.189932309175563,0.340724773827282,4.99702165727655e-07,0.667792204405872,0.668829573848748,0.04,0.0705328355985497,318.603651700826,0.757393061379061,0.309089394182494
4274,0.284027735719846,0.466359796031058,0.273983651449475,0.160907343133421,-0.159904589837864,0.196469394515566,0.326733938458778,4.99859313718976e-07,0.667790182427124,0.668829573848748,0.04,0.0710774021688689,318.602672822483,0.763624395556339,0.306566218426383
4334,0.265096270762087,0.473259650843836,0.286199018530297,0.210836717544522,-0.173315524129864,0.203006479855569,0.312743103090274,4.99933544821714e-07,0.667786746852486,0.668829573848748,0.04,0.0716069369847514,318.601025470974,0.769873760015436,0.3040761290599
4394,0.246164805804328,0.480159505656613,0.298414385611119,0.260766091955624,-0.186726458421864,0.209543565195572,0.29875226772177,4.99968608945457e-07,0.667782431752914,0.668829573848748,0.04,0.0721228746118955,318.598961712259,0.776147426238332,0.301616301873848
4454,0.227233340846569,0.487059360469391,0.310629752691941,0.310695466366725,-0.200137392713864,0.216080650535576,0.284761432353266,4.99985171986131e-07,0.667777600553292,0.668829573848748,0.04,0.072626251060102,318.596653499095,0.782449169813468,0.299184955935476
4514,0.212719217712287,0.492349249159187,0.319994867453904,0.348974653415236,-0.210419109004397,0.221092415962911,0.274035125237413,4.99992995775436e-07,0.667804896991371,0.668829573848748,0.04,0.0729363312163612,318.611049590591,0.78873789366713,0.296812921209471
4574,0.212719217712287,0.492349249159187,0.319994867453904,0.348974653415236,-0.210419109004397,0.221092415962911,0.274035125237413,4.99996691454286e-07,0.668086176317309,0.668829573848748,0.04,0.0727509191377939,318.746402134311,0.79383905820432,0.295030900284559
4634,0.212719217712287,0.492349249159187,0.319994867453904,0.348974653415236,-0.210419109004397,0.221092415962911,0.274035125237413,4.99998437161081e-07,0.668362289807925,0.668829573848748,0.04,0.0727914464898215,318.877461242723,0.797165088557174,0.293920737887707
4694,0.212719217712287,0.492349249159187,0.319994867453904,0.348974653415236,-0.210419109004397,0.221092415962911,0.274035125237413,4.9999926177067e-07,0.668543643983835,0.668829573848748,0.04,0.072913629751264,318.963270944983,0.799207198302034,0.293248612391387
4754,0.212719217712287,0.492349249159187,0.319994867453904,0.348974653415236,-0.210419109004397,0.221092415962911,0.274035125237413,4.99999651286811e-07,0.668650988088947,0.668829573848748,0.04,0.0730325796038492,319.014029213228,0.800470101345441,0.292832546092626
4814,0.212719217712287,0.492349249159187,0.319994867453904,0.348974653415236,-0.210419109004397,0.221092415962911,0.274035125237413,4.99999835280334e-07,0.668714465907018,0.668829573848748,0.04,0.0731226475299444,319.044059330382,0.801274854201841,0.292565980341841
4874,0.212719217712287,0.492349249159187,0.319994867453904,0.348974653415236,-0.210419109004397,0.221092415962911,0.274035125237413,4.99999922192309e-07,0.668753561520367,0.668829573848748,0.04,0.0731844250312853,319.062569065863,0.801802115424861,0.292390552772534
4934,0.212719217712287,0.492349249159187,0.319994867453904,0.348974653415236,-0.210419109004397,0.221092415962911,0.274035125237413,4.99999963246423e-07,0.668778701246276,0.668829573848748,0.04,0.0732252405455579,319.07447869751,0.802153577117628,0.292273351808065
4994,0.212719217712287,0.492349249159187,0.319994867453904,0.348974653415236,-0.210419109004397,0.221092415962911,0.274035125237413,4.99999982638922e-07,0.668795320157519,0.668829573848748,0.04,0.0732519636365748,319.082354159073,0.802389809657386,0.292194515089168
5054,0.212719217712287,0.492349249159187,0.319994867453904,0.348974653415236,-0.210419109004397,0.221092415962911,0.274035125237413,4.99999991799246e-07,0.668806438531375,0.668829573848748,0.04,0.0732694932997687,319.087623514071,0.80254919988116,0.292141308187815
5114,0.212719217712287,0.492349249159187,0.319994867453904,0.348974653415236,-0.210419109004397,0.221092415962911,0.274035125237413,4.99999996126257e-07,0.668813896667031,0.668829573848748,0.04,0.0732810329177832,319.091158178303,0.802657066567133,0.292105283923879
5174,0.212719217712287,0.492349249159187,0.319994867453904,0.348974653415236,-0.210419109004397,0.221092415962911,0.274035125237413,4.99999998170182e-07,0.668818894290005,0.668829573848748,0.04,0.0732886375489556,319.093526657731,0.802730389274374,0.292080770525873
5234,0.212719217712287,0.492349249159187,0.319994867453904,0.348974653415236,-0.210419109004397,0.221092415962911,0.274035125237413,4.99999999135659e-07,0.668822237561093,0.668829573848748,0.04,0.0732936361196733,319.095111057428,0.802780589453146,0.29206395605755
5294,0.212719217712287,0.492349249159187,0.319994867453904,0.348974653415236,-0.210419109004397,0.221092415962911,0.274035125237413,4.99999999591716e-07,0.668824471651137,0.668829573848748,0.04,0.0732968999394908,319.096169797427,0.802815333219053,0.292052285297038
5354,0.212719217712287,0.492349249159187,0.319994867453904,0.348974653415236,-0.210419109004397,0.221092415962911,0.274035125237413,4.99999999807141e-07,0.668825964078326,0.668829573848748,0.04,0.0732990066406572,319.096877064592,0.802839751217865,0.292044049967696
5414,0.214833600900795,0.480260330951547,0.317028820023818,0.347610248902856,-0.201007949919233,0.222352042777115,0.265065766068755,4.999999999089e-07,0.668975402984197,0.668829573848748,0.04,0.0730877307880999,319.174072936316,0.802642100190767,0.29218663461765
5474,0.223895243137256,0.428450681490232,0.304317188180589,0.341762800992655,-0.160674410982812,0.227750443409418,0.226625655345935,4.99999999956968e-07,0.669472998424404,0.668829573848748,0.04,0.0723008287745669,319.407912276918,0.799573258455157,0.293522964903459
5534,0.232956885373717,0.376641032028916,0.291605556337361,0.335915353082453,-0.120340872046392,0.233148844041722,0.188185544623114,4.99999999979673e-07,0.669661357709488,0.668829573848748,0.04,0.0715821629813153,319.496304640319,0.794876586421332,0.295339007380509
5594,0.242018527610179,0.324831382567601,0.278893924494132,0.330067905172252,-0.0800073331099719,0.238547244674025,0.149745433900294,4.99999999990398e-07,0.669733667773586,0.668829573848748,0.04,0.0707551610127081,319.530295831522,0.789568674899574,0.29735606969032
5654,0.25108016984664,0.273021733106285,0.266182292650904,0.32422045726205,-0.0396737941735515,0.243945645306328,0.111305323177473,4.99999999995464e-07,0.669766869546274,0.668829573848748,0.04,0.069803691088456,319.545964049711,0.784002261088077,0.29948198136058
5714,0.260141812083101,0.22121208364497,0.253470660807675,0.318373009351849,0.00065974476286874,0.249344045938631,0.0728652124546527,4.99999999997858e-07,0.669785769376771,0.668829573848748,0.04,0.0687400779734562,319.554907591973,0.778299233336152,0.301684894421961
5774,0.269203454319563,0.169402434183654,0.240759028964447,0.312525561441648,0.040993283699289,0.254742446570934,0.0344251017318322,0.00362759298905052,0.669790251685955,0.668829573848748,0.04,0.067684745034452,319.546713814941,0.772520031431827,0.303933997692959
5834,0.278265096556024,0.117592784722339,0.228047397121219,0.306678113531447,0.0813268226357093,0.260140847203237,4.99999999999522e-07,0.0599049613127439,0.668486078424086,0.668829573848748,0.04,0.0674871627637942,318.918191916073,0.772919795446653,0.303179295353855
5894,0.287326738792485,0.0657831352610234,0.21533576527799,0.300830665621245,0.12166036157213,0.26553924783554,4.99999999999774e-07,0.116182329636437,0.66771410890789,0.668829573848748,0.04,0.0677002571420519,318.565860888158,0.778962992783786,0.300494884743235
5954,0.296388381028947,0.0139734857997079,0.202624133434762,0.294983217711044,0.16199390050855,0.270937648467843,4.99999999999893e-07,0.172459697960131,0.66783338897294,0.668829573848748,0.04,0.0682250552908347,318.624888063707,0.785311952377485,0.298120722281623
6014,0.305450023265408,-0.0378361636616075,0.189912501591533,0.289135769800842,0.20232743944497,0.276336049100146,4.9999999999995e-07,0.228737066283824,0.668008915711157,0.668829573848748,0.04,0.0691028234514795,318.708141715581,0.790563178173786,0.296217868058463
6074,0.314511665501869,-0.0896458131229231,0.177200869748305,0.283288321890641,0.24266097838139,0.28173444973245,4.99999999999976e-07,0.285014434607517,0.668105484274647,0.668829573848748,0.04,0.0700563455407257,318.753597462738,0.795066595062381,0.294582039326965
6134,0.323573307738331,-0.141455462584238,0.164489237905076,0.27744087398044,0.282994517317811,0.287132850364753,4.99999999999989e-07,0.341291802931211,0.668139001498719,0.668829573848748,0.04,0.0709283406522533,318.76921168898,0.799254889175403,0.293052710840484
6194,0.332634949974792,-0.193265112045554,0.151777606061848,0.271593426070238,0.323328056254231,0.292531250997056,4.99999999999995e-07,0.397569171254904,0.668137324915207,0.668829573848748,0.04,0.0716695550424902,318.768218821489,0.803392912390361,0.291542380793164
6254,0.341696592211253,-0.245074761506869,0.139065974218619,0.265745978160037,0.363661595190651,0.297929651629359,4.99999999999998e-07,0.453846539578597,0.668119323855488,0.668829573848748,0.04,0.0722808530448169,318.759554851011,0.807612762603896,0.290011162728663
6314,0.348643851259207,-0.284795492760545,0.129320389805478,0.261262934762216,0.394583975041907,0.302068425447458,4.99999999999999e-07,0.496992521960096,0.667805318269975,0.665901226044212,0.04,0.0735258813970423,318.575331613951,0.807302408256607,0.289954979942082
6374,0.348643851259207,-0.284795492760545,0.129320389805478,0.261262934762216,0.394583975041907,0.302068425447458,4.99999999999999e-07,0.496992521960096,0.658754979883188,0.653351164024771,0.04,0.080410307691712,314.19578555089,0.7775409045709,0.296914759106326
6434,0.348643851259207,-0.284795492760545,0.129320389805478,0.261262934762216,0.394583975041907,0.302068425447458,5e-07,0.496992521960096,0.645738046425113,0.640801102005329,0.04,0.0856754421901803,307.974379317363,0.745665175025084,0.303476735914902
6494,0.348643851259207,-0.284795492760545,0.129320389805478,0.261262934762216,0.394583975041907,0.302068425447458,5e-07,0.496992521960096,0.632240671896186,0.628251039985888,0.04,0.0885783402562288,301.535296920449,0.71919649388747,0.308067065393003
6554,0.348643851259207,-0.284795492760545,0.129320389805478,0.261262934762216,0.394583975041907,0.302068425447458,5e-07,0.496992521960096,0.618948584668887,0.615700977966446,0.04,0.0901590473933346,295.195744950618,0.697696010471037,0.310884113552732
6614,0.348643851259207,-0.284795492760545,0.129320389805478,0.261262934762216,0.394583975041907,0.302068425447458,5e-07,0.496992521960096,0.605903591985119,0.603150915947005,0.04,0.0912157343623084,288.9737007851,0.679646371137985,0.31241364487576
6674,0.348643851259207,-0.284795492760545,0.129320389805478,0.261262934762216,0.394583975041907,0.302068425447458,5e-07,0.496992521960096,0.593039656721534,0.590600853927563,0.04,0.0921611094808558,282.837482914349,0.663815857457281,0.313071848236788
6734,0.348643851259207,-0.284795492760545,0.129320389805478,0.261262934762216,0.394583975041907,0.302068425447458,5e-07,0.496992521960096,0.580294404054888,0.578050791908122,0.04,0.0931681332074761,276.757461960531,0.649373214986168,0.313155212068968
6794,0.348643851259207,-0.284795492760545,0.129320389805478,0.261262934762216,0.394583975041907,0.302068425447458,5e-07,0.496992521960096,0.567623824037921,0.56550072988868,0.04,0.0942914174864288,270.712789938889,0.635789062183407,0.312860257717445
6854,0.348643851259207,-0.284795492760545,0.129320389805478,0.261262934762216,0.394583975041907,0.302068425447458,5e-07,0.496992521960096,0.554999194204959,0.552950667869239,0.04,0.0955357159287748,264.689861058685,0.62273519490196,0.312311927712627
6914,0.348643851259207,-0.284795492760545,0.129320389805478,0.261262934762216,0.394583975041907,0.302068425447458,5e-07,0.496992521960096,0.542402383470844,0.540400605849797,0.04,0.0968889108086386,258.680089221935,0.610011797443611,0.311587082036699
6974,0.348643851259207,-0.284795492760545,0.129320389805478,0.261262934762216,0.394583975041907,0.302068425447458,5e-07,0.496992521960096,0.52982216734996,0.527850543830356,0.04,0.0983361627197988,252.678168740911,0.597499027855042,0.310731437376495
7034,0.348643851259207,-0.284795492760545,0.129320389805478,0.261262934762216,0.394583975041907,0.302068425447458,5e-07,0.496992521960096,0.517251747338916,0.515300481810914,0.04,0.0998651539651778,246.680879996578,0.585125885228998,0.309771068759458
7094,0.348643851259207,-0.284795492760545,0.129320389805478,0.261262934762216,0.394583975041907,0.302068425447458,5e-07,0.496992521960096,0.504687046529519,0.502750419791473,0.04,0.101467298390655,240.686295049801,0.572850753870392,0.308719846112347
7154,0.348643851259207,-0.284795492760545,0.129320389805478,0.261262934762216,0.394583975041907,0.302068425447458,5e-07,0.496992521960096,0.49212566685803,0.490200357772031,0.04,0.103137463758442,234.693280164971,0.560649440682834,0.307584139863329
7214,0.338882180503506,-0.27289297427486,0.127809036132104,0.26128384307632,0.394122503158458,0.300648029686714,5e-07,0.489832307690233,0.479747866997574,0.47765029575259,0.04,0.104673144391568,228.798235160862,0.548260890060752,0.30663383854604
7274,0.297046448693358,-0.221882180764782,0.121331806103358,0.261373450136768,0.392144766515106,0.294560619283528,5e-07,0.459145675105106,0.467686142893095,0.465100233733148,0.04,0.106257289617881,223.033690905994,0.532553046155648,0.307724641609018
7334,0.25521071688321,-0.170871387254704,0.114854576074612,0.261463057197215,0.390167029871753,0.288473208880342,5e-07,0.428459042519979,0.455061292983757,0.452550171713707,0.04,0.107671276784971,217.008815982589,0.516610801198496,0.308651627718429
7394,0.213374985073062,-0.119860593744626,0.108377346045866,0.261552664257663,0.388189293228401,0.282385798477156,5e-07,0.397772409934851,0.442363179776716,0.440000109694266,0.04,0.108656343004269,210.950551021679,0.50150251385684,0.309073824443191
7454,0.171539253262914,-0.0688498002345475,0.10190011601712,0.261642271318111,0.386211556585049,0.27629838807397,5e-07,0.367085777349724,0.429686045097879,0.427450047674824,0.04,0.109380180246961,204.90253420812,0.487214041956412,0.309016884340137
7514,0.129703521452766,-0.0178390067244694,0.0954228859883736,0.261731878378558,0.384233819941696,0.270210977670783,5e-07,0.336399144764597,0.417038593848792,0.414899985655382,0.04,0.109984568711175,198.868647707599,0.47356867798231,0.308558863751902
7574,0.0878677896426181,0.0331717867856086,0.0889456559596276,0.261821485439006,0.382256083298344,0.264123567267597,5e-07,0.30571251217947,0.404413789178945,0.402349923635941,0.04,0.110545248899348,192.845499162589,0.460413968549459,0.30776249372822
7634,0.0460320578324701,0.0841825802956866,0.0824684259308817,0.261911092499453,0.380278346654991,0.258036156864411,0.00997170938337147,0.275025879594343,0.391636079910042,0.3897998616165,0.04,0.11154950457342,186.737283052671,0.447863243249252,0.306365805932462
7694,0.00419632602232218,0.135193373805765,0.0759911959021356,0.262000699559901,0.378300610011639,0.251948746461225,0.0531797616858966,0.244339247009216,0.378482109417111,0.377249799597058,0.04,0.112999006355191,180.472763788841,0.439204125106466,0.301925597944703
7754,-0.0376394057878258,0.186204167315843,0.0695139658733897,0.262090306620349,0.376322873368287,0.245861336058038,0.0963878139884219,0.213652614424089,0.365906729274438,0.364699737577617,0.04,0.114649358321392,174.474685843936,0.43138243199821,0.297183468235396
7814,-0.0794751375979737,0.237214960825921,0.0630367358446437,0.262179913680796,0.374345136724935,0.239773925654852,0.139595866290947,0.182965981838962,0.353413911456568,0.352149675558175,0.04,0.116870668484775,168.514414358355,0.423289376926825,0.292519190113291
7874,-0.121310869408122,0.288225754335999,0.0565595058158977,0.262269520741244,0.372367400081582,0.233686515251666,0.182803918593472,0.152279349253835,0.340904480211965,0.339599613538734,0.04,0.119485274066992,162.545933483641,0.414901242751836,0.287863134169121
7934,-0.16314660121827,0.339236547846077,0.0500822757871517,0.262359127801691,0.37038966343823,0.22759910484848,0.226011970895997,0.121592716668708,0.328364508493761,0.327049551519292,0.04,0.122333866514379,156.562873969889,0.406389638824389,0.283074555744056
7994,-0.204982333028418,0.390247341356155,0.0436050457584057,0.262448734862139,0.368411926794877,0.221511694445293,0.269220023198523,0.0909060840835809,0.315796078104537,0.314499489499851,0.04,0.125338923404226,150.566349845552,0.397931642985499,0.278018773608913
8054,-0.246818064838565,0.441258134866233,0.0371278157296597,0.262538341922586,0.366434190151525,0.215424284042107,0.312428075501048,0.0602194514984539,0.303467366750196,0.301949427480409,0.04,0.128831225266651,144.687359988109,0.388850562275126,0.273402535247387
8114,-0.278892125893012,0.480366409890626,0.0321619393742878,0.26260704066893,0.364917925391622,0.210757269399665,0.345554248932984,0.0366930331831898,0.291697578714285,0.292327713265504,0.04,0.13077111736086,139.119811325645,0.382161033315843,0.267483657953059
8174,-0.278892125893012,0.480366409890626,0.0321619393742878,0.26260704066893,0.364917925391622,0.210757269399664,0.345554248932984,0.0366930331831898,0.288921370628336,0.292327713265504,0.04,0.119103829872984,137.844096935625,0.400124056987884,0.253132661360141
8234,-0.278892125893012,0.480366409890626,0.0321619393742878,0.26260704066893,0.364917925391622,0.210757269399664,0.345554248932984,0.0366930331831898,0.289669911934749,0.292327713265504,0.04,0.11133085779041,138.210317418096,0.418150315915155,0.242863758314253
8294,-0.278892125893012,0.480366409890626,0.0321619393742878,0.26260704066893,0.364917925391622,0.210757269399664,0.345554248932984,0.0366930331831898,0.290717528147878,0.292327713265504,0.04,0.108938302498892,138.708544255697,0.429853270166449,0.2371033308774
8354,-0.278892125893012,0.480366409890626,0.0321619393742878,0.26260704066893,0.364917925391622,0.210757269399664,0.345554248932984,0.0366930331831898,0.291441458768763,0.292327713265504,0.04,0.109016909677514,139.051038255742,0.43647093404937,0.234084999435444
8414,-0.278892125893012,0.480366409890626,0.0321619393742878,0.26260704066893,0.364917925391622,0.210757269399664,0.345554248932984,0.0366930331831898,0.291846915407327,0.292327713265504,0.04,0.109759782773752,139.242436494611,0.440057867486201,0.232496543408401
8474,-0.278892125893012,0.480366409890626,0.0321619393742878,0.26260704066893,0.364917925391622,0.210757269399664,0.345554248932984,0.0366930331831898,0.292056094412616,0.292327713265504,0.04,0.110457559799476,139.341124319329,0.442046557840645,0.231614622196489
8534,-0.278892125893012,0.480366409890626,0.0321619393742878,0.26260704066893,0.364917925391622,0.210757269399664,0.345554248932984,0.0366930331831898,0.292164635524956,0.292327713265504,0.04,0.110946416030977,139.392369500253,0.443213699138463,0.231089653570851
8594,-0.278892125893012,0.480366409890626,0.0321619393742878,0.26260704066893,0.364917925391622,0.210757269399664,0.345554248932984,0.0366930331831898,0.29222488342795,0.292327713265504,0.04,0.111252398534915,139.420853890812,0.443937910861589,0.230759814194977
8654,-0.278892125893012,0.480366409890626,0.0321619393742878,0.262607040668929,0.364917925391622,0.210757269399664,0.345554248932984,0.0366930331831898,0.292261186096409,0.292327713265504,0.04,0.111436400818966,139.438038121078,0.444402984233215,0.230546733508019
8714,-0.278892125893012,0.480366409890626,0.0321619393742878,0.26260704066893,0.364917925391622,0.210757269399664,0.345554248932984,0.0366930331831898,0.29228430607974,0.292327713265504,0.04,0.111546843325162,139.448988866106,0.444705812569934,0.230407833267067
8774,-0.278892125893012,0.480366409890626,0.0321619393742878,0.26260704066893,0.364917925391622,0.210757269399664,0.345554248932984,0.0366930331831898,0.292299342778207,0.292327713265504,0.04,0.111614081018548,139.456111874175,0.444903654482276,0.230317138317682
8834,-0.278892125893012,0.480366409890626,0.0321619393742878,0.26260704066893,0.364917925391622,0.210757269399664,0.345554248932984,0.0366930331831898,0.292309122398695,0.292327713265504,0.04,0.111655612617057,139.460744144907,0.445033134947962,0.230257776690123
8894,-0.278892125893012,0.480366409890626,0.0321619393742878,0.26260704066893,0.364917925391622,0.210757269399664,0.345554248932984,0.0366930331831898,0.292315437125235,0.292327713265504,0.04,0.111681427351627,139.46373482418,0.445118348015453,0.230218633182248
8954,-0.278892125893012,0.480366409890626,0.0321619393742878,0.26260704066893,0.364917925391622,0.210757269399664,0.345554248932984,0.0366930331831898,0.292319486499314,0.292327713265504,0.04,0.111697400458784,139.465652443224,0.445175107988139,0.230192445321338
9014,-0.269843763680511,0.468917387835353,0.0300827903019307,0.253152537895474,0.355037355061388,0.213783801887534,0.335295723770579,0.0375426648076296,0.292607840131511,0.292327713265504,0.04,0.109511049075511,139.628553768563,0.444852785016786,0.230628302361762
9074,-0.231065068484078,0.419850150455609,0.0211721514204003,0.212633240294951,0.312692053646101,0.226754655406976,0.291330615931704,0.0411839431980856,0.293612756627967,0.292327713265504,0.04,0.104905403414275,140.08716790134,0.43833317465711,0.234827357353882
9134,-0.192286373287645,0.370782913075865,0.0122615125388699,0.172113942694428,0.270346752230813,0.239725508926418,0.247365508092829,0.0448252215885417,0.294101458363711,0.292327713265504,0.04,0.100812401354992,140.318814181534,0.428595149788954,0.24055995293236
9194,-0.153507678091212,0.321715675696121,0.00335087365733949,0.131594645093906,0.228001450815526,0.25269636244586,0.203400400253954,0.0484664999789977,0.294368123513041,0.292327713265504,0.04,0.0964437557603449,140.444339615943,0.416791327614183,0.247594072234639
9254,-0.114728982894779,0.272648438316378,-0.00555976522419093,0.0910753474933827,0.185656149400238,0.265667215965302,0.159435292415078,0.0521077783694538,0.294466920303626,0.292327713265504,0.04,0.0913448404126596,140.490547122643,0.404100053286272,0.255454097026597
9314,-0.0759502876983459,0.223581200936634,-0.0144704041057213,0.0505560498928598,0.143310847984951,0.278638069484744,0.115470184576203,0.0557490567599098,0.294492574219965,0.292327713265504,0.04,0.085343387054769,140.502523483804,0.391146820735574,0.263936222115901
9374,-0.0371715925019128,0.17451396355689,-0.0233810429872516,0.010036752292337,0.100965546569664,0.291608923004186,0.0715050767373277,0.0593903351503658,0.294520289078765,0.292327713265504,0.04,0.0784298036822826,140.516086333889,0.378068465647755,0.273092810401054
9434,0.00160710269452028,0.125446726177146,-0.0322916818687821,-0.0304825453081859,0.0586202451543764,0.304579776523627,0.0275399688984524,0.0630316135408219,0.294648681351849,0.292327713265504,0.04,0.0706940742558616,140.578583109676,0.364487228752177,0.28339456847925
9494,0.0403857978909533,0.0763794887974027,-0.0412023207503125,-0.0710018429087087,0.016274943739089,0.317550630043069,5e-07,0.0666728919312779,0.2945313502598,0.292327713265504,0.04,0.0634539129467012,140.510009735752,0.350214280309548,0.294800414137807
