time,bias_percent_1,bias_percent_2,bias_percent_3,bias_percent_4,bias_percent_5,bias_percent_6,bias_percent_8,bias_percent_9,normalized_power,power_SP,SP,CV,total_power_MW,fuel_fraction,thermal_efficiency
53,0,0,0,0,0,0,0,0,0.999826158240441,1,0.04,0.0399095806184678,477.019946416568,1.00000717992864,0.3505000605879
113,0.0175933614149403,0.0233839684088293,-0.0294775408536539,-0.0226143352635831,0.0128143805639379,-0.00797011737040486,-0.0183693099730185,-0.00480207854953545,0.988902489915149,0.982268587436034,0.04,0.0441286133470062,471.66317116849,0.969383752604918,0.357512232824562
173,0.0375103743375142,0.0498563854754285,-0.0628483418200547,-0.0482154695242433,0.0273212264853771,-0.0169928917519952,-0.0391647552254921,-0.0102383938886322,0.969462787008995,0.962195290193809,0.04,0.0481656681722932,462.369383495187,0.924926402532774,0.36731322762152
233,0.0574273872600884,0.0763288025420277,-0.0962191427864553,-0.0738166037849033,0.0418280724068161,-0.0260156661335858,-0.0599602004779658,-0.015674709227729,0.948958435105376,0.942121992951584,0.04,0.0496587095934791,452.58464992613,0.8818765181222,0.377091477931689
293,0.0773444001826622,0.102801219608627,-0.129589943752856,-0.0994177380455635,0.0563349183282552,-0.0350384405151761,-0.0807556457304395,-0.0211110245668257,0.928552594489785,0.922048695709359,0.04,0.0494749178556267,442.850582616634,0.841219177927574,0.386814487570142
353,0.0972614131052362,0.129273636675226,-0.162960744719257,-0.125018872306224,0.0708417642496944,-0.0440612148967666,-0.101551090982913,-0.0265473399059224,0.908186846287612,0.901975398467134,0.04,0.048461493153832,433.133461884121,0.802383097099341,0.396638294097749
413,0.11717842602781,0.155746053741825,-0.196331545685657,-0.150620006566884,0.0853486101711335,-0.053083989278357,-0.122346536235387,-0.0319836552450192,0.887590704776992,0.881902101224909,0.04,0.046891593063229,423.393502181153,0.765865242289323,0.406206159718438
473,0.137095438950384,0.182218470808425,-0.229702346652058,-0.176221140827544,0.0998554560925726,-0.0621067636599475,-0.143141981487861,-0.0374199705841159,0.867276282463743,0.861828803982683,0.04,0.0450847621253874,413.612024347442,0.731286295198393,0.415585510774031
533,0.157012451872958,0.208690887875024,-0.263073147618459,-0.201822275088204,0.114362302014012,-0.0711295380415379,-0.163937426740334,-0.0428562859232127,0.846907053564576,0.841755506740458,0.04,0.0430219011314155,403.890959095543,0.699431572934928,0.42430053097637
