time,bias_percent_1,bias_percent_2,bias_percent_3,bias_percent_4,bias_percent_5,bias_percent_6,bias_percent_8,bias_percent_9,normalized_power,power_SP,SP,CV,total_power_MW,fuel_fraction,thermal_efficiency
47,0,0,0,0,0,0,0,0,0.999783844525773,1,0.04,0.039922135298552,477.000601631074,0.999930918840599,0.350512576893781
107,0.0208110547835713,-0.0129059213618166,-0.00549256465997769,-0.00825476936514326,-0.00537705463044574,-0.0247069962569368,-0.00539140705458033,0.0167356642247522,0.985962998913463,0.977385164742458,0.04,0.0452027864206479,470.20319395131,0.964341121967934,0.358269274714578
167,0.0473783587625986,-0.0293815656534973,-0.0125043493322898,-0.0187927728100069,-0.0122413796905894,-0.0562478425423881,-0.0122740543582999,0.0381003419584784,0.958312797487709,0.948515162286021,0.04,0.0514866633580367,456.980176083273,0.904742363186044,0.37113089674351
227,0.0739456627416256,-0.0458572099451781,-0.0195161340046018,-0.0293307762548707,-0.0191057047507331,-0.0877886888278393,-0.0191567016620195,0.0594650196922045,0.928944828498374,0.919645159829584,0.04,0.0544093966022886,442.96432222022,0.846276507336822,0.384601646741181
287,0.100512966720653,-0.0623328542368589,-0.0265279186769141,-0.0398687796997344,-0.0259700298108768,-0.119329535113291,-0.0260393489657391,0.0808296974259308,0.899449275163536,0.890775157373147,0.04,0.054769224214875,428.893512971283,0.791631469963776,0.398089848817619
347,0.12708027069968,-0.0788084985285396,-0.033539703349226,-0.0504067831445982,-0.0328343548710204,-0.150870381398742,-0.0329219962694588,0.102194375159657,0.870044149645772,0.861905154916711,0.04,0.0536520928364542,414.864017757003,0.740235090523616,0.411804204525992
407,0.153647574678707,-0.0952841428202203,-0.0405514880215379,-0.0609447865894617,-0.0396986799311641,-0.182411227684193,-0.0398046435731783,0.123559052893383,0.840911078463348,0.833035152460274,0.04,0.0514290881827292,400.971706929842,0.69228391012218,0.425582898077553
467,0.180214878657735,-0.111759787111901,-0.0475632726938501,-0.0714827900343255,-0.0465630049913076,-0.213952073969645,-0.0466872908768979,0.144923730627109,0.811327955342894,0.804165150003837,0.04,0.048842620751792,386.820469502892,0.648049798483283,0.438586989222929
527,0.206782182636762,-0.128235431403582,-0.0545750573661621,-0.0820207934791893,-0.0534273300514514,-0.245492920255096,-0.0535699381806175,0.166288408360836,0.781140371667234,0.7752951475474,0.04,0.0456845227840855,372.675091165312,0.608516549524641,0.450000139739315
587,0.233349486615789,-0.144711075695262,-0.0615868420384741,-0.0925587969240529,-0.0602916551115949,-0.277033766540547,-0.0604525854843371,0.187653086094562,0.752502495010735,0.746425145090964,0.04,0.0424005902232414,358.791189991534,0.571317443400793,0.461443956804213
