time,bias_percent_1,bias_percent_2,bias_percent_3,bias_percent_4,bias_percent_5,bias_percent_6,bias_percent_8,bias_percent_9,normalized_power,power_SP,SP,CV,total_power_MW,fuel_fraction,thermal_efficiency
50,0,0,0,0,0,0,0,0,0.999806403167142,1,0.04,0.039915222174023,477.010919495347,0.999970890340036,0.350506147507397
110,-0.0089281107353637,0.022401740525789,0.0205711330784891,0.00331666431801648,0.00409930673998701,0.0105125595538684,0.00754087001762957,0.0108365796968534,0.991200894724296,0.988230721186642,0.04,0.0443966920675563,472.797108584911,0.986322763999586,0.352217095648182
170,-0.0196418436178001,0.0492838291567359,0.045256492772676,0.00729666149963612,0.00901847482797132,0.0231276310185106,0.0165899140387849,0.0238404753330773,0.977312842833474,0.974107586610613,0.04,0.0490981853022047,466.162728832374,0.96636778344273,0.354445755924291
230,-0.0303555765002365,0.0761659177876828,0.069941852466863,0.011276658681256,0.0139376429159558,0.0357427024831527,0.0256389580599403,0.0368443709693013,0.963027423265662,0.959984452034584,0.04,0.0523659422303579,459.345975382445,0.947095842650402,0.356369609887397
290,-0.0410693093826729,0.10304800641863,0.0946272121610499,0.0152566558628757,0.0188568110039402,0.0483577739477948,0.0346880020810958,0.0498482666055254,0.948719474710157,0.945861317458555,0.04,0.0546256390954039,452.520451412488,0.92888390441596,0.357957486931634
350,-0.0517830422651093,0.129930095049576,0.119312571855237,0.0192366530444954,0.0237759790919247,0.0609728454124371,0.0437370461022512,0.0628521622417494,0.934446531780289,0.931738182882526,0.04,0.0562212452394764,445.711053298484,0.911634496053649,0.359242185856813
410,-0.0624967751475457,0.156812183680523,0.143997931549424,0.0232166502261151,0.0286951471799091,0.0735879168770792,0.0527860901234066,0.0758560578779734,0.920197777230165,0.917615048306497,0.04,0.0573714114678806,438.913141643377,0.895185108043585,0.360263622712825
470,-0.0732105080299821,0.18369427231147,0.168683291243611,0.0271966474077349,0.0336143152678934,0.0862029883417213,0.0618351341445621,0.0888599535141974,0.905968745316718,0.903491913730467,0.04,0.0582067112876036,432.124615480583,0.879410022401773,0.361054092086312
530,-0.0839242409124186,0.210576360942417,0.193368650937798,0.0311766445893546,0.0385334833558778,0.0988180598063635,0.0708841781657174,0.101863849150421,0.891756644328244,0.889368779154438,0.04,0.0588079653884183,425.344145943279,0.864202043618241,0.361642820121132
590,-0.0946379737948549,0.237458449573364,0.218054010631984,0.0351566417709744,0.0434526514438622,0.111433131271006,0.0799332221868728,0.114867744786645,0.877558309650945,0.875245644578409,0.04,0.0592254603257232,418.570215152178,0.849471702342518,0.362054609788308
650,-0.105351706677291,0.264340538204311,0.242739370326171,0.0391366389525941,0.0483718195318467,0.124048202735648,0.0889822662080283,0.127871640422869,0.863369821144459,0.86112251000238,0.04,0.0594892918576191,411.800945782205,0.835151534729169,0.362307006264861
710,-0.116065439559728,0.291222626835258,0.267424730020358,0.043116636134214,0.0532909876198312,0.13666327420029,0.0980313102291837,0.140875536059093,0.849186650676325,0.846999375426351,0.04,0.0596162189412226,405.0341805445,0.821200119777107,0.362407641865036
770,-0.126779172442164,0.318104715466205,0.292110089714545,0.0470966333158335,0.0582101557078154,0.149278345664932,0.107080354250339,0.153879431695317,0.834419078288314,0.832876240850322,0.04,0.0600566338845053,397.980062173222,0.809224679353485,0.361365653945313
830,-0.137492905324601,0.344986804097151,0.316795449408732,0.0510766304974534,0.0631293237957999,0.161893417129574,0.116129398271495,0.166883327331541,0.819350502682854,0.818753106274292,0.04,0.0610163975285059,390.794396697635,0.803231077745778,0.357488850149144
890,-0.148206638207037,0.371868892728098,0.341480809102919,0.055056627679073,0.0680484918837842,0.174508488594216,0.12517844229265,0.179887222967765,0.804786942762683,0.804629971698263,0.04,0.0625141829685672,383.849734886062,0.800909075348594,0.352154065429087
950,-0.14999226035411,0.376349240833256,0.345595035718617,0.0557199605426764,0.0688683532317816,0.17661100050499,0.126686616296176,0.182054538907136,0.798573620572805,0.802276115935592,0.04,0.0587870804692495,380.993227961583,0.817025934396324,0.342638444863089
1010,-0.14999226035411,0.376349240833256,0.345595035718617,0.0557199605426763,0.0688683532317816,0.17661100050499,0.126686616296176,0.182054538907136,0.799036064171181,0.802276115935592,0.04,0.0553449836626599,381.228975244056,0.83827525426503,0.334159591948151
1070,-0.14999226035411,0.376349240833256,0.345595035718617,0.0557199605426763,0.0688683532317816,0.17661100050499,0.126686616296176,0.182054538907136,0.800069962056417,0.802276115935592,0.04,0.0543181498054863,381.720689495004,0.853549083543978,0.328603265946015
1130,-0.14999226035411,0.376349240833256,0.345595035718617,0.0557199605426764,0.0688683532317817,0.17661100050499,0.126686616296176,0.182054538907136,0.80084007797589,0.802276115935592,0.04,0.0544167151587095,382.085735181811,0.863591692531682,0.325092570434004
1190,-0.14999226035411,0.376349240833256,0.345595035718617,0.0557199605426764,0.0688683532317817,0.17661100050499,0.126686616296176,0.182054538907136,0.801342928612246,0.802276115935592,0.04,0.05484570732999,382.323865112426,0.870109502472543,0.322858461348692
1250,-0.14999226035411,0.376349240833256,0.345595035718617,0.0557199605426764,0.0688683532317816,0.17661100050499,0.126686616296176,0.182054538907136,0.801663102468649,0.802276115935592,0.04,0.0552838596210903,382.475473911691,0.874371879789899,0.321411998833223
1310,-0.14999226035411,0.376349240833256,0.345595035718617,0.0557199605426764,0.0688683532317817,0.17661100050499,0.126686616296176,0.182054538907136,0.801868076898808,0.802276115935592,0.04,0.0556361281118925,382.572555687573,0.877195559675539,0.320458697970102
1370,-0.14999226035411,0.376349240833256,0.345595035718617,0.0557199605426763,0.0688683532317816,0.17661100050499,0.126686616296176,0.182054538907136,0.802001492928993,0.802276115935592,0.04,0.0558941168491153,382.635764467081,0.879088885981787,0.319821346470948
1430,-0.14999226035411,0.376349240833256,0.345595035718617,0.0557199605426763,0.0688683532317816,0.17661100050499,0.126686616296176,0.182054538907136,0.802089871154923,0.802276115935592,0.04,0.0560752295936209,382.677646640869,0.880369737738493,0.319390993493816
1490,-0.14999226035411,0.376349240833256,0.345595035718617,0.0557199605426763,0.0688683532317816,0.17661100050499,0.126686616296176,0.182054538907136,0.80214921790452,0.802276115935592,0.04,0.0561999624425779,382.70577617613,0.88124116210087,0.319098614732864
1550,-0.14999226035411,0.376349240833256,0.345595035718617,0.0557199605426763,0.0688683532317816,0.17661100050499,0.126686616296176,0.182054538907136,0.802189417884799,0.802276115935592,0.04,0.0562851837694035,382.724832380638,0.881836013494175,0.318899241810472
1610,-0.14999226035411,0.376349240833256,0.345595035718617,0.0557199605426764,0.0688683532317817,0.17661100050499,0.126686616296176,0.182054538907136,0.802216778470613,0.802276115935592,0.04,0.0563432472590287,382.737803002088,0.882242899018625,0.318762969826512
1670,-0.14999226035411,0.376349240833256,0.345595035718617,0.0557199605426763,0.0688683532317816,0.17661100050499,0.126686616296176,0.182054538907136,0.802235443518898,0.802276115935592,0.04,0.0563827790467764,382.746651592478,0.882521643506946,0.318669655748655
1730,-0.14999226035411,0.376349240833256,0.345595035718617,0.0557199605426764,0.0688683532317817,0.17661100050499,0.126686616296176,0.182054538907136,0.802248188943784,0.802276115935592,0.04,0.0564096901913855,382.7526939437,0.8827129108581,0.318605635693529
1790,-0.14999226035411,0.376349240833256,0.345595035718617,0.0557199605426764,0.0688683532317817,0.17661100050499,0.126686616296176,0.182054538907136,0.802256895363188,0.802276115935592,0.04,0.0564280054393839,382.756821474174,0.882844428294946,0.318561608244307
1850,-0.125697910593469,0.342635240939895,0.33382197437525,0.0313686736079109,0.0603606410210399,0.177027340748516,0.0982728199854357,0.155443513485664,0.805519527327342,0.804517055572292,0.04,0.0533738880958039,384.343936755263,0.8796753129867,0.321034943446977
1910,-0.0965446908806997,0.302178441067861,0.319694300763209,0.00214712928619235,0.0501513863681498,0.177526949040747,0.0641762644125475,0.123510282979898,0.808890438337056,0.807206183136333,0.04,0.0502108712572286,385.931724613073,0.87077966968583,0.325654343883372
1970,-0.0673914711679305,0.261721641195828,0.305566627151169,-0.0270744150355263,0.0399421317152599,0.178026557332978,0.0300797088396594,0.0915770524741317,0.811886395805305,0.809895310700373,0.04,0.0468428328303304,387.363934819638,0.859466153778563,0.331165495860873
