time,bias_percent_1,bias_percent_2,bias_percent_3,bias_percent_4,bias_percent_5,bias_percent_6,bias_percent_8,bias_percent_9,normalized_power,power_SP,SP,CV,total_power_MW,fuel_fraction,thermal_efficiency
34,0,0,0,0,0,0,0,0,0.999659539376651,1,0.04,0.0399674363688363,476.944886472349,0.999711565893333,0.350548535097661
94,0,0,0,0,0,0,0,0,0.999961035832566,1,0.04,0.0398989625679794,477.08207121664,1.00025378721391,0.350459282850354
154,0,0,0,0,0,0,0,0,0.999995977560477,1,0.04,0.0399391483185768,477.098162311227,1.00031507097428,0.350449631770744
214,0,0,0,0,0,0,0,0,1.00000098036379,1,0.04,0.0399709918237837,477.10048642677,1.00031573128818,0.350451107601211
274,0,0,0,0,0,0,0,0,1.00000266355405,1,0.04,0.0399902528820588,477.101280576739,1.00030266525679,0.350456268566293
334,0,0,0,0,0,0,0,0,1.00000359163614,1,0.04,0.0400012506876287,477.101718604156,1.00028272047465,0.350463578125477
394,0,0,0,0,0,0,0,0,1.00000396907866,1,0.04,0.0400070612009098,477.101894709526,1.00025942883129,0.350471868245368
454,0,0,0,0,0,0,0,0,1.00000391143342,1,0.04,0.0400095905767351,477.101864318089,1.00023566020914,0.350480174190512
514,0,0,0,0,0,0,0,0,1.00000356321809,1,0.04,0.0400100805577721,477.101696445475,1.00021345737935,0.350487830859107
574,0,0,0,0,0,0,0,0,1.00000305694918,1,0.04,0.0400093749091573,477.101454129555,1.0001940271776,0.35049446157403
634,0,0,0,0,0,0,0,0,1.00000249446222,1,0.04,0.0400080504994875,477.101185497844,1.00017789935588,0.350499915931887
694,0,0,0,0,0,0,0,0,1.00000194422876,1,0.04,0.0400064923161929,477.100923440287,1.00016512551405,0.350504199901506
754,0.141666608686294,0.0279179433913687,0.140543001399488,0.141666666666667,-0.0150964364896024,0.141666164153946,0.031568347102402,0.133060862614082,0.986138412007591,1,0.04,0.0551584315510359,470.358119749393,1.03761470049851,0.333078964534754
814,0.249999897681695,0.0492669589259448,0.248017061293213,0.25,-0.0266407702757691,0.249999113212847,0.0557088478277683,0.234813286966028,0.991294801478729,1,0.04,0.0604733764990874,473.051395208888,1.12297695698184,0.30952245345006
874,0.249999928475645,-0.120306583077395,0.249140726560392,0.249890622903142,0.1301223328805,0.249986871609208,0.107528255746782,0.243381286445531,0.996157308677987,1,0.04,0.0606897191389734,475.278367888487,1.14895296455347,0.303948828773724
934,0.249999952023959,-0.249980468138771,0.25,0.249806981593779,0.25,0.249977510382896,0.147154861802498,0.249933286047505,0.999946166073668,1,0.04,0.0609103305979387,477.101129180422,1.15913770157967,0.302433634746553
994,-0.0333333175149558,-0.183899468338125,0.249995399602055,0.249901334524021,0.249525101309681,-0.0333321465979193,0.205433773447749,0.249970226294894,1.00857309271294,1,0.04,0.0542406603452419,481.278739571297,1.13378865887053,0.311902779520095
1054,-0.249999935397656,-0.133366939078807,0.249991881650685,0.249973486764794,0.249161943487672,-0.249980707818542,0.25,0.249998474719368,1.00787797324372,1,0.04,0.0505691848857502,480.799263378427,1.07064845896915,0.329967809474381
1114,0.0332043905287359,-0.199452427237252,0.249996471060187,0.249949867285718,0.249548696698962,0.0333416790691366,0.25,0.24999933904506,0.995012362916988,1,0.04,0.0581258980310679,474.609298062281,1.06422491534889,0.32768570509475
1174,0.249772404472447,-0.249988388770179,0.24999998060863,0.24993180533113,0.249844449154655,0.249999974924421,0.25,0.25,0.996120684575053,1,0.04,0.0593585191363519,475.310400161353,1.10580696509806,0.31582948511359
1234,0.249872437825645,-0.0915136881330725,0.249988550124612,0.249966492638188,0.24992985369918,0.249999989133915,-0.0333316980256606,0.249999999582948,1.00563367096531,1,0.04,0.0574114533523469,479.846775579079,1.09481551878474,0.322044815733453
1294,0.249948933919266,0.0296728476482447,0.249979809166246,0.249993018225939,0.249995163056759,0.25,-0.055804635738355,0.249999999264026,0.999565808335133,1,0.04,0.059324413813716,476.870686646612,1.08455390110511,0.323075602210123
1354,0.249975872265408,-0.128808432685761,0.249832400603224,-0.03333635876876,-0.0333354293420713,0.25,0.124194346849371,0.249851900123279,1.00565706314723,1,0.04,0.0447921681999999,479.907372220166,1.07525464992312,0.327944814712104
1414,0.249996472177163,-0.25,0.249719676407972,-0.25,-0.25,0.25,0.249999553497686,0.249738647839178,1.0069287757224,1,0.04,0.0375453345419794,480.353541534873,1.01996278590655,0.346044018568761
1474,0.249998471276771,0.0333061022047481,0.249878526443454,0.0332750343443088,-0.154166159541803,0.25,0.249999763488786,0.249886747396977,0.992906980192294,1,0.04,0.0518132878319695,473.602431315076,1.02280229862974,0.340233367873963
1534,0.25,0.249951945067202,0.25,0.249897119431133,-0.0808814580149475,0.25,0.249999924070216,0.25,0.987877876673732,0.989984336440719,0.04,0.0592712186779252,471.263475131395,1.06487129533156,0.325178136093921
1594,0.25,0.249978978073127,0.249999983817764,-0.0291004416403915,-0.175545439778469,0.180876126940094,0.249999491329928,0.25,0.982707021916617,0.972309636041988,0.04,0.0542447646004611,468.80655678933,1.03232678706881,0.333680752905735
1654,0.25,0.249999650371774,0.249999971443113,-0.24245151775391,-0.247935543479986,0.128016694600166,0.249999160410885,0.25,0.965000569389771,0.954634935643257,0.04,0.0539588029411556,460.210556759629,0.955181365394801,0.354018055051633
1714,0.249203745555355,0.249999632509199,-0.0333333457079843,0.035602880893918,0.0340695011260981,0.196680682118192,0.24999963617805,0.0304904759855423,0.943362709620008,0.936960235244526,0.04,0.0601656919406635,449.916194034316,0.909267073141288,0.363575690006767
1774,0.248594845097684,0.249999618849582,-0.25,0.248232715154022,0.249720417589574,0.249188437279035,0.25,-0.000249298106183698,0.920955323822423,0.919285534845795,0.04,0.0631365881674823,439.259991595734,0.899190336682638,0.358942343693024
1834,-0.0339417927691186,-0.0333254555297082,-0.25,-0.0321029275948615,0.249878847622149,0.249648322820915,-0.000496900480042776,0.0820079062460507,0.91928611430464,0.901610834447064,0.04,0.0368619690727684,438.576111031446,0.841615055635376,0.382900693164716
1894,-0.249999221726086,-0.249985806525636,-0.25,-0.246477242638125,0.25,0.25,-0.0136858993769743,0.249767289104237,0.89615500732552,0.883936134048333,0.04,0.0250765634231508,427.293214598455,0.738556488376271,0.425105725934586
1954,-0.120935429768307,0.0333226412172302,0.0333333246572659,-0.146876857097454,0.25,0.249999411410712,0.131069837706726,0.22105960861853,0.849568943563348,0.866261433649602,0.04,0.0471443777939182,405.034282091623,0.752972954231222,0.395245635118332
2014,-0.0222395888594173,0.249970277726481,0.249999984689293,-0.0707118563898824,0.25,0.249998961313021,0.249969344510729,0.199106676482402,0.841938633422057,0.848586733250871,0.04,0.0592822464543824,401.680145948417,0.835706076042718,0.353168111215724
2074,0.131742255945134,0.249313337528973,0.249998546379082,0.111024783940131,0.249998614407793,0.249990806711241,0.24998670514244,-0.0152849997097746,0.835826472989214,0.83091203285214,0.04,0.0670906400142099,398.471297232964,0.824719372030894,0.355014036127999
2134,0.249493078442732,0.248810971495585,0.249997446494804,0.249999861839552,0.249997554837281,0.249984570839292,0.249999980919631,-0.00721982454773025,0.812511132189706,0.813237332453409,0.04,0.0758143106714302,387.519430575746,0.828538372714058,0.343665180567775
2194,0.249780333991851,0.249484754314753,0.249998893481082,0.249999883819094,0.0850938844910019,0.24999331403036,0.249999957760854,-0.00341012363445579,0.798606620735558,0.795562632054678,0.04,0.0728201188896738,380.911830276116,0.820421418602369,0.341147464220092
2254,0.25,0.25,0.25,0.24999990062698,-0.0410089222443883,0.25,0.249999940051201,-0.00161055688517882,0.781422794469432,0.777887931655947,0.04,0.0728015307346237,372.661987288739,0.794480027877729,0.344656749451036
2314,0.249998617328265,0.25,0.249999901950372,0.249999956938358,-0.159437190137982,0.249999966612963,0.249973205579536,-0.000760505776502578,0.764661564969094,0.760213231257216,0.04,0.0714129999339877,364.697805581206,0.7719853259091,0.347119315868895
2374,0.249997559991056,0.25,0.249999826971244,0.25,-0.249999983233084,0.249999941081699,0.249952761571792,0.13990712437728,0.7447593796546,0.742538530858485,0.04,0.073138491566535,355.2047691591,0.761319768649708,0.342820163359442
2434,0.249788297084223,0.249999999048793,-0.0333203851200188,0.25,0.0333333404789329,0.249999974179206,0.249856056494278,0.202231925742635,0.724550485082085,0.724863830459754,0.04,0.0775543704227773,345.525297829363,0.751829640177942,0.337687576215591
2494,0.249628272508411,0.249999998321399,-0.24997701789569,0.25,0.249999999788122,0.249999999489064,0.249782105552649,0.2498920679632,0.710080766502166,0.707189130061023,0.04,0.0784476875390592,338.663446635485,0.743734284789274,0.334584022490269
2554,0.249838918086978,0.249987390785506,0.0333432922452008,0.0994534183162202,0.249701029684231,0.249999999778594,0.249898721340244,0.249930053554853,0.692494465910905,0.689514429662292,0.04,0.0866398842346734,330.247684282296,0.72231341768941,0.335945458858317
2614,0.25,0.249977749728646,0.25,-0.0156704382654938,0.249472405487138,0.25,0.249987898118994,0.249959101360235,0.674320500277299,0.671839729263561,0.04,0.089912628033908,321.572985614633,0.704831761256105,0.335234547229473
2674,0.249998717325978,0.249990358215747,-0.0333333333333333,0.134854083536164,0.249765803681484,0.24999990462839,0.249937781543041,0.249965644884865,0.656571532358037,0.65416502886483,0.04,0.0897647861066562,313.125391286809,0.690399724911809,0.333251683882005
2734,0.249997736457607,0.25,-0.25,0.249961070796256,0.249990167006572,0.249999831697159,0.249899457102606,0.24997064875664,0.648743437823367,0.653111834254343,0.04,0.0818470178901946,309.54921205876,0.692421196175001,0.328483852311662
2794,0.24999901913163,0.249920824776587,-0.249911831404944,0.249979015841062,0.249995739036181,-0.0333328503355318,0.249911670436354,0.249987281127877,0.662774687011341,0.664769202893691,0.04,0.0636996935774343,316.356478389768,0.720095083256946,0.322805973788482
2854,0.25,0.249860279017507,-0.249844408361666,0.249992738522384,0.25,-0.249999018948766,0.249921010044515,0.25,0.674353618422855,0.676426571533039,0.04,0.0554283101710305,321.799989896298,0.724705712079868,0.326271408662118
2914,-0.0333153441480243,0.24993945424092,-0.249918686122572,0.249991918169769,0.249999998851521,-0.249963923086614,0.142353658197312,0.25,0.689914900108086,0.688083940172387,0.04,0.0399686642715889,329.314474690288,0.731980139850031,0.330572101362598
2974,-0.249968254378867,0.25,-0.249975486763264,0.249991290841299,0.249999997973272,-0.249937085074381,0.0600962714906282,0.25,0.700687043543209,0.699741308811735,0.04,0.0288659615034531,334.32785550039,0.713152107100544,0.3444649745972
3034,-0.249961538072767,0.249953195974954,-0.249912773003733,0.24999622603123,0.249421092983673,0.0333593503471898,0.167698813593925,0.24999466393606,0.701585519926516,0.711398677451083,0.04,0.0379145050313255,334.744605765666,0.744483206000679,0.330379702812549
3094,-0.249956402073986,0.249917404661683,-0.249864815422915,0.25,0.248978400932803,0.249997800963685,0.249983110496446,0.249990583416577,0.715954296668139,0.723056046090431,0.04,0.0405927059814138,341.725925696079,0.805573504644743,0.311693274235334
3154,0.0333498536217493,-0.0333462033523126,0.0333919133167367,0.249988601834709,0.249557307070882,0.249998376665028,-0.00489932039106199,-0.0333364887409616,0.740651192095384,0.734713414729778,0.04,0.0382192711577571,353.542484623877,0.80387729847465,0.323151757082189
3214,0.249995813859664,-0.249959550657133,0.25,0.249979885590663,0.25,0.249998816907231,-0.0382064263624081,-0.0382064263624081,0.741930826001403,0.746370783369126,0.04,0.0463111400290958,354.067065502088,0.820362945343323,0.317127695909073
3274,-0.0333267414586823,-0.011665736967872,0.249995189205667,0.249991283755954,-0.0333223210792848,-0.0333255514994687,-0.0319560125417851,-0.0319560125417851,0.765059080859277,0.758028152008474,0.04,0.0287565902943353,365.231505129078,0.818001221702334,0.328071841986312
3334,-0.249985166113889,0.170558944088622,0.249991510362942,0.25,-0.249980566610503,-0.249985362634004,-0.0499901495353204,-0.0499901495353204,0.775314682867176,0.769685520647822,0.04,0.0183698302093661,369.905460867916,0.760566968927436,0.357361661620474
3394,-0.249973777899209,0.215575391508167,0.249854330583899,-0.0333108026338656,-0.249991578864551,-0.249990964578191,-0.091110261443609,-0.091110261443609,0.785597244219241,0.78134288928717,0.04,0.00591548272125127,374.833476225583,0.742837606126394,0.370765371252312
3454,-0.249965069264453,0.249999733652525,0.249749428399925,-0.249960239942116,-0.25,-0.249995248417863,-0.160085491144397,-0.160085491144397,0.78652154048831,0.793000257926518,0.04,4.53961103812741e-08,375.2611731444,0.749709310022985,0.36778617839398
3514,-0.24993971996743,0.249999884582761,-0.0334419143600325,-0.249966664020761,-0.25,0.0333232451299415,0.0333373446936085,-0.206688200163904,0.820185760538553,0.811485269119045,0.04,0.000692675729298386,391.352716813185,0.774736509619046,0.37116670089506
3574,-0.249920335210882,0.25,-0.25,-0.249971576551489,-0.25,0.249978563725321,0.249999999990577,-0.173567980872868,0.818294659719808,0.821757933952448,0.04,0.0157512585280887,390.392632902812,0.80344620391934,0.357025706000649
3634,-0.249965478591382,0.249986136964057,-0.249490287413413,-0.24998721933153,-0.25,0.249989690440857,0.249933142468132,-0.216876686252383,0.82023032677437,0.821757933952448,0.04,0.0202857803284243,391.342965144255,0.817401794530174,0.351784435726576
3694,-0.25,0.249975535818924,-0.24910050720014,-0.249999181457444,-0.25,0.249998199105679,0.249882016127439,-0.249995108013188,0.820253037124804,0.821757933952448,0.04,0.0247759250635847,391.343537343029,0.825016673326016,0.348537985698027
3754,0.0333321372569499,0.249989398854867,0.033693608684503,0.0333130507648286,0.0333323007551569,0.249998599175743,0.249948873655224,-0.249897792765227,0.796690014887418,0.821757933952448,0.04,0.0539459113232289,380.041885149415,0.902892757486241,0.309278671086421
3814,0.24999788927697,0.25,0.249947932596289,0.249963581287743,0.249998177803218,0.249998905111675,0.25,-0.249823375222669,0.809849858558705,0.821757933952448,0.04,0.069384820173596,386.540144265105,1.02393831596327,0.27738021854856
3874,-0.0333342460662453,0.248842741953877,-0.0333554336389052,-0.0333419212171716,-0.033314791409067,0.249999294204736,0.224435711058922,-0.249540280135145,0.837684938313957,0.821757933952448,0.04,0.0491465762535461,399.929473613572,1.00261268307514,0.293092627093503
3934,-0.249999996622822,0.247957779918606,-0.249999184289348,-0.249987305485636,-0.249965885512579,0.249999591746489,0.204886548927509,-0.249323795656449,0.837514843661781,0.821757933952448,0.04,0.0412359953344935,399.428819586901,0.863422601468592,0.339915258669278
3994,-0.134479681610697,0.248772915799293,-0.249942260208204,0.0331957881087446,0.0333481162778824,0.249969743417185,0.230450837868587,0.0333435916216404,0.808125238502594,0.821757933952448,0.04,0.0619986715036803,385.361377840338,0.867377673189767,0.326448459427285
4054,-0.0461406171896593,0.249396255002172,-0.249898730028506,0.249747565563271,0.25,0.249946918224189,0.25,0.249501005422532,0.814396084886358,0.821757933952448,0.04,0.0651198618369147,388.68492253053,0.955967935638326,0.298750777898833
4114,-0.153987626952391,0.028092875970847,0.0333616811497168,-0.0334415005481565,0.24996720698755,-0.0333560213895441,-0.033143036549283,0.249783564371851,0.837646348677827,0.821757933952448,0.04,0.0478801630417096,399.831313745627,0.921394696306479,0.318849523390834
4174,-0.236458869712126,-0.14113911975899,0.249972583815417,-0.249997845221601,0.24994212997803,-0.249999445800046,-0.249664182145793,0.249999638862507,0.833944423563957,0.821757933952448,0.04,0.0400825642747199,397.748213973435,0.80840383127616,0.361521850535175
4234,0.0392011564580786,-0.0255646544959092,-0.0333361564099838,0.0333342670706396,-0.0332799567830568,-0.249788192194511,-0.249832477767307,0.249054947293899,0.825616773321182,0.821757933952448,0.04,0.0391084355928929,393.863647051472,0.771873601163704,0.374933621207933
4294,0.25,0.0628158189405641,-0.249984016582349,0.25,-0.249861552541535,-0.249626645319689,-0.249961174419052,0.248332536094376,0.822815205665882,0.821757933952448,0.04,0.0382285878604414,392.564752187571,0.762567719538129,0.378257511910272
4354,-0.0333285255891267,0.168886676693064,-0.24820624624594,-0.0333324740771581,-0.249936869942384,-0.249838212971839,-0.220696723589001,-0.03402729701617,0.839181894272245,0.821757933952448,0.04,0.0133874360872671,400.602645551765,0.715901527203314,0.411164111700855
4414,-0.249991515745518,0.249999685562622,-0.246846774812216,-0.249998483665573,-0.249994465601857,-0.249999999999954,-0.198318025895433,-0.249949522335999,0.82611485906238,0.821757933952448,0.04,2.66650026257273e-05,393.959851184393,0.629301014605471,0.45998980793314
4474,0.0333367313965384,0.249809640890713,-0.248633596435539,-0.249999258299957,-0.2499783640904,0.0333333318178297,0.0555947993913564,-0.249977697896003,0.804156427781101,0.821757933952448,0.04,0.0188751868408523,383.953948994134,0.669554947728862,0.421354456202617
4534,0.249999508622817,0.249664312612194,-0.249999989441609,-0.249999850667427,-0.249966051169874,0.249999997325547,0.249763430493019,-0.249999243912476,0.809838331968554,0.821757933952448,0.04,0.0316696246365406,386.481794343183,0.795107603771194,0.357155884840312
4594,0.249913029723025,0.24984777235016,0.0333144175602304,-0.249999107891248,0.0333471808513622,0.249941789984993,0.0204306057629735,-0.194384670128606,0.808549034197284,0.821757933952448,0.04,0.0463667374409736,385.789756495175,0.861344850479369,0.329100321600237
4654,0.249846898799655,0.249988065090958,0.249966611149872,-0.249998539885935,0.249998475926425,0.249897278489275,-0.154941554324708,-0.15185587841153,0.816320544858539,0.821757933952448,0.04,0.0575199771030502,389.534640244467,0.915539157388442,0.312625095147468
4714,0.243727562841602,0.249206926515116,-0.0332570183313684,0.033333639119993,0.249995725394495,0.249955429830555,0.0745247731467942,-0.20747080655848,0.817408602702646,0.821757933952448,0.04,0.0638888307393738,389.977550233473,0.93648793868406,0.30597933381614
4774,0.239048070638384,0.248609585251237,-0.249839793817023,0.249999423065702,0.249993622046548,0.249999898503297,0.249999023566179,-0.249999869259089,0.821228181094762,0.821757933952448,0.04,0.0656090506129102,391.844857828715,0.95225970682497,0.302352399711149
4834,0.245233264742622,0.246536295744403,-0.249930576530073,0.24971780032513,0.249995243034598,0.249933291554949,0.249949505840612,-0.248172185099171,0.823761546690417,0.821757933952448,0.04,0.0672145010893008,393.026067334749,0.943681641990627,0.306020503611369
4894,0.249963119057627,0.244950839062707,-0.249999998604757,0.24950244175881,0.249996482613695,0.249882356829741,0.249911639344591,-0.246774544270998,0.824553627164478,0.821757933952448,0.04,0.067270528415422,393.398177052538,0.92824029698402,0.311405731231206
4954,0.249981479764236,0.247812030260506,0.0333333339379384,-0.0335488211696691,0.249998475799268,-0.0333843111626504,0.0774210551253549,-0.102776630380279,0.830382937195641,0.821757933952448,0.04,0.060250173875745,396.245763678321,0.895675927572337,0.325063649038041
5014,0.249995520304584,0.25,0.25,-0.249999786938506,0.25,-0.24999999845095,-0.0544835092775904,0.00733942141850662,0.828983244063166,0.821757933952448,0.04,0.0549562830347025,395.448180697572,0.836260557055396,0.347458263426038
5074,-0.0066708323083227,0.0354833417500328,0.249999914947904,0.0333334256599805,0.249974544517542,-0.249999999328745,0.118057145979711,0.144835722099556,0.814556160916216,0.821757933952448,0.04,0.051769028274469,388.556036976483,0.841558595447554,0.339253218983532
5134,-0.202945101953487,-0.128558808676413,0.249999849908066,0.25,0.249955078560367,-0.25,0.25,0.249979952032123,0.821997892292463,0.821757933952448,0.04,0.0432183472705024,392.21199417145,0.863210197300995,0.333855845544259
5194,0.0537237317336245,-0.197374606861046,0.249999482988943,0.249999999321043,0.249980534042826,-0.25,0.249999841924035,0.249990859242815,0.820597484118756,0.821757933952448,0.04,0.0484876122574234,391.464788307252,0.85918767040719,0.334779875963293
5254,0.249999898670827,-0.249998452531649,0.249999202403731,0.24999999880184,0.25,-0.25,0.249999721042415,0.24999920005099,0.821030278752276,0.821757933952448,0.04,0.0517008400253687,391.738737816133,0.870312571662939,0.330731788200878
5314,0.249999956090692,-0.249999329430381,0.249983723344085,-0.033333324106502,-0.0333333333333334,-0.249996876297437,0.24999987911838,0.249800329770811,0.830723183694548,0.821757933952448,0.04,0.036753066715192,396.450013290435,0.846756182592809,0.344020827925105
5374,0.25,-0.25,0.249971886416121,-0.249999982801117,-0.25,-0.249994487583712,0.25,0.249648252497733,0.824389567913768,0.81350804971476,0.04,0.0313452817807631,393.150843800296,0.767619684021546,0.376329085920748
5434,-0.0332950351978061,-0.249989061892995,0.249480017082637,-0.24994665233375,-0.25,-0.249997527416348,-0.0271820932103351,0.249847171738829,0.817562904428845,0.798949430471783,0.04,0.0158521961817382,390.071297761029,0.689739622690849,0.415540632384076
5494,-0.249932415054952,-0.249980697458227,0.249103881709973,-0.249905870211646,-0.25,-0.249999851994247,-0.0794081743424992,0.249999286452609,0.797253468133259,0.784390811228805,0.04,0.00941258254934105,380.321270822988,0.58789556833865,0.475340813864272
5554,-0.249970546413507,0.033341216859113,0.00150650652017885,0.0333740470338703,0.0333212586411466,0.0333324557074528,-0.13664852632125,0.249997766218602,0.752207239869223,0.769832191985827,0.04,0.0306790659653542,358.58093959489,0.619030422430883,0.425627699840415
5614,-0.249999705687696,0.249999151337079,-0.187832662742605,0.249999866103971,0.249978691719671,0.249998338067577,-0.169666573719304,0.249996603686715,0.747841530960541,0.75527357274285,0.04,0.0424695725017646,356.795928902682,0.705287171865006,0.371713711997986
5674,0.0333333343622349,0.100608315094677,0.0602725128115379,-0.033333391354946,0.249990766411857,0.249985687435942,-0.179735059452197,0.249995487574389,0.7379549236613,0.740714953499872,0.04,0.0513340557305971,351.943555466345,0.71930531644531,0.359512854377531
5734,0.249999776753358,-0.0136317361495118,0.25,-0.25,0.25,0.249976013423515,-0.165469266245325,0.249994634076729,0.726877517649771,0.726156334256894,0.04,0.0604897299193052,346.719811509439,0.72654624906768,0.350646952827845
5794,0.249998625479151,0.135759385399884,0.249999970162256,0.0333333068471156,0.249988252282115,0.249989605816781,0.033331819655997,0.249997674766582,0.707200930757984,0.711597715013916,0.04,0.0820457354733063,337.171645022312,0.725562793964591,0.341452830037322
5854,0.249997745092993,0.249999654820011,0.249999947345158,0.249999953259616,0.249979268733145,0.249999999999866,0.249993070568184,0.25,0.694435947226868,0.697039095770939,0.04,0.0902628390864592,331.269033024781,0.762053310983613,0.319411215837427
5914,0.24999902287363,0.249999045868212,0.249999823584147,0.249999979745834,0.249982437530684,0.249999999999942,0.249994455440831,0.25,0.683926791617914,0.682480476527961,0.04,0.0911376485826923,326.195192664455,0.757271618093319,0.316504983416746
5974,0.25,0.249998580199189,0.249999728943374,0.25,0.249984860728803,0.25,0.249995514461091,0.25,0.669743140778689,0.667921857284983,0.04,0.0929803488637335,319.418389995343,0.745793661317784,0.314699392638349
6034,0.25,0.249999355864144,-0.0333334507912045,-0.0333333333333333,0.249991095405301,0.25,0.249994479003714,0.25,0.65983609127453,0.653363238042006,0.04,0.0818783907374347,314.763380152479,0.723034518860213,0.31987466567529
6094,0.25,0.249999949019698,-0.25,-0.25,0.249995863099094,0.25,0.249993687183367,0.25,0.647551703312551,0.638804618799028,0.04,0.0759853000754465,308.79672271373,0.663767771598828,0.341830804241505
6154,0.195927804361194,-0.0333263088678457,-0.249999976514729,0.0333333333333334,0.249998198794,-0.0333332216331285,-0.00150920337128633,-0.00150920337128633,0.650824326142819,0.62424599955605,0.04,0.0532520886521433,310.515445036776,0.570039232150504,0.400251655339285
6214,0.15457847828446,-0.249987564899497,-0.249999958555404,0.25,0.249999984913635,-0.249999802881991,-0.000718128631208393,-0.000718128631208393,0.617384184915083,0.609687380313072,0.04,0.044362767691654,294.330482695904,0.482547220697559,0.448177552266212
6274,0.00934564863950158,-0.24986124955469,-0.249992140525953,0.25,0.249999993462575,0.0333323846658421,0.0467401661846512,-0.00199943791744419,0.592271778465946,0.595128761070095,0.04,0.0360158448651608,282.391398600167,0.478408559856419,0.433717752904108
6334,-0.101714750500761,-0.249764655467484,-0.249986162032843,0.25,0.25,0.249998175143597,0.25,-0.00585545119318553,0.580396852934829,0.580570141827117,0.04,0.0356331839308726,276.810271344116,0.500196581962159,0.406626948739024
6394,0.097512798491016,-0.249775187345905,0.033339329785768,0.24999951212483,0.249999923019346,0.249999176441336,0.25,-0.0108429931238799,0.55720517747211,0.566011522584139,0.04,0.0558786282437711,265.682834503258,0.513842900205127,0.379916199428396
6454,0.249863277131786,-0.249783241135285,0.25,0.249999139043817,0.249999864151786,0.249999942139607,0.25,-0.00517259890184643,0.546846112687063,0.551452903341161,0.04,0.0706048037131202,260.860994517624,0.561677639675673,0.341253164177133
6514,0.249940199690611,-0.249900461900089,0.249974161577484,0.249999626918987,0.249999787790573,0.249996033947186,-0.00244308753614234,0.083734709913898,0.541727603126704,0.536894284098184,0.04,0.071292356447332,258.275378375076,0.550504641152147,0.344728109748551
6574,0.24999902282383,-0.249990101308469,0.249954402783795,0.25,0.249999729396705,0.249993045329453,-0.00115376354431913,0.249999105542718,0.522308543288329,0.522335664855206,0.04,0.0792147150486148,249.111213740307,0.557895046846499,0.328091854535817
6634,0.249999494936382,0.0333376227663301,0.249965597001605,0.249998158655216,0.249933760162091,-0.0330646691977794,-0.000544732904507744,0.249984930569257,0.517360290685212,0.516026929849916,0.04,0.0813866644152273,246.862281564382,0.551972314085707,0.328618583990405
6694,0.249999855963628,0.25,0.249974157285813,0.249996750568029,0.249883313100327,-0.249520568542134,-0.000257048565594369,0.249974090883669,0.514338987911302,0.516026929849916,0.04,0.0804609102048245,245.348209339168,0.547713169944798,0.329142819543212
6754,-0.0333308378726467,0.249984158333623,-0.0333444425155811,0.0464841280700391,0.249917458183936,-0.249786539831866,0.141581069258143,-0.000240382494384464,0.521119311202165,0.516026929849916,0.04,0.044918528197207,248.769076202307,0.54773764856645,0.333717112104074
6814,-0.249995486100386,0.249972044118159,-0.249999842363706,-0.109143171487247,0.249943569130225,-0.249989929641662,0.249990864073919,-0.0156093802256175,0.520288965603377,0.516026929849916,0.04,0.0189322875009734,248.215142184376,0.50418345427063,0.361738187899071
6874,0.0333340268560985,0.249986212267835,-0.2499966295919,-0.188962040977807,0.249912689632077,0.0333376971552798,0.24999573110314,0.0333337518456102,0.508068450979774,0.516026929849916,0.04,0.0461814565768594,242.051507561253,0.505178586657346,0.352060689041163
6934,0.249997772058116,0.249997046735234,-0.249994172766402,-0.25,0.249889075898199,0.25,0.249999452949014,0.249998151137893,0.509948012099357,0.516026929849916,0.04,0.0607687841025642,243.422690487413,0.584004836234341,0.306266355776235
6994,0.0219058017395707,0.249946317265916,0.0333341549766759,-0.249997305870935,0.24995093181568,0.25,0.0327440208619769,-0.0250105149080844,0.528573122905986,0.516026929849916,0.04,0.052522098112481,252.322151381989,0.555828803004579,0.333556191970873
7054,-0.152517469680493,0.249907524142319,0.249996993839029,-0.249995245654591,0.249998233399635,0.25,-0.0118138070864107,-0.0118138070864107,0.517316618595949,0.516026929849916,0.04,0.0604710731084744,246.75225318718,0.522632592554773,0.346911992634951
7114,-0.207757569736627,0.115207996678907,0.249998102523477,-0.249392629805133,-0.0332747439768941,0.249999999890864,0.083863250039165,-0.00606493356674317,0.518456410350709,0.516026929849916,0.04,0.0373337814587887,247.319193466314,0.520162558596264,0.349360185449637
7174,-0.249999999191317,0.0122024756774742,0.249998950340996,-0.248931805920254,-0.249895256088358,0.249999999807406,0.249999989384729,-0.0161498410078197,0.518220221843747,0.516026929849916,0.04,0.0241767346696633,247.214599852208,0.498962897834044,0.3640495834398
7234,-0.249999948023114,-0.136378927206428,0.24998381587532,0.0337563942930126,-0.249952724836322,0.249999926605483,0.249991680433395,-0.0422123114223261,0.514074771050581,0.516026929849916,0.04,0.0290802215133949,245.25964513093,0.501641431219088,0.359242221693787
7294,-0.249999908894488,-0.25,0.249972242460391,0.249929723867864,-0.249996671525942,0.249999870627542,0.249985326529434,-0.0678474760369788,0.515632760065613,0.516026929849916,0.04,0.0321980026593559,246.010412820545,0.508967729558723,0.355154988151933
7354,0.0333221567327273,0.0332167485599086,0.237709306983658,0.168664543737237,-0.249998557661241,0.204265773109099,0.249960536111108,0.107901893559778,0.501260664878271,0.516026929849916,0.04,0.0583595612278732,239.077606857316,0.535644208595825,0.327957194467571
7414,0.249980206918245,0.249794262164544,0.228331768089685,0.106520582460876,-0.25,0.169292639712644,0.249941578732389,0.24999965386014,0.510169991382074,0.516026929849916,0.04,0.0701074282394463,243.52846246309,0.609039399252643,0.293804886558647
7474,0.247081682627589,0.249909499381726,0.240610213433644,0.108499209545591,-0.249980188380824,0.0084332616824978,0.249974684117368,0.249970938243454,0.520219765235912,0.516026929849916,0.04,0.069058317031971,248.242770947137,0.60095599801752,0.303520907781408
7534,0.244865164052382,0.249997621959571,0.249999612814319,0.110012277316256,-0.249965038319102,-0.11457685092879,0.25,0.249948979242459,0.519789411047029,0.516026929849916,0.04,0.0713575014920489,247.957350132255,0.570760652243074,0.319210844532615
7594,-0.0144264090865332,0.249998969515814,0.106455783711501,-0.0938416610046419,-0.249984849735671,0.0840595066168015,0.111365052049077,-0.00711048827519082,0.528983456237424,0.516026929849916,0.04,0.0443481545757136,252.490804594418,0.532541169092074,0.348375058937473
7654,-0.212708200310409,0.25,-0.0033130267788888,-0.249729966779446,-0.249999999642459,0.235957897681078,0.00535009185131195,-0.0120807805517855,0.522434148598675,0.516026929849916,0.04,0.0255585035142968,249.13903287625,0.464845839756421,0.393810691028446
7714,-0.232682489201997,0.249976654483177,0.140123729822284,-0.249882799199852,-0.249976585080504,0.0335945313297931,0.143979975201643,-0.0375897595359908,0.513094448435945,0.516026929849916,0.04,0.0177883787160131,244.770811127676,0.464152676178074,0.387483705725606
7774,-0.247956945413211,0.249958802029135,0.249810661340827,-0.249999671050751,-0.249958679827244,-0.121153925291777,0.249991062469544,-0.0811557451273753,0.515436883872866,0.516026929849916,0.04,0.0146700358003108,245.889328467723,0.47181979853516,0.382928945975306
7834,-0.24876709029819,-0.0333445204832387,-0.0334097727436423,-0.249769124711993,-0.24963384117646,-0.19416670095977,-0.0328079362682675,-0.14087930027579,0.498879646951201,0.516026929849916,0.04,3.15778343713728e-09,237.791983814896,0.496883138612694,0.351639478122885
7894,-0.249386612857291,-0.249988237698583,-0.249990104690589,-0.24959282457059,-0.24938543514939,-0.25,-0.223115622484912,-0.223115622484912,0.473750123597025,0.516026929849916,0.04,9.53522361636248e-11,226.377102540254,0.795737500677586,0.209034200515046
7954,-0.190229750569483,0.0333384297415915,-0.249995709713511,-0.0484574571291466,-0.249733688564735,-0.25,0.033738046194339,-0.249475085332683,0.548777718069893,0.516026929849916,0.04,6.51276518196499e-07,262.594176071003,0.798451958525503,0.241652323720218
8014,-0.144992149996453,0.249999998960549,-0.249999995907511,0.105351941502545,-0.25,-0.25,0.249999959380935,-0.249073679998852,0.52727165297036,0.516026929849916,0.04,0.0431006639901227,251.495120781252,0.637403448199203,0.289914429556055
8074,0.0788367350015369,0.249145366119227,-0.249999998226588,0.187319174620689,-0.249935645773254,-0.249811225470322,0.0149005515608391,-0.248974178348261,0.52518707250827,0.516026929849916,0.04,0.0549438844603872,250.566257822618,0.581839490232187,0.31642739005008
8134,0.25,0.248491823358215,-0.25,0.249999999946328,-0.249886433717506,-0.249666868477039,-0.164881348536881,-0.24889808885075,0.521967453882308,0.516026929849916,0.04,0.0630491085812994,248.992841548583,0.53406398517201,0.34256914648357
8194,-0.0333302221806107,0.24934645678856,-0.249999808321386,0.129434357416601,-0.249945809231416,-0.249855643006717,0.0702180822790985,0.0338108281646748,0.508545721033878,0.516026929849916,0.04,0.0567169612833474,242.625713173117,0.542338980681364,0.328715876753054
8254,-0.249994509730489,0.25,-0.249999661743623,0.0372371013644575,-0.24999121403617,-0.25,0.249999999961906,0.25,0.51807338451192,0.516026929849916,0.04,0.047682049149533,247.206669310251,0.529898299515982,0.342785413929913
8314,-0.249415031410783,0.25,-0.249999853348235,0.157802666402224,-0.249996192749007,-0.191565075858133,-0.0332925174119354,0.228620155713028,0.517878191288386,0.516026929849916,0.04,0.0371464589269697,247.105836216491,0.516969998709206,0.351214419995775
8374,-0.248971900931007,0.25,-0.24999999986941,0.249999863195811,-0.25,-0.146879545631999,-0.249927971874285,0.212270863022991,0.51734456289849,0.516026929849916,0.04,0.0306005983422767,246.78630062842,0.507132351805196,0.357564510881369
8434,-0.2495544889129,-0.0333333333333333,-0.249994310727735,0.249858919855364,0.0333333333333334,0.0779724830279017,-0.248852758700422,-0.0496825369565653,0.516611786844587,0.516026929849916,0.04,0.0245796703833742,246.569272772444,0.510843291407123,0.354654876785193
8494,-0.249999997369641,-0.25,-0.249989960207631,0.249751139653846,0.25,0.24991815200312,-0.248030536861586,-0.249999842823285,0.517648676953911,0.516026929849916,0.04,0.0273897354026835,246.903662261762,0.484806375186009,0.374208704888433
8554,-0.249999998860178,0.0333333321521556,-0.24999563895603,0.143750697421293,0.24999999854235,0.249964308605498,0.0341867606811366,-0.249998791395957,0.503322001753586,0.516026929849916,0.04,0.0426356123889221,240.018983473934,0.512533720660166,0.344094574198404
8614,-0.25,0.249999997915569,-0.249999981528334,0.0626915357140476,0.249999997427677,0.249999604830847,0.249999988213807,-0.249997987363293,0.508467427505134,0.516026929849916,0.04,0.047721129094976,242.686057153991,0.590629611424631,0.301914718399548
8674,-0.0987343142186418,0.24999997538055,0.0333058556323305,-0.114500319820594,0.249958010576821,0.249909208098235,0.249997634149931,0.0333342054759062,0.503522262107279,0.516026929849916,0.04,0.0715191379949636,240.145143682464,0.632898034795668,0.278801263559211
8734,0.0169394454965146,0.249999958147889,0.249951495814015,-0.249999974052967,0.249925902984989,0.249840081185062,0.249995833983438,0.25,0.512657901888051,0.516026929849916,0.04,0.0840902747431631,244.716495093281,0.691826128902925,0.259908785435569
8794,-0.0884161001891606,0.249993211698715,-0.0333510744079186,-0.249999328226486,0.249963474628552,0.249660661627904,0.249995408592445,-0.0333333307918662,0.531507259912792,0.516026929849916,0.04,0.0691817613131522,253.738649778132,0.646922104688879,0.288196903315263
8854,-0.168982105713501,0.249988052649346,-0.249994216342339,-0.249998834359177,0.249992205885395,0.249523458437135,0.24999508329345,-0.157208547178958,0.525942679247242,0.516026929849916,0.04,0.0640554519995499,250.814105472106,0.547919665428675,0.33634869367672
8914,0.0684394642409986,-0.0333385071271434,0.0257776905467681,0.0333275958621243,0.183009827777188,0.249771917147584,-0.0333354639061716,-0.0907804963486994,0.523453483675054,0.522630759773686,0.04,0.0614359769293588,249.807670781173,0.526502273966988,0.348626338789804
8974,0.249997135382675,-0.249999994015047,0.236662089932556,0.249988983678414,0.131788009223854,0.249961914984986,-0.0430577482465574,-0.0430577482465574,0.525918442658258,0.534284577286223,0.04,0.0598216591981317,251.017496582788,0.567264068842805,0.325142240881262
9034,0.249991016938169,0.0332100358681031,-0.0391130943620817,0.248024965521741,-0.0845585292943323,0.249970082844267,-0.0203665934353828,-0.0203665934353828,0.543860475937897,0.545938394798759,0.04,0.0416687382696373,259.644585727768,0.600214027488574,0.317854091463341
9094,0.249986338127665,0.2497824116611,-0.249999999999157,0.246523069284285,-0.249999999925886,0.249976328854306,-0.011781585116234,-0.011781585116234,0.557236282536284,0.557592212311295,0.04,0.0384160610004209,265.928016711619,0.597155908894925,0.32721336709938
9154,0.24998464528336,0.24990557986896,0.0333295455626171,-0.0348385006399518,-0.249999924632483,0.249977418726787,0.137104137923244,-0.00905235866285254,0.56399931344143,0.569246029823832,0.04,0.0435839202851503,269.148065999547,0.615352445503938,0.32138234024102
9214,0.249983350755362,0.249999767322028,0.249993315698092,-0.249997348229074,-0.249999867055174,0.249978252158684,0.25,-0.00449620307184407,0.577454598653564,0.580899847336368,0.04,0.04422659759058,275.623012310216,0.645247065718407,0.313865884532943
9274,0.249938123237456,0.249999431841569,-0.0333362298641604,-0.249998850899266,0.033333390942758,0.249989613554286,0.249972029651877,-0.00212358205099242,0.588969668146603,0.592553664848904,0.04,0.0451493270294653,281.094574789225,0.663932263905329,0.311088076894452
9334,0.249903537488468,0.249999175297689,-0.25,-0.25,0.25,0.249998301680335,0.249950640562136,-0.00100315311685905,0.602965743217571,0.604207482361441,0.04,0.0444517015581739,287.775300115719,0.676854429810825,0.312401360249611
9394,0.249945332403324,0.24997968034609,-0.249963290511843,-0.249999992171356,-0.0333311576613762,0.249999264061478,0.249893869585193,-0.000802558605364094,0.620210342623311,0.615861299873977,0.04,0.0368727723561027,296.053503987478,0.669695200506644,0.324823689819932
9454,0.249977293220567,0.249964772441925,-0.249935218550312,-0.249999986184745,-0.249996160578899,0.25,0.249850456485178,-0.00801932857756442,0.630091428896706,0.627515117386514,0.04,0.0330913753520557,300.661056833938,0.640588678115441,0.344867760935635
9514,0.249988666660578,0.249981815756841,-0.249971928038468,0.0332404534901735,-0.249998030736505,0.25,0.24959440853124,-0.0199079253186462,0.634461530600813,0.63916893489905,0.04,0.0416250074410945,302.732712307363,0.650224453836433,0.342098153197568
9574,0.249997363997057,0.249994848880011,-0.25,0.249836083829818,-0.249999460857027,0.25,0.2493986071547,0.0896914056015631,0.644761090148913,0.650822752411586,0.04,0.0453759977942275,307.762744456887,0.701217657920878,0.322491207592757
9634,0.249634420508052,0.249996859859356,-0.249997008472782,-0.0239930810482122,0.0333311390428838,0.249997952114562,0.249739359378767,0.140791486347442,0.657145935488605,0.662476569924123,0.04,0.045786290652699,313.607245307297,0.729581317702,0.315839947959133
9694,0.249356875487048,0.24999839766709,-0.24999472083432,-0.233391854190235,0.249995715436934,0.249996386084521,0.249999934608936,0.179868018682525,0.671415731956549,0.674130387436659,0.04,0.0462878964373,320.448497325871,0.755651258208147,0.311595735913471
9754,0.249721310532949,0.249999305655739,0.0333356209717945,-0.21412531318732,0.0970521102746002,0.249959956500009,0.249961580345601,0.050010673262385,0.686408021314866,0.685784204949195,0.04,0.0507176439380824,327.599583747702,0.760070464399216,0.316697154255795
9814,0.249999996156285,0.25,0.25,-0.199392075949798,-0.0199047642613017,0.249932098582441,0.249932250614816,-0.00126765212385291,0.695185664797808,0.697438022461732,0.04,0.0539957808421133,331.747551645574,0.765131068014903,0.318585911029633
9874,0.24999999833439,0.25,0.249703569471637,0.0552634337550876,-0.150292049463837,0.24982263851709,-0.000598529864854791,0.120306798852909,0.708376953468829,0.709091839974268,0.04,0.0527224488257361,337.977138668007,0.774479388409036,0.320650659132572
9934,0.25,0.25,0.249476887302888,0.25,-0.249999973442246,0.249738933761233,-0.000282460329744397,0.25,0.714685618142313,0.720745657486805,0.04,0.0549070912248221,341.101486195349,0.818219591393176,0.30631510548042
9994,0.249612084490103,0.25,-0.0335588488020393,0.25,-0.248339986566041,0.249588630898821,-0.000141235495463122,0.113310212115862,0.736616562069842,0.732399474999341,0.04,0.04306162341838,351.640675170274,0.82423359563308,0.313475402880144
10054,0.24931544321783,0.25,-0.249997941117572,0.25,-0.247070584837177,0.249473693415799,-0.00205577139392846,0.00878272726328573,0.747490295856168,0.744053292511877,0.04,0.038806874561091,356.659951091495,0.785619356327534,0.333577574688599
10114,0.248047011042697,0.24999855091966,-0.249999107740422,0.245485024290952,-0.0510440512140788,0.249506428252075,-0.00340320510217426,0.14547241623554,0.744390009616137,0.749103280100643,0.04,0.0475711074246911,355.08929417721,0.793708836080461,0.328723717574238
10174,0.247077033497008,0.2499974427994,-0.249999999863777,0.242032395807562,0.0988585921447612,0.249531460773932,-0.00160728881744609,0.249999825449616,0.747408114676985,0.749103280100643,0.04,0.0515309849512906,356.64013340089,0.82165532621322,0.318929884098773
10234,-0.0345999339483523,0.249943776282374,-0.249823004455581,0.24654737151661,-0.0940819971889161,0.249796966335371,0.0352326099133455,-0.00119702001635285,0.765584487247155,0.749103280100643,0.04,0.0373737168173033,365.225818824584,0.778004664493846,0.34493236562818
10294,-0.249999967877157,0.249902737181119,-0.249687655025784,0.25,-0.241624800797022,0.25,0.25,-0.00615128841563676,0.753739556111652,0.749103280100643,0.04,0.0338710879783969,359.554069231575,0.736748943092054,0.358590981552557
10354,0.0333333472532319,0.249948844540521,0.0334686828221602,-0.0333174526636268,0.0369602812881722,0.25,0.249999743456718,-0.0149453404636935,0.740329872694851,0.749103280100643,0.04,0.0494793078930192,353.095683504428,0.748078214551107,0.346816760481747
10414,0.25,0.249984103109477,0.25,-0.249971975288753,0.249995932294497,0.25,0.249999547276561,-0.00840768741792068,0.743501025851879,0.749103280100643,0.04,0.0567479191569414,354.793206761068,0.802589981521397,0.324815120405333
10474,0.249999802322448,0.24999311134744,0.25,0.0333454773748737,0.249998159741818,0.24999994258914,0.249970677182047,-0.00397122766140097,0.744593671146911,0.749103280100643,0.04,0.0649091555313424,355.215320933019,0.823576720144538,0.316914641050784
10534,0.249999651157261,0.25,0.25,0.25,0.249999863083886,0.249999898686717,0.249948600050947,-0.00187560240260452,0.744725309974851,0.749103280100643,0.04,0.0691616041838002,355.33277992971,0.855699182789214,0.305118705134462
10594,0.24998594184204,0.25,0.249971820271588,0.24995340052188,-0.0333258421418038,0.249990058105565,0.249966387218763,0.0342348314450353,0.751005701429555,0.749103280100643,0.04,0.0639092437861268,358.21694645552,0.86183991224414,0.305403634531635
10654,0.249975458248048,0.25,0.249950271067509,0.249917765626847,-0.249986675549684,0.249982532955273,0.249979989170622,0.25,0.748930078890216,0.749103280100643,0.04,0.064579720093022,357.338987804753,0.870855806717025,0.301501048782322
10714,0.249989365240821,0.25,0.24997845079592,0.249957443729828,-0.157965656333502,0.249973512862812,0.249982619648417,0.25,0.748835595149042,0.749103280100643,0.04,0.0689490906062345,357.254516976035,0.868950114876858,0.302090842123682
10774,0.25,0.25,0.25,0.24998778580858,-0.0875966416387748,0.249966615145048,0.24998463119026,0.25,0.748710371731228,0.749103280100643,0.04,0.070986176932163,357.217053479542,0.873294947280776,0.300556353296149
10834,0.249965695097696,0.249988350673602,0.211777637885091,0.249994707183718,0.103708121956531,0.249961504944708,0.249990385976754,0.249999680886073,0.746698228564147,0.749103280100643,0.04,0.0748845715358073,356.222693455775,0.879887494342474,0.297474069117155
10894,0.24993946193711,0.24997944236518,0.182548772738396,0.25,0.25,0.249957597144448,0.249994786695838,0.249999436857776,0.747020472056689,0.749103280100643,0.04,0.0761488473281443,356.421704810029,0.89738330987793,0.291837322017323
10954,0.249972265544589,0.24999080656574,0.220771130295007,-0.0333319579176364,-0.0333327331446027,0.249981625429261,-9.52668606407139e-06,-9.52668606407139e-06,0.771323311580391,0.749103280100643,0.04,0.0547387098955712,368.10135055341,0.843533437616987,0.320641539079743
11014,0.249997350656191,0.249999496836757,0.249999991955945,-0.249997572795829,-0.249998940843417,0.25,-7.48479827760092e-06,-7.48479827760092e-06,0.758278302123397,0.749103280100643,0.04,0.0514099180201638,361.669654968115,0.755089643730802,0.351939679570838
11074,0.249965662246643,0.249999781962595,-0.0333331077240437,-0.249998948211526,0.0333337918737514,0.249999983551137,0.0424038068710685,0.0333328211426941,0.748691812584178,0.749103280100643,0.04,0.0508050414069056,356.915600112162,0.739520441522507,0.354625551138587
11134,0.249941429933458,0.25,-0.249999595714623,-0.25,0.249999999245703,0.249999970972595,0.249999865686144,0.249999096134166,0.744945099825367,0.749103280100643,0.04,0.0501558438878137,355.508600909864,0.800129274551088,0.326471013993573
11194,0.249974619637832,-0.0333276020971051,-0.249996241022642,-0.24999087039591,0.249999884398454,0.249999987421458,0.249999913898348,0.0698588479024681,0.759605275739407,0.749103280100643,0.04,0.0389287467025593,362.518958400666,0.774967612761531,0.343717660252117
11254,0.25,-0.249989886053715,-0.24999367566995,-0.249983888933958,0.249999796574086,0.25,0.249999950766504,-0.00556341344097339,0.754403695828181,0.749103280100643,0.04,0.0344488269348551,359.853577620913,0.716617990925162,0.368971476352525
11314,0.249997490590948,-0.249995617248782,-0.249989653877263,-0.249993018536531,0.249995403488807,-0.0333330425203313,-0.0201577721088884,-0.0201577721088884,0.762820476991143,0.749103280100643,0.04,0.013782266361605,363.955048570301,0.670462086854974,0.398867085503779
11374,0.249995571631084,-0.249999999927362,-0.249986578388737,-0.249999999997321,0.249992044070652,-0.249999486800585,-0.0657549339844991,-0.0657549339844991,0.754374554430631,0.749103280100643,0.04,0.00313692387780505,359.86103892113,0.619912696881781,0.426539223673261
11434,0.249995182526045,0.0330904427825052,-0.24999002176721,-0.249999999998839,0.249971895129058,-0.249999777613587,-0.137816989612732,0.0333383821061865,0.737760542912067,0.749103280100643,0.04,0.0148210759918056,351.787774954022,0.629066216836391,0.410902758501062
11494,0.249994884975134,0.249571369560639,-0.249992654938984,-0.25,0.249956487114899,-0.25,-0.201719837039446,0.25,0.742838813955038,0.749103280100643,0.04,0.0240831248732454,354.512082499459,0.704195752337515,0.369906801333307
