time,bias_percent_1,bias_percent_2,bias_percent_3,bias_percent_4,bias_percent_5,bias_percent_6,bias_percent_8,bias_percent_9,normalized_power,power_SP,SP,CV,total_power_MW,fuel_fraction,thermal_efficiency
48,0,0,0,0,0,0,0,0,0.999791661352074,1,0.04,0.0399196615402469,477.0041948439,0.999944717561722,0.35051038035186
108,0.0249141832656501,0.021965242413896,-0.00583800231066073,0.02693496092668,0.0265072267562113,-0.00324398940634637,-0.0219397406751597,-0.0213831319080363,0.97714635471929,0.964301588725722,0.04,0.050763335614827,465.881754510188,0.945000755744988,0.362241516072521
168,0.0560569123477127,0.0494217954312662,-0.0131355051989866,0.06060366208503,0.0596412602014753,-0.00729897616427934,-0.0493644165191093,-0.0481120467930817,0.934120304455686,0.919678574632875,0.04,0.0639444274633897,445.311082273776,0.857165615782106,0.38172749130898
228,0.0871996414297753,0.0768783484486364,-0.0204330080873124,0.0942723632433801,0.0927752936467397,-0.0113539629222124,-0.076789092363059,-0.074840961678127,0.889135840121069,0.875055560540028,0.04,0.0726989675774829,423.847207487468,0.769497586401718,0.40472193283793
288,0.118342370511838,0.104334901466007,-0.0277305109756383,0.12794106440173,0.125909327092004,-0.0154089496801453,-0.104213768207009,-0.101569876563172,0.843803222568771,0.830432546447181,0.04,0.0776076801720016,402.217474170773,0.685492352845157,0.431134717699733
348,0.149485099593901,0.131791454483377,-0.0350280138639641,0.16160976556008,0.159043360537268,-0.0194639364380783,-0.131638444050958,-0.128298791448218,0.798363022705535,0.785809532354334,0.04,0.0791627550384766,380.537271680848,0.606224155666996,0.461231159216002
408,0.180627828675963,0.159248007500747,-0.04232551675229,0.19527846671843,0.192177393982532,-0.0235189231960112,-0.119547391203761,-0.119547391203761,0.749741204838637,0.741186518261487,0.04,0.0803167197433009,357.600606814032,0.538008478677026,0.488386671808509
468,0.211770557758026,0.186704560518117,-0.0496230196406158,0.228947167876781,0.225311427427796,-0.0275739099539442,-0.0564698319985697,-0.0564698319985697,0.700906323855862,0.69656350416864,0.04,0.0823899461086171,334.371829319595,0.503988696923753,0.487487586213039
528,0.242913286840089,0.214161113535487,-0.0569205225289418,0.26261586903513,0.25844546087306,-0.0316288967118772,-0.0266741446056537,-0.0266741446056537,0.656137771258414,0.651940490075793,0.04,0.085889758597426,312.914839979391,0.476293342442241,0.482732262756568
588,0.274056015922151,0.241617666552857,-0.0642180254172677,0.29628457019348,0.291579494318325,-0.0356838834698102,-0.0125996949755313,-0.0125996949755313,0.611588990988259,0.607317475982946,0.04,0.0916762643483076,291.681863321593,0.449433713075857,0.476868301871527
648,0.305198745004214,0.269074219570227,-0.0715155283055935,0.329953271351831,0.324713527763589,-0.0397388702277431,-0.00595140398269499,-0.00595140398269499,0.567228298123464,0.562694461890099,0.04,0.0989293925567399,270.458225715011,0.421728392017926,0.471218172764838
708,0.336341474086276,0.296530772587597,-0.0788130311939194,0.363621972510181,0.357847561208853,-0.0437938569856762,-0.0028109776354175,-0.0028109776354175,0.52281681504474,0.518071447797251,0.04,0.107516683471548,249.318903109601,0.392784835029819,0.46639638112746
768,0.367484203168339,0.323987325604968,-0.0861105340822452,0.397290673668531,0.390981594654117,-0.0478488437436092,-0.00132754664334068,-0.00132754664334068,0.478287445075221,0.473448433704404,0.04,0.116924564791945,228.051970042927,0.36276746592506,0.461912987372721
828,0.398626932250402,0.351443878622338,-0.0934080369705711,0.430959374826881,0.424115628099381,-0.0519038305015421,-0.000626824261600568,-0.000626824261600568,0.433802253883452,0.428825419611557,0.04,0.126641115720453,206.797976574914,0.332725816186761,0.456682597209374
888,0.429769661332464,0.378900431639708,-0.100705539858897,0.464628075985231,0.457249661544645,-0.0559588172594751,-0.000295826842694162,-0.000295826842694162,0.389256192799338,0.38420240551871,0.04,0.136857089940395,185.606430996804,0.302330745295357,0.451092266285251
948,0.435998207148877,0.384391742243182,-0.102165040436562,0.471361816216901,0.463876468233698,-0.0567698146110617,-0.000139474554096555,-0.000139474554096555,0.365038659042607,0.375277802700141,0.04,0.125414274357368,174.116270690442,0.336407902086537,0.380301330034974
1008,0.435998207148877,0.384391742243182,-0.102165040436562,0.471361816216901,0.463876468233698,-0.0567698146110616,-6.56189838860305e-05,-6.56189838860305e-05,0.36435746811855,0.375277802700141,0.04,0.102904547741256,173.85619791812,0.404576695375575,0.315750459560655
1068,0.435998207148877,0.384391742243182,-0.102165040436562,0.471361816216901,0.463876468233698,-0.0567698146110617,-3.07322483063975e-05,-3.07322483063975e-05,0.368076630292839,0.375277802700141,0.04,0.0928098481547827,175.641074202366,0.456056120739221,0.282984385069747
1128,0.435998207148877,0.384391742243182,-0.102165040436562,0.471361816216901,0.463876468233698,-0.0567698146110617,-1.42529994706797e-05,-1.42529994706797e-05,0.371487791200447,0.375277802700141,0.04,0.0914420076776178,177.258195208989,0.485133696496174,0.268472346380065
1188,0.435998207148877,0.384391742243182,-0.102165040436562,0.471361816216901,0.463876468233698,-0.0567698146110617,-6.46879043886477e-06,-6.46879043886477e-06,0.373457277213157,0.375277802700141,0.04,0.0929449816330127,178.186925731003,0.499401204912139,0.262168751230197
1248,0.435998207148877,0.384391742243182,-0.102165040436562,0.471361816216901,0.463876468233698,-0.0567698146110617,-2.79180789827382e-06,-2.79180789827382e-06,0.374349872765578,0.375277802700141,0.04,0.0945821048780839,178.606749376849,0.506418880442812,0.259144892615025
1308,0.435998207148877,0.384391742243182,-0.102165040436562,0.471361816216901,0.463876468233698,-0.0567698146110616,-1.05493257175676e-06,-1.05493257175676e-06,0.374730336066308,0.375277802700141,0.04,0.0956725632872013,178.785836882611,0.510331739754184,0.257415804802308
1368,0.435998207148877,0.384391742243182,-0.102165040436562,0.471361816216901,0.463876468233698,-0.0567698146110617,-2.3449465382775e-07,-2.3449465382775e-07,0.374919412584769,0.375277802700141,0.04,0.0962888293260896,178.875193861154,0.512816809217378,0.256296420988156
1428,0.435998207148877,0.384391742243182,-0.102165040436562,0.471361816216901,0.463876468233698,-0.0567698146110617,1.53050938477647e-07,1.53050938477647e-07,0.375038422897962,0.375277802700141,0.04,0.0966262426896868,178.931612761468,0.514474584780415,0.255551142740456
1488,0.435998207148877,0.384391742243182,-0.102165040436562,0.471361816216901,0.463876468233698,-0.0567698146110617,3.36113645396974e-07,3.36113645396974e-07,0.37512138300974,0.375277802700141,0.04,0.0968203175165958,178.970956773123,0.515568335719422,0.255065076648885
1548,0.435998207148877,0.384391742243182,-0.102165040436562,0.471361816216901,0.463876468233698,-0.0567698146110616,4.22585934928842e-07,4.22585934928842e-07,0.375178127308788,0.375277802700141,0.04,0.09693979084341,178.997847329014,0.516271234905371,0.254756079164847
1608,0.435998207148877,0.384391742243182,-0.102165040436562,0.471361816216901,0.463876468233698,-0.0567698146110617,4.63432358445229e-07,4.63432358445229e-07,0.375215068994474,0.375277802700141,0.04,0.0970161580264268,179.015340103275,0.516715043494166,0.254562143116317
1668,0.435998207148877,0.384391742243182,-0.102165040436562,0.471361816216901,0.463876468233698,-0.0567698146110616,4.82726751170487e-07,4.82726751170487e-07,0.375238257736376,0.375277802700141,0.04,0.0970650946262055,179.026315944709,0.516994342372335,0.254440218877926
1728,0.435998207148877,0.384391742243182,-0.102165040436562,0.471361816216901,0.463876468233698,-0.0567698146110617,4.91840733707713e-07,4.91840733707713e-07,0.375252608065956,0.375277802700141,0.04,0.097095987717503,179.033107863332,0.517171493025235,0.25436271322278
1788,0.435998207148877,0.384391742243182,-0.102165040436562,0.471361816216901,0.463876468233698,-0.0567698146110617,4.96145853794759e-07,4.96145853794759e-07,0.375261508913442,0.375277802700141,0.04,0.097115141437441,179.037321073899,0.517285404065835,0.254312684829979
1848,0.430823153266239,0.351575049259726,-0.0874085156936601,0.455259864330395,0.454213335383336,-0.0426540043643923,4.98179438880992e-07,4.98179438880992e-07,0.376030374770413,0.376524769932681,0.04,0.0957113325947686,179.416887054793,0.519590692894819,0.253721126116097
1908,0.424354335912941,0.310554183030405,-0.0689628597650325,0.435132424472263,0.442134419320384,-0.0250092415560555,4.99140031900311e-07,4.99140031900311e-07,0.377899720186655,0.378083478973355,0.04,0.094065400984468,180.311699329469,0.521588208494179,0.254010001978071
1968,0.417885518559643,0.269533316801085,-0.050517203836405,0.415004984614131,0.430055503257431,-0.00736447874771875,4.99593781676325e-07,4.99593781676325e-07,0.379823052246653,0.37964218801403,0.04,0.0930076181095453,181.228228031738,0.521244653295391,0.255469411301175
2028,0.411416701206346,0.228512450571764,-0.0320715479077774,0.394877544755999,0.417976587194479,0.010280284060618,4.99808116961182e-07,4.99808116961182e-07,0.381578503867673,0.381200897054705,0.04,0.0921619302194825,182.064445772041,0.519377159969598,0.257571004952362
2088,0.404947883853048,0.187491584342444,-0.0136258919791498,0.374750104897867,0.405897671131527,0.0279250468689548,4.99909361300463e-07,4.99909361300463e-07,0.38320883807962,0.38275960609538,0.04,0.0912685595627957,182.841611146994,0.516864605971016,0.25992791454444
2148,0.39847906649975,0.146470718113124,0.00481976394947782,0.354622665039735,0.393818755068574,0.0455698096772916,4.9995718551309e-07,4.9995718551309e-07,0.384785493274924,0.384318315136055,0.04,0.0902474556258967,183.593600311832,0.514161752661854,0.262368956189229
2208,0.392010249146453,0.105449851883803,0.0232654198781054,0.334495225181603,0.381739839005622,0.0632145724856284,4.99979775964364e-07,4.99979775964364e-07,0.386344996586883,0.385877024176729,0.04,0.0891018456910863,184.337569221195,0.511429170818708,0.264839669353571
2268,0.385541431793155,0.0644289856544829,0.041711075806733,0.314367785323471,0.36966092294267,0.0808593352939651,4.99990446887329e-07,4.99990446887329e-07,0.387898635473379,0.387435733217404,0.04,0.0878468319642921,185.07877664706,0.508717206985486,0.267322102926034
2328,0.379072614439857,0.0234081194251625,0.0601567317353604,0.294240345465339,0.357582006879717,0.0985040981023018,4.9999548745051e-07,4.9999548745051e-07,0.38944838311882,0.388994442258079,0.04,0.0864865853160298,185.818131692073,0.506051263509166,0.269803917895111
2388,0.37260379708656,-0.0176127468041579,0.0786023876639881,0.274112905607207,0.345503090816765,0.116148860910639,4.99997868432667e-07,4.99997868432667e-07,0.390994572628424,0.390553151298754,0.04,0.0850134536195455,186.555792163732,0.503453338865387,0.272272756623251
2448,0.366134979733262,-0.0586336130334782,0.0970480435926157,0.253985465749075,0.333424174753813,0.133793623718975,4.99998993123664e-07,4.99998993123664e-07,0.39253773248149,0.392111860339429,0.04,0.0834112995716241,187.292012342231,0.500942805541422,0.274717160208911
2508,0.359666162379964,-0.0996544792627986,0.115493699521243,0.233858025890943,0.32134525869086,0.151438386527312,4.99999524387446e-07,0.0248223248878579,0.393501961030891,0.393670569380103,0.04,0.0824742786458787,187.748511571892,0.500371705870176,0.275701059440263
2568,0.353197345026667,-0.140675345492119,0.133939355449871,0.213730586032811,0.309266342627908,0.169083149335649,4.99999775337603e-07,0.0586381836402726,0.394921484672234,0.395229278420778,0.04,0.0812855817220638,188.429915511014,0.502273483354003,0.275653987203546
2628,0.346728527673369,-0.18169621172144,0.152385011378498,0.193603146174679,0.297187426564956,0.186727912143986,4.99999893877502e-07,0.0924540423926872,0.396571160768064,0.396787987461453,0.04,0.0803592721173213,189.217172518129,0.503848759861933,0.275940235646659
2688,0.340259710320071,-0.22271707795076,0.170830667307126,0.173475706316547,0.285108510502003,0.204372674952322,4.99999949871519e-07,0.126269901145102,0.398183744243319,0.398346696502128,0.04,0.0795812849829538,189.986031335471,0.504982417322117,0.276439494469742
2748,0.338965946849412,-0.230921251196624,0.174519798492851,0.169450218344921,0.282692727289413,0.20790162751399,4.99999976321094e-07,0.133033072895585,0.400263867793352,0.399905405542803,0.04,0.0797478456050672,190.979744207343,0.504055731601984,0.278396278924532
2808,0.338965946849412,-0.230921251196624,0.174519798492852,0.169450218344921,0.282692727289413,0.20790162751399,4.9999998881493e-07,0.133033072895585,0.401749678355055,0.401464114583478,0.04,0.0804381686987488,191.685523370572,0.502081124386418,0.280524047721113
2868,0.338965946849412,-0.230921251196624,0.174519798492851,0.169450218344921,0.282692727289413,0.20790162751399,4.99999994716572e-07,0.133033072895585,0.403101752693238,0.403022823624152,0.04,0.0804979926389872,192.330799195324,0.501276518799875,0.281920171550267
2928,0.338965946849412,-0.230921251196624,0.174519798492851,0.169450218344921,0.282692727289413,0.20790162751399,4.99999997504295e-07,0.133033072895585,0.404513188208041,0.404581532664827,0.04,0.0802314918208612,193.004828843857,0.501473427935141,0.28279708306929
2988,0.338965946849412,-0.230921251196624,0.174519798492851,0.169450218344921,0.282692727289413,0.20790162751399,4.99999998821118e-07,0.133033072895585,0.40600014198195,0.406140241705502,0.04,0.0798849202063522,193.714664252687,0.502268677439443,0.283387753863272
3048,0.338965946849412,-0.230921251196624,0.174519798492851,0.169450218344921,0.282692727289413,0.20790162751399,4.99999999443138e-07,0.133033072895585,0.407522548313998,0.407698950746177,0.04,0.0795718278654115,194.441203204641,0.503343101536198,0.283843435884067
3108,0.338965946849412,-0.230921251196624,0.174519798492852,0.169450218344921,0.282692727289413,0.20790162751399,4.99999999736958e-07,0.133033072895585,0.409062983496135,0.409257659786852,0.04,0.0793052559880911,195.176241924013,0.50455771971229,0.284230561182334
3168,0.338965946849412,-0.230921251196624,0.174519798492852,0.169450218344921,0.282692727289413,0.20790162751399,4.99999999875749e-07,0.133033072895585,0.410612134751165,0.410816368827526,0.04,0.0790757350108499,195.915388886833,0.505844408520658,0.284581243735639
3228,0.338965946849412,-0.230921251196624,0.174519798492852,0.169450218344921,0.282692727289413,0.20790162751399,4.99999999941308e-07,0.133033072895585,0.412165565043146,0.412375077868201,0.04,0.0788709609293891,196.6565542488,0.507170083987191,0.284911168140341
