time,bias_percent_1,bias_percent_2,bias_percent_3,bias_percent_4,bias_percent_5,bias_percent_6,bias_percent_8,bias_percent_9,normalized_power,power_SP,SP,CV,total_power_MW,fuel_fraction,thermal_efficiency
22,0,0,0,0,0,0,0,0,0.999470886376276,1,0.04,0.0400265321815101,476.872604188371,0.999400919830561,0.350604353807293
82,0,0,0,0,0,0,0,0,0.999939882701766,1,0.04,0.039894551080415,477.072334519021,1.00021533510236,0.350465603101807
142,0,0,0,0,0,0,0,0,0.999993423147729,1,0.04,0.0399310876073589,477.096983407987,1.0003112389159,0.350450108336628
202,0,0,0,0,0,0,0,0,1.00000045570561,1,0.04,0.0399657661221268,477.10024041498,1.00031710232683,0.350450446565375
262,0,0,0,0,0,0,0,0,1.00000240279537,1,0.04,0.0399871878934283,477.101157241773,1.00030595556442,0.350455025214254
322,0,0,0,0,0,0,0,0,1.0000034529199,1,0.04,0.0399995436177355,477.101653301845,1.00028708121986,0.350462002312956
382,0,0,0,0,0,0,0,0,1.00000393279381,1,0.04,0.0400062106282024,477.101878103776,1.00026420621456,0.350470182150905
442,0,0,0,0,0,0,0,0,1.00000395086511,1,0.04,0.0400092807201624,477.101883617469,1.00024034133797,0.35047854811919
502,0,0,0,0,0,0,0,0,1.0000036493482,1,0.04,0.0400101007682845,477.10173780348,1.00021770376029,0.350486373260437
562,0,0,0,0,0,0,0,0,1.0000031652748,1,0.04,0.0400095807267121,477.101505835604,1.00019765803557,0.350493227214738
622,0,0,0,0,0,0,0,0,1.00000260755859,1,0.04,0.0400083441965599,477.101239589087,1.00018085306958,0.350498920580415
682,0,0,0,0,0,0,0,0,1.00000205090771,1,0.04,0.0400068092488774,477.100974179957,1.00016742093419,0.350503432757808
742,-0.0916584255538737,-0.0916666666442912,-0.0916618718056939,0.0916666663996656,0.0916633082774507,-0.0916574457531094,0.0780996161454828,0.0884753314836408,0.9939235445159,0.991947264257366,0.04,0.0399559161399788,474.151273719967,0.996066234880518,0.349770662324418
802,-0.249977524237837,-0.249999999938976,-0.249986923106438,0.249999999271816,0.249990840756684,-0.249974852053935,0.212998953124044,0.241296358591748,0.978210168075865,0.969985257686544,0.04,0.0414631074622562,466.476395064963,0.955247007824404,0.358813407384231
862,-0.249985578615631,-0.0666666666280181,-0.249991170996467,0.0666666662054832,0.19122785448001,-0.249984010572488,0.22655830479809,0.244486189424361,0.955616054156877,0.948023251115723,0.04,0.0452828822192499,455.756302586164,0.909647316749891,0.368141109334023
922,-0.249999490722729,0.25,-0.249998508261064,-0.25,0.0897281509112103,-0.249999829831807,0.24997900314417,0.249995897226148,0.933426017127218,0.926061244544902,0.04,0.0493682201259494,445.149327029134,0.862133540752177,0.379389979503807
982,-0.249999677457728,0.234748266224824,-0.249999055232007,-0.25,-0.0348385924115275,-0.249991384917326,0.249986241696457,0.249995977133292,0.915027521812398,0.904099237974081,0.04,0.0471140822438653,436.464687627852,0.811104067515353,0.395391391566687
1042,-0.25,0.208404362431338,-0.25,-0.25,-0.249999330878075,-0.249976798246858,0.249998744650408,0.249996115154721,0.892036322108017,0.88213723140326,0.04,0.0433970193547607,425.550345245533,0.735466799400985,0.425150359828451
1102,-0.25,0.0403227799295165,-0.249999962889504,-0.249999999073724,-0.249999576222781,-0.249912598725054,0.249930586414061,0.24999753959799,0.872578191425403,0.860175224832439,0.04,0.0357351905076041,416.129783242618,0.681759508009264,0.448489493011465
1162,-0.25,-0.24999995348272,-0.249999898789558,-0.249999997473794,-0.25,-0.249801708641937,0.249812858551279,0.25,0.846779683933356,0.838213218261618,0.04,0.0271789809328754,403.98890736906,0.594366346020167,0.499424571661476
1222,-0.137131980354687,-0.249966237345298,-0.249999935900053,-0.249999265604826,-0.0666668479905687,-0.249874415473227,0.249881477082477,0.24947037900215,0.806924620165405,0.816251211690797,0.04,0.0289126274292691,384.733091344905,0.572744710086206,0.493574974403781
1282,0.0578218717599447,-0.249908000380661,-0.25,-0.249998001467518,0.249999505480267,-0.25,0.25,0.248555579096771,0.787515250527397,0.794289205119976,0.04,0.0316504050707738,375.561779729684,0.652537886852345,0.422892840336985
1342,0.0651164405290696,-0.0666084038152233,-0.150729443328165,-0.066665409168473,0.0666668484420171,-0.245860789054734,0.0666666666666667,0.0657524350941394,0.7662220281418,0.772327198549155,0.04,0.0306688229005425,365.577498497885,0.674072071209354,0.398499517306842
1402,0.0777161502211941,0.24999999025235,0.0207378818322765,0.249999977529877,-0.249998650078596,-0.238711242876548,-0.25,-0.249998450001316,0.754050160271789,0.750365191978333,0.04,0.0397338397537265,359.591667792722,0.666516590140671,0.396417969292532
1462,-0.0424458189994638,0.249999735314195,0.104800445836224,0.24999018131964,-0.0666661524320849,-0.0595176965490125,-0.249997854511418,-0.249506703764404,0.729763331455772,0.736455921150147,0.04,0.057362285314231,348.008834729478,0.664430710470384,0.38485332931763
1522,-0.249998311289691,0.249999294966472,0.24999942002486,0.249973260592868,0.249999070775526,0.249998428925821,-0.249994148667503,-0.248657323900646,0.726432856832066,0.736455921150147,0.04,0.059244179412647,346.664822259486,0.740925177354738,0.343787512362578
1582,-0.225331893176035,0.0666662201454321,0.249977676521773,0.249981562077663,0.249999411491167,0.0669618299410806,-0.0666630505711977,-0.0658548060596866,0.727206113933658,0.736455921150147,0.04,0.0547792318946214,346.901338822976,0.784337813565848,0.324980647038651
1642,-0.182726261888811,-0.25,0.249940119561895,0.249995901005946,0.25,-0.249192295578017,0.249999755231511,0.249894997483789,0.733304623194285,0.736455921150147,0.04,0.0495118777713145,349.95492857332,0.827834667268283,0.31061554112216
1702,-0.207231602668169,-0.0671503506118125,0.249961423287236,0.066664070637099,0.0666666707997899,-0.249483740647114,0.249996233502028,0.2499334984064,0.741271206937587,0.736455921150147,0.04,0.0498784282352823,353.746508285879,0.818040528272919,0.3177400924387
1762,-0.24955900946888,0.248680861967784,0.249998220631007,-0.25,-0.249999988727846,-0.249987145766463,0.249990150514741,0.25,0.743480600822954,0.736455921150147,0.04,0.0492935342279178,354.650309881031,0.765217683504945,0.340541482472907
1822,-0.249720705996957,0.249164342609819,0.24999887028402,-0.2499972635792,-0.249971798083639,-0.0667812588237231,0.249910963375565,0.249987741107507,0.735532578218761,0.736455921150147,0.04,0.0540403732179538,350.869757664973,0.750123183737635,0.34369089336271
1882,-0.25,0.24999944553697,0.249999992411952,-0.249992537034182,-0.249923105152738,0.249665273168282,0.249774185589717,0.249966566656837,0.735201379730793,0.736455921150147,0.04,0.057765752474078,350.806209577164,0.765293138824127,0.336817097260177
1942,-0.0666685995011657,0.249999648627091,0.146426736773179,-0.249995259043074,-0.249951299930067,0.0664546730065787,0.249853600170701,0.175819384557757,0.742695162128925,0.736455921150147,0.04,0.0498994183450522,354.402113321011,0.749500951517865,0.347439179460006
2002,0.249994728633184,0.249999999419118,-0.0324725229665197,-0.249999960694796,-0.25,-0.25,0.249990770810583,0.0477469791138911,0.742845483394118,0.736455921150147,0.04,0.0449697682527331,354.355181926607,0.69956184921572,0.372192268420919
2062,0.249996652918867,0.249999963150719,-0.112232597878796,-0.249999975106704,-0.25,-0.25,0.249994154846703,-0.061426913227869,0.74398298549053,0.736455921150147,0.04,0.0357540025298343,355.027947834923,0.669850840516067,0.389438704408613
2122,0.249999976685046,0.2499999005053,-0.25,-0.25,-0.25,-0.25,0.25,-0.175973293951962,0.740942663070663,0.736455921150147,0.04,0.0260952324224209,353.457069992576,0.623268253996834,0.416693132106996
2182,0.249999974358472,0.0666666036533569,-0.236623384433244,-0.24999997227357,-0.249980084923981,-0.249999929315416,0.249997136668739,-0.197561440073554,0.744227357143886,0.736455921150147,0.04,0.0152164370180959,355.152420814772,0.59988515323748,0.435012104845768
2242,0.249999970339843,-0.25,-0.213518321181574,-0.249999924382465,-0.249945686156311,-0.249999807223863,0.249992190914743,-0.246691777690627,0.740678559888101,0.736455921150147,0.04,0.00357124026845092,353.266682730089,0.545539499195681,0.475807360208589
2302,0.249999970167294,-0.25,-0.226879889829383,-0.249999738372718,-0.24996560123233,-0.0666755637425049,0.249995054195209,-0.25,0.727218432314486,0.736455921150147,0.04,0.00747809122609517,346.964115887067,0.558177060359124,0.4567381128761
2362,0.249999969869255,-0.25,-0.249958962948327,-0.249999417083155,-0.25,0.249975402270749,0.249999999861469,-0.25,0.727665166643488,0.736455921150147,0.04,0.0138037493998543,347.10025878529,0.626688926129032,0.40696549920351
2422,0.249995020205019,-0.25,-0.249973882875189,-0.249981695636698,-0.25,0.249981468085161,0.24999989831544,-0.246188894806319,0.728397275712291,0.736455921150147,0.04,0.0165940684974423,347.523061051626,0.676485191813782,0.377467887709526
2482,0.249986470784974,-0.25,-0.24999965365795,-0.249951085865546,-0.25,0.249991945400963,0.249999722917753,-0.239606076744507,0.729320452929011,0.736455921150147,0.04,0.0211016395664283,347.9696691301,0.721918724534978,0.354166728763849
2542,0.249991141593263,-0.0666668356356473,-0.249999558518187,-0.0666356927834621,-0.166196590376412,0.0666625296895081,0.249999322415524,-0.109767803658813,0.717120478240412,0.736455921150147,0.04,0.035678696066917,342.081613199372,0.783394254244896,0.320851464516941
2602,0.249999209353035,0.249999539175507,-0.249999394185868,0.249999986176501,-0.0214452464811225,-0.249997370175733,0.249998630638947,0.114498304398294,0.722896987363539,0.736455921150147,0.04,0.0517717668826032,345.1002875836,0.909457986648896,0.278815784256883
2662,0.233033170534757,0.249936850364458,-0.249929360611721,0.249999785415345,0.07807087963599,-0.249854299599582,0.0670285337485212,0.164176880425259,0.741612746677954,0.742967375131095,0.04,0.0583539666850361,354.015036256859,0.931787523963219,0.279164052062023
2722,0.203728194394096,0.249828569690827,-0.249808393529103,0.249999438646076,0.249962370201912,-0.249607177695322,-0.24901072451676,0.24998532992638,0.761278624850765,0.760725885988228,0.04,0.0614687516258743,363.322886937462,0.926917393924997,0.28800922647959
2782,0.220688957441835,0.0670253549031019,-0.249853147178191,0.249874655586313,0.249935235693766,-0.0664708282489902,-0.0660465322287984,0.249990670816365,0.771294883677697,0.778484396845361,0.04,0.0634005538468653,368.011928732435,0.9439736773155,0.286455185389384
2842,0.249984820887931,-0.248725652457514,-0.249930448935708,0.249659121210359,0.249888366997879,0.249855593521947,0.249982527177681,0.249999895989975,0.789737680672465,0.796242907702494,0.04,0.059199972527331,377.004180923829,1.00203767649311,0.276450125557468
2902,0.249990073504577,-0.207552077393876,-0.239791655555691,0.24978394002975,0.249926831404794,0.249781737522008,0.24997983140264,0.2499997418534,0.811534023223438,0.814001418559627,0.04,0.059945489501813,387.321637175031,1.02060840645616,0.278847845968931
2962,0.249999146206058,-0.136434084102136,-0.222279194262936,0.249999536172336,0.24999326992583,0.249654168067566,0.249975175063933,0.249999475617497,0.829755809415053,0.831759929416759,0.04,0.0614182908768293,396.031803231104,1.03586139341631,0.280920279801655
3022,0.0744105911839924,0.00464940030996195,-0.2317467318878,0.249995794621491,0.249962482642504,0.2497673537414,0.249984204190727,0.249985576544495,0.848912830128411,0.849518440273892,0.04,0.0590971211482539,405.181024595055,1.04400927588566,0.285167098796251
3082,-0.228878731126848,0.248339055203586,-0.248099751421657,0.249989331942759,0.249909304607669,0.249962856268932,0.249999799955189,0.249961569054762,0.867753766506307,0.867276951131025,0.04,0.0555778535610608,414.125498196075,1.04185807017757,0.292064039463808
3142,-0.0532907163806694,0.0656582737514307,-0.248796509233716,0.0666599102304142,0.066612647164741,0.249970268408537,0.249999873304953,0.0666423270680161,0.8939520736024,0.878524008007209,0.04,0.0435797075712448,426.783459189561,1.0124092039877,0.309746330936383
3202,0.249997672726366,-0.249881257847746,-0.25,-0.25,-0.249990670236679,0.249983071195128,0.25,-0.208822295285667,0.896361739055241,0.878524008007209,0.04,0.0339353970158376,427.453619484974,0.868194852733844,0.361764934137891
3262,0.249993304023025,-0.158687344102256,-0.25,-0.0666858832634853,-0.249993986436616,0.249989226487982,0.24999084167479,-0.163117920836792,0.878040805136528,0.878524008007209,0.04,0.0395498068528616,418.690358956011,0.827479072788132,0.371783933346706
3322,0.249985758080891,-0.0011705839964095,-0.25,0.249947591099585,-0.249999714418324,0.249999858357458,0.249975022749429,-0.0130488750094334,0.872443218730075,0.878524008007209,0.04,0.0452537297246537,416.343673141923,0.877298765835429,0.348705764874271
3382,0.249990978411672,0.0907698804050414,-0.25,0.0666482733575527,-0.249999819096637,0.249999671187758,0.249981092013695,-0.0227950752800108,0.879737381706015,0.878524008007209,0.04,0.0406226194911222,419.777433767044,0.883969571674362,0.348928504194963
3442,0.249999995346658,0.249576137098456,-0.25,-0.249959639105958,-0.249999999904633,0.249999347894637,0.249991575288336,-0.0396294212019173,0.881499356345282,0.878524008007209,0.04,0.0391448816367434,420.537854435646,0.863444897529457,0.357869876550655
3502,0.249983539128158,0.249731553495689,-0.25,-0.24997443810044,-0.249975089972942,0.0666662630601467,0.249994664349279,0.0583615935294129,0.879998933565977,0.878524008007209,0.04,0.0368903088100576,419.849894369172,0.852771389323596,0.361756300148849
3562,0.249955114750749,0.25,-0.25,-0.25,-0.249932063727296,-0.249999974381247,0.25,0.22761880079262,0.881570689553172,0.878524008007209,0.04,0.0331866639183094,420.576020451284,0.834970855329882,0.370107483834142
3622,0.249971557350213,0.249999999934975,-0.249870097383186,-0.249999168049687,-0.249956246718643,-0.249511265260109,0.249999790706692,0.0524930088182833,0.885575342154597,0.878524008007209,0.04,0.0292231991794403,422.603353797087,0.812194455550944,0.382320508498319
3682,0.249999958203834,0.249999999822659,-0.249645720135962,-0.249997731044602,-0.249998017340061,-0.248667131323599,0.249999429200068,-0.234095952479749,0.883623377588798,0.878524008007209,0.04,0.0247864472585042,421.491528253538,0.76204970028297,0.406406110970927
3742,0.066666653277562,0.249998848844682,-0.06644241442295,-0.0666652433445351,-0.0666654117908446,-0.249155798731687,0.249999374625269,-0.249984791991719,0.869845400629325,0.878524008007209,0.04,0.0343414606051512,414.858439739167,0.770829036418344,0.39545451666008
3802,-0.249999964322362,0.249996860791813,0.249999659081343,0.249999962682852,0.249999997794166,-0.249999860618385,0.249999280359707,-0.249963713202918,0.868268628211039,0.878524008007209,0.04,0.0428871459530435,414.346802922685,0.850343715145711,0.35803391075395
3862,-0.249999977404163,0.066678409304362,0.215399953611978,0.24999997635871,0.249997992178523,-0.0666665798401889,0.0666662428863082,-0.136696094417716,0.875539114037608,0.878524008007209,0.04,0.0389431160729209,417.795064247204,0.882896607882734,0.347702755986367
3922,-0.25,-0.24996255235578,0.155636825983076,0.249999999980645,0.24999452793332,0.249999996049422,-0.249999912749563,0.0589479743930869,0.87936175249839,0.878524008007209,0.04,0.0362537510904609,419.509018136026,0.876687171898505,0.351601991046546
3982,-0.249999265978531,-0.249962549302781,0.190210912899965,0.249999526480837,0.066667114645738,0.249713822762936,-0.249999742985777,0.128895837616727,0.878068235666308,0.878524008007209,0.04,0.0357844930026542,418.943005966299,0.880776647001344,0.349497303690518
4042,-0.249997998123266,-0.249962544029419,0.249929790301864,0.249998708617531,-0.249989326487358,0.249219523449916,-0.24999944975742,0.249714874093923,0.879165208121093,0.878524008007209,0.04,0.0338985387366851,419.441810974935,0.877197565909371,0.35134111740099
4102,-0.249998731488522,-0.0881620921996758,0.066622208629744,0.0671206567790448,-0.176089067029983,0.249490615818258,-0.249907748031126,0.249819351267359,0.880588793670359,0.878524008007209,0.04,0.0314674680210075,420.174335252477,0.871862950700952,0.3541081928572
4162,-0.249999998210328,0.191311415506244,-0.249999977894827,-0.248759614578341,-0.0484431643308819,0.249958866272668,-0.249749354140256,0.249999811839656,0.881898499644252,0.878524008007209,0.04,0.0286641415828542,420.702844962547,0.845296376939823,0.365696764258892
4222,-0.249999998866541,0.212830408725155,-0.0668555835284343,-0.249214019066694,-0.122347337409558,0.249942916021943,-0.249841183926923,0.0886876870308744,0.880788848870494,0.878524008007209,0.04,0.0292294418202607,420.256986682337,0.83422390820681,0.370157869009804
4282,-0.25,0.249999578830547,0.249484734013516,-0.249998899546578,-0.25,0.249915365588874,-0.249999799012983,-0.189942346729749,0.879550371002606,0.878524008007209,0.04,0.0320763214224792,419.580380649055,0.818032882537373,0.376876525593347
4342,-0.066670255274987,0.249999733223007,0.249673664875227,-0.0666660033262599,-0.25,0.154642634395858,-0.0666687800677273,-0.0638382041899392,0.863417039582994,0.878524008007209,0.04,0.0455165500968316,411.668153114838,0.849143381607273,0.356222148198376
4402,0.249990212886399,0.249999999900893,0.25,0.249999908327017,-0.25,-0.00991935584662269,0.249993889019533,0.153978042015186,0.862416605929546,0.878524008007209,0.04,0.0593642127240731,411.680064301053,0.983482542988805,0.307572751269479
4462,0.24999380149472,0.249999999937232,0.120941422637862,0.0667308078477157,-0.249987124243798,0.0853843363658242,0.249996129712371,0.00585275994295102,0.883940312396238,0.878524008007209,0.04,0.0537309899683175,421.930971457453,1.00013011948107,0.309984212180533
4522,0.25,0.25,-0.101977938260377,-0.249824911161986,-0.249964884301267,0.249999804732778,0.25,-0.25,0.889391151562762,0.878524008007209,0.04,0.0498789067226496,424.21009485231,0.919806239189319,0.338874839018277
4582,0.25,0.21875274810211,-0.156251215531503,-0.249888010634302,-0.249977759333134,0.0666665464614571,0.249576836246288,-0.249998935429766,0.887523495212029,0.878524008007209,0.04,0.0438371736530846,423.516493477505,0.877358050189676,0.35468934246185
4642,0.25,0.164780222096665,-0.249995967181629,-0.24999700063194,-0.24999999802454,-0.249999990552643,0.248845917035331,-0.249997096626635,0.887373647598136,0.878524008007209,0.04,0.0314160575634369,423.279359291309,0.809680494938338,0.384121034748537
4702,0.249936712874156,0.196027473994554,-0.249991892577888,-0.249998032402936,-0.0851557275822698,-0.249999852817547,0.0659357483855684,-0.249998161196869,0.882708736972496,0.878524008007209,0.04,0.0289554164228593,421.148420726251,0.780474579739542,0.396488951826605
4762,0.249827398747699,0.25,-0.249984854625972,-0.249999814552838,0.199575284999832,-0.249999614911471,-0.249999997464022,-0.25,0.87982168107867,0.878524008007209,0.04,0.0288346244129319,419.713358797436,0.761344090964016,0.405066649021818
4822,0.249890685873543,0.0666666666666666,-0.249990324824871,-0.249959085458902,0.0347310138332271,-0.249999624988457,-0.066737134987451,-0.249986249545641,0.877938654364716,0.878524008007209,0.04,0.0185652588532825,418.974087044151,0.766634865042032,0.401562614659686
4882,0.25,-0.25,-0.249999773350242,-0.249888735205739,-0.25,-0.24999964239416,0.249807809290262,-0.249962498760839,0.882151252690694,0.878524008007209,0.04,0.0133339949871911,420.975016529671,0.719470792865875,0.429930079104586
4942,0.249999289646739,-0.0666666666666666,-0.0755131353503757,-0.0666560847839967,-0.0666666666666666,-0.249988135017501,0.249878271167905,-0.249976163035035,0.850171873197757,0.878524008007209,0.04,0.0303516601564219,405.514557706152,0.773733650925219,0.385096561236696
5002,0.249998062672924,0.25,0.225872875740302,0.249836675035377,0.25,-0.249968258639635,0.249999978047471,-0.249999764963192,0.857330289989363,0.878524008007209,0.04,0.0526957999818364,409.27869589431,0.959946841941822,0.31327564373738
5062,0.249982322401264,0.25,0.0513866048221969,0.0969783556928075,0.249999999992483,-0.249979612416708,0.249972844719269,-0.249999851143355,0.877947416551368,0.878524008007209,0.04,0.0490959183397227,419.031677023314,1.00362798655818,0.306781218465301
5122,0.249955134659305,0.25,-0.249998772218167,-0.167049650444357,0.249999999979498,-0.249999223486199,0.249925978061467,-0.25,0.885805062829441,0.878524008007209,0.04,0.045904549067773,422.560535189974,0.958782788670227,0.323834698380697
5182,0.249959425298761,0.249953287766229,-0.249999222404839,-0.197464778614759,0.249999999922363,-0.249999508207926,0.249952721984015,-0.25,0.883067292189582,0.878524008007209,0.04,0.0504830392291254,421.30995135189,0.929282853729351,0.33312595358309
5242,0.249966836403277,0.249872602998807,-0.25,-0.25,0.249999999823676,-0.25,0.249998916032051,-0.25,0.88246720670578,0.878524008007209,0.04,0.0504331867262078,421.014149345125,0.903533597054646,0.342378954953474
5302,0.249978996388742,0.249919315232578,-0.249955615699589,-0.0666678939744783,0.0666666665549949,-0.249998744077733,0.249999313486966,-0.249999609702207,0.882386380973253,0.878524008007209,0.04,0.0498805428505758,420.993499113974,0.882148377984225,0.350661774323651
5362,0.25,0.25,-0.249878951907971,0.249996652796877,-0.25,-0.249996574757454,0.25,-0.249998935551474,0.881134134201767,0.878524008007209,0.04,0.0490001217603697,420.370143381999,0.861723028221876,0.358441957328879
5422,0.25,0.249999296096547,-0.249912281665838,0.117909905555008,-0.0666666666666666,-0.249993053000697,0.249999674237448,-0.0666659925159337,0.87203361653427,0.878524008007209,0.04,0.0514796767408365,415.903266639062,0.867450297574116,0.352291696830625
5482,0.25,0.24999808026331,-0.249969851247609,-0.110239930590038,0.25,-0.249986969966298,0.249999111556676,0.25,0.872711142435926,0.878524008007209,0.04,0.0519821258915504,416.492921358374,0.926159597201681,0.330427716803624
5542,0.249999861177855,0.10039137777467,-0.249980905775084,-0.161485289373691,0.0666666666666666,-0.249991747645322,0.249999437319228,0.0666666666666667,0.891978749430221,0.878524008007209,0.04,0.0395986755280885,425.849031116483,0.904401434941181,0.345978488515372
5602,0.24999962139415,-0.158020199251163,-0.249999999958904,-0.25,-0.25,-0.25,0.25,-0.25,0.89471671779487,0.878524008007209,0.04,0.0235740759230326,426.71241509451,0.764432683897355,0.410157547530939
5662,0.0666664268829618,-0.191746031547953,-0.24999872042154,-0.0666666666666666,-0.146285022019555,-0.25,0.249999909021685,-0.249999928092744,0.879949813461452,0.878524008007209,0.04,0.021365242824825,419.758694123719,0.734266057531654,0.420049936672732
5722,-0.25,-0.249999741878773,-0.249996510311548,0.25,0.0328590308557582,-0.25,0.249999751877323,-0.249999803889301,0.877754132433807,0.878524008007209,0.04,0.0182742311302232,418.678463710087,0.738243773214484,0.41671151897196
5782,-0.249972091311959,-0.249999571532212,-0.249997748293326,0.0666667260447731,-0.0708548786250569,-0.2499999984838,0.249999704917596,-0.0666666066073234,0.881916502446385,0.878524008007209,0.04,0.0151775447689867,420.729520971723,0.735925171882596,0.420072260844444
5842,-0.249923885396252,-0.249999277297243,-0.249999886625489,-0.24999983805971,-0.249997085910101,-0.24999999586491,0.249999623805341,0.249999825061546,0.878911451129893,0.878524008007209,0.04,0.0146913041274033,419.506178376147,0.702872062763478,0.438547617565753
5902,-0.0666184607509595,-0.249999542288254,-0.249999859758977,-0.249999897437816,-0.249993556762891,-0.249999774196846,0.249999761743383,0.249999548157294,0.864598719744981,0.878524008007209,0.04,0.0162135213911263,412.241500649885,0.728340042264219,0.415883987805606
5962,0.25,-0.25,-0.249999813353184,-0.25,-0.249987460963164,-0.249999391315644,0.25,0.24999906986813,0.864051729957585,0.878524008007209,0.04,0.0188109164209587,412.182889280395,0.837671632555405,0.361552048900341
6022,0.249999717221853,-0.194653134207824,-0.249999867664193,-0.249999999627513,-0.0666717803830476,-0.249999551440628,0.25,0.0761333982728752,0.865603234538778,0.878524008007209,0.04,0.0224420689081369,412.971795048946,0.906171971130595,0.334860902087357
6082,0.249999228786871,-0.0990540023849751,-0.249999961474117,-0.249999998984126,0.249964395164426,-0.249999828020145,0.25,-0.224180034482565,0.869908899942742,0.878524008007209,0.04,0.0291618094745238,415.125667613781,0.977248119028094,0.312125621512704
6142,0.249999511565019,0.0270892701866003,-0.249999975600274,-0.249999999356613,0.13759499478015,-0.249999808945418,0.0671319246463684,-0.233532918258405,0.880474481104602,0.878524008007209,0.04,0.0335732197088148,420.17959714221,0.991632926737973,0.31134270744237
6202,0.25,0.244973104628412,-0.25,-0.25,-0.0564976058836015,-0.249999775998163,-0.248731114600813,-0.249687899325765,0.884388618510219,0.878524008007209,0.04,0.0383925890381061,421.906601507038,0.953345474577794,0.325177649644554
6262,0.249998503635435,0.245860182486963,-0.249975745015555,-0.25,0.0558848496023977,-0.24999985813217,-0.249165721758817,-0.17283185082088,0.878321217542633,0.878524008007209,0.04,0.0483973153600766,418.954767688306,0.933722068999923,0.329688796833958
6322,0.249995919005732,0.247392407879006,-0.249933850042422,-0.25,0.249999999987305,-0.25,-0.249916406849915,-0.040080494312443,0.877775740234653,0.878524008007209,0.04,0.0543999061283219,418.855960346154,0.950382162844897,0.323832997211182
6382,0.249997414948174,0.247509660904679,-0.249958105026867,-0.0666666666666666,0.249999201248164,-0.25,-0.249947057671613,0.00833705524968127,0.875539812625163,0.873252197034981,0.04,0.0624281750000827,417.581687239118,0.936688386806404,0.327567635013383
6442,0.249999998848757,0.247712188858115,-0.25,0.25,0.249997821607829,-0.25,-0.25,0.0919673681297143,0.862512464913912,0.858874530747086,0.04,0.0733377136071547,411.443742970586,0.923892491210495,0.327222908857059
6502,0.249245475868467,0.248551052943473,-0.0670765134660483,0.249997123073632,0.249997540914137,-0.249252545304468,-0.0666666666666666,-0.0333994634177473,0.848306270754872,0.844496864459191,0.04,0.0811859226341681,404.554519309255,0.891669622668724,0.333370957156213
6562,0.247942208902511,0.25,0.248882236001687,0.249992153837179,0.249997056079577,-0.247961487194004,0.25,-0.249942172454272,0.832287412179691,0.830119198171297,0.04,0.086438400982832,397.005615263025,0.881812074166072,0.330807452356686
6622,0.248696732304923,0.0666669848461,0.0660911538569482,0.0668838530833174,0.249998135517065,-0.247831424258059,0.249999373235761,-0.248984820979643,0.824594704003288,0.815741531883402,0.04,0.0706039733618233,393.430358125046,0.848996699680126,0.340499550132112
6682,0.25,-0.249999132237909,-0.249638897120327,-0.24939412094608,0.25,-0.247606770095973,0.249998290642984,-0.247331213887103,0.817490383200729,0.801363865595507,0.04,0.0427870404163347,389.825922942584,0.745170221970382,0.384388070187698
6742,0.0666666666738455,-0.0666661170840091,-0.249771284745443,-0.249616208209457,0.0666666740335752,-0.248484277167396,0.0666655840738895,-0.0649772278421671,0.797795798512826,0.786986199307612,0.04,0.0354051610040722,380.543196211889,0.680214847711229,0.4110669212885
6802,-0.249999999980421,0.25,-0.249999954279735,-0.249999813482562,-0.249999979908431,-0.249999971199854,-0.25,0.249997838962722,0.784074241721159,0.772608533019718,0.04,0.0239246199634679,373.79315198922,0.593589383101359,0.462700418601333
6862,-0.0666702457599358,0.25,-0.144695990138416,-0.0666665485389561,-0.0666666679417017,-0.249998758668882,-0.25,0.249998631343057,0.734698690396002,0.758230866731823,0.04,0.0378064129357942,350.361439179602,0.59806523130517,0.430449713005054
6922,0.249990238802721,0.25,0.0371926751965902,0.25,0.249999961819013,-0.249996664297204,-0.25,0.25,0.733037989161328,0.743853200443928,0.04,0.0668071536454642,349.778743208077,0.696554507142226,0.368971636541473
6982,0.249993755665214,0.249999994102713,-0.0681106995824891,0.249994677293122,0.249999733924472,-0.249997887388229,-0.25,0.123038069050915,0.735336123185574,0.729475534156034,0.04,0.0599486270768091,350.86247747431,0.698025971291351,0.369334621415415
7042,0.249999830245884,0.24999998391649,-0.249998346928172,0.249985483526696,0.249999340288446,-0.25,-0.234225167292845,-0.0962598116793237,0.723858870516607,0.715097867868139,0.04,0.0573503179878193,345.145339208972,0.629777383621139,0.402688872644606
7102,0.249999887295488,0.249999836719436,-0.0666696177705197,0.0666586103937956,0.0666730311987283,-0.0666671182406056,-0.08590177886319,-0.152630472865764,0.701476436845866,0.700720201580244,0.04,0.0582328292836448,334.463334347102,0.607417779268044,0.404590509833179
7162,0.249999985835713,0.249999582469981,0.249989096229061,-0.24999689774485,-0.249981502683512,0.249998768434712,0.197540603100391,-0.144806303602614,0.684584078264327,0.686342535292349,0.04,0.0571151031591664,326.568161748406,0.627181514538209,0.382591457043017
7222,0.249999991029285,0.249999735564321,0.249986832362983,-0.24999744586142,-0.24998828348614,0.249985426248488,0.216768245265901,-0.0666653864159077,0.67366666524666,0.671964869004454,0.04,0.0588915561783389,321.223092744116,0.618312616554306,0.381727393755226
7282,0.25,0.25,0.249982922048849,-0.249998392608221,-0.24999999578159,0.249962380654102,0.249979627188147,0.25,0.656098139982221,0.65758720271656,0.04,0.0648170659683344,313.003337568881,0.644642612975788,0.35676696539394
7342,0.249987817352846,0.249925649677861,0.0666558506309374,-0.06667135069658,-0.249952715510623,0.249976174414265,0.249945912255077,0.234494386684674,0.648305396882299,0.648481347400893,0.04,0.066952275214525,309.268811824715,0.636129110226398,0.357228032897833
7402,0.249966774598671,0.249797226394165,-0.25,0.249984448968982,-0.249871049588044,0.25,0.249887677370684,0.207711963685474,0.647634831611633,0.648481347400893,0.04,0.0624845347740176,308.97891668246,0.641112322704955,0.354119137664807
7462,0.249971629804135,0.249871246787939,-0.249999208820596,0.249983370544799,-0.249750642244828,0.10058445900399,0.0665966360235631,0.223088263882646,0.654386078384165,0.648481347400893,0.04,0.0498334841109972,312.332173391785,0.634860370005091,0.361487414608618
7522,0.249980016068119,0.249999100195366,-0.249997842237989,0.249981507812119,-0.24954266592473,-0.157496929989117,-0.00259978538530512,0.24964732785958,0.651749995368397,0.648481347400893,0.04,0.0424719285032387,310.899811690926,0.598215165233056,0.381871912916347
7582,0.0666540101764751,0.0688482924659038,-0.0666653000840596,0.249980782460561,-0.249710355085662,-0.191414722326441,-0.00181946448920442,0.2497586146023,0.650016471696515,0.648481347400893,0.04,0.0307073945501264,310.193249055626,0.592107452515182,0.384934193262001
7642,-0.25,-0.244048557248621,0.25,0.249979529580597,-0.25,-0.25,0.249979758298552,0.249950837157907,0.654857563238437,0.648481347400893,0.04,0.0229515531508465,311.891524961341,0.573000814325793,0.399947522557211
7702,-0.0666666666666666,-0.063009743097443,0.0960756689189168,0.0666570376048227,-0.249992955577966,-0.195330971089971,0.249987145333565,0.249968863533341,0.650129143450243,0.656109490668347,0.04,0.0225641668134824,310.105541350341,0.577868638157118,0.39430753641628
7762,0.25,0.249693663163683,-0.169793630221136,-0.249990903080605,-0.249980787939908,-0.100902648427194,0.249999904757678,0.25,0.666831078009715,0.676913517761402,0.04,0.0205855166413452,318.475147568278,0.652017175805676,0.358898123381878
7822,0.0666688062308206,0.249801511643426,-0.198978722892364,-0.249993422994274,-0.24998078829807,0.027692195839706,0.249999939679863,0.25,0.692465725838779,0.697717544854457,0.04,0.0191124541503607,330.64613682106,0.701957299711995,0.346104650260838
7882,-0.249994164825035,0.249987795381166,-0.249389337506302,-0.249997775572431,-0.249980788916714,0.249810563209807,0.25,0.25,0.713215730664616,0.718521571947512,0.04,0.0177823022714274,340.22148990398,0.723303701067634,0.345617505269089
7942,-0.0666629710558551,0.249942180175032,-0.0662799138179545,-0.249998591195873,-0.249899831760659,0.0665467035296058,0.249998925932238,0.249999686932386,0.722340355948652,0.739325599040567,0.04,0.022676381064242,344.716927544665,0.780612477255666,0.32447541591487
8002,0.25,0.249863390273528,0.249999999825554,-0.25,-0.249759996672927,-0.249999963190741,0.249997070724287,0.249999146179236,0.745305548906723,0.760129626133622,0.04,0.0311414511028561,355.843131023853,0.894571418262643,0.292279425418566
8062,0.25,0.249913480506568,0.107758096851684,-0.066729620561182,-0.249846567825411,-0.249998184109482,0.249997988817989,0.249999459246849,0.772948985584674,0.780933653226677,0.04,0.0371656894479881,368.954336954039,0.949944859276206,0.285383525767748
8122,0.25,0.25,-0.137932462830456,0.249828307560413,-0.249996099816064,-0.249995111150944,0.249999574616202,0.25,0.797394388376937,0.801737680319732,0.04,0.0430519377746117,380.634800547763,0.98613193114289,0.283614314732085
8182,0.25,0.0666772918106064,0.0043094402073782,0.249883535687932,-0.249934432780672,-0.0666635703955976,0.142746816308242,0.25,0.820384514740796,0.822541707412787,0.04,0.047787280748549,391.573138551455,1.00265048290191,0.286957778150118
8242,0.25,-0.249971022334709,0.25,0.249978929726375,-0.249827916992267,0.25,-0.0425079480418704,0.25,0.837957868489966,0.835717591238389,0.04,0.051283708493336,399.849422370816,1.00686382432466,0.291796724093884
8302,0.249982611187591,-0.249815458816127,0.249960872807872,0.249980526982478,-0.249891014095103,0.249999242092766,0.0647448243286531,0.249999541741475,0.83812718770494,0.835717591238389,0.04,0.0590039050628347,399.82194678088,0.983665394405991,0.298657835099725
8362,0.249952575966157,-0.249546758193122,0.249893289476015,0.249983285879383,-0.25,0.249997932980271,0.249999612968648,0.249998750204023,0.837902289063859,0.835717591238389,0.04,0.0627836453952662,399.804212460762,0.977959361276811,0.300387069282778
8422,0.249969656657421,-0.2497129311953,0.0666176299230075,0.131847672197159,-0.249999829377721,0.249993123066545,0.249999754880144,0.249999203536902,0.844690820248286,0.835717591238389,0.04,0.0561067573301746,403.112733907315,0.945601009682167,0.313237151749057
8482,0.249999159669603,-0.249999957289972,-0.249949418395825,-0.0722047514357743,-0.249999534666513,0.249984815033745,0.25,0.24999998656642,0.846806462108634,0.835717591238389,0.04,0.045588186836947,403.917688420057,0.867034986322659,0.342303174050563
8542,0.249994526165201,-0.0666666417226475,-0.0666346322376598,0.045936990757343,-0.249999705288791,0.249679451305431,0.24999999999905,0.224713204557928,0.833744711691783,0.835717591238389,0.04,0.0570419260121846,397.610500472258,0.841347110507752,0.347246049704164
8602,0.249986522839414,0.249999994257277,0.24999999839917,0.25,-0.25,0.249152004865615,0.24999999999741,0.181036035634169,0.829904841097131,0.835717591238389,0.04,0.0698861111103295,396.014909603413,0.885702344286896,0.3285325609977
8662,0.249969106553556,0.144743947726343,0.249999734540056,0.24999757053922,-0.249999160760378,0.249414768289911,0.249661275450505,0.115207017644345,0.835652202518066,0.831087519548636,0.04,0.0621200608802894,398.699882679586,0.886670169675439,0.330398971281855
8722,0.249939023877983,-0.0370619508270868,0.249999278783405,0.249993374197871,-0.249997711164666,0.249868632386423,0.249076205778578,0.00150235020737552,0.826160902259459,0.818460051303855,0.04,0.0595958351603363,394.010259947864,0.833950908568421,0.347153638171168
8782,0.0666281131336592,0.068170601247342,0.249999542081927,0.0666662997130971,-0.249998469889642,0.249916666767279,0.249414613310594,0.0926180950928437,0.809916128971795,0.805832583059074,0.04,0.0566504403142225,386.322377371074,0.804393720399572,0.352887170649784
8842,-0.249999823606537,0.24993591846681,0.249999996870283,-0.249989556215148,-0.249999780414601,0.249999635243303,0.249999135411348,0.249999836258652,0.799711314899527,0.793205114814293,0.04,0.0467267744790434,381.423457370417,0.767867601348817,0.364985600535611
8902,-0.249999633903865,0.249959403048049,0.0674274065411474,-0.249993373985836,-0.24999981634006,0.0666666523213855,0.249999452427187,0.20864317023123,0.79269897640509,0.780577646569512,0.04,0.0338818037752766,378.236322165497,0.723406312837147,0.384180762269251
8962,-0.249999306235612,0.249999967324735,-0.247925249481905,-0.249999968317024,-0.249999878393126,-0.249999409089199,0.25,0.137208928911137,0.780021688152885,0.767950178324731,0.04,0.0143503399268482,372.105465918426,0.609914464715542,0.448282507552471
9022,-0.249991704355211,0.249999722107784,-0.24868599133854,-0.249999517355472,-0.24999990923213,-0.0666663732161035,0.249999699085702,0.178565636466827,0.751369242609506,0.755322710079951,0.04,0.0195441856910986,358.408005010529,0.581954775536846,0.452525587558149
9082,-0.249978573834519,0.249999298551233,-0.25,-0.249998738421883,-0.2499999624995,0.249999779655608,0.249999179324643,0.249999949517566,0.7461665382435,0.752630589365258,0.04,0.0230379427341825,355.982928228705,0.627077772833347,0.417121369981149
9142,-0.0666558943030674,0.249998916614119,-0.0666668425373073,-0.0666658676671927,-0.249999951920487,0.146685795845473,0.249999480238941,0.249754503601251,0.739390263300383,0.767099523475262,0.04,0.0290058306628086,352.65772405168,0.702131366666463,0.369053817243725
9202,0.249992370342167,0.249998256904558,0.249999520352798,0.25,-0.249999933647645,-0.0317656307356691,0.25,0.249330551563981,0.759879872783457,0.781568457585266,0.04,0.0428385641971637,362.853325778997,0.874768453840719,0.304784355702169
9262,0.249994796604188,0.249997779482051,0.225054235314338,0.130308232035046,-0.067021884506463,-0.11178474817622,0.25,0.249575706628451,0.788118019025431,0.79603739169527,0.04,0.0457946888414157,376.185423434515,0.942358708571403,0.293319132098202
9322,0.249998987420406,0.249996954843174,0.181966924793361,-0.0764320944498737,0.249031109464669,-0.249999587391716,0.25,0.249999156285262,0.807691191097034,0.810506325805274,0.04,0.0501179531146011,385.486340668285,0.9681367204914,0.292568104055602
9382,0.249999357741141,0.220582438025983,0.20678116437618,0.0432596730873872,0.0661654355217647,-0.249999701641825,0.150680911930343,0.249999177493357,0.828015519362456,0.824975259915278,0.04,0.0503780291539059,395.249411434714,0.970109400947444,0.299367875267358
9442,0.249999997386048,0.169775545341745,0.249642123655594,0.249999998833565,-0.249693455834161,-0.249999898982924,-0.020870240189973,0.249999214125521,0.84346051400127,0.839444194025282,0.04,0.0482384014090411,402.458723852596,0.935529264617459,0.316095741280236
9502,0.249999998344497,0.199165497654263,0.0669450422089969,0.248839821240672,-0.249751849181898,-0.0668611324876251,0.0784136031412224,0.249999502092051,0.848671032597038,0.853913128135287,0.04,0.04906751938942,404.930888955742,0.94333235300018,0.315406655810146
9562,0.25,0.24992996073952,-0.248622643926034,0.246835878125674,-0.249852710418897,0.249469464186073,0.249903877986014,0.249999999488786,0.863484258842479,0.868382062245291,0.04,0.0469790855131612,412.135385073546,0.985183186820167,0.307381402950485
9622,0.249975928576305,0.183712877744286,-0.249127674383888,0.246725400756368,-0.249906689100156,0.0663379873421408,0.24993824107562,0.249998937542364,0.885293671548758,0.882850996355295,0.04,0.040241998621108,422.586910471377,0.992566341003258,0.312832001515155
9682,0.249934350662649,0.0693379162070635,-0.249999999720181,0.246534576209385,-0.249999925004149,-0.249980018115559,0.24999759550312,0.249997103271272,0.901814217060811,0.897319930465299,0.04,0.0326289341863907,430.300246490779,0.956929135824883,0.330404910570436
9742,0.249958422086344,-0.0477526530688599,-0.142356597346854,0.247802882595451,-0.249999952502628,-0.0666902702848065,0.249995959790086,0.0666839799970417,0.914385059517235,0.911788864575303,0.04,0.0325595155718473,436.38669728736,0.946102368060255,0.338912861221393
9802,0.25,-0.25,0.0435729158434384,0.249993593625928,-0.25,0.249901112331948,0.249993134467572,-0.107704383893483,0.922534526208241,0.926257798685307,0.04,0.0337510891915171,440.26148915198,0.955490950672109,0.338562455804372
9862,0.249999897162424,-0.126256784350144,-0.023264188699137,0.176749350616013,-0.249999851140099,0.249937371143567,0.249995635461127,-0.0666335929776219,0.936260151751371,0.940726732795311,0.04,0.0323700255930445,446.538636651107,0.978342983718134,0.335368743385468
9922,0.249999719533884,0.0874814972268809,-0.138710096545403,0.0502365672352511,-0.249999594018451,0.25,0.249999955359086,0.25,0.946583651141675,0.955195666905315,0.04,0.0348807411563202,451.810675195427,1.04422672784714,0.317918908831662
9982,0.24999982237146,0.147070481873744,-0.179516394478755,-0.0598501740843411,-0.249987764847588,0.0667787312049415,0.249999911376353,0.25,0.971394384870949,0.969664601015319,0.04,0.0305602958160497,463.696060612713,1.06319165279128,0.320461989327554
10042,0.25,0.249996909900144,-0.25,-0.25,-0.249967332643369,-0.249694369441068,0.249999835406178,0.25,0.988710782615182,0.984133535125324,0.04,0.0265697476757676,471.720603764293,1.02187885585766,0.339187710887637
10102,0.25,0.24999351031443,-0.25,-0.249920218193245,-0.249979310555471,-0.249806433979343,0.249999895757246,0.0666666666666667,1.0018792702959,0.993297193394993,0.04,0.0248995414835141,478.116913922895,0.999247143982684,0.351573286082505
10162,0.25,0.249987638302742,-0.25,-0.249782413254304,-0.249999999676373,-0.25,0.25,-0.240314110667059,1.00163168884292,0.993297193394993,0.04,0.0246904636634888,477.79822521492,0.930473790817054,0.377307174929132
10222,0.0666690266313548,0.249992167139411,-0.25,-0.249849894309995,-0.249999423319002,-0.25,0.25,-0.0702169022153357,0.993874350240321,0.993297193394993,0.04,0.0242705558900406,474.171102143808,0.91270372475055,0.381733202884349
10282,-0.249993563732669,0.249999989675475,-0.25,-0.249966452497096,-0.249998427792633,-0.25,0.25,0.240317539412721,0.995912969824334,0.993297193394993,0.04,0.0224320890047607,475.25395822256,0.897499453112182,0.389086557163179
10342,-0.24991560427715,0.249999833756794,-0.25,-0.0666454199148275,-0.121864091764422,-0.25,0.142416882370516,0.0605344416280564,0.990049430076202,0.993297193394993,0.04,0.0216551404451113,472.290463899262,0.901121291222353,0.385106281005394
10402,-0.249780947035799,0.249999564442709,-0.25,0.25,0.099458852284306,-0.25,-0.0434085026258666,-0.25,0.990178446166657,0.993297193394993,0.04,0.0223038874982315,472.417337954994,0.925029321086384,0.375253719243715
10462,-0.249861124137829,0.249994854723923,-0.0666670522520186,0.25,0.154650347232605,-0.0668443403697837,-0.11700952635415,-0.25,0.984109299160412,0.993297193394993,0.04,0.0328520270161366,469.392504208053,0.954154945037474,0.361469718481761
10522,-0.249999611859516,0.249986719755111,0.249998948403586,0.25,0.249981111234213,0.249515435355135,-0.244138567339366,-0.25,0.980743113707698,0.98883522553169,0.04,0.0460198480310945,467.945597120632,1.02660359627316,0.334924764259038
10582,-0.249997034399194,0.173154400779398,0.249999333988938,0.249742214938542,0.249988035964401,0.0707406963075786,-0.0647887108468955,-0.0666929957096505,0.970171471213581,0.976666222268137,0.04,0.0513141864688854,462.705902203518,1.0500169625323,0.323789976796389
10642,-0.249992582422275,0.0404440316395317,0.25,0.249296949832388,0.249999996861999,-0.238052034774565,0.244997404912827,0.249928193519135,0.963289779522386,0.964497219004584,0.04,0.0539574685026535,459.600004032824,1.08438827230472,0.31142242924313
10702,-0.0728773983695056,-0.0660520847889971,0.25,0.0662214015605126,0.0666696451445929,-0.242428610864707,0.246831336449992,0.249954522562119,0.962606961553644,0.95232821574103,0.04,0.0542211341147561,459.2601761231,1.04882492415784,0.321744006081111
10762,0.233048828630732,-0.249999922256456,0.25,-0.25,-0.249991871458199,-0.249988151384044,0.249999036377824,0.25,0.952801241611076,0.940159212477477,0.04,0.0523521153883386,454.405925676754,0.961348652134601,0.347310362020666
10822,0.130550570992763,-0.213703592728663,0.25,-0.25,-0.249988601937299,-0.249992495876561,0.249092871770107,0.25,0.936720144152412,0.927990209213924,0.04,0.0520314220166297,446.819331248114,0.905565301435439,0.362549121577879
10882,-0.0464918740182761,-0.151009932635203,0.25,-0.25,-0.249982954583018,-0.25,0.247527678356779,0.25,0.923910982143318,0.915821205950371,0.04,0.0474174568478061,440.679253640324,0.85173548146013,0.380165359931582
10942,0.0622218131217584,-0.0158217786263754,0.25,-0.25,-0.249989156013991,-0.0666669033456003,0.0651049785951333,0.25,0.906617865863678,0.903652202686818,0.04,0.051908168180729,432.424920597949,0.818457510667156,0.388212265042779
11002,0.25,0.217685032843418,0.25,-0.25,-0.24999986757658,0.249999354511999,-0.249988775538618,0.25,0.892223286194311,0.891483199423264,0.04,0.061347116117342,425.589588484644,0.811075331415315,0.385553347841052
11062,0.249982512378167,0.229531420614152,0.25,-0.0666666666666666,-0.0666670784056018,0.249999591190933,-0.241731588049957,0.24999376803849,0.874924118466399,0.879314196159711,0.04,0.0668598848527503,417.204181476017,0.813254972029251,0.376943797655462
11122,0.249952306485911,0.249993363127237,0.25,0.25,0.24999864834427,0.25,-0.17933532643301,0.249983003741337,0.859700656644309,0.867145192896158,0.04,0.0754326843620426,410.143586587306,0.866481619067776,0.347801336734916
11182,0.249969794107743,0.143430436641171,0.0666666666666666,0.25,0.249999143951371,0.117568031583996,-0.103421298063326,0.200107094563667,0.860457329788264,0.854976189632605,0.04,0.0611991377733817,410.621800995799,0.871428628582695,0.346230127988063
11242,0.25,-0.040632800016579,-0.25,0.25,0.25,-0.11117809568001,-0.0491344467930924,0.113957796893146,0.85469054623301,0.842807186369051,0.04,0.0451066543484058,407.555771635756,0.786616404260198,0.380696360615496
11302,0.25,0.0658620700430843,-0.25,0.249999358780154,0.249989560024279,-0.162079248829378,-0.0232090953174842,0.163839938032326,0.832975459875424,0.830638183105498,0.04,0.0487044063132328,397.253491691379,0.754441113903096,0.38689850521617
11362,0.25,0.249807754691594,-0.25,0.249998251218602,0.249971527338942,-0.249999422451013,-0.0109628845146285,0.25,0.818650347273733,0.818469179841945,0.04,0.0514379518967503,390.505339577556,0.755142044696722,0.379973230610071
11422,0.249999998490341,0.249857579700377,-0.249996598864446,0.24999847675382,0.249981967314663,-0.249999634218975,-0.00517821157906809,0.249985461539464,0.807928343029535,0.806300176578392,0.04,0.0504439239862544,385.369485741719,0.746424585581583,0.379355219685342
11482,0.249999995882749,0.249943641079185,-0.249990724175762,0.249998866314652,0.25,-0.25,-0.00244573852994706,0.249960349653083,0.795943101029048,0.794131173314839,0.04,0.0507828385079159,379.647955564059,0.735117639063721,0.379471267632672
11542,0.0667650587599844,0.15861078452883,-0.066660793142277,0.249997695174302,0.249999947363325,-0.249999563459615,0.0907033830557071,0.0818709046848677,0.787194918971713,0.781962170051286,0.04,0.0468747616086601,375.541070903168,0.717449765363778,0.384610041540519
11602,-0.249731650815699,0.000854032305490819,0.249999996824652,0.249995672295514,0.249999856445431,-0.249998809435313,0.249999655396192,-0.000573938912241608,0.771577203452157,0.769793166787732,0.04,0.0412865433071452,368.002245242285,0.701656955182959,0.38537213598365
11662,-0.249819418803123,0.0922075537934774,0.249999928099225,0.249966202066329,0.249857156962356,-0.249999213884732,0.249997412645196,-0.000271101813847947,0.757497463361037,0.757624163524179,0.04,0.0434865595287245,361.274344602109,0.695424422853852,0.38171731414673
11722,-0.249971018054126,0.25,0.24999980939167,0.24991529894319,0.249610676037046,-0.249999912479182,0.249993538802566,0.25,0.740219783258887,0.745455160260626,0.04,0.0519204031658818,353.15874914996,0.734951936451373,0.353073975561904
11782,-0.102319178741086,0.0666698759776076,0.249999879281391,0.249946355997354,0.0664200948600805,-0.2392514582771,0.0666625745749587,0.25,0.742673783366555,0.733286156997073,0.04,0.0413097568019551,354.393704565352,0.719745676899042,0.361794207884642
11842,0.152715816435984,-0.249991247333797,0.25,0.25,-0.249999999900133,-0.220685946473504,-0.0036901458861148,0.25,0.728203868799414,0.721117153733519,0.04,0.0354619468628625,347.278733324599,0.65737114763868,0.388170231239501
11902,0.18838661803824,-0.066661123311405,0.066666667584949,0.122154351086461,-0.249999999936751,-0.0482033735782508,-0.0113707531614589,0.25,0.711481709327846,0.708948150469966,0.04,0.0386660526300867,339.319960701583,0.633486524270546,0.39357427439728
11962,0.249999820805771,0.25,-0.249999997495594,-0.0986699515823781,-0.25,0.249721070513551,-0.0141096630695649,0.25,0.699009396780495,0.696779147206413,0.04,0.0446098138269245,333.42344167643,0.62244790058864,0.393593393263418
12022,0.116621688919614,0.249996278840714,-0.0666666650805425,-0.154157636002173,-0.249998835440283,0.0664911402946684,-0.0095095763506068,0.249951274275786,0.690295048974309,0.68461014394286,0.04,0.0382394431984167,329.307305503677,0.599672291340313,0.403498625394729
12082,-0.113758720701931,0.249989851383767,0.25,-0.25,-0.249996823928045,-0.249996920992492,0.25,0.249867111661234,0.675632977866601,0.672441140679307,0.04,0.0332436010389517,322.147534206659,0.580522655704564,0.407746568147958
