time,bias_percent_1,bias_percent_2,bias_percent_3,bias_percent_4,bias_percent_5,bias_percent_6,bias_percent_8,bias_percent_9,normalized_power,power_SP,SP,CV,total_power_MW,fuel_fraction,thermal_efficiency
56,0,0,0,0,0,0,0,0,0.999846826182749,1,0.04,0.0399058595914478,477.029483050059,1.00004491681994,0.350493841369352
116,0,0,0,0,0,0,0,0,0.999982501657108,1,0.04,0.0399126902045844,477.091952350055,1.00029244052832,0.350452998690152
176,0,0,0,0,0,0,0,0,0.999998744321162,1,0.04,0.0399525191507321,477.099443011358,1.00031791422088,0.350449576400722
236,0,0,0,0,0,0,0,0,1.00000172745363,1,0.04,0.0399792749567424,477.100838215386,1.00031200333892,0.350452672062703
296,0,0,0,0,0,0,0,0,1.00000307343862,1,0.04,0.0399950495063345,477.101474248385,1.00029594972832,0.350458763632112
356,0,0,0,0,0,0,0,0,1.00000378893112,1,0.04,0.0400038637992502,477.101811173587,1.00027440118474,0.350466560932851
416,0,0,0,0,0,0,0,0,1.00000399095574,1,0.04,0.0400082931901189,477.101903951207,1.00025064190044,0.350474953834623
476,0,0,0,0,0,0,0,0,1.00000380991777,1,0.04,0.0400099555193135,477.101815124997,1.00022725670031,0.350483082646905
536,0,0,0,0,0,0,0,0,1.00000338982795,1,0.04,0.0400099253645027,477.101613313546,1.00020597040137,0.350490393342678
596,0,0,0,0,0,0,0,0,1.00000285295261,1,0.04,0.0400089373355401,477.101356661219,1.00018771909762,0.35049660050226
656,0,0,0,0,0,0,0,0,1.00000228841635,1,0.04,0.0400074908274524,477.101087364287,1.00017283465022,0.350501618710361
716,0,0,0,0,0,0,0,0,1.00000175442567,1,0.04,0.0400059138838017,477.100832998569,1.00016123890431,0.350505495511282
776,0.147246540117513,-0.232936968440934,-0.2333326101302,0.233328786199392,-0.233333333333333,0.233333333333333,0.123050013248471,0.0445046959076748,0.987650875855032,0.98429054616133,0.04,0.0431285782003502,471.082069644521,0.983091583489013,0.352092904159753
836,0.157764150125906,-0.249575323329572,-0.2499992251395,0.249995128070777,-0.25,0.25,0.131839299909076,0.0476836027582229,0.972641743804317,0.967458988477041,0.04,0.0463041958416148,463.916659687243,0.953222843533564,0.357602217782671
896,0.243846426102865,-0.249968235832138,0.216570045056165,0.249983907589188,0.179585765571359,0.249999535657524,-0.224543887653051,-0.0449703216775136,0.951701187003754,0.950627430792752,0.04,0.0629713810223589,453.918423534174,0.938177805301791,0.355506325003515
956,0.249995160101219,-0.249996301010893,0.249896421498712,0.249983106126217,0.21027046311217,0.249999502490205,-0.249999829621774,-0.0515884591372091,0.936298125836771,0.933795873108463,0.04,0.0627806691489471,446.586486829905,0.926899777050545,0.354019737962945
1016,0.249957141882922,0.216402486526657,0.249993065519888,0.24999535986953,0.247342404950774,0.24999996683268,-0.249999988641452,0.229832623202974,0.910273277649535,0.916964315424174,0.04,0.0772985912330466,434.132890167407,0.950424571933884,0.335629178472937
1076,0.2499544262959,0.249716685636482,0.249999968664258,0.249996235136909,0.249990400796389,0.25,-0.238891398731984,0.249934129084415,0.90157361555631,0.900132757739885,0.04,0.0751522356855489,430.019779394834,0.95643232625388,0.330361068437495
1136,0.249991578555549,-0.216667352005628,0.249997930486504,0.249999749009127,0.249907404206334,0.249994943596918,0.0435799833664068,0.249809668141047,0.885362160006339,0.883301200055596,0.04,0.0673232558068382,422.294554955703,0.945643857654718,0.328127441325915
1196,0.249994232288381,-0.249980497551493,0.249997784902379,0.25,0.249901475878473,0.249994582425269,0.064549982178293,0.249800778073664,0.872827798072622,0.866469642371306,0.04,0.0673553112750424,416.294895082985,0.911690040290338,0.335512381097277
1256,0.249925571269966,-0.24987106301441,-0.216585908433854,-0.216666666666667,0.249449205472469,0.249060132846536,0.237636514982899,0.249963307386557,0.863251533299627,0.849638084687017,0.04,0.0489650719170417,411.826336383894,0.846997162768271,0.357262009861618
1316,0.249920666911508,-0.249863246261761,-0.249913315100727,-0.25,0.249416900443468,0.248993386448056,0.249999838754657,0.249974916623192,0.841033214009893,0.832806527002728,0.04,0.0499133442068341,401.091895071356,0.781987533527439,0.376876217881017
1376,-0.216671955539233,-0.171719187490277,0.216672445659951,0.216666666666667,-0.216691491818366,0.249904403171861,0.24999998925031,0.249943800665081,0.821269065849672,0.815974969318439,0.04,0.0529463658080025,391.67276609956,0.74821689199646,0.384636542954553
1436,-0.25,-0.1661374690066,0.25,0.25,-0.249984948408497,0.24996947579499,0.25,0.249941578096645,0.802745962878729,0.79914341163415,0.04,0.0504769249746882,382.841430124405,0.719317759688553,0.39106848883249
1496,0.216666666666667,-0.242407482913511,0.249999454670044,0.249993360655782,-0.249998989192914,0.249997965052999,-0.00194637368370021,0.249991212828791,0.781961558114142,0.782311853949861,0.04,0.0543909802738455,372.875147511764,0.696895785222788,0.393142754819977
1556,0.25,-0.247855341049719,0.249999415717904,0.24999288641691,-0.249999992106087,0.25,-0.00091913364734148,0.249994758166802,0.776961397165422,0.781189750104242,0.04,0.046929843695319,370.690726159499,0.722975790455641,0.376740788688822
1616,-0.216513238000673,-0.249856878485971,-0.216605758511825,-0.216667140905539,0.216665128417124,0.249996994750555,0.0189709101400456,-0.0123983933185916,0.797382931597047,0.781189750104242,0.04,0.0101046770666959,380.397247074743,0.65787537895127,0.424862507936423
1676,-0.249835612143578,-0.249999845445703,-0.249934699528234,-0.25,0.249998351311639,0.249996780089881,0.0381831178011967,-0.0597127474424329,0.783321146509649,0.781189750104242,0.04,0.0051691552349437,373.700789096756,0.613915413137077,0.447270396166203
1736,-0.249989012019597,-0.249916462962007,0.209034727420642,0.216664159899513,0.249999890087443,0.18242877930283,-0.122642078932,0.216670826873209,0.755514183304705,0.781189750104242,0.04,0.0301065660036464,360.342222448664,0.702017465809545,0.37715677350341
1796,-0.249999969153599,-0.249910507070315,0.24181825791699,0.24999731417805,0.25,0.177602493532326,-0.169968632320154,0.25,0.773874814791864,0.781189750104242,0.04,0.0284020653324444,369.277099937434,0.780673235733231,0.3475663813528
1856,-0.249999997943573,0.216664910585763,-0.216706562527123,0.249898717382226,-0.21664816431711,-0.221493055010659,-0.215316771272439,0.25,0.795180690229586,0.781189750104242,0.04,0.0120647194601327,379.545317337883,0.741767656844314,0.375967600805769
1916,-0.25,0.249991726132625,-0.249458335415988,0.249891674753953,-0.249980176054046,-0.249999879906587,-0.249845667718278,0.25,0.781773199492611,0.781189750104242,0.04,0.0175446540497605,372.97826525387,0.716143409690545,0.38268214649281
1976,0.21666198145343,0.249965305731078,0.216702777638934,0.249979329578411,-0.249960044477427,0.216666674672894,0.21667084912215,0.25,0.752333794316002,0.781189750104242,0.04,0.0661215527027645,358.892196116608,0.852180033831864,0.309447755207328
2036,0.249994980128675,0.249963418559539,0.25,0.249985590637301,-0.249958606507668,0.25,0.249993457467895,0.25,0.774647870796644,0.781189750104242,0.04,0.0655689510859675,369.688356579295,0.936517207341226,0.290051213949493
2096,-0.216667001324755,0.249997561237303,0.25,-0.216667627290847,-0.249996179576567,-0.216647569100344,0.24999445846344,0.249999802382759,0.799322450564808,0.781189750104242,0.04,0.0401499291303091,381.447314876433,0.876760339357185,0.319674755962292
2156,-0.25,0.25,0.25,-0.25,-0.249998863367202,-0.249979538321797,0.249994529963122,0.249999788267242,0.788464755860643,0.781189750104242,0.04,0.0456100480545855,376.127590579447,0.804889837455901,0.343362944214808
2216,-0.249991139621718,0.25,0.249987497248046,-0.25,-0.249997552682063,-0.24999863588812,0.249999635330875,0.230139745651175,0.785590115126256,0.781189750104242,0.04,0.0439491615502268,374.792372473839,0.774480377482551,0.355578096995037
2276,-0.249990506737555,0.25,0.249986604194335,-0.25,-0.249997459061696,-0.25,0.25,0.228721171178599,0.783956378238767,0.781189750104242,0.04,0.0412500435186835,374.016337866215,0.755036192088557,0.363979966041085
2336,-0.249999367115837,-0.0784198249296862,0.24998888258678,-0.25,-0.170467386351076,-0.249990456058082,0.25,0.248581411411907,0.78784190763216,0.781189750104242,0.04,0.0320380466723689,375.90086968338,0.724455982971411,0.381255399756973
2396,-0.25,-0.101878383853235,0.249989045329098,-0.25,-0.164786666871746,-0.249989774347945,0.25,0.25,0.782995312698333,0.781189750104242,0.04,0.0298812008772402,373.544386935224,0.702908880657333,0.390479160415187
2456,-0.25,0.226541441076451,-0.216472786991587,-0.24997912012065,0.222347555541884,-0.249818510097032,-0.216470947425328,0.248674969293111,0.784232597596247,0.781189750104242,0.04,0.0191034785890714,374.160670638389,0.687341384056167,0.399981881086375
2516,-0.25,0.25,-0.249791489300208,-0.249977628700696,0.25,-0.249806276936252,-0.249790300812852,0.248580324242619,0.780656304615048,0.781189750104242,0.04,0.0187061212730424,372.449392782243,0.685349495439138,0.3993096901583
2576,0.0776064458770626,-0.216225503119217,0.0828288114859338,-0.249888932777762,0.24999861184264,-0.249861226452634,0.216680646612476,-0.098103348413464,0.772882846828672,0.781189750104242,0.04,0.0266670124883992,368.716067752563,0.722644860920992,0.374905508225026
2636,0.101006906296853,-0.24952732477059,0.10658740439923,-0.249882597354695,0.249998512688543,-0.249865151418089,0.25,-0.122866467888899,0.777184317340467,0.781189750104242,0.04,0.028617604318606,370.808070562967,0.755451362768941,0.360659474218323
2696,-0.226561885605004,0.165235508730384,0.219988386652435,-0.24999217315698,-0.216666765820764,-0.249733979955189,-0.21665240276723,0.0866244923183432,0.788140163223322,0.781189750104242,0.04,0.0199048712275711,376.101703638283,0.735632231816361,0.375663696225695
2756,-0.249959656455137,0.194861425409024,0.228088456813379,-0.25,-0.25,-0.249724610564982,-0.249984717250603,0.101588132333146,0.781097215199113,0.781189750104242,0.04,0.0234222016272137,372.642823086666,0.722180762063139,0.379141673261168
2816,-0.249989338172558,-0.220342571639398,0.248115563771465,0.216477325032192,-0.24989068385998,-0.249857921889354,-0.239133238998882,0.240105875488876,0.776251513986073,0.781189750104242,0.04,0.0299845775754457,370.342604876529,0.746773942473999,0.364392305390889
2876,-0.249991458295231,-0.25,0.249546071411328,0.249797133963063,-0.249882875564265,-0.249867444126809,-0.238358133409474,0.25,0.778895607712364,0.781189750104242,0.04,0.0312418793009997,371.611100311287,0.761442506856182,0.358596657571183
2936,-0.249981053099507,-0.0885786553628864,0.249810911887544,0.249922774884094,-0.247848543395335,-0.249991162941787,0.217334673503669,0.246157891264929,0.768930586440016,0.781189750104242,0.04,0.0467692828697742,366.835073359357,0.820696775155522,0.328429985817003
2996,-0.249980309871241,-0.0770485593173784,0.249829829064417,0.249931749235596,-0.247703233954697,-0.25,0.249884159711751,0.24588345492671,0.777933668326351,0.781189750104242,0.04,0.0483426080613154,371.185083038632,0.85591445160716,0.318650666918746
3056,0.103463350205457,0.228114030176472,0.249988655270961,0.249992775761556,0.21681978440302,-0.249999222908753,-0.21667438935255,0.249677390625052,0.777264507991615,0.781189750104242,0.04,0.0688874158771719,370.914490374561,0.891625417184484,0.305665227474468
3116,0.128709325925221,0.249911357997461,0.25,0.249997134799125,0.25,-0.249999167402236,-0.25,0.249948386032076,0.781417889369729,0.781189750104242,0.04,0.0725410504718584,372.83665480032,0.897718640595656,0.305163815180713
3176,0.0537460885744428,0.249988154088344,0.25,0.164539228962491,-0.21643714415315,-0.249833899057802,-0.249884614106072,0.249936176998306,0.790018730222878,0.781189750104242,0.04,0.0584988935853314,376.968170684086,0.86222754277761,0.321245806118719
3236,0.0483915716208157,0.249993639523407,0.25,0.158435092831303,-0.249754083021232,-0.249822094176057,-0.249876372256506,0.249935304924466,0.786647087165795,0.781189750104242,0.04,0.0585729823774714,375.284468380033,0.819957975918801,0.336297526101295
3296,0.236505125342536,0.249986051898691,0.249971265649034,-0.222770276948842,-0.249983605534749,-0.249985091599121,-0.249991758150434,0.24999530848068,0.787515027646552,0.781189750104242,0.04,0.049765917257427,375.730345870441,0.784643606742589,0.351850771865227
3356,0.24994180775123,0.249985509925497,0.249969213195394,-0.249999231933138,-0.25,-0.249996734272197,-0.25,0.249999594448981,0.784899758579566,0.781189750104242,0.04,0.0469569824163143,374.458838398738,0.756694357186505,0.363612049568085
3416,0.249995480661671,0.24934598899707,-0.215906386956056,-0.249999948795543,0.216666666666667,-0.249999782284813,0.216513469822162,0.249422739614145,0.772580498551513,0.781189750104242,0.04,0.052665543939528,368.588226390103,0.791360339532956,0.342232976075841
3476,0.249999314440988,0.249300308930753,-0.249183215538303,-0.25,0.25,-0.25,0.249835860523745,0.249381535697371,0.782173775107774,0.781189750104242,0.04,0.0501809369716868,373.203103581674,0.800782304145203,0.342440762609069
3536,0.24895521593813,0.249953353928717,-0.249389204510352,-0.249999896212496,0.249996600435188,0.0595969185344761,0.249923872600753,0.249958635469197,0.779615911817449,0.781189750104242,0.04,0.0592877631913102,371.938717089989,0.804040187156514,0.339897765117045
3596,0.24888063747364,0.25,-0.249403918008356,-0.249999888799103,0.24999635760913,0.0817109841440816,0.249930159177682,0.24999985688147,0.782349937917295,0.781189750104242,0.04,0.0584560699604869,373.270454448019,0.80254112525699,0.341751945229049
3656,-0.216599593779296,0.249999781761378,0.21667459398222,0.216291076047496,-0.216666909492725,0.238777775299976,-0.102760454024617,0.130760048825191,0.788817445346797,0.781189750104242,0.04,0.0546654015465407,376.195894532984,0.754753498056284,0.366238160064163
3716,-0.249848181725935,0.249999766172905,0.249965916267262,0.249597573536539,-0.25,0.249996831811112,-0.0653567960936892,0.122242919678314,0.78064083539738,0.781189750104242,0.04,0.0489470734818059,372.420869379383,0.746450785835937,0.366595817927167
3776,-0.0249581674406687,0.249999984411527,0.249990868852078,0.177775004315684,0.216152361647584,0.24994719721179,0.229124020895752,0.216135899991701,0.764150133256768,0.781189750104242,0.04,0.0654360895229141,364.515527720577,0.819047371497236,0.327010493168089
3836,-0.00889459499172119,0.25,0.249992651179565,0.172644820799909,0.249448958908126,0.249943651883267,0.25,0.222842541442657,0.775646573557015,0.781189750104242,0.04,0.061186346032535,370.115165912577,0.876773635317209,0.310173060602481
3896,0.232740321732233,0.249993885545465,0.249999456389025,-0.221497462078997,0.249963263927208,0.249996243458884,0.25,-0.00743508888416702,0.777464677173656,0.768400457776035,0.04,0.0620351132333447,370.810314627931,0.831212888377987,0.32778887814099
3956,0.249999958641087,0.249993448798713,0.249999942475415,-0.249650482284633,0.25,0.25,0.25,-0.00351180682451347,0.760299267701166,0.754697644567242,0.04,0.0684136734724331,362.60956248624,0.790236494206197,0.337160622480373
4016,0.249990111362529,0.249940613570094,0.248682818367523,-0.249976698818976,-0.216666288166077,0.249997504204119,0.249923400241127,-0.00165858853726263,0.751191762874427,0.740994831358448,0.04,0.0588315734689995,358.310873953032,0.738575953670827,0.356467139094747
4076,0.249989407985489,0.249936839625193,0.248588738074102,-0.25,-0.249999594463653,0.249997325932985,0.249917928829779,-0.000783194214765079,0.732696244247197,0.727292018149655,0.04,0.0601046847962077,349.43392923569,0.694585541575214,0.369652807620966
4136,0.249999293865699,0.249995607139654,0.249905915871607,0.213675012114504,-0.249997479446544,0.248182685957025,0.249560858229238,0.199871741488373,0.705444208086808,0.713589204940862,0.04,0.0774825045592743,336.321418679894,0.703578820327511,0.35123391541932
4196,0.25,0.249999804819258,0.25,0.246794655836968,-0.249997328373894,0.248053068815885,0.249535353186342,0.232005096016605,0.698992121891086,0.699886391732069,0.04,0.074274117920106,333.422909135746,0.727508825193951,0.336753289500239
4256,0.249995083636224,0.249991333036019,0.25,0.24551406996332,0.21656954620633,0.249870194293408,0.249969023545756,0.24880033973444,0.681975209505736,0.686183578523276,0.04,0.0879392377293758,325.235908268993,0.742980939454005,0.321644028197795
4316,0.249994732467383,0.249990727908645,0.25,0.245422599543774,0.249895751533489,0.249999988970374,0.25,0.25,0.672180663004335,0.672480765314483,0.04,0.0887344534947782,320.61066813848,0.753116059061177,0.312802875736642
4376,-0.216667017835508,-0.216667283431108,-0.216655496505409,-0.216971826697082,-0.216137104317106,0.146911197015233,0.24999596019487,0.249860882404667,0.691268271200571,0.65877795210569,0.04,0.0198960698046173,329.96357059177,0.647621378428,0.374368667924778
4436,-0.25,-0.249999998526805,-0.249988031970081,-0.25,-0.249425165449291,0.13954771187558,0.249995671637361,0.249850945433572,0.667382886842043,0.657864431225103,0.04,0.0174116137907113,318.449347017806,0.522021727572725,0.448235716709764
4496,0.216666666666667,-0.249999939022196,0.216667464535328,0.216661219615336,-0.249961677696619,0.240676097840492,0.249999707196214,0.0374855846624733,0.637603931001811,0.657864431225103,0.04,0.0482469360974883,304.186333787067,0.602830082327996,0.370765621766355
4556,0.25,-0.249999934771866,0.25,0.249994163873574,-0.25,0.247899553980842,0.249999995450418,0.0223166303216805,0.651458205584551,0.657864431225103,0.04,0.0431878860461205,310.8709933313,0.672519711737708,0.339648623633422
4616,-0.216636997674412,-0.249999995651458,-0.216431388758644,-0.216666454302513,-0.25,-0.216044802115692,-0.0945234225441993,-0.0945234225441993,0.640172876043024,0.657864431225103,0.04,3.25945173699139e-10,305.22976819582,0.647173583009993,0.346545913241003
4676,-0.249968211794013,-0.25,-0.249747916527118,-0.249999355600805,-0.25,-0.249183684694016,-0.160944432982623,-0.160944432982623,0.633434222128148,0.657864431225103,0.04,1.68137230980527e-10,302.389589568207,0.837162636731328,0.265406573209285
4736,-0.249997880786268,-0.25,-0.249983130829819,-0.249999927515341,-0.249999864251205,-0.244944517566582,0.216687825641116,-0.247195867123706,0.683430507718534,0.657864431225103,0.04,5.24528903605007e-08,326.460701616693,0.80564231671066,0.297744204131802
4796,-0.25,-0.25,-0.24999993185144,-0.24999996836638,-0.249999854554862,-0.244641719914623,0.249999536134464,-0.249971333043033,0.68041957938624,0.657864431225103,0.04,0.00774959614776309,323.738669433689,0.598303063878121,0.397583201832319
4856,-0.249775177095502,-0.249980194186306,-0.249997515174855,0.216666668775575,-0.249996829342312,0.216690916467177,0.249832630888165,0.19789149293852,0.636475714264583,0.657864431225103,0.04,0.0391741678951008,303.54770125548,0.674454432068366,0.330696053196697
4916,-0.249759118316609,-0.249978779485328,-0.249997342555099,0.25,-0.249996613255701,0.249643247637306,0.249820709084858,0.229881694794345,0.654387030006278,0.657864431225103,0.04,0.0368877801599061,312.245377863309,0.723768919597545,0.316993797811856
4976,0.111450690973789,-0.249913825249843,-0.0286972262993455,0.249999901585615,-0.249989984668944,0.249976211292933,0.249985515881106,-0.218000395223462,0.652280646183749,0.657864431225103,0.04,0.0450453936683147,311.283977000073,0.749760974895048,0.305062349741924
5036,0.137251391637389,-0.249909185661594,-0.0128900751382201,0.249999894556016,-0.249989511198461,0.249999994411192,0.249997287795124,-0.249991973081877,0.658651601844888,0.657864431225103,0.04,0.0509660020917961,314.270587744136,0.757534758456962,0.304828696793356
5096,-0.224183190230312,-0.249993939289827,-0.234185861123638,-0.0341409791781828,-0.249902342601079,-0.215982744712593,0.249952797558851,-0.249822098155164,0.686427343349639,0.657864431225103,0.04,0.0228115813845,327.631504209651,0.649382350585125,0.370714737267019
5156,-0.249999946078005,-0.249999993120415,-0.249992702979739,-0.0544367558734824,-0.249896116272694,-0.249267226078577,0.249949619684832,-0.249809964231827,0.665462712288131,0.657864431225103,0.04,0.022609377657918,317.465016052756,0.5604093988792,0.416241271774948
5216,-0.249998965295067,-0.249993982389075,0.216560563457557,-0.236958635571232,0.216397079743427,0.047229780090322,0.249915842715833,-0.249981229438023,0.637807609466799,0.657864431225103,0.04,0.0441371510586895,304.230995728664,0.638356457464743,0.350182855019243
5276,-0.249998895239143,-0.249993553051122,0.249885796774507,-0.249995912692499,0.249703736601721,0.0684081376738147,0.24991343007519,-0.249993462667037,0.637755088332718,0.635950785573823,0.04,0.0478396438824462,304.143242054199,0.659272355270952,0.338975244080595
5336,0.216497642984459,-0.176033357352214,0.249920746278266,0.216666423345155,0.249373850770648,-0.110915357542839,0.249881325647558,0.216134396749015,0.6009565043776,0.612471879518881,0.04,0.0888693144897152,286.572499927927,0.708373877194318,0.297253277138819
5396,0.249818824286145,-0.170750486230863,0.249923242671392,0.249999447347844,0.249350287497,-0.123724178629742,0.249879032474156,0.249429243850161,0.596394027646217,0.588992973463938,0.04,0.0985605290696282,284.433206874082,0.69836460468067,0.299262813260872
5456,0.249979927756828,0.221749006766635,0.191144414901017,0.249995431861456,0.249951323028435,0.224966500906241,0.249606206832267,-0.216437898049092,0.581586600555656,0.565514067408995,0.04,0.113930038893223,277.287810786272,0.610889303203694,0.333520808294343
5516,0.249991435147592,0.249784684837885,0.186945927203133,0.249995145040999,0.249994254137824,0.249872978015954,0.249586719286418,-0.15737642880032,0.549398474405841,0.542035161354053,0.04,0.116767138403077,261.877764558243,0.546345497484429,0.352197227585555
5576,0.249996497132783,0.249985645655859,-0.220860729826426,-0.2166669903306,-0.216667049561685,0.24999153186773,0.249972447952428,-0.0743917201430678,0.554106387816925,0.552107701343215,0.04,0.0586393850106525,264.643165607996,0.54241019582673,0.358498641796519
5636,0.249996858703153,0.25,-0.249989776757109,-0.25,-0.249999999825935,0.25,0.25,-0.0352014852003581,0.563266258005881,0.56457677319267,0.04,0.0416770398189189,268.80528411105,0.532589906187429,0.370851078804844
5696,0.249989377124076,0.00796388682071063,-0.195133921605857,-0.249927594381246,-0.249999958182182,0.0409513224759165,0.25,-0.0268387997545833,0.581529816192905,0.577045845042126,0.04,0.0125382058808151,277.635747757345,0.526035409525034,0.387806497540592
5756,0.24998884272557,-0.00932440697781004,-0.191215646237911,-0.249922422551335,-0.249999955207628,0.0260192740813391,0.25,-0.0601616860459294,0.58814224697751,0.589514916891581,0.04,0.00874064916321158,280.701622214763,0.52108843921172,0.3958112744699
5816,-0.216667410484962,0.23258176342118,0.220235500996531,-0.249773035795584,-0.249872169097167,0.235061488547639,0.249999929939794,-0.1129293429952,0.588079712202071,0.601983988741037,0.04,0.0221089396404361,280.628939978545,0.584775806754916,0.352612525563559
5876,-0.25,0.249860775592537,0.249624868656134,-0.249762365313031,-0.249863041517849,0.249993075295232,0.249999924935494,-0.165852446461865,0.607873962008553,0.614453060590492,0.04,0.0196249436204526,290.13857760826,0.63046306878598,0.33814307856738
5936,0.216666666666667,0.239241793219991,0.0819940073510617,0.216673916595294,-0.249990869434523,0.249999538353015,0.2499999949957,0.0379068449806142,0.605782608047606,0.626922132439947,0.04,0.0528255954080112,289.087798636578,0.725949877334977,0.292602344835789
5996,0.25,0.238483294479095,0.0700203744006993,0.24999079387446,-0.25,0.25,0.25,0.0584713519842222,0.632599826635039,0.639391204289403,0.04,0.0548816185303174,301.985312662041,0.798294949142431,0.277956680171712
6056,0.25,0.249231751737082,-0.228661246158151,0.249955195768523,0.216664306591406,-0.156176162251444,0.249989465424331,-0.196114634834874,0.659458489870533,0.651860276138858,0.04,0.0495032381369651,314.665846532388,0.778237099003492,0.297092955311633
6116,0.25,0.249999498684081,-0.249995647626641,0.249952653046671,0.249997471347936,-0.185188745269404,0.24998871295464,-0.172869368598997,0.665484504376901,0.664329347988313,0.04,0.0546066206599538,317.574882581388,0.761311850596034,0.306505472043636
6176,-0.216666666666667,0.199346561319037,0.215669054186292,-0.215150731894967,0.104287588969278,-0.245665959060561,0.249999247530309,0.221933832077536,0.674145987644272,0.676798419837769,0.04,0.0399961803483438,321.757862469232,0.776400972274106,0.304507345800135
6236,-0.25,0.195728494364391,0.248930818601502,-0.248372402247941,0.0938797402279449,-0.249985760045644,0.25,0.25,0.690445888685169,0.689267491687224,0.04,0.0379103582843609,329.504949384502,0.768563444470454,0.315019105930038
6296,0.213137837192885,0.246381569949702,-0.00772497310486904,0.213287693561997,-0.227070132482859,-0.24999905066971,0.25,-0.132465941970771,0.707612938005745,0.70173656353668,0.04,0.0447873516059034,337.494145329632,0.731288720960967,0.339103322108907
6356,0.246219111278091,0.249999646777224,-0.0260575296553242,0.246263414691278,-0.249995123390774,-0.25,0.25,-0.125097576606821,0.7126449921341,0.714205635386135,0.04,0.0433523709274356,340.08831922092,0.735559017305662,0.339726064501122
6416,-0.216918725914794,-0.216666690214852,-0.234900203257357,-0.216915772353915,-0.249999674892718,0.21298670823365,0.24595629872676,-0.131856046973857,0.748160884726837,0.72667470723559,0.04,0.00467019761104634,357.237303899672,0.679420057840531,0.386343060070752
6476,-0.25,-0.25,-0.249817537086073,-0.25,-0.25,0.246057187393196,0.245667462921529,-0.182618144157663,0.743542862525853,0.739143779085046,0.04,0.00137503393504934,354.829917313911,0.60784849357984,0.428923223884144
6536,-0.249989822587627,-0.24989652728462,-0.249987835805738,-0.249999308505892,-0.247462670926489,-0.216254808419815,0.249107409498235,0.216754591986381,0.755557280162411,0.751612850934501,0.04,0.000509918455565407,360.610040237277,0.597132894409848,0.443732761638253
6596,-0.249989095629601,-0.249889136376378,-0.25,-0.249999259113456,-0.247281433135524,-0.24927709383503,0.249353119967999,0.249950030493136,0.761403494207667,0.764081922783957,0.04,0.000736655129649774,363.34736319139,0.605300379795715,0.441068195392547
6656,0.214699893237552,-0.245624268866134,-0.25,0.215991565833343,-0.247940882397382,0.216711342738692,0.24985258316088,-0.216669997967124,0.736881039240679,0.776550994633412,0.04,0.0108675077727907,351.545010768237,0.784323355078269,0.329336956404041
6716,0.24789196387092,-0.245319635472545,-0.25,0.249276624758115,-0.247987985916086,0.249996231065386,0.249888259103228,-0.25,0.772576341327323,0.789020066482868,0.04,0.01617654871559,368.612659979536,0.925767849319711,0.292565309487749
6776,0.249854818848065,0.216973163969654,0.216662018157177,0.249951404646225,0.216800800938928,0.249987577257592,0.249992550606882,0.216653350820178,0.763141097921631,0.801489138332323,0.04,0.0582624496940531,364.271680750792,1.14253037553729,0.234267655223153
6836,0.249995022775003,0.249994078215526,0.249995019454119,0.249999603209662,0.25,0.249986959128463,0.25,0.24998573302162,0.807271489872257,0.813958210181778,0.04,0.0668509540004752,385.390502668035,1.2410616568972,0.228171987903234
6896,-0.216666678870836,-0.216666523846629,0.249988007144871,-0.216665991774729,-0.216657509550207,0.249999130608564,0.249763528456354,0.249862018976586,0.854118632773608,0.826427282031234,0.04,0.0466854922592446,407.841053695607,1.14695272142295,0.261276349911951
6956,-0.249999657559825,-0.249999423993926,0.249987506265639,-0.249999248559328,-0.249990188803793,0.25,0.249746637631808,0.249853182259083,0.851219957291977,0.838896353880689,0.04,0.0561152754655053,406.136686727876,1.0341742023348,0.288558052196131
7016,-0.249999977170655,-0.249963924799606,0.0459861459660376,0.216662636333504,-0.249977279573977,-0.216666666666667,0.249975856102998,-0.216675788111579,0.870688795602222,0.851365425730145,0.04,0.043348895000806,415.527467233029,0.932450420269281,0.327437687204919
7076,-0.25,-0.249961389142869,0.0314146202303519,0.249995628111563,-0.249976357486133,-0.25,0.24999222885094,-0.249999285995198,0.869473631824148,0.8638344975796,0.04,0.0388769719234755,414.873495377573,0.874973256662821,0.348397947271569
7136,-0.249996195720706,0.216669240723809,-0.231239025317976,0.2499579394756,-0.249997069666975,-0.249993803217706,0.249999481923396,0.188154768921557,0.866381979295358,0.876303569429056,0.04,0.0439494227167043,413.405564075066,0.911613183703895,0.333211818333707
7196,-0.24999592398647,0.25,-0.25,0.249955247430174,-0.249998549108463,-0.249993360590399,0.25,0.219451487129897,0.886224950877379,0.888772641278511,0.04,0.0395016389414851,422.930314980794,0.939054641942771,0.330927324607252
7256,-0.249997650224623,0.249998259279121,-0.249880274746664,-0.0267780083558458,-0.249999903273898,-0.249999557372693,0.25,-0.21870323419134,0.91340253579705,0.901241713127966,0.04,0.0255623085049837,435.933182829454,0.889968659330384,0.359914954183815
7316,-0.249997773527348,0.249998134941915,-0.249871722942854,-0.0465446694834187,-0.25,-0.25,0.25,-0.25,0.914266542187114,0.913710784977422,0.04,0.0245345514893052,436.260259874878,0.868770374417164,0.368973628581339
7376,0.216666815098177,0.249999220010885,0.0798082852281711,0.230230241965882,-0.208523048264256,-0.25,-0.216666666666667,-0.132919599022887,0.911931033339032,0.926179856826877,0.04,0.0389368483487573,435.206165784111,0.938979475128999,0.340559983890532
7436,0.25,0.249999297515812,0.103356857240387,0.249999878497975,-0.20556040885456,-0.25,-0.25,-0.124556713238808,0.931680135822777,0.938648928676332,0.04,0.0383165283233107,444.638652008124,0.99639481728834,0.327891704357413
7496,0.249414525310259,-0.216666713498946,-0.226238904545015,0.249999081975179,-0.151114603066618,-0.249999146373463,-0.249371253705096,-0.241626584958029,0.960503882707627,0.951118000525788,0.04,0.0194346469046545,458.466294646386,0.97476191949483,0.345591883892371
7556,0.249372705689564,-0.25,-0.249781458958258,0.249999025080693,-0.147225616938908,-0.249999085400139,-0.24932634325546,-0.24998871865226,0.963577327743796,0.963587072375243,0.04,0.0216804273115699,459.787264454074,0.955192386050878,0.353688355675929
7616,-0.216706698202411,-0.249704286934062,-0.249985051872197,0.249956820965165,0.223518125045292,0.169717821761089,-0.249955068480883,-0.249993661804317,0.969699576223797,0.976056144224699,0.04,0.0278227155942047,462.736592882104,0.990367315981131,0.343314559362756
7676,-0.249998084194695,-0.249683164572209,-0.249999594223193,0.249953806385484,0.249999820901306,0.199697600844034,-0.249999977425556,-0.249994014886607,0.983868416312335,0.988525216074154,0.04,0.0274475554178143,469.499863617669,1.01670866143548,0.33930762815493
7736,-0.115497994421367,-0.249978877638147,-0.249973258583288,0.249966604193173,0.2499890318254,-0.21967768203594,-0.249946226339367,0.17237341299746,0.984112592264831,0.989356487530784,0.04,0.0317629421949494,469.534005727585,1.04833032508012,0.329096738851185
7796,-0.105890845151843,-0.25,-0.249971377466152,0.249967518322293,0.24998826117712,-0.249633059384509,-0.249942386976067,0.202542514989179,0.988595358244846,0.989356487530784,0.04,0.0353616170854921,471.676735971654,1.06065290543801,0.326757712316599
7856,0.224569976800291,-0.249947637068716,0.216632202878969,0.249997279003824,0.241969623007773,0.216681754745551,0.186798223481825,-0.219830499000721,0.973140539790859,0.989356487530784,0.04,0.0619104597115997,464.241640685081,1.1344085329128,0.300697130770987
7916,0.248174321225443,-0.249943896859339,0.249961030046478,0.24999940476679,0.241396863138533,0.249989955754841,0.217993981371675,-0.25,0.986010069921107,0.989356487530784,0.04,0.0629993257188102,470.486001836366,1.18089756619034,0.292744776983284
7976,0.249844577839256,-0.245705402419488,0.1608938786734,0.163631394809294,0.249426348824475,-0.216667336283011,0.247866265424778,0.216666657879313,0.988669523740302,0.989356487530784,0.04,0.0618635952971898,471.717323758654,1.19026083649042,0.291202003148319
8036,0.2499638818831,-0.245402652816642,0.154531939289608,0.157462251240901,0.249999883516327,-0.25,0.25,0.249999990584979,0.993587685611906,0.989356487530784,0.04,0.0644194212047618,474.054172758693,1.17184188907552,0.297244365926399
8096,0.208716625705551,-0.249690484093417,0.243635462619307,-0.104873958926939,-0.216666674432245,-0.249990190738975,0.25,0.249989918653053,1.0030939556788,0.989356487530784,0.04,0.0557327748157302,478.625003420791,1.10763440596313,0.317507231490897
8156,0.20577039312144,-0.249996757756043,0.25,-0.123612259653213,-0.25,-0.249989490077473,0.25,0.249989199229344,0.996585672056672,0.989356487530784,0.04,0.0562686922592973,475.438190519687,1.05029812561206,0.33261064942377
8216,-0.218967792624536,-0.249999708959061,-0.216665536453425,0.225092516023119,-0.25,-0.249989462877128,0.249997823539174,0.249999279948623,1.00421775509086,0.989356487530784,0.04,0.0407276176556078,479.174898876616,0.982653870164514,0.358301121227595
8276,-0.249306234463535,-0.249999919759277,-0.249998789057241,0.25,-0.25,-0.249989460934246,0.249997668077687,0.25,0.995670644489901,0.989356487530784,0.04,0.0373959870473377,474.994729289851,0.924291062882289,0.377602371385228
8336,-0.249953441589409,-0.249999056933855,-0.249975866015782,-0.216666666666667,-0.249998641151468,-0.249870504006604,0.249999844538512,0.248967870306774,0.99238356734061,0.974633081795555,0.04,0.0290667974797222,473.376893025648,0.834446231658886,0.416834227925758
8396,-0.249999670669828,-0.249998995303468,-0.249974228655677,-0.25,-0.249998544090858,-0.249862007083201,0.25,0.248894146757258,0.96671245470212,0.958858004222094,0.04,0.0272770333490696,461.067106000645,0.770318910576136,0.439792942841799
8456,-0.249750600734367,-0.249999357798692,-0.249793944110717,-0.249999292648129,-0.249999468341173,0.21667202699014,0.249526531620067,0.249925852455083,0.937243072079447,0.943082926648634,0.04,0.0319264731703888,446.991235870752,0.784298464267235,0.418766873630745
8516,-0.249732810024691,-0.249999383691208,-0.24978106664322,-0.249999242122996,-0.249999534359052,0.249995886566807,0.249492712450071,0.249999545719213,0.926767157743593,0.927307849075173,0.04,0.0297605454094076,442.036322673447,0.793214216179625,0.409470052792102
8576,0.216684410863553,-0.180104682409547,0.216677801223188,-0.249999746096445,0.216666662844143,0.24999972577112,-0.216700426609305,0.249999954661942,0.888479034601511,0.911532771501713,0.04,0.0480277449030261,423.858794769635,0.90327010178302,0.344792840944345
8636,0.249999926641285,-0.175112203746571,0.249996291785074,-0.249999782094549,0.249999962644371,0.25,-0.249999936542117,0.249999983872137,0.894072649741206,0.895757693928253,0.04,0.0532456678617706,426.519245044137,0.950633931523936,0.329670431344739
8696,0.249995869776135,0.221659186416895,0.249999752785672,0.145364444923953,0.249999997509625,0.249995842967285,-0.249999254721271,-0.21652889683085,0.887272909171619,0.879982616354792,0.04,0.0728944398242065,423.230262093812,0.919601419623086,0.338167414139344
8756,0.249995580000052,0.25,0.25,0.173604746853846,0.25,0.249995546036377,-0.249999206019782,-0.249852388309635,0.867984215681778,0.864207538781332,0.04,0.0760942351448844,413.983324931294,0.890516014373271,0.341582639930571
8816,0.249999705333337,0.25,0.25,-0.221759683543077,0.25,0.249903858211668,0.216660968080614,0.216675119162909,0.836827997536694,0.848432461207871,0.04,0.0799514192350164,399.105221456162,0.9369080641975,0.313000555915665
8876,0.25,0.25,0.25,-0.25,0.25,0.249897309081331,0.249993837659214,0.249998512553805,0.837444613288659,0.832657383634411,0.04,0.0778762649064841,399.482771113085,0.936492169171178,0.313435786056126
8936,0.2499999935593,0.25,0.249995119218196,0.216666666666667,0.249986435414172,0.249991558202693,0.249781665038304,0.24999990083692,0.820527365646672,0.816882306060951,0.04,0.0895561303835883,391.322351775633,0.907346667957155,0.316895507534618
8996,0.24999999309925,0.25,0.249994770590924,0.25,0.249985466515184,0.249998290282791,0.249766509851096,0.25,0.805272173248876,0.80110722848749,0.04,0.0890522121304901,384.062428534626,0.882072966093697,0.31992780626541
9056,0.249999643473926,0.249999968867141,-0.216667015293938,0.249989384959568,0.249999031101012,0.249999886018853,0.249978786239657,0.0951511832410871,0.796185852057683,0.78533215091403,0.04,0.0773777132028571,379.779360427869,0.830926682601119,0.335832969712424
9116,0.249999618500689,0.249999966643366,-0.25,0.249988626742394,0.25,0.25,0.24999394883884,0.0840905534725934,0.775188246157266,0.769557073340569,0.04,0.0787738493657751,369.688169417094,0.784251055201771,0.346365890807533
9176,0.249999840648495,-0.216666668890442,0.0740667555875291,0.249999241782826,0.25,-0.0863315349433794,0.249999596589256,0.238939159791937,0.758836742642119,0.753781995767109,0.04,0.0672655459801718,361.909862523101,0.753032952262036,0.353135284575761
9236,0.249999856516196,-0.25,0.0972143809866383,0.25,0.25,-0.110355216010764,0.25,0.249999774529033,0.741633678352149,0.738006918193648,0.04,0.0652110013819555,353.699219124576,0.727143448246258,0.357411631475141
9296,0.249997220678035,0.216603344192732,-0.226852374600891,0.25,0.249999440239103,-0.240690347734051,0.249979500414853,0.249991312250252,0.727321670919137,0.722231840620188,0.04,0.0688003519373977,346.883691086045,0.698250929743222,0.365028719858971
9356,0.249997032403881,0.249932154492212,-0.25,0.25,0.249999400256182,-0.25,0.249978036158771,0.249990707801768,0.709884144170693,0.706456763046728,0.04,0.0705019750550354,338.552772531029,0.673850875619463,0.369162224235226
9416,0.249988026657279,-0.216669772333716,-0.249999920017022,0.249999643576675,0.249978957405305,-0.249996522648901,0.24999852993189,0.249999380520118,0.696645441041073,0.690681685473267,0.04,0.0503881577354151,332.259320191707,0.643714463336946,0.3792613453059
9476,0.249987383389665,-0.249998481392711,-0.249999914303952,0.249999618117866,0.249977497201671,-0.24999627426668,0.249999993772828,0.25,0.678996613918099,0.674906607899807,0.04,0.0485906374272547,323.80988848415,0.612315314339051,0.388570352962852
9536,-0.216666192955987,0.21666420661793,-0.24999999428693,0.249999589220833,0.249963990661603,-0.249999751617779,-0.000434346596874658,0.25,0.674828086122004,0.673854936061576,0.04,0.0394943553072495,321.872327048351,0.590123405865536,0.400770250363326
9596,-0.249998591266391,0.249997255761548,-0.25,0.249999587156759,0.249963025908741,-0.25,-0.00646223072879614,0.25,0.671087584720543,0.673854936061576,0.04,0.0285248473741368,320.167722510167,0.601243209618627,0.391274944434732
9656,-0.249982533550043,0.249994494029019,-0.249999454938799,0.249929997649026,0.249997535060583,-0.249881125908527,0.216572999970973,0.24999999946286,0.664408095576372,0.673854936061576,0.04,0.0318087022067515,316.921244390178,0.633734807492434,0.367450182706065
9716,-0.249981386570304,0.249994296762409,-0.249999416005856,0.249925026969902,0.25,-0.249872634901993,0.249881927415191,0.249999999424493,0.670463582612695,0.673854936061576,0.04,0.0312609354215835,319.899113720735,0.666108103399027,0.352876710362867
9776,0.216667026508094,-0.216667046882506,0.216666698600199,0.249995001797993,0.249999306144934,0.2166751576732,-0.0628675271120584,0.249971067799637,0.664399246690875,0.673854936061576,0.04,0.0573041433908954,316.869599611581,0.693495163377907,0.335731286642851
9836,0.249999056013694,-0.25,0.249999992500631,0.25,0.249999256583858,0.25,-0.0485762471491377,0.249969001255004,0.669592685664221,0.673854936061576,0.04,0.0567541728279021,319.501896289206,0.736311446097101,0.318835421987206
9896,0.24999993706758,0.216665360338109,-0.21665945940984,-0.134036354204513,0.249890881933354,0.249930134975816,-0.0243878714172728,0.249969964559483,0.678103206964202,0.673854936061576,0.04,0.0501495144083107,323.569322095819,0.727213211918302,0.326934125547674
9956,0.25,0.24999860036226,-0.249992277403445,-0.161467522361978,0.249883140886889,0.249925144616946,-0.0115196962753532,0.249970033366946,0.676438343801534,0.673854936061576,0.04,0.0550071164640985,322.716277751253,0.706443649375671,0.335658788406615
10016,0.25,-0.216569263559528,-0.24999948516023,-0.244097079551767,0.249991957168369,-0.0115882129979743,-0.0101006110031834,-0.0101006110031834,0.689511653638126,0.673854936061576,0.04,0.0218574352554752,328.966359963113,0.624354231279569,0.387146294039413
10076,0.25,-0.249895539553941,-0.25,-0.24999919077961,0.249999729759903,-0.0302677385418973,-0.0362341349454926,-0.0362341349454926,0.686284356513821,0.685340162736948,0.04,0.0120562754458456,327.479106794466,0.593777272412279,0.405242236059498
10136,0.249947805067861,-0.249993035970263,0.216653711463897,0.216361930625656,0.249989180662364,-0.233838623555866,-0.080423445236017,-0.080423445236017,0.685734483393051,0.697645762746275,0.04,0.0294817628079122,327.237541247834,0.647575898144641,0.371301856405474
10196,0.249944076858422,-0.25,0.249986119425604,0.249673439297461,0.249988427155397,-0.248379401056864,-0.119079357697005,-0.119079357697005,0.702250338740844,0.709951362755603,0.04,0.0235559263675854,335.172866362089,0.70594902845157,0.348859203458692
10256,-0.216668319472647,0.216666635152792,-0.216667501508661,0.249978229233385,0.2353583280732,0.216774336572843,0.216664515472094,0.216666612937554,0.699063096553169,0.72225696276493,0.04,0.0386678457108624,333.59103516432,0.806454909827128,0.303940768326921
10316,-0.249997776353437,0.249999966235134,-0.249999903003966,0.249999999943094,0.2343133209959,0.249999603546394,0.249997695148673,0.249999680263508,0.727340219643741,0.734562562774257,0.04,0.0392100184344697,347.162008336525,0.872388327232757,0.292399767125393
10376,0.0435186037410957,-0.216430932466789,-0.249996338917183,0.249999999996206,-0.21771244526694,-0.216666693096907,0.248698832822265,0.249999973856633,0.763363562420916,0.746868162783584,0.04,0.0216642715343115,364.432808513656,0.821582400435114,0.325927508539125
10436,0.0644840594621338,-0.249747425231213,-0.249996084339555,0.25,-0.25,-0.25,0.248606056941807,0.249999994827571,0.760930258322139,0.759173762792911,0.04,0.0262965249024841,363.103838447709,0.786510435935151,0.339219669540126
10496,-0.229034396035858,-0.249833955476715,0.213265889720632,0.117245010806109,-0.249999804937415,-0.249878793788031,-0.216759008333868,0.249999999655171,0.778367137792686,0.771479362802238,0.04,0.0171113748176391,371.481359553434,0.757092075311951,0.360531323018426
10556,-0.25,-0.249840136208537,0.246356030724931,0.107762511577974,-0.249999791004373,-0.249870136201461,-0.249999370139274,0.25,0.783812760067149,0.783784962811566,0.04,0.0168410857422466,374.020299300419,0.743520581407637,0.369621184931762
10616,-0.249971998456385,0.139709255777707,-0.205447904761808,-0.226094784416498,-0.249970683550739,-0.0347365014905107,-0.249888271633409,0.249988984072995,0.798822549564621,0.796090562820893,0.04,0.012476563252129,381.212310185887,0.731968136806328,0.382674405816161
10676,-0.249969998346127,0.167534212348153,-0.237719614439432,-0.249941734130389,-0.249968604446907,-0.0193698132968714,-0.249880336025847,0.249988197221066,0.805001802145633,0.80839616283022,0.04,0.012551358032669,384.150099157077,0.742135351428161,0.380340441527304
10736,0.216668666776925,0.243933500866316,-0.248957992055586,-0.249970473582405,-0.0146423053014706,0.232042012446875,0.208053616387016,0.249999212242699,0.784329599234388,0.820701762839547,0.04,0.0413132259186761,374.256648837354,0.913925556669614,0.300893896846518
10796,0.25,0.249390592903327,-0.249760733313883,-0.249972526400406,0.00216671606606064,0.25,0.240763184416507,0.249999999029959,0.820976553526153,0.833007362848874,0.04,0.0426506069367311,391.876903641141,1.03066150561368,0.279375481102956
10856,-0.216665282931578,0.249959372860222,-0.249784380612575,-0.248970844698495,-0.233188522868282,0.249999889528954,-0.217277084379296,0.236522904183749,0.861936986633332,0.845312962858202,0.04,0.0292157905591694,411.447285036389,0.981524130322213,0.30801218403981
10916,-0.249998517426691,0.25,-0.249786069705339,-0.248899296005501,-0.249999611363592,0.249999881638165,-0.249994246436139,0.235560254551877,0.860828604709531,0.857618562867529,0.04,0.0350883909131544,410.759221375456,0.936259113615649,0.322363557638903
10976,0.21666670366038,-0.216666587633717,-0.0107433386480791,-0.249926584167927,0.216666692575761,-0.216651884002027,-0.0562179564010958,-0.217320681936793,0.870732855327181,0.869924162876856,0.04,0.0350295843583195,415.524556563475,0.926417342079713,0.329567740681644
11036,0.249999933738028,-0.24999991532184,0.00633114214172519,-0.249999961893814,0.25,-0.249984152976326,-0.0423767928271642,-0.249669320257412,0.881763658289685,0.882229762886183,0.04,0.0349242234894011,420.783513627475,0.929473677523583,0.332641397731988
11096,0.249999995582535,-0.248432466707322,0.233755409476115,-0.249999997459588,0.249999742663422,0.216656673895761,-0.236158452855144,-0.249977954683827,0.879747648850589,0.883050136220138,0.04,0.0493418171500132,419.703964213654,0.941603227716393,0.327513954595425
11156,0.25,-0.248320506091999,0.25,-0.25,0.249999724282238,0.249988161529481,-0.25,-0.25,0.883460390549812,0.883050136220138,0.04,0.0503497345143965,421.515311714454,0.947005548938709,0.327051019828152
11216,0.249995217578113,0.2167350455955,0.25,0.216666666666667,0.249769516968022,-0.216667455898035,-0.25,-0.219468669089514,0.88215427054743,0.883050136220138,0.04,0.0641843869093195,420.877362374883,0.950357616140507,0.325404222322341
11276,0.24999487597655,0.249953299287464,0.25,0.25,0.249753073588435,-0.25,-0.25,-0.217287859738765,0.882312117087739,0.883050136220138,0.04,0.0627552615293986,420.959176401496,0.956410933910758,0.323407528066567
11336,0.249999658398437,-0.216669780047502,-0.216663644236494,0.25,0.249757546352216,-0.24996354600798,-0.249999793015359,-0.247303247034332,0.893870069523746,0.883050136220138,0.04,0.0357701060494587,426.552300470795,0.918667527261672,0.341168243432794
11396,0.25,-0.25,-0.249996761681958,0.25,0.249757865835343,-0.249960942151407,-0.249999778230742,-0.24944720326973,0.887900529543774,0.883050136220138,0.04,0.0352327223188854,423.577523574444,0.87267252579099,0.356645115032399
11456,-0.216662341857488,-0.25,-0.249998905094382,-0.216652447326867,-0.216680646927696,-0.249997021977927,0.216665253179912,-0.249892392768255,0.908210649379146,0.883050136220138,0.04,0.0136353380007219,433.452981362899,0.78504887713321,0.405695297723636
11516,-0.24999536627588,-0.25,-0.24999905819527,-0.249984764993071,-0.249997683553627,-0.249999599108393,0.249998469709244,-0.249924192018149,0.889512719459681,0.883050136220138,0.04,0.0123095153732632,424.313864830734,0.70538651632233,0.441992342720422
11576,0.216660819780225,0.216571343068065,0.0275887161154338,0.0530092390448467,0.216666763346154,-0.249993357117218,0.249999897255132,-0.249991341996276,0.84218468663828,0.883050136220138,0.04,0.0474075816729214,401.968885286649,0.890764700748008,0.331576784257007
11636,0.249993404498518,0.249897867572927,0.0474164142804841,0.074651667904698,0.249999938124709,-0.249992911260705,0.249999999222696,-0.249996138423285,0.874069179213199,0.883050136220138,0.04,0.0477426054428748,417.1420279996,0.999856624837681,0.306549700379252
11696,0.249999559681533,0.249992949159351,0.236485088946441,-0.228356554501745,0.249999991689591,-0.249998943363039,0.249999998661429,-0.249810808434544,0.883744099038278,0.883050136220138,0.04,0.0540223182003146,421.677069623989,1.01016927577484,0.306718877464444
11756,0.249999999337462,0.249999740701238,0.249989994279723,-0.249999998959348,0.249999995515654,-0.249999374227492,0.249999998621339,-0.249797570578206,0.885789334959014,0.883050136220138,0.04,0.0598252667133179,422.617168275421,0.996189316027331,0.311716601242565
11816,0.112570643270222,0.0238381370169401,0.249999327956184,-0.2499999469989,-0.216662237639706,-0.249999621309422,0.249972100034976,0.215144310666561,0.886173464307832,0.883050136220138,0.04,0.0513268942670043,422.863665861804,0.985053737952014,0.315424282154745
11876,0.102754260693991,0.00768373675377597,0.24999999464736,-0.249999943287439,-0.249995254293661,-0.249999638958131,0.249970107278807,0.248354445041187,0.887937929993497,0.883050136220138,0.04,0.0527606647724046,423.631074150969,0.953324061818668,0.326514092600377
11936,0.236000347502968,-0.232821027395674,-0.216401431810482,-0.249987771423455,-0.249998640225696,-0.249999975921836,0.249997830894012,-0.216776289737036,0.907253553694025,0.883050136220138,0.04,0.0306974963839448,432.932046880978,0.842779940935297,0.377450687400685
11996,0.24551792513218,-0.249999939120635,-0.249715819414613,-0.249986902004599,-0.249998882077984,-0.249999999990673,0.249999811152241,-0.249999913649766,0.890638025547759,0.883050136220138,0.04,0.0285495690886226,424.874272669325,0.769507584914173,0.405697382263174
12056,-0.216444621790871,-0.24999108934691,-0.249895963619875,-0.249999126795392,-0.249868809465969,-0.249999997549846,0.109390957358986,-0.249998681058967,0.900789984059619,0.883050136220138,0.04,0.00932549791697396,429.800162782381,0.68434029097018,0.461476023619758
12116,-0.249441946571089,-0.249990457220215,-0.249908831063108,-0.249999999994735,-0.24985951856511,-0.249999997375501,0.0993474678023247,-0.249998593016767,0.888793927511989,0.883050136220138,0.04,0.00395039548613425,423.959279930344,0.626822275142026,0.49697483788217
