time,bias_percent_1,bias_percent_2,bias_percent_3,bias_percent_4,bias_percent_5,bias_percent_6,bias_percent_8,bias_percent_9,normalized_power,power_SP,SP,CV,total_power_MW,fuel_fraction,thermal_efficiency
45,0,0,0,0,0,0,0,0,0.999767618191966,1,0.04,0.0399276439350582,476.993036160012,0.999901487408613,0.350517334526633
105,-0.00249041911352549,-0.021541769541761,-0.019736903502373,-0.00367073783083526,-0.0125049184187345,1.28195805551741e-05,-0.0198693470647116,0.0152075204485045,1.0001698379717,0.998699826294871,0.04,0.0387461823942582,477.175971878622,0.994955115442981,0.352395013001738
165,-0.00581097793155959,-0.0502641289307758,-0.0460527748388702,-0.0085650549386155,-0.0291781429770469,2.99123546288911e-05,-0.0463618098176603,0.0354842143798439,0.998976772899782,0.996966261354698,0.04,0.0374255547625645,476.599714265361,0.983487593596963,0.356073430043892
225,-0.00913153674959335,-0.0789864883197903,-0.0723686461753674,-0.0134593720463957,-0.0458513675353594,4.70051287026081e-05,-0.0728542725706089,0.0557609083111832,0.997339215286226,0.995232696414525,0.04,0.0358093276381153,475.816890340381,0.970863349718593,0.360111030152492
285,-0.0124520955676275,-0.107708847708805,-0.0986845175118647,-0.0183536891541761,-0.062524592093672,6.40979027762114e-05,-0.0993467353235577,0.0760376022425226,0.995590929456463,0.993499131474353,0.04,0.0340119975076374,474.982396255992,0.958171235901786,0.364241194168956
345,-0.0157726543856613,-0.13643120709782,-0.125000388848362,-0.0232480062619563,-0.0791978166519846,8.11906768499284e-05,-0.125839198076506,0.096314296173862,0.993836359242323,0.99176556653418,0.04,0.0322224943648463,474.145542204706,0.945633157634164,0.368420388502121
405,-0.0190932132036952,-0.165153566486834,-0.151316260184859,-0.0281423233697366,-0.0958710412102971,9.82834509236454e-05,-0.152331660829455,0.116590990105201,0.992109078774661,0.990032001594008,0.04,0.030583600680421,473.321334891922,0.933091219714209,0.372723395756792
465,-0.0224137720217293,-0.193875925875849,-0.177632131521356,-0.0330366404775168,-0.11254426576861,0.000115376224997249,-0.178824123582404,0.136867684036541,0.990296039016321,0.988298436653835,0.04,0.0290938619921361,472.455278347866,0.920787810122503,0.377012561420324
525,-0.0257343308397633,-0.222598285264864,-0.203948002857854,-0.0379309575852972,-0.129217490326922,0.000132468999070966,-0.205316586335352,0.15714437796788,0.988367692588013,0.986564871713663,0.04,0.0276750902378798,471.534615554304,0.909443863115985,0.380971387450809
585,-0.0290548896577972,-0.251320644653878,-0.230263874194351,-0.0428252746930774,-0.145890714885235,0.000149561773144683,-0.231809049088301,0.177421071899219,0.986388117738982,0.98483130677349,0.04,0.026326219570635,470.589894785587,0.899496542940346,0.384412742176347
645,-0.0323754484758311,-0.280043004042893,-0.256579745530848,-0.0477195918008578,-0.162563939443547,0.000166654547218172,-0.25830151184125,0.197697765830559,0.984363157249383,0.983097741833318,0.04,0.0250717035755949,469.623275677356,0.891186936291201,0.387200115423708
705,-0.0356960072938653,-0.308765363431908,-0.282895616867346,-0.052613908908638,-0.17923716400186,0.000183747321291889,-0.284793974594199,0.217974459761898,0.982264233341431,0.981364176893145,0.04,0.023898312737039,468.621299096935,0.884914871076286,0.389112521432265
765,-0.0390165661118991,-0.337487722820922,-0.309211488203843,-0.0575082260164183,-0.195910388560172,0.000200840095365606,-0.311286437347147,0.238251153693237,0.980110208635998,0.979630611952973,0.04,0.0228006140436986,467.593335697872,0.881070453965814,0.38995307679902
825,-0.0423371249299332,-0.366210082209937,-0.33552735954034,-0.0624025431241986,-0.212583613118485,0.00021793286943921,-0.337778900100096,0.258527847624577,0.977938117999488,0.9778970470128,0.04,0.0218028992804631,466.557021557969,0.879838077649335,0.389633825646586
885,-0.0456576837479671,-0.394932441598952,-0.361843230876837,-0.0672968602319789,-0.229256837676798,0.000235025643512927,-0.364271362853045,0.278804541555916,0.975781612977597,0.976163482072627,0.04,0.0209389994772629,465.528433373218,0.881193902823498,0.388176647198854
945,-0.0464878234524756,-0.402113031446205,-0.368422198710962,-0.0685204395089239,-0.233425143816376,0.000239298837031356,-0.370894478541282,0.283873715038751,0.972547449174093,0.975730090837584,0.04,0.0209810129270177,463.986619091194,0.893651006883144,0.381497927848703
1005,-0.0464878234524756,-0.402113031446205,-0.368422198710962,-0.068520439508924,-0.233425143816376,0.000239298837031356,-0.370894478541282,0.283873715038751,0.971500690535821,0.975730090837584,0.04,0.0214435701395159,463.497780584835,0.917337874854528,0.371255597436445
1065,-0.0464878234524756,-0.402113031446205,-0.368422198710962,-0.0685204395089239,-0.233425143816376,0.000239298837031356,-0.370894478541282,0.283873715038751,0.971134686834126,0.975730090837584,0.04,0.0225749204546066,463.327648926518,0.944439280598986,0.360469772061254
1125,-0.0464878234524756,-0.402113031446205,-0.368422198710962,-0.0685204395089239,-0.233425143816376,0.000239298837031356,-0.370894478541282,0.283873715038751,0.97128312883839,0.975730090837584,0.04,0.024283036940169,463.402168024903,0.971658568458843,0.350428203964922
1185,-0.0464878234524756,-0.402113031446205,-0.368422198710962,-0.0685204395089239,-0.233425143816376,0.000239298837031356,-0.370894478541282,0.283873715038751,0.971835787687997,0.975730090837584,0.04,0.026412533232702,463.668510931669,0.996325986276651,0.341948593082512
1245,-0.0464878234524756,-0.402113031446205,-0.368422198710962,-0.068520439508924,-0.233425143816376,0.000239298837031242,-0.370894478541282,0.283873715038751,0.972651566211336,0.975730090837584,0.04,0.028787367159242,464.059203941537,1.01656353282715,0.335423542066653
1305,-0.0464878234524756,-0.402113031446205,-0.368422198710962,-0.0685204395089239,-0.233425143816376,0.000239298837031356,-0.370894478541282,0.283873715038751,0.973582924685922,0.975730090837584,0.04,0.0312310255155038,464.503922646885,1.03137850587799,0.330922263153251
1365,-0.0464878234524756,-0.402113031446205,-0.368422198710962,-0.0685204395089239,-0.233425143816376,0.000239298837031356,-0.370894478541282,0.283873715038751,0.974499375474777,0.975730090837584,0.04,0.033582426082276,464.94058198547,1.04060602266488,0.328296154820062
1425,-0.0464878234524756,-0.402113031446205,-0.368422198710962,-0.0685204395089239,-0.233425143816376,0.000239298837031356,-0.370894478541282,0.283873715038751,0.97530238480123,0.975730090837584,0.04,0.0357079300158514,465.322514869826,1.04474321422895,0.327264715576931
1485,-0.0464878234524756,-0.402113031446205,-0.368422198710962,-0.0685204395089239,-0.233425143816376,0.000239298837031356,-0.370894478541282,0.283873715038751,0.975932728187244,0.975730090837584,0.04,0.0375102519237644,465.621737007088,1.04472484237697,0.327480919451848
1545,-0.0464878234524756,-0.402113031446205,-0.368422198710962,-0.0685204395089239,-0.233425143816376,0.000239298837031356,-0.370894478541282,0.283873715038751,0.976369993716488,0.975730090837584,0.04,0.0389343608093052,465.828834240412,1.04168567579512,0.328582440831742
1605,-0.0464878234524756,-0.402113031446205,-0.368422198710962,-0.068520439508924,-0.233425143816376,0.000239298837031242,-0.370894478541282,0.283873715038751,0.976624820239653,0.975730090837584,0.04,0.039968222771344,465.949061130497,1.03675465331082,0.330230455792082
1665,-0.0464878234524756,-0.402113031446205,-0.368422198710962,-0.0685204395089239,-0.233425143816376,0.000239298837031356,-0.370894478541282,0.283873715038751,0.976726323970506,0.975730090837584,0.04,0.0406367772115824,465.996415187888,1.03091743760885,0.332134023364198
1725,-0.0464878234524756,-0.402113031446205,-0.368422198710962,-0.0685204395089239,-0.233425143816376,0.000239298837031356,-0.370894478541282,0.283873715038751,0.976710775459362,0.975730090837584,0.04,0.0409909982327412,465.988212399191,1.02495215538829,0.334061182564496
1785,-0.0464878234524756,-0.402113031446205,-0.368422198710962,-0.0685204395089239,-0.233425143816376,0.000239298837031356,-0.370894478541282,0.283873715038751,0.976614021276766,0.975730090837584,0.04,0.0410957850081993,465.941541175257,1.01941804510946,0.335841059387605
1845,-0.0345594434449001,-0.400594774141065,-0.360368751545711,-0.0513889066536145,-0.203548392860892,-0.0155361589708162,-0.361652963981098,0.266082687109207,0.975325312676197,0.975843440132558,0.04,0.0415789190070814,465.322250965523,1.01904735698945,0.335516690760313
1905,-0.0186549367681328,-0.398570431067545,-0.349630821992043,-0.0285468628465355,-0.163712724920247,-0.0365701027146131,-0.349330944567518,0.242361316536482,0.974988591221791,0.975994572525856,0.04,0.0421228943175062,465.166252177581,1.02438734808546,0.33365579289326
1965,-0.00275043009136562,-0.396546087994024,-0.338892892438374,-0.00570481903945642,-0.123877056979602,-0.05760404645841,-0.337008925153939,0.218639945963757,0.975012638695681,0.976145704919154,0.04,0.0429073376308743,465.179617411303,1.03105103533882,0.33150889877091
2025,0.0131540765854019,-0.394521744920504,-0.328154962884706,0.0171372247676226,-0.0840413890389577,-0.0786379902022069,-0.32468690574036,0.194918575391033,0.975233342135916,0.976296837312452,0.04,0.0439184810656018,465.28618258208,1.03766225083129,0.329472229047758
2085,0.0290585832621691,-0.392497401846984,-0.317417033331038,0.0399792685747017,-0.044205721098313,-0.0996719339460038,-0.312364886326781,0.171197204818308,0.975581534631396,0.97644796970575,0.04,0.0450864451808181,465.453068585887,1.04332037864896,0.327802969757471
2145,0.0449630899389364,-0.390473058773463,-0.30667910377737,0.062821312381781,-0.00437005315766828,-0.120705877689801,-0.300042866913202,0.147475834245583,0.975998435255995,0.976599102099048,0.04,0.0463304224590126,465.652309675769,1.0474983961544,0.326635264798786
2205,0.0608675966157035,-0.388448715699943,-0.295941174223702,0.0856633561888599,0.0354656147829764,-0.141739821433598,-0.287720847499622,0.123754463672858,0.976438538822381,0.976750234492346,0.04,0.0475753458140099,465.862329037046,1.04997115333575,0.326012988072291
2265,0.0767721032924711,-0.386424372626423,-0.285203244670034,0.108505399995939,0.0753012827236213,-0.162773765177394,-0.275398828086043,0.100033093100133,0.976871332475823,0.976901366885645,0.04,0.0487607197493613,466.068672386246,1.05072736289593,0.32592265246208
2325,0.0926766099692383,-0.384400029552903,-0.274465315116366,0.131347443803018,0.115136950664266,-0.183807708921191,-0.263076808672464,0.0763117225274082,0.977281196458283,0.977052499278943,0.04,0.049844024548226,466.26401563237,1.04987998688842,0.326322424317586
2385,0.108581116646006,-0.382375686479382,-0.263727385562698,0.154189487610097,0.154972618604911,-0.204841652664988,-0.250754789258885,0.0525903519546833,0.977668646351898,0.977203631672241,0.04,0.0508020516670172,466.448736605701,1.04757344837089,0.327170482934054
2445,0.124485623322773,-0.380351343405862,-0.25298945600903,0.177031531417176,0.194808286545556,-0.225875596408785,-0.238432769845306,0.0288689813819584,0.978043369747052,0.977354764065539,0.04,0.0516295295213649,466.627379535916,1.04390010384561,0.328447494353627
2505,0.14039012999954,-0.378327000332342,-0.242251526455362,0.199873575224255,0.2346439544862,-0.246909540152582,-0.226110750431727,0.00514761080923347,0.978363065012083,0.977505896458837,0.04,0.0523112239332382,466.779055748001,1.03905696251044,0.330085677499223
2565,0.156294636676307,-0.376302657258821,-0.231513596901694,0.222715619031334,0.274479622426845,-0.267943483896379,-0.213788731018147,-0.0185737597634914,0.978543439683306,0.977657028852135,0.04,0.0527834512091781,466.863915191132,1.0337298879478,0.331847011556041
2625,0.172199143353075,-0.374278314185301,-0.220775667348026,0.245557662838414,0.31431529036749,-0.288977427640176,-0.201466711604568,-0.0422951303362163,0.978596873372934,0.977808161245433,0.04,0.0530035291987157,466.888648575791,1.02875660597101,0.333468913410579
2685,0.188103650029842,-0.372253971111781,-0.210037737794358,0.268399706645493,0.354150958308135,-0.310011371383972,-0.189144692190989,-0.0660165009089411,0.97858320307685,0.977959293638731,0.04,0.0530002834359965,466.881801997957,1.02466264652902,0.334796352752215
2745,0.192079776699034,-0.371747885343401,-0.207353255405941,0.274110217597262,0.364109875293296,-0.315269857319922,-0.186064187337594,-0.0719468435521225,0.979066214626367,0.978110426032029,0.04,0.0519307569012416,467.115913292482,1.02001653026726,0.336489974350314
2805,0.192079776699034,-0.371747885343401,-0.207353255405941,0.274110217597262,0.364109875293296,-0.315269857319922,-0.186064187337594,-0.0719468435521225,0.979303287265074,0.978261558425327,0.04,0.0506173977966379,467.226541703006,1.0137994436306,0.338633666955353
2865,0.192079776699034,-0.371747885343401,-0.207353255405941,0.274110217597262,0.364109875293296,-0.315269857319922,-0.186064187337594,-0.0719468435521225,0.97937738639747,0.978412690818625,0.04,0.0492802906890538,467.261293444647,1.0078236107088,0.340666912577438
2925,0.192079776699034,-0.371747885343401,-0.207353255405941,0.274110217597262,0.364109875293296,-0.315269857319922,-0.186064187337594,-0.0719468435521225,0.979405811937729,0.978563823211924,0.04,0.0479552604224222,467.274658640168,1.00251552700564,0.342480459456576
2985,0.192079776699034,-0.371747885343401,-0.207353255405941,0.274110217597262,0.364109875293296,-0.315269857319922,-0.186064187337594,-0.0719468435521225,0.979420946887927,0.978714955605222,0.04,0.0466978055524448,467.281845968486,0.998006288781802,0.344033162148925
3045,0.192079776699034,-0.371747885343401,-0.207353255405941,0.274110217597262,0.364109875293296,-0.315269857319922,-0.186064187337594,-0.0719468435521225,0.979437946476024,0.97886608799852,0.04,0.0455470754040592,467.290012291496,0.994311224396946,0.345317694665031
3105,0.192079776699034,-0.371747885343401,-0.207353255405941,0.274110217597262,0.364109875293296,-0.315269857319922,-0.186064187337594,-0.0719468435521225,0.979465319575954,0.979017220391818,0.04,0.0445250214778414,467.303177562986,0.991383098305092,0.346347374586569
3165,0.192079776699034,-0.371747885343401,-0.207353255405941,0.274110217597262,0.364109875293296,-0.315269857319922,-0.186064187337594,-0.0719468435521225,0.979507621960567,0.979168352785116,0.04,0.0436399508789293,467.323489509707,0.989140068560141,0.347147859987554
3225,0.192079776699034,-0.371747885343401,-0.207353255405941,0.274110217597262,0.364109875293296,-0.315269857319922,-0.186064187337594,-0.0719468435521223,0.979566715410373,0.979319485178414,0.04,0.0428902462867315,467.3518195275,0.987484104269748,0.347751090622341
3285,0.192079776699034,-0.371747885343401,-0.207353255405941,0.274110217597262,0.364109875293296,-0.315269857319922,-0.186064187337594,-0.0719468435521225,0.979642654955042,0.979470617571712,0.04,0.0422676031553472,467.38817920235,0.986313513833496,0.348190900372117
3345,0.192079776699034,-0.371747885343401,-0.207353255405941,0.274110217597262,0.364109875293296,-0.315269857319922,-0.186064187337594,-0.0719468435521225,0.979734312970851,0.97962174996501,0.04,0.0417596482298855,467.43202826401,0.985531227183897,0.348499976636133
3405,0.192079776699034,-0.371747885343401,-0.207353255405941,0.274110217597262,0.364109875293296,-0.315269857319922,-0.186064187337594,-0.0719468435521223,0.979839893411461,0.979772882358308,0.04,0.0413519830077747,467.48250279344,0.985049783092447,0.348707956686007
3465,0.192079776699034,-0.371747885343401,-0.207353255405941,0.274110217597262,0.364109875293296,-0.315269857319922,-0.186064187337594,-0.0719468435521225,0.979957278731525,0.979924014751607,0.04,0.0410296852339406,467.538593047876,0.984793930257292,0.348840402328678
3525,0.192079776699034,-0.371747885343401,-0.207353255405941,0.274110217597262,0.364109875293296,-0.315269857319922,-0.186064187337594,-0.0719468435521225,0.980084302643129,0.980075147144905,0.04,0.0407783595787132,467.599263838972,0.984701420166801,0.348918446969857
3585,0.192079776699034,-0.371747885343401,-0.207353255405941,0.274110217597262,0.364109875293296,-0.315269857319922,-0.186064187337594,-0.0719468435521225,0.980218685760809,0.980226279538203,0.04,0.0405848100281576,467.663431114688,0.984722183123455,0.348958970038396
3645,0.160152778205254,-0.332100003832569,-0.219620474228095,0.239915901424897,0.363989131036511,-0.284662815102836,-0.199703371040952,-0.0572488283241213,0.980333004139614,0.980264062636527,0.04,0.0403302227386497,467.717999260694,0.984646333039283,0.349026571879424
3705,0.117583446880214,-0.279236161818127,-0.235976765990968,0.194323479861745,0.363828138694131,-0.243853425480056,-0.217888949312095,-0.0376514746867864,0.980433076906927,0.980264062636527,0.04,0.04010596082292,467.765191204763,0.983803132390216,0.349360962883236
3765,0.0750141155551743,-0.226372319803685,-0.252333057753841,0.148731058298592,0.36366714635175,-0.203044035857276,-0.236074527583238,-0.0180541210494516,0.980488822882455,0.980264062636527,0.04,0.0399273503122194,467.791547169429,0.982553961992215,0.349824832663637
3825,0.0324447842301345,-0.173508477789243,-0.268689349516714,0.103138636735439,0.36350615400937,-0.162234646234496,-0.254260105854381,0.00154323258788327,0.9805185289155,0.980264062636527,0.04,0.0397621723915065,467.805532338832,0.981076173151264,0.350362245770272
3885,-0.0101245470949056,-0.120644635774801,-0.285045641279587,0.0575462151722858,0.36334516166699,-0.121425256611716,-0.272445684125525,0.0211405862252182,0.980525466605064,0.980264062636527,0.04,0.039597151368261,467.808670407894,0.979511102350715,0.350924411421546
3945,-0.0526938784199455,-0.067780793760359,-0.301401933042459,0.0119537936091328,0.36318416932461,-0.0806158669889354,-0.290631262396668,0.0407379398625528,0.980512231850161,0.980264062636527,0.04,0.0394266498860675,467.802209044601,0.977985757951674,0.351466886533877
4005,-0.0952632097449853,-0.0149169517459169,-0.317758224805332,-0.0336386279540202,0.36302317698223,-0.0398064773661551,-0.308816840667811,0.0603352934998876,0.980483014987934,0.980264062636527,0.04,0.0392504186877815,467.788165949562,0.976605422525279,0.351953084604598
4065,-0.137832541070025,0.0379468902685252,-0.334114516568205,-0.0792310495171732,0.362862184639849,0.00100291225662488,-0.327002418938954,0.0799326471372225,0.980443056929865,0.980264062636527,0.04,0.0390722438491779,467.769035027119,0.975445529691319,0.352357177826946
4125,-0.180401872395065,0.0908107322829671,-0.350470808331078,-0.124823471080326,0.362701192297469,0.0418123018794051,-0.345187997210098,0.0995300007745574,0.980397532496175,0.980264062636527,0.04,0.0388981567014818,467.74729200203,0.974549795019742,0.352664645233964
4185,-0.222971203720105,0.143674574297409,-0.366827100093951,-0.170415892643479,0.362540199955089,0.0826216915021855,-0.363373575481241,0.119127354411892,0.980350755065782,0.980264062636527,0.04,0.0387345432340206,467.724980105618,0.973934025061602,0.352870784513908
4245,-0.265540535045145,0.196538416311851,-0.383183391856824,-0.216008314206632,0.362379207612709,0.123431081124966,-0.381559153752384,0.138724708049227,0.980305904159642,0.980264062636527,0.04,0.0385868096659333,467.703602571984,0.973592602187288,0.352978396742035
4305,-0.308109866370185,0.249402258326293,-0.399539683619696,-0.261600735769785,0.362218215270329,0.164240470747746,-0.399744732023528,0.158322061686562,0.980265005750881,0.980264062636527,0.04,0.0384586822029535,467.684127600537,0.973505446878597,0.352995298762453
4365,-0.350679197695225,0.302266100340735,-0.415895975382569,-0.307193157332938,0.362057222927949,0.205049860370526,-0.417930310294671,0.177919415323897,0.980229139721951,0.980264062636527,0.04,0.0383520248698672,467.667058718915,0.973644126558818,0.35293213906193
4425,-0.393248529020265,0.355129942355177,-0.432252267145442,-0.352785578896091,0.361896230585569,0.245859249993306,-0.436115888565814,0.197516768961232,0.980198654315949,0.980264062636527,0.04,0.0382670380545971,467.652556718316,0.973976756333414,0.352800666260345
4485,-0.435817860345305,0.40799378436962,-0.448608558908315,-0.398378000459244,0.361735238243188,0.286668639616086,-0.454301466836957,0.217114122598566,0.980173344081704,0.980264062636527,0.04,0.0382026587603808,467.640522535213,0.974471656837017,0.352612416915982
4545,-0.446460193176564,0.42120974487323,-0.452697631849033,-0.409776105850032,0.361694990157593,0.296870987021781,-0.458847861404743,0.2220134610079,0.979944286386288,0.980264062636527,0.04,0.0381211373012585,467.529331326288,0.975486235733773,0.352161919842088
4605,-0.446460193176565,0.42120974487323,-0.452697631849033,-0.409776105850032,0.361694990157593,0.296870987021781,-0.458847861404743,0.2220134610079,0.979847851038428,0.980264062636527,0.04,0.0381187822591498,467.485332134528,0.977903989790353,0.351258180366316
4665,-0.446460193176564,0.42120974487323,-0.452697631849033,-0.409776105850032,0.361694990157593,0.296870987021782,-0.458847861404743,0.2220134610079,0.979864965988872,0.980264062636527,0.04,0.0382323774198927,467.493865167563,0.980356217339178,0.350385951366518
4725,-0.446460193176565,0.42120974487323,-0.452697631849033,-0.409776105850032,0.361694990157593,0.296870987021781,-0.458847861404743,0.2220134610079,0.979911950285902,0.980264062636527,0.04,0.0384298384366994,467.516431754485,0.982574654221482,0.349611732594703
4785,-0.446460193176565,0.42120974487323,-0.452697631849033,-0.409776105850032,0.361694990157593,0.296870987021781,-0.458847861404743,0.2220134610079,0.979971631450878,0.980264062636527,0.04,0.03866861137792,467.544962648783,0.984455170959516,0.348965195371718
4845,-0.446460193176564,0.42120974487323,-0.452697631849033,-0.409776105850032,0.361694990157593,0.296870987021782,-0.458847861404743,0.2220134610079,0.980034320239164,0.980264062636527,0.04,0.038916958658099,467.574865269588,0.985961769008422,0.348454243948758
4905,-0.446460193176565,0.42120974487323,-0.452697631849033,-0.409776105850032,0.361694990157593,0.296870987021782,-0.458847861404743,0.2220134610079,0.980093566980383,0.980264062636527,0.04,0.0391533253131916,467.603086180044,0.98710330309619,0.348072281531779
4965,-0.446460193176565,0.42120974487323,-0.452697631849033,-0.409776105850032,0.361694990157593,0.296870987021782,-0.458847861404743,0.2220134610079,0.980145514375272,0.980264062636527,0.04,0.0393644771393132,467.627802586576,0.987916822463092,0.347804037762946
5025,-0.446460193176565,0.42120974487323,-0.452697631849033,-0.409776105850032,0.361694990157593,0.296870987021781,-0.458847861404743,0.2220134610079,0.980188347029565,0.980264062636527,0.04,0.0395436722886997,467.648162450879,0.988454170681732,0.347630097528352
5085,-0.446460193176564,0.42120974487323,-0.452697631849033,-0.409776105850032,0.361694990157593,0.296870987021782,-0.458847861404743,0.2220134610079,0.980221722136378,0.980264062636527,0.04,0.0396889661197976,467.664011993815,0.988771993209913,0.347530136343102
5145,-0.446460193176564,0.42120974487323,-0.452697631849033,-0.409776105850032,0.361694990157593,0.296870987021782,-0.458847861404743,0.2220134610079,0.980246260134548,0.980264062636527,0.04,0.0398017120179236,467.675653074424,0.988924951792344,0.34748503268188
5205,-0.446460193176564,0.42120974487323,-0.452697631849033,-0.409776105850032,0.361694990157593,0.296870987021782,-0.458847861404743,0.2220134610079,0.980263128045339,0.980264062636527,0.04,0.0398853043668789,467.683645328828,0.988961645311672,0.347478077977475
5265,-0.446460193176565,0.42120974487323,-0.452697631849033,-0.409776105850032,0.361694990157593,0.296870987021781,-0.458847861404743,0.2220134610079,0.980273728840473,0.980264062636527,0.04,0.0399441878204229,467.688658858046,0.988922609066295,0.347495519239182
5325,-0.446460193176564,0.42120974487323,-0.452697631849033,-0.409776105850032,0.361694990157593,0.296870987021782,-0.458847861404743,0.2220134610079,0.980279486861975,0.980264062636527,0.04,0.0399831273616263,467.691373043038,0.988839790036901,0.347526640112967
5385,-0.446460193176565,0.42120974487323,-0.452697631849033,-0.409776105850032,0.361694990157593,0.296870987021781,-0.458847861404743,0.2220134610079,0.980281713671113,0.980264062636527,0.04,0.0400067118707131,467.692412332292,0.988736979180854,0.347563548973903
5445,-0.410837019484649,0.382972550538577,-0.406415369613366,-0.375596750728627,0.347986198617864,0.282042066284152,-0.459144675981976,0.194217901898303,0.979856973776349,0.980264062636527,0.04,0.0404747923812079,467.486344104235,0.989618773587537,0.347100852131215
5505,-0.363339454562095,0.331989624759039,-0.344705686632476,-0.33002427723342,0.329707809898225,0.262270171967313,-0.459540428751619,0.15715715641884,0.979709122132108,0.980264062636527,0.04,0.0411414957235825,467.419259382501,0.992850579414388,0.345921364712147
5565,-0.315841889639542,0.281006698979501,-0.282996003651587,-0.284451803738213,0.311429421178586,0.242498277650473,-0.459936181521263,0.120096410939378,0.979762557026681,0.980264062636527,0.04,0.0419154118908313,467.445412318317,0.99600945312974,0.344843558305499
5625,-0.268344324716988,0.230023773199964,-0.221286320670697,-0.238879330243006,0.293151032458947,0.222726383333634,-0.460331934290907,0.0830356654599153,0.979867030058893,0.980264062636527,0.04,0.0427425750863748,467.495506898903,0.998621201064755,0.343978529424578
5685,-0.220846759794434,0.179040847420426,-0.159576637689808,-0.193306856747799,0.274872643739308,0.202954489016795,-0.46072768706055,0.0459749199804527,0.979995656159851,0.980264062636527,0.04,0.0435558590578569,467.557045495309,1.0005056263974,0.343375849354708
5745,-0.17334919487188,0.128057921640888,-0.097866954708918,-0.147734383252591,0.256594255019669,0.183182594699955,-0.461123439830194,0.00891417450099016,0.980146872800811,0.980264062636527,0.04,0.0443170906478072,467.62937109301,1.0015312346495,0.343077280507356
5805,-0.125851629949326,0.0770749958613508,-0.0361572717280284,-0.102161909757384,0.23831586630003,0.163410700383116,-0.461519192599837,-0.0281465709784726,0.98031234198321,0.980264062636527,0.04,0.0450077279807294,467.708235797833,1.00157699794068,0.3431194614967
5865,-0.0783540650267727,0.0260920700818131,0.0255524112528612,-0.0565894362621772,0.220037477580391,0.143638806066277,-0.461914945369481,-0.0652073164579351,0.980424518911413,0.980264062636527,0.04,0.0455841750080217,467.760995831714,1.00079573186639,0.343426051908741
5925,-0.030856500104219,-0.0248908556977246,0.0872620942337509,-0.01101696276697,0.201759088860752,0.123866911749438,-0.462310698139125,-0.102268061937398,0.980430607197213,0.980264062636527,0.04,0.0459747292832119,467.763112691198,0.999758802061903,0.343783802322784
5985,0.0166410648183348,-0.0758737814772625,0.14897177721464,0.0345555107282371,0.183480700141113,0.104095017432598,-0.462706450908768,-0.139328807416861,0.980362000908476,0.980264062636527,0.04,0.0461591262553088,467.72999580843,0.999006098795711,0.344018469274807
6045,0.0641386297408886,-0.1268567072568,0.21068146019553,0.0801279842234442,0.165202311421474,0.0843231231157587,-0.463102203678412,-0.176389552896323,0.980263669383591,0.980264062636527,0.04,0.0461772884048054,467.68297422487,0.99879999079258,0.344054867604568
6105,0.111636194663442,-0.177839633036338,0.27239114317642,0.125700457718651,0.146923922701835,0.0645512287989193,-0.463497956448056,-0.213450298375786,0.980160099598106,0.980264062636527,0.04,0.0460851642074553,467.633575814048,0.999212080352551,0.343876649020858
6165,0.159133759585996,-0.228822558815875,0.334100826157309,0.171272931213858,0.128645533982196,0.0447793344820799,-0.463893709217699,-0.250511043855248,0.98006061474974,0.980264062636527,0.04,0.045928272063319,467.586148755012,1.00023185441265,0.343491213657437
6225,0.20663132450855,-0.279805484595413,0.395810509138199,0.216845404709066,0.110367145262557,0.0250074401652406,-0.464289461987343,-0.287571789334711,0.979967467469055,0.980264062636527,0.04,0.0457362143574365,467.541765070893,1.00182373497354,0.342912859392093
6285,0.254128889431104,-0.330788410374951,0.457520192119089,0.262417878204273,0.0920887565429176,0.00523554584840122,-0.464685214756986,-0.324632534814174,0.979880509110216,0.980264062636527,0.04,0.0455255386481234,467.500325008614,1.00394971921514,0.342156370831054
6345,0.266003280661742,-0.343534141819835,0.472947612864311,0.273810996578074,0.0875191593630079,0.000292572269191396,-0.464784152949397,-0.333897721184039,0.969610062334498,0.963207991073549,0.04,0.0491857892131192,462.448150801593,0.97949099928679,0.346910363405364
6405,0.266003280661742,-0.343534141819835,0.472947612864311,0.273810996578074,0.0875191593630079,0.000292572269191396,-0.464784152949397,-0.333897721184039,0.948053914818673,0.940466562322913,0.04,0.053850309914242,452.134593799849,0.933492846361162,0.355886422316635
6465,0.266003280661742,-0.343534141819835,0.472947612864311,0.273810996578074,0.0875191593630079,0.000292572269191396,-0.464784152949397,-0.333897721184039,0.924855968449516,0.917725133572276,0.04,0.055848647443771,441.063160054396,0.888415366656025,0.364787038892663
6525,0.266003280661742,-0.343534141819835,0.472947612864311,0.273810996578074,0.0875191593630079,0.00029257226919151,-0.447948881358833,-0.333897721184039,0.900996499361642,0.894983704821639,0.04,0.0562289902606444,429.673189779939,0.848062955409885,0.372275828831317
6585,0.266003280661742,-0.343534141819835,0.472947612864311,0.273810996578074,0.0875191593630079,0.00029257226919151,-0.408894721864624,-0.333897721184039,0.877343994692897,0.872242276071002,0.04,0.0557031142924337,418.395234433905,0.814908768522565,0.377252750301953
6645,0.266003280661742,-0.343534141819835,0.472947612864311,0.273810996578074,0.0875191593630079,0.000292572269191396,-0.369167521764077,-0.333897721184039,0.85429978762816,0.849500847320365,0.04,0.0548786263595912,407.389400587721,0.785080856064385,0.381285258222026
6705,0.266003280661742,-0.343534141819835,0.472947612864311,0.273810996578074,0.0875191593630079,0.000292572269191396,-0.330230207489647,-0.330230207489647,0.831198405346836,0.826759418569728,0.04,0.0542131703003858,396.360063089948,0.757429703263611,0.384505213522059
6765,0.266003280661742,-0.343534141819835,0.472947612864311,0.273810996578074,0.0875191593630079,0.000292572269191396,-0.292299866867663,-0.292299866867663,0.807201132911331,0.804017989819091,0.04,0.0541196006350747,384.93204285446,0.73601289943604,0.384284895734115
6825,0.266003280661742,-0.343534141819835,0.472947612864311,0.273810996578074,0.0875191593630079,0.00029257226919151,-0.254979434320996,-0.254979434320996,0.784339561146622,0.781276561068455,0.04,0.0542843694068217,374.027820721348,0.716434741893524,0.383602956147304
6885,0.266003280661742,-0.343534141819835,0.472947612864311,0.273810996578074,0.0875191593630079,0.000292572269191396,-0.217536174255594,-0.217536174255594,0.761672744566162,0.758535132317818,0.04,0.0550109442192119,363.213954351304,0.696652924043464,0.383089931050068
6945,0.266003280661742,-0.343534141819835,0.472947612864311,0.273810996578074,0.0875191593630079,0.00029257226919151,-0.178913703409812,-0.178913703409812,0.73901285052581,0.735793703567181,0.04,0.0561161936194137,352.402743095633,0.676356475480564,0.382840878587501
7005,0.266003280661742,-0.343534141819835,0.472947612864311,0.273810996578074,0.0875191593630079,0.000292572269191396,-0.138151322029619,-0.138151322029619,0.716324605151531,0.713052274816544,0.04,0.0574259487804222,341.577940201398,0.655679465689254,0.382783235277834
7065,0.266003280661742,-0.343534141819835,0.472947612864311,0.273810996578074,0.0875191593630079,0.00029257226919151,-0.0945463729996358,-0.0945463729996358,0.69360926252227,0.690310846065907,0.04,0.0588436897472891,330.740265427398,0.634793564556184,0.382832880922538
7125,0.266003280661742,-0.343534141819835,0.472947612864311,0.273810996578074,0.0875191593630079,0.000292572269191396,-0.0495787332025194,-0.0495787332025194,0.670911718964121,0.66756941731527,0.04,0.0603201704334688,319.907404355816,0.613924082637588,0.382881425695635
7185,0.266003280661742,-0.343534141819835,0.472947612864311,0.273810996578074,0.0875191593630079,0.00029257226919151,-0.0234189603608486,-0.0234189603608486,0.648132542307266,0.644827988564633,0.04,0.0618670208531277,309.042978082099,0.592885974694642,0.383003179873622
7245,0.238983163103793,-0.350625986633651,0.468776021342875,0.259054056462684,0.0631275316677102,0.00091608564037881,-0.0110620172710888,-0.0110620172710888,0.626025509965149,0.622086559813997,0.04,0.0607978994760826,298.502115639528,0.57008583612881,0.384735125963079
7305,0.202956339693194,-0.36008177971874,0.463213899314293,0.23937813630883,0.0306053614073134,0.00174743680196195,-0.00522503835518202,-0.00522503835518202,0.603914984915061,0.59934513106336,0.04,0.0591231080476489,287.950990501711,0.542700393982494,0.38986398370789
7365,0.166929516282596,-0.369537572803828,0.457651777285712,0.219702216154977,-0.00191680885308335,0.00257878796354521,-0.00246786181544547,-0.00246786181544547,0.581592748414142,0.576603702312723,0.04,0.0574415955059511,277.303160117849,0.512642041958089,0.397461690261737
7425,0.130902692871997,-0.378993365888916,0.452089655257131,0.200026296001123,-0.0344389791134803,0.00341013912512824,-0.00116548651772221,-0.00116548651772221,0.558999937946389,0.553862273562086,0.04,0.055333934514825,266.51565296031,0.481173876454351,0.406982145006546
7485,0.0948758694613984,-0.388449158974004,0.44652753322855,0.18035037584727,-0.0669611493738772,0.00424149028671144,-0.000550270709859397,-0.000550270709859397,0.53629886454081,0.531120844811449,0.04,0.0522582759296286,255.693394459083,0.44947908124584,0.417988853380882
