time,bias_percent_1,bias_percent_2,bias_percent_3,bias_percent_4,bias_percent_5,bias_percent_6,bias_percent_8,bias_percent_9,normalized_power,power_SP,SP,CV,total_power_MW,fuel_fraction,thermal_efficiency
54,0,0,0,0,0,0,0,0,0.999832207957595,1,0.04,0.0399079202397772,477.02273006501,1.00001851438744,0.350498133251806
114,0.000918474235766894,0.00455638667766596,0.0147494149318059,-0.00673215091988152,0.0123744715597145,0.0180597692744898,-0.0118848811875091,0.0218365036762827,0.971059725641431,0.957759108591863,0.04,0.0523214587648977,462.950217077642,0.93633293794672,0.363294369701162
174,0.0019390011643967,0.00961903854173909,0.0311376537449235,-0.0142123186086388,0.0261238844038417,0.0381261795794784,-0.0250903047291858,0.0460992855388191,0.925188497151067,0.910824784805044,0.04,0.0650187216645123,441.026846556931,0.848494581671445,0.381918441956349
234,0.00295952809302651,0.0146816904058123,0.0475258925580412,-0.0216924862973962,0.0398732972479689,0.058192589884467,-0.0382957282708627,0.0703620674013554,0.877413671259233,0.863890461018225,0.04,0.0731704451923999,418.235033643708,0.763429381217164,0.402537379504728
294,0.00398005502165631,0.0197443422698856,0.0639141313711588,-0.0291726539861535,0.0536227100920961,0.0782590001894557,-0.0515011518125395,0.0946248492638917,0.829747575496894,0.816956137231406,0.04,0.077964363147967,395.493458769547,0.682826400399988,0.425582417397187
354,0.00500058195028612,0.0248069941339587,0.0803023701842762,-0.0366528216749107,0.0673721229362233,0.0983254104944443,-0.0647065753542162,0.118887631126428,0.782066161716362,0.770021813444588,0.04,0.0802470748999358,372.744630690721,0.60668045031055,0.451446273108396
414,0.00602110887891604,0.0298696459980321,0.0966906089973941,-0.0441329893636679,0.0811215357803505,0.118391820799433,-0.077911998895893,0.143150412988964,0.734096321272227,0.723087489657769,0.04,0.0802243387680265,350.13756170608,0.535972681369967,0.480010486411248
474,0.00704163580754584,0.0349322978621052,0.113078847810512,-0.0516131570524253,0.0948709486244777,0.138458231104422,-0.0517528503356736,0.167413194851501,0.683670907901957,0.67615316587095,0.04,0.0819008543204323,325.972330694982,0.48111556262961,0.497835667794498
534,0.00806216273617571,0.0399949497261784,0.129467086623629,-0.0590933247411826,0.108620361468605,0.15852464140941,-0.0244460235624739,0.191675976714037,0.634605504402711,0.629218842084131,0.04,0.0839118641980701,302.741019831376,0.443986881027803,0.501020860057018
594,0.00908268966480557,0.0450576015902516,0.145855325436747,-0.0665734924299398,0.122369774312732,0.178591051714399,-0.0115472081809403,0.215938758576573,0.587488654850861,0.582284518297312,0.04,0.0884835794438471,280.165965133654,0.410887334176851,0.501011042212554
654,0.0101032165934354,0.0501202534543248,0.162243564249865,-0.0740536601186971,0.136119187156859,0.198657462019388,-0.00545424621840072,0.24020154043911,0.540622749308768,0.535350194510493,0.04,0.0958189643494079,257.780604119021,0.378585399471972,0.500312153102545
714,0.0111237435220652,0.055182905318398,0.178631803062982,-0.0815338278074545,0.149868600000987,0.218723872324376,-0.00257613766796021,0.264464322301646,0.493683808341911,0.488415870723674,0.04,0.105303381305599,235.447805318222,0.345878537243633,0.500179294051005
774,0.012144270450695,0.0602455571824713,0.1950200418761,-0.0890139954962117,0.163618012845114,0.238790282629365,-0.00121661643494376,0.288727104164182,0.446911993041218,0.441481546936855,0.04,0.116377766388809,213.1162607313,0.312288451784872,0.501435802379085
834,0.0131647973793249,0.0653082090465445,0.211408280689217,-0.096494163184969,0.177367425689241,0.258856692934354,-0.000574424749471171,0.312989886026719,0.40006442341644,0.394547223150036,0.04,0.128980652811008,190.852170374754,0.277939942383273,0.504546056667734
894,0.0141853243079547,0.0703708609106177,0.227796519502335,-0.103974330873726,0.191116838533368,0.278923103239342,-0.000271075036744725,0.337252667889255,0.353807251869175,0.347612899363217,0.04,0.143545694944065,168.631295699414,0.241060021739962,0.514005376650607
954,0.0142873770008177,0.070877126097025,0.229435343383647,-0.104722347642602,0.192491779817781,0.280929744269841,-0.000127782612823628,0.339678946075509,0.33205567338601,0.342919466984536,0.04,0.121977679497912,158.401133344261,0.286590288793933,0.406117300550901
1014,0.0142873770008177,0.070877126097025,0.229435343383647,-0.104722347642602,0.192491779817781,0.280929744269841,-6.00961280954825e-05,0.339678946075509,0.334664924456722,0.342919466984536,0.04,0.0884860371188626,159.707804494081,0.345923494806332,0.339235079949757
1074,0.0142873770008177,0.070877126097025,0.229435343383647,-0.104722347642602,0.192491779817781,0.280929744269841,-2.81234483328809e-05,0.339678946075509,0.337671741970082,0.342919466984536,0.04,0.0799502827772032,161.119771556775,0.382219035830287,0.309735654548641
1134,0.0142873770008177,0.070877126097025,0.229435343383647,-0.104722347642602,0.192491779817781,0.280929744269841,-1.30206954671117e-05,0.339678946075509,0.339542325345622,0.342919466984536,0.04,0.0794454187301976,162.008997354247,0.406123204162083,0.293113625047377
1194,0.0142873770008177,0.070877126097025,0.229435343383647,-0.104722347642602,0.192491779817781,0.280929744269841,-5.88669400654897e-06,0.339678946075509,0.341003936793066,0.342919466984536,0.04,0.0815768328719414,162.702632702698,0.420379651960441,0.284385579323801
1254,0.0142873770008177,0.070877126097025,0.229435343383647,-0.104722347642602,0.192491779817781,0.280929744269841,-2.51684631774359e-06,0.339678946075509,0.341964050985869,0.342919466984536,0.04,0.0842401548846861,163.156674606935,0.427825214152557,0.280216139131806
1314,0.0142873770008177,0.070877126097025,0.229435343383647,-0.104722347642602,0.192491779817781,0.280929744269841,-9.25050534055719e-07,0.339678946075509,0.342472420870118,0.342919466984536,0.04,0.0864236369349895,163.396245089327,0.431361699033857,0.278326890233256
1374,0.0142873770008177,0.070877126097025,0.229435343383647,-0.104722347642602,0.192491779817781,0.280929744269841,-1.73143014501108e-07,0.339678946075509,0.342696491727712,0.342919466984536,0.04,0.0878611062982695,163.501588286835,0.433060709875198,0.277413676929335
1434,0.0142873770008177,0.070877126097025,0.229435343383647,-0.104722347642602,0.192491779817781,0.280929744269841,1.82031263353133e-07,0.339678946075509,0.342788848061077,0.342919466984536,0.04,0.0886851427813485,163.545032392897,0.433995084846184,0.2768899688533
1494,0.0142873770008177,0.070877126097025,0.229435343383647,-0.104722347642602,0.192491779817781,0.280929744269841,3.49802916606456e-07,0.339678946075509,0.342833194964582,0.342919466984536,0.04,0.0891234748241007,163.565983164784,0.434590779544852,0.276545857152407
1554,0.0142873770008177,0.070877126097025,0.229435343383647,-0.104722347642602,0.192491779817781,0.280929744269841,4.29052258099886e-07,0.339678946075509,0.342860992786871,0.342919466984536,0.04,0.0893540530126739,163.579163463899,0.434993510935293,0.276312085535279
1614,0.0142873770008177,0.070877126097025,0.229435343383647,-0.104722347642602,0.192491779817781,0.280929744269841,4.66486818738442e-07,0.339678946075509,0.342880675010052,0.342919466984536,0.04,0.0894804317031472,163.588500581784,0.43526326827041,0.276156601415257
1674,0.0142873770008177,0.070877126097025,0.229435343383647,-0.104722347642602,0.192491779817781,0.280929744269841,4.84169569204172e-07,0.339678946075509,0.342894368048327,0.342919466984536,0.04,0.0895539067863353,163.594991239068,0.435439267242186,0.276055935018947
1734,0.0142873770008177,0.070877126097025,0.229435343383647,-0.104722347642602,0.192491779817781,0.280929744269841,4.92522269454945e-07,0.339678946075509,0.342903400807469,0.342919466984536,0.04,0.0895984507988816,163.599269223738,0.435552193404546,0.275991578601115
1794,0.0142873770008177,0.070877126097025,0.229435343383647,-0.104722347642602,0.192491779817781,0.280929744269841,4.96467786958825e-07,0.339678946075509,0.342909112868354,0.342919466984536,0.04,0.0896258295472781,163.601973061912,0.435624681255374,0.275950214272908
1854,0.0287296775944759,0.0658251382107899,0.211467821700942,-0.103331144179792,0.169204497454634,0.279373598473599,4.98331508441271e-07,0.340367046216416,0.34218295886262,0.340989593178677,0.04,0.0897743372618277,163.242567042839,0.43042607547621,0.278669551465378
1914,0.0447766782540961,0.0602118183371953,0.191503908720158,-0.101785362554448,0.143329739273361,0.277644547588885,4.99211864133466e-07,0.341131601928535,0.340181319630113,0.338845288949944,0.04,0.0903478505864787,162.282774901487,0.422296909658757,0.282363917184794
1974,0.0608236789137163,0.0545984984636008,0.171539995739375,-0.100239580929104,0.117454981092087,0.275915496704171,4.99627712743965e-07,0.341896157640655,0.337911000658041,0.336700984721212,0.04,0.0900608268442422,161.199299290997,0.414654611172922,0.285648091409695
2034,0.0768706795733364,0.0489851785900062,0.151576082758591,-0.0986937993037598,0.0915802229108132,0.274186445819458,4.99824144786589e-07,0.342660713352774,0.335675542901123,0.33455668049248,0.04,0.0891854657076934,160.133298610029,0.407681943505282,0.288612309056306
2094,0.0929176802329566,0.0433718587164117,0.131612169777807,-0.0971480176784157,0.0657054647295394,0.272457394934744,4.99916932273178e-07,0.343425269064893,0.33349760972844,0.332412376263748,0.04,0.0880648714153992,159.094532626193,0.401014978468287,0.29150723424498
2154,0.108964680892577,0.0377585388428172,0.111648256797024,-0.0956022360530714,0.0398307065482657,0.27072834405003,4.99960761770404e-07,0.344189824777012,0.33134496372179,0.330268072035015,0.04,0.0868431068911932,158.067599756556,0.394435206825161,0.294456985901491
2214,0.125011681552197,0.0321452189692225,0.0916843438162404,-0.0940564544277273,0.0139559483669918,0.268999293165317,4.99981465260689e-07,0.344954380489132,0.329196564666725,0.328123767806283,0.04,0.0855409174955058,157.042584595184,0.387881914900379,0.297490142382513
2274,0.141058682211817,0.026531899095628,0.0717204308354569,-0.0925106728023832,-0.0119188098142819,0.267270242280603,4.99991244850625e-07,0.345718936201251,0.327042794268199,0.325979463577551,0.04,0.0841372313048044,156.014954464437,0.38137112058652,0.300589012759249
2334,0.157105682871437,0.0209185792220335,0.0517565178546733,-0.090964891177039,-0.0377935679955557,0.265541191395889,4.99995864379893e-07,0.34648349191337,0.324879246254381,0.323835159348819,0.04,0.0826025401646663,154.982642850624,0.374954677490377,0.303709909943595
2394,0.173152683531058,0.0153052593484389,0.0317926048738898,-0.0894191095516948,-0.0636683261768295,0.263812140511176,4.99998046480655e-07,0.34724804762549,0.322706207078935,0.321690855120086,0.04,0.0809128293078799,153.945823115495,0.368692469768806,0.306802093486854
2454,0.189199684190678,0.00969193947484439,0.0118286918931063,-0.0878733279263506,-0.0895430843581032,0.262083089626462,4.99999077227179e-07,0.348012603337609,0.320527553684294,0.319546550891354,0.04,0.0790579616535222,152.906362105121,0.362627214322692,0.30982741129276
2514,0.205246684850298,0.00407861960124984,-0.00813522108767728,-0.0863275463010065,-0.115417842539377,0.260354038741749,4.99999564115052e-07,0.348777159049728,0.318347799062147,0.317402246662622,0.04,0.0770420452010219,151.866407521094,0.356774404489892,0.312768283003963
2574,0.221293685509918,-0.00153470027234476,-0.0280991340684607,-0.0847817646756623,-0.141292600720651,0.258624987857035,0.01006379253826,0.349541714761848,0.315979131288549,0.315257942433889,0.04,0.0754594809631649,150.735232813384,0.351656008265926,0.314957105322779
2634,0.237340686169538,-0.00714802014593926,-0.0480630470492443,-0.0832359830503181,-0.167167358901924,0.256895936972321,0.025175398904286,0.350306270473967,0.313721862781165,0.313113638205157,0.04,0.073847495341677,149.675696174909,0.347639456431553,0.316356601122625
2694,0.253387686829158,-0.0127613400195338,-0.0680269600300279,-0.081690201424974,-0.193042117083198,0.255166886087607,0.0402870052703119,0.351070826186086,0.311598641430854,0.310969333976425,0.04,0.0723887259660609,148.646585065747,0.343706696379724,0.317776384217236
2754,0.254992386895121,-0.0133226720068933,-0.0700233513281062,-0.0815356232624396,-0.195629592901326,0.254993980999136,0.0417981659069145,0.351147281757298,0.30927149475058,0.308825029747693,0.04,0.0722926059854231,147.535251849748,0.340390480267482,0.3184733329929
2814,0.25499238689512,-0.0133226720068933,-0.0700233513281062,-0.0815356232624396,-0.195629592901326,0.254993980999136,0.0417981659069145,0.351147281757298,0.307024726425374,0.30668072551896,0.04,0.0721598755501194,146.463918133288,0.338052343207849,0.318347448695584
2874,0.25499238689512,-0.0133226720068933,-0.0700233513281062,-0.0815356232624396,-0.195629592901326,0.254993980999136,0.0417981659069145,0.351147281757298,0.304832037429924,0.304536421290228,0.04,0.0720960850963043,145.418046305888,0.33608845763453,0.317921123285295
2934,0.254992386895121,-0.0133226720068933,-0.0700233513281062,-0.0815356232624396,-0.195629592901326,0.254993980999136,0.0417981659069145,0.351147281757298,0.302663337716948,0.302392117061496,0.04,0.0721404079055901,144.383496235049,0.334312483672945,0.317336214151978
2994,0.254992386895121,-0.0133226720068933,-0.0700233513281062,-0.0815356232624396,-0.195629592901326,0.254993980999136,0.0417981659069145,0.351147281757298,0.300507514101491,0.300247812832764,0.04,0.0722758539115281,143.35502575432,0.332628031294221,0.316671335770346
3054,0.25499238689512,-0.0133226720068933,-0.0700233513281062,-0.0815356232624396,-0.195629592901326,0.254993980999136,0.0417981659069145,0.351147281757298,0.298358394252033,0.298103508604031,0.04,0.072477378305115,142.329717082628,0.330983918980515,0.315968194462972
3114,0.25499238689512,-0.0133226720068933,-0.0700233513281062,-0.0815356232624395,-0.195629592901326,0.254993980999136,0.0417981659069145,0.351147281757298,0.296212482421504,0.295959204375299,0.04,0.0727229954507811,141.305918861485,0.329354764379365,0.315247085027712
3174,0.25499238689512,-0.0133226720068933,-0.0700233513281062,-0.0815356232624396,-0.195629592901326,0.254993980999136,0.0417981659069145,0.351147281757298,0.294067910749237,0.293814900146567,0.04,0.0729964413343345,140.282749833965,0.327729314148857,0.314516661801773
3234,0.25499238689512,-0.0133226720068933,-0.0700233513281062,-0.0815356232624396,-0.195629592901326,0.254993980999136,0.0417981659069145,0.351147281757298,0.291923759225077,0.291670595917835,0.04,0.0732868427733739,139.25977631838,0.326103508779292,0.313779739295661
3294,0.254992386895121,-0.0133226720068933,-0.0700233513281062,-0.0815356232624396,-0.195629592901326,0.254993980999136,0.0417981659069145,0.351147281757298,0.28977962565142,0.289526291689102,0.04,0.0735874681189373,138.236809498691,0.324476597777943,0.313036513854051
3354,0.25499238689512,-0.0133226720068933,-0.0700233513281062,-0.0815356232624396,-0.195629592901326,0.254993980999136,0.0417981659069145,0.351147281757298,0.287635368788914,0.28738198746037,0.04,0.0738944277129737,137.213783377471,0.322849118210032,0.312286212856219
3414,0.25499238689512,-0.0133226720068933,-0.0700233513281062,-0.0815356232624395,-0.195629592901326,0.254993980999136,0.0417981659069145,0.351147281757298,0.28549096577219,0.285237683231638,0.04,0.0742056294693703,136.19068766203,0.321221935823129,0.311527861605632
3474,0.25499238689512,-0.0133226720068933,-0.0700233513281062,-0.0815356232624396,-0.195629592901326,0.254993980999136,0.0417981659069145,0.351147281757298,0.283346438612609,0.283093379002905,0.04,0.0745200422353107,135.167532940956,0.319595851909578,0.310760584458484
3534,0.254992386895121,-0.0133226720068933,-0.0700233513281062,-0.0815356232624396,-0.195629592901326,0.254993980999136,0.0417981659069145,0.351147281757298,0.281201819738769,0.280949074774173,0.04,0.0748372222238359,134.14433461289,0.317971483576255,0.309983686405219
3594,0.254992386895121,-0.0133226720068933,-0.0700233513281062,-0.0815356232624396,-0.195629592901326,0.254993980999136,0.0417981659069145,0.351147281757298,0.279057137813519,0.278804770545441,0.04,0.0751570255230106,133.12110649343,0.31634926520076,0.309196639415043
3654,0.233725599896884,-0.0264339177799827,-0.0836152327859699,-0.0714729881503052,-0.209379876843655,0.247454332698435,0.0379421072237976,0.315940758221558,0.279391387029023,0.278590340122568,0.04,0.0662357358281317,133.299366303095,0.314288530925705,0.311640740871423
3714,0.21009583656551,-0.0410019686389707,-0.0987173232947073,-0.060292282470156,-0.224657970112909,0.239076945697655,0.03365759757589,0.276822398737403,0.279643123922062,0.278590340122568,0.04,0.0567460404493617,133.417766833551,0.308248614695263,0.318029356053474
