time,bias_percent_1,bias_percent_2,bias_percent_3,bias_percent_4,bias_percent_5,bias_percent_6,bias_percent_8,bias_percent_9,normalized_power,power_SP,SP,CV,total_power_MW,fuel_fraction,thermal_efficiency
48,0,0,0,0,0,0,0,0,0.999791661352074,1,0.04,0.0399196615402469,477.0041948439,0.999944717561722,0.35051038035186
108,0.0115177986727336,0.0179094758954628,0.00786817213900326,0.01643142049808,-0.0104590369680155,0.024136196465594,0.028543084081594,0.0185789176386307,0.984825070964743,0.979323493597979,0.04,0.0475137257102044,469.669895689906,0.975520522723205,0.353761844883031
168,0.0259150470136508,0.0402963207647915,0.0177033873127574,0.0369706961206799,-0.0235328331780348,0.0543064420475868,0.0642219391835866,0.0418025646869193,0.959347457516121,0.953477860595453,0.04,0.0560269029574198,457.608802049019,0.938424347822611,0.358302450612498
228,0.0403122953545678,0.0626831656341202,0.0275386024865114,0.0575099717432798,-0.0366066293880542,0.0844766876295793,0.0999007942855793,0.0650262117352077,0.933362469846662,0.927632227592927,0.04,0.0622327350776209,445.09899164271,0.901813110574301,0.36265589545235
288,0.054709543695485,0.0850700105034488,0.0373738176602654,0.0780492473658797,-0.0496804255980736,0.114646933211572,0.135579649387572,0.0882498587834961,0.907210799168685,0.901786594590401,0.04,0.0665629135126799,432.623160835103,0.867398506028123,0.366476197411807
348,0.0691067920364021,0.107456855372777,0.0472090328340194,0.0985885229884796,-0.062754221808093,0.144817178793564,0.171258504489564,0.111473505831785,0.881307995978563,0.875940961587875,0.04,0.0698518154163468,420.266674081863,0.833892934530626,0.370313321309841
408,0.0835040403773191,0.129843700242106,0.0570442480077735,0.11912779861108,-0.0758280180181123,0.174987424375557,0.206937359591557,0.134697152880073,0.855491531394921,0.850095328585349,0.04,0.072546310788369,407.949739011329,0.800288711323986,0.374554177314307
468,0.0979012887182364,0.152230545111435,0.0668794631815276,0.139667074233679,-0.0889018142281317,0.20515766995755,0.24261621469355,0.157920799928361,0.829670570976883,0.824249695582823,0.04,0.0747086580005073,395.630448231337,0.766514757233133,0.379248493136149
528,0.112298537059153,0.174617389980763,0.0767146783552818,0.16020634985628,-0.101975610438151,0.235327915539542,0.278295069795542,0.18114444697665,0.802903558075936,0.798404062580297,0.04,0.0770354176271182,382.844196772445,0.735037944562281,0.382707510840863
588,0.12669578540007,0.197004234850092,0.0865498935290357,0.180745625478879,-0.11504940664817,0.265498161121535,0.313973924897535,0.204368094024938,0.775308761639074,0.772558429577771,0.04,0.0799467462727063,369.683614615628,0.713989995121968,0.380445763177271
648,0.141093033740988,0.21939107971942,0.0963851087027897,0.201284901101479,-0.12812320285819,0.295668406703528,0.349652779999527,0.227591741073227,0.748543367825934,0.746712796575245,0.04,0.0834987757047918,356.92025149212,0.700235145933543,0.37452599087074
708,0.155490282081905,0.241777924588749,0.106220323876544,0.221824176724079,-0.141196999068209,0.32583865228552,0.38533163510152,0.250815388121515,0.722409917374027,0.720867163572719,0.04,0.0879729726607291,344.45557422069,0.689322440372192,0.367168551869274
768,0.169887530422822,0.264164769458078,0.116055539050298,0.242363452346679,-0.154270795278228,0.356008897867513,0.421010490203512,0.274039035169804,0.696587623334754,0.695021530570193,0.04,0.0931982125504563,332.137254873886,0.67877529400814,0.359539194937538
828,0.184284778763739,0.286551614327406,0.125890754224052,0.262902727969279,-0.167344591488248,0.386179143449506,0.456689345305505,0.297262682218092,0.670873838422412,0.669175897567667,0.04,0.0988586878334222,319.869555098334,0.667587214676534,0.3520623405518
888,0.198682027104656,0.308938459196735,0.135725969397806,0.283442003591879,-0.180418387698267,0.416349389031498,0.492368200407498,0.320486329266381,0.645169448324064,0.643330264565141,0.04,0.104694392190952,307.605873978411,0.655541682019471,0.344785497094945
948,0.201561476772839,0.313415828170601,0.137693012432557,0.287549858716399,-0.183033146940271,0.422383438147897,0.499503971427896,0.325131058676038,0.632449735428028,0.638161137964635,0.04,0.100176213339629,301.722509580253,0.675865032709382,0.328021575110606
1008,0.201561476772839,0.313415828170601,0.137693012432557,0.287549858716399,-0.183033146940271,0.422383438147897,0.499503971427896,0.325131058676038,0.632712380695114,0.638161137964635,0.04,0.0929730948269629,301.880172820096,0.711065017790689,0.311946382018722
1068,0.201561476772839,0.313415828170601,0.137693012432557,0.287549858716399,-0.183033146940271,0.422383438147897,0.499503971427896,0.325131058676038,0.634433267737369,0.638161137964635,0.04,0.0898378195741962,302.70071867361,0.736909850193192,0.301823997364521
1128,0.201561476772839,0.313415828170601,0.137693012432557,0.287549858716399,-0.183033146940271,0.422383438147897,0.499503971427896,0.325131058676038,0.635769798810233,0.638161137964635,0.04,0.0890842478540698,303.334395985718,0.753744703331845,0.295700502134473
1188,0.201561476772839,0.313415828170601,0.137693012432557,0.287549858716399,-0.183033146940271,0.422383438147897,0.499503971427896,0.325131058676038,0.636649094153424,0.638161137964635,0.04,0.0892264217372924,303.750776790408,0.764422092331942,0.29197041257152
1248,0.201561476772839,0.313415828170601,0.137693012432557,0.287549858716399,-0.183033146940271,0.422383438147897,0.499503971427896,0.325131058676038,0.637201447439825,0.638161137964635,0.04,0.0895901092906011,304.012222554578,0.771181506747591,0.289660392097893
1308,0.201561476772839,0.313415828170601,0.137693012432557,0.287549858716399,-0.183033146940271,0.422383438147897,0.499503971427896,0.325131058676038,0.637543901509986,0.638161137964635,0.04,0.0899328457536191,304.174314733585,0.775505653177056,0.288198852028941
1368,0.201561476772839,0.3134158281706,0.137693012432557,0.287549858716399,-0.183033146940271,0.422383438147897,0.499503971427896,0.325131058676038,0.637757992676693,0.638161137964635,0.04,0.0901935805089792,304.275676224241,0.778314304241313,0.287254539343321
1428,0.201561476772839,0.313415828170601,0.137693012432557,0.287549858716399,-0.183033146940271,0.422383438147897,0.499503971427896,0.325131058676038,0.637894472394885,0.638161137964635,0.04,0.0903754562190917,304.340315687066,0.780164229372329,0.286634280328006
1488,0.201561476772839,0.313415828170601,0.137693012432557,0.287549858716399,-0.183033146940271,0.422383438147897,0.499503971427896,0.325131058676038,0.637983265128974,0.638161137964635,0.04,0.0904976043284133,304.382382472692,0.781394871895205,0.286222408300998
1548,0.201561476772839,0.313415828170601,0.137693012432557,0.287549858716399,-0.183033146940271,0.422383438147897,0.499503971427896,0.325131058676038,0.638041918752454,0.638161137964635,0.04,0.0905784595795112,304.41017600236,0.78221847086912,0.285947152110164
1608,0.201561476772839,0.313415828170601,0.137693012432557,0.287549858716399,-0.183033146940271,0.422383438147897,0.499503971427896,0.325131058676038,0.638081012947023,0.638161137964635,0.04,0.0906318023546711,304.428702974696,0.782771513690685,0.285762516042499
1668,0.201561476772839,0.313415828170601,0.137693012432557,0.287549858716399,-0.183033146940271,0.422383438147897,0.499503971427896,0.325131058676038,0.638107181036703,0.638161137964635,0.04,0.0906670235653059,304.441104744797,0.78314367739291,0.285638352467267
1728,0.201561476772839,0.313415828170601,0.137693012432557,0.287549858716399,-0.183033146940271,0.422383438147897,0.499503971427896,0.325131058676038,0.638124723105786,0.638161137964635,0.04,0.0906903091618758,304.449418476183,0.783394632364889,0.285554647989647
1788,0.201561476772839,0.313415828170601,0.137693012432557,0.287549858716399,-0.183033146940271,0.422383438147897,0.499503971427896,0.325131058676038,0.638136485384604,0.638161137964635,0.04,0.0907057023798409,304.454993001007,0.783564316330182,0.28549803742214
1848,0.215284956969002,0.303431224729573,0.14982362273163,0.261569037244586,-0.176077263623238,0.381999392553951,0.496444890158869,0.313816309183936,0.640087897944027,0.63994922298338,0.04,0.088727710004526,305.406743587113,0.783595137811956,0.28637926233268
1908,0.232439307214205,0.290950470428288,0.164986885605471,0.22909301040482,-0.167382409476946,0.331519335561519,0.492621038572585,0.299672872318809,0.642666247923917,0.64218432925681,0.04,0.0865917680699242,306.636070712539,0.781460378966457,0.288317466977235
1968,0.249593657459408,0.278469716127004,0.180150148479312,0.196616983565054,-0.158687555330654,0.281039278569087,0.488797186986301,0.285529435453681,0.645125321721184,0.644419435530241,0.04,0.0845869958507878,307.808430719984,0.777741314049276,0.290803760003765
2028,0.266748007704611,0.265988961825719,0.195313411353153,0.164140956725288,-0.149992701184363,0.230559221576656,0.484973335400017,0.271385998588554,0.647495514804929,0.646654541803671,0.04,0.0825689020846964,308.938704934283,0.773049824862047,0.293642904964196
2088,0.283902357949814,0.253508207524434,0.210476674226995,0.131664929885522,-0.141297847038071,0.180079164584224,0.481149483813733,0.257242561723426,0.649813248818924,0.648889648077102,0.04,0.0804870403870182,310.044191748302,0.767770287664606,0.296720105686093
2148,0.301056708195017,0.24102745322315,0.225639937100836,0.0991889030457558,-0.132602992891779,0.129599107591792,0.477325632227448,0.243099124858299,0.652102305319663,0.651124754350532,0.04,0.0783333012302529,311.136135918228,0.762116984831569,0.299973913833769
2208,0.318211058440221,0.228546698921865,0.240803199974677,0.0667128762059898,-0.123908138745488,0.0791190505993596,0.473501780641164,0.228955687993171,0.654375580017603,0.653359860623963,0.04,0.0761127928562281,312.220622440957,0.756206839753677,0.303372115700396
2268,0.335365408685424,0.21606594462058,0.255966462848518,0.0342368493662236,-0.115213284599196,0.0286389936069278,0.46967792905488,0.214812251128044,0.656639710806652,0.655594966897393,0.04,0.0738321292632872,313.300783354573,0.75010612706296,0.306897566051025
2328,0.352519758930627,0.203585190319296,0.271129725722359,0.00176082252645767,-0.106518430452904,-0.0218410633855041,0.465854077468596,0.200668814262916,0.658895181352814,0.657830073170824,0.04,0.071496362340219,314.377285512963,0.743853118503366,0.310540786021024
2388,0.36967410917583,0.191104436018011,0.286292988596201,-0.0307152043133083,-0.0978235763066127,-0.0723211203779359,0.462030225882312,0.186525377397789,0.661151866292858,0.660065179444254,0.04,0.0691073508949783,315.453487395102,0.737477355232741,0.314297784538861
2448,0.386828459421033,0.178623681716727,0.301456251470042,-0.0631912311530743,-0.089128722160321,-0.122801177370368,0.458206374296028,0.172381940532661,0.663404576548549,0.662300285717685,0.04,0.0666709006769758,316.527901496298,0.730986724653273,0.318168503241816
2508,0.403982809666236,0.166142927415442,0.316619514343883,-0.0956672579928405,-0.0804338680140295,-0.1732812343628,0.454382522709743,0.158238503667534,0.66565465901876,0.664535391991115,0.04,0.0641757715035511,317.601657775097,0.724409697383122,0.322146325123941
2568,0.421137159911439,0.153662173114157,0.331782777217724,-0.128143284832606,-0.0717390138677377,-0.223761291355232,0.450558671123459,0.144095066802406,0.667903985105783,0.666770498264545,0.04,0.0616315942592942,318.674914761478,0.71774019818117,0.326238554626306
2628,0.438291510156643,0.141181418812872,0.346946040091565,-0.160619311672373,-0.063044159721446,-0.274241348347664,0.446734819537175,0.129951629937279,0.670146960860595,0.669005604537976,0.04,0.0590355541834313,319.745027550435,0.710972758675694,0.330449816341573
2688,0.455445860401846,0.128700664511588,0.362109302965407,-0.193095338512139,-0.0543493055751543,-0.324721405340095,0.442910967950891,0.115808193072151,0.672397665210608,0.671240710811406,0.04,0.056378924790791,320.81888576789,0.704151911697158,0.334771316157706
2748,0.458876730450886,0.126204513651331,0.365141955540175,-0.199590543880092,-0.052610334745896,-0.334817416738582,0.442146197633634,0.112979505699126,0.673537837535954,0.673475817084837,0.04,0.0553523654094552,321.35624711805,0.701143055912935,0.336771077208462
2808,0.458876730450886,0.126204513651331,0.365141955540175,-0.199590543880092,-0.0526103347458961,-0.334817416738582,0.442146197633634,0.112979505699126,0.675409844262924,0.675710923358268,0.04,0.0544185553024333,322.255522694421,0.702651510431075,0.336988484870968
2868,0.458876730450886,0.126204513651331,0.365141955540175,-0.199590543880092,-0.052610334745896,-0.334817416738582,0.442146197633634,0.112979505699126,0.677650612568424,0.677946029631698,0.04,0.0538547843552508,323.325168480768,0.704594344266274,0.33717474368063
2928,0.458876730450886,0.126204513651331,0.365141955540175,-0.199590543880092,-0.052610334745896,-0.334817416738582,0.442146197633634,0.112979505699126,0.679911319681448,0.680181135905128,0.04,0.05357002976929,324.40354984599,0.70636400679775,0.337451771829681
2988,0.458876730450886,0.126204513651331,0.365141955540175,-0.199590543880092,-0.0526103347458961,-0.334817416738582,0.442146197633634,0.112979505699126,0.682145803061022,0.682416242178559,0.04,0.0533987252890488,325.469461473433,0.708086944919088,0.337736761187913
