time,bias_percent_1,bias_percent_2,bias_percent_3,bias_percent_4,bias_percent_5,bias_percent_6,bias_percent_8,bias_percent_9,normalized_power,power_SP,SP,CV,total_power_MW,fuel_fraction,thermal_efficiency
57,0,0,0,0,0,0,0,0,0.99984915100619,1,0.04,0.0399035329803236,477.030556706071,1.00005017777369,0.35049278638655
117,-0.0273617218724894,0.0234856378677017,0.025787739953239,-0.0125510130435955,0.0174355715086662,0.00646046592896039,0.0173986811801722,0.0167205718529235,0.968100245334312,0.954646076344209,0.04,0.053442373663191,461.527965560303,0.932154617165749,0.363801715600263
177,-0.0561635343698465,0.0482073619389669,0.0529327293777012,-0.0257626057210645,0.0357888046756832,0.0132609563804978,0.0357130824224587,0.0343211738033692,0.921150012527574,0.906905104074956,0.04,0.0663612263514279,439.095921423922,0.844178014346067,0.382190635916762
237,-0.0849653468672037,0.0729290860102318,0.0800777188021634,-0.0389741983985335,0.0541420378427001,0.0200614468320349,0.0540274836647453,0.051921775753815,0.872537523831509,0.859164131805703,0.04,0.0746827405817629,415.901558039814,0.759725531594994,0.402243006326438
297,-0.113767159364561,0.0976508100814968,0.107222708226626,-0.0521857910760025,0.0724952710097172,0.0268619372835723,0.0723418849070318,0.0695223777042607,0.824024592089568,0.811423159536449,0.04,0.079654401121516,392.75648789161,0.680172179179293,0.424286467148099
357,-0.142568971861918,0.122372534152762,0.134367697651088,-0.0653973837534716,0.0908485041767341,0.0336624277351095,0.0906562861493183,0.0871229796547065,0.775529595252343,0.763682187267196,0.04,0.0821828372727098,369.619603046089,0.605159748419649,0.448786349671026
417,-0.171370784359275,0.147094258224027,0.16151268707555,-0.0786089764309405,0.109201737343751,0.0404629181866468,0.108970687391605,0.104723581605152,0.726564270185062,0.715941214997943,0.04,0.0826959560849642,346.536607136265,0.536607406944239,0.474511926114271
477,-0.200172596856633,0.171815982295292,0.188657676500012,-0.0918205691084095,0.127554970510768,0.0472634086381839,0.127285088633891,0.122324183555598,0.675813735921445,0.668200242728689,0.04,0.0839843308622214,322.38009840125,0.483021452767577,0.490406796042831
537,-0.22897440935399,0.196537706366557,0.215802665924474,-0.105032161785878,0.145908203677785,0.0540638990897212,0.145599489876178,0.139924785506044,0.626407454318619,0.620459270459436,0.04,0.0860080065795454,298.711481953097,0.443356636997226,0.495054917188917
597,-0.257776221851347,0.221259430437822,0.242947655348936,-0.118243754463347,0.164261436844802,0.0608643895412586,0.163913891118464,0.15752538745649,0.577668303302246,0.572718298190183,0.04,0.0902030493593528,275.580504490622,0.410814918050789,0.492897892510063
657,-0.286578034348704,0.245981154509087,0.270092644773399,-0.131455347140816,0.182614670011819,0.0676648799927959,0.182228292360751,0.175125989406935,0.530149912137631,0.524977325920929,0.04,0.0973784195346779,252.879695675498,0.379399538709824,0.489747060435589
717,-0.315379846846061,0.270702878580352,0.297237634197861,-0.144666939818285,0.200967903178836,0.0744653704443332,0.200542693603037,0.192726591357381,0.48275128163782,0.477236353651676,0.04,0.108364378185053,230.289977559823,0.345919845293605,0.489163716209878
777,-0.334064425666342,0.295424602651617,0.324382623622323,-0.157878532495754,0.219321136345853,0.0812658608958704,0.218857094845324,0.210327193307827,0.435406623669168,0.429495381382423,0.04,0.122881937670945,207.687007477684,0.310951545324556,0.490762404398418
837,-0.298998141295136,0.320146326722882,0.351527613046785,-0.171090125173223,0.23767436951287,0.0880663513474077,0.23717149608761,0.227927795258273,0.388740933216792,0.38175440911317,0.04,0.136858208722584,185.423062018643,0.267540477615926,0.509247524866421
897,-0.261664756070378,0.344868050794147,0.378672602471247,-0.184301717850692,0.256027602679887,0.094866841798945,0.255485897329897,0.245528397208718,0.34091629208689,0.334013436843916,0.04,0.1544658465306,162.598667277375,0.225951618078803,0.528757088024162
957,-0.245978929611419,0.34610413699771,0.38002985194247,-0.184962297484566,0.256945264338238,0.0952068663215219,0.256401617392011,0.246408427306241,0.320562851774744,0.331626388230454,0.04,0.130584102728522,152.91295219287,0.275039305562693,0.4085114056086
1017,-0.270863691651623,0.34610413699771,0.38002985194247,-0.184962297484566,0.256945264338238,0.0952068663215219,0.256401617392011,0.246408427306241,0.321470125673823,0.331626388230454,0.04,0.0985515400162975,153.389929477716,0.341555389086308,0.329982099960439
1077,-0.308756399981232,0.34610413699771,0.38002985194247,-0.184962297484566,0.256945264338238,0.0952068663215218,0.256401617392011,0.246408427306241,0.326561170267125,0.331626388230454,0.04,0.0862868710456762,155.833614188546,0.381597204137893,0.300061748345173
1137,-0.339889941867789,0.34610413699771,0.38002985194247,-0.184962297484566,0.256945264338238,0.0952068663215219,0.256401617392011,0.246408427306241,0.32921117502434,0.331626388230454,0.04,0.0861705779061457,157.080265518029,0.400444820904106,0.288226310057514
1197,-0.360943614154036,0.34610413699771,0.38002985194247,-0.184962297484566,0.256945264338238,0.0952068663215219,0.256401617392011,0.246408427306241,0.330407494320952,0.331626388230454,0.04,0.0881149655909179,157.643627742334,0.409747431494521,0.28269287120913
1257,-0.374133911527939,0.34610413699771,0.38002985194247,-0.184962297484566,0.256945264338238,0.0952068663215218,0.256401617392011,0.246408427306241,0.330949216876418,0.331626388230454,0.04,0.0897485519959755,157.898689278729,0.414708026011671,0.27976331195587
1317,-0.382199216009687,0.34610413699771,0.38002985194247,-0.184962297484566,0.256945264338238,0.0952068663215219,0.256401617392011,0.246408427306241,0.331205543683769,0.331626388230454,0.04,0.0907515366861642,158.019618259569,0.417673376501173,0.277989819410111
1377,-0.387158981890227,0.34610413699771,0.38002985194247,-0.184962297484566,0.256945264338238,0.0952068663215219,0.256401617392011,0.246408427306241,0.331350365239993,0.331626388230454,0.04,0.0913041231213749,158.088172365981,0.419592775835096,0.276838222854725
1437,-0.390255195590512,0.34610413699771,0.38002985194247,-0.184962297484566,0.256945264338238,0.0952068663215218,0.256401617392011,0.246408427306241,0.331446034658855,0.331626388230454,0.04,0.0916106240998177,158.133526917074,0.420852910984948,0.276088487843905
1497,-0.392208088485653,0.34610413699771,0.38002985194247,-0.184962297484566,0.256945264338238,0.0952068663215219,0.256401617392011,0.246408427306241,0.331511080437822,0.331626388230454,0.04,0.0917922788157194,158.164353763089,0.421665104691145,0.275610415273379
1557,-0.393443317924733,0.34610413699771,0.38002985194247,-0.184962297484566,0.256945264338238,0.0952068663215219,0.256401617392011,0.246408427306241,0.331553719985525,0.331626388230454,0.04,0.0919060827157162,158.184547093133,0.422179074152089,0.275310026694611
1617,-0.394223864671846,0.34610413699771,0.38002985194247,-0.184962297484566,0.256945264338238,0.0952068663215219,0.256401617392011,0.246408427306241,0.33158065451579,0.331626388230454,0.04,0.0919784867161159,158.197297004987,0.422502361731384,0.275121540200237
1677,-0.394716746473003,0.34610413699771,0.38002985194247,-0.184962297484566,0.256945264338238,0.0952068663215218,0.256401617392011,0.246408427306241,0.331597392586698,0.331626388230454,0.04,0.0920240665744372,158.205219473424,0.422706669463123,0.275002336445861
1737,-0.395028436515341,0.34610413699771,0.38002985194247,-0.184962297484566,0.256945264338238,0.0952068663215219,0.256401617392011,0.246408427306241,0.331607802816393,0.331626388230454,0.04,0.0920522708090183,158.210147312382,0.422837078902839,0.274926084747956
1797,-0.39522632423698,0.34610413699771,0.38002985194247,-0.184962297484566,0.256945264338238,0.0952068663215219,0.256401617392011,0.246408427306241,0.331614322237342,0.331626388230454,0.04,0.0920694444178105,158.213233725612,0.422921330948195,0.274876677771859
1857,-0.391310858626816,0.324679562678179,0.340833392922843,-0.165641047775371,0.23681784236786,0.107072199105544,0.240071546006422,0.206284838120896,0.340120783165675,0.343184919042946,0.04,0.0765494829000322,162.375108980273,0.441693527768881,0.270117733101741
1917,-0.378769262483463,0.302127379183937,0.299573962375866,-0.145302890186744,0.215631082399042,0.119562023088725,0.222881997179486,0.164049481083692,0.353105378556093,0.355351793582413,0.04,0.0654556462490729,168.569440709383,0.457018859493982,0.271018788753689
1977,-0.36622766634011,0.279575195689694,0.25831453182889,-0.124964732598118,0.194444322430224,0.132051847071905,0.20569244835255,0.121814124046487,0.365830922458512,0.367518668121879,0.04,0.0575733303384029,174.637513338341,0.468188056404084,0.274076553594264
2037,-0.353686070196757,0.257023012195451,0.217055101281913,-0.104626575009491,0.173257562461406,0.144541671055086,0.188502899525615,0.0795787670092823,0.378581162202812,0.379685542661345,0.04,0.0508095341027319,180.621939814521,0.476128292012684,0.278741215781863
