time,bias_percent_1,bias_percent_2,bias_percent_3,bias_percent_4,bias_percent_5,bias_percent_6,bias_percent_8,bias_percent_9,normalized_power,power_SP,SP,CV,total_power_MW,fuel_fraction,thermal_efficiency
15,0,0,0,0,0,0,0,0,0.999470485079707,1,0.04,0.0402002798448959,476.783786971899,0.998904838424164,0.350713140531217
75,0.00778568227051562,0.00686413825434249,-0.00182437572208153,0.00841717528958748,0.00828350836131608,-0.00101374668948336,-0.00685616896098742,-0.00668222872126131,0.995928309042568,0.988844246476788,0.04,0.0425971559847265,474.934172121572,0.986479449061586,0.353752935858864
135,0.0389284113525783,0.0343206912717127,-0.00912187861040729,0.0420858764479376,0.0414175418065802,-0.00506873344741621,-0.034280844804937,-0.0334111436063068,0.958388527201727,0.944221232383941,0.04,0.0572584074251782,456.902555489386,0.905893544014353,0.370596316838144
195,0.0700711404346409,0.0617772442890828,-0.0164193814987333,0.0757545776062876,0.0745515752518443,-0.00912372020534929,-0.0617055206488866,-0.0601400584913521,0.913932978814672,0.899598218291094,0.04,0.0683947446550544,435.679959320693,0.817406804457641,0.391637266863815
255,0.101213869516704,0.0892337973064529,-0.0237168843870591,0.109423278764638,0.107685608697108,-0.0131787069632821,-0.0891301964928363,-0.0868689733763975,0.868760265911701,0.854975204198247,0.04,0.0753548880944099,414.125006052417,0.731142745928083,0.416182635475191
315,0.132356598598766,0.116690350323823,-0.0310143872753849,0.143091979922988,0.140819642142373,-0.0172336937212151,-0.116554872336786,-0.113597888261443,0.823364951205859,0.8103521901054,0.04,0.0786898124019203,392.46614816134,0.649207877344255,0.44419441983825
375,0.163499327680829,0.144146903341193,-0.0383118901637108,0.176760681081338,0.173953675587637,-0.0212886804791481,-0.143979548180736,-0.140326803146488,0.77787725532149,0.765729176012553,0.04,0.0789235477998871,370.762942867922,0.572250951153897,0.476063048945628
435,0.194642056762891,0.171603456358563,-0.0456093930520367,0.210429382239688,0.207087709032901,-0.0253436672370812,-0.0853030862087062,-0.0853030862087062,0.726851314474675,0.721106161919706,0.04,0.08133040008353,346.747814485056,0.520899090862476,0.489119310619414
495,0.225784785844954,0.199060009375933,-0.0529068959403626,0.244098083398038,0.240221742478165,-0.0293986539950141,-0.0402939753264303,-0.0402939753264303,0.680902845296793,0.676483147826859,0.04,0.0836064009328654,324.684794993178,0.491013491101519,0.485873488248751
555,0.256927514927017,0.226516562393304,-0.0602043988286884,0.277766784556388,0.273355775923429,-0.033453640752947,-0.0190332348200064,-0.0190332348200064,0.635982514792218,0.631860133734012,0.04,0.0882596279763535,303.355200606569,0.464374192320568,0.479996471958479
615,0.288070244009079,0.253973115410674,-0.0675019017170143,0.311435485714738,0.306489809368693,-0.03750862751088,-0.00899038924219188,-0.00899038924219188,0.591353882043449,0.587237119641164,0.04,0.0947986431183536,282.114300780662,0.437304845558097,0.474018714778307
675,0.319212973091142,0.281429668428044,-0.0747994046053402,0.345104186873088,0.339623842813958,-0.041563614268813,-0.00424649084162351,-0.00424649084162351,0.547314692639952,0.542614105548317,0.04,0.102648635391529,260.932190581059,0.40881283048777,0.468983775979687
735,0.350355702173204,0.308886221445414,-0.0820969074936661,0.378772888031438,0.372757876259222,-0.045618601026746,-0.00200563467771939,-0.00200563467771939,0.502711963683425,0.49799109145547,0.04,0.111676694413461,239.773536510384,0.379483161744028,0.464262295971088
795,0.381498431255267,0.336342774462784,-0.0893944103819919,0.412441589189788,0.405891909704486,-0.0496735877846789,-0.000947129930538241,-0.000947129930538241,0.458282310369024,0.453368077362623,0.04,0.121291187760142,218.466604839865,0.349250780671838,0.459623631871376
855,0.41264116033733,0.363799327480154,-0.0966919132703177,0.446110290348138,0.43902594314975,-0.0537285745426119,-0.000447128344819173,-0.000447128344819173,0.413837007633714,0.408745063269776,0.04,0.131182384771423,197.266408176861,0.319076212434877,0.454269297303806
915,0.435998207148877,0.384391742243182,-0.102165040436562,0.471361816216901,0.463876468233698,-0.0567698146110617,-0.000210944520530018,-0.000210944520530018,0.371452736826841,0.375277802700141,0.04,0.138015641294777,177.059916311893,0.304927560500546,0.426656387221684
975,0.435998207148877,0.384391742243182,-0.102165040436562,0.471361816216901,0.463876468233698,-0.0567698146110617,-9.93789062388781e-05,-9.93789062388781e-05,0.363713034296632,0.375277802700141,0.04,0.114106326138954,173.52246537225,0.367587245411372,0.346856591409112
1035,0.435998207148877,0.384391742243182,-0.102165040436562,0.471361816216901,0.463876468233698,-0.0567698146110617,-4.66792307879546e-05,-4.66792307879546e-05,0.365862263605774,0.375277802700141,0.04,0.0968230595871275,174.583640902248,0.430723150408062,0.297824216471027
1095,0.435998207148877,0.384391742243182,-0.102165040436562,0.471361816216901,0.463876468233698,-0.0567698146110617,-2.17857848725284e-05,-2.17857848725284e-05,0.36977234368146,0.375277802700141,0.04,0.0915369007481555,176.446209372765,0.471549073773841,0.274941382997914
1155,0.435998207148877,0.384391742243182,-0.102165040436562,0.471361816216901,0.463876468233698,-0.0567698146110616,-1.00270094295691e-05,-1.00270094295691e-05,0.372547047114802,0.375277802700141,0.04,0.091993674362751,177.758147502911,0.492861245437237,0.265008327841052
1215,0.435998207148877,0.384391742243182,-0.102165040436562,0.471361816216901,0.463876468233698,-0.0567698146110616,-4.47258356230662e-06,-4.47258356230662e-06,0.373954071424803,0.375277802700141,0.04,0.093735425223803,178.420639829951,0.503131728112732,0.260566190377266
1275,0.435998207148877,0.384391742243182,-0.102165040436562,0.471361816216901,0.463876468233698,-0.0567698146110617,-1.84887101123592e-06,-1.84887101123592e-06,0.374559189144309,0.375277802700141,0.04,0.0951434247742863,178.705212661449,0.508424942421247,0.258264699162822
1335,0.435998207148877,0.384391742243182,-0.102165040436562,0.471361816216901,0.463876468233698,-0.0567698146110616,-6.09522838237673e-07,-6.09522838237673e-07,0.374828668469347,0.375277802700141,0.04,0.0959962803634784,178.832260335624,0.51157746278454,0.256855658977608
1395,0.435998207148877,0.384391742243182,-0.102165040436562,0.471361816216901,0.463876468233698,-0.0567698146110617,-2.40989916782353e-08,-2.40989916782353e-08,0.374978568027346,0.375277802700141,0.04,0.0964652180232812,178.90322684872,0.513645981597148,0.2559227862917
1455,0.435998207148877,0.384391742243182,-0.102165040436562,0.471361816216901,0.463876468233698,-0.0567698146110617,2.5243434059056e-07,2.5243434059056e-07,0.37507944124843,0.375277802700141,0.04,0.0967259888303073,178.951068292309,0.515025112123125,0.255305732485973
1515,0.435998207148877,0.384391742243182,-0.102165040436562,0.471361816216901,0.463876468233698,-0.0567698146110617,3.83058817719576e-07,3.83058817719576e-07,0.375149772850448,0.375277802700141,0.04,0.0968808772604046,178.984413408669,0.515924248865006,0.254908283461487
1575,0.435998207148877,0.384391742243182,-0.102165040436562,0.471361816216901,0.463876468233698,-0.0567698146110616,4.44761158935512e-07,4.44761158935512e-07,0.375196824265204,0.375277802700141,0.04,0.09697833929215,179.006702114763,0.516496519822825,0.254657556869832
1635,0.435998207148877,0.384391742243182,-0.102165040436562,0.471361816216901,0.463876468233698,-0.0567698146110617,4.73907142867508e-07,4.73907142867508e-07,0.375226876936524,0.375277802700141,0.04,0.0970409205789484,179.020929402917,0.516856701614195,0.25450031957026
1695,0.435998207148877,0.384391742243182,-0.102165040436562,0.471361816216901,0.463876468233698,-0.0567698146110617,4.87674665503177e-07,4.87674665503177e-07,0.37524557203962,0.375277802700141,0.04,0.0970807971488827,179.029777706928,0.517083935003297,0.254401052411631
1755,0.435998207148877,0.384391742243182,-0.102165040436562,0.471361816216901,0.463876468233698,-0.0567698146110617,4.94177951855284e-07,4.94177951855284e-07,0.375257136693784,0.375277802700141,0.04,0.0971057642521822,179.035251406698,0.517228884969069,0.254337534142983
1815,0.434381002810552,0.374136525685852,-0.0975536264544052,0.466329956252368,0.46085673921796,-0.0523586239089774,4.97249872236074e-07,4.97249872236074e-07,0.375334178910841,0.375667479960309,0.04,0.0968152689662082,179.079105704162,0.517918435423418,0.2540611286544
1875,0.427912185457255,0.333115659456531,-0.0791079705257777,0.446202516394236,0.448777823155008,-0.0347138611006407,4.98700937792007e-07,4.98700937792007e-07,0.376825558495064,0.377226189000984,0.04,0.0948851209616698,179.798532123567,0.520774032307011,0.253683077452442
1935,0.421443368103957,0.292094793227211,-0.0606623145971501,0.426075076536104,0.436698907092055,-0.017069098292304,4.99386369374408e-07,4.99386369374408e-07,0.378784003889474,0.378784898041659,0.04,0.0935369730107322,180.733262843862,0.521694687771412,0.254551904653941
1995,0.414974550750659,0.25107392699789,-0.0422166586685225,0.405947636677972,0.424619991029103,0.000575664516032816,4.99710142731836e-07,4.99710142731836e-07,0.380633763515681,0.380343607082334,0.04,0.0926211775491033,181.614358991305,0.520531586291765,0.256364431689694
2055,0.408505733397362,0.21005306076857,-0.023771002739895,0.38582019681984,0.412541074966151,0.0182204273243695,4.99863081771064e-07,4.99863081771064e-07,0.382322672244849,0.381902316123009,0.04,0.0917737954553862,182.419113678179,0.518289575034519,0.258614305192998
2115,0.402036916044064,0.16903219453925,-0.00532534681126737,0.365692756961708,0.400462158903198,0.0358651901327063,4.99935324715045e-07,4.99935324715045e-07,0.383921978827445,0.383461025163684,0.04,0.0908255050278451,183.181711261487,0.515658008224294,0.261020742860973
2175,0.395568098690766,0.12801132830993,0.0131203091173602,0.345565317103576,0.388383242840246,0.0535099529410431,4.99969449703545e-07,4.99969449703545e-07,0.385488348988616,0.385019734204358,0.04,0.0897462814993391,183.92889169666,0.512931615470017,0.26347848754593
2235,0.389099281337469,0.0869904620806092,0.0315659650459878,0.325437877245444,0.376304326777294,0.0711547157493798,4.99985569130246e-07,4.99985569130246e-07,0.387044652974393,0.386578443245033,0.04,0.0885500706102425,184.671358910974,0.510204562004418,0.265956055852914
2295,0.382630463984171,0.0459695958512887,0.0500116209746153,0.305310437387312,0.364225410714341,0.0887994785577166,4.99993183372143e-07,4.99993183372143e-07,0.388596483816123,0.388137152285708,0.04,0.0872479700505727,185.411706645628,0.507510482996045,0.268439740541258
2355,0.376161646630873,0.00494872962196837,0.0684572769032429,0.28518299752918,0.352146494651389,0.106444241366053,4.99996780068275e-07,4.99996780068275e-07,0.390144582644247,0.389695861326383,0.04,0.0858384448595539,186.150275976286,0.504872540135249,0.270917220020799
2415,0.369692829277576,-0.0360721366073521,0.0869029328318705,0.265055557671048,0.340067578588436,0.12408900417439,4.99998479019167e-07,4.99998479019167e-07,0.391689332247138,0.391254570367058,0.04,0.084309661300436,186.887251744411,0.50231175867539,0.273376393080108
2475,0.363224011924278,-0.0770930028366725,0.105348588760498,0.244928117812916,0.327988662525484,0.141733766982727,4.99999281542936e-07,0.00622360257402979,0.393127134222451,0.392813279407732,0.04,0.0829502307212793,187.561806486685,0.499970853002679,0.275647714800534
2535,0.35675519457098,-0.118113869065993,0.123794244689126,0.224800677954784,0.315909746462532,0.159378529791064,4.99999660626447e-07,0.0400394613264445,0.394074316349337,0.394371988448407,0.04,0.0819259164690996,188.024253176987,0.501193739750463,0.275653119033817
2595,0.350286377217683,-0.159134735295313,0.142239900617753,0.204673238096652,0.303830830399579,0.1770232925994,4.99999839692046e-07,0.0738553200788592,0.395661138561305,0.395930697489082,0.04,0.0808340650536271,188.783114058955,0.503055643468886,0.275741285878153
2655,0.343817559864385,-0.200155601524634,0.160685556546381,0.18454579823852,0.291751914336627,0.194668055407737,4.99999924276243e-07,0.107671178831274,0.397304899844117,0.397489406529757,0.04,0.0800059372443216,189.567011897861,0.504392021150543,0.27615266121682
2715,0.338965946849412,-0.230921251196624,0.174519798492852,0.169450218344921,0.282692727289413,0.20790162751399,4.99999964230799e-07,0.133033072895585,0.399121752472283,0.399048115570432,0.04,0.0792290278627479,190.442590979733,0.505111586982096,0.27703294997602
2775,0.338965946849412,-0.230921251196624,0.174519798492851,0.169450218344921,0.282692727289413,0.20790162751399,4.99999983103906e-07,0.133033072895585,0.40098053723614,0.400606824611106,0.04,0.0801407578114459,191.319495369147,0.50306003156811,0.279443549600869
2835,0.338965946849412,-0.230921251196624,0.174519798492851,0.169450218344921,0.282692727289413,0.20790162751399,4.99999992018888e-07,0.133033072895585,0.402354638983018,0.402165533651781,0.04,0.0805285487602096,191.974089405134,0.501566231826612,0.28123476343376
2895,0.338965946849412,-0.230921251196624,0.174519798492852,0.169450218344921,0.282692727289413,0.20790162751399,4.99999996230007e-07,0.133033072895585,0.403746845328024,0.403724242692456,0.04,0.0804081059414673,192.629136751184,0.50124065514113,0.282377679970522
2955,0.338965946849412,-0.230921251196624,0.174519798492851,0.169450218344921,0.282692727289413,0.20790162751399,4.99999998219189e-07,0.133033072895585,0.405176407962894,0.405282951733131,0.04,0.080074182871747,193.321481694416,0.501783560356408,0.283085980970572
3015,0.338965946849412,-0.230921251196624,0.174519798492851,0.169450218344921,0.282692727289413,0.20790162751399,4.99999999158808e-07,0.133033072895585,0.406682100939096,0.406841660773806,0.04,0.0797382023970548,194.040133379256,0.5027281373223,0.283604454368088
3075,0.338965946849412,-0.230921251196624,0.174519798492852,0.169450218344921,0.282692727289413,0.20790162751399,4.99999999602651e-07,0.133033072895585,0.40821422224663,0.40840036981448,0.04,0.0794464763363776,194.771253348075,0.503877543671209,0.2840236679139
3135,0.338965946849412,-0.230921251196624,0.174519798492851,0.169450218344921,0.282692727289413,0.20790162751399,4.99999999812306e-07,0.133033072895585,0.409759366233262,0.409959078855155,0.04,0.0791981637815148,195.508511370623,0.505130322893338,0.284391692135733
3195,0.338965946849412,-0.230921251196624,0.174519798492852,0.169450218344921,0.282692727289413,0.20790162751399,4.9999999991134e-07,0.133033072895585,0.411310807721579,0.41151778789583,0.04,0.0789811689454757,196.248738315562,0.506437388214909,0.284731679112832
