time,bias_percent_1,bias_percent_2,bias_percent_3,bias_percent_4,bias_percent_5,bias_percent_6,bias_percent_8,bias_percent_9,normalized_power,power_SP,SP,CV,total_power_MW,fuel_fraction,thermal_efficiency
51,0,0,0,0,0,0,0,0,0.999817140128718,1,0.04,0.039913981795565,477.015807317111,0.999989322806322,0.350503278235772
111,0,0,0,0,0,0,0,0,0.999978989400627,1,0.04,0.0399092406181577,477.090335287871,1.00028617499862,0.350454005997853
171,0,0,0,0,0,0,0,0,0.99999826415545,1,0.04,0.0399496537330927,477.09922024987,1.00031762518904,0.350449514031931
231,0,0,0,0,0,0,0,0,1.00000157557688,1,0.04,0.0399775302044265,477.100766558497,1.00031297374485,0.350452279452501
291,0,0,0,0,0,0,0,0,1.00000298763011,1,0.04,0.0399940459216062,477.101433750009,1.00029754666707,0.350458174389042
351,0,0,0,0,0,0,0,0,1.00000375041271,1,0.04,0.0400033243994711,477.10179314242,1.00027632276027,0.35046587442572
411,0,0,0,0,0,0,0,0,1.00000399078677,1,0.04,0.0400080477050601,477.101904117772,1.00025263760192,0.350474254690255
471,0,0,0,0,0,0,0,0,1.00000383603227,1,0.04,0.0400098938362652,477.101827742584,1.00022914344562,0.350482430795056
531,0,0,0,0,0,0,0,0,1.00000343081004,1,0.04,0.0400099727903869,477.101633012743,1.00020763669749,0.350489823914617
591,0,0,0,0,0,0,0,0,1.00000289976923,1,0.04,0.0400090425674519,477.101378974737,1.00018911282282,0.350496128491005
651,0,0,0,0,0,0,0,0,1.00000233504028,1,0.04,0.0400076199275142,477.10110957245,1.00017394620909,0.350501245490112
711,0,0,0,0,0,0,0,0,1.0000017967754,1,0.04,0.0400060445892893,477.100853131645,1.00016208644751,0.350505213281767
771,0.2125,-0.2125,-0.209875239361163,0.212497625175268,0.0969784364741331,0.2125,-0.00863108412571523,0.212499850188128,0.990570836848372,1,0.04,0.0467832918716266,472.564577212775,1.03749635853152,0.334679614143611
831,0.25,-0.25,-0.24691204630725,0.249997206088551,0.114092278204863,0.25,-0.0101542166184885,0.249999823750738,0.997586462676044,1,0.04,0.0467354037971207,475.982467779162,1.06836578318993,0.327360037877836
891,0.25,-0.249744874790714,-0.249536491826938,0.249999539187795,-0.195386158269271,0.25,0.0664965934902645,-0.174767588279639,1.01366038987543,1,0.04,0.0390022165623546,483.686866582842,1.01812007136384,0.349075985095655
951,0.25,-0.249699852694958,-0.249999629271589,0.249999950911191,-0.25,0.25,0.080023207038868,-0.249726543343823,1.0032576376756,1,0.04,0.0393537957026122,478.606759415775,0.973984298743202,0.361061804535251
1011,0.249995636028294,-0.24995484939535,0.174996848663272,0.249967349008506,0.174999995906662,0.249818267330141,0.22450348105583,0.175041018498427,0.974453040033625,1,0.04,0.060140121641662,464.815421863436,1.07275710527484,0.318371222759471
1071,0.24999486591564,-0.249999848813067,0.249996227122365,0.249961595731561,0.249999995184308,0.249786196858989,0.25,0.25,0.993158007388533,1,0.04,0.0582901531233821,473.930508959237,1.15799644031165,0.300719865821439
1131,0.249995938228601,-0.24999997732196,0.249920185759829,-0.0474767192122547,0.249989194577211,0.246574117377274,-0.174634283219707,0.249956318828349,1.01228081754942,1,0.04,0.0511894990906436,483.047016547006,1.12048535091402,0.316765516325022
1191,0.2499961274603,-0.25,0.249906766695853,-0.0999658336141044,0.249987288587723,0.246007279821677,-0.249569744964361,0.249948610386293,1.00500975691882,1,0.04,0.053691546768201,479.448631987093,1.07043336728314,0.329107001531679
1251,0.249996778424479,0.174999637251953,0.249986015004378,-0.227494875042116,0.249994858722239,-0.175598908026749,-0.249879717402671,0.249990867922717,1.00708216829251,1,0.04,0.0520362548513344,480.501325867839,1.03462898793359,0.341243686048578
1311,0.249996893300511,0.249999573237592,0.25,-0.25,0.24999619462833,-0.25,-0.228271295714089,0.249998325135027,1.00179264148309,1,0.04,0.0503268080756592,477.926958736914,1.01090668141218,0.347380261754961
1371,0.249819398237919,0.249999671477362,0.0709867891463793,0.175,-0.174988721721526,0.175,-0.200079344513211,-0.0827262626730139,1.00470066618309,1,0.04,0.0470085939817612,479.350019781578,0.989344892213021,0.356007961211576
1431,0.249788075579814,0.249999688813792,0.0393962225251521,0.25,-0.249986059900913,0.25,-0.177750992926621,-0.141442366403845,0.999886306168997,1,0.04,0.0442544699913316,477.026123463745,0.980056019662806,0.357639878603003
1491,-0.174986817199559,0.108809825438197,0.218409430411038,-0.174866944273517,-0.249991142665844,0.249959668512275,-0.168629032831802,-0.168629032831802,1.01041388686932,1,0.04,0.0214761210783106,482.136881141675,0.942603128148313,0.375834075790701
1551,-0.249947092395919,0.0838939671954449,0.249999996508547,-0.249843463851197,-0.249992039624361,0.249952551190911,-0.191340700488071,-0.191340700488071,1.00443824194381,1,0.04,0.0166033271130138,479.176633236584,0.895698682009546,0.393086720898031
1611,-0.249992063859388,0.224883206040362,0.249999999476282,-0.249976519577679,0.174275858428461,0.249992882678637,0.17498132261726,-0.228278631297782,0.981647187507429,1,0.04,0.0346608245938446,468.245789953353,0.95699174570826,0.359517773644039
1671,-0.25,0.249763659954171,0.25,-0.25,0.249146663967194,0.25,0.249977995842171,-0.25,0.994178398867124,1,0.04,0.0345932002956851,474.375071274041,1.02197025284209,0.341065883950171
1731,-0.249999999557489,-0.17500419162109,-0.175,-0.243270741275442,0.249785346261817,-0.174998197366345,0.249996699376326,0.174994406472563,1.01538391509156,1,0.04,0.0202674468712671,484.524758679835,0.984541161289605,0.361606953017967
1791,-0.249999999479399,-0.249963224252018,-0.25,-0.242083225029931,0.249898054902045,-0.249997879254523,0.25,0.249993419379486,1.00360198989062,1,0.04,0.0222527940176774,478.765704543361,0.929047194427233,0.378651719300653
1851,0.174918662818864,0.175005516362197,-0.25,-0.24881248375449,-0.174500750387942,-0.24789267756181,0.25,0.24992167790081,0.989093343505949,1,0.04,0.0305000299865024,471.859991056655,0.965407100739399,0.359134678030574
1911,0.249904309106793,0.25,-0.25,-0.25,-0.249394657203822,-0.247521171380743,0.25,0.249909017639867,0.996968045709197,1,0.04,0.0330051584047095,475.685881843623,1.0024918067536,0.348653561868556
1971,0.249983316399508,-0.175,-0.25,0.155714719024297,-0.249909189774807,0.175371824292889,-0.174999977768212,0.249986345242002,0.999511808094813,1,0.04,0.0332473745276493,476.917799786516,1.01332865231012,0.345818231342479
2031,0.249997258862928,-0.25,-0.25,0.227311434146232,-0.249999989640275,0.25,-0.249999973844955,0.249999991289438,0.999993451125019,1,0.04,0.0358214781370786,477.094224820869,1.01102846616223,0.346733219527276
2091,0.249998516001858,-0.249999120872236,0.17498949626794,0.246595751648257,0.17499903070109,0.249998505544627,0.0453884755222807,-0.174999891419155,0.990219086598334,1,0.04,0.0530050663767788,472.38810090296,1.04788043323811,0.331239327949447
2151,0.249998737849905,-0.249998965732042,0.249987642668165,0.249998866501555,0.249998857820155,0.249998241817209,0.0975158489400282,-0.249999870720671,0.99585311298324,1,0.04,0.053511272380689,475.158896936501,1.08846198319631,0.320760053131589
2211,0.249999810677486,-0.24999742243189,0.249998146400225,0.249999420864643,0.249995671138946,0.249999728919071,-0.197872621498402,-0.249999665416688,1.0052298786192,1,0.04,0.0501593944257089,479.636324089804,1.07487825502404,0.327874366943724
2271,0.25,-0.249997150084804,0.25,0.249999518693423,0.249995108783439,0.249999991348812,-0.249999998634595,-0.249999629186573,1.00115460759936,1,0.04,0.0504828444557389,477.631207742006,1.05756310614164,0.331849432881011
2331,0.25,-0.249999501420437,0.249995275633734,-0.175000072195987,0.249999225984043,-0.174989286867191,-0.249999999795189,0.175000052780434,1.00199456097614,1,0.04,0.0389773734838395,478.073233932782,1.050542115715,0.334376415544472
2391,0.25,-0.249999916362019,0.24999444192204,-0.25,0.249999952548855,-0.249987394787663,-0.25,0.249999996656965,1.00361023206981,1,0.04,0.0381728820861214,478.817935365999,1.0293329162033,0.341797770063223
2451,0.249999915456206,0.174996032458349,0.249999166288306,-0.249998739342973,0.249997287909327,0.0162723699202618,-0.249999174192232,0.249999999341328,0.994143159097133,1,0.04,0.0542607384452422,474.253240632012,1.04302075435688,0.334096582477308
2511,0.249999900536713,0.249995317544296,0.25,-0.249998516874086,0.249996817678822,0.0632593872216603,-0.249999028461449,0.24999999981504,0.997984459068011,1,0.04,0.0538229489294645,476.166745828483,1.0671245614981,0.327867691246832
2571,0.249996665734027,0.249999297631644,0.249916287356837,0.174830931473933,0.249999522651823,0.221988908083249,-0.249999397673562,-0.113916273600693,1.00104736326485,1,0.04,0.0587864239437533,477.589525531569,1.06324634390178,0.33004683435218
2631,0.249996094886494,0.25,0.249901514537455,0.249800834123583,0.25,0.25,-0.245159818912922,-0.178136792438764,0.997928140848604,1,0.04,0.0571922032265938,476.089175896432,1.07066486807465,0.326730315148391
2691,0.249999414232974,-0.0616541912937129,0.249985227180618,0.24985794633699,0.249822896993846,0.119515556421772,-0.206601900633211,-0.206601900633211,1.00345634184232,1,0.04,0.0452758810557762,478.773440226425,1.06228809204527,0.331163461311626
2751,0.25,-0.116651989757309,0.25,0.249868024962886,0.249791643522172,0.0964888899079667,-0.18150858229259,-0.18150858229259,1.00071426836562,1,0.04,0.0437946232738504,477.42469091511,1.05019440139347,0.334033368522556
2811,0.249932037751648,-0.229936243502131,-0.174980778138523,0.249980203744433,0.249954741123141,-0.198019730680611,0.175082471063503,0.175013589134997,0.994114074486381,1,0.04,0.0356193837825118,474.262877729506,1.0646265593252,0.327322991836399
2871,0.249920044413703,-0.249927582398275,-0.249977386045321,0.25,0.249983523052724,-0.249991840196242,0.25,0.249986306785952,1.00200440114916,1,0.04,0.0352081779077241,478.079662915661,1.06716301457574,0.329172981158977
2931,0.249987669176678,-0.249989137359741,-0.249996607906798,-0.173842784356293,0.249300146667312,-0.249998776029436,0.25,0.249997946017893,1.0094406054794,1,0.04,0.0304235533609206,481.650339423352,1.02651990777286,0.344761824766614
2991,0.24999960295838,-0.25,-0.25,-0.248638569830933,0.249179550834592,-0.25,0.25,0.25,0.99484142560921,0.985869656602765,0.04,0.0351241632181929,474.49109641571,0.96578933813983,0.360994293808615
3051,0.249999940443757,-0.25,-0.249671350040863,-0.248436911390782,-0.175119431839687,-0.249998777393826,0.249978931046768,0.25,0.985461663000659,0.969245723194253,0.04,0.0300100197563039,470.075447169711,0.885198515094244,0.390194880863289
3111,0.25,-0.25,-0.24961335298925,-0.248401324607226,-0.249995722899854,-0.249998561639795,0.249975212996198,0.25,0.961185247707851,0.952621789785741,0.04,0.0304971948310436,458.421216517767,0.81591457092601,0.412833276671685
3171,0.25,-0.249999928352663,0.0952403995500565,0.175239801267031,0.175000637909791,0.174995690659964,-0.17500371805057,0.249999992175498,0.925380739011884,0.935997856377228,0.04,0.0567568099996324,441.327770208238,0.852341120169307,0.380454294997571
3231,0.25,-0.249999915709015,0.156096944115817,0.249999999950724,0.249999995699728,0.249994676359922,-0.226408603175326,0.249999990794704,0.916949622937442,0.919373922968716,0.04,0.057108917261932,437.392370342651,0.88783569986979,0.361987251191468
3291,0.249952039535764,0.17500001264287,0.235805828529145,0.249999974805745,0.249999999243134,0.249999201453988,-0.1904760061771,0.249723186559442,0.899116821514599,0.902749989560204,0.04,0.0719202552438049,428.834219179536,0.90322778159472,0.348856502193067
3351,0.249943575924428,0.249999999999085,0.249872102249145,0.249999970368396,0.249999999868441,0.25,-0.129435617060928,0.249674338753219,0.885784691390554,0.886126056151692,0.04,0.0733173838419838,422.499054264317,0.912625412178476,0.340163616265879
3411,0.249991289300618,0.249995018915935,0.24996496843061,0.249999995555259,0.249999999822238,0.24997642079058,-0.0642817464381369,0.0521339319867769,0.875876886133549,0.86950212274318,0.04,0.0707233563564211,417.77295447649,0.886123807229459,0.346418114025654
3471,0.249999709308181,0.249994139901261,0.24998135658028,0.25,0.249999999814084,0.249972259753623,-0.0303641390852656,0.0172738602044635,0.855183348396951,0.852878189334668,0.04,0.0714716945069927,407.854407975353,0.861486874587566,0.34786534979564
3531,0.249999780904008,0.249996471155508,0.249997203487042,0.249946125228781,0.249999999972113,0.249987601900665,0.175163564162245,-0.0143426718366889,0.832285594024648,0.836254255926156,0.04,0.0742581125826484,396.840313885705,0.860155155680843,0.338995289840082
3591,0.249999793538566,0.249996882553317,0.25,0.249936617916213,0.25,0.249990309338378,0.25,-0.00677470249274129,0.819306127956546,0.819630322517644,0.04,0.0731852332511278,390.790518081309,0.875458631981866,0.327991859335545
3651,0.249878411616321,0.249997864434853,-0.174999253899333,0.249990492687432,0.25,0.249998519059408,0.249991968463504,-0.00320035867401287,0.80955922149524,0.803006389109132,0.04,0.0657409537065043,386.159926825341,0.851037105546662,0.333405979066533
3711,0.249856991277102,0.249998037708065,-0.249999122234509,0.25,0.25,0.249999967833707,0.249990551133534,-0.00151147140401826,0.792024840970773,0.78638245570062,0.04,0.0687933648968535,377.727910943953,0.810336548406106,0.342506111966141
3771,0.159480439345615,-0.174994611673244,0.174973844931606,0.24999576091923,0.25,0.249999995175056,0.249998582666415,0.212297411098899,0.768162437863216,0.769758522292108,0.04,0.0699071989761851,366.321292589064,0.804291495610994,0.3346596578016
3831,0.143531636063588,-0.24999331450524,0.249969074431508,0.249995012846153,0.25,0.25,0.249999999995747,0.25,0.755746690179695,0.753134588883596,0.04,0.0689777290339498,360.452247594858,0.797500418894465,0.332102002527422
3891,0.234025371283113,0.175001002824214,-0.175004638835274,0.249981693339394,0.25,-0.174999773839759,0.249999999999362,0.249999770104273,0.747228365718207,0.736510655475084,0.04,0.0677463314081968,356.407416451467,0.748726338451072,0.349766569964065
3951,0.249994853968912,0.25,-0.25,0.249979342838201,0.25,-0.249999733929129,0.25,0.249999729534438,0.725893531851247,0.719886722066571,0.04,0.0725112029882617,346.162126164266,0.699285193640518,0.363730645379158
4011,0.249999228095337,-0.175,-0.249999993609778,0.249995526632166,0.25,-0.249999960089369,0.249809318800736,0.24999995832227,0.710149477193925,0.703262788658059,0.04,0.0550984528160122,338.69132239582,0.662096178722436,0.375870000601866
4071,0.25,-0.25,-0.249999992482092,0.249998382595807,0.25,-0.25,0.249775669177337,0.249999998696593,0.69149234843104,0.686638855249547,0.04,0.0507511370793494,329.761142774375,0.625244088795376,0.387529315510357
4131,-0.174999270601431,0.123290253749342,-0.249999998872314,0.249999602375491,-0.118838489778403,-0.249999993703781,-0.00238439677235759,0.249999999804489,0.682125055090818,0.670014921841035,0.04,0.0308316037924165,325.257558619943,0.557649406182883,0.428569075369149
4191,-0.249999141884037,0.189165004410991,-0.25,0.24999981763073,-0.183927635033415,-0.249999992592684,-0.0197632004275378,0.25,0.657677788021613,0.653390988432523,0.04,0.0223114749838266,313.606332041324,0.513151820372768,0.449048888108957
4251,-0.249996501562292,0.240874750661649,-0.25,0.249999972290284,-0.240088638009015,-0.249999998888903,0.175001645897507,0.25,0.634618857756215,0.636767055024011,0.04,0.0275601297937186,302.673157344601,0.504171032575209,0.441113850109361
4311,-0.249996035623161,0.25,-0.25,0.249999999583147,-0.249999403240003,-0.25,0.25,0.25,0.62070365083094,0.620143121615499,0.04,0.0290147736511928,295.992238298797,0.506346265771863,0.429523952790952
4371,-0.249985362235575,0.249999659087611,0.17499957381977,0.249997370115827,0.175000089513999,0.175,0.25,0.249999849008245,0.586901924063412,0.603519188206987,0.04,0.0732309407595428,279.888412255788,0.585262559117712,0.351389558865556
4431,-0.249983478696589,0.249999598926601,0.249999498611494,0.249996906092183,0.25,0.25,0.25,0.249999822362641,0.585203612679194,0.586895254798475,0.04,0.0778300596015205,279.145173212359,0.628994336700236,0.326090437782726
4491,-0.249997521804488,-0.17500006016101,-0.175000009922007,-0.174900247826538,0.249986770623981,-0.175,-0.0341539998752017,0.230018907550499,0.599485920423413,0.570271321389963,0.04,0.0137668154735213,286.01518599839,0.518582963841213,0.405252332720051
4551,-0.25,-0.25,-0.249999923192625,-0.249882098518077,0.249984436028213,-0.25,-0.059090137281141,0.226492863760121,0.588143146009426,0.577362130251908,0.04,0.00444884092840783,280.47663994463,0.394779161526036,0.522032031720492
4611,-0.249995985936555,-0.249969053991767,0.175000011521106,0.175017685222288,0.249997665404232,-0.25,-0.11803798104638,0.246392070952493,0.57251923610532,0.58863789363217,0.04,0.015802864486753,272.749793635833,0.481492367458911,0.416226473844886
4671,-0.249995277572417,-0.249963592931491,0.25,0.25,0.25,-0.25,-0.181309752185557,0.249903695751147,0.591474290743272,0.599913657012431,0.04,0.0139845746472557,282.154072031488,0.576222171291749,0.359791611861016
4731,-0.181002719621796,-0.249958965400023,0.249996385718621,0.249978962409552,0.249986662356528,-0.25,-0.245728227615859,0.249982170574351,0.601628944050788,0.611189420392693,0.04,0.0191814723533745,287.132451411405,0.63029374799636,0.33472947454467
4791,-0.168827562336392,-0.249958148776822,0.249995747904259,0.249975249893591,0.249984308654739,-0.25,-0.249989481641358,0.249996019072563,0.615083941620804,0.622465183772955,0.04,0.025631782412897,293.560992791838,0.682311113543524,0.316133543192256
4851,-0.237821213202566,0.175006277683477,0.249898270554179,0.249595366638895,0.249997646298211,0.174999446830172,-0.249998422246204,0.249999402860885,0.618929395614859,0.633740947153216,0.04,0.0548124333633063,295.357120743109,0.756922818566328,0.286715072399032
4911,-0.24999656335542,0.25,0.24988106866887,0.249528328417478,0.25,0.249999349211967,-0.25,0.25,0.639232002110503,0.645016710533478,0.04,0.0591505877390222,305.124389210326,0.815143546580032,0.275041042024886
4971,0.175000515496687,-0.175,-0.173674499743925,0.249929249262622,0.158401827979298,0.0590359747258234,0.0858889217758166,0.249999611313697,0.657078193122156,0.656292473913739,0.04,0.0490030619581526,313.624666559711,0.822331197998286,0.280232255185778
5031,0.25,-0.25,-0.248419600052065,0.25,0.142237444681527,0.025336555698857,0.145163437383314,0.249999542721997,0.6696535870502,0.667568237294001,0.04,0.0513344792163823,319.578037152339,0.809573895706294,0.290051492912202
5091,-0.13063641009097,0.175,0.17523705999219,-0.169528604223792,-0.191164383297771,0.215180777732246,0.234261928992277,0.129221956254853,0.682471318761276,0.678844000674262,0.04,0.05541012468092,325.705273713955,0.792149315498152,0.302115088399172
5151,-0.197807541283494,0.25,0.25,-0.243563063792696,-0.25,0.24868269926755,0.249985192217388,0.107908264525357,0.69179047692125,0.690119764054524,0.04,0.0540028896278348,330.126435613377,0.77614431462114,0.312530566058909
5211,-0.241695924600247,0.249995717101212,0.249999850481163,0.172605631528522,0.175,0.249712249077063,0.249997687901474,-0.185620808749362,0.698214350904094,0.701395527434786,0.04,0.0638883303649439,333.189865328573,0.785319561691295,0.311745392682763
5271,-0.249440933420851,0.249994961295544,0.249999824095486,0.246047165996972,0.25,0.249893934337565,0.249999893022195,-0.135195213560632,0.707748953712553,0.712671290815047,0.04,0.0601612250451828,337.77203084086,0.820899849833846,0.302334831975794
5331,0.175083821017457,0.249999244194332,0.249989171121934,0.245183381257307,-0.175,0.249944737162892,0.24774506509563,-0.0848411034536386,0.722061950609457,0.723947054195309,0.04,0.0582683817753906,344.606550514083,0.836484936763713,0.302705338443914
5391,0.249999954153629,0.25,0.249987291185425,0.24503094865619,-0.25,0.249953702367361,0.24734715428506,-0.0415510505710737,0.733125762085192,0.73522281757557,0.04,0.0575294054355609,349.861694621885,0.848545884597378,0.302953336731396
5451,0.241976413521958,0.25,0.183882534663055,0.249254642298429,-0.25,0.249993055355104,0.249530222867354,0.199930499017883,0.739103385821739,0.746498580955832,0.04,0.0586326446139778,352.688637050179,0.879689177070175,0.294589250321713
5511,0.240560494586958,0.25,0.172216989394402,0.25,-0.25,0.25,0.24991547026423,0.248547924599847,0.755111605308199,0.757774344336094,0.04,0.0573061844900357,360.37686605437,0.907535632262958,0.291774877159087
5571,0.248584074188044,-0.174999996699189,-0.186666247538564,0.249979394973093,-0.25,0.203240446645557,-0.00734258654087624,-0.00734258654087624,0.787796745341055,0.769050107716355,0.04,0.0279509691580811,375.897884416856,0.823518756044171,0.335390736235438
5631,0.25,-0.249999996116693,-0.249998583467911,0.249975758791874,-0.25,0.194988760759479,-0.0243788352947149,-0.0243788352947149,0.785068920498286,0.780325871096617,0.04,0.0240409276731079,374.581332734156,0.765919383268855,0.359350080392286
5691,0.25,-0.249995454458623,-0.249997949182043,0.249986800603182,-0.25,0.241748276758497,-0.0552661898251921,0.175002579911861,0.783046748662976,0.791601634476878,0.04,0.0248042797143919,373.547640904776,0.779032776773397,0.352326203322826
5751,0.25,-0.249994652989552,-0.249997837249243,0.249988749158119,-0.25,0.249999956052442,-0.0930733981118149,0.25,0.799217140405162,0.80287739785714,0.04,0.0208704005099794,381.422611706685,0.817807954094994,0.34269658889204
5811,0.249908647197339,-0.249999197948433,-0.249999064793042,0.249985015425062,-0.249994505756647,0.249957782142343,-0.136780869822927,0.25,0.81179925839033,0.814153161237401,0.04,0.0219282901570991,387.40142280645,0.833738172274105,0.34141783321512
5871,0.249892526114516,-0.25,-0.249999281418419,0.249984356530993,-0.249993536184291,0.249950339687619,-0.181719729148822,0.25,0.823178777380641,0.825428924617663,0.04,0.0234941429945276,392.828450175331,0.84789118654565,0.34042189806982
5931,0.249980352185638,-0.249999819168655,-0.249999398566063,-0.175002346520351,0.175000969572356,-0.175007449046857,0.00386548854838344,0.232795965406214,0.838462621833962,0.836704687997925,0.04,0.0201476787678716,400.159498791739,0.847970752742928,0.346742386052341
5991,0.249995850904071,-0.249999787257241,-0.249999419239176,-0.25,0.25,-0.25,0.0486650841798791,0.229759959301429,0.846222333206241,0.847980451378186,0.04,0.0225656556161536,403.810765911761,0.849791241452959,0.34915665085303
6051,-0.174996835046468,-0.249999968088586,-0.249999912885876,-0.25,-0.17482386864428,0.174999035624785,0.21979972613013,0.246944535173402,0.864762562191639,0.859256214758448,0.04,0.0213899764729111,412.688695827847,0.836009406406261,0.362715475447078
6111,-0.249995544331858,-0.25,-0.25,-0.25,-0.24979278664033,0.249998865440924,0.249999957062527,0.249977107386103,0.861890908596207,0.860947579265487,0.04,0.0230089349808722,411.164991151863,0.811759715541701,0.372171669337049
6171,0.174998953890252,-0.249976664376076,-0.0268931794184848,-0.249986018567585,0.17503108200395,0.249999829816138,0.249658837479424,0.249996566107915,0.833809022594334,0.860947579265487,0.04,0.0420781876272939,397.757502681799,0.91743510963611,0.318564736740983
6231,0.249997982988272,-0.249972546324795,0.0124786124488414,-0.249983551255982,0.25,0.25,0.249598639905935,0.25,0.854631659773734,0.860947579265487,0.04,0.0455379499392753,407.841420476302,1.00266843533158,0.298874363166065
6291,0.249999684612058,-0.249995881948719,0.159516470831297,-0.249997332418914,-0.0152454180871497,0.249999607711729,0.249898889560604,0.249973872656111,0.86313858590098,0.860947579265487,0.04,0.0516075526080328,411.845865804438,1.00323179500472,0.301639421681515
6351,0.249999984898609,-0.25,0.185464328192907,-0.249999764388843,-0.0620534330437055,0.249999538484387,0.249951874793781,0.249969261948366,0.864781810073661,0.860947579265487,0.04,0.0577433392364985,412.59187816635,0.981545664083261,0.308862257935663
6411,0.179054176312925,0.174999999997746,0.24027854264987,-0.249999964658326,0.202685699873243,-0.174988749720036,0.249992781219067,0.249987536349956,0.863343628391023,0.860947579265487,0.04,0.0677128895412128,411.915099737295,0.964732128993577,0.313729708755736
6471,0.16653432773898,0.249999999997348,0.249951639318746,-0.25,0.249404370387999,-0.249986682932581,0.25,0.249990761244354,0.863937775747212,0.860947579265487,0.04,0.0681849521538944,412.186704241142,0.947285211527274,0.319718596374532
6531,0.23747994981274,-0.174999686423292,-0.174802613041992,-0.249994176862358,0.2499106555582,-0.249997668296189,-0.013543977043351,0.249998614186653,0.877882460779309,0.860947579265487,0.04,0.0403125958511825,418.944603376296,0.880780332015777,0.349497174072667
6591,0.249999765472815,-0.249999631085758,-0.249759245811534,-0.249993149249832,0.25,-0.249999606889767,-0.06005173769806,0.25,0.86816249834906,0.860947579265487,0.04,0.0355542205207182,414.139824455197,0.808134161733858,0.376546144832668
6651,-0.174851279485111,0.174911495367039,-0.249963884550603,-0.24999881626041,0.249926100443194,-0.249876561465481,0.203492239345291,0.25,0.858781856412813,0.860947579265487,0.04,0.0375387187200891,409.696367506221,0.806189851080329,0.373404427423203
6711,-0.249824993301216,0.249895811799886,-0.249999997269263,-0.249999816321101,0.249913059344934,-0.249854847567078,0.25,0.25,0.86160283930978,0.860947579265487,0.04,0.0342262267018136,411.059871012261,0.804339676140192,0.375508926997513
6771,-0.249973748995182,0.249984363651694,0.174999936318026,-0.249990716885336,0.249926204093358,-0.249976858352419,-0.174999362918185,-0.175,0.872914193708221,0.860947579265487,0.04,0.0246048849993661,416.574056816143,0.762110348326636,0.401632674479518
6831,-0.25,0.249999990449071,0.249999924598136,-0.249989111102554,0.249928523754845,-0.24999838966748,-0.249999250491982,-0.25,0.860375097229688,0.860947579265487,0.04,0.023800228346712,410.424926752585,0.735378983005158,0.41008812354233
6891,-0.25,0.249999998567361,0.249995742843841,0.175001601324098,-0.174997728685281,0.174998802872768,-0.102325409300946,0.0799989691393529,0.841034399853304,0.860947579265487,0.04,0.0410795218715687,401.208846021211,0.820706025154135,0.359201014401056
6951,-0.25,0.25,0.249995004887201,0.249999962340566,-0.24998471441001,0.249998307438694,-0.0762653196789979,0.138234081340415,0.85439907127277,0.860947579265487,0.04,0.0408790363608317,407.695989241551,0.890044221103068,0.336573199019997
7011,0.17499946320531,-0.149341796118252,0.249998948320744,0.249999994351085,-0.249995984167164,0.249999746115804,0.20106020204815,0.233235112200508,0.850099924457094,0.860947579265487,0.04,0.0508741640077685,405.568937123585,0.941863302804054,0.316396364591033
7071,0.249999368476835,-0.219813877786178,0.249999644220781,0.25,-0.249997972947838,0.25,0.25,0.249999999999348,0.859047611044674,0.860947579265487,0.04,0.0543421295710213,409.898203069167,0.973856387708718,0.309268560917417
7131,0.249999567887329,0.179527918332073,0.249999730904028,0.108455292218209,-0.249999688201621,0.249946552472079,-0.174989931685768,0.249999999970358,0.868740414206366,0.860947579265487,0.04,0.0588954177477767,414.529370727024,0.944951286719788,0.322329877160722
7191,0.249999603077416,0.25,0.249999746201071,0.083476814374364,-0.249999990893465,0.249937120555387,-0.22082501794125,0.249999999965242,0.875732972180935,0.881587828613595,0.04,0.0555439147620441,417.951203858248,0.952330684594267,0.32247234741356
7251,0.249997222146102,0.25,0.249999699392298,-0.199973299697729,-0.249999997884109,0.249990554565692,-0.183421202392712,0.249988356488075,0.882356446031264,0.874139778409517,0.04,0.0502192725299631,420.931154241604,0.931729840206467,0.331952345635287
7311,0.249996801981753,0.25,0.249999691131926,-0.249993908063393,-0.249999999117753,0.249999984096923,-0.150085401090514,0.24998630175681,0.869102979677963,0.861092193529681,0.04,0.0546905926956755,414.52993968006,0.878115812164358,0.346863643729725
7371,0.249998810875384,0.249963387206614,0.249892872968796,-0.119546383854602,0.174999705104875,0.248905915748786,0.19067049721608,-0.110155188385395,0.849021937753352,0.848044608649844,0.04,0.068995237539391,404.662501952419,0.850805650384447,0.349475933127807
7431,0.249999165386024,0.249956926125428,0.249874022704714,-0.096526232523639,0.249999652908867,0.248712844863821,0.249885339090654,-0.0569264595644604,0.835563385533496,0.834997023770007,0.04,0.0681257446772201,398.568362882421,0.86057872503094,0.340303874453496
7491,0.249864117072687,0.249993538918814,0.249978196411872,-0.0186707145836062,0.249953996034043,0.249792219465561,0.249982800863598,-0.0268897640655726,0.822938983828913,0.82194943889017,0.04,0.0695995969897728,392.516279581779,0.853115444438713,0.338068374745478
7551,0.249840285017392,0.25,0.249996580007253,-0.0049315055353652,0.249945938938486,0.249982697336456,0.25,-0.0127015010737876,0.810292166589649,0.808901854010333,0.04,0.0700162125671478,386.489637222842,0.845358238522107,0.335932282413878
7611,0.249976042752609,0.25,-0.175000512998912,0.211760274169695,0.249935652643291,0.249997404600468,0.25,0.175,0.793604128845329,0.795854269130497,0.04,0.0696645280752403,378.449799176436,0.841544540383608,0.330434852860219
7671,0.25,0.25,-0.25,0.25,0.249933837414728,0.25,0.25,0.25,0.784972063315158,0.78280668425066,0.04,0.0696838781844043,374.429199140317,0.840039509941244,0.327510080961596
7731,0.249669546536706,0.249985951787442,-0.249276758118809,0.25,0.0267533839514044,0.25,0.25,-0.00133881173031894,0.780510433970286,0.769759099370823,0.04,0.0655134561022186,372.221517956184,0.780453875737991,0.350436158155388
7791,0.249611231219654,0.249983472691109,-0.249149127198599,0.25,-0.0126314019538879,0.25,0.25,-0.000632143063499057,0.761280810629441,0.756711514490986,0.04,0.06715167685026,363.078141015067,0.74184147481463,0.359619861359358
7851,0.249941684682948,0.249997520903666,-0.249872177589473,0.25,0.210600207913006,0.249999930971701,0.249616227814729,-0.000298338005171741,0.743639042886103,0.74366392961115,0.04,0.0715493917455657,354.663257848167,0.732300764195259,0.355861813814798
7911,0.25,0.25,-0.249999774717274,0.25,0.249994021418928,0.249999918790237,0.249548503311446,-0.000140660408590221,0.731614951320415,0.730616344731313,0.04,0.0705061822775931,348.957910602483,0.729441958670316,0.351509432233484
7971,0.249843417150491,0.25,-0.149129871949867,0.249998871856533,0.249871758933597,-0.17499999926836,0.249932245136214,0.212480801924171,0.719694958539348,0.717568759851476,0.04,0.068064611344237,343.270300899569,0.718446675611252,0.351072140701356
8031,0.24981578488293,0.25,-0.131329300873266,0.249998672772392,0.249850183200891,-0.249999984808113,0.249999964281762,0.249999585877294,0.707250569928266,0.704521174971639,0.04,0.0693214827452979,337.325367698337,0.701884558297587,0.353132745402938
8091,0.249972366217925,-0.174976824975984,-0.232128515478195,0.249999785868764,-0.175006028820156,0.174980334402642,-4.00418942876355e-05,0.249999937881594,0.702194308263126,0.691473590091802,0.04,0.044803688351827,334.937078754384,0.648977146233941,0.379217613771375
8151,0.249999998218218,-0.249972735265863,-0.249916612173183,0.249999982297535,-0.249980654470929,0.249976861322188,-0.00275347135394421,0.25,0.703207547987374,0.708439585618627,0.04,0.0299262653790583,335.619489359881,0.649237874779942,0.379837641904653
8211,0.249975576781496,-0.0777696662060231,-0.249987491825977,0.24999999734463,-0.249982125586335,0.249996206624436,-0.0201372485604836,0.249985311566802,0.720280438697836,0.730702095334862,0.04,0.0240715895091257,343.8052852492,0.704193555523951,0.358736179572213
8271,0.249971267116191,-0.0473808893131101,-0.25,0.25,-0.249982385194936,0.249999620501303,-0.0516464789407183,0.249982719490355,0.743989220229821,0.752964605051097,0.04,0.0198860081502363,355.146394454769,0.764208757466462,0.34146805124153
8331,0.249823837533459,-0.219607102252334,-0.25,-0.174991395149883,0.175000459758443,-0.175000056924805,-0.09950832510318,0.249997312735008,0.782283536314367,0.775227114767333,0.04,0.00497142138545606,373.49215387242,0.763647276166187,0.359371268067052
8391,0.249797820548271,-0.249999963359256,-0.25,-0.249989876646921,0.249997432397274,-0.25,-0.169499901957834,0.249999888013476,0.794104925408545,0.797489624483568,0.04,0.00520822919609588,378.982329175375,0.760750426218096,0.366042432294045
8451,-0.175030326917759,0.175000005496112,-0.25,-0.249997223353367,-0.175000385140409,0.174983493024071,0.174906860106097,0.249916210179982,0.804550749384216,0.819752134199803,0.04,0.0163606566657447,383.969570502152,0.828896310802217,0.340370002282464
8511,-0.25,0.25,-0.25,-0.249998519830975,-0.25,0.249980580028319,0.249889273690709,0.249901443503483,0.831480793153336,0.842014643916038,0.04,0.0182857222478638,396.874609869592,0.898281950233097,0.324634983571746
8571,0.174998046882876,-0.175,0.175,-0.249999777974646,-0.249997094764545,0.249997087004248,-0.122203354381785,0.249944937827939,0.850013273438171,0.864277153632273,0.04,0.0209854579404192,405.724145975899,0.973689073622741,0.306171833174869
8631,0.249997702215148,-0.25,0.25,-0.25,-0.249996582075936,0.25,-0.187866759335755,0.249952613296961,0.865632389643666,0.867616530089709,0.04,0.0298907088415108,413.058272344867,1.01187913452406,0.299942053100576
8691,-0.175000177657512,-0.25,0.25,0.175,0.174254289700844,0.249990312364873,-0.240680013900363,0.249992329240973,0.866586249163383,0.867616530089709,0.04,0.0472617614384731,413.453924757971,1.01974222626272,0.297914328720179
8751,-0.249999803517394,-0.25,0.25,0.25,0.249122090602629,0.249988602782203,-0.25,0.249999337936975,0.870342071663216,0.867616530089709,0.04,0.0531824230474598,415.249622597753,1.00805443240208,0.302677361265093
8811,0.175000029472391,-0.25,0.249999835451404,0.041866460718092,0.249865276535081,0.249970860940795,-0.249465836691226,0.249998392436438,0.86697492849491,0.867616530089709,0.04,0.0609124784271433,413.628701830536,1.00195202291843,0.303332131445835
8871,0.25,-0.25,0.249999806413416,0.00513701260951984,0.249996426993749,0.249967730027605,-0.249371572577913,0.249998225583403,0.870128667464822,0.867616530089709,0.04,0.0627480153133184,415.155405221362,0.994719381990306,0.306665409876054
8931,0.249904107215964,-0.10388689405649,0.249989765195502,0.213270551891428,0.249965812596843,0.249906415126741,-0.24983887456027,0.24999973383751,0.867401907094562,0.867616530089709,0.04,0.0703688446231819,413.814504729644,0.988183572232838,0.307696641275162
8991,0.249887184959958,-0.078102228301753,0.24998799321587,0.25,0.249960410056213,0.249895594850118,-0.24992133961598,0.25,0.868631345183323,0.867616530089709,0.04,0.0685599382534184,414.435564966068,0.98668468790647,0.308626565028578
9051,0.249983077743994,0.200772551480456,0.249973457258974,0.25,0.249994061508432,0.249984339227518,0.175011799057603,0.249266113975644,0.85849677695292,0.867616530089709,0.04,0.0780326497014291,409.541407797579,1.01887818340583,0.295345414239132
9111,0.25,0.249985747912611,0.249970892090109,0.25,0.25,0.25,0.25,0.249136604677228,0.866361098522377,0.867616530089709,0.04,0.0745845595673653,413.389014478293,1.04663722399897,0.290213379913907
9171,0.249974800704217,-0.174941266664076,0.249995633813516,0.249999107496569,-0.174190617612221,-0.174991645749909,0.249912014339386,0.24987027758981,0.885603376594861,0.867616530089709,0.04,0.0490086382082534,422.63375893663,0.980558785287083,0.316697930667076
9231,0.249970353769667,-0.249928386883491,0.25,0.249998949995964,-0.249047785426142,-0.249990171470481,0.249896487458101,0.249999749280266,0.876467985352581,0.867616530089709,0.04,0.0481102960074682,418.091886451047,0.898790956244105,0.341796587254849
9291,0.24999555306545,0.175009994265724,0.186051630007192,0.249999842499394,-0.249824658722951,0.174419358861761,0.249984473118715,0.249962345773142,0.838100505842978,0.828298378443994,0.04,0.0755030856057137,399.462211236341,0.835458081972972,0.351322296855861
9351,0.25,0.24999912035088,0.174766623537873,0.25,-0.249961754010623,0.249315158332156,0.25,0.249955745154238,0.811361313949019,0.808780402746504,0.04,0.0780751405339144,386.96268600375,0.809670669616531,0.351168342704989
9411,0.249999995551329,0.249974386549332,-0.186182393534413,0.249998889075146,0.174988374005666,-0.175102726250177,0.25,0.249993361773136,0.800356227973338,0.793981016454448,0.04,0.0679213837521994,381.769726353692,0.781884291365439,0.358767979710958
9471,0.249999994766269,0.249970021760823,-0.249879278900111,0.249998693029583,0.249979573067364,-0.25,0.25,0.25,0.783261361194985,0.779181630162393,0.04,0.0667303119210301,373.558540167383,0.748722212838973,0.366600141292917
9531,-0.17500000078506,0.249995503264124,-0.249981891835017,0.249999803954437,0.249996935960105,-0.249987117220457,0.249983645651135,0.249993172887367,0.770354543060143,0.764382243870338,0.04,0.0517118075682784,367.425942456907,0.718554841539233,0.375720224488313
9591,-0.25,0.25,-0.25,0.25,0.25,-0.249984843788773,0.24998075958957,0.249991968102785,0.753412843860109,0.749582857578283,0.04,0.0464778173165492,359.313702175266,0.686087266945798,0.384812433567983
9651,-0.249811989145504,0.249997119700557,-0.249380981955041,0.25,-0.175,-0.246369135530443,0.249691977887843,0.249979103419613,0.743399624324574,0.734783471286227,0.04,0.0316310097582449,354.595586201782,0.64698262069558,0.402712756728294
9711,-0.249778810759416,0.24999661141242,-0.249271743476519,0.25,-0.25,-0.245731069367208,0.249641016411067,0.249976833181406,0.724111149375041,0.719984084994172,0.04,0.0295906105470372,345.33549199072,0.609043629039244,0.41662707257282
9771,0.175030937204448,0.249933809301797,0.175063976822059,-0.174929750888872,0.0554274488030177,0.175640339594919,0.249945485582454,-0.027275844932298,0.705885376558096,0.717764177050364,0.04,0.0587095584388302,336.658500783487,0.634840553415725,0.389654413561491
9831,0.249997363315719,0.249922726576393,0.249946750992396,-0.249917353986908,0.109326410356491,0.25,0.249999215436228,-0.0146726154396034,0.710578898876226,0.717764177050364,0.04,0.0553135405636315,339.067251783008,0.698739059848554,0.356554154648593
9891,0.249997735889877,0.249988376693948,0.249975356363482,-0.218043907864568,0.228858925971071,0.249999326814974,0.249999882315434,-0.00693055607350658,0.712137829769813,0.717764177050364,0.04,0.0584889390264908,339.765268787936,0.733021482658976,0.340578286605552
9951,0.249997801638258,0.249999962008811,0.249980404370144,-0.212419182078272,0.249952899314821,0.249999208017617,0.25,-0.00327348353076056,0.714664004584013,0.717764177050364,0.04,0.0594146514827315,340.982286863142,0.757433445720844,0.330782113079921
10011,0.249918659174651,0.249999994301322,0.249991478957141,0.180626006623647,-0.175007065102777,0.249999881202643,0.249978060682118,-0.00154601297666888,0.717446064288962,0.717764177050364,0.04,0.0604298132388604,342.301692259862,0.764105797712378,0.329162405555369
10071,0.249904692857544,0.25,0.249993433296022,0.249986922276927,-0.25,0.25,0.249974189037786,-0.000730017537589719,0.71653620969434,0.717764177050364,0.04,0.0614532947607562,341.85636865701,0.769269431764295,0.326527584773201
10131,0.249985703928632,0.249993873569661,0.249998744245351,0.249995833367843,-0.00628022337512766,0.249999900783611,0.249801681403275,0.174995575677606,0.707571758190654,0.717764177050364,0.04,0.0716910889326596,337.451775663573,0.799618463573331,0.310087014996332
10191,0.25,0.249992792434896,0.249999681471703,0.249997405913299,0.036729148970438,0.249999883274837,0.249771238879538,0.249991523688883,0.71369680327655,0.717764177050364,0.04,0.0702670634755545,340.554100257258,0.845374973024667,0.29599979020371
10251,0.25,0.249984608008353,0.249993919974404,0.249999454723984,0.218007625431501,0.249992442779774,0.249963847623167,0.249867389952251,0.714640375625843,0.717764177050364,0.04,0.0763721850276689,340.949962572726,0.862826119000504,0.290350140171914
10311,0.25,0.249983163697787,0.249992903239586,0.249999816278811,0.249997944806982,0.249991129751233,0.249997837401454,0.249845483998728,0.716355984819647,0.717764177050364,0.04,0.0779660179005669,341.784571903817,0.875655510765152,0.286796499319747
10371,0.249679507595087,0.249997415299695,-0.0461778923628314,-0.174903245139848,-0.175000308278953,0.249998658261494,-3.29897619580046e-05,-3.29897619580046e-05,0.740623725279845,0.717764177050364,0.04,0.04515030370957,353.340306525812,0.775712790595938,0.334693212631998
10431,0.249622950111867,0.249999930288266,-0.0984433268809053,-0.249886138331377,-0.25,0.249999986822128,-9.01615323451957e-05,-9.01615323451957e-05,0.726324036078375,0.717764177050364,0.04,0.0443907920875784,346.449524607366,0.690391632033476,0.368722064861103
10491,0.249314550526868,0.249983251693809,-0.227266499032136,-0.249981602306874,-0.22955433714645,0.249999981586957,-0.00086967295614924,-0.00086967295614924,0.722358322854785,0.717764177050364,0.04,0.0348429300279707,344.63049103755,0.659411540477151,0.384018221175716
10551,0.249260127070691,0.249980308412435,-0.25,-0.249998448890785,-0.225946278995823,0.249999980663103,-0.0105411611060935,-0.0105411611060935,0.720319755504991,0.717764177050364,0.04,0.0283528383689627,343.65126376842,0.63929560097903,0.394976180327794
10611,-0.171782301240493,-0.174983618144924,-0.249378332883583,-0.249999767333618,0.177994733637046,0.249999997099465,0.174950390512389,0.174976759932381,0.711538409774793,0.717764177050364,0.04,0.0213904216574538,339.461326414855,0.641282204125617,0.38895180560204
10671,-0.246083906236585,-0.249977252243282,-0.249268626921863,-0.25,0.249278441748729,0.25,0.249939222139843,0.249959492060261,0.716727369204315,0.717764177050364,0.04,0.0197619254979015,341.979142440938,0.637265032011777,0.39430674545408
10731,0.175586976712204,-0.249990502242396,-0.249108967895852,-0.249999919798684,0.248360722047436,0.248126751691555,0.0785832053404848,-0.124698491618122,0.715161894698377,0.717764177050364,0.04,0.014987389118061,341.055570116417,0.637472457934222,0.393113897414884
10791,0.249999485467872,-0.249992840477533,-0.249080792773615,-0.249999905645511,0.248198771511914,0.247796178460654,0.0483439082582452,-0.180790747237313,0.71457601864143,0.717764177050364,0.04,0.0168042438157011,340.940777364792,0.668728524222767,0.374613802844809
10851,0.249984082664493,-0.24999892607163,-0.249862100860808,-0.249963968398914,0.2497290782268,0.249669426769098,0.219574596617659,-0.023312487922106,0.706746852908422,0.717764177050364,0.04,0.0289966288640559,337.168817256575,0.715077929370791,0.346456492950302
10911,0.249981364522721,-0.25,-0.249999978758548,-0.249957626531868,0.249999132352957,0.25,0.249791776916379,0.0166911906798753,0.713536541562931,0.717764177050364,0.04,0.0331757058091501,340.456660282573,0.754265939285289,0.331659173670437
10971,-0.175002795321592,0.174988607747713,-0.249999976551162,0.17500635602022,0.249999869852944,0.25,0.075508132179787,0.214798678282169,0.708307409858227,0.717764177050364,0.04,0.048872707867283,337.931739813885,0.801593180237379,0.309763075002664
11031,-0.25,0.24998659735025,-0.249999976161624,0.25,0.25,0.25,0.0447521948733297,0.249758823153162,0.716732899897994,0.717764177050364,0.04,0.0530598779979392,341.986563508786,0.823185609287793,0.305257223581224
11091,-0.25,0.249824707975341,0.174993929087745,0.249796556614981,0.249999891917005,0.25,-0.205787170769001,0.249012137083306,0.703561192283256,0.691596104260247,0.04,0.0761101860275587,335.473886864637,0.77170653978769,0.319419346000204
11151,-0.25,0.249796139262121,0.249992853543516,0.249760654841154,0.249999872843535,0.25,-0.203898795640205,0.248880368953331,0.672229802780171,0.660810136271874,0.04,0.0912634597153574,320.458054181804,0.696687612368462,0.337977492148265
11211,0.175,0.249969420889318,0.249991030538971,0.249964098226173,-0.0425951288286825,0.249389391803386,-0.108602703299473,0.106563366601607,0.660221618835381,0.656192241073618,0.04,0.0840001770122391,314.966146798445,0.660466378032058,0.350403019224909
11271,0.25,0.25,0.249990708832287,0.25,-0.0942295408884855,0.249281637415748,-0.0513010680742853,0.0814486014807142,0.653273061353954,0.656192241073618,0.04,0.0759509390639456,311.652951161915,0.665542946911619,0.344072398316252
11331,0.249812645881464,0.25,-0.174988808305533,0.249998490071881,0.198365568866727,0.249738039864876,0.175000317036454,0.224681355613074,0.64410516709364,0.656192241073618,0.04,0.0722088175774154,307.248656673458,0.714341261867062,0.31603772905683
11391,0.249779583389958,0.25,-0.249985193682795,0.249998223613978,0.25,0.249818581473546,0.25,0.249957723989373,0.65355471677993,0.656192241073618,0.04,0.0672626453770597,311.85833933855,0.75271452356895,0.304426000767572
11451,0.249966318323525,-0.175,-0.249185447834744,-0.174999129078946,0.249991630737096,-0.175027212778968,-0.00839625420443462,0.0671200928072335,0.680680573867963,0.656192241073618,0.04,0.0208095040373291,324.824069541878,0.65871815631318,0.362329125043231
11511,0.249999271547095,-0.25,-0.2490443162145,-0.249998661907109,0.249990153808348,-0.25,-0.035520526642751,0.0348546284809735,0.663573314792504,0.656192241073618,0.04,0.0154481270418269,316.507667651619,0.568814976604893,0.40885365945709
