time,bias_percent_1,bias_percent_2,bias_percent_3,bias_percent_4,bias_percent_5,bias_percent_6,bias_percent_8,bias_percent_9,normalized_power,power_SP,SP,CV,total_power_MW,fuel_fraction,thermal_efficiency
37,0,0,0,0,0,0,0,0,0.999693664342244,1,0.04,0.0399546828466726,476.959504514886,0.999758262216666,0.350542905388754
97,0.000629324939321691,0.00312196864951181,0.0101060806014224,-0.00461277007473382,0.0084788045872117,0.0123742863547429,-0.00814334451736738,0.0149620488152307,0.982705038864792,0.971057166998128,0.04,0.0480412431008775,468.538316489585,0.959938193798061,0.358638176263367
157,0.00164985186795161,0.00818462051358506,0.0264943194145402,-0.0120929377634909,0.022228217431339,0.0324406966597318,-0.0213487680590441,0.0392248306777671,0.938536652790525,0.924122843211309,0.04,0.0617330465373745,447.545868755989,0.873749170536498,0.37636172671497
217,0.00267037879658142,0.0132472723776583,0.0428825582276579,-0.0195731054522482,0.0359776302754663,0.0525071069647203,-0.0345541916007209,0.0634876125403034,0.89092343223003,0.877188519424491,0.04,0.0712625138730556,424.680266214155,0.787061176013597,0.396468116009307
277,0.00369090572521134,0.0183099242417315,0.0592707970407755,-0.0270532731410054,0.0497270431195934,0.072573517269709,-0.0477596151423977,0.0877503944028397,0.843254957730757,0.830254195637672,0.04,0.0768839893054562,401.937889422916,0.70521611072386,0.418785270941664
337,0.00471143265384114,0.0233725761058047,0.0756590358538931,-0.0345334408297629,0.0634764559637207,0.0926399275746976,-0.0609650386840745,0.112013176265376,0.795575939062215,0.783319871850853,0.04,0.0798304541115722,379.19012430983,0.627799470607492,0.443803526768008
397,0.00573195958247095,0.0284352279698778,0.0920472746670107,-0.0420136085185201,0.0772258688078478,0.112706337879686,-0.0741704622257513,0.136275958127912,0.747899283724488,0.736385548064034,0.04,0.0805325400798527,356.443693785198,0.554855649793081,0.472025650339973
457,0.00675248651110076,0.0334978798339512,0.108435513480128,-0.0494937762072773,0.090975281651975,0.132772748184675,-0.0640063069990437,0.160538739990449,0.69791174780486,0.689451224277215,0.04,0.0814093325909275,332.848952896987,0.494025699517272,0.49505372144028
517,0.00777301343973062,0.0385605316980244,0.124823752293246,-0.0569739438960347,0.104724694496102,0.152839158489664,-0.0302341416417526,0.184801521852985,0.64837604138182,0.642516900490396,0.04,0.0831414353365638,309.219478589438,0.453654010879261,0.50083741444601
577,0.00879354036836042,0.0436231835620976,0.141211991106364,-0.064454111584792,0.118474107340229,0.172905568794652,-0.0142813187417945,0.209064303715521,0.60068758089202,0.595582576703577,0.04,0.0868985638564311,286.531649707696,0.42022668465449,0.50100683364981
637,0.00981406729699023,0.0486858354261708,0.157600229919481,-0.0719342792735492,0.132223520184357,0.192971979099641,-0.00674574688205837,0.233327085578058,0.553975387688782,0.548648252916758,0.04,0.0934611128604499,264.115391382527,0.387689596145352,0.500569333949801
697,0.0108345942256202,0.053748487290244,0.173988468732599,-0.0794144469623065,0.145972933028484,0.213038389404629,-0.00318619882733374,0.257589867440594,0.507155758394035,0.50171392912994,0.04,0.102388006378935,241.779552166501,0.355070764358565,0.500333209530545
757,0.01185512115425,0.0588111391543172,0.190376707545716,-0.0868946146510638,0.159722345872611,0.233104799709618,-0.00150478866165198,0.28185264930313,0.459987315968859,0.454779605343121,0.04,0.113117336130048,219.435730098034,0.322014318242406,0.500710659817088
817,0.0128756480828798,0.0638737910183904,0.206764946358834,-0.0943747823398211,0.173471758716738,0.253171210014607,-0.000710547544313007,0.306115431165667,0.413344118136433,0.407845281556302,0.04,0.12523385106189,197.148137025898,0.287799666218981,0.503334927264936
877,0.0138961750115096,0.0689364428824636,0.223153185171952,-0.101854950028578,0.187221171560865,0.273237620319595,-0.000335374855290242,0.330378213028203,0.366869135690757,0.360910957769483,0.04,0.139261342903033,174.912326619271,0.251704914079358,0.510603042747666
937,0.0142873770008177,0.070877126097025,0.229435343383647,-0.104722347642602,0.192491779817781,0.280929744269841,-0.000158155801777958,0.339678946075509,0.333676735982758,0.342919466984536,0.04,0.133237913851089,159.132125109033,0.267737259894094,0.436720646750174
997,0.0142873770008177,0.070877126097025,0.229435343383647,-0.104722347642602,0.192491779817781,0.280929744269841,-7.44433385867079e-05,0.339678946075509,0.333142382786625,0.342919466984536,0.04,0.0950556388278718,158.984196161186,0.332055543055389,0.351801670456176
1057,0.0142873770008177,0.070877126097025,0.229435343383647,-0.104722347642602,0.192491779817781,0.280929744269841,-3.49005585398148e-05,0.339678946075509,0.337046104443807,0.342919466984536,0.04,0.0811053799939751,160.823343421097,0.373370962832249,0.316492354443374
1117,0.0142873770008177,0.070877126097025,0.229435343383647,-0.104722347642602,0.192491779817781,0.280929744269841,-1.6221960464584e-05,0.339678946075509,0.33905043429591,0.342919466984536,0.04,0.0791909135523934,161.775155054024,0.400435458099205,0.296847895426892
1177,0.0142873770008177,0.070877126097025,0.229435343383647,-0.104722347642602,0.192491779817781,0.280929744269841,-7.39885734329916e-06,0.339678946075509,0.340638144376254,0.342919466984536,0.04,0.0808520624259365,162.529260447117,0.417165597460636,0.286271259895694
1237,0.0142873770008177,0.070877126097025,0.229435343383647,-0.104722347642602,0.192491779817781,0.280929744269841,-3.23113831132021e-06,0.339678946075509,0.341743422526488,0.342919466984536,0.04,0.0835067249833968,163.05249458432,0.426228526897553,0.281086255946486
1297,0.0142873770008177,0.070877126097025,0.229435343383647,-0.104722347642602,0.192491779817781,0.280929744269841,-1.26245657987625e-06,0.339678946075509,0.342365199822905,0.342919466984536,0.04,0.0858797856287704,163.345781547258,0.430615939449451,0.278722801195253
1357,0.0142873770008177,0.070877126097025,0.229435343383647,-0.104722347642602,0.192491779817781,0.280929744269841,-3.32521589061644e-07,0.339678946075509,0.342651789215562,0.342919466984536,0.04,0.0875256434278216,163.480580608134,0.432687742442696,0.277617126970179
1417,0.0142873770008177,0.070877126097025,0.229435343383647,-0.104722347642602,0.192491779817781,0.280929744269841,1.06746512698548e-07,0.339678946075509,0.342769940855153,0.342919466984536,0.04,0.0885004136342371,163.536126309941,0.433775504027933,0.277015046811195
1477,0.0142873770008177,0.070877126097025,0.229435343383647,-0.104722347642602,0.192491779817781,0.280929744269841,3.1424108719023e-07,0.339678946075509,0.342823034289516,0.342919466984536,0.04,0.0890266272786289,163.561173663089,0.434445326347209,0.276630310990217
1537,0.0142873770008177,0.070877126097025,0.229435343383647,-0.104722347642602,0.192491779817781,0.280929744269841,4.12254119028786e-07,0.339678946075509,0.342854103211652,0.342919466984536,0.04,0.0893025791651381,163.575894852595,0.434894886581407,0.276369224412089
1597,0.0142873770008177,0.070877126097025,0.229435343383647,-0.104722347642602,0.192491779817781,0.280929744269841,4.58551977340118e-07,0.339678946075509,0.34287576532337,0.342919466984536,0.04,0.0894515358047268,163.586172002783,0.435197882579073,0.276194160668457
1657,0.0142873770008177,0.070877126097025,0.229435343383647,-0.104722347642602,0.192491779817781,0.280929744269841,4.80421433309472e-07,0.339678946075509,0.342891020223898,0.342919466984536,0.04,0.089536750437646,163.593404917127,0.435396988919167,0.276080063783584
1717,0.0142873770008177,0.070877126097025,0.229435343383647,-0.104722347642602,0.192491779817781,0.280929744269841,4.90751783823297e-07,0.339678946075509,0.34290123524037,0.342919466984536,0.04,0.0895879489652826,163.598243868867,0.435525137000514,0.276006994322128
1777,0.0142873770008177,0.070877126097025,0.229435343383647,-0.104722347642602,0.192491779817781,0.280929744269841,4.9563147273225e-07,0.339678946075509,0.342907759475604,0.342919466984536,0.04,0.0896193766855475,163.601332505851,0.435607240590215,0.275960182175121
1837,0.0241830274075835,0.0674155788416417,0.217124263712164,-0.103769115640306,0.176535678939329,0.279863496224268,4.9793646340542e-07,0.340150422097982,0.342587078599428,0.341597146043484,0.04,0.0895475030258633,163.438513523935,0.432521504256102,0.277652363840754
1897,0.0402300280672036,0.0618022589680471,0.19716035073138,-0.102223334014962,0.150660920758055,0.278134445339554,4.99025258957059e-07,0.340914977810101,0.340802028446863,0.339452841814752,0.04,0.090267898294214,162.579568663802,0.424600559789992,0.281345569763596
1957,0.0562770287268239,0.0561889390944526,0.177196437750597,-0.100677552389618,0.124786162576781,0.27640539445484,4.99539567118272e-07,0.341679533522221,0.338555761002161,0.33730853758602,0.04,0.0902207833995702,161.506820611377,0.416737828640845,0.284762383582019
2017,0.0723240293864441,0.050575619220858,0.157232524769813,-0.0991317707642739,0.0989114043955074,0.274676343570127,4.99782507938789e-07,0.34244408923434,0.336301903837477,0.335164233357287,0.04,0.089469504576265,160.43198948985,0.409611771558097,0.28778835474501
2077,0.0883710300460643,0.0449622993472635,0.13726861178903,-0.0975859891389298,0.0730366462142337,0.272947292685413,4.9989726451223e-07,0.343208644946459,0.334110784635055,0.333019929128555,0.04,0.0883956628091104,159.387015348707,0.40288937127944,0.290684452745606
2137,0.104418030705684,0.0393489794736689,0.117304698808246,-0.0960402075135856,0.0471618880329599,0.271218241800699,4.99951471422043e-07,0.343973200658579,0.331953831189007,0.330875624899823,0.04,0.087197089528954,158.358078785425,0.396296108584118,0.293612873033607
2197,0.120465031365305,0.0337356596000744,0.0973407858274624,-0.0944944258882414,0.0212871298516861,0.269489190915986,4.99977076831681e-07,0.344737756370698,0.329805525586501,0.32873132067109,0.04,0.0859189502840189,157.333130694514,0.389735960395096,0.296622698439492
2257,0.136512032024925,0.0281223397264798,0.0773768728466789,-0.0929486442628973,-0.00458762832958763,0.267760140031272,4.99989171913378e-07,0.345502312082817,0.327653913548199,0.326587016442358,0.04,0.0845469658760633,156.306541497377,0.383208915108688,0.299706544175603
2317,0.152559032684545,0.0225090198528853,0.0574129598658953,-0.0914028626375532,-0.0304623865108614,0.266031089146558,4.99994885198317e-07,0.346266867794936,0.325493316778533,0.324442712213626,0.04,0.0830522776668872,155.275638761993,0.37675946592215,0.302826465888975
2377,0.168606033344165,0.0168956999792907,0.0374490468851118,-0.0898570810122089,-0.0563371446921352,0.264302038261845,4.99997583950224e-07,0.347031423507056,0.323322677495976,0.322298407984894,0.04,0.0814082046684455,154.239955412164,0.370448125716409,0.305931478445791
2437,0.184653034003785,0.0112823801056961,0.0174851339043282,-0.0883112993868648,-0.082211902873409,0.262572987377131,4.99998858744311e-07,0.347795979219175,0.321145130569627,0.320154103756161,0.04,0.0796002560445893,153.201011563666,0.364324312462283,0.308978425087749
2497,0.200700034663406,0.00566906023210163,-0.00247877907645528,-0.0867655177615207,-0.108086661054683,0.260843936492417,4.99999460911542e-07,0.348560534931294,0.318965293299335,0.318009799527429,0.04,0.0776289248994548,152.161009862415,0.358411206854111,0.311943885574038
2557,0.216747035323026,5.57403585070233e-05,-0.0224426920572388,-0.0852197361361765,-0.133961419235956,0.259114885607704,0.00578217073455265,0.349325090643414,0.316675245904989,0.315865495298697,0.04,0.075904710749687,151.064726679042,0.352889576480606,0.314542196357494
2617,0.232794035982646,-0.00555757951508752,-0.0424066050380223,-0.0836739545108323,-0.15983617741723,0.25738583472299,0.0208937771005786,0.350089646355533,0.314373029686948,0.313721191069965,0.04,0.0742926115830986,149.969983074031,0.348725608748973,0.315991337877935
2677,0.248841036642266,-0.011170899388682,-0.0623705180188059,-0.0821281728854882,-0.185710935598504,0.255656783838276,0.0360053834666046,0.350854202067652,0.312208892171763,0.311576886841232,0.04,0.0727866037601727,148.937701257998,0.34480647960423,0.317383177899429
2737,0.25499238689512,-0.0133226720068933,-0.0700233513281063,-0.0815356232624396,-0.195629592901326,0.254993980999136,0.0417981659069145,0.351147281757298,0.309925706184945,0.3094325826125,0.04,0.072323704774968,147.846613844332,0.341171523209331,0.318414828172346
2797,0.254992386895121,-0.0133226720068933,-0.0700233513281062,-0.0815356232624396,-0.195629592901326,0.254993980999136,0.0417981659069145,0.351147281757298,0.307653243909193,0.307288278383768,0.04,0.0721957616185504,146.763666219871,0.338664832091155,0.318422045403498
2857,0.25499238689512,-0.0133226720068933,-0.0700233513281062,-0.0815356232624396,-0.195629592901326,0.254993980999136,0.0417981659069145,0.351147281757298,0.305450175112692,0.305143974155036,0.04,0.0721030382843909,145.712903320258,0.336620038927474,0.318062685841074
2917,0.25499238689512,-0.0133226720068933,-0.0700233513281062,-0.0815356232624396,-0.195629592901326,0.254993980999136,0.0417981659069145,0.351147281757298,0.303276137008602,0.302999669926303,0.04,0.0721175472961701,144.67583210449,0.334803256855093,0.317512619651037
2977,0.25499238689512,-0.0133226720068933,-0.0700233513281062,-0.0815356232624395,-0.195629592901326,0.254993980999136,0.0417981659069145,0.351147281757298,0.301117443459323,0.300855365697571,0.04,0.0722296921087307,143.646006953259,0.33309958229396,0.316864909040869
3037,0.254992386895121,-0.0133226720068933,-0.0700233513281062,-0.0815356232624396,-0.195629592901326,0.254993980999136,0.0417981659069145,0.351147281757298,0.298966871461636,0.298711061468839,0.04,0.0724149491682002,142.620013848085,0.331447470735986,0.316169841330862
3097,0.254992386895121,-0.0133226720068933,-0.0700233513281062,-0.0815356232624396,-0.195629592901326,0.254993980999136,0.0417981659069145,0.351147281757298,0.296820295837716,0.296566757240107,0.04,0.0726499815344318,141.595903477047,0.329815672240934,0.315452574764368
3157,0.254992386895121,-0.0133226720068933,-0.0700233513281062,-0.0815356232624396,-0.195629592901326,0.254993980999136,0.0417981659069145,0.351147281757298,0.294675469186051,0.294422453011374,0.04,0.0729168603151141,140.57261489084,0.328189804008186,0.314724328257229
3217,0.254992386895121,-0.0133226720068933,-0.0700233513281062,-0.0815356232624395,-0.195629592901326,0.254993980999136,0.0417981659069145,0.351147281757298,0.292531256058596,0.292278148782642,0.04,0.073203295383942,139.549612989179,0.326564269236607,0.313989154714123
3277,0.25499238689512,-0.0133226720068933,-0.0700233513281062,-0.0815356232624396,-0.195629592901326,0.254993980999136,0.0417981659069145,0.351147281757298,0.290387139698662,0.29013384455391,0.04,0.0735015203557584,138.526654703791,0.324937648315618,0.313247771328822
3337,0.25499238689512,-0.0133226720068933,-0.0700233513281062,-0.0815356232624395,-0.195629592901326,0.254993980999136,0.0417981659069145,0.351147281757298,0.288242923222041,0.287989540325177,0.04,0.0738069594524187,137.503648040131,0.323310245716358,0.312499573537867
3397,0.25499238689512,-0.0133226720068933,-0.0700233513281062,-0.0815356232624396,-0.195629592901326,0.254993980999136,0.0417981659069145,0.351147281757298,0.286098560601062,0.285845236096445,0.04,0.0741170989645991,136.48057138016,0.321682890990309,0.311743599162444
3457,0.254992386895121,-0.0133226720068933,-0.0700233513281062,-0.0815356232624396,-0.195629592901326,0.254993980999136,0.0417981659069145,0.351147281757298,0.283954065359097,0.283700931867713,0.04,0.0744306658974537,135.457431853856,0.320056424591954,0.310978929668616
3517,0.25499238689512,-0.0133226720068933,-0.0700233513281062,-0.0815356232624396,-0.195629592901326,0.254993980999136,0.0417981659069145,0.351147281757298,0.281809469160059,0.281556627638981,0.04,0.0747470857678451,134.434244317109,0.318431518795886,0.310204817590499
3577,0.254992386895121,-0.0133226720068933,-0.0700233513281062,-0.0815356232624395,-0.195629592901326,0.254993980999136,0.0417981659069145,0.351147281757298,0.279664802711832,0.279412323410248,0.04,0.0750661501544974,133.411023472563,0.316808656459724,0.309420691577043
3637,0.24042069950744,-0.022306303369936,-0.0793363071418276,-0.0746408547596809,-0.205051083750699,0.249827925681989,0.0391560516240382,0.327024293408736,0.279076435702423,0.278590340122568,0.04,0.0688917819728372,133.161401833627,0.31572618249861,0.30990061367907
3697,0.216790936176066,-0.0368743542289241,-0.094438397650565,-0.0634601490795316,-0.220329177019954,0.241450538681209,0.0348715419761305,0.28790593392458,0.279616629630969,0.278590340122568,0.04,0.0595385360275646,133.405565320993,0.310044374361625,0.316158431402133
