time,bias_percent_1,bias_percent_2,bias_percent_3,bias_percent_4,bias_percent_5,bias_percent_6,bias_percent_8,bias_percent_9,normalized_power,power_SP,SP,CV,total_power_MW,fuel_fraction,thermal_efficiency
59,0,0,0,0,0,0,0,0,0.999859575568599,1,0.04,0.0399010929494848,477.03536996029,1.00006939340178,0.350489588330794
119,-0.02536205152103,0.0111247309024202,0.011265082518671,0.0208946037138386,0.026710231767565,-0.0217561456784092,-0.0253065409839754,0.000474776744943995,0.997340136500572,0.995929911047234,0.04,0.0409912024268451,475.801025883479,0.992995283329463,0.352073116619189
179,-0.0511539683220777,0.0224380165658982,0.0227210986393532,0.0421433532533354,0.0538731793278004,-0.043881039588656,-0.0510420063914081,0.000957600553361544,0.993289419363598,0.991790837535946,0.04,0.041807745418949,473.864955362537,0.98377020204207,0.353928555928662
239,-0.0769458851231251,0.0337513022293764,0.0341771147600357,0.0633921027928323,0.0810361268880359,-0.0660059334989025,-0.0767774717988406,0.00144042436177921,0.989046462123126,0.987651764024659,0.04,0.0420757260899072,471.840150612279,0.974952512592292,0.355603565857681
299,-0.102737801924173,0.0450645878928546,0.0456331308807179,0.0846408523323291,0.108199074448271,-0.0881308274091492,-0.102512937206273,0.00192324817019687,0.9847750054403,0.983512690513371,0.04,0.042000585767002,469.802166673157,0.96689590763981,0.357017882268617
359,-0.12852971872522,0.0563778735563326,0.0570891470014002,0.105889601871826,0.135362022008507,-0.110255721319396,-0.128248402613706,0.00240607197861448,0.980502107711611,0.979373617002083,0.04,0.0417490505789691,467.763603543371,0.959645895157058,0.358154236660827
419,-0.154321635526268,0.0676911592198107,0.0685451631220826,0.127138351411323,0.162524969568743,-0.132380615229643,-0.153983868021139,0.00288889578703208,0.976237459726005,0.975234543490796,0.04,0.0414267485252969,465.729031182702,0.953169803026491,0.359019230364257
479,-0.180113552327315,0.0790044448832888,0.0800011792427648,0.14838710095082,0.189687917128978,-0.154505509139889,-0.179719333428571,0.00337171959544969,0.97198656303714,0.971095469979508,0.04,0.0410972716284853,463.701051842872,0.947394817418927,0.35963483571918
539,-0.205905469128363,0.090317730546767,0.0914571953634472,0.169635850490316,0.216850864689213,-0.176630403050136,-0.205454798836004,0.0038545434038673,0.967751986360506,0.966956396468221,0.04,0.0407965172442994,461.680868139476,0.94222693532708,0.360031946956938
599,-0.23169738592941,0.101631016210245,0.102913211484129,0.190884600029813,0.244013812249449,-0.198755296960383,-0.231190264243436,0.0043373672122849,0.963533925092151,0.962817322956933,0.04,0.0405418288279757,459.668558920449,0.937566452932578,0.360244547360205
659,-0.257489302730458,0.112944301873723,0.114369227604812,0.21213334956931,0.271176759809684,-0.220880190870629,-0.256925729650869,0.00482019102070251,0.959330953033332,0.958678249445646,0.04,0.0403383014218583,457.663431384263,0.933319304034902,0.360305291429695
719,-0.283281219531505,0.124257587537201,0.125825243725494,0.233382099108807,0.29833970736992,-0.243005084780876,-0.282661195058302,0.00530301482912017,0.955140769637857,0.954539175934358,0.04,0.0401834575959181,455.66438657408,0.929403778820771,0.360242816185497
779,-0.309073136332553,0.13557087320068,0.137281259846177,0.254630848648304,0.325502654930155,-0.265129978691123,-0.308396660465734,0.00578583863753778,0.950960810968795,0.950400102423071,0.04,0.0400707462017348,453.670200111106,0.92575324170648,0.36008057034132
839,-0.3348650531336,0.146884158864157,0.148737275966859,0.275879598187801,0.352665602490391,-0.287254872601369,-0.334132125873167,0.00626866244595539,0.946800913691354,0.946261028911783,0.04,0.0399915968712646,451.683563828052,0.922312170468476,0.359841314249297
899,-0.360656969934648,0.158197444527636,0.160193292087541,0.297128347727298,0.379828550050627,-0.309379766511616,-0.3598675912806,0.00675148625437299,0.942622516595405,0.942121955400495,0.04,0.0399394887546347,449.692083495104,0.919054337695392,0.359524697320188
959,-0.361086835214665,0.158385999288694,0.160384225689552,0.297482493552956,0.380281265843297,-0.309748514743453,-0.360296515704057,0.00675953331784666,0.940869245252525,0.942052970841974,0.04,0.0385484443729281,448.885904546842,0.924320404866678,0.35683554132489
1019,-0.361086835214665,0.158385999288694,0.160384225689553,0.297482493552956,0.380281265843297,-0.309748514743453,-0.360296515704057,0.00675953331784666,0.940866050666043,0.942052970841974,0.04,0.0376579713683608,448.888559096311,0.931684298100378,0.35401726013704
1079,-0.361086835214665,0.158385999288694,0.160384225689553,0.297482493552956,0.380281265843297,-0.309748514743453,-0.360296515704057,0.0067595333178466,0.941065520743255,0.942052970841974,0.04,0.0375133427467457,448.984007748787,0.938033742658351,0.35169572357186
1139,-0.361086835214665,0.158385999288694,0.160384225689552,0.297482493552956,0.380281265843297,-0.309748514743453,-0.360296515704057,0.00675953331784666,0.941266248531795,0.942052970841974,0.04,0.0377672965930177,449.079655105929,0.943157896752248,0.349859484113403
1199,-0.361086835214665,0.158385999288693,0.160384225689552,0.297482493552956,0.380281265843297,-0.309748514743453,-0.360296515704057,0.0067595333178466,0.941448204977989,0.942052970841974,0.04,0.0381824039233946,449.166295796452,0.947148791098199,0.348452534337944
1259,-0.361086835214665,0.158385999288694,0.160384225689552,0.297482493552956,0.380281265843297,-0.309748514743453,-0.360296515704057,0.00675953331784666,0.941606738240456,0.942052970841974,0.04,0.0386294660921491,449.241731203908,0.950138558557451,0.347414407899485
1319,-0.361086835214665,0.158385999288693,0.160384225689552,0.297482493552956,0.380281265843297,-0.309748514743453,-0.360296515704057,0.00675953331784666,0.94173894647882,0.942052970841974,0.04,0.0390423102752944,449.30459298284,0.952280208835253,0.346681586970645
1379,-0.361086835214665,0.158385999288693,0.160384225689552,0.297482493552956,0.380281265843297,-0.309748514743453,-0.360296515704057,0.0067595333178466,0.941844316642734,0.942052970841974,0.04,0.03939068758108,449.354656710488,0.953734994453717,0.346191344095709
1439,-0.361086835214665,0.158385999288693,0.160384225689553,0.297482493552956,0.380281265843297,-0.309748514743453,-0.360296515704057,0.00675953331784666,0.941924618078371,0.942052970841974,0.04,0.03966522644256,449.392780615209,0.954657912148076,0.345886005815225
1499,-0.361086835214665,0.158385999288693,0.160384225689552,0.297482493552956,0.380281265843297,-0.309748514743453,-0.360296515704057,0.00675953331784666,0.941983075748175,0.942052970841974,0.04,0.0398684612745973,449.420512382869,0.955187139510679,0.345715698125763
1559,-0.361086835214665,0.158385999288694,0.160384225689552,0.297482493552956,0.380281265843297,-0.309748514743453,-0.360296515704057,0.0067595333178466,0.942023453654139,0.942052970841974,0.04,0.0400091856552051,449.439629536054,0.955438640359436,0.345639397071633
1619,-0.361086835214665,0.158385999288694,0.160384225689553,0.297482493552956,0.380281265843297,-0.309748514743453,-0.360296515704057,0.00675953331784666,0.942049871181968,0.942052970841974,0.04,0.0400985539121378,449.452155922339,0.95550509013583,0.345624992565736
1679,-0.361086835214665,0.158385999288693,0.160384225689553,0.297482493552956,0.380281265843297,-0.309748514743453,-0.360296515704057,0.0067595333178466,0.942065605114556,0.942052970841974,0.04,0.0401483749943597,449.459590960059,0.95545703692283,0.345648093002708
1739,-0.361086835214665,0.158385999288694,0.160384225689552,0.297482493552956,0.380281265843297,-0.309748514743453,-0.360296515704057,0.0067595333178466,0.942073732541233,0.942052970841974,0.04,0.040169279431894,449.463418659439,0.955345986301112,0.345691215532138
1799,-0.361086835214665,0.158385999288694,0.160384225689552,0.297482493552956,0.380281265843297,-0.309748514743453,-0.360296515704057,0.0067595333178466,0.942076684572269,0.942052970841974,0.04,0.0401703636160604,449.46479422144,0.955207686278723,0.345742324660371
1859,-0.331000388075057,0.141260521626603,0.126562153534028,0.291699631606072,0.363769882345012,-0.292907717608927,-0.361381088317871,0.00881811391163075,0.930106843185785,0.92374056613311,0.04,0.044516321983208,443.617553389957,0.922374016833792,0.353391694302794
1919,-0.300404001153422,0.123844781631257,0.092166825918241,0.285818755049919,0.346978644889128,-0.275781483234832,-0.362484043518359,0.0109115857019196,0.911727797544297,0.905117781683418,0.04,0.0478266947634772,434.83399273064,0.881384466833607,0.362503973350005
1979,-0.269807614231786,0.106429041635911,0.0577714983024537,0.279937878493766,0.330187407433244,-0.258655248860737,-0.363586998718848,0.0130050574922087,0.892597158915696,0.886494997233726,0.04,0.0486783630152512,425.698245869943,0.842853972375423,0.371111317519502
2039,-0.23921122731015,0.0890133016405649,0.0233761706866665,0.274057001937613,0.31339616997736,-0.241529014486642,-0.364689953919336,0.0150985292824976,0.873429167873309,0.867872212784034,0.04,0.047881987615555,416.570356776931,0.807792588258182,0.378916201012349
2099,-0.208614840388515,0.0715975616452188,-0.011019156929121,0.26817612538146,0.296604932521476,-0.224402780112547,-0.365792909119825,0.0171920010727865,0.854273548193534,0.849249428334342,0.04,0.0462599290889305,407.423902962014,0.776126828020766,0.385716738065824
2159,-0.178018453466879,0.0541818216498726,-0.0454144845449083,0.262295248825307,0.279813695065593,-0.207276545738452,-0.354107765803961,0.0192854728630755,0.834542892367028,0.83062664388465,0.04,0.0445230868548993,398.141025729339,0.748849606514047,0.390658250973834
2219,-0.147422066545244,0.0367660816545265,-0.0798098121606955,0.256414372269154,0.263022457609709,-0.190150311364357,-0.340290902653441,0.0213789446533644,0.815599027696731,0.812003859434957,0.04,0.0428383895140714,389.05966420366,0.724822743521377,0.394401966521638
2279,-0.116825679623608,0.0193503416591805,-0.114205139776483,0.250533495713002,0.246231220153825,-0.173024076990262,-0.330404280529993,0.0234724164436533,0.796804778875387,0.793381074985265,0.04,0.0412480730608092,380.126816285579,0.702775287648277,0.397435542195764
