time,bias_percent_1,bias_percent_2,bias_percent_3,bias_percent_4,bias_percent_5,bias_percent_6,bias_percent_8,bias_percent_9,normalized_power,power_SP,SP,CV,total_power_MW,fuel_fraction,thermal_efficiency
29,0,0,0,0,0,0,0,0,0.999590006476283,1,0.04,0.0400033456771485,476.907454815689,0.999568840770572,0.350571073032978
89,-0.0134048858663688,-0.00351930636471718,-0.0171106299248013,-0.00197007297872415,0.00863476064867405,0.00557198699933679,0.00368944686676389,-0.000532141913397879,0.998393738967718,0.996475581260543,0.04,0.0402000955363621,476.295457538975,0.994888109043053,0.351768442384195
149,-0.0411391324864422,-0.0108006298779251,-0.0525119332174937,-0.00604608603815325,0.0264997826804137,0.017100235963482,0.0113227852117926,-0.001633125182497,0.99211375791377,0.989183680420288,0.04,0.0409903723271392,473.281397248119,0.977967877186562,0.355589984980216
209,-0.0688733791065157,-0.0180819533911331,-0.0879132365101861,-0.0101220990975825,0.0443648047121532,0.0286284849276271,0.0189561235568213,-0.00273410845159623,0.984861532163263,0.981891779580033,0.04,0.0409318077734631,469.818847137337,0.959714582480322,0.35970213646671
269,-0.0966076257265892,-0.025363276904341,-0.123314539802879,-0.0141981121570117,0.0622298267438928,0.0401567338917723,0.02658946190185,-0.00383509172069535,0.977455435968219,0.974599878739778,0.04,0.0401912125372878,466.284900437845,0.941951993940558,0.363728438828786
329,-0.124341872346663,-0.0326446004175489,-0.158715843095571,-0.0182741252164408,0.0800948487756323,0.0516849828559175,0.0342228002468787,-0.00493607498979452,0.970012390798131,0.967307977899523,0.04,0.0391025007736047,462.733588405765,0.925043831187067,0.367555892612538
389,-0.152076118966736,-0.0399259239307569,-0.194117146388263,-0.02235013827587,0.0979598708073719,0.0632132318200626,0.0418561385919074,-0.00603705825889364,0.96253413373206,0.960016077059268,0.04,0.037881111654071,459.165395251162,0.909168721385983,0.37109007621586
449,-0.179810365586809,-0.0472072474439648,-0.229518449680956,-0.0264261513352991,0.115824892839111,0.0747414807842077,0.0494894769369362,-0.00713804152799275,0.95501333776547,0.952724176219012,0.04,0.0366302346641895,455.576929167614,0.894580894700097,0.374193966222715
509,-0.207544612206883,-0.0544885709571728,-0.264919752973648,-0.0305021643947283,0.133689914870851,0.0862697297483529,0.0571228152819648,-0.00823902479709187,0.94747379323555,0.945432275378757,0.04,0.0354091201324591,451.97984433942,0.881461352025371,0.376764928458812
569,-0.235278858826956,-0.0617698944703806,-0.300321056266341,-0.0345781774541573,0.151554936902591,0.0977979787124981,0.0647561536269936,-0.00934000806619105,0.939959515559629,0.938140374538502,0.04,0.0342787490491291,448.395101866222,0.869746911606773,0.378811051627413
629,-0.263013105447029,-0.0690512179835886,-0.335722359559033,-0.0386541905135865,0.16941995893433,0.109326227676643,0.0723894919720224,-0.0104409913352902,0.932474647708279,0.930848473698247,0.04,0.0332822454265067,444.824116251264,0.859232638861672,0.380392753552153
689,-0.290747352067103,-0.0763325414967965,-0.371123662851725,-0.0427302035730157,0.18728498096607,0.120854476640788,0.080022830317051,-0.0115419746043893,0.924971528159241,0.923556572857992,0.04,0.0324001159349463,441.244124547389,0.849928779156172,0.381461820259518
749,-0.318481598687176,-0.0836138650100044,-0.406524966144418,-0.0468062166324448,0.205150002997809,0.132382725604934,0.0876561686620798,-0.0126429578734885,0.917441462874004,0.916264672017737,0.04,0.0315928616995912,437.65139050922,0.842006415475545,0.381915767233652
809,-0.34621584530725,-0.0908951885232125,-0.44192626943711,-0.050882229691874,0.223015025029549,0.143910974569079,0.0952895070071086,-0.0137439411425876,0.90990451362939,0.908972771177482,0.04,0.0308495521393722,434.055538064423,0.835550530847122,0.381704481144842
869,-0.373950091927323,-0.0981765120364204,-0.477327572729802,-0.0549582427513033,0.240880047061288,0.155439223533224,0.102922845352137,-0.0148449244116867,0.902378201115338,0.901680870337226,0.04,0.0301773453643125,430.464871784534,0.830530161923106,0.380835113136896
929,-0.388279452681028,-0.101938529184911,-0.495618246097694,-0.0570641828320083,0.250110308444354,0.161395485498032,0.106866736830402,-0.015413765767388,0.896483875061952,0.897913388236428,0.04,0.0293157982957163,427.687380131674,0.831859126680482,0.377773357577842
989,-0.388279452681028,-0.101938529184911,-0.495618246097693,-0.0570641828320083,0.250110308444353,0.161395485498032,0.106866736830402,-0.0154137657673879,0.895133601931959,0.897913388236428,0.04,0.0283329329187237,427.062903236834,0.846781926762572,0.370573999122869
1049,-0.388279452681028,-0.101938529184911,-0.495618246097693,-0.0570641828320083,0.250110308444354,0.161395485498032,0.106866736830402,-0.015413765767388,0.894704564982196,0.897913388236428,0.04,0.0281978541889822,426.861886229445,0.865384583487779,0.362437312375029
1109,-0.388279452681028,-0.101938529184911,-0.495618246097694,-0.0570641828320083,0.250110308444354,0.161395485498032,0.106866736830402,-0.015413765767388,0.894673646060856,0.897913388236428,0.04,0.0288192359878728,426.849897679291,0.884934033298802,0.354420603022587
1169,-0.388279452681028,-0.101938529184911,-0.495618246097693,-0.0570641828320083,0.250110308444354,0.161395485498032,0.106866736830402,-0.015413765767388,0.894944840969928,0.897913388236428,0.04,0.0299857147801043,426.981292593585,0.903427939275492,0.347272190557325
1229,-0.388279452681028,-0.101938529184911,-0.495618246097693,-0.0570641828320083,0.250110308444354,0.161395485498032,0.106866736830402,-0.015413765767388,0.895417654493647,0.897913388236428,0.04,0.0314894083580898,427.208057477253,0.919446476747389,0.341403255878139
1289,-0.388279452681028,-0.101938529184911,-0.495618246097693,-0.0570641828320082,0.250110308444354,0.161395485498032,0.106866736830402,-0.015413765767388,0.895991274848791,0.897913388236428,0.04,0.0331439548534663,427.482156649389,0.932182010398682,0.336955035201203
1349,-0.388279452681028,-0.101938529184911,-0.495618246097693,-0.0570641828320083,0.250110308444354,0.161395485498032,0.106866736830402,-0.0154137657673879,0.896579211899985,0.897913388236428,0.04,0.0347945707992209,427.76248498735,0.941381311570737,0.333881071000318
1409,-0.388279452681028,-0.101938529184911,-0.495618246097693,-0.0570641828320083,0.250110308444354,0.161395485498032,0.106866736830402,-0.015413765767388,0.897117872089986,0.897913388236428,0.04,0.0363236159439962,428.018897405152,0.947222108924043,0.332021183976268
1469,-0.388279452681028,-0.101938529184911,-0.495618246097693,-0.0570641828320083,0.250110308444354,0.161395485498032,0.106866736830402,-0.015413765767388,0.897568353414824,0.897913388236428,0.04,0.0376517764616964,428.233025352729,0.950165668425953,0.331158189063845
1529,-0.388279452681028,-0.101938529184911,-0.495618246097694,-0.0570641828320083,0.250110308444354,0.161395485498032,0.106866736830402,-0.0154137657673879,0.897913530779928,0.897913388236428,0.04,0.0387355705809386,428.396854504592,0.950818412607175,0.3310574506577
1589,-0.388279452681028,-0.101938529184911,-0.495618246097693,-0.0570641828320083,0.250110308444354,0.161395485498032,0.106866736830402,-0.015413765767388,0.898152900420038,0.897913388236428,0.04,0.0395622137754224,428.510247853387,0.949821023088581,0.331492808348918
1649,-0.388279452681028,-0.101938529184911,-0.495618246097693,-0.0570641828320083,0.250110308444354,0.161395485498032,0.106866736830402,-0.0154137657673879,0.898296926125131,0.897913388236428,0.04,0.0401430038283362,428.578234973432,0.947771001281622,0.332262533056864
1709,-0.388279452681028,-0.101938529184911,-0.495618246097693,-0.0570641828320083,0.250110308444354,0.161395485498032,0.106866736830402,-0.015413765767388,0.898362055004557,0.897913388236428,0.04,0.0405058759604998,428.608784658535,0.945177800203789,0.33319788164343
1769,-0.388279452681028,-0.101938529184911,-0.495618246097693,-0.0570641828320083,0.250110308444354,0.161395485498032,0.106866736830402,-0.015413765767388,0.898366908600457,0.897913388236428,0.04,0.0406888750458196,428.61069775405,0.942441160933045,0.334166905643478
1829,-0.359763731905437,-0.0861241861533327,-0.475241473194539,-0.0681132401849629,0.241752978789916,0.160159462009788,0.11901551088496,-0.0200410333827683,0.894664947806153,0.894222593449071,0.04,0.0425420431724618,426.769856078481,0.938310117922856,0.334196589292493
1889,-0.300765688921457,-0.0534048557431705,-0.433082632705255,-0.090973358846248,0.224461951918666,0.15760217203411,0.144150905480598,-0.0296146905180381,0.88670558819951,0.886586466302815,0.04,0.0461868138219756,422.987490901223,0.937168086688072,0.331638322088972
1949,-0.241767645937477,-0.0206855253330085,-0.39092379221597,-0.113833477507533,0.207170925047417,0.155044882058432,0.169286300076236,-0.0391883476533078,0.879354314393358,0.878950339156559,0.04,0.0498316388927544,419.482655296535,0.935097088132655,0.329618804621676
2009,-0.182769602953497,0.0120338050771536,-0.348764951726685,-0.136693596168818,0.189879898176166,0.152487592082755,0.194421694671874,-0.0487620047885774,0.872292893074867,0.871314212010303,0.04,0.0535671426026486,416.115917885509,0.930167787025608,0.32870605974821
2069,-0.123771559969517,0.0447531354873157,-0.306606111237401,-0.159553714830104,0.172588871304916,0.149930302107077,0.219557089267512,-0.0583356619238473,0.865398597205861,0.863678084864047,0.04,0.0574740005991234,412.826300393309,0.920964372243311,0.329366332651461
2129,-0.0647735169855372,0.0774724658974778,-0.264447270748116,-0.182413833491389,0.155297844433667,0.147373012131399,0.24469248386315,-0.0679093190591169,0.858254320067542,0.856041957717791,0.04,0.0612608094701216,409.414893177612,0.908130029962167,0.331260975154192
2189,-0.0057754740015572,0.11019179630764,-0.222288430258831,-0.205273952152674,0.138006817562417,0.144815722155721,0.269827878458788,-0.0774829761943867,0.850828207518783,0.848405830571535,0.04,0.0644009120487966,405.870577125206,0.893561772978015,0.333747225603402
2249,0.053222568982423,0.142911126717802,-0.180129589769547,-0.228134070813959,0.120715790691167,0.142258432180043,0.294963273054426,-0.0870566333296564,0.843321556373649,0.840769703425279,0.04,0.0667785287519707,402.288868071079,0.878117409725004,0.336620145831878
2309,0.112220611966403,0.175630457127964,-0.137970749280262,-0.250994189475244,0.103424763819917,0.139701142204365,0.320098667650064,-0.0966302904649261,0.835972447408943,0.833133576279023,0.04,0.0685850396597981,398.784434177645,0.861409661532172,0.34015991621975
2369,0.171218654950383,0.208349787538126,-0.0958119087909773,-0.27385430813653,0.0861337369486669,0.137143852228687,0.345234062245702,-0.106203947600196,0.828611716114414,0.825497449132767,0.04,0.0699642865962444,395.271434732915,0.842866096204552,0.344581154262415
2429,0.230216697934363,0.241069117948288,-0.0536530683016927,-0.296714426797815,0.068842710077417,0.13458656225301,0.37036945684134,-0.115777604735466,0.821126681764066,0.817861321986511,0.04,0.0706153367253156,391.699819863942,0.823170498347444,0.349637696855258
2489,0.289214740918343,0.27378844835845,-0.0114942278124081,-0.3195745454591,0.0515516832061669,0.132029272277332,0.395504851436978,-0.125351261870735,0.813587793770718,0.810225194840255,0.04,0.0702582805791673,388.102352144506,0.802773699618315,0.355228510971426
2549,0.348212783902323,0.306507778768613,0.0306646126768766,-0.342434664120385,0.034260656334917,0.129471982301654,0.420640246032616,-0.134924919006005,0.805871961841448,0.802589067693999,0.04,0.0689129130081654,384.418971197337,0.782393604581263,0.361022439566636
2609,0.407210826886303,0.339227109178775,0.0728234531661612,-0.36529478278167,0.0169696294636672,0.126914692325976,0.445775640628254,-0.142015392966204,0.797868339134127,0.794952940547743,0.04,0.0669368529343312,380.597923482639,0.763634469052417,0.366214526524701
2669,0.466208869870283,0.371946439588937,0.114982293655446,-0.388154901442956,-0.000321397407582708,0.124357402350298,0.470911035223892,-0.0726667772212544,0.787702793638097,0.787316813401487,0.04,0.0660830163296247,375.740033733557,0.757275209572993,0.364576277667652
2729,0.496691192078673,0.388851426967521,0.136764361241576,-0.399965962751286,-0.00925509462439516,0.123036135862865,0.483897655764972,-0.0343249443081228,0.779404221111805,0.779680686255231,0.04,0.0646185937475911,371.79942759863,0.758602033731262,0.360121781940432
2789,0.496691192078673,0.388851426967521,0.136764361241576,-0.399965962751286,-0.00925509462439527,0.123036135862865,0.483897655764972,-0.0162136338235006,0.772021353942361,0.772044559108975,0.04,0.0632496787524067,368.316482869356,0.759091085361324,0.356518392693708
2849,0.496691192078673,0.388851426967521,0.136764361241576,-0.399965962751286,-0.00925509462439516,0.123036135862865,0.483897655764972,-0.00765848370795633,0.764726351633586,0.764408431962719,0.04,0.0629687968899916,364.789688356905,0.75739667426119,0.353894518570149
2909,0.496691192078673,0.388851426967521,0.136764361241576,-0.399965962751286,-0.00925509462439527,0.123036135862865,0.483897655764972,-0.00361733056670019,0.757310660401219,0.756772304816463,0.04,0.0631328286217417,361.253860919629,0.754245794593298,0.351928368548058
2969,0.496691192078673,0.388851426967521,0.136764361241576,-0.399965962751286,-0.00925509462439516,0.123036135862865,0.483897655764972,-0.00170843404510849,0.749858523533704,0.749136177670207,0.04,0.0635139928012624,357.698031446887,0.749880866600868,0.350492681233562
3029,0.496691192078673,0.388851426967521,0.136764361241576,-0.399965962751286,-0.00925509462439516,0.123036135862865,0.483897655764972,-0.000806739453771276,0.742355767172588,0.741500050523951,0.04,0.0639811295643465,354.118095105363,0.744614676285722,0.349438863153877
3089,0.496691192078673,0.388851426967521,0.136764361241576,-0.399965962751286,-0.00925509462439516,0.123036135862865,0.483897655764972,-0.000380811108870127,0.734811789394212,0.733863923377695,0.04,0.0644713739005813,350.518581508406,0.738716905851056,0.348648405728018
3149,0.496691192078673,0.38885142696752,0.136764361241576,-0.399965962751286,-0.00925509462439527,0.123036135862865,0.483897655764972,-0.000179617759444489,0.727237837937067,0.726227796231439,0.04,0.0649590954821093,346.904852347532,0.732389859471928,0.348034845792534
3209,0.496691192078673,0.388851426967521,0.136764361241576,-0.399965962751286,-0.00925509462439516,0.123036135862865,0.483897655764972,-8.45812014454055e-05,0.719643043257425,0.718591669085183,0.04,0.0654367269118924,343.281240225115,0.72577597213928,0.347537890503188
3269,0.496691192078673,0.388851426967521,0.136764361241576,-0.399965962751286,-0.00925509462439527,0.123036135862865,0.483897655764972,-3.96893231500402e-05,0.712033949826012,0.710955541938927,0.04,0.0659042588322321,339.650847549787,0.718973279515559,0.347115996929591
3329,0.496691192078673,0.388851426967521,0.136764361241576,-0.399965962751286,-0.00925509462439527,0.123036135862865,0.483897655764972,-1.8484001963066e-05,0.704415066978218,0.703319414792671,0.04,0.0663642161982574,336.015815731357,0.71204889465964,0.346740506385628
3389,0.496691192078673,0.388851426967521,0.136764361241576,-0.399965962751286,-0.00925509462439527,0.123036135862865,0.483897655764972,-8.4673650185199e-06,0.696789474425141,0.695683287646415,0.04,0.0668195261534522,332.37760041576,0.705048793043393,0.346391519537906
3449,0.496691192078673,0.388851426967521,0.136764361241576,-0.399965962751286,-0.00925509462439527,0.123036135862865,0.483897655764972,-3.73586320375515e-06,0.689159245845246,0.688047160500159,0.04,0.0672727580836273,328.737189280837,0.698004654105505,0.346055053330541
3509,0.496691192078673,0.388851426967521,0.136764361241576,-0.399965962751286,-0.00925509462439516,0.123036135862865,0.483897655764972,-1.50087060623394e-06,0.681525818268966,0.680411033353903,0.04,0.067725952641879,325.095259253774,0.690938349968597,0.345721201896417
3569,0.496691192078673,0.388851426967521,0.136764361241576,-0.399965962751286,-0.00925509462439527,0.123036135862865,0.483897655764972,-4.45139866495665e-07,0.673890176307995,0.672774906207647,0.04,0.0681806714745907,321.45228082331,0.683865000311506,0.345382883061357
3629,0.487540984015756,0.392186356793697,0.14266845533064,-0.37583343178592,-0.0157370461988619,0.126195727110533,0.477135418670195,5.35496576059008e-08,0.667746299013272,0.668829573848748,0.04,0.0679389133222502,318.561503577162,0.682859860273395,0.342780717842546
3689,0.468609519057997,0.399086211606474,0.154883822411462,-0.325904057374819,-0.0291479804908621,0.132732812450536,0.463144583301691,2.89112791355604e-07,0.66686181688969,0.668829573848748,0.04,0.0663763971702209,318.160601794162,0.694152687628448,0.336779824442797
3749,0.449678054100238,0.405986066419252,0.167099189492284,-0.275974682963718,-0.0425589147828622,0.139269897790539,0.449153747933187,4.00384408865418e-07,0.667177105785986,0.668829573848748,0.04,0.06592805635227,318.313174257967,0.704838921680482,0.331832876409759
3809,0.430746589142479,0.41288592123203,0.179314556573106,-0.226045308552616,-0.0559698490748624,0.145806983130542,0.435162912564683,4.52945149870018e-07,0.667487115774971,0.668829573848748,0.04,0.0662901346170313,318.4599508579,0.713455769022263,0.32797628780741
3869,0.41181512418472,0.419785776044808,0.191529923653928,-0.176115934141514,-0.0693807833668625,0.152344068470545,0.421172077196179,4.7777296811135e-07,0.667654613011963,0.668829573848748,0.04,0.066940385033851,318.538901941558,0.720788056110182,0.324720400092394
3929,0.392883659226961,0.426685630857586,0.20374529073475,-0.126186559730413,-0.0827917176588627,0.158881153810548,0.407181241827675,4.89500743383215e-07,0.667731762521388,0.668829573848748,0.04,0.0676358611420859,318.575220336627,0.727502332624152,0.321760166713196
3989,0.373952194269202,0.433585485670363,0.215960657815571,-0.0762571853193116,-0.0962026519508628,0.165418239150552,0.393190406459172,4.95040525875999e-07,0.667766406024353,0.668829573848748,0.04,0.0683041368136637,318.591532642889,0.733938898049573,0.318954695458614
4049,0.355020729311443,0.440485340483141,0.228176024896393,-0.02632781090821,-0.109613586242863,0.171955324490555,0.379199571090668,4.97657321419565e-07,0.667782477591458,0.668829573848748,0.04,0.0689357397739638,318.599105557187,0.740248413814101,0.316243598413749
4109,0.336089264353684,0.447385195295919,0.240391391977215,0.0236015635028916,-0.123024520534863,0.178492409830558,0.365208735722164,4.98893402245074e-07,0.667789818440311,0.668829573848748,0.04,0.0695365841527693,318.60255785861,0.74649890974232,0.313599063194893
4169,0.317157799395924,0.454285050108697,0.252606759058037,0.0735309379139929,-0.136435454826863,0.185029495170561,0.35121790035366,4.99477282713287e-07,0.667792345573118,0.668829573848748,0.04,0.0701132927031406,318.603734433923,0.752725613847964,0.311006054507953
4229,0.298226334438165,0.461184904921475,0.264822126138859,0.123460312325094,-0.149846389118863,0.191566580510564,0.337227064985156,4.99753087008705e-07,0.667791868257205,0.668829573848748,0.04,0.0706704905642621,318.603487096316,0.758949671289184,0.308455290789783
4289,0.279294869480407,0.468084759734252,0.277037493219681,0.173389686736196,-0.163257323410863,0.198103665850567,0.323236229616652,4.99883367114844e-07,0.667789430730743,0.668829573848748,0.04,0.0712111333903283,318.602312068026,0.765184750464214,0.305940726116504
4349,0.260363404522647,0.47498461454703,0.289252860300503,0.223319061147298,-0.176668257702864,0.20464075119057,0.309245394248148,4.99944906787495e-07,0.667785736617705,0.668829573848748,0.04,0.071737148967618,318.600540371422,0.771439712365723,0.303458420170142
4409,0.241431939564888,0.481884469359808,0.301468227381324,0.273248435558399,-0.190079191994864,0.211177836530573,0.295254558879644,4.99973975932602e-07,0.66778126245538,0.668829573848748,0.04,0.0722498645666414,318.598402246741,0.77772012335219,0.301005848119651
4469,0.222500474607129,0.488784324172585,0.313683594462146,0.323177809969501,-0.203490126286864,0.217714921870576,0.28126372351114,4.99987707159318e-07,0.667776342358003,0.668829573848748,0.04,0.0727502244409664,318.596052608614,0.784029265926463,0.298581429350287
4529,0.212719217712287,0.492349249159188,0.319994867453904,0.348974653415236,-0.210419109004397,0.221092415962911,0.274035125237413,4.99994193300774e-07,0.667859754792074,0.668829573848748,0.04,0.0728626515106532,318.637950452352,0.790184769567179,0.296294453398239
4589,0.212719217712287,0.492349249159187,0.319994867453904,0.348974653415236,-0.210419109004397,0.221092415962911,0.274035125237413,4.99997257122517e-07,0.668162923744597,0.668829573848748,0.04,0.0727457890096517,318.782906334591,0.794823250354594,0.294699323794512
4649,0.212719217712287,0.492349249159187,0.319994867453904,0.348974653415236,-0.210419109004397,0.221092415962911,0.274035125237413,4.99998704362566e-07,0.66841634391581,0.668829573848748,0.04,0.0728189869282729,318.903051662812,0.797773343294091,0.2937202104217
4709,0.212719217712287,0.492349249159187,0.319994867453904,0.348974653415236,-0.210419109004397,0.221092415962911,0.274035125237413,4.99999387987116e-07,0.668576103884558,0.668829573848748,0.04,0.0729454027405117,318.978619393871,0.799580369564741,0.293125855137379
4769,0.212719217712287,0.492349249159187,0.319994867453904,0.348974653415236,-0.210419109004397,0.221092415962911,0.274035125237413,4.99999710906955e-07,0.66867001294778,0.668829573848748,0.04,0.0730580225737101,319.023027369401,0.800705328397455,0.292754776519351
4829,0.212719217712287,0.492349249159187,0.319994867453904,0.348974653415236,-0.210419109004397,0.221092415962911,0.274035125237413,4.99999863442763e-07,0.668725998449258,0.668829573848748,0.04,0.073140486563035,319.049517969195,0.80142773987093,0.292515173176726
4889,0.212719217712287,0.492349249159187,0.319994867453904,0.348974653415236,-0.210419109004397,0.221092415962911,0.274035125237413,4.99999935495235e-07,0.668760883066143,0.668829573848748,0.04,0.0731962949997768,319.06603698763,0.80190358840214,0.292356731255452
4949,0.212719217712287,0.492349249159187,0.319994867453904,0.348974653415236,-0.210419109004397,0.221092415962911,0.274035125237413,4.99999969530251e-07,0.668783508596866,0.668829573848748,0.04,0.0732330169303263,319.076756688361,0.802221652199606,0.292250636489385
5009,0.212719217712287,0.492349249159187,0.319994867453904,0.348974653415236,-0.210419109004397,0.221092415962911,0.274035125237413,4.99999985607178e-07,0.66879852911045,0.668829573848748,0.04,0.0732570581722587,319.083874949565,0.802435694994215,0.292179199215008
5069,0.212719217712287,0.492349249159187,0.319994867453904,0.348974653415236,-0.210419109004397,0.221092415962911,0.274035125237413,4.99999993201345e-07,0.668808590913106,0.668829573848748,0.04,0.0732728437051863,319.088643613084,0.802580217084575,0.292130951761845
5129,0.212719217712287,0.492349249159188,0.319994867453904,0.348974653415236,-0.210419109004397,0.221092415962911,0.274035125237413,4.99999996788558e-07,0.668815339794584,0.668829573848748,0.04,0.0732832412157578,319.091842111917,0.802678111029034,0.292098251639371
5189,0.212719217712287,0.492349249159187,0.319994867453904,0.348974653415236,-0.210419109004397,0.221092415962911,0.274035125237413,4.99999998483029e-07,0.668819860212023,0.668829573848748,0.04,0.073290091200263,319.09398441378,0.802744754448118,0.292075962717342
5249,0.212719217712287,0.492349249159187,0.319994867453904,0.348974653415236,-0.210419109004397,0.221092415962911,0.274035125237413,4.99999999283437e-07,0.668822883189108,0.668829573848748,0.04,0.0732945880747946,319.095417020977,0.802790488216941,0.292060634820405
5309,0.212719217712287,0.492349249159188,0.319994867453904,0.348974653415236,-0.210419109004397,0.221092415962911,0.274035125237413,4.99999999661521e-07,0.668824902946733,0.668829573848748,0.04,0.0732975173603742,319.09637419104,0.802822247900761,0.292049956929609
5369,0.212719217712287,0.492349249159187,0.319994867453904,0.348974653415236,-0.210419109004397,0.221092415962911,0.274035125237413,4.99999999840115e-07,0.668826252230681,0.668829573848748,0.04,0.0732994008314127,319.097013621548,0.802844672402397,0.292042384808794
5429,0.21709901145991,0.467307918586218,0.313850912063011,0.346148386925306,-0.190924565185128,0.223701642935191,0.25545573838805,4.99999999924476e-07,0.669145531385538,0.668829573848748,0.04,0.0728611302303333,319.254139109417,0.802130174077309,0.292446453582993
5489,0.226160653696371,0.415498269124903,0.301139280219782,0.340300939015104,-0.150591026248707,0.229100043567494,0.217015627665229,4.99999999964325e-07,0.669538823064733,0.668829573848748,0.04,0.0721266330683416,319.438801483292,0.798494186886737,0.293948051177379
5549,0.235222295932833,0.363688619663587,0.288427648376554,0.334453491104903,-0.110257487312287,0.234498444199797,0.178575516942409,4.99999999983148e-07,0.669685908619861,0.668829573848748,0.04,0.0713873996125962,319.507834468292,0.793586450394777,0.295829816325861
5609,0.244283938169294,0.311878970202272,0.275716016533325,0.328606043194702,-0.0699239483758668,0.2398968448321,0.140135406219589,4.9999999999204e-07,0.669744144630491,0.668829573848748,0.04,0.0705285063716029,319.535233842251,0.788194484604082,0.297879103234333
5669,0.253345580405755,0.260069320740956,0.263004384690097,0.3227585952845,-0.0295904094394465,0.245295245464403,0.101695295496768,4.9999999999624e-07,0.669772504794336,0.668829573848748,0.04,0.0695478964251348,319.548629546746,0.782586645736586,0.300026214813307
5729,0.262407222642217,0.208259671279641,0.250292752846868,0.316911147374299,0.0107431294969738,0.250693646096707,0.0632551847739476,4.99999999998224e-07,0.669789254640858,0.668829573848748,0.04,0.068457518420318,319.556557697461,0.776858965664038,0.302245767729692
5789,0.271468864878678,0.156450021818325,0.23758112100364,0.311063699464097,0.051076668433394,0.25609204672901,0.0248150740511272,0.0176969350699738,0.669234097944057,0.668829573848748,0.04,0.0677290214577669,319.278000613201,0.772048899748596,0.303863728898467
5849,0.280530507115139,0.10464037235701,0.224869489160411,0.305216251553896,0.0914102073698144,0.261490447361313,4.99999999999604e-07,0.0739743033936673,0.668093058052189,0.668829573848748,0.04,0.0675696184726899,318.738247076506,0.774139990712693,0.302530631017589
5909,0.289592149351601,0.0528307228956945,0.212157857317183,0.299368803643695,0.131743746306235,0.266888847993616,4.99999999999813e-07,0.130251671717361,0.667714696636878,0.668829573848748,0.04,0.0677847580084821,318.567239861248,0.780639547086804,0.299850819555577
5969,0.298653791588062,0.0010210734343791,0.199446225473955,0.293521355733493,0.172077285242655,0.272287248625919,4.99999999999912e-07,0.186529040041054,0.667882681037922,0.668829573848748,0.04,0.0684232170256131,318.648365668904,0.786722277760755,0.297608220648146
6029,0.307715433824524,-0.0507885760269364,0.186734593630726,0.287673907823292,0.212410824179075,0.277685649258222,4.99999999999958e-07,0.242806408364747,0.668040596536316,0.668829573848748,0.04,0.0693426966110943,318.723084673495,0.791739635751601,0.295791581409781
6089,0.316777076060985,-0.102598225488252,0.174022961787498,0.281826459913091,0.252744363115495,0.283084049890525,4.9999999999998e-07,0.299083776688441,0.668118567132362,0.668829573848748,0.04,0.0702852381817829,318.759721763791,0.796130032715789,0.294194201117773
6149,0.325838718297446,-0.154407874949567,0.161311329944269,0.275979012002889,0.293077902051916,0.288482450522828,4.99999999999991e-07,0.355361145012134,0.668140982267845,0.668829573848748,0.04,0.0711263849862249,318.770092348382,0.80028713330656,0.292675527650406
6209,0.334900360533907,-0.206217524410883,0.148599698101041,0.270131564092688,0.333411440988336,0.293880851155132,4.99999999999996e-07,0.411638513335827,0.668133803726977,0.668829573848748,0.04,0.0718339960415445,318.766511520642,0.804437163916323,0.291162365954718
6269,0.343962002770369,-0.258027173872198,0.135888066257812,0.264284116182487,0.373744979924756,0.299279251787435,4.99999999999998e-07,0.467915881659521,0.668113745331002,0.668829573848748,0.04,0.0724153565918931,318.756888467079,0.808687599448241,0.289623282567256
6329,0.348643851259207,-0.284795492760545,0.129320389805478,0.261262934762216,0.394583975041907,0.302068425447458,4.99999999999999e-07,0.496992521960096,0.666366131967092,0.662763710539352,0.04,0.0751023668326153,317.864520451777,0.801302900064851,0.29147413161246
6389,0.348643851259207,-0.284795492760545,0.129320389805478,0.261262934762216,0.394583975041907,0.302068425447458,5e-07,0.496992521960096,0.655648598171467,0.65021364851991,0.04,0.0819832552187147,312.708602393326,0.76920508206689,0.298711786961883
6449,0.348643851259207,-0.284795492760545,0.129320389805478,0.261262934762216,0.394583975041907,0.302068425447458,5e-07,0.496992521960096,0.642360469133589,0.637663586500469,0.04,0.086584322386778,306.362625300216,0.738509712300159,0.304813534965828
6509,0.348643851259207,-0.284795492760545,0.129320389805478,0.261262934762216,0.394583975041907,0.302068425447458,5e-07,0.496992521960096,0.62889255962668,0.625113524481027,0.04,0.0890587460116814,299.938426329946,0.713415194036298,0.308918864839745
6569,0.348643851259207,-0.284795492760545,0.129320389805478,0.261262934762216,0.394583975041907,0.302068425447458,5e-07,0.496992521960096,0.615666404664514,0.612563462461586,0.04,0.0904506561647776,293.630302207442,0.692915555389995,0.311368903565937
6629,0.348643851259207,-0.284795492760545,0.129320389805478,0.261262934762216,0.394583975041907,0.302068425447458,5e-07,0.496992521960096,0.602673375995059,0.600013400442144,0.04,0.0914527971549496,287.432902725296,0.675519405448472,0.312646324652246
6689,0.348643851259207,-0.284795492760545,0.129320389805478,0.261262934762216,0.394583975041907,0.302068425447458,5e-07,0.496992521960096,0.589844247230078,0.587463338422703,0.04,0.092403611054608,281.31317035341,0.660100053156565,0.313137423404931
6749,0.348643851259207,-0.284795492760545,0.129320389805478,0.261262934762216,0.394583975041907,0.302068425447458,5e-07,0.496992521960096,0.577121103132027,0.574913276403261,0.04,0.0934373518546974,275.243618082088,0.645912294755969,0.313111041663566
6809,0.348643851259207,-0.284795492760545,0.129320389805478,0.261262934762216,0.394583975041907,0.302068425447458,5e-07,0.496992521960096,0.564464211993954,0.56236321438382,0.04,0.094591488783129,269.205423161722,0.632485437363215,0.31274325377695
6869,0.348643851259207,-0.284795492760545,0.129320389805478,0.261262934762216,0.394583975041907,0.302068425447458,5e-07,0.496992521960096,0.551847920070994,0.549813152364378,0.04,0.0958644115853348,263.186436159943,0.619529117805786,0.312145053091083
6929,0.348643851259207,-0.284795492760545,0.129320389805478,0.261262934762216,0.394583975041907,0.302068425447458,5e-07,0.496992521960096,0.539256093158754,0.537263090344937,0.04,0.0972424463977564,257.179025589712,0.606867289372604,0.311384143581426
6989,0.348643851259207,-0.284795492760545,0.129320389805478,0.261262934762216,0.394583975041907,0.302068425447458,5e-07,0.496992521960096,0.52667883903633,0.524713028325495,0.04,0.0987111418795596,251.178505900859,0.594394670998369,0.310500455715232
7049,0.348643851259207,-0.284795492760545,0.129320389805478,0.261262934762216,0.394583975041907,0.302068425447458,5e-07,0.496992521960096,0.514110150110796,0.512162966306054,0.04,0.100259081342736,245.182035488332,0.582049091452836,0.309516429499017
7109,0.348643851259207,-0.284795492760545,0.129320389805478,0.261262934762216,0.394583975041907,0.302068425447458,5e-07,0.496992521960096,0.501546459765717,0.499612904286613,0.04,0.101878594512323,239.187926816229,0.569794184494244,0.30844371015228
7169,0.348643851259207,-0.284795492760545,0.129320389805478,0.261262934762216,0.394583975041907,0.302068425447458,5e-07,0.496992521960096,0.488985654504242,0.487062842267171,0.04,0.103565307303097,233.195185046768,0.557608860322102,0.307287284253663
7229,0.328423247550969,-0.26014027589734,0.126189728624917,0.261306244841432,0.39362806899762,0.299126177085918,5e-07,0.482160649543951,0.476853057588599,0.47451278024773,0.04,0.105013172636373,227.412483976553,0.544526389365723,0.306866900238714
7289,0.286587515740821,-0.209129482387262,0.119712498596171,0.26139585190188,0.391650332354268,0.293038766682732,5e-07,0.451474016958824,0.464550719289142,0.461962718228288,0.04,0.106654308108406,221.537068303757,0.528510927790279,0.307997441608592
7349,0.244751783930673,-0.158118688877184,0.113235268567425,0.261485458962327,0.389672595710915,0.286951356279545,5e-07,0.420787384373697,0.45188710569459,0.449412656208847,0.04,0.107952221552062,215.494351797647,0.512749343323386,0.308805804524242
7409,0.202916052120525,-0.107107895367106,0.106758038538679,0.261575066022775,0.387694859067563,0.280863945876359,5e-07,0.39010075178857,0.439191013425113,0.436862594189405,0.04,0.108855013030807,209.437167257467,0.497860162105977,0.309101459210484
7469,0.161080320310377,-0.0560971018570281,0.100280808509933,0.261664673083222,0.385717122424211,0.274776535473173,5e-07,0.359414119203443,0.426521599904088,0.424312532169964,0.04,0.109538532682793,203.392836349029,0.483749182047481,0.308937114056804
7529,0.119244588500229,-0.00508630834694998,0.0938035784811872,0.26175428014367,0.383739385780858,0.268689125069987,5e-07,0.328727486618316,0.413880602523512,0.411762470150522,0.04,0.110127021292986,197.362012679664,0.470238867150152,0.308389596835904
7589,0.077408856690081,0.045924485163128,0.0873263484524412,0.261843887204118,0.381761649137506,0.2626017146668,5e-07,0.298040854033189,0.40126015989903,0.399212408131081,0.04,0.110682997471027,191.34093055998,0.457188795196665,0.307515478100551
7649,0.0355731248799331,0.0969352786732061,0.0808491184236951,0.261933494264565,0.379783912494153,0.256514304263614,0.0207737224590028,0.267354221448061,0.388216738073683,0.386662346111639,0.04,0.111983389910351,185.112123355829,0.445457616298446,0.305339612422355
7709,-0.00626260693021482,0.147946072183284,0.0743718883949492,0.262023101325013,0.377806175850801,0.250426893860428,0.0639817747615279,0.236667588862934,0.375316578097441,0.374112284092198,0.04,0.113356618952356,178.963216401985,0.43724929012782,0.300738714965956
7769,-0.0480983387403628,0.198956865693362,0.0678946583662031,0.26211270838546,0.375828439207449,0.244339483457242,0.107189827064053,0.205980956277807,0.362782450667941,0.361562222072756,0.04,0.115156427804858,172.984170188612,0.429392877207927,0.296009877234454
7829,-0.0899340705505107,0.24996765920344,0.0614174283374572,0.262202315445908,0.373850702564097,0.238252073054056,0.150397879366578,0.17529432369268,0.350289244125566,0.349012160053315,0.04,0.11749510459741,167.023586052695,0.421214110206782,0.291359758875964
7889,-0.131769802360659,0.300978452713518,0.0549401983087112,0.262291922506356,0.371872965920744,0.232164662650869,0.193605931669103,0.144607691107553,0.337772334967063,0.336462098033873,0.04,0.120179819416449,161.051524787048,0.412777694260651,0.286683895069426
7949,-0.173605534170807,0.351989246223596,0.0484629682799653,0.262381529566803,0.369895229277392,0.226077252247683,0.236813983971629,0.113921058522426,0.325224947065116,0.323912036014432,0.04,0.123071935761598,155.064933721901,0.404263587977266,0.281840660498277
8009,-0.215441265980955,0.403000039733674,0.0419857382512192,0.262471136627251,0.367917492634039,0.219989841844497,0.280022036274154,0.0832344259372992,0.312670088930367,0.31136197399499,0.04,0.126118560237343,149.076162729022,0.395815218141655,0.276739016933623
8069,-0.257276997791102,0.454010833243752,0.0355085082224732,0.262560743687698,0.365939755990687,0.213902431441311,0.323230088576679,0.0525477933521721,0.300421033972669,0.298811911975549,0.04,0.129896986080153,143.233979183268,0.386261881990746,0.272470118939793
8129,-0.278892125893012,0.480366409890626,0.0321619393742878,0.26260704066893,0.364917925391622,0.210757269399664,0.345554248932984,0.0366930331831898,0.290376885963121,0.292327713265504,0.04,0.128102947365196,138.50223032201,0.38538864336098,0.264066026519244
8189,-0.278892125893012,0.480366409890626,0.0321619393742878,0.26260704066893,0.364917925391622,0.210757269399664,0.345554248932984,0.0366930331831898,0.288985304250082,0.292327713265504,0.04,0.116528254324454,137.879151340367,0.405142937558471,0.250060448167784
8249,-0.278892125893012,0.480366409890626,0.0321619393742878,0.26260704066893,0.364917925391622,0.210757269399664,0.345554248932984,0.0366930331831898,0.289947928591317,0.292327713265504,0.04,0.110348387483938,138.342968851617,0.4216644726932,0.241070881878372
8309,-0.278892125893012,0.480366409890626,0.0321619393742878,0.262607040668929,0.364917925391622,0.210757269399664,0.345554248932984,0.0366930331831898,0.290933379812204,0.292327713265504,0.04,0.108820914682383,138.810781448957,0.431898682688279,0.236154375133924
8369,-0.278892125893012,0.480366409890626,0.0321619393742878,0.26260704066893,0.364917925391622,0.210757269399664,0.345554248932984,0.0366930331831898,0.29156807960054,0.292327713265504,0.04,0.109182208713371,139.110837364138,0.437582658917721,0.23359069466797
8429,-0.278892125893012,0.480366409890626,0.0321619393742878,0.26260704066893,0.364917925391622,0.210757269399664,0.345554248932984,0.0366930331831898,0.291913064258245,0.292327713265504,0.04,0.109950566479182,139.273643692812,0.440665225785137,0.2322281346186
8489,-0.278892125893012,0.480366409890626,0.0321619393742878,0.26260704066893,0.364917925391622,0.210757269399664,0.345554248932984,0.0366930331831898,0.292089971638707,0.292327713265504,0.04,0.1105998475365,139.357112529249,0.44239570778871,0.23145838087926
8549,-0.278892125893012,0.480366409890626,0.0321619393742878,0.26260704066893,0.364917925391622,0.210757269399664,0.345554248932984,0.0366930331831898,0.292182929492624,0.292327713265504,0.04,0.111037671476654,139.401014457664,0.443426889076426,0.230992875754877
8609,-0.278892125893012,0.480366409890626,0.0321619393742878,0.26260704066893,0.364917925391622,0.210757269399664,0.345554248932984,0.0366930331831898,0.292235633659429,0.292327713265504,0.04,0.111307613213028,139.425940970881,0.444073715787986,0.230697661320985
8669,-0.278892125893012,0.480366409890626,0.0321619393742878,0.26260704066893,0.364917925391622,0.210757269399664,0.345554248932984,0.0366930331831898,0.29226794349389,0.292327713265504,0.04,0.111469443310932,139.441238380686,0.444491194340845,0.230506271334636
8729,-0.278892125893012,0.480366409890626,0.0321619393742878,0.26260704066893,0.364917925391622,0.210757269399664,0.345554248932984,0.0366930331831898,0.292288687900661,0.292327713265504,0.04,0.111566847207605,139.451064572828,0.444763415955882,0.230381421263637
8789,-0.278892125893012,0.480366409890626,0.0321619393742878,0.26260704066893,0.364917925391622,0.210757269399664,0.345554248932984,0.0366930331831898,0.292302197742869,0.292327713265504,0.04,0.111626388392769,139.457464236427,0.444941318533119,0.230299875381163
8849,-0.278892125893012,0.480366409890626,0.0321619393742878,0.26260704066893,0.364917925391622,0.210757269399664,0.345554248932984,0.0366930331831898,0.2923109708474,0.292327713265504,0.04,0.111663258266288,139.4616196139,0.445057853656653,0.230246433441861
8909,-0.278892125893012,0.480366409890626,0.0321619393742878,0.26260704066893,0.364917925391622,0.210757269399664,0.345554248932984,0.0366930331831898,0.292316624812626,0.292327713265504,0.04,0.111686173479332,139.464297275777,0.445134726699608,0.23021109074079
8969,-0.278892125893012,0.480366409890626,0.0321619393742878,0.262607040668929,0.364917925391622,0.210757269399664,0.345554248932984,0.0366930331831898,0.292320245727945,0.292327713265504,0.04,0.111700311209433,139.466011968498,0.445186146843825,0.230187330852184
9029,-0.260149089881403,0.456650578490417,0.0278551305815481,0.243022713495344,0.344451029707566,0.217026515267395,0.324304446810861,0.0384529844052436,0.293082262685602,0.292327713265504,0.04,0.108133288504427,139.837349898845,0.443547906015796,0.23165267945145
9089,-0.22137039468497,0.407583341110673,0.0189444917000177,0.202503415894821,0.302105728292279,0.229997368786837,0.280339338971985,0.0420942627956996,0.29375183956559,0.292327713265504,0.04,0.103874776036644,140.153290482395,0.4361682710346,0.236104304548772
9149,-0.182591699488537,0.358516103730929,0.0100338528184873,0.161984118294298,0.259760426876991,0.242968222306279,0.23637423113311,0.0457355411861557,0.294188997393694,0.292327713265504,0.04,0.0997688632379351,140.36010185728,0.425783845012965,0.242219538015514
9209,-0.143813004292104,0.309448866351186,0.00112321393695692,0.121464820693775,0.217415125461704,0.25593907582572,0.192409123294235,0.0493768195766117,0.294404590255453,0.292327713265504,0.04,0.0952484444080126,140.461430212091,0.413667507459399,0.249494141953622
9269,-0.105034309095671,0.260381628971442,-0.0077874249445735,0.080945523093252,0.175069824046417,0.268909929345162,0.148444015455359,0.0530180979670678,0.294477000407611,0.292327713265504,0.04,0.0899311613189794,140.495237400159,0.40087363733025,0.257518706416405
9329,-0.0662556138992376,0.211314391591698,-0.0166980638261039,0.0404262254927291,0.132724522631129,0.281880782864604,0.104478907616484,0.0566593763575238,0.294496420387977,0.292327713265504,0.04,0.0836990181319326,140.50437743836,0.387893058290126,0.266153709615474
9389,-0.0274769187028046,0.162247154211954,-0.0256087027076343,-9.30721077937164e-05,0.0903792212158419,0.294851636384046,0.0605137997776089,0.0603006547479798,0.294537861875744,0.292327713265504,0.04,0.0765659840021801,140.524704135453,0.374750630009582,0.275527520673435
9449,0.0113017764936285,0.11317991683221,-0.0345193415891647,-0.0406123697083166,0.0480339198005545,0.307822489903488,0.0165486919387335,0.0639419331384359,0.294705114901878,0.292327713265504,0.04,0.0686574716586894,140.605674708651,0.360910531920834,0.286258221953724
9509,0.0500804716900616,0.0641126794524668,-0.0434299804706951,-0.0811316673088394,0.00568861838526715,0.32079334342293,4.26562271545413e-07,0.0675832115288919,0.294292301235261,0.292327713265504,0.04,0.0616941946921639,140.406655493153,0.347350539899322,0.297012271048206
