time,bias_percent_1,bias_percent_2,bias_percent_3,bias_percent_4,bias_percent_5,bias_percent_6,bias_percent_8,bias_percent_9,normalized_power,power_SP,SP,CV,total_power_MW,fuel_fraction,thermal_efficiency
15,0,0,0,0,0,0,0,0,0.999470485079707,1,0.04,0.0402002798448959,476.783786971899,0.998904838424164,0.350713140531217
75,-0.00299315478795881,-0.00142427199420331,-0.00244677376394316,-0.00632957443334442,0.00888773065630323,-0.00642636622447435,0.00737293463535104,0.00785925165115907,0.997826072900176,0.995332603071603,0.04,0.0409183456323984,475.972667706952,0.995151406624837,0.351437037692067
135,-0.0149657739397941,-0.00712135997101643,-0.0122338688197156,-0.0316478721667218,0.0444386532815158,-0.0321318311223718,0.0368646731767553,0.0392962582557952,0.981901552357634,0.976663015358016,0.04,0.045759254692005,468.321847651297,0.965505743967308,0.356405365060823
195,-0.0269383930916295,-0.0128184479478297,-0.022020963875488,-0.0569661699000992,0.0799895759067283,-0.057837296020269,0.0663564117181595,0.0707332648604313,0.963364322492557,0.957993427644429,0.04,0.0490429575892517,459.471533272707,0.932246543377078,0.36214500899288
255,-0.0389110122434647,-0.0185155359246428,-0.0318080589312605,-0.0822844676334768,0.115540498531941,-0.0835427609181664,0.0958481502595637,0.102170271465068,0.944489220177779,0.939323839930842,0.04,0.0506688194585743,450.465106568989,0.899893464685712,0.367811017634342
315,-0.0508836313953001,-0.024212623901456,-0.041595153987033,-0.107602765366854,0.151091421157154,-0.109248225816064,0.125339888800968,0.133607278069704,0.925539741804206,0.920654252217254,0.04,0.051206281829899,441.424318997038,0.869072069181868,0.373211604836037
375,-0.0628562505471355,-0.0299097118782693,-0.0513822490428054,-0.132921063100232,0.186642343782366,-0.134953690713961,0.154831627342372,0.16504428467434,0.90659355893747,0.901984664503667,0.04,0.0510797242554824,432.385204394394,0.839924876420834,0.378255330306751
435,-0.0748288696989706,-0.0356067998550824,-0.0611693440985778,-0.158239360833609,0.222193266407579,-0.160659155611859,0.184323365883776,0.196481291278976,0.887671850825257,0.88331507679008,0.04,0.0505862107772888,423.357918158828,0.812350555016444,0.38292955023281
495,-0.086801488850806,-0.0413038878318956,-0.0709564391543503,-0.183557658566987,0.257744189032791,-0.186364620509756,0.213815104425181,0.227918297883612,0.868779288183493,0.864645489076493,0.04,0.0499222464512551,414.34443088354,0.786167098072218,0.387258820229092
555,-0.0987741080026414,-0.0470009758087087,-0.0807435342101227,-0.208875956300364,0.293295111658004,-0.212070085407653,0.243306842966585,0.259355304488248,0.850040776884984,0.845975901362906,0.04,0.0491757681375944,405.399624004841,0.761211374353537,0.391320634255803
615,-0.110746727154477,-0.052698063785522,-0.0905306292658951,-0.234194254033741,0.328846034283216,-0.237775550305551,0.272798581507989,0.290792311092884,0.830786050168992,0.827306313649318,0.04,0.0485041782348589,396.351722843835,0.737883199938558,0.394682439709882
675,-0.122719346306312,-0.0583951517623351,-0.100317724321668,-0.259512551767119,0.364396956908429,-0.263481015203448,0.302290320049393,0.322229317697521,0.812565057874771,0.808636725935731,0.04,0.0478218753457336,387.526015335802,0.714609477344587,0.398461868774333
735,-0.134691965458147,-0.0640922397391483,-0.11010481937744,-0.284830849500496,0.399947879533642,-0.289186480101346,0.331782058590797,0.353666324302157,0.793555254637436,0.789967138222144,0.04,0.0474025949006337,378.451128547854,0.69211052995591,0.401780656601571
795,-0.146664584609983,-0.0697893277159615,-0.119891914433212,-0.310149147233874,0.435498802158854,-0.314891944999243,0.361273797132202,0.385103330906793,0.774618860344822,0.771297550508557,0.04,0.046891933951846,369.418951918624,0.670510708460947,0.404825750730318
855,-0.158637203761818,-0.0754864156927747,-0.129679009488985,-0.335467444967251,0.471049724784067,-0.34059740989714,0.390765535673606,0.416540337511429,0.75584582193776,0.75262796279497,0.04,0.0462577937799069,360.46856234473,0.650003921032868,0.407479809335901
915,-0.167616668125694,-0.0797592316753845,-0.137019330780814,-0.354456168267284,0.497712916752976,-0.359876508570563,0.412884339579659,0.440118092464906,0.739453235787806,0.738625772009779,0.04,0.0440203783529994,352.771164712155,0.635739799562235,0.407725951203791
975,-0.167616668125694,-0.0797592316753845,-0.137019330780814,-0.354456168267284,0.497712916752976,-0.359876508570563,0.412884339579659,0.440118092464906,0.736866257439266,0.738625772009779,0.04,0.0375854513590463,351.548824284456,0.643292306650111,0.401542916036963
1035,-0.167616668125694,-0.0797592316753846,-0.137019330780814,-0.354456168267284,0.497712916752976,-0.359876508570563,0.412884339579659,0.440118092464906,0.735839850115126,0.738625772009779,0.04,0.0331334984971053,351.062876937421,0.658144482921355,0.391938872326164
1095,-0.167616668125694,-0.0797592316753845,-0.137019330780814,-0.354456168267284,0.497712916752976,-0.359876508570563,0.412884339579659,0.440118092464906,0.735249535308233,0.738625772009779,0.04,0.0308184169560148,350.784519257764,0.677397415971331,0.380497282657418
1155,-0.167616668125694,-0.0797592316753846,-0.137019330780814,-0.354456168267284,0.497712916752976,-0.359876508570563,0.412884339579659,0.440118092464906,0.735064631617458,0.738625772009779,0.04,0.0302141174108117,350.699453843498,0.698584053572021,0.368868099343241
1215,-0.167616668125694,-0.0797592316753845,-0.137019330780814,-0.354456168267284,0.497712916752976,-0.359876508570563,0.412884339579659,0.440118092464906,0.735256140348046,0.738625772009779,0.04,0.0308597463935961,350.793573688517,0.719368117069679,0.358306856968069
1275,-0.167616668125694,-0.0797592316753846,-0.137019330780814,-0.354456168267284,0.497712916752976,-0.359876508570563,0.412884339579659,0.440118092464906,0.735746515268561,0.738625772009779,0.04,0.0323362815635663,351.029463032231,0.737771111383728,0.349604166881387
1335,-0.167616668125694,-0.0797592316753846,-0.137019330780814,-0.354456168267284,0.497712916752976,-0.359876508570563,0.412884339579659,0.440118092464906,0.736417779307437,0.738625772009779,0.04,0.0342730162916637,351.350645883844,0.752453486123665,0.343096094045446
1395,-0.167616668125694,-0.0797592316753846,-0.137019330780814,-0.354456168267284,0.497712916752976,-0.359876508570563,0.412884339579659,0.440118092464906,0.737146188606053,0.738625772009779,0.04,0.0363540427391898,351.698177436363,0.762824803440861,0.338766134176556
1455,-0.167616668125694,-0.0797592316753846,-0.137019330780814,-0.354456168267284,0.497712916752976,-0.359876508570563,0.412884339579659,0.440118092464906,0.737832152680568,0.738625772009779,0.04,0.0383310752384279,352.024805379811,0.768952220767643,0.336378777439566
1515,-0.167616668125694,-0.0797592316753845,-0.137019330780814,-0.354456168267284,0.497712916752976,-0.359876508570563,0.412884339579659,0.440118092464906,0.73841721667841,0.738625772009779,0.04,0.0400313323235981,352.300297335987,0.771354381981595,0.335593650236916
1575,-0.167616668125694,-0.0797592316753846,-0.137019330780814,-0.354456168267284,0.497712916752976,-0.359876508570563,0.412884339579659,0.440118092464906,0.738854148340031,0.738625772009779,0.04,0.0413526761445993,352.51025264241,0.770825835383314,0.336023899050041
1635,-0.167616668125694,-0.0797592316753845,-0.137019330780814,-0.354456168267284,0.497712916752976,-0.359876508570563,0.412884339579659,0.440118092464906,0.739154373185379,0.738625772009779,0.04,0.0422585072418703,352.65238721424,0.768200243697704,0.337308327904275
1695,-0.167616668125694,-0.0797592316753846,-0.137019330780814,-0.354456168267284,0.497712916752976,-0.359876508570563,0.412884339579659,0.440118092464906,0.739323961065789,0.738625772009779,0.04,0.0427603652218416,352.732336134981,0.764298177754314,0.339107290518904
1755,-0.167616668125694,-0.0797592316753846,-0.137019330780814,-0.354456168267284,0.497712916752976,-0.359876508570563,0.412884339579659,0.440118092464906,0.739384068834168,0.738625772009779,0.04,0.0429063270405267,352.760241185658,0.759822993346313,0.34113154040426
1815,-0.172234753084638,-0.0778142945666374,-0.131178624323543,-0.351121637478248,0.488616549019146,-0.347091311394934,0.406435358472846,0.433968719251759,0.738784232803597,0.737544418049696,0.04,0.0430206962464274,352.444605352846,0.754187699107559,0.343372965349871
1875,-0.190707092920415,-0.0700345461316488,-0.107815798494458,-0.337783514322104,0.452231078083827,-0.295950522692417,0.380639434045594,0.409371226399169,0.735037795976579,0.733219002209361,0.04,0.0437299857068049,350.653766159555,0.743612245567245,0.346486765672522
1935,-0.209179432756191,-0.06225479769666,-0.0844529726653735,-0.324445391165959,0.415845607148507,-0.2448097339899,0.354843509618343,0.384773733546578,0.730815828034404,0.728893586369026,0.04,0.0440549661842004,348.638046901618,0.731990207562472,0.349964655369855
1995,-0.227651772591967,-0.0544750492616713,-0.0610901468362888,-0.311107268009814,0.379460136213188,-0.193668945287383,0.329047585191092,0.360176240693988,0.726461940471775,0.724568170528691,0.04,0.0439514098082532,346.559973878279,0.720300524728131,0.353524362129713
2055,-0.246124112427744,-0.0466953008266828,-0.0377273210072041,-0.29776914485367,0.343074665277868,-0.142528156584866,0.30325166076384,0.335578747841398,0.722022117749338,0.720242754688356,0.04,0.0435109600424957,344.441198931825,0.709139680991961,0.356892959703141
2115,-0.26459645226352,-0.0389155523916939,-0.0143644951781192,-0.284431021697525,0.306689194342549,-0.0913873678823487,0.277455736336589,0.310981254988808,0.717531272905958,0.715917338848021,0.04,0.0428449374155749,342.298342126267,0.698883315661891,0.359877586488769
2175,-0.283068792099297,-0.0311358039567053,0.0089983306509655,-0.271092898541381,0.270303723407229,-0.0402465791798317,0.251659811909337,0.286383762136218,0.713021014212304,0.711591923007686,0.04,0.0420664607104209,340.14646330637,0.689711362858761,0.362370850281498
2235,-0.301541131935073,-0.0233560555217167,0.0323611564800503,-0.257754775385236,0.23391825247191,0.0108942095226854,0.225863887482085,0.261786269283628,0.708519248220071,0.707266507167351,0.04,0.0412796097741324,337.998824835161,0.681626964243038,0.364353633102536
2295,-0.320013471770849,-0.0155763070867279,0.0557239823091352,-0.244416652229091,0.19753278153659,0.0620349982252026,0.200067963054834,0.237188776431037,0.704038647171481,0.702941091327016,0.04,0.0405646370658248,335.861268869418,0.674516181761583,0.365866147808222
2355,-0.338485811606626,-0.00779655865173936,0.0790868081382199,-0.231078529072947,0.161147310601271,0.11317578692772,0.174272038627583,0.212591283578447,0.699569417874652,0.698615675486681,0.04,0.0399491361593021,333.73056885256,0.668299709946256,0.366926765345053
2415,-0.356958151442402,-1.68102167506277e-05,0.102449633967305,-0.217740405916802,0.124761839665951,0.164316575630237,0.148476114200331,0.187993790725857,0.69509526378766,0.694290259646346,0.04,0.0394418223868106,331.594424278194,0.662953381138648,0.367518246459181
2475,-0.375430491278178,0.00776293821823799,0.125812459796389,-0.204402282760657,0.088376368730632,0.215457364332754,0.122680189773079,0.163396297873267,0.690635326253008,0.689964843806011,0.04,0.0390259011964453,329.466728431471,0.658447281037571,0.36765902491942
2535,-0.393902831113955,0.0155426866532267,0.149175285625474,-0.191064159604513,0.0519908977953125,0.266598153035271,0.0968842653458279,0.138798805020677,0.686196817127304,0.685639427965676,0.04,0.0387119877216793,327.349308287098,0.6546670337316,0.367405481619344
2595,-0.412375170949731,0.0233224350882155,0.172538111454559,-0.177726036448368,0.015605426859993,0.317738941737788,0.0710883409185764,0.114201312168086,0.681783748034989,0.681314012125342,0.04,0.0385030507935694,325.244039314532,0.651465612553996,0.366836487034901
2655,-0.430847510785507,0.0311021835232041,0.195900937283644,-0.164387913292224,-0.0207800440753265,0.368879730440305,0.0452924164913249,0.0896038193154961,0.677395826189896,0.676988596285007,0.04,0.0383934174733976,323.150753437663,0.648689856236185,0.366035107903858
2715,-0.44470176566234,0.0369369948494456,0.213423056655457,-0.154384320925115,-0.0480691472768161,0.407235321967193,0.0259454731708863,0.0711556996760535,0.673040048056176,0.672663180444672,0.04,0.0382312044742469,321.072585742701,0.646224519374921,0.365068591039933
2775,-0.44470176566234,0.0369369948494456,0.213423056655457,-0.154384320925115,-0.0480691472768161,0.407235321967193,0.0259454731708862,0.0711556996760535,0.668243724019083,0.668337764604337,0.04,0.0380574695343828,318.818466491197,0.646230145932993,0.362502437594973
2835,-0.44470176566234,0.0369369948494456,0.213423056655457,-0.154384320925115,-0.0480691472768161,0.407235321967193,0.0259454731708863,0.0711556996760535,0.663997513245191,0.664012348764002,0.04,0.0381767486083621,316.7907046042,0.646360081148056,0.360124426230463
2895,-0.44470176566234,0.0369369948494456,0.213423056655457,-0.154384320925115,-0.0480691472768161,0.407235321967193,0.0259454731708862,0.0711556996760536,0.65977814176701,0.659686932923667,0.04,0.0386493970339261,314.746619095902,0.645758533037447,0.358134035473447
2955,-0.44470176566234,0.0369369948494456,0.213423056655457,-0.154384320925115,-0.0480691472768161,0.407235321967193,0.0259454731708862,0.0711556996760535,0.655576947286794,0.655361517083332,0.04,0.0392097490883927,312.742403446922,0.644514080370689,0.356540637031213
3015,-0.44470176566234,0.0369369948494456,0.213423056655457,-0.154384320925115,-0.0480691472768161,0.407235321967193,0.0259454731708863,0.0711556996760535,0.651379091280212,0.651036101242997,0.04,0.0397874939674792,310.739540912783,0.642497272112548,0.35536930092903
3075,-0.44470176566234,0.0369369948494456,0.213423056655457,-0.154384320925115,-0.048069147276816,0.407235321967193,0.0259454731708863,0.0711556996760535,0.647167961474584,0.646710685402662,0.04,0.0403056219883985,308.730214659307,0.639766759334956,0.354578288720469
3135,-0.44470176566234,0.0369369948494456,0.213423056655457,-0.154384320925115,-0.048069147276816,0.407235321967193,0.0259454731708862,0.0711556996760535,0.642933411565155,0.642385269562327,0.04,0.0407194485242302,306.709764647857,0.636436708797134,0.354100922198448
3195,-0.44470176566234,0.0369369948494456,0.213423056655457,-0.154384320925115,-0.0480691472768161,0.407235321967193,0.0259454731708862,0.0711556996760535,0.638674870188353,0.638059853721992,0.04,0.0410116739754357,304.677818692822,0.632655078309467,0.353857590090199
3255,-0.44470176566234,0.0369369948494456,0.213423056655457,-0.154384320925115,-0.048069147276816,0.407235321967193,0.0259454731708863,0.0711556996760535,0.634392417925957,0.633734437881657,0.04,0.0411851918418471,302.634480289429,0.628567623866997,0.353770060525346
3315,-0.44470176566234,0.0369369948494456,0.213423056655457,-0.154384320925115,-0.0480691472768161,0.407235321967193,0.0259454731708863,0.0711556996760535,0.630089021796021,0.629409022041322,0.04,0.0412553527647784,300.58117938243,0.624307015893043,0.353767754461051
3375,-0.44470176566234,0.0369369948494456,0.213423056655457,-0.154384320925115,-0.0480691472768161,0.407235321967193,0.0259454731708863,0.0711556996760535,0.625768927305481,0.625083606200987,0.04,0.0412444918471431,298.519948565713,0.619982538792339,0.35379246260319
3435,-0.44470176566234,0.0369369948494456,0.213423056655457,-0.154384320925115,-0.0480691472768161,0.407235321967193,0.0259454731708863,0.0711556996760535,0.621436784354294,0.620758190360653,0.04,0.041177324522789,296.453005836863,0.615676041854153,0.353800368136292
3495,-0.44470176566234,0.0369369948494456,0.213423056655457,-0.154384320925115,-0.0480691472768161,0.407235321967193,0.0259454731708863,0.0711556996760535,0.617097038916373,0.616432774520318,0.04,0.0410775172874656,294.382469331775,0.611442039349708,0.353762117767251
3555,-0.44470176566234,0.0369369948494456,0.213423056655457,-0.154384320925115,-0.0480691472768161,0.407235321967193,0.0259454731708862,0.0711556996760535,0.612753542009718,0.612107358679983,0.04,0.0409653932294875,292.310171134878,0.607310568405463,0.353661483810145
3615,-0.442347587131988,0.0322858364017585,0.214538072626257,-0.157195079088877,-0.0462228204220327,0.408115504005028,0.0173072635329862,0.0672583944889186,0.609247954676946,0.608863296799732,0.04,0.0398303658222463,290.687631778903,0.604047562318384,0.353598239423338
3675,-0.432930873010584,0.0136812026110102,0.218998136509457,-0.168438111743925,-0.0388375130028986,0.411636232156367,-0.0172455750186137,0.051669173740379,0.609201498583847,0.608863296799732,0.04,0.0366978474412021,290.649882058921,0.601860290838181,0.354837194353449
3735,-0.423514158889179,-0.00492343117973803,0.223458200392657,-0.179681144398974,-0.0314522055837645,0.415156960307707,-0.0517984135702136,0.0360799529918395,0.609177204830639,0.608863296799732,0.04,0.0341826354568816,290.638118622394,0.599913850442487,0.355974067528389
3795,-0.414097444767774,-0.0235280649704863,0.227918264275857,-0.190924177054022,-0.0240668981646305,0.418677688459047,-0.0863512521218135,0.0204907322432999,0.609121981109595,0.608863296799732,0.04,0.0322918172433037,290.611579934622,0.598236432179395,0.356939601208709
3855,-0.40468073064637,-0.0421326987612347,0.232378328159057,-0.20216720970907,-0.0166815907454965,0.422198416610386,-0.120904090673413,0.00490151149476043,0.609055651493472,0.608863296799732,0.04,0.0309215642685218,290.579940203526,0.596946730713656,0.357671823037955
3915,-0.395264016524965,-0.0607373325519828,0.236838392042257,-0.213410242364118,-0.00929628332636241,0.425719144761726,-0.155456929225013,-0.0106877092537792,0.608998080503946,0.608863296799732,0.04,0.0299856733518463,290.552594271669,0.596027670984694,0.358189632298461
3975,-0.38584730240356,-0.079341966342731,0.241298455925457,-0.224653275019166,-0.00191097590722836,0.429239872913066,-0.190009767776613,-0.0262769300023187,0.608959213189002,0.608863296799732,0.04,0.0294034145884602,290.534217976481,0.595383047331707,0.358554767077549
4035,-0.376430588282156,-0.0979466001334793,0.245758519808657,-0.235896307674215,0.00547433151190558,0.432760601064405,-0.224562606328213,-0.0418661507508583,0.608941725458215,0.608863296799732,0.04,0.0290955022138686,290.526041621254,0.594887144035792,0.3588435625354
4095,-0.367013874160751,-0.116551233924228,0.250218583691857,-0.247139340329263,0.0128596389310396,0.436281329215745,-0.259115444879813,-0.0574553714993978,0.608943672600338,0.608863296799732,0.04,0.0289865905131925,290.527109196122,0.594417627421914,0.359128324350088
4155,-0.357597160039347,-0.135155867714976,0.254678647575057,-0.258382372984311,0.0202449463501736,0.439802057367084,-0.293668283431413,-0.0730445922479373,0.60896059329316,0.608863296799732,0.04,0.0290093251308831,290.535279445092,0.593874702044402,0.359466751259471
4215,-0.348180445917942,-0.153760501505724,0.259138711458257,-0.269625405639359,0.0276302537693077,0.443322785518424,-0.328221121983013,-0.0886338129964769,0.608987117048942,0.608863296799732,0.04,0.0291075272394574,290.54798907332,0.593189605857169,0.359897655681662
4275,-0.338763731796537,-0.172365135296472,0.263598775341457,-0.280868438294407,0.0350155611884418,0.446843513669764,-0.362773960534613,-0.104223033745016,0.609018081800203,0.608863296799732,0.04,0.0292377246645637,290.562778676358,0.592325420758554,0.360441082011152
4335,-0.329347017675133,-0.190969769087221,0.268058839224657,-0.292111470949455,0.0424008686075758,0.450364241821103,-0.397326799086213,-0.119812254493556,0.609049199385524,0.608863296799732,0.04,0.0293691037627604,290.577611856692,0.591272983942206,0.361101082608442
4395,-0.319930303553728,-0.209574402877969,0.272518903107857,-0.303354503604504,0.0497861760267098,0.453884969972443,-0.431879637637813,-0.135401475242096,0.609077367590418,0.608863296799732,0.04,0.0294822746774543,290.591018235819,0.590044250901508,0.361869749551095
4455,-0.310513589432323,-0.228179036668717,0.276978966991057,-0.314597536259552,0.0571714834458438,0.457405698123783,-0.466432476189413,-0.150990695990635,0.609100700318952,0.608863296799732,0.04,0.0295673155182207,290.602107221605,0.588664954045167,0.3627314854498
4515,-0.30345105384127,-0.242132512011778,0.280324014903457,-0.323029810750838,0.0627104640101943,0.460046244237287,-0.492347105103113,-0.16268261155204,0.608686102274076,0.608863296799732,0.04,0.0302457122426434,290.379808770452,0.587752489477256,0.363016707838548
4575,-0.30345105384127,-0.242132512011778,0.280324014903457,-0.323029810750838,0.0627104640101943,0.460046244237287,-0.492347105103113,-0.16268261155204,0.60803426362058,0.608863296799732,0.04,0.0316054746553637,290.092084709107,0.592215251188398,0.35992413354881
4635,-0.30345105384127,-0.242132512011778,0.280324014903457,-0.323029810750838,0.0627104640101943,0.460046244237287,-0.492347105103113,-0.16268261155204,0.608018842322782,0.608863296799732,0.04,0.0331313056195101,290.086304118513,0.597346267104941,0.3568253883212
4695,-0.30345105384127,-0.242132512011778,0.280324014903457,-0.323029810750838,0.0627104640101943,0.460046244237287,-0.492347105103113,-0.16268261155204,0.608125941528093,0.608863296799732,0.04,0.0347786011662514,290.138011913527,0.602028207813351,0.354113486007594
4755,-0.30345105384127,-0.242132512011778,0.280324014903457,-0.323029810750838,0.0627104640101943,0.460046244237288,-0.492347105103113,-0.16268261155204,0.608286345061351,0.608863296799732,0.04,0.0363572068273164,290.214796326421,0.605834933683229,0.351981562624406
4815,-0.30345105384127,-0.242132512011778,0.280324014903457,-0.323029810750838,0.0627104640101943,0.460046244237287,-0.492347105103113,-0.16268261155204,0.608462633510396,0.608863296799732,0.04,0.0377433542368993,290.29891011742,0.608600694333988,0.350483549214261
4875,-0.30345105384127,-0.242132512011778,0.280324014903457,-0.323029810750838,0.0627104640101943,0.460046244237287,-0.492347105103113,-0.16268261155204,0.608628507887823,0.608863296799732,0.04,0.0388727136177093,290.377888188563,0.610339369889112,0.349580205838862
4935,-0.30345105384127,-0.242132512011778,0.280324014903457,-0.323029810750838,0.0627104640101944,0.460046244237288,-0.492347105103113,-0.16268261155204,0.608767992634791,0.608863296799732,0.04,0.0397249097296401,290.444186728698,0.611181452605653,0.349178261531957
4995,-0.30345105384127,-0.242132512011778,0.280324014903457,-0.323029810750838,0.0627104640101943,0.460046244237287,-0.492347105103113,-0.16268261155204,0.608873908171031,0.608863296799732,0.04,0.0403109675595356,290.494443434584,0.61131741164085,0.349161009377248
5055,-0.30345105384127,-0.242132512011778,0.280324014903457,-0.323029810750838,0.0627104640101943,0.460046244237287,-0.492347105103113,-0.16268261155204,0.608945594780976,0.608863296799732,0.04,0.0406626770934222,290.528382331528,0.610954009504729,0.349409511432724
5115,-0.30345105384127,-0.242132512011778,0.280324014903457,-0.323029810750838,0.0627104640101944,0.460046244237288,-0.492347105103113,-0.16268261155204,0.608986426844086,0.608863296799732,0.04,0.0408234660187133,290.547638576725,0.610284792943233,0.349815845741164
5175,-0.30345105384127,-0.242132512011778,0.280324014903457,-0.323029810750838,0.0627104640101943,0.460046244237287,-0.492347105103113,-0.16268261155204,0.609002035342963,0.608863296799732,0.04,0.040840912652107,290.554910568365,0.609473334065938,0.350290361095138
5235,-0.30345105384127,-0.242132512011778,0.280324014903457,-0.323029810750838,0.0627104640101943,0.460046244237288,-0.492347105103113,-0.16268261155204,0.608998842537956,0.608863296799732,0.04,0.040761106108483,290.55326381039,0.608645730433201,0.350764679016845
5295,-0.30345105384127,-0.242132512011778,0.280324014903457,-0.323029810750838,0.0627104640101943,0.460046244237288,-0.492347105103113,-0.16268261155204,0.608983121243874,0.608863296799732,0.04,0.0406247725041438,290.545687190221,0.607889762285967,0.351191729817212
5355,-0.30345105384127,-0.242132512011778,0.280324014903457,-0.323029810750838,0.0627104640101943,0.460046244237288,-0.492347105103113,-0.16268261155204,0.608960406890994,0.608863296799732,0.04,0.0404650446910343,290.534814223683,0.607258266761014,0.351543782358752
5415,-0.292870818859644,-0.239083145651476,0.280992028282602,-0.322901301666306,0.0667303129179894,0.454319648413438,-0.487558158487879,-0.161483369442288,0.609125283422374,0.608863296799732,0.04,0.0405835402408202,290.591000936125,0.606446202917356,0.352082594563623
5475,-0.25054987893314,-0.226885680210265,0.283664081799181,-0.322387265328176,0.0828097085491693,0.431413265118043,-0.468402372026946,-0.156686401003281,0.607429013111729,0.608863296799732,0.04,0.0425774599863472,289.801128521007,0.613550196670944,0.347060069136289
5535,-0.208228939006637,-0.214688214769054,0.28633613531576,-0.321873228990047,0.0988891041803493,0.408506881822648,-0.449246585566013,-0.151889432564274,0.607285545649646,0.608863296799732,0.04,0.0444324462051893,289.736147787934,0.622931661642731,0.341756633243091
5595,-0.165907999080133,-0.202490749327843,0.289008188832339,-0.321359192651917,0.114968499811529,0.385600498527253,-0.43009079910508,-0.147092464125268,0.607395128283979,0.608863296799732,0.04,0.046586705906652,289.78961514655,0.6320394127079,0.336894044340165
5655,-0.123587059153629,-0.190293283886633,0.291680242348918,-0.320845156313788,0.131047895442709,0.362694115231857,-0.410935012644146,-0.142295495686261,0.607608722832326,0.608863296799732,0.04,0.0487833795974009,289.892047929567,0.640037892144635,0.332801513230381
5715,-0.0812661192271257,-0.178095818445422,0.294352295865497,-0.320331119975658,0.147127291073889,0.339787731936462,-0.391779226183213,-0.137498527247254,0.607863048068642,0.608863296799732,0.04,0.0508191016352404,290.013533562387,0.646570030615405,0.32957735992837
5775,-0.0389451793006219,-0.165898353004211,0.297024349382076,-0.319817083637528,0.163206686705069,0.316881348641067,-0.37262343972228,-0.132701558808247,0.608123154633886,0.608863296799732,0.04,0.0525777192797638,290.137610182822,0.651542474657041,0.32720201744947
5835,0.00337576062588164,-0.153700887563,0.299696402898655,-0.319303047299399,0.179286082336249,0.293974965345671,-0.353467653261346,-0.12790459036924,0.608449230595798,0.608863296799732,0.04,0.0540719459368494,290.294156680087,0.654765575930315,0.325767032562769
5895,0.0456967005523854,-0.141503422121789,0.302368456415234,-0.318789010961269,0.195365477967429,0.271068582050276,-0.334311866800413,-0.123107621930234,0.608857075340558,0.608863296799732,0.04,0.0554455648661625,290.489137637343,0.655665333282814,0.325538495164627
5955,0.0880176404788891,-0.129305956680579,0.305040509931813,-0.31827497462314,0.211444873598609,0.248162198754881,-0.31515608033948,-0.118310653491227,0.609265526717973,0.608863296799732,0.04,0.0567586157343538,290.683255585317,0.654046305185067,0.326562412096198
6015,0.130338580405393,-0.117108491239368,0.307712563448392,-0.31776093828501,0.227524269229789,0.225255815459485,-0.296000293878547,-0.11351368505222,0.609571885107273,0.608863296799732,0.04,0.0578050406446827,290.829462435184,0.650451097884639,0.328532566018144
6075,0.172659520331896,-0.104911025798157,0.310384616964971,-0.317246901946881,0.243603664860969,0.20234943216409,-0.276844507417613,-0.108716716613213,0.609889765043303,0.608863296799732,0.04,0.0585013412805671,290.98060385966,0.64490997753984,0.331527547598334
6135,0.2149804602584,-0.0927135603569462,0.31305667048155,-0.316732865608751,0.259683060492149,0.179443048868695,-0.25768872095668,-0.103919748174206,0.610107238047775,0.608863296799732,0.04,0.0587264089912919,291.08333278387,0.637827897760884,0.335326985107715
6195,0.257301400184903,-0.0805160949157353,0.315728723998129,-0.316218829270622,0.275762456123329,0.1565366655733,-0.238532934495747,-0.0991227797351994,0.610167404189545,0.608863296799732,0.04,0.0583885442261214,291.110585971944,0.630034808065361,0.339506529180339
6255,0.299622340111407,-0.0683186294745245,0.318400777514708,-0.315704792932492,0.291841851754509,0.133630282277904,-0.219377148034814,-0.0943258112961926,0.610042460612819,0.608863296799732,0.04,0.0575222526067542,291.049607524299,0.622616906654465,0.343479470591117
6315,0.331363045056285,-0.0591705303936163,0.320404817652142,-0.315319265678895,0.303901398477894,0.116450494806358,-0.176777648597191,-0.0907280849669375,0.609656230256754,0.610819995247466,0.04,0.0560122304713416,290.896314892612,0.621498657168788,0.343916253624657
6375,0.331363045056285,-0.0591705303936164,0.320404817652142,-0.315319265678895,0.303901398477894,0.116450494806358,-0.135261314117291,-0.0907280849669375,0.615836287709263,0.618646789038406,0.04,0.0496651078682305,293.875624683141,0.637204744298798,0.338874773965771
6435,0.331363045056285,-0.0591705303936164,0.320404817652142,-0.315319265678895,0.303901398477894,0.116450494806358,-0.103730929004707,-0.0907280849669375,0.624170489137294,0.626473582829345,0.04,0.0456241133299469,297.817514494188,0.652625577375554,0.33530561075023
6495,0.331363045056285,-0.0591705303936163,0.320404817652142,-0.315319265678895,0.303901398477894,0.116450494806358,-0.0816990175788709,-0.0816990175788709,0.632035205568667,0.634300376620284,0.04,0.0439412203344852,301.607135144975,0.666149099418242,0.33267858273
6555,0.331363045056285,-0.0591705303936164,0.320404817652142,-0.315319265678895,0.303901398477894,0.116450494806358,-0.066143457487598,-0.066143457487598,0.640071332309271,0.642127170411224,0.04,0.0431868750959603,305.444802027274,0.679324094605773,0.330377449771312
6615,0.331363045056285,-0.0591705303936164,0.320404817652142,-0.315319265678895,0.303901398477894,0.116450494806358,-0.0544958406323287,-0.0544958406323287,0.648235557307782,0.649953964202163,0.04,0.0429499847671248,309.337774154583,0.690637684357299,0.329107182673125
6675,0.331363045056285,-0.0591705303936164,0.320404817652142,-0.315319265678895,0.303901398477894,0.116450494806358,-0.0449550278619966,-0.0449550278619966,0.65629122934037,0.657780757993103,0.04,0.0429179292547558,313.18015543778,0.700376007396413,0.328562240575955
6735,0.331363045056285,-0.0591705303936164,0.320404817652142,-0.315319265678895,0.303901398477894,0.116450494806358,-0.0364523579892398,-0.0364523579892398,0.664251332565262,0.665607551784042,0.04,0.0428875883158839,316.977336168662,0.70914119839563,0.328435558662627
6795,0.331363045056285,-0.0591705303936164,0.320404817652142,-0.315319265678895,0.303901398477894,0.116450494806358,-0.0284993425309693,-0.0284993425309693,0.672150427187289,0.673434345574981,0.04,0.0427942615622814,320.745735259623,0.717337913180393,0.328542669669427
6855,0.331363045056285,-0.0591705303936164,0.320404817652142,-0.315319265678895,0.303901398477894,0.116450494806358,-0.0209560535387642,-0.0209560535387642,0.680023429692922,0.68126113936592,0.04,0.0426342525070786,324.501736131957,0.725221212048465,0.328776829149877
6915,0.331363045056285,-0.0591705303936164,0.320404817652142,-0.315319265678895,0.303901398477894,0.116450494806358,-0.0138383402720543,-0.0138383402720543,0.687868626373862,0.68908793315686,0.04,0.0424254967625538,328.246267631658,0.732900380744359,0.329086089911044
6975,0.331363045056285,-0.0591705303936164,0.320404817652142,-0.315319265678895,0.303901398477894,0.116450494806358,-0.00731315221076642,-0.00731315221076642,0.69571479789281,0.696914726947799,0.04,0.0422070754376116,331.987423897673,0.740448324923002,0.329443963079694
7035,0.331363045056285,-0.0591705303936164,0.320404817652142,-0.315319265678895,0.303901398477894,0.116450494806358,-0.00345421001863367,-0.00345421001863367,0.703534244499403,0.704741520738739,0.04,0.0419423873345233,335.716034665218,0.747959842591436,0.329798350755668
7095,0.331363045056285,-0.0591705303936164,0.320404817652142,-0.315319265678895,0.303901398477894,0.116450494806358,-0.00163138239135186,-0.00163138239135186,0.71137670644234,0.712568314529678,0.04,0.041650699553837,339.460287115086,0.755456988696573,0.330167185260195
7155,0.331363045056285,-0.0591705303936164,0.320404817652142,-0.315319265678895,0.303901398477894,0.116450494806358,-0.000770348956423675,-0.000770348956423675,0.719175674018186,0.720395108320617,0.04,0.04140338574484,343.179541370527,0.76285536866942,0.330547486277345
7215,0.324557065163707,-0.0644875361218167,0.318133723509316,-0.304538052003391,0.304003573570746,0.115792186520552,-0.000363647534375766,-0.000363647534375766,0.727017513560944,0.728221902111557,0.04,0.0410519437506577,346.876198563772,0.770325247003804,0.330868212737325
