time,bias_percent_1,bias_percent_2,bias_percent_3,bias_percent_4,bias_percent_5,bias_percent_6,bias_percent_8,bias_percent_9,normalized_power,power_SP,SP,CV,total_power_MW,fuel_fraction,thermal_efficiency
33,0,0,0,0,0,0,0,0,0.999636165810251,1,0.04,0.039974824303135,476.933619100827,0.999679123868012,0.350551629606346
93,0.0120556154525015,0.0129270274975642,-0.0190258437111805,0.00805785146938763,0.00686375116865099,-0.000614756128063732,-0.0178822814105569,0.0162238536606933,0.998828792597062,0.998502033848129,0.04,0.0406611182825843,476.521205261391,0.998880512739229,0.350528526583848
153,0.0339749162752314,0.0364307138567717,-0.0536182868224179,0.022708490504638,0.0193432987480164,-0.00173249454272514,-0.0503955203388422,0.0457217694074084,0.996134126074526,0.995778459026545,0.04,0.0420056441602235,475.233539438201,0.996551384952383,0.350398358094833
213,0.0558942170979612,0.0599344002159793,-0.0882107299336552,0.0373591295398884,0.0318228463273819,-0.00285023295738642,-0.0829087592671275,0.0752196851541233,0.993357470862815,0.993054884204961,0.04,0.0430378431353062,473.908815790813,0.994492985825551,0.350144847179734
273,0.0778135179206912,0.083438086575187,-0.122803173044892,0.0520097685751389,0.0443023939067473,-0.00396797137204771,-0.115421998195413,0.104717600900838,0.990596092451198,0.990331309383377,0.04,0.043835888674908,472.591512069058,0.99270014779638,0.349802176208474
333,0.099732818743421,0.106941772934394,-0.15739561615613,0.0666604076103891,0.0567819414861126,-0.00508570978670912,-0.147935237123698,0.134215516647553,0.987850840969905,0.987607734561793,0.04,0.0444700003805984,471.281855243042,0.991067369806502,0.349407496202262
393,0.121652119566151,0.130445459293602,-0.191988059267367,0.0813110466456395,0.069261489065478,-0.00620344820137041,-0.180448476051983,0.163713432394269,0.985122405346003,0.984884159740209,0.04,0.0449835349021634,469.978702810263,0.989520311113632,0.348986109605276
453,0.143571420388881,0.15394914565281,-0.226580502378604,0.0959616856808899,0.0817410366448436,-0.0073211866160317,-0.212961714980269,0.193211348140984,0.982387396262553,0.982160584918626,0.04,0.0454007837659484,468.675342357989,0.9880180896718,0.348547430459304
513,0.165490721211611,0.177452832012017,-0.261172945489842,0.11061232471614,0.0942205842242089,-0.0084389250306931,-0.245474953908554,0.222709263887699,0.979707760240768,0.979437010097042,0.04,0.0457588596488572,467.397972680491,0.986427357365862,0.348158010698242
573,0.187410022034341,0.200956518371225,-0.295765388601079,0.125262963751391,0.106700131803574,-0.00955666344535439,-0.277988192836839,0.252207179634414,0.977143428979373,0.976713435275458,0.04,0.0461734897484649,466.174785097972,0.98405210292519,0.34808504258443
633,0.209329322857071,0.224460204730432,-0.330357831712316,0.139913602786641,0.11917967938294,-0.0106744018600158,-0.310501431765125,0.281705095381129,0.974573216746574,0.973989860453874,0.04,0.0466200613328757,464.948328626578,0.980716895524528,0.348349915785814
693,0.231248623679801,0.24796389108964,-0.364950274823554,0.154564241821891,0.131659226962305,-0.0117921402746771,-0.33210388078983,0.311203011127844,0.971625524045406,0.97126628563229,0.04,0.0472773317510119,463.53092918404,0.977089069891882,0.348577410242611
753,0.25316792450253,0.271467577448847,-0.399542717934791,0.169214880857142,0.144138774541671,-0.0129098786893385,-0.314020442489501,0.340700926874559,0.968275009501815,0.968542710810706,0.04,0.0482694736414078,461.941002117947,0.977884200016528,0.347099317151803
813,0.27508722532526,0.294971263808055,-0.434135161046028,0.183865519892392,0.156618322121036,-0.0140276171039998,-0.293811604719861,0.370198842621274,0.965515743115162,0.965819135989122,0.04,0.0493152207265136,460.626249271634,0.979597972627418,0.345505910930733
873,0.29700652614799,0.318474950167263,-0.468727604157266,0.198516158927643,0.169097869700401,-0.0151453555186611,-0.271113157507763,0.399696758367989,0.962860311219209,0.963095561167538,0.04,0.0505083286919603,459.359655480408,0.981032112312682,0.344052170704842
933,0.306870211518219,0.329051609028906,-0.484294203557323,0.205108946493505,0.174713666111116,-0.0156483378052588,-0.245766267293085,0.412970820454011,0.961731646847941,0.961869952497826,0.04,0.0506341808969409,458.844970466736,0.982279753299949,0.343230173169427
993,0.306870211518219,0.329051609028906,-0.484294203557322,0.205108946493505,0.174713666111116,-0.0156483378052587,-0.21940055520057,0.412970820454011,0.961971594930644,0.961869952497826,0.04,0.0499900137344101,458.957919297106,0.982068116726818,0.343388646996327
1053,0.306870211518219,0.329051609028906,-0.484294203557322,0.205108946493505,0.174713666111116,-0.0156483378052587,-0.193421100242058,0.412970820454011,0.962088608125978,0.961869952497826,0.04,0.0494135759422413,459.013127276393,0.980957400496994,0.343818811256871
1113,0.306870211518219,0.329051609028906,-0.484294203557322,0.205108946493505,0.174713666111116,-0.0156483378052587,-0.1684148802281,0.412970820454011,0.962148139317929,0.961869952497826,0.04,0.0488380311027439,459.041197132316,0.979389396383117,0.34439032485035
1173,0.306870211518219,0.329051609028906,-0.484294203557322,0.205108946493505,0.174713666111116,-0.0156483378052587,-0.144660354238424,0.412970820454011,0.962174760315967,0.961869952497826,0.04,0.0482559589608055,459.053695108541,0.977602462280684,0.345029220564148
1233,0.306870211518219,0.329051609028906,-0.484294203557322,0.205108946493505,0.174713666111116,-0.0156483378052587,-0.122295647546461,0.412970820454011,0.962181157969104,0.961869952497826,0.04,0.0476748175675461,459.056622267061,0.97574049040325,0.345689832188175
1293,0.306870211518219,0.329051609028906,-0.484294203557322,0.205108946493505,0.174713666111116,-0.0156483378052587,-0.101381605361032,0.412970820454011,0.962175077229786,0.961869952497826,0.04,0.047104354183494,459.053645585399,0.9738924947074,0.346343545131482
1353,0.306870211518219,0.329051609028906,-0.484294203557322,0.205108946493505,0.174713666111116,-0.0156483378052587,-0.0819296280158592,0.412970820454011,0.962161558076212,0.961869952497826,0.04,0.0465529281299221,459.047151566474,0.972112391802943,0.346972850456342
1413,0.306870211518219,0.329051609028906,-0.484294203557323,0.205108946493505,0.174713666111116,-0.0156483378052587,-0.0639170022793142,0.412970820454011,0.962143943571614,0.961869952497826,0.04,0.046026661641792,459.038725696727,0.970430923054584,0.347567671651822
1473,0.306870211518219,0.329051609028906,-0.484294203557323,0.205108946493505,0.174713666111116,-0.0156483378052588,-0.0472971855138638,0.412970820454011,0.96212442817099,0.961869952497826,0.04,0.0455295324464377,459.029406020052,0.968863526219219,0.348122887720782
1533,0.306870211518219,0.329051609028906,-0.484294203557323,0.205108946493505,0.174713666111116,-0.0156483378052588,-0.0320074948222584,0.412970820454011,0.962104431268663,0.961869952497826,0.04,0.0450637336953693,459.019866057955,0.967415678022932,0.348636647602697
1593,0.306870211518219,0.329051609028906,-0.484294203557323,0.205108946493505,0.174713666111116,-0.0156483378052587,-0.0179750584546287,0.412970820454011,0.962084840629154,0.961869952497826,0.04,0.0446300875516204,459.010524690895,0.966086592508459,0.349109176787848
