time,bias_percent_1,bias_percent_2,bias_percent_3,bias_percent_4,bias_percent_5,bias_percent_6,bias_percent_8,bias_percent_9,normalized_power,power_SP,SP,CV,total_power_MW,fuel_fraction,thermal_efficiency
46,0,0,0,0,0,0,0,0,0.999775804150098,1,0.04,0.0399247955718888,476.996872223246,0.999916539631285,0.350514876901891
106,0.0135657727062927,-0.0207987096418801,-0.0205916562977469,-0.0193024969538108,-0.00846415307384598,-0.0153786247682133,0.0222324440373542,0.0243449485734719,0.98542137304297,0.976865928840398,0.04,0.045028614349786,469.935955485562,0.965079186216899,0.357791815422895
166,0.0312602588449353,-0.0479274613486804,-0.0474503384252431,-0.0444796668935641,-0.0195043527353841,-0.0354377005528394,0.051231284086077,0.0560992293214787,0.956581758179479,0.94669105341483,0.04,0.0512320965743281,456.144547291349,0.90503976606973,0.370330517574949
226,0.0489547449835779,-0.0750562130554805,-0.074309020552739,-0.0696568368333172,-0.0305445523969222,-0.0554967763374652,0.0802301241347998,0.0878535100694854,0.925990656103109,0.916516177989261,0.04,0.0541073114852655,441.544738090944,0.845679281880458,0.383639837951278
286,0.0666492311222206,-0.102184964762281,-0.101167702680235,-0.0948340067730705,-0.0415847520584605,-0.0755558521220913,0.109228964183523,0.119607790817492,0.895119046353457,0.886341302563693,0.04,0.0543604113854373,426.815690719112,0.79005764453486,0.396950426908155
346,0.0843437172608632,-0.129313716469081,-0.128026384807731,-0.120011176712824,-0.0526249517199986,-0.0956149279067173,0.138227804232245,0.151362071565499,0.864294030849373,0.856166427138125,0.04,0.05289480498443,412.110247569177,0.738541774777725,0.410008654955787
406,0.102038203399506,-0.156442468175881,-0.154885066935227,-0.145188346652577,-0.0636651513815367,-0.115674003691343,0.167226644280968,0.183116352313506,0.833752248577578,0.825991551712557,0.04,0.0503772342484565,397.646974298873,0.690708035827601,0.423017028140556
466,0.119732689538148,-0.183571219882681,-0.181743749062723,-0.17036551659233,-0.074705351043075,-0.135733079475969,0.196225484329691,0.214870633061512,0.803622145283334,0.795816676286988,0.04,0.0480239756999002,383.344254027268,0.643686322573368,0.437591979332804
526,0.137427175676791,-0.210699971589482,-0.208602431190219,-0.195542686532084,-0.0857455507046131,-0.155792155260595,0.225224324378414,0.246624913809519,0.773696727454814,0.76564180086142,0.04,0.0460865308267666,369.044634424874,0.59499376418978,0.45574420761392
586,0.155121661815434,-0.237828723296282,-0.235461113317715,-0.220719856471837,-0.0967857503661513,-0.175851231045221,0.254223164427137,0.278379194557526,0.742919603973886,0.735466925435852,0.04,0.0437007168710233,354.415958699457,0.548740828637267,0.474570426063724
646,0.172816147954076,-0.264957475003082,-0.262319795445211,-0.24589702641159,-0.107825950027689,-0.195910306829847,0.283222004475859,0.310133475305533,0.712277817642556,0.705292050010284,0.04,0.0409035407213403,339.764783470431,0.505377844351072,0.493988501474966
