time,bias_percent_1,bias_percent_2,bias_percent_3,bias_percent_4,bias_percent_5,bias_percent_6,bias_percent_8,bias_percent_9,normalized_power,power_SP,SP,CV,total_power_MW,fuel_fraction,thermal_efficiency
39,0,0,0,0,0,0,0,0,0.999715976878833,1,0.04,0.0399473494756385,476.969021830479,0.999796031052415,0.350536657607458
99,-0.0210927284739118,-0.0108541304772691,-0.0200777572266638,-0.016957195572897,0.009637540822755,-0.0187147187400416,-0.0117797980499476,0.0162430032976019,0.986821004150007,0.975800759059737,0.04,0.0442656214454043,470.574346235756,0.961484071333592,0.35961751033123
159,-0.0535430799722378,-0.0275527927499908,-0.0509666144984543,-0.0430451887619695,0.0244645267039167,-0.047506593724721,-0.0299025642806363,0.0412322391400664,0.952145781793157,0.938571157613179,0.04,0.0511960413808047,453.972243185513,0.879889455828023,0.379101814341971
219,-0.0859934314705636,-0.0442514550227124,-0.0818554717702448,-0.0691331819510418,0.0392915125850784,-0.0762984687094004,-0.0480253305113249,0.0662214749825309,0.914200877627589,0.901341556166621,0.04,0.0534395580318231,435.8605494938,0.798963733114505,0.400843801511278
279,-0.11844378296889,-0.0609501172954342,-0.112744329042035,-0.0952211751401143,0.05411849846624,-0.10509034369408,-0.0661480967420135,0.0912107108249954,0.876108684311187,0.864111954720063,0.04,0.0513239308554079,417.704318808825,0.724568160192072,0.423588729325609
339,-0.150894134467216,-0.0776487795681559,-0.143633186313826,-0.121309168329187,0.0689454843474017,-0.133882218678759,-0.0842708629727022,0.11619994666746,0.837905865952493,0.826882353273505,0.04,0.0463004159993116,399.514115006301,0.657576727546688,0.4464166349075
