time,bias_percent_1,bias_percent_2,bias_percent_3,bias_percent_4,bias_percent_5,bias_percent_6,bias_percent_8,bias_percent_9,normalized_power,power_SP,SP,CV,total_power_MW,fuel_fraction,thermal_efficiency
13,0,0,0,0,0,0,0,0,0.999772472668643,1,0.04,0.0401663321013334,476.925204320287,0.998543460986245,0.350944126792987
73,-0.0044116135240057,0.00148308871539086,-0.000965467041664169,-0.00246085391940505,0.00760892372809076,0.00242939118070876,0.00720173752875365,-0.00615663694876758,0.99714199402949,0.992153029139391,0.04,0.0415981935210232,475.573611768773,0.99102637682822,0.352603981121995
133,-0.0247729067117247,0.00832811355565605,-0.00542146877242192,-0.0138186412397363,0.0427270332423556,0.0136419658609026,0.0404405261230015,-0.0345718844046183,0.967217054277568,0.955936240551964,0.04,0.0520256909512037,461.180306417629,0.927356071597106,0.365408722584998
193,-0.0451341998994436,0.0151731383959212,-0.00987747050317967,-0.0251764285600675,0.0778451427566205,0.0248545405410966,0.0736793147172493,-0.062987131860469,0.93092437247944,0.919719451964538,0.04,0.0594079060619672,443.850432380003,0.857360870976251,0.380388750420149
253,-0.0654954930871627,0.0220181632361865,-0.0143334722339373,-0.0365342158803987,0.112963252270885,0.0360671152212906,0.106918103311497,-0.0914023793163197,0.89385475875964,0.883502663377112,0.04,0.0630309053340481,426.163063121892,0.791624975918553,0.39555874817805
313,-0.0858567862748816,0.0288631880764516,-0.018789473964695,-0.0478920032007301,0.14808136178515,0.0472796899014846,0.140156891905745,-0.11981762677217,0.856765572155693,0.847285874789685,0.04,0.0639949494251371,408.468095106508,0.731165912441117,0.410484611145261
373,-0.106218079462601,0.0357082129167169,-0.0232454756954528,-0.0592497905210612,0.183199471299415,0.0584922645816785,0.173395680499993,-0.148232874228021,0.819764827911132,0.811069086202259,0.04,0.0632286573706653,390.816012445857,0.675644680193235,0.425019311967077
433,-0.12657937265032,0.0425532377569821,-0.0277014774262105,-0.0706075778413925,0.21831758081368,0.0697048392618724,0.20663446909424,-0.176648121683872,0.782825324084184,0.774852297614832,0.04,0.0614041718900138,373.192247552343,0.624517755954367,0.439078830916084
493,-0.146940665838039,0.0493982625972474,-0.0321574791569683,-0.0819653651617236,0.253435690327945,0.0809174139420664,0.239873257688488,-0.14675307396232,0.744229234449383,0.738635509027406,0.04,0.0601367129416079,354.770930248764,0.58324858077618,0.446939781492933
553,-0.167301959025758,0.0562432874375125,-0.036613480887726,-0.0933231524820549,0.28855379984221,0.0921299886222603,0.273112046282736,-0.0930194195861631,0.707175071837202,0.702418720439979,0.04,0.0587785437534568,337.102090123055,0.551770175457932,0.448908573078367
613,-0.187663252213476,0.0630883122777778,-0.0410694826184838,-0.104680939802386,0.323671909356475,0.103342563302454,0.306350834876984,-0.0462051858555576,0.67062846322256,0.666201931852553,0.04,0.0587881396409613,319.666360515164,0.52275425548434,0.449318226399147
673,-0.208024545401196,0.069933337118043,-0.0455254843492415,-0.116038727122717,0.35879001887074,0.114555137982648,0.339589623471232,-0.0218254169907376,0.633978334956398,0.629985143265127,0.04,0.060514750617927,302.180974841009,0.496271186721419,0.447406957286399
733,-0.228385838588914,0.0767783619583082,-0.0499814860799992,-0.127396514443049,0.393908128385004,0.125767712662842,0.372828412065479,-0.010309284254164,0.597581772581366,0.5937683546777,0.04,0.0636107185002749,284.817349533079,0.471283124684152,0.44405751858651
793,-0.248747131776633,0.0836233867985734,-0.054437487810757,-0.13875430176338,0.429026237899269,0.136980287343036,0.406067200659727,-0.00486947414186639,0.561288525883123,0.557551566090274,0.04,0.0678188840737652,267.502447946666,0.446932059034849,0.439785522613905
853,-0.269108424964352,0.0904684116388386,-0.0588934895415147,-0.150112089083711,0.464144347413534,0.14819286202323,0.439305989253975,-0.00229990198298679,0.525075562323837,0.521334777502847,0.04,0.072948543636252,250.226804671626,0.422757944462563,0.434907331408948
913,-0.285058104628066,0.0958303477637131,-0.0623840242306082,-0.159009022484637,0.491653533199708,0.156976045522715,0.465343040319469,-0.0010861277990752,0.490351073047066,0.49296495977603,0.04,0.0747868161577249,233.856752387538,0.409097421772357,0.420027618614022
973,-0.285058104628066,0.0958303477637131,-0.0623840242306082,-0.159009022484637,0.491653533199708,0.156976045522715,0.465343040319469,-0.000512784192265359,0.4880560887922,0.49296495977603,0.04,0.0571117542506677,232.846847034404,0.435811851671489,0.39257803904432
