time,bias_percent_1,bias_percent_2,bias_percent_3,bias_percent_4,bias_percent_5,bias_percent_6,bias_percent_8,bias_percent_9,normalized_power,power_SP,SP,CV,total_power_MW,fuel_fraction,thermal_efficiency
1,0,0,0,0,0,0,0,0,1.01334502070237,1,0.04,0.0404999826659105,482.488765428893,0.985295336602725,0.359811843508822
61,-4.43604572660661e-05,-2.74703631546345e-05,0.000111267290175647,0.000324596446083206,0.000423744217429089,0.000422261237810858,-0.000416411481302418,-0.00031462955148578,0.999869326572328,0.999901217261267,0.04,0.0398938979842907,477.039932594533,0.99998350940017,0.350523042842776
121,-0.00270598789322764,-0.00167569215243248,0.00678730470071628,0.0198003832110707,0.025848397263172,0.0257579355064636,-0.0254011003594479,-0.0191924026406335,0.995679403565669,0.993974252937291,0.04,0.0421694308763085,474.993558815463,0.990775540047311,0.352263073775456
181,-0.00536761532918922,-0.0033239139417102,0.0134633421112569,0.0392761699760583,0.051273050308915,0.0510936097751162,-0.0503857892375933,-0.0380701757297811,0.98970937428386,0.988047288613316,0.04,0.0438509718770248,472.141691369915,0.98020655387333,0.353923520929925
241,-0.00802924276515091,-0.00497213573098793,0.0201393795217975,0.0587519567410459,0.0766977033546581,0.0764292840437688,-0.0753704781157388,-0.0569479488189286,0.98356967094923,0.98212032428934,0.04,0.044744518096537,469.212240338251,0.970767049589641,0.355147680422928
301,-0.0106908702011126,-0.00662035752026588,0.0268154169323381,0.0782277435060335,0.102122356400401,0.101764958312422,-0.100355166993884,-0.0758257219080763,0.977435860586263,0.976193359965364,0.04,0.0451525431267788,466.285967236815,0.962602357915565,0.355926317080014
361,-0.0133524976370742,-0.00826857930954361,0.0334914543428789,0.097703530271021,0.127547009446144,0.127100632581074,-0.12533985587203,-0.0947034949972239,0.971327727215451,0.970266395641389,0.04,0.0452959523862353,463.371943748333,0.955588014034386,0.356298272847009
421,-0.0160141250730359,-0.00991680109882134,0.0401674917534194,0.117179317036009,0.152971662491887,0.152436306849727,-0.150324544750175,-0.113581268086372,0.965243197133208,0.964339431317413,0.04,0.0453077293705482,460.469263621781,0.94956104471862,0.356313627805738
481,-0.0186757525089976,-0.0115650228880991,0.0468435291639599,0.136655103800996,0.17839631553763,0.17777198111838,-0.17530923362832,-0.132459041175519,0.959187018149733,0.958412466993437,0.04,0.0452642624721678,457.580079781679,0.944366173067705,0.35602571196329
541,-0.0213373799449591,-0.0132132446773769,0.0535195665745007,0.156130890565984,0.203820968583373,0.203107655387032,-0.200293922506466,-0.151336814264667,0.953157339016599,0.952485502669461,0.04,0.0452097934532034,454.703523243168,0.93984097895773,0.355491006762457
601,-0.0239990073809208,-0.0148614664666547,0.0601956039850412,0.175606677330971,0.229245621629116,0.228443329655685,-0.225278611384611,-0.170214587353814,0.947157620845969,0.946558538345486,0.04,0.045166683277314,451.84106428928,0.93584648696193,0.354760909697826
661,-0.0266606348168824,-0.0165096882559326,0.0668716413955818,0.195082464095959,0.254670274674859,0.253779003924337,-0.250263300262757,-0.189092360442962,0.941170138990152,0.94063157402151,0.04,0.0451468054033179,448.984697912965,0.932222003751205,0.353888839404432
721,-0.0293222622528441,-0.0181579100452103,0.0735476788061225,0.214558250860946,0.280094927720602,0.27911467819299,-0.275247989140902,-0.20797013353211,0.935199102345217,0.934704609697534,0.04,0.0451471150781784,446.136084158458,0.928878440618067,0.352909333449503
781,-0.0319838896888057,-0.019806131834488,0.0802237162166632,0.234034037625934,0.305519580766345,0.304450352461643,-0.300232678019048,-0.226847906621257,0.929243331796996,0.928777645373559,0.04,0.0451653174925794,443.294675668679,0.925734710690148,0.351852501785052
841,-0.0346455171247674,-0.0214543536237659,0.0868997536272037,0.253509824390922,0.330944233812088,0.329786026730295,-0.291693010270168,-0.245725679710405,0.922563080153943,0.922850681049583,0.04,0.0457079501292631,440.104451392728,0.925775237141888,0.349305060541702
901,-0.0372627841034629,-0.0230751050498891,0.0934645237475687,0.272661014709826,0.355945142640402,0.354699439761137,-0.277254118955092,-0.264288823248067,0.916487732028912,0.91702249946434,0.04,0.0462914827006681,437.209079252193,0.928078161463408,0.346145982137368
961,-0.037262784103463,-0.0230751050498891,0.0934645237475686,0.272661014709826,0.355945142640402,0.354699439761137,-0.262698811144958,-0.262698811144958,0.915249193223428,0.91702249946434,0.04,0.0442905751143386,436.658900577414,0.93800681565632,0.342051106159587
1021,-0.037262784103463,-0.0230751050498891,0.0934645237475686,0.272661014709826,0.355945142640402,0.354699439761137,-0.250290205216963,-0.250290205216963,0.915322882222328,0.91702249946434,0.04,0.0432187219994146,436.703795853982,0.948838317622457,0.338181174675272
1081,-0.037262784103463,-0.0230751050498891,0.0934645237475686,0.272661014709826,0.355945142640402,0.354699439761137,-0.240116154998854,-0.240116154998854,0.915769151576701,0.91702249946434,0.04,0.0429229085673898,436.916941738387,0.957283591043566,0.335361301720051
1141,-0.0372627841034629,-0.023075105049889,0.0934645237475687,0.272661014709826,0.355945142640402,0.354699439761137,-0.231264890393028,-0.231264890393028,0.916159949844151,0.91702249946434,0.04,0.0430439763835551,437.1026009363,0.963209773543657,0.333439607717976
1201,-0.037262784103463,-0.0230751050498891,0.0934645237475686,0.272661014709826,0.355945142640402,0.354699439761137,-0.222824560538278,-0.222824560538278,0.916448194490996,0.91702249946434,0.04,0.0433076324008961,437.239339003128,0.967197042167724,0.332168882675699
1261,-0.037262784103463,-0.0230751050498891,0.0934645237475686,0.272661014709826,0.355945142640402,0.354699439761137,-0.214212904164618,-0.214212904164618,0.91664800642059,0.91702249946434,0.04,0.0435799888869939,437.334056711215,0.969815016056507,0.331343969475289
1321,-0.037262784103463,-0.0230751050498891,0.0934645237475686,0.272661014709826,0.355945142640402,0.354699439761137,-0.205159966955804,-0.205159966955804,0.916781779736738,0.91702249946434,0.04,0.0438096660445714,437.39744087365,0.971505924477652,0.330815203602952
1381,-0.037262784103463,-0.0230751050498891,0.0934645237475686,0.272661014709826,0.355945142640402,0.354699439761137,-0.195600699571853,-0.195600699571853,0.916869342453066,0.91702249946434,0.04,0.0439852574194284,437.438916982877,0.972585483626695,0.330479337033234
1441,-0.0372627841034629,-0.0230751050498891,0.0934645237475687,0.272661014709826,0.355945142640402,0.354699439761137,-0.185577037787053,-0.185577037787053,0.916925781068274,0.91702249946434,0.04,0.0441119132235374,437.465644611134,0.973268964734901,0.330267435098465
1501,-0.037262784103463,-0.0230751050498891,0.0934645237475686,0.272661014709826,0.355945142640402,0.354699439761137,-0.175172696577213,-0.175172696577213,0.916961761797821,0.91702249946434,0.04,0.0441998320717553,437.48268145916,0.973698999521379,0.330134428669166
1561,-0.037262784103463,-0.0230751050498891,0.0934645237475687,0.272661014709826,0.355945142640402,0.354699439761137,-0.164477096459987,-0.164477096459987,0.916984513170093,0.91702249946434,0.04,0.0442592325808611,437.493452882678,0.97396832311249,0.330051265377624
1621,-0.037262784103463,-0.0230751050498891,0.0934645237475685,0.272661014709826,0.355945142640402,0.354699439761137,-0.153568887342953,-0.153568887342953,0.916998807184432,0.91702249946434,0.04,0.0442985700052587,437.500219690129,0.974136450043804,0.329999405679748
1681,-0.037262784103463,-0.0230751050498891,0.0934645237475686,0.272661014709826,0.355945142640402,0.354699439761137,-0.142510693950927,-0.142510693950927,0.917007740412235,0.91702249946434,0.04,0.0443242225917552,437.504448279706,0.97424121522649,0.329967108356002
1741,-0.037262784103463,-0.0230751050498891,0.0934645237475686,0.272661014709826,0.355945142640402,0.354699439761137,-0.131349405176932,-0.131349405176932,0.917013298217837,0.91702249946434,0.04,0.0443407462356561,437.507078924754,0.974306496887992,0.329946983408087
1801,-0.0367399191439659,-0.0228611461824524,0.0936547858791843,0.272778552306214,0.355200454750597,0.354409866952177,-0.120118683591874,-0.120118683591874,0.917016745179714,0.91689972394532,0.04,0.0443499328973829,437.508733773015,0.974218354136812,0.329978083599042
1861,-0.0053680215741399,-0.0100236141362511,0.105070513776129,0.279830808089468,0.310519181362314,0.337035498414546,-0.107941751486323,-0.107941751486323,0.912145288807251,0.909533192804113,0.04,0.0468749004554784,435.129334755013,0.960290381679655,0.332943438218355
1921,0.0260038759956861,0.00281391790995019,0.116486241673074,0.286883063872722,0.265837907974031,0.319661129876917,-0.0920765408099234,-0.0920765408099234,0.904669865397566,0.902166661662907,0.04,0.0489379398846849,431.556253373857,0.944281560363262,0.335807646744456
1981,0.0573757735655122,0.0156514499561515,0.127901969570019,0.293935319655977,0.221156634585747,0.302286761339287,-0.0719584822929318,-0.0719584822929318,0.896870514084759,0.8948001305217,0.04,0.0500481007436406,427.835005512229,0.930595485638854,0.337808093510342
2041,0.0887476711353382,0.0284889820023528,0.139317697466964,0.300987575439231,0.176475361197463,0.284912392801656,-0.0484852675283482,-0.0484852675283482,0.889134478706631,0.887433599380494,0.04,0.0506242220976097,424.144994211896,0.919318606333141,0.339002555511985
2101,0.120119568705164,0.0413265140485541,0.150733425363909,0.308039831222485,0.13179408780918,0.267538024264027,-0.0246438913505799,-0.0246438913505799,0.881507468627889,0.880067068239287,0.04,0.0509814356648125,420.506944260122,0.909832336742779,0.339599060584224
2161,0.15149146627499,0.0541640460947555,0.162149153260854,0.315092087005739,0.0871128144208967,0.250163655726397,-0.0116406309548945,-0.0116406309548945,0.87396739115357,0.87270053709808,0.04,0.0512746882730432,416.910465010238,0.901550280243458,0.339787595505532
2221,0.182863363844816,0.0670015781409568,0.173564881157799,0.322144342788994,0.0424315410326133,0.232789287188767,0.0125797195882525,-0.00549835480964257,0.866085408654615,0.865334005956874,0.04,0.0520363724694954,413.141996033023,0.8946622287699,0.339308639007047
2281,0.214235261414642,0.0798391101871582,0.184980609054745,0.329196598572248,-0.00224973235567029,0.215414918651137,0.0642232393814528,-0.00259696276669169,0.858257093770089,0.857967474815667,0.04,0.053227339044327,409.415207350725,0.892095287527989,0.337215401027825
2341,0.245607158984468,0.0926766422333595,0.196396336951689,0.336248854355502,-0.0469310057439537,0.198040550113507,0.115866759174653,-0.00122644871167088,0.850921728751588,0.850600943674461,0.04,0.0547358272863828,405.916955674643,0.889954542379916,0.335138286570964
2401,0.276979056554294,0.105514174279561,0.207812064848634,0.343301110138756,-0.0916122791322373,0.180666181575876,0.167510278967853,-0.000579066783545543,0.843662828223055,0.843234412533254,0.04,0.0565071876701284,402.45380041434,0.887240180490082,0.333295544170896
2461,0.30835095412412,0.118351706325762,0.21922779274558,0.350353365922011,-0.136293552520521,0.163291813038246,0.219153798761054,-0.00027326666473029,0.836387615377938,0.835867881392048,0.04,0.0583650898637595,398.982540290127,0.883924271681983,0.331660314362443
2521,0.339722851693946,0.131189238371963,0.230643520642524,0.357405621705265,-0.180974825908804,0.145917444500616,0.270797318554254,-0.000128817602121879,0.829075324253049,0.828501350250841,0.04,0.0601921456345658,395.493537676576,0.880203856620822,0.330149619247789
2581,0.371094749263772,0.144026770418165,0.242059248539469,0.364457877488519,-0.225656099297088,0.128543075962986,0.322440838347454,-6.05850201028596e-05,0.821727078166342,0.821134819109635,0.04,0.0619324662850682,391.987438553163,0.876303439075279,0.328679267350639
2641,0.402466646833598,0.156864302464366,0.253474976436414,0.371510133271774,-0.270337372685371,0.111168707425357,0.374084358140654,-2.83543834693885e-05,0.814352366355195,0.813768287968428,0.04,0.0635707435689101,388.468795562869,0.872403511083594,0.327185019303308
2701,0.433315679443927,0.169487875643131,0.264700442201744,0.37844485145864,-0.31427395818385,0.094083911696687,0.424867152603968,-1.31297809838902e-05,0.806962355690777,0.806401756827221,0.04,0.0651094571987049,384.94291394526,0.868618361162893,0.325628193895673
2761,0.433315679443927,0.169487875643131,0.264700442201744,0.37844485145864,-0.31427395818385,0.094083911696687,0.424867152603968,-5.93822211158653e-06,0.800253059822266,0.799035225686015,0.04,0.0658280736905884,381.744258235598,0.861933388712166,0.325426927306298
2821,0.433315679443927,0.169487875643131,0.264700442201744,0.37844485145864,-0.31427395818385,0.094083911696687,0.424867152603968,-2.54118635560718e-06,0.792981877362675,0.791668694544808,0.04,0.0665721302424993,378.273029674505,0.853749351846109,0.325558970995421
2881,0.433315679443927,0.169487875643131,0.264700442201744,0.37844485145864,-0.31427395818385,0.094083911696687,0.424867152603968,-9.36547899285244e-07,0.785584060719832,0.784302163403602,0.04,0.0671546319905857,374.743255131779,0.845609090381188,0.32562583786886
2941,0.433315679443927,0.169487875643131,0.264700442201744,0.378444851458641,-0.31427395818385,0.094083911696687,0.424867152603968,-1.78573959512858e-07,0.778181008965023,0.776935632262395,0.04,0.0676328009878406,371.211344371298,0.837699254776846,0.325602542271484
3001,0.433315679443927,0.169487875643131,0.264700442201744,0.37844485145864,-0.31427395818385,0.094083911696687,0.424867152603968,1.79465878751371e-07,0.770790568259502,0.769569101121188,0.04,0.0680673071886956,367.68545962131,0.82995907639645,0.325517583832717
3061,0.433315679443927,0.169487875643131,0.264700442201744,0.37844485145864,-0.31427395818385,0.0940839116966869,0.424867152603968,3.4859112047508e-07,0.76340954097332,0.762202569979982,0.04,0.068489473907186,364.164026326203,0.822322663887695,0.325393938430405
3121,0.433315679443927,0.169487875643131,0.264700442201744,0.37844485145864,-0.31427395818385,0.0940839116966869,0.424867152603968,4.284798488545e-07,0.756033540148409,0.754836038838775,0.04,0.0689116879087666,360.644960878374,0.814751625191953,0.325244011720953
3181,0.433315679443927,0.169487875643131,0.264700442201744,0.37844485145864,-0.31427395818385,0.094083911696687,0.424867152603968,4.66216433039297e-07,0.748659977399948,0.747469507697569,0.04,0.0693378693722765,357.127051368246,0.807226884680668,0.325073679208197
3241,0.433315679443927,0.169487875643131,0.264700442201744,0.37844485145864,-0.31427395818385,0.0940839116966869,0.424867152603968,4.84041848649531e-07,0.741287629490499,0.740102976556362,0.04,0.0697688928612318,353.609708616386,0.79973912268628,0.324885639146426
3301,0.433315679443927,0.169487875643131,0.264700442201744,0.37844485145864,-0.31427395818385,0.094083911696687,0.424867152603968,4.92461938823076e-07,0.733915932481411,0.732736445415156,0.04,0.0702047394931486,350.092675839714,0.79228352114743,0.324681152120115
3361,0.433315679443927,0.169487875643131,0.264700442201744,0.37844485145864,-0.31427395818385,0.094083911696687,0.424867152603968,4.96439288921434e-07,0.726544632336391,0.725369914273949,0.04,0.0706452594580217,346.575832805594,0.784857258003527,0.324460828642248
3421,0.433315679443927,0.169487875643131,0.264700442201744,0.37844485145864,-0.31427395818385,0.0940839116966869,0.424867152603968,4.983180471626e-07,0.719173595728504,0.718003383132743,0.04,0.0710903258971725,343.059112630177,0.77745851661948,0.324224934229418
3481,0.433315679443927,0.169487875643131,0.264700442201744,0.378444851458641,-0.31427395818385,0.094083911696687,0.424867152603968,4.99205505505834e-07,0.711802744995522,0.710636851991536,0.04,0.071539877973722,339.542480743274,0.770086040953627,0.323973540800304
3541,0.433315679443927,0.169487875643131,0.264700442201744,0.378444851458641,-0.31427395818385,0.094083911696687,0.424867152603968,4.99624709155201e-07,0.704432032916539,0.703270320850329,0.04,0.0719939014346998,336.025914625405,0.762738928177307,0.323706586362009
3601,0.432592782043341,0.169345260085528,0.264398665282234,0.378152098830664,-0.314009415677807,0.0940846752024229,0.424404250816562,4.9982272599845e-07,0.697061419465947,0.696026565228143,0.04,0.0724532429330321,332.509373191849,0.75554542952943,0.323368703761928
3661,0.389218938008207,0.160788326629395,0.246292050111623,0.360586941152062,-0.298136865315247,0.0941304855465803,0.396630143572172,4.99916262088295e-07,0.695373254252837,0.696026565228143,0.04,0.0683933323807203,331.764252836356,0.75879204634287,0.321263580926522
3721,0.345845093973073,0.152231393173262,0.228185434941012,0.34302178347346,-0.282264314952686,0.0941762958907378,0.368856036327782,0.00612986696712008,0.695821658109774,0.696026565228143,0.04,0.0650622311895198,331.976321042547,0.760730914590668,0.320649611884782
3781,0.302471249937938,0.143674459717129,0.210078819770401,0.325456625794858,-0.266391764590126,0.0942221062348953,0.341081929083392,0.0309736993652739,0.696156182643228,0.696026565228143,0.04,0.0628238373054139,332.14023991795,0.760916022971415,0.320729894917245
3841,0.259097405902803,0.135117526260996,0.191972204599791,0.307891468116256,-0.250519214227565,0.0942679165790528,0.313307821839003,0.0558175317634277,0.696640361016438,0.696026565228143,0.04,0.060976385115768,332.370385692471,0.758168353930101,0.322115293130736
3901,0.215723561867669,0.126560592804863,0.17386558942918,0.290326310437654,-0.234646663865005,0.0943137269232102,0.285533714594613,0.0806613641615815,0.696966148237388,0.696026565228143,0.04,0.0591920736128655,332.52449305914,0.753114833901996,0.324427092509324
3961,0.172349717832534,0.11800365934873,0.155758974258569,0.272761152759052,-0.218774113502444,0.0943595372673676,0.257759607350223,0.105505196559735,0.697150829472587,0.696026565228143,0.04,0.0572054807001246,332.61170371945,0.746691101669841,0.327303935455814
4021,0.1289758737974,0.109446725892597,0.137652359087959,0.255195995080451,-0.202901563139883,0.0944053476115252,0.229985500105834,0.130349028957889,0.697242837027278,0.696026565228143,0.04,0.0549076518777458,332.655002470125,0.739544526548119,0.330509850636195
4081,0.0856020297622653,0.100889792436464,0.119545743917348,0.237630837401849,-0.187029012777323,0.0944511579556826,0.202211392861444,0.155192861356043,0.697270601753157,0.696026565228143,0.04,0.0522819628268739,332.667813473208,0.732109834925124,0.333879088299138
4141,0.0422281857271307,0.0923328589803309,0.101439128746737,0.220065679723247,-0.171156462414762,0.09449696829984,0.174437285617054,0.180036693754197,0.697250782198433,0.696026565228143,0.04,0.0493521737006735,332.658165976149,0.724703815082174,0.337281342236745
4201,-0.00114565830800393,0.0837759255241979,0.0833325135761266,0.202500522044645,-0.155283912052202,0.0945427786439975,0.146663178372665,0.204880526152351,0.697195326780652,0.696026565228143,0.04,0.0461567810870977,332.631691046105,0.71756143157473,0.340611425851382
