time,bias_percent_1,bias_percent_2,bias_percent_3,bias_percent_4,bias_percent_5,bias_percent_6,bias_percent_8,bias_percent_9,normalized_power,power_SP,SP,CV,total_power_MW,fuel_fraction,thermal_efficiency
29,0,0,0,0,0,0,0,0,0.999598468497055,1,0.04,0.0400020546522491,476.911421937165,0.9995816370466,0.35056950131494
89,0,0,0,0,0,0,0,0,0.999953311366479,1,0.04,0.0398967124461245,477.078515744008,1.00023976764729,0.350461583111852
149,0,0,0,0,0,0,0,0,0.999995034922744,1,0.04,0.0399358474744185,477.09772716385,1.00031372577087,0.350449783413571
209,0,0,0,0,0,0,0,0,1.00000077507446,1,0.04,0.039968878844606,477.100390015221,1.00031636584143,0.350450814473213
269,0,0,0,0,0,0,0,0,1.00000255833896,1,0.04,0.0399890170722152,477.101230801375,1.00030407086865,0.350455739547943
329,0,0,0,0,0,0,0,0,1.00000353658347,1,0.04,0.0400005652788212,477.101692685493,1.00028455498045,0.350462916341926
389,0,0,0,0,0,0,0,0,1.00000395613647,1,0.04,0.0400067231813383,477.101888829285,1.0002614225568,0.350471165363757
449,0,0,0,0,0,0,0,0,1.00000392934726,1,0.04,0.0400094716949719,477.101873051916,1.00023760346545,0.350479499695367
509,0,0,0,0,0,0,0,0,1.00000359991978,1,0.04,0.0400100950052685,477.10171406405,1.00021521334193,0.350487228490925
569,0,0,0,0,0,0,0,0,1.00000310263548,1,0.04,0.0400094638914637,477.101475867826,1.00019552368906,0.350493953127212
629,0,0,0,0,0,0,0,0,1.00000254157347,1,0.04,0.0400081741002209,477.101208062757,1.00017911357628,0.350499507001129
689,0,0,0,0,0,0,0,0,1.00000198832904,1,0.04,0.0400066243108457,477.100944377625,1.00016606670895,0.350503885445204
749,0,0,0,0,0,0,0,0,0.990355096981081,0.981178025201295,0.04,0.0445585822294514,472.265569524031,0.974049524472767,0.356254141808496
809,0,0,0,0,0,0,0,0,0.95489012375216,0.942129012796785,0.04,0.0552520070191563,455.269055766504,0.898472160725913,0.372321558619617
869,0,0,0,0,0,0,0,0,0.915209133313125,0.902965625807182,0.04,0.0618977702987368,436.32745610332,0.821407836048678,0.390308830188808
929,0,0,0,0,0,0,0,0,0.884890785144228,0.882731209195888,0.04,0.0584692911280142,422.104723035877,0.776001492011105,0.399679921706355
989,0,0,0,0,0,0,0,0,0.881049759544233,0.882731209195888,0.04,0.0452092854056784,420.340765314442,0.782324536647288,0.39479281060275
1049,0,0,0,0,0,0,0,0,0.880498854100502,0.882731209195888,0.04,0.0371245228542493,420.08346740184,0.794908467748701,0.388305143225149
1109,0,0,0,0,0,0,0,0,0.880283086857679,0.882731209195888,0.04,0.0332326539974808,419.982190836983,0.809258558979505,0.381327608408626
1169,0,0,0,0,0,0,0,0,0.880280010115623,0.882731209195888,0.04,0.0319163141521153,419.982419316225,0.824066922609804,0.374475410059551
1229,0,0,0,0,0,0,0,0,0.880473806342321,0.882731209195888,0.04,0.0321089588316244,420.076241550437,0.838094628605848,0.368289840438189
1289,0,0,0,0,0,0,0,0,0.880803909154806,0.882731209195888,0.04,0.0331169184970936,420.234517882001,0.850384703092694,0.363103938125344
1349,0,0,0,0,0,0,0,0,0.881196911395122,0.882731209195888,0.04,0.0344836688800678,420.422243508539,0.86041032928108,0.359033312706373
1409,0,0,0,0,0,0,0,0,0.881590510717402,0.882731209195888,0.04,0.0359147759769817,420.609837451572,0.868049294034235,0.356032557561902
1469,0,0,0,0,0,0,0,0,0.881943232603226,0.882731209195888,0.04,0.0372323091332059,420.777688017085,0.873472878138258,0.353963071400276
1529,0,0,0,0,0,0,0,0,0.882234267751793,0.882731209195888,0.04,0.0383428610682263,420.916011926305,0.877017861449468,0.352648210882778
1589,0,0,0,0,0,0,0,0,0.882458413256954,0.882731209195888,0.04,0.0392122587996553,421.022428548728,0.879081178462498,0.351909447796485
1649,0,0,0,0,0,0,0,0,0.876700680280659,0.871038797826548,0.04,0.0430762349898792,418.129175624572,0.86353807246691,0.3557817431185
1709,0,0,0,0,0,0,0,0,0.854718546688412,0.846847601889983,0.04,0.0507574121901101,407.595286865512,0.816856589196169,0.366638454150618
1769,0,0,0,0,0,0,0,0,0.830237968067608,0.822656405953418,0.04,0.0549987505851682,395.909960016002,0.76922811304436,0.378177734445656
1829,0,0,0,0,0,0,0,0,0.805526371955164,0.798465210016852,0.04,0.0563108460893268,384.120673634095,0.724644634070164,0.389490866020894
1889,0,0,0,0,0,0,0,0,0.780878624072986,0.774274014080287,0.04,0.0558827890915269,372.361014413903,0.682855765759317,0.400672836244611
1949,0,0,0,0,0,0,0,0,0.756182517845111,0.750082818143722,0.04,0.0543689626422824,360.578117748421,0.643988497094286,0.411411032392278
2009,0,0,0,0,0,0,0,0,0.731452098585806,0.725891622207157,0.04,0.0521718359321718,348.779090460707,0.608301227874304,0.421295115535321
2069,0,0,0,0,0,0,0,0,0.706717590153506,0.701700426270592,0.04,0.04963023220518,336.978344901303,0.575879954528211,0.429956686677409
2129,0,0,0,0,0,0,0,0,0.682006426646088,0.677509230334027,0.04,0.0470461662868814,325.188936178011,0.546639307512967,0.43710883029048
2189,0,0,0,0,0,0,0,0,0.657343301232236,0.653318034397462,0.04,0.0446813921765503,313.422626758159,0.520340437408811,0.442585768217664
2249,0,0,0,0,0,0,0,0,0.632749778068071,0.629126838460896,0.04,0.0427436616204369,301.689691003787,0.496607974041468,0.44637663890301
2309,0,0,0,0,0,0,0,0,0.608242430275542,0.604935642524331,0.04,0.041370453197387,289.997968411537,0.474955688749537,0.448638497979238
2369,0,0,0,0,0,0,0,0,0.592373222572278,0.59781923611747,0.04,0.0318136916160261,282.652804083762,0.480676653450325,0.432070828506568
2429,0,0,0,0,0,0,0,0,0.601087019087683,0.608955190932015,0.04,0.0170727093500586,286.82035354573,0.526730854329597,0.400106755609803
2489,0,0,0,0,0,0,0,0,0.612496821939865,0.62009114574656,0.04,0.0147657960112667,292.308480987491,0.572830176201775,0.374947277221102
2549,0,0,0,0,0,0,0,0,0.623531981296969,0.631227100561105,0.04,0.0173061447833445,297.577908676458,0.619715706721175,0.352827851470301
2609,0,0,0,0,0,0,0,0,0.635302279383053,0.642363055375651,0.04,0.0216084348823343,303.198893368467,0.664277238707594,0.335376722653319
2669,0,0,0,0,0,0,0,0,0.647620680974136,0.653499010190196,0.04,0.0265310073245344,309.079226674275,0.702731691847451,0.323172913393852
2729,0,0,0,0,0,0,0,0,0.660215378037885,0.664634965004741,0.04,0.0314037992639299,315.089377350484,0.732874063202584,0.315906881381073
2789,0,0,0,0,0,0,0,0,0.672814210949053,0.675770919819286,0.04,0.035805210831865,321.09870746926,0.754074105135959,0.312881011006506
2849,0,0,0,0,0,0,0,0,0.685022451925775,0.686906874633832,0.04,0.0392967485867991,326.919204928794,0.767876873643818,0.31282649036122
2909,0,0,0,0,0,0,0,0,0.69675598535291,0.698042829448377,0.04,0.0415608252300158,332.514067307671,0.77717711740569,0.314372605458502
2969,0,0,0,0,0,0,0,0,0.708165899158382,0.709178784262922,0.04,0.0426708669218611,337.955756636449,0.784248579819626,0.31663635966264
3029,0,0,0,0,0,0,0,0,0.719381645855484,0.720314739077468,0.04,0.0429097914329017,343.305624757677,0.790494240421197,0.319107407232047
3089,0,0,0,0,0,0,0,0,0.730483980229714,0.731450693892013,0.04,0.042583689689481,348.601883009743,0.796740412500453,0.321490066730184
3149,0,0,0,0,0,0,0,0,0.741523803251586,0.742586648706558,0.04,0.0419468943775521,353.868634928463,0.803455623749462,0.323619626340324
3209,0,0,0,0,0,0,0,0,0.752534875920923,0.753722603521103,0.04,0.0411863965636219,359.121897462328,0.810874928907378,0.325418838367719
3269,0,0,0,0,0,0,0,0,0.763539740091985,0.764858558335649,0.04,0.0404273285965787,364.372334895864,0.819077035294497,0.326870195064675
3329,0,0,0,0,0,0,0,0,0.774552668306864,0.775994513150194,0.04,0.0397444491458929,369.626703024331,0.828039231947077,0.327994907575374
3389,0,0,0,0,0,0,0,0,0.785581644014006,0.787130467964739,0.04,0.0391745110504149,374.888774234314,0.837678911164176,0.328836131323508
3449,0,0,0,0,0,0,0,0,0.79663000828959,0.798266422779284,0.04,0.0387277007882253,380.160108803647,0.847884626112739,0.329446166863591
3509,0,0,0,0,0,0,0,0,0.807697898594738,0.80940237759383,0.04,0.0383973444185519,385.440750818603,0.858538204055315,0.329877488430576
3569,0,0,0,0,0,0,0,0,0.818783409344121,0.820538332408375,0.04,0.0381674825000247,390.729777907214,0.869529249440515,0.330177132358763
3629,0,0,0,0,0,0,0,0,0.82720935437222,0.826291909062557,0.04,0.0395060375367941,394.683346120635,0.873036808576868,0.33217804376216
3689,0,0,0,0,0,0,0,0,0.828208361426959,0.826291909062557,0.04,0.042582025515674,395.138721413311,0.862307439377932,0.33669923807037
3749,0,0,0,0,0,0,0,0,0.828052986706956,0.826291909062557,0.04,0.0440388897892051,395.061960500771,0.851265802800182,0.341000254946219
3809,0,0,0,0,0,0,0,0,0.827766598844913,0.826291909062557,0.04,0.0442538431103159,394.925112976304,0.841818412114586,0.344707717716195
3869,0,0,0,0,0,0,0,0,0.827477421595006,0.826291909062557,0.04,0.0437940546469502,394.787229598462,0.834117811406371,0.347768608072678
3929,0,0,0,0,0,0,0,0,0.827204623129596,0.826291909062557,0.04,0.0430328854987314,394.65725184039,0.828093187553083,0.350183397383171
3989,0,0,0,0,0,0,0,0,0.826958498517309,0.826291909062557,0.04,0.0421947252569144,394.540074390118,0.823604727466577,0.351987278578976
4049,0,0,0,0,0,0,0,0,0.826747077518684,0.826291909062557,0.04,0.0414096112679001,394.439504555869,0.820459105058175,0.353246723215241
4109,0,0,0,0,0,0,0,0,0.82657467038823,0.826291909062557,0.04,0.0407460551476064,394.357565287851,0.818429028256038,0.354049371933251
4169,0,0,0,0,0,0,0,0,0.82644165115886,0.826291909062557,0.04,0.0402313841012689,394.294407289482,0.817277121167157,0.35449160262974
4229,0,0,0,0,0,0,0,0,0.826345250587308,0.826291909062557,0.04,0.0398660338541381,394.248687801413,0.816776682890598,0.354667669857492
4289,0,0,0,0,0,0,0,0,0.826280619172782,0.826291909062557,0.04,0.039634243926582,394.218081989386,0.816726390557398,0.354661974759668
4349,0,0,0,0,0,0,0,0,0.826241864078998,0.826291909062557,0.04,0.0395120560286929,394.199773127404,0.816958611102167,0.354544695011109
4409,0,0,0,0,0,0,0,0,0.826222891184017,0.826291909062557,0.04,0.0394730055189344,394.190854553356,0.817342231588313,0.354370271431124
4469,0,0,0,0,0,0,0,0,0.829730299580146,0.833253969077798,0.04,0.037462670779932,395.952440678194,0.8276960396975,0.351501209211807
4529,0,0,0,0,0,0,0,0,0.842946929085967,0.847658231178296,0.04,0.0335565046450687,402.283626552258,0.855782996203242,0.345400832326478
4589,0,0,0,0,0,0,0,0,0.85744335013265,0.862062493278795,0.04,0.032003145166979,409.202347204999,0.884551490300798,0.339914486620986
4649,0,0,0,0,0,0,0,0,0.872094034345184,0.876466755379293,0.04,0.0319406020155574,416.192896410074,0.912057535012345,0.335295020734465
4709,0,0,0,0,0,0,0,0,0.886816395720534,0.890871017479792,0.04,0.0326069648222928,423.217355115263,0.937783892655837,0.331600652150584
4769,0,0,0,0,0,0,0,0,0.901567158167839,0.90527527958029,0.04,0.0335649217226566,430.254967042432,0.96146506551186,0.328811546726503
4829,0,0,0,0,0,0,0,0,0.91630078674162,0.919679541680789,0.04,0.0345627611349824,437.284105949874,0.983115147022739,0.326824030179494
4889,0,0,0,0,0,0,0,0,0.930986952201393,0.934083803781287,0.04,0.0354612377509652,444.290471145891,1.00296609464697,0.325488330885056
4949,0,0,0,0,0,0,0,0,0.945612788142385,0.948488065881786,0.04,0.0361979967860388,451.267910046539,1.02136122803357,0.324645778835962
5009,0,0,0,0,0,0,0,0,0.96017835542647,0.962892327982284,0.04,0.0367551985957745,458.216689169726,1.03866712291024,0.32415236478127
5069,0,0,0,0,0,0,0,0,0.974690662132487,0.977296590082783,0.04,0.0371455839363264,465.140116652955,1.05522009830688,0.323888418785875
5129,0,0,0,0,0,0,0,0,0.989159503920224,0.991700852183281,0.04,0.0373951778544066,472.042902665608,1.07130165651342,0.323760880192323
5189,0,0,0,0,0,0,0,0,0.996313661320819,0.991710717422772,0.04,0.0407199399680795,475.280714947201,1.06702005446033,0.327289661514405
5249,0,0,0,0,0,0,0,0,0.983985397223969,0.97633346877636,0.04,0.0480586669281161,469.340278928245,1.02306113441554,0.337086156352508
5309,0,0,0,0,0,0,0,0,0.968295605437173,0.960956220129947,0.04,0.0522350647625933,461.846102782188,0.977099961321936,0.347306541606838
5369,0,0,0,0,0,0,0,0,0.952169297881003,0.945578971483534,0.04,0.053632510394932,454.151607255774,0.93521725928251,0.356814930584171
5429,0,0,0,0,0,0,0,0,0.936047462999714,0.930201722837121,0.04,0.0533131409585429,446.460261759196,0.897871573728386,0.36536190552921
5489,0,0,0,0,0,0,0,0,0.919980822893897,0.914824474190708,0.04,0.0520394077688302,438.795331497598,0.864781120384117,0.372829677258122
5549,0,0,0,0,0,0,0,0,0.903976275146043,0.899447225544295,0.04,0.050301764827364,431.160081473316,0.835584581037066,0.379142792276069
5609,0,0,0,0,0,0,0,0,0.891871547593369,0.891502313743649,0.04,0.046203223498614,425.480210766907,0.820257491920128,0.381139391458244
5669,0,0,0,0,0,0,0,0,0.890168004031267,0.891502313743649,0.04,0.0398919718036568,424.694825147136,0.826403873453608,0.377606360775593
5729,0,0,0,0,0,0,0,0,0.889881672536227,0.891502313743649,0.04,0.0363125787496075,424.561509124917,0.835737055134824,0.373272191199372
5789,0,0,0,0,0,0,0,0,0.889833874319825,0.891502313743649,0.04,0.034797996374682,424.539972778468,0.845728975944881,0.368843431322787
5849,0,0,0,0,0,0,0,0,0.889926585445938,0.891502313743649,0.04,0.0345398520116536,424.585180049136,0.855434913877057,0.364697289754383
5909,0,0,0,0,0,0,0,0,0.89012049562902,0.891502313743649,0.04,0.0349963610921296,424.678311858546,0.864162328803289,0.361093298359411
5969,0,0,0,0,0,0,0,0,0.89036867261207,0.891502313743649,0.04,0.0358101712408293,424.796965162297,0.871488604805357,0.358157762989571
6029,0,0,0,0,0,0,0,0,0.890629020104898,0.891502313743649,0.04,0.0367465948928201,424.921134450731,0.877259454542273,0.355905706235844
6089,0,0,0,0,0,0,0,0,0.890871623159881,0.891502313743649,0.04,0.0376582093983504,425.03665509837,0.881526702318585,0.354279146216402
6149,0,0,0,0,0,0,0,0,0.891079423049361,0.891502313743649,0.04,0.0384610984298422,425.13548027492,0.884470166239269,0.353182225594652
6209,0,0,0,0,0,0,0,0,0.891245708024682,0.891502313743649,0.04,0.0391165093781488,425.214478861253,0.886329523473655,0.352506804452352
6269,0,0,0,0,0,0,0,0,0.888648944787629,0.886143915099989,0.04,0.0410686172215267,423.90835370031,0.879811088612517,0.354027680776233
6329,0,0,0,0,0,0,0,0,0.87862985198189,0.875057573078624,0.04,0.0445598019857639,419.107397724173,0.858764942278393,0.358596210858584
6389,0,0,0,0,0,0,0,0,0.867480536170323,0.86397123105726,0.04,0.0463939985703835,413.785337184868,0.836862320040411,0.363308667699243
6449,0,0,0,0,0,0,0,0,0.8561724703034,0.852884889035895,0.04,0.0469078755069835,408.389773332212,0.816098170650142,0.36769449696218
6509,0,0,0,0,0,0,0,0,0.844828401777835,0.84179854701453,0.04,0.046624537152165,402.977361487353,0.796826667050582,0.371596372044337
6569,0,0,0,0,0,0,0,0,0.833474551696684,0.830712204993166,0.04,0.0459091884068171,397.560436987376,0.779149580731849,0.374918606587096
6629,0,0,0,0,0,0,0,0,0.822128198877493,0.819625862971801,0.04,0.0450043509685843,392.147217527459,0.763055772758621,0.377613516989277
6689,0,0,0,0,0,0,0,0,0.810803334409655,0.808539520950436,0.04,0.0440716768076846,386.74433847758,0.748443130450744,0.379681847836296
6749,0,0,0,0,0,0,0,0,0.799509601052748,0.797453178929072,0.04,0.0432154663913527,381.356367896276,0.735142371712606,0.381166060737849
6809,0,0,0,0,0,0,0,0,0.788252204638462,0.786366836907707,0.04,0.0424965541216831,375.985763911471,0.722943996267941,0.382139052292421
6869,0,0,0,0,0,0,0,0,0.77703237913635,0.775280494886343,0.04,0.0419422831575214,370.633083936254,0.71162328936042,0.38269140355093
6929,0,0,0,0,0,0,0,0,0.765848239194581,0.764194152864978,0.04,0.0415551236142259,365.29740143063,0.700960907733808,0.382919480356852
6989,0,0,0,0,0,0,0,0,0.754695636107109,0.753107810843613,0.04,0.0413203510295828,359.976719735261,0.690758254985117,0.382915554022177
7049,0,0,0,0,0,0,-2.8421709430404e-17,-2.8421709430404e-17,0.743569068923056,0.742021468822249,0.04,0.0412128157162833,354.668413137319,0.680847397755431,0.382760758202009
7109,0,0,0,0,0,0,-2.8421709430404e-17,-2.8421709430404e-17,0.732462489329932,0.730935126800884,0.04,0.0412025948612626,349.369602296605,0.671095920275856,0.382520921317541
7169,0,0,0,0,0,0,0,0,0.721384258616984,0.719848784779519,0.04,0.0412680928669869,344.084519776542,0.661370847164482,0.382274001894436
7229,0,0,0,0,0,0,0,0,0.710335620959323,0.708762442758154,0.04,0.0414133438589891,338.813293006517,0.651459568742645,0.382144532152269
7289,0,0,0,0,0,0,0,0,0.701927309949333,0.703034499380449,0.04,0.0395672721609897,334.869706066273,0.649191010442838,0.379016432802256
7349,0,0,0,0,0,0,0,0,0.701074294705482,0.703034499380449,0.04,0.0356794114887672,334.482299284399,0.660359009820072,0.372175438379108
7409,0,0,0,0,0,0,0,0,0.701202066754187,0.703034499380449,0.04,0.0342433990912039,334.54520873918,0.671730321890023,0.365943921666093
7469,0,0,0,0,0,0,0,0,0.701454854306074,0.703034499380449,0.04,0.0344344907334722,334.666390751483,0.681762382089375,0.360689701177756
7529,0,0,0,0,0,0,0,0,0.701763583988012,0.703034499380449,0.04,0.0354265727713246,334.813989572761,0.690040171470056,0.356519999909537
7589,0,0,0,0,0,0,0,0,0.70209056152321,0.703034499380449,0.04,0.0367128842559308,334.969969839703,0.696372889887629,0.353442438563178
7649,0,0,0,0,0,0,0,0,0.702397303714132,0.703034499380449,0.04,0.0379917046705847,335.116029433457,0.70080679134811,0.351359399487027
7709,0,0,0,0,0,0,0,0,0.70265749021093,0.703034499380449,0.04,0.0390947438687126,335.239729970553,0.70357480487496,0.350106262736658
7769,0,0,0,0,0,0,0,0,0.702859504866924,0.703034499380449,0.04,0.0399454897631711,335.335634929391,0.70500892367136,0.34949403593776
7829,0,0,0,0,0,0,0,0,0.703003083793021,0.703034499380449,0.04,0.0405293231046731,335.403691593399,0.705463755722677,0.34933959183201
7889,0,0,0,0,0,0,0,0,0.703094835163912,0.703034499380449,0.04,0.040870116439029,335.447091366206,0.705266223330766,0.349482651250246
7949,0,0,0,0,0,0,0,0,0.703144584515239,0.703034499380449,0.04,0.0410121567259062,335.470536073791,0.704689365343859,0.34979318304841
8009,0,0,0,0,0,0,0,0,0.703162923327842,0.703034499380449,0.04,0.0410070301116374,335.4790774098,0.703943296241237,0.350172824210104
8069,0,0,0,0,0,0,0,0,0.703159745589602,0.703034499380449,0.04,0.0409048608099846,335.477426427306,0.703176812041001,0.35055279811001
8129,0,0,0,0,0,0,0,0,0.703143487427509,0.703034499380449,0.04,0.0407490956338221,335.469595162212,0.702484850157848,0.3508899085152
8189,0,0,0,0,0,0,0,0,0.703120819879868,0.703034499380449,0.04,0.0405739953136957,335.458751427083,0.701918633517677,0.351161609514277
8249,0,0,0,0,0,0,0,0,0.703096624048296,0.703034499380449,0.04,0.0404040754387402,335.447210591881,0.701496471505663,0.351360850956185
8309,0,0,0,0,0,0,0,0,0.703074149295568,0.703034499380449,0.04,0.0402548300527125,335.436510634686,0.701213940199731,0.351491208281201
8369,0,0,0,0,0,0,0,0,0.703055267889966,0.703034499380449,0.04,0.0401342016717874,335.42753553318,0.701052702220808,0.351562642350331
8429,0,0,0,0,0,0,0,0,0.703040777178351,0.703034499380449,0.04,0.0400443592087374,335.420657791131,0.700987587303222,0.351588089842334
8489,0,0,0,0,0,0,0,0,0.70303070118662,0.703034499380449,0.04,0.0399834910842997,335.415884227292,0.700991843174622,0.351580951654383
8549,0,0,0,0,0,0,0,0,0.703024567946439,0.703034499380449,0.04,0.0399473978811045,335.412986640491,0.701040660232792,0.351553432246881
8609,0,0,0,0,0,0,0,0,0.703021639768319,0.703034499380449,0.04,0.0399307852795372,335.411611757291,0.701113212425964,0.351515612102332
8669,0,0,0,0,0,0,0,0,0.703021090928128,0.703034499380449,0.04,0.0399282164871956,335.411365527234,0.701193522243448,0.351475093932146
8729,0,0,0,0,0,0,0,0,0.703022130590807,0.703034499380449,0.04,0.0399347416084572,335.411871249678,0.701270477752078,0.35143705389909
8789,0,0,0,0,0,0,0,0,0.703024077773231,0.703034499380449,0.04,0.0399462497267844,335.412805096377,0.701337304830682,0.351404545512928
8849,0,0,0,0,0,0,0,0,0.703026397066954,0.703034499380449,0.04,0.0399596044410662,335.41391284745,0.701390749794686,0.351378929470908
8909,0,0,0,0,0,0,0,0,0.703028705028649,0.703034499380449,0.04,0.0399726254125449,335.415012723179,0.701430168736803,0.351360334855923
8969,0,0,0,0,0,0,0,0,0.703030757540224,0.703034499380449,0.04,0.0399839746534614,335.415989294265,0.701456658311846,0.351348089159297
9029,0,0,0,0,0,0,0,0,0.703032426147915,0.703034499380449,0.04,0.0399929925869183,335.416782075045,0.701472309625227,0.351341080268034
9089,0,0,0,0,0,0,0,0,0.703033670378531,0.703034499380449,0.04,0.0399995209746723,335.41737233544,0.701479622882064,0.351338035648345
9149,0,0,0,0,0,0,0,0,0.703034510281057,0.703034499380449,0.04,0.0400037362774251,335.417770035686,0.701481088987805,0.351337717923018
9209,0,0,0,0,0,0,0,0,0.703035002413806,0.703034499380449,0.04,0.0400060072066519,335.418002354577,0.701478923423058,0.351339045898497
9269,0,0,0,0,0,0,0,0,0.703035220456933,0.703034499380449,0.04,0.040006783749277,335.418104516095,0.701474926340368,0.351341154879083
9329,0,0,0,0,0,0,0,0,0.703035241031172,0.703034499380449,0.04,0.0400065177342866,335.418113058718,0.701470438351799,0.351343411698344
9389,0,0,0,0,0,0,0,0,0.70303513432368,0.703034499380449,0.04,0.0400056123312129,335.418061390737,0.7014663621585,0.351345399219584
9449,0,0,0,0,0,0,0,0,0.703034958810827,0.703034499380449,0.04,0.0400043952990907,335.41797730577,0.701463223839093,0.35134688304721
9509,0,0,0,0,0,0,0,0,0.703034759162226,0.703034499380449,0.04,0.0400031102994293,335.41788200327,0.701461252755619,0.351347770491937
9569,0,0,0,0,0,0,0,0,0.703034566399737,0.703034499380449,0.04,0.0400019206227056,335.417790183684,0.70146046466643,0.351348069049884
9629,0,0,0,0,0,0,0,0,0.703034399491007,0.703034499380449,0.04,0.0400009203597623,335.417710803829,0.70146073784945,0.351347849067935
9689,0,0,0,0,0,0,0,0,0.703034267657039,0.703034499380449,0.04,0.040000149161156,335.417648202528,0.701461876515228,0.351347213159284
9749,0,0,0,0,0,0,0,0,0.703034172932869,0.703034499380449,0.04,0.0399996075490852,335.417603297664,0.701463659204209,0.351346273213514
9809,0,0,0,0,0,0,0,0,0.703034112534054,0.703034499380449,0.04,0.0399992710153798,335.417574734247,0.701465872413807,0.351345134753789
9869,0,0,0,0,0,0,0,0,0.703034080936196,0.703034499380449,0.04,0.0399991017193944,335.417559862026,0.701468331075564,0.351343887703066
9929,0,0,0,0,0,0,0,0,0.703034071463822,0.703034499380449,0.04,0.0399990574230894,335.417555490348,0.701470888510163,0.351342602188255
9989,0,0,0,0,0,0,0,0,0.703034077440659,0.703034499380449,0.04,0.0399990976658104,335.417558440395,0.70147343854966,0.351341328056062
10049,0,0,0,0,0,0,0,0,0.7030340929245,0.703034499380449,0.04,0.039999187507127,335.41756588195,0.701475912459001,0.351340096768279
10109,0,0,0,0,0,0,0,0,0.703034113084358,0.703034499380449,0.04,0.0399992993230125,335.417575520965,0.70147827289043,0.351338924626923
10169,0,0,0,0,0,0,0,0,0.703034134327861,0.703034499380449,0.04,0.0399994131501387,335.417585653733,0.701480506594536,0.351337816482246
10229,0,0,0,0,0,0,0,0,0.703034154243705,0.703034499380449,0.04,0.0399995160745597,335.41759513838,0.701482617147458,0.351336769345866
10289,0,0,0,0,0,0,0,0,0.703034171438427,0.703034499380449,0.04,0.0399996010725169,335.41760331686,0.701484618476869,0.351335775551783
10349,0,0,0,0,0,0,0,0,0.703034185314932,0.703034499380449,0.04,0.0399996656378474,335.417609910349,0.701486529611841,0.35133482527644
10409,0,0,0,0,0,0,0,0,0.703034195853347,0.703034499380449,0.04,0.0399997104067473,335.417614912559,0.701488370772435,0.351333908385497
10469,0,0,0,0,0,0,0,0,0.703034203400033,0.703034499380449,0.04,0.0399997379505745,335.417618491917,0.701490160755069,0.351333015640871
10529,0,0,0,0,0,0,0,0,0.703034208502094,0.703034499380449,0.04,0.0399997517861088,335.417620908399,0.701491915412789,0.351332139374726
10589,0,0,0,0,0,0,0,0,0.703034211767837,0.703034499380449,0.04,0.0399997556525392,335.417622454679,0.701493647018389,0.351331273746743
10649,0,0,0,0,0,0,0,0,0.70303421378485,0.703034499380449,0.04,0.039999753016773,335.417623409401,0.701495364237541,0.351330414708585
10709,0,0,0,0,0,0,0,0,0.703034215060904,0.703034499380449,0.04,0.0399997467973227,335.417624013712,0.701497072508992,0.35132955978886
10769,0,0,0,0,0,0,0,0,0.703034215996976,0.703034499380449,0.04,0.0399997392420477,335.417624458909,0.701498774642127,0.351328707780863
10829,0,0,0,0,0,0,0,0,0.703034216881782,0.703034499380449,0.04,0.0399997319282817,335.417624881907,0.701500471479187,0.351327858406148
10889,0,0,0,0,0,0,0,0,0.703034217905382,0.703034499380449,0.04,0.0399997258313616,335.417625371515,0.701502162528497,0.351327012003939
10949,0,0,0,0,0,0,0,0,0.703034219168574,0.703034499380449,0.04,0.0399997214397786,335.41762597671,0.701503846522828,0.351326169260143
11009,0,0,0,0,0,0,0,0,0.703034220708869,0.703034499380449,0.04,0.03999971887485,335.417626713429,0.701505521849664,0.351325330998978
11069,0,0,0,0,0,0,0,0,0.703034222515841,0.703034499380449,0.04,0.0399997180142322,335.417627577641,0.701507186869391,0.351324498037298
11129,0,0,0,0,0,0,0,0,0.703034224552388,0.703034499380449,0.04,0.0399997185911826,335.41762855116,0.70150884011587,0.35132367109024
11189,0,0,0,0,0,0,0,0,0.703034226767967,0.703034499380449,0.04,0.0399997202771335,335.417629609226,0.701510480407566,0.35132285072351
11249,0,0,0,0,0,0,0,0,0.703034229108246,0.703034499380449,0.04,0.0399997227395918,335.417630726324,0.701512106888123,0.351322037339158
11309,0,0,0,0,0,0,0,0,0.703034231521373,0.703034499380449,0.04,0.0399997256796749,335.417631878338,0.701513719015194,0.351321231183441
11369,0,0,0,0,0,0,0,0,0.703034233966559,0.703034499380449,0.04,0.0399997288531413,335.417633045008,0.701515316517071,0.351320432371109
11429,0,0,0,0,0,0,0,0,0.703034236410676,0.703034499380449,0.04,0.039999732076902,335.417634210862,0.701516899339499,0.351319640913029
11489,0,0,0,0,0,0,0,0,0.703034238829891,0.703034499380449,0.04,0.03999973522645,335.417635364836,0.701518467585816,0.35131885674576
11549,0,0,0,0,0,0,0,0,0.703034241211867,0.703034499380449,0.04,0.0399997382280911,335.417636500809,0.701520021458819,0.351318079761232
11609,0,0,0,0,0,0,0,0,0.70303424354765,0.703034499380449,0.04,0.0399997410497388,335.417637614918,0.701521561220153,0.351317309824277
11669,0,0,0,0,0,0,0,0,0.703034245837588,0.703034499380449,0.04,0.0399997436872098,335.417638706999,0.701523087147869,0.351316546795382
11729,0,0,0,0,0,0,0,0,0.703034248082273,0.703034499380449,0.04,0.039999746157095,335.417639777748,0.701524599517702,0.351315790537102
11789,0,0,0,0,0,0,0,0,0.703034250286289,0.703034499380449,0.04,0.0399997484856592,335.417640828768,0.701526098582852,0.351315040924229
11849,0,0,0,0,0,0,0,0,0.703034252453721,0.703034499380449,0.04,0.0399997507027471,335.417641862754,0.701527584569743,0.35131429784611
11909,0,0,0,0,0,0,0,0,0.703034254591226,0.703034499380449,0.04,0.0399997528375183,335.417642882472,0.701529057671753,0.351313561208719
11969,0,0,0,0,0,0,0,0,0.703034256702082,0.703034499380449,0.04,0.0399997549157431,335.417643889262,0.701530518056884,0.351312830929247
12029,0,0,0,0,0,0,0,0,0.703034258790613,0.703034499380449,0.04,0.0399997569577874,335.417644885345,0.701531965867258,0.351312106938769
12089,0,0,0,0,0,0,0,0,0.703034260859097,0.703034499380449,0.04,0.039999758978944,335.417645872177,0.7015334012267,0.351311389176722
