time,bias_percent_1,bias_percent_2,bias_percent_3,bias_percent_4,bias_percent_5,bias_percent_6,bias_percent_8,bias_percent_9,normalized_power,power_SP,SP,CV,total_power_MW,fuel_fraction,thermal_efficiency
57,0,0,0,0,0,0,0,0,0.99985219670941,1,0.04,0.0399045306442518,477.03196640444,1.00005486367501,0.350492179857063
117,0,0,0,0,0,0,0,0,0.999983132152703,1,0.04,0.0399133913282592,477.092242594834,1.00029355986701,0.350452819731842
177,0,0,0,0,0,0,0,0,0.999998832553674,1,0.04,0.0399530798510796,477.099484006675,1.00031795155625,0.350449593433496
237,0,0,0,0,0,0,0,0,1.00000175689664,1,0.04,0.0399796147079195,477.100852073147,1.00031180115055,0.350452753077242
297,0,0,0,0,0,0,0,0,1.00000309001967,1,0.04,0.0399952444872251,477.101482123412,1.0002956258034,0.350458882905553
357,0,0,0,0,0,0,0,0,1.00000379621376,1,0.04,0.0400039680452134,477.101814581756,1.00027401500899,0.350466698741018
417,0,0,0,0,0,0,0,0,1.00000399067534,1,0.04,0.0400083399902867,477.101903760368,1.00025024308526,0.350475093434198
477,0,0,0,0,0,0,0,0,1.00000380449591,1,0.04,0.0400099664508627,477.101812503946,1.00022688113041,0.350483212322499
537,0,0,0,0,0,0,0,0,1.00000338149978,1,0.04,0.0400099149497884,477.101609284614,1.00020563974674,0.350490506250368
597,0,0,0,0,0,0,0,0,1.00000284355737,1,0.04,0.0400089159342345,477.101352227334,1.0001874431976,0.350496693928857
657,0,0,0,0,0,0,0,0,1.0000022791119,1,0.04,0.0400074649700379,477.10108292719,1.00017261511303,0.350501692385514
717,0,0,0,0,0,0,0,0,1.00000174596221,1,0.04,0.0400058878855567,477.100829015283,1.0001610719252,0.350505551102599
777,0.237496742063979,0.237491665787811,0.2375,0.237483944571771,0.189722837038571,0.237498744573126,-0.123131535908324,0.237498455385101,0.980184318259381,1,0.04,0.0682943857872007,467.57843302109,1.08601284765987,0.316354622340768
837,0.249996570593662,0.249991227145064,0.25,0.249983099549233,0.199708249514286,0.249998678498028,-0.129612143061394,0.24999837408958,0.993520846290706,1,0.04,0.0645428660917715,474.074582178146,1.15193689557919,0.302393644098714
897,0.249975036788167,-0.0770938547264958,-0.224990577333014,-0.163829384353891,0.247485412475714,0.249999933924901,0.231016042078808,0.249933615902583,1.00653944932653,1,0.04,0.0477949480861719,480.26156732504,1.14183782985061,0.309049526651603
957,0.249973903429983,-0.0943088590355252,-0.249990081403173,-0.185608988769845,0.25,0.25,0.249996472875661,0.249930207576951,1.00484491030055,1,0.04,0.051014217817956,479.396238564724,1.10471289035688,0.318859878903263
1017,-0.224983795806498,-0.0334992388087267,-0.249999455134669,0.228219550561508,0.25,0.24958958170116,0.249999823643783,-0.224833636746712,1.01417740525828,1,0.04,0.0441766102262127,483.896772191508,1.03561891272614,0.343326580839375
1077,-0.249981569450524,-0.0302987324810003,-0.249999948488958,0.25,0.25,0.249567980738064,0.25,-0.249821207500589,1.00396579214454,1,0.04,0.0424512129967957,478.951311800353,0.99208659175387,0.354728811047789
1137,-0.249400273895663,0.110378791493668,0.224944570767893,-0.223167785427648,-0.224928571163589,-0.225021600963097,0.249938233137877,0.22496565492749,1.00296883712625,1,0.04,0.0324044137689263,478.538918749748,0.978503982526871,0.359343126969027
1197,-0.249369679392775,0.117782871702861,0.24994165072878,-0.248071353081735,-0.249924811751146,-0.25,0.249934982250396,0.249954437160547,1.00266554516814,1,0.04,0.0315414730776039,478.360802604649,0.958349624729908,0.366763649069652
1257,-0.249713034842341,-0.231610856414857,0.249994113838516,0.224660312900503,-0.249996240587557,0.224982405633006,-0.224993715816892,0.249928718943851,1.00250102645788,1,0.04,0.0336935416926391,478.300339379303,0.947932531633476,0.370747249223823
1317,-0.249731106181792,-0.25,0.249996875054817,0.249540926899568,-0.25,0.249981479613691,-0.249989963083592,0.249927365353499,0.999219491557447,1,0.04,0.0326032212992445,476.715968470227,0.946614205483796,0.370033768320645
1377,0.145769957482947,-0.249999984687444,-0.225000084886683,-0.224772264816645,-0.25,0.249986731019756,-0.249999237777881,0.0188260969667103,0.995622138407866,0.97617581080509,0.04,0.0195345263286118,474.905111834486,0.858478029741925,0.406473592093487
1437,0.166585802938986,-0.24999998388152,-0.249999924883604,-0.249736117012236,-0.25,0.249987007409549,-0.249999725919686,0.00666287231477401,0.959301296513611,0.951097716915711,0.04,0.024216880141795,457.445974652277,0.789314565068947,0.425837957171734
1497,-0.229163232934319,0.224392467580688,0.224906793021195,-0.249986520809211,-0.24999993455333,0.249999350334371,-0.249999965977025,0.237833120690485,0.917873867463795,0.926019623026332,0.04,0.0459170172498462,437.683833091047,0.814938332645721,0.394630306753042
1557,-0.249992129559229,0.249360491341857,0.249901883437237,-0.24999969995642,-0.249999931108769,0.249999999961993,-0.249999978611622,0.249999975868154,0.90370355730664,0.900941529136953,0.04,0.0463905924497456,430.989590480006,0.813969732284935,0.389056971124359
1617,-0.170963376713526,0.242910667048856,0.249995094171862,0.223741331627751,0.224999998587233,0.24999999994716,0.224949307251059,-0.224900321480412,0.869619370500749,0.875863435247574,0.04,0.0735802619965908,414.679292457866,0.834461531558372,0.36514108735406
1677,-0.166803968669016,0.242571202612383,0.25,0.248675070132181,0.249999994887022,0.24999999994638,0.249946638085937,-0.249895073972442,0.852867779190549,0.850785341358195,0.04,0.0737005805472378,406.743853738557,0.8374632950625,0.356869879160896
1737,0.229159801566549,-0.169988287632888,-0.225,0.244646897753793,0.249999950681916,-0.0802365453361754,0.249971885458271,-0.243866954560578,0.840541804220215,0.825707247468816,0.04,0.0532563860467272,400.848266533214,0.768151998879696,0.383431263878399
1797,0.25,-0.191701945014218,-0.25,0.244434888681246,0.249999948355331,-0.0976174161405204,0.249973214267341,-0.19321261099562,0.808318939147437,0.800629153579437,0.04,0.0562326378727112,385.420735616449,0.707327571136853,0.400377040781556
1857,0.249999928566643,0.227912123732037,-0.25,-0.225267913358039,-0.225000002582233,0.232619117914343,0.249998660657122,0.224999889968434,0.792084164545696,0.799375248884969,0.04,0.0524545347567441,377.884546497379,0.731567640349925,0.379541545078978
1917,0.249999924806993,0.249997074718682,-0.25,-0.249989113465369,-0.25,0.249999988127757,0.249999999940794,0.249999736356309,0.798467152583245,0.799375248884969,0.04,0.0452891591419591,380.964397876642,0.746688463194359,0.374886349169391
1977,0.24999999624035,-0.0815640037867244,0.10545085459627,0.225000541229084,0.224984914879552,0.249999393861574,0.249999898339451,0.249999986817816,0.785765771820448,0.799375248884969,0.04,0.0650439944787316,374.848473385511,0.805992274857195,0.341727196343603
2037,0.25,-0.0990145868659563,0.124158794311863,0.249999996739318,0.249984120925844,0.249999362584407,0.249999892992012,0.25,0.79448466377182,0.799375248884969,0.04,0.0601749689184493,379.08309984777,0.852032454631213,0.326913580216784
2097,0.249981376340584,0.232549270656702,0.243707939715593,0.249986475858513,0.249997529129103,0.249999968129221,0.249999984518542,0.249974715984303,0.792755116441969,0.799375248884969,0.04,0.0730690188875915,378.217504108689,0.887137713834377,0.313260227036915
2157,0.249980396147984,0.25,0.25,0.249985764233208,0.249998234824011,0.25,0.249999989335728,0.249973385246635,0.795160264265917,0.799375248884969,0.04,0.0726111251197779,379.386608495928,0.917902846775512,0.303696618773041
2217,0.249999019807399,0.2499865312497,0.0710888314117658,0.249999039687883,0.249999911741201,0.249929082858299,-0.00426565298989679,-0.00426565298989679,0.80618582708375,0.799375248884969,0.04,0.063479033562313,384.536228147861,0.86929028720262,0.32503274167804
2277,0.25,0.249985822368105,0.0616724541176484,0.249999738396024,0.25,0.249925350377157,-0.00201467842021464,-0.00201467842021464,0.799024992552592,0.799375248884969,0.04,0.0630475038317539,381.193496040784,0.861780252559639,0.325015161143031
2337,0.25,0.249711331421052,-0.233778198421087,0.249986348873998,-0.22499485445176,0.249996267518858,0.224995943046044,-0.000957114462092828,0.802167258591006,0.799375248884969,0.04,0.0476166670254058,382.702257601088,0.842649645799173,0.333709567328523
2397,0.25,0.249696884529102,-0.249328232765231,0.249985644162312,-0.249994583633431,0.25,0.249995729522151,-0.000452177527643469,0.801786227765694,0.799375248884969,0.04,0.0473148613933386,382.525479382845,0.826146187423461,0.340218669142901
2457,0.246457064212139,0.249984844226455,-0.24996638419572,0.248812366029417,-0.249999729181672,0.249999415599487,0.236185313864856,-0.000213328708717527,0.801387195449535,0.799375248884969,0.04,0.0468224494683193,382.337898277798,0.81323215128596,0.345451819576056
2517,0.246270593907515,0.25,-0.249999971113115,0.248750614548738,-0.25,0.249999384841565,0.235458449882893,-0.000100505050791418,0.800550772791967,0.799375248884969,0.04,0.046293965207013,381.938044178949,0.804619289539584,0.348784483601385
2577,0.249813491934186,0.249989356869669,0.225000001444344,-0.123133542760765,0.224995892057886,0.249994915166616,0.249272922494145,0.237472404499626,0.786466985621948,0.799375248884969,0.04,0.0639846773518253,375.178653012341,0.859025176023862,0.320912699605779
2637,0.249999960251379,0.249988796704914,0.25,-0.142706393145476,0.249995675850406,0.249994679920566,0.25,0.249976046182659,0.795826795157641,0.799375248884969,0.04,0.062018077751732,379.731141936514,0.898791526297276,0.310435888079442
2697,0.249999998012569,0.249984537914341,0.0527614835317142,0.230360693186425,0.249999545357963,0.249999666294381,0.249987921432765,0.249988781820072,0.796581159136304,0.799375248884969,0.04,0.0678328274733706,380.047910310463,0.915373448981359,0.305066636595664
2757,0.25,0.249984313767469,0.0423805089807519,0.249995802993368,0.249999749016256,0.249999928735108,0.2499872857187,0.249989452116778,0.798032405878809,0.799375248884969,0.04,0.0690933660605633,380.748769322491,0.926217263501804,0.302051024501558
2817,0.249999932642261,0.249991489381653,-0.235379843759267,0.249999790043686,0.249995365876786,-0.225000003539431,0.249999157961039,0.249999472605839,0.809307489730562,0.799375248884969,0.04,0.0547539693937701,386.177562063085,0.888235782386879,0.319457764440806
2877,0.249999929097117,0.249991867045557,-0.249998809692952,0.24999999988844,0.249995135185236,-0.249999999974933,0.249999782815899,0.25,0.803218547842129,0.799375248884969,0.04,0.0577351221900047,383.183594411976,0.851667668400309,0.330591301817869
2937,0.24999965386491,-0.225000405281941,-0.249995245252504,0.249999999994422,0.249999654499503,-0.24999935846203,-0.000220111216889706,0.249997338114577,0.808670146820142,0.799375248884969,0.04,0.0371473440852296,385.773785726955,0.793926748381552,0.357031845758881
2997,0.249999639379004,-0.249999998562335,-0.249995057650375,0.25,0.249999892358148,-0.249999324698193,-0.00561034253281843,0.249997198015344,0.802124048055149,0.799375248884969,0.04,0.033354563086001,382.665350199203,0.765608192636725,0.367254599360504
3057,-0.22500001803105,0.224990071006052,-0.249995249390366,0.249999929780442,-0.225000005382093,-0.24999996623491,0.225000356998026,0.249999859900767,0.800184534586914,0.799375248884969,0.04,0.0246926313948305,381.757940153493,0.746983043711769,0.375519082703327
3117,-0.25,0.249989548351757,-0.249995259481945,0.249999926084676,-0.25,-0.25,0.25,0.25,0.800384209046943,0.799375248884969,0.04,0.0228103403588087,381.848402355176,0.734991962339553,0.381735952441424
3177,0.225,0.249998811967604,0.225000201440932,0.249999957410601,0.225,0.224999934271708,-0.0741911301179359,0.25,0.779760254476076,0.799375248884969,0.04,0.0675585816089736,371.891305045472,0.811176183108757,0.33686470480691
3237,0.25,0.249999299526332,0.249999962542136,0.249999959059334,0.25,0.249999930812324,-0.0521170522481066,0.25,0.791498871498812,0.799375248884969,0.04,0.0629457952743717,377.693388864194,0.88722347015403,0.312795889576161
3297,0.249984607851488,0.249998386770928,0.249999998127107,0.249965837108023,0.25,0.249999145742188,-0.0247193955663069,0.249975614883991,0.796356900913087,0.799375248884969,0.04,0.0642743943800707,379.959915620897,0.91205357687964,0.306106187228021
3357,0.249983797738409,0.24999833873117,0.25,0.249964041215849,0.25,0.249999104422707,-0.0116762964517791,0.249974331456832,0.797704405087252,0.799375248884969,0.04,0.0662489008483807,380.590791894303,0.924103223526362,0.302616405057369
3417,0.24999127016122,0.249999916936559,0.249985958311003,0.0812018627870239,0.249998223666571,0.249999955221135,-0.00551520191752794,-0.00551520191752794,0.804414976728842,0.799375248884969,0.04,0.0611536457159206,383.738511300297,0.891211306487768,0.316380257412425
3477,0.249991663446631,0.25,0.24998521927474,0.0723196428697173,0.249998130175338,0.25,-0.00260492073921125,-0.00260492073921125,0.799677539680646,0.799375248884969,0.04,0.0614697095229413,381.509616298121,0.882335384136463,0.317706770147306
3537,0.249970796067389,-0.225,0.220773982557798,-0.233860277734035,0.249999906508767,0.24995185644655,-0.00134249148691763,-0.00134249148691763,0.807044812296982,0.799375248884969,0.04,0.0391674273568847,385.112908884699,0.855408417917456,0.33080284262143
3597,0.249969697784271,-0.25,0.21923654904638,-0.24997501039739,0.25,0.249949322575316,-0.00257981924757992,-0.00257981924757992,0.803397365914363,0.799375248884969,0.04,0.0395883300240403,383.276330918935,0.820607354716614,0.343187350331063
3657,0.249842088345046,0.225,-0.226538172547681,0.22500124948013,0.25,-0.224979826268719,0.224983530578715,-0.00266247329083729,0.79824943358247,0.799375248884969,0.04,0.0479039347154061,380.756379254405,0.804834383235571,0.347612466329621
3717,0.249835372058771,0.25,-0.25,0.25,0.25,-0.24997609726051,0.249982663767068,-0.00125739354530808,0.799532128268971,0.799375248884969,0.04,0.0457294904794758,381.465026625095,0.808881236096605,0.346517077133938
3777,0.249991768602939,-0.225,-0.0167162499921203,-0.224996987491769,-0.171175822100677,0.225001148575193,0.0742223760400087,0.237392147376452,0.805542733497116,0.799375248884969,0.04,0.0255088666947481,384.383942883909,0.78970573611026,0.357647028463223
3837,0.25,-0.25,-0.00443815788644258,-0.249996828938704,-0.193342970632292,0.249999950987598,0.0649718345806897,0.249950212804345,0.801749643863928,0.799375248884969,0.04,0.0262972340133633,382.490827022488,0.763938053637957,0.367889638902489
3897,0.25,-0.249999067645123,-0.237721907894322,0.225000158553065,-0.247055873071511,0.24999999754938,0.240747912561585,-0.0535075801254326,0.799113759838517,0.799375248884969,0.04,0.0297549352534266,381.153878768765,0.744588877769799,0.376130434143629
3957,0.25,-0.249999018573813,-0.25,0.25,-0.249882867936734,0.25,0.249999285086895,-0.0830015751489034,0.798322054195952,0.799375248884969,0.04,0.0271329291171994,380.879393595234,0.752340086334653,0.371987161062474
4017,0.249999865784285,-0.249999950928691,0.224996104090068,0.25,0.225005856603163,0.249999810071006,-0.10880762269941,-0.10880762269941,0.790275948032434,0.799375248884969,0.04,0.0456490045896554,376.927595635933,0.78176476951768,0.354271744243852
4077,0.2499998587203,-0.25,0.249995899042177,0.25,0.25,0.249999800074743,-0.116015197526284,-0.116015197526284,0.795039562679964,0.799375248884969,0.04,0.0433994726648318,379.342320157884,0.821003744361277,0.339500825490497
4137,0.249999735264218,-0.249997541500346,0.249999794952109,-0.224999999922666,0.25,0.249999990003737,-0.11713667208334,0.225000446682048,0.793804908002568,0.799375248884969,0.04,0.0392311481791887,378.720596990471,0.844515024000625,0.329508195913688
4197,0.24999972876653,-0.249997412105627,0.25,-0.249999999918596,0.25,0.25,-0.118430082615156,0.25,0.799740966518602,0.799375248884969,0.04,0.0415872136634585,381.573642138419,0.850855975622322,0.329516366733441
4257,0.249999986438326,0.224999423108649,0.24999197064922,-0.24999999999593,0.25,-0.224796173854248,-0.11484946940338,0.249996569825659,0.804461375045277,0.799375248884969,0.04,0.0480114185918548,383.854693127843,0.830689362213137,0.339533696887951
4317,0.25,0.249999256540979,0.24999154805181,-0.25,0.25,-0.249785446162366,-0.100734389780478,0.249996389290167,0.801300881735596,0.799375248884969,0.04,0.0506829151929821,382.284171220453,0.811918307245498,0.345962206501006
4377,0.25,0.249999478557126,-0.224668441626502,0.224999791691713,-0.224998073446691,0.225007447718036,-0.0833650877511602,-0.0833650877511602,0.805241813566581,0.799375248884969,0.04,0.0440184610897807,384.096564280089,0.770738902564454,0.366174264954475
4437,0.25,0.249999490242187,-0.249650546346413,0.24999978072812,-0.249997972049149,0.249996547395952,-0.0705420266564203,-0.0705420266564203,0.800315802443454,0.799375248884969,0.04,0.0414354146852169,381.81621213828,0.758813154360858,0.36972106056011
4497,0.25,0.249997418577591,-0.249982527317321,-0.224999739752494,0.189301717476874,0.0281307705018287,-0.0665161733510854,-0.0665161733510854,0.802151791191493,0.799375248884969,0.04,0.0302722473607957,382.717450974667,0.746309753728098,0.376802542139274
4557,0.25,0.249997309542612,-0.25,-0.249999714514632,0.212422753767717,0.0164536243495064,-0.0779556969636877,-0.0779556969636877,0.800849169457541,0.799375248884969,0.04,0.0287364057997436,382.077785142845,0.734431979905313,0.382256504779095
4617,-0.225,-0.22499845262819,-0.249957640756638,-0.249976491560128,-0.226878847747155,0.238322681217475,-0.112715369657345,-0.112715369657345,0.80231899714215,0.799375248884969,0.04,5.47477783627835e-09,382.525844012501,0.68170642736826,0.412304495072333
4677,-0.25,-0.249998229584548,-0.249955411322777,-0.249975269299364,-0.24999998466899,0.25,-0.183267963867069,-0.183267963867069,0.783823234701556,0.799375248884969,0.04,4.41821911687497e-10,373.938971113741,0.761214149401752,0.360951252123558
4737,-0.25,-0.249999890018772,-0.249997529006657,-0.249998738402296,0.224902502194653,0.249964591370361,0.22500931513987,-0.249960348027646,0.799487266614775,0.799375248884969,0.04,0.0145438640410525,380.489082295891,0.723962162330899,0.386172201020445
4797,-0.25,-0.249999977410047,-0.249999745726861,-0.24999997361824,0.249897369924318,0.249962727758275,0.249999987351236,-0.249958330226983,0.796735159080692,0.799375248884969,0.04,0.0170000010816912,380.113530712841,0.740604364624336,0.37712188709067
4857,0.224897679580182,-0.249943951200039,-0.249987415184501,-0.249998377033852,0.249994868496216,0.249998136387914,0.249815654321243,-0.249995398981104,0.783776835401449,0.799375248884969,0.04,0.0282161689554156,373.91243102957,0.80722467362131,0.340353445991897
4917,0.249892294294928,-0.249941002452143,-0.249986766208588,-0.249998293003095,0.25,0.25,0.249805952582823,-0.249997349968163,0.794424245246395,0.799375248884969,0.04,0.0319673702596381,379.059699615915,0.857938300282803,0.324643142980265
4977,0.249911178769203,-0.131924759578626,-0.249999338310429,0.224310269262029,-0.109321195901244,0.249999881536819,-0.072058383217463,0.224995843292178,0.790648642773329,0.799375248884969,0.04,0.044978196141932,377.24539757586,0.907567170613832,0.305421670753319
5037,0.249912172688902,-0.125713378374756,-0.25,0.249273877802299,-0.128232837790783,0.249999875301914,-0.0889986114174779,0.249995485042722,0.799833378137952,0.799375248884969,0.04,0.0509270263069931,381.635163170811,0.920065413873516,0.304778518592765
5097,0.249995608634445,0.150956663368913,0.224999034291513,0.249963693890115,-0.24390991705985,0.249999993765096,0.173796056963952,0.249510239847628,0.790612236242137,0.799375248884969,0.04,0.0774418817795761,377.179661205257,0.956005227751352,0.28989630187065
5157,0.25,0.165518244513317,0.24999898346475,0.25,-0.249998184389801,0.25,0.187627355299817,0.249484700626833,0.799858976938218,0.799375248884969,0.04,0.0773970711981751,381.656003239302,0.97115213058366,0.288761644843784
5217,0.249999999999811,0.245773380094075,-0.224990014436525,0.249999863791535,-0.249935789202062,-0.224878229939184,0.246866227231789,0.249959022511972,0.81258259443352,0.799375248884969,0.04,0.0621659429622492,387.743333488619,0.915120395225938,0.311329863623083
5277,0.249999999999801,0.249997334598326,-0.249989435378698,0.249999856622668,-0.249932505244812,-0.249871820988615,0.249984062596629,0.249983986821716,0.807345245603192,0.799375248884969,0.04,0.0642866594164197,385.153084561996,0.854868197145755,0.331046420136213
5337,0.248603924662523,0.249984208617013,-0.249867423183359,0.084919274367266,-0.0415212447417556,0.223705650032626,0.249994830882396,0.249999142439988,0.797461626942348,0.799375248884969,0.04,0.0717024124795506,380.424263263482,0.848879149031834,0.32928884466497
5397,0.248530447013193,0.249983517775892,-0.249861001488867,0.0762308226696132,-0.0305522310310683,0.248630780086375,0.249995397634279,0.249999940104108,0.801493119996567,0.799375248884969,0.04,0.0658672001489765,382.406472434859,0.84403834837694,0.332903017441599
5457,-0.224990381950252,-0.225000824049085,-0.249956223141218,-0.0981858325966961,0.235958860841521,0.249804109614925,-0.075243678843889,-0.075243678843889,0.822008098941256,0.799375248884969,0.04,0.0256236013234251,392.199017631195,0.721321207766892,0.399514435947961
5517,-0.249912530843065,-0.249999999934611,-0.249961234807131,-0.107365656558081,0.249985760413763,0.249865863800638,-0.0710388076943322,-0.0710388076943322,0.804416650801382,0.799375248884969,0.04,0.0182569911376044,383.722162310751,0.654186674185066,0.43099265216533
5577,0.224712060694738,-0.248833757983882,0.221979193374302,0.0282320038970298,0.249947694287879,0.249941878252542,0.233909738111345,-0.0877292209708731,0.774524780427457,0.799375248884969,0.04,0.0460806965963276,369.471927456312,0.75316604829785,0.36045029733747
5637,0.249692302354622,-0.248772376828581,0.246818163278588,0.0353687228683515,0.249945690807569,0.249945879013168,0.25,-0.0918704034093039,0.792427962162748,0.799375248884969,0.04,0.0412823056709507,378.136579587584,0.829649894607585,0.334894878065949
5697,0.249917130306109,0.225061381158571,0.249840908163929,0.200816901727548,0.249997284540378,0.249953570439664,0.249958324698451,0.00991720159848887,0.787781384439523,0.799375248884969,0.04,0.0644175303772613,375.799320502779,0.882966492679446,0.312727766944596
5757,0.249928963356187,0.25,0.25,0.209524700614874,0.25,0.249953975251585,0.249956131261528,0.0235948671203561,0.796131733112054,0.799375248884969,0.04,0.0644982322039405,379.875869640024,0.920178523142049,0.303336234238836
5817,0.249956487168021,0.25,0.25,0.247583683002783,0.25,0.249997425614567,0.249997806563076,0.238672713693665,0.793297584496636,0.799375248884969,0.04,0.0703209218903822,378.470833583985,0.950703894602996,0.2925107423282
5877,0.249957935789696,0.25,0.25,0.249586787338989,0.25,0.249999712475777,0.25,0.249992600355418,0.79791018772886,0.799375248884969,0.04,0.0712351937204549,380.701829704785,0.967847093383548,0.289023323190459
5937,0.249997896789485,0.25,-0.224979258790506,0.249979339366949,-0.224978358626657,0.249982741395457,0.25,-0.00516367297838919,0.815356619451848,0.799375248884969,0.04,0.0510089995102019,389.033666941799,0.892326773428373,0.320344992199086
5997,0.25,0.25,-0.249978167147901,0.25,-0.249977219607007,0.249981848180703,0.25,-0.00244064199037217,0.805236867815984,0.799375248884969,0.04,0.0542974297750194,384.132528550225,0.837294560891494,0.337099021021914
6057,0.25,0.24991868312647,-0.249998908357395,0.249871779590939,-0.249981733859786,0.249998787436538,0.249984805313002,-0.00115260835577565,0.801952515591714,0.799375248884969,0.04,0.0520939332865974,382.597847602207,0.81707310629027,0.344061661844157
6117,0.25,0.249914403291021,-0.25,0.249865031148357,-0.249981971452037,0.249999678976318,0.249984005592634,-0.000544187234665112,0.800788746400216,0.799375248884969,0.04,0.0495413627749536,382.0500865161,0.806666250126799,0.348001480562397
6177,0.249999842891905,0.1416911429448,0.22499999097369,0.249991696428518,-0.249993311696052,0.24999990984165,0.249990662837759,-0.000256790810635037,0.795395697594655,0.799375248884969,0.04,0.0569476720211907,379.459538738168,0.82061183803209,0.339767921156072
6237,0.249999834623058,0.135995181873946,0.249999990498622,0.24999836302221,-0.249993908551,0.249999921992457,0.249991013219082,-0.000121035007740342,0.797175025410719,0.799375248884969,0.04,0.0545613396513003,380.343798793652,0.838413926070113,0.333328565083001
6297,0.249999991731153,-0.23055336037767,0.249999959642162,-0.224990674558045,0.224998905581052,0.0760874850960769,0.249999546959996,0.224874579760045,0.795703415055372,0.799375248884969,0.04,0.0433422086583482,379.577836549617,0.845670980822243,0.329802614662819
6357,0.25,-0.249845388917229,0.249999958018138,-0.249990097588584,0.249998527377476,0.0669341989436359,0.249999996104255,0.249867971662363,0.80050155304492,0.799375248884969,0.04,0.0432848897195212,381.931329288354,0.846117097723489,0.331672519342337
6417,0.249999855588949,0.225007730554138,0.249818035790786,0.225000363122514,-0.224999507995838,0.240843499751778,-2.30691072445143e-05,0.249993307979017,0.799077189325216,0.799375248884969,0.04,0.060067474805326,381.162776817666,0.830246820584557,0.337332307668885
6477,0.249999847988367,0.25,0.249808460936715,0.249999861054678,-0.249999404594433,0.249996620846944,-1.06332051183594e-05,0.249999904627262,0.797372999086425,0.799375248884969,0.04,0.0592630382926767,380.429030026627,0.842754920395406,0.33168591482631
6537,0.24999962636212,0.248400844238485,-0.225009576953164,0.249999993052734,-0.249999964799407,0.249999830920587,-4.75893069813607e-06,-4.75893069813607e-06,0.807686876288278,0.799375248884969,0.04,0.0425285168325841,385.336203636441,0.798498005414288,0.354585241097591
6597,0.249999614697581,0.248316678145773,-0.25,0.25,-0.249999994283879,0.249999999871832,-1.98413117892792e-06,-1.98413117892792e-06,0.801697610078989,0.799375248884969,0.04,0.0419649361719035,382.466654471834,0.773687765167189,0.363230680321843
6657,-0.225000019265121,-0.224175638125223,-0.249310863283397,0.25,0.224999984832486,0.24952981372726,-0.00496238339774416,0.225000239313328,0.797419577100706,0.799375248884969,0.04,0.0276973526779114,380.449485057776,0.771060334236239,0.36254616427479
6717,-0.25,-0.249043654771065,-0.249274592929891,0.25,0.249999983733347,0.249505067088072,-0.0263277584044475,0.25,0.799998188309176,0.799375248884969,0.04,0.0243064859833282,381.663644916811,0.759099754477235,0.369433792969073
6777,0.225,-0.249952182738553,0.225036270353505,0.249999800255412,0.249999999186667,0.249973342850313,-0.0522095919790849,-0.0522095919790849,0.789465518782819,0.799375248884969,0.04,0.0444525576225925,376.533395637453,0.788185031608335,0.351018490434503
6837,0.25,-0.25,0.25,0.249999789742539,0.25,0.249997988943063,-0.0604538023110556,-0.0604538023110556,0.795174169716553,0.799375248884969,0.04,0.043075525872563,379.412385785569,0.829696311476824,0.33600599109925
6897,0.249980728295412,0.223352708322626,0.25,-0.065533557502291,-0.103944504660227,0.249999899447153,-0.0605999566665506,-0.0605999566665506,0.802507814754111,0.799375248884969,0.04,0.0422773792703209,382.928015157219,0.824723202801426,0.341164318983836
6957,0.249979713995171,0.248266008760659,0.25,-0.0821405757783348,-0.122573162800239,0.25,-0.0558409606447742,-0.0558409606447742,0.800316464056181,0.799375248884969,0.04,0.0452961646152495,381.819394379899,0.813601520608173,0.344826718392526
7017,0.249951042176647,0.249913184044521,0.25,-0.241582720910082,0.23136712373878,0.0794445653842357,0.225015805211173,0.225020853999224,0.783031896694563,0.799375248884969,0.04,0.0577376791952061,373.443311683917,0.856540203882908,0.320355075808042
7077,0.249949533133567,0.249999877480514,0.25,-0.249974412759121,0.249995559872412,0.0704679635623534,0.249985757178478,0.249995768323681,0.797675037722955,0.799375248884969,0.04,0.0545829631139065,380.629434677336,0.89574820191186,0.31222746367715
7137,0.249997476656678,0.249999392797712,0.249999960645415,0.042356236571453,0.249999777897395,0.240998321397648,0.249997616054988,0.249998453833393,0.794799133592614,0.799375248884969,0.04,0.0682659036712125,379.169238405284,0.914242672914124,0.304737769261376
7197,0.25,0.249999367288091,0.249999958574121,0.0577420602204306,0.24999999989871,0.24997360338898,0.249998240206383,0.249998595176009,0.797746248161104,0.799375248884969,0.04,0.0690321209192339,380.619456673804,0.930464590175222,0.300570124362229
7257,0.25,0.249999136973022,-0.222651704102531,0.240382896761204,0.249999999994936,0.249998679070638,0.249999911986726,0.249955591194897,0.802157844842991,0.799375248884969,0.04,0.0632800506097191,382.741577289935,0.923625155209594,0.304484062898882
7317,0.25,0.249999124851176,-0.247528107401302,0.249995572368613,0.25,0.249999998843357,0.249999999975165,0.24995332782747,0.801019635115504,0.799375248884969,0.04,0.0653690430002988,382.157523256422,0.91003982564647,0.308557915089761
7377,0.249978795655379,-0.225000037162888,0.225123594629935,0.0668052172329482,-0.224999743181276,-0.225000000057832,0.0856459568073931,0.249997666344832,0.81809975812803,0.799375248884969,0.04,0.0367535658142826,390.393591050246,0.829895739655741,0.345647818761078
7437,0.24997767963724,-0.249999993058365,0.25,0.057163619594229,-0.249999729664502,-0.25,0.0769957440090893,0.249999999951009,0.805281185054728,0.799375248884969,0.04,0.0370702917827859,384.141953307935,0.768386830648421,0.367338546948434
7497,0.249998823557987,-0.249999999652918,0.249999946311315,0.240358180979711,-0.249965649060134,0.225,-0.00607849241909549,0.249978592841072,0.793093580029386,0.799375248884969,0.04,0.048312522551625,378.315034650997,0.778495305308016,0.357069108584169
7557,0.249999936395921,-0.25,0.249999943485595,0.25,-0.249963855344114,0.25,-0.00287335629660149,0.249977466151076,0.797394611695103,0.799375248884969,0.04,0.0428178797547944,380.454966190152,0.799877646016539,0.349489694324918
7617,0.24999999679055,0.225,0.130247991844265,0.249999995863515,-0.249998139792211,0.24999769132062,-0.00135700770725377,0.249998844771015,0.795468190223824,0.799375248884969,0.04,0.0531999169276605,379.516235202132,0.819337588749591,0.340347179583632
7677,0.249999999969215,0.25,0.123945257547353,0.249999995645806,-0.249999944236848,0.249997569811179,-0.00064073819361633,0.249999969961538,0.797660624351819,0.799375248884969,0.04,0.0534434907598211,380.575304094574,0.834310596007896,0.335171837307931
7737,0.249999966143278,0.130214139274665,-0.231302664473563,-0.224498250310912,0.224999987093793,0.249999874878684,-0.000337288220657529,0.249999853086135,0.803363268078161,0.799375248884969,0.04,0.0399544419560171,383.32735003722,0.823510268075244,0.342023120105884
7797,0.249999964362966,0.123909620289121,-0.249999923527295,-0.24947184220337,0.249999983479616,0.249999996198026,-0.000445803366015267,0.249999846934798,0.801781969716898,0.799375248884969,0.04,0.0416761827468737,382.518810975103,0.803498513931443,0.349802086434145
7857,0.249999998218148,0.243644885659009,-0.249678334086803,-0.249879737361263,-0.224999999285546,0.249999999756199,-0.00207273345898194,0.24999995671118,0.807099909445183,0.799375248884969,0.04,0.0339823795496518,385.088930108585,0.766874098233342,0.368970497091573
7917,0.25,0.249946741731108,-0.249661408326777,-0.249901205527468,-0.24999999837845,0.249999999943471,-0.0100756019481069,0.249999962488885,0.802068475828939,0.799375248884969,0.04,0.0341874502196633,382.645956804662,0.741199960871372,0.379329324210847
7977,-0.224999418082241,0.249983676694691,-0.0507331608365249,0.224781696165372,0.192085721615718,-0.224899365781036,0.236959470294947,-0.0216362500682469,0.795744648677414,0.799375248884969,0.04,0.0379613636104952,379.534837140749,0.73615570959451,0.378823259905745
8037,-0.24999938745499,0.249985620640143,-0.04026325307388,0.249765006780784,0.215353391089095,-0.249894069240221,0.249988329517421,-0.0342755090980965,0.79698451345331,0.799375248884969,0.04,0.0314622308277164,380.247563479702,0.75344910361624,0.370823454735201
8097,0.22477975424998,0.249954069521512,0.235470834460784,-0.0333431302647061,0.248266388367885,0.224950201922721,0.242528745804873,0.116060930801986,0.779643450944631,0.799375248884969,0.04,0.0610521343098494,371.860457781233,0.826840814712085,0.330455336496638
8157,0.249768130129189,0.249952408936321,0.249983154857346,-0.0482435585302583,0.249998651382558,0.249942005668139,0.242136136135792,0.135253463819098,0.79395914773837,0.799375248884969,0.04,0.0581054247651095,378.863849684158,0.88972839814354,0.312881864997442
8217,0.247407120500685,0.249997003375318,0.249999141363621,0.23508778950859,0.249998804373231,0.249997099216658,-0.0107246661241412,0.244254181648619,0.79610814150187,0.799375248884969,0.04,0.0659527794363777,379.751385439009,0.897030502591104,0.311061908472861
8277,0.247282856836027,0.249999350451054,0.249999982758688,0.249999965721161,0.249998812425372,0.249999998877107,-0.00506568571292312,0.249991061534383,0.796820417814889,0.799375248884969,0.04,0.0666395055658224,380.17290843096,0.916276565161829,0.304866189411748
8337,0.243368767636861,0.249393626925455,-0.224996463079153,-0.224955005985319,0.249926334516501,0.249986548684785,-0.00240436851615682,0.248066512447393,0.809323232456504,0.799375248884969,0.04,0.0456344650728503,386.221973603396,0.884531737292508,0.320832410964394
8397,0.243162762942168,0.249361746739897,-0.249996276017987,-0.249952636075133,0.249922519889719,0.249985840779926,-0.00113863235526198,0.247965220390183,0.804641341545089,0.799375248884969,0.04,0.0497709757197804,383.865159580923,0.840162958183867,0.335714301450378
8457,-0.117841939428319,0.249902358830268,-0.249995483922928,-0.249518465202049,0.249931301227882,-0.225000343975285,-0.00296913640509543,0.249898136991372,0.813003583941425,0.799375248884969,0.04,0.0268216158905692,387.912464173476,0.774608290265745,0.367964795255165
8517,-0.136842186921502,0.249930812098183,-0.249995442233714,-0.249495614103466,0.249931763403575,-0.249999616857139,-0.0216011454786569,0.249999869444067,0.803920425554354,0.799375248884969,0.04,0.023784469489562,383.508983041626,0.727710593024109,0.387232250721796
8577,0.157655607735418,0.24975370574221,-0.249999772111686,-0.249852434061177,0.249995000448904,-0.249999963137874,0.178866218492387,0.249985037849288,0.792724586190901,0.799375248884969,0.04,0.0351003113076262,378.173987554462,0.748311772635421,0.371333175437788
8637,0.17315549166473,0.249744384355054,-0.25,-0.249871214058951,0.249998328714447,-0.249999981363176,0.189486168429599,0.249984257239036,0.798324345884711,0.799375248884969,0.04,0.0341518740683057,380.899878756576,0.766097491906834,0.365326747340599
8697,0.246157189811954,-0.223791301993877,-0.25,-0.249870407167951,-0.014600771910532,0.224979635601132,0.24697430842148,0.249999212861952,0.801949940872782,0.799375248884969,0.04,0.0307048430623207,382.623153607474,0.75836799945275,0.370719921244495
8757,0.249999384451282,-0.248714232854347,-0.25,-0.249870364700003,-0.0285270403644784,0.24997856280978,0.25,0.25,0.798758618838364,0.799375248884969,0.04,0.0309969804159648,381.077550433877,0.754645151600703,0.371043864879416
8817,-0.224999266002174,-0.249827007282044,-0.25,-0.249993518235,-0.238926352018224,0.249960278957726,-0.147576351678033,-0.147576351678033,0.808961528964351,0.799375248884969,0.04,1.34356225000579e-08,385.485041613642,0.653207207245394,0.433621930568846
8877,-0.249999194973409,-0.249885574357186,-0.25,-0.25,-0.25,0.249959316649724,-0.219578105588972,-0.219578105588972,0.78267928078941,0.799375248884969,0.04,4.7703884520766e-10,373.340279194673,0.721731063617205,0.380087971857917
8937,0.224936172624493,-0.249994278717859,0.22478383157936,-0.249874786907929,0.224959792207514,0.249969530617843,0.0443804549693374,-0.249943521256121,0.765878952927069,0.784560323866533,0.04,0.0390969001369555,364.969630880265,0.740249582761998,0.362270719240547
8997,0.249932770919119,-0.25,0.249772454294063,-0.249868196745188,0.24995767600791,0.249970068195112,0.0598733624090636,-0.249940548690653,0.766983072987687,0.76896566595239,0.04,0.0436142488523669,365.875829861926,0.789304903505464,0.340599178333838
9057,0.249966237433612,-0.249915987268872,0.249978017947522,-0.249988701618143,0.249899267474574,0.249998499641372,0.240492663232509,-0.249860649444023,0.753087729601006,0.753371008038248,0.04,0.0560184444081172,359.186758162043,0.792434070266511,0.333051852997523
9117,0.249967998829111,-0.249911565546181,0.249988837087178,-0.249995043979878,0.249896193341241,0.24999999603328,0.249998942223216,-0.249856444220516,0.742288733032707,0.737776350124105,0.04,0.0622670382104017,354.040536373097,0.772528296636805,0.336738885609744
9177,0.24999839973359,-0.24999557589724,0.249999441854359,-0.249990432820601,0.24999460439972,0.24996350179349,-0.183257397094502,0.225007176571967,0.726124216635727,0.722181692209963,0.04,0.0665365589327956,346.310686385487,0.747288064338958,0.340512080070776
9237,0.249999999781194,-0.249999997494664,0.25,-0.249990190128007,0.249999783929114,0.249961581044027,-0.20606036232175,0.24999999871894,0.722539073274605,0.721401959314255,0.04,0.0620679485429004,344.71930927787,0.738117046207984,0.343158730131457
9297,0.249999999983208,-0.249999377941323,-0.224996887748288,0.224999639407732,0.249999989196456,0.249998079052201,0.227196981883912,0.249999999935947,0.715275199017944,0.721401959314255,0.04,0.060982510062641,341.238859602308,0.764237077816553,0.328084002121501
9357,0.24999999999384,-0.249999345333253,-0.249996723945567,0.249999104120139,0.25,0.25,0.25,0.25,0.721136376515033,0.721401959314255,0.04,0.0566041487842361,344.07271711656,0.775056505076858,0.326190679673392
9417,0.249988267324248,-0.249999966955367,-0.249999836197278,0.249999955206007,0.249999936546309,-0.224999928591068,-0.0943309915340733,0.249999125695029,0.733991883259661,0.721401959314255,0.04,0.0390467950721727,350.122533080807,0.710660091995445,0.362003534065484
9477,0.249987649815322,-0.249999999672321,-0.25,0.25,0.249999933206641,-0.249999924832703,-0.0759868213221293,0.249999079678978,0.723778083219258,0.721401959314255,0.04,0.0377057992232739,345.277839189302,0.679938158828709,0.373124671817048
9537,0.249996760285536,0.225000000016384,-0.25,-0.225,0.249999996660332,-0.249999996241635,-0.0711987596698546,0.234329994430228,0.722628228261574,0.721401959314255,0.04,0.036011337617229,344.769724690741,0.671563066047173,0.377221984179686
9597,0.249997239783968,0.25,-0.25,-0.25,0.25,-0.25,-0.0747118861905258,0.233505305732925,0.722325000092669,0.721401959314255,0.04,0.0346032196255566,344.618540048877,0.665708269469374,0.380372720478212
9657,0.249999861989198,0.249995274638541,0.22484887022686,-0.25,-0.0458989449737019,-0.249998667393913,-0.0833648623545233,0.249174976301635,0.731599260157708,0.737511433952491,0.04,0.0349054203523265,349.164980872779,0.693505487392674,0.36994354560726
9717,0.25,0.249995025935306,0.249840916028274,-0.25,-0.0614725736565283,-0.24999859725675,-0.0963534702035724,0.249999695805251,0.747785113524607,0.75446877567695,0.04,0.0296074848520391,356.909681515493,0.735090212126283,0.356756886416273
9777,-0.224993271317987,0.249998903702658,0.249992045801414,0.224999983331121,-0.240573628682826,-0.249999929862837,0.23263925202597,-0.119808263798986,0.766537509291284,0.771426117401409,0.04,0.0241098828481802,365.702017584689,0.756232572407476,0.355325727015091
9837,-0.249992917176828,0.249999107795677,0.25,0.249999982453812,-0.25,-0.25,0.249999996968545,-0.155215009225621,0.782822039179772,0.788383459125868,0.04,0.0210891474345656,373.616106906924,0.788401234790856,0.34820337098974
9897,0.224996598167815,-0.224999244138224,-0.187044896735401,0.2499997514077,-0.248435035145628,0.0988205900940401,-0.201341627378254,0.225002149911758,0.799903398940775,0.805340800850327,0.04,0.016545466151036,381.772545901732,0.813372831923054,0.344881348756821
9957,0.249996046343849,-0.249999157397903,-0.210047259721474,0.249999739247378,-0.248352668574345,0.117179568520042,-0.25,0.25,0.817245455773578,0.822298142574786,0.04,0.0183651457821013,390.027747465955,0.847768950376612,0.338043566204535
10017,0.249996416602919,-0.249999556948459,0.226993185601551,0.249976559957481,0.225081175430478,-0.231641021573998,-0.24999896277746,-0.224979924055491,0.836462919109304,0.839255484299245,0.04,0.0266164847823167,399.248412538073,0.873202952955931,0.335956214123744
10077,0.249996436090238,-0.249999577977436,0.249995314302763,0.249975339994855,0.249998746167574,-0.25,-0.2499989081868,-0.249978867426833,0.850046935695966,0.856212826023704,0.04,0.0291656807387367,405.688279536224,0.906448143235201,0.328854791149765
10137,-0.225000178195488,-0.249999978898872,0.249999765690071,-0.225001233000257,-0.225000062691621,-0.249822882043249,-0.249949697386772,-0.249998943371342,0.89359114325833,0.873170167748162,0.04,0.000169864848862937,426.151728392974,0.841281387169703,0.372201097985745
10197,-0.25,-0.25,0.249999999973614,-0.25,-0.25,-0.249813560045526,-0.249947107344665,-0.25,0.894625299095315,0.890127509472622,0.04,0.000653177473896296,426.860680200077,0.795209852764267,0.394420133703024
10257,-0.249888068910671,0.225,0.249980361683083,-0.25,0.224999907354554,-0.249982335782349,-0.249995735854291,0.224999939076292,0.87262823286074,0.90708485119708,0.04,0.0290604066815195,416.359212472513,0.947310241823159,0.322946529634012
10317,-0.249882177800707,0.25,0.249979328088844,-0.25,0.249999902478478,-0.249991218715866,-0.249998295249535,0.249999935869781,0.911955916237591,0.924042192921539,0.04,0.0294019586123465,435.289033383724,1.05452430109849,0.30330237404064
10377,0.225005009333685,0.25,-0.225001033541723,-0.249982125451354,0.249880914961205,0.224998667628487,0.225000063293918,0.249999996793489,0.919244859915727,0.940999534645998,0.04,0.0494836685526978,438.702069572713,1.17220640787461,0.274992132159757
10437,0.249999071814442,0.25,-0.249999999943331,-0.249981184685636,0.249874652460296,0.249998135330821,0.249999976901468,0.25,0.951039806175896,0.957956876370457,0.04,0.0532983625649669,453.942363254966,1.24137296350223,0.268690992868394
10497,0.249999953590722,-0.225,0.0936105545788057,-0.249385719135105,-0.224921898553619,0.249999878253152,0.249999866849096,0.249999968112427,0.9815594228095,0.974914218094916,0.04,0.0486821221829158,468.502966960013,1.22610239196521,0.280763263685266
10557,0.25,-0.25,0.111695320606286,-0.249354378842971,-0.249911190712246,0.249999969985906,0.249999861056865,0.249999966434133,0.973926786343354,0.960195156556251,0.04,0.060409144117261,464.540194357147,1.1485308548151,0.297190762848358
10617,-0.225,-0.0329376425166203,-0.231874825223611,-0.249405244662346,-0.249995559535612,0.248758929891311,-0.0367905562865737,0.0345138347211353,0.974935140683071,0.943808915898474,0.04,0.0491006556231872,465.069584764354,0.990268461923247,0.345079902214793
10677,-0.25,-0.0215133079122319,-0.249957464477816,-0.249407921810735,-0.25,0.248693611991595,-0.0518847887783336,0.0231724593678196,0.941693324065899,0.927422675240697,0.04,0.0507181117866001,449.081996874194,0.87132927018161,0.378702365640066
10737,-0.249999624118348,0.236423634791401,0.225001563862573,-0.249956137222504,-0.249755222316519,-0.22506531940042,0.234905759736743,-0.215737186447828,0.916347636611569,0.911036434582919,0.04,0.0559784770385856,437.036327043167,0.824744102186735,0.389361490133823
10797,-0.249999604335103,0.24999926335475,0.249999407459435,-0.249984990665229,-0.249742339280547,-0.25,0.249999999132274,-0.228311378332863,0.899774876861315,0.894650193925142,0.04,0.0499152598494325,429.150431196188,0.79435195867303,0.39696412399501
10857,-0.249999866393346,0.249999700903784,-0.224998767897333,0.0660448488692302,0.225011028194885,0.224869849228149,0.249978722619357,0.226084093797925,0.863674841016717,0.878263953267366,0.04,0.0661062946092931,411.893547659917,0.85371485573209,0.354508641715216
10917,-0.249999880185886,0.24999972393268,-0.249998671863479,0.0826779983184123,0.249998047535697,0.249862999187525,0.249977602802887,0.249999644962703,0.862583474590351,0.861877712609588,0.04,0.0625328402744186,411.454769996186,0.872164467446766,0.346639770499442
10977,-0.249744640160201,-0.172379529462556,0.136949799763751,-0.233366099921671,0.149148669124325,0.249993149959376,0.249994077916995,0.249999982248135,0.855556962902975,0.845491471951811,0.04,0.0565148352855522,408.096658351195,0.827983816584332,0.36215615161974
11037,-0.249731206474639,-0.194610016483358,0.157315508796763,-0.249999999829044,0.143840807102674,0.25,0.249994945028264,0.25,0.834905008054839,0.829105231294034,0.04,0.0577046259214017,398.187868466115,0.78320375404388,0.373566514343985
11097,0.224670985619347,0.00973879020041261,0.245365775439838,0.224987597067494,-0.230276912447473,0.249977585881485,0.249861156063321,0.25,0.808451923892855,0.812718990636257,0.04,0.0792103313492985,385.589330404188,0.793891244398328,0.356877092569293
11157,0.249639522045346,0.0204939905521901,0.25,0.249986944272575,-0.249967318739586,0.249976406191037,0.24985411453885,0.25,0.798906583094641,0.79633274997848,0.04,0.0770279474220978,381.061158299422,0.791907514481495,0.353569582310021
11217,0.24998196665377,-0.23647530047239,0.249997470124003,0.249999347213629,-0.249698316801021,0.249995469001878,-0.0728096702163707,0.249994476727831,0.790747239467553,0.779946509320703,0.04,0.0634120608417795,377.05422259767,0.726017118900347,0.381602862610418
11277,0.249999990054213,-0.25,0.249997336972634,0.25,-0.249684158804255,0.249996472307712,-0.0343924259310632,0.249994186029296,0.767044231384304,0.763560268662926,0.04,0.0617008862900408,365.802436567239,0.693767516224071,0.387424703099046
11337,-0.22477114754183,0.109276243839966,0.249999862835542,-0.121733398051383,-0.249973105897297,0.249999636898114,-0.0162566497479108,0.244673338649914,0.754750612118094,0.747174028005149,0.04,0.0450268576424161,359.977095745913,0.657344937226665,0.402379848397971
11397,-0.249759102152148,0.128185519831544,0.249999995775695,-0.141298313738298,-0.249988313639036,0.249999803455503,-0.00769219244665051,0.244393294050999,0.734394708796927,0.730787787347372,0.04,0.0409989352170304,350.227378904299,0.623348578561529,0.412832421242591
11457,-0.249856318544462,0.243909275991577,0.249791306443488,-0.244564915686915,-0.249999415681952,-0.225000009827225,-0.0111411639205652,0.249718440594129,0.722501039189374,0.714401546689595,0.04,0.0189614208399268,344.611762028085,0.582559236396462,0.434655000486269
11517,-0.249861435196689,0.25,0.249780322794424,-0.25,-0.25,-0.25,-0.0404773781355851,0.24999871146482,0.702310060737473,0.698015306031818,0.04,0.0175712060317498,334.924991851339,0.548883860123074,0.448354745886302
11577,0.22499888318385,-0.224999997896588,0.2499855613661,0.224999999780881,0.225,-0.0291864287248496,0.235378347986522,0.105111238148348,0.666613359051364,0.681629065374041,0.04,0.062255754262842,317.886413942839,0.611736379221513,0.381823219428898
11637,0.249991531519668,-0.249999997785882,0.249996363396188,0.249999999769349,0.25,-0.0175646618156311,0.249999792151211,0.097485581658007,0.663318893989482,0.665242824716264,0.04,0.0604079934166723,316.39959559268,0.649454792495644,0.357965910364151
11697,-0.00135994480131092,-0.110932868109429,0.249999818169809,0.249999999939934,0.249921984499887,0.235959598747466,0.249999989607561,0.0958539642669422,0.648292220514324,0.648856584058486,0.04,0.0682485623474902,309.170166924564,0.652881453038071,0.347950868876335
11757,-0.0145889698708361,-0.103613545494879,0.25,0.249999999948912,0.249917878420934,0.249302980882366,0.25,0.0957680896674125,0.633986963901945,0.632470343400709,0.04,0.0710750591465584,302.348836538847,0.644935518067286,0.34446625450448
11817,-0.238222170078517,0.231932414844293,0.249988018897398,-0.141849545290932,0.249995844226279,0.249386611912434,0.249998532698551,-0.00580553311668691,0.621233532228178,0.616084102742932,0.04,0.0671618523667119,296.256718898116,0.613020184372994,0.355097905375969
11877,-0.2499923385105,0.249592728546354,0.24998738831305,-0.162473205566713,0.249999947689719,0.249391013545596,0.249998455472159,-0.00274206283624137,0.602743370291199,0.599697862085155,0.04,0.0686995171761056,287.425890291567,0.588374962461677,0.358943735295129
11937,-0.249999616925525,0.249939371792221,0.249999115518372,0.229376339721664,0.249999997384486,0.249969221888389,-0.00129498893077338,-0.00129498893077338,0.585514605492857,0.583311621427378,0.04,0.0784485509910239,279.128454884649,0.557413214124247,0.36794383269474
11997,-0.25,0.249957616173582,0.249999732739705,0.25,0.25,0.24999965390643,-0.000611442736955094,-0.000611442736955094,0.56670388325811,0.566925380769601,0.04,0.0750291132533641,270.246097963739,0.557860658018978,0.355949488743367
12057,-0.25,0.249930663902387,0.249999986636985,-0.224999616640109,0.249999580888993,0.249999982695321,0.224999188937103,0.100771537137204,0.545508240025549,0.550539140111824,0.04,0.0677153870249656,259.980415987594,0.559186308636972,0.341616454646279
12117,-0.25,0.249929245361798,0.25,-0.249999596463273,0.249999558830519,0.25,0.249999080800262,0.119212291258607,0.5366570966632,0.534152899454047,0.04,0.0664657777518424,255.934398951674,0.559055263266634,0.336378784612736
