time,bias_percent_1,bias_percent_2,bias_percent_3,bias_percent_4,bias_percent_5,bias_percent_6,bias_percent_8,bias_percent_9,normalized_power,power_SP,SP,CV,total_power_MW,fuel_fraction,thermal_efficiency
2,0,0,0,0,0,0,0,0,1.00591532894638,1,0.04,0.0415824002451904,479.848782055956,0.991787018211258,0.35550085839512
62,-0.000993942382989871,-0.00116389134605186,-0.000254275239670619,-0.00114679739153644,0.000666141702797063,-0.000470654520536527,-0.00043755090344888,-0.00104262611435195,0.99987482203651,0.999340064682271,0.04,0.039895547438924,477.040428878765,0.999368222654276,0.350739216256135
122,-0.030812213872686,-0.0360806317276075,-0.00788253242978681,-0.0355507191376291,0.02065039278671,-0.0145902901366331,-0.0135640780069156,-0.0323214095449114,0.987880796426104,0.97954200515039,0.04,0.0421156569403091,471.176575318675,0.956469196775856,0.361965667381819
182,-0.0606304853623824,-0.0709973721091633,-0.0155107896199033,-0.0699546408837219,0.040634643870623,-0.0287099257527299,-0.0266906051103823,-0.0636001929754709,0.968642771948186,0.959743945618509,0.04,0.0429748128764522,461.980035804869,0.902146355775445,0.376271119318479
242,-0.0904487568520786,-0.105914112490719,-0.0231390468100196,-0.104358562629815,0.0606188949545359,-0.0428295613688264,-0.0398171322138489,-0.0948789764060303,0.948380737693687,0.939945886086628,0.04,0.0409940571389474,452.310508255161,0.849443383410514,0.391252311189835
302,-0.120267028341775,-0.140830852872275,-0.0307673040001359,-0.138762484375907,0.0806031460384489,-0.056949196984923,-0.0529436593173156,-0.12615775983659,0.928042159425059,0.920147826554747,0.04,0.0372002941789316,442.607214969723,0.80004438218693,0.406498629197257
362,-0.150085299831471,-0.17574759325383,-0.0383955611902524,-0.173166406122,0.100587397122362,-0.0710688326010196,-0.0660701864207822,-0.157436543267149,0.907714598584373,0.900349767022866,0.04,0.0325645677558568,432.908710013199,0.753751806407617,0.422009894995144
422,-0.179903571321167,-0.210664333635386,-0.0460238183803688,-0.207570327868093,0.120571648206275,-0.0851884682171162,-0.0791967135242489,-0.188715326697709,0.887509504115301,0.880551707490985,0.04,0.0276081860019115,423.39618267727,0.71073123466385,0.437719820548246
482,-0.209721842810864,-0.245581074016942,-0.0536520755704851,-0.241974249614186,0.140555899290188,-0.0993081038332128,-0.0923232406277155,-0.219994110128268,0.86749617953497,0.860753647959104,0.04,0.023269029328748,413.719460556374,0.668315232762081,0.454861590916515
542,-0.23954011430056,-0.280497814398497,-0.0612803327606014,-0.276378171360278,0.160540150374101,-0.113427739449309,-0.105449767731182,-0.251272893558827,0.847134062437454,0.840955588427223,0.04,0.0191429764146657,404.005288181836,0.629062224356062,0.471897981626773
602,-0.269358385790256,-0.315414554780053,-0.0689085899507177,-0.310782093106371,0.180524401458014,-0.127547375065406,-0.118576294834649,-0.282551676989387,0.826716343755033,0.821157528895342,0.04,0.0154554355667806,394.264169658096,0.593461836941017,0.488145387911037
662,-0.299176657279952,-0.350331295161609,-0.076536847140834,-0.345186014852464,0.200508652541926,-0.141667010681503,-0.131702821938115,-0.313830460419946,0.806291445333372,0.801359469363461,0.04,0.012475179368689,384.518731814403,0.561549171395985,0.50313483462855
722,-0.328994928769649,-0.385248035543165,-0.0841651043309504,-0.379589936598557,0.220492903625839,-0.155786646297599,-0.144829349041582,-0.345109243850506,0.785718458290524,0.781561409831581,0.04,0.0102282857594375,374.702034406851,0.533944856995662,0.515637292836996
782,-0.358813200259345,-0.42016477592472,-0.0917933615210669,-0.413993858344649,0.240477154709752,-0.169906281913696,-0.157955876145049,-0.376388027281065,0.764985818577846,0.7617633502997,0.04,0.00866091052246587,364.80918370928,0.511623449205598,0.523926056415319
842,-0.388631471749041,-0.455081516306276,-0.0994216187111832,-0.448397780090742,0.260461405793665,-0.184025917529793,-0.171082403248516,-0.407666810711625,0.744196058223493,0.741965290767819,0.04,0.00785538399101119,354.890179913033,0.495210936125017,0.526572811622854
902,-0.417455800855748,-0.471673590053385,-0.106795600661629,-0.471673590053385,0.279779515174781,-0.197674898625353,-0.183771379448533,-0.437902968027832,0.726862519397668,0.722827166553667,0.04,0.00765539426241822,346.532450400311,0.479767132974371,0.530723224806841
962,-0.417455800855748,-0.464891094467082,-0.106795600661629,-0.464891094467082,0.279779515174781,-0.197674898625353,-0.183771379448533,-0.437902968027832,0.717615448948659,0.722827166553667,0.04,0.00619402206726638,342.352183034046,0.502036670476277,0.501063003265892
1022,-0.417455800855748,-0.474936817507276,-0.106795600661629,-0.474936817507276,0.279779515174781,-0.197674898625353,-0.183771379448533,-0.437902968027832,0.716643539859815,0.722827166553667,0.04,0.00728080003373235,341.714962929016,0.531131698118384,0.472733578162692
1082,-0.417455800855748,-0.48883436534178,-0.106795600661629,-0.481654904445298,0.279779515174781,-0.197674898625353,-0.183771379448533,-0.437902968027832,0.718994808090471,0.722827166553667,0.04,0.00966200953438091,342.730954190286,0.561826726729485,0.448234841186873
1142,-0.417455800855748,-0.48883436534178,-0.106795600661629,-0.481654904445298,0.279779515174781,-0.197674898625353,-0.183771379448533,-0.437902968027832,0.717649078107478,0.722827166553667,0.04,0.012152669298757,342.218698036236,0.60966356252446,0.412447021286847
1202,-0.417455800855748,-0.48883436534178,-0.106795600661629,-0.481654904445298,0.279779515174781,-0.197674898625353,-0.183771379448533,-0.437902968027832,0.714408396582761,0.722827166553667,0.04,0.0148617727638177,340.629791247111,0.668901518510895,0.374175306257433
1262,-0.417455800855748,-0.48883436534178,-0.106795600661629,-0.481654904445298,0.279779515174781,-0.197674898625353,-0.183771379448533,-0.437902968027832,0.713294352398345,0.722827166553667,0.04,0.0182009524688335,340.277666856091,0.728551673167852,0.343184577528588
1322,-0.417455800855748,-0.48883436534178,-0.106795600661629,-0.481654904445298,0.279779515174781,-0.197674898625353,-0.183771379448533,-0.437902968027832,0.714083602277451,0.722827166553667,0.04,0.0220510073081616,340.697519946133,0.783257895567272,0.319608901935583
1382,-0.417455800855747,-0.48883436534178,-0.106795600661629,-0.481654904445298,0.279779515174781,-0.197674898625353,-0.183771379448533,-0.437902968027832,0.715546618747232,0.722827166553667,0.04,0.0261267913941324,341.400484042984,0.830112190895804,0.302191341715808
1442,-0.417455800855748,-0.48883436534178,-0.106795600661629,-0.481654904445298,0.279779515174781,-0.197674898625353,-0.183771379448533,-0.437902968027832,0.717919238251618,0.722827166553667,0.04,0.0302272737559337,342.587009575889,0.866258278583723,0.290588330149527
1502,-0.417455800855748,-0.48883436534178,-0.106795600661629,-0.481654904445298,0.279779515174781,-0.197674898625353,-0.183771379448533,-0.437902968027832,0.721585542260373,0.722827166553667,0.04,0.0359110001901144,344.289393631364,0.879736262261688,0.287558246290604
1562,-0.417455800855748,-0.48883436534178,-0.106795600661629,-0.481654904445298,0.279779515174781,-0.197674898625353,-0.183771379448533,-0.437902968027832,0.723756211729435,0.722827166553667,0.04,0.0409792061945313,345.318277530313,0.878157964638097,0.288935961056038
1622,-0.417455800855748,-0.48883436534178,-0.106795600661629,-0.481654904445298,0.279779515174781,-0.197674898625353,-0.183771379448533,-0.437902968027832,0.725104378043136,0.722827166553667,0.04,0.0448499544499202,345.95512979027,0.866885646305132,0.293232861800111
1682,-0.417455800855748,-0.48883436534178,-0.106795600661629,-0.481654904445299,0.279779515174781,-0.197674898625353,-0.183771379448533,-0.437902968027832,0.725797925659817,0.722827166553667,0.04,0.0473841338920988,346.281556181797,0.850201364847021,0.299269349074103
1742,-0.417455800855748,-0.48883436534178,-0.106795600661629,-0.481654904445298,0.279779515174781,-0.197674898625353,-0.183771379448533,-0.437902968027832,0.72601283370394,0.722827166553667,0.04,0.0486642283130633,346.380925979773,0.831328876552452,0.306151068142503
1802,-0.416871544275989,-0.486893156161165,-0.107535169391829,-0.481026329957426,0.279927522805412,-0.196149186881103,-0.184100882884353,-0.436104185270228,0.725899040309405,0.722949888541003,0.04,0.0488649652433748,346.325835403847,0.812668693612526,0.313130979854419
1862,-0.399343846883219,-0.428656880742733,-0.129722231297837,-0.462169095321255,0.284367751724328,-0.150377834553627,-0.193985985958937,-0.3821407025421,0.724986567079396,0.726631548161077,0.04,0.0497806220941902,345.903828642972,0.8160184481935,0.311465585925404
1922,-0.381816149490448,-0.370420605324301,-0.151909293203845,-0.443311860685083,0.288807980643245,-0.10460648222615,-0.203871089033521,-0.328177219813971,0.727208700293168,0.730313207781151,0.04,0.05013741908626,346.972374014554,0.832338906537366,0.30630167960026
1982,-0.364288452097678,-0.312184329905868,-0.174096355109852,-0.424454626048911,0.293248209562162,-0.0588351298986731,-0.213756192108105,-0.274213737085843,0.73016151872021,0.733994867401225,0.04,0.0511257071004128,348.385841443126,0.854322799352025,0.299635438176327
2042,-0.346760754704908,-0.253948054487436,-0.19628341701586,-0.40559739141274,0.297688438481079,-0.0130637775711963,-0.223641295182689,-0.220250254357715,0.733803378837068,0.737676527021299,0.04,0.0528591617947295,350.129402474171,0.878064218416945,0.292992820898144
2102,-0.329233057312138,-0.195711779069003,-0.218470478921868,-0.386740156776568,0.302128667399995,0.0327075747562803,-0.233526398257273,-0.166286771629586,0.738017025171648,0.741358186641373,0.04,0.055388169354066,352.142842856488,0.899581089005831,0.287629366758937
2162,-0.311705359919368,-0.137475503650571,-0.240657540827876,-0.367882922140397,0.306568896318912,0.0784789270837572,-0.243411501331857,-0.112323288901458,0.742510492632108,0.745039846261447,0.04,0.0584564672958773,354.288090123465,0.916694461969244,0.283979259116338
2222,-0.294177662526598,-0.0792392282321387,-0.262844602733883,-0.349025687504225,0.311009125237829,0.124250279411234,-0.253296604406441,-0.0583598061733298,0.747102479342576,0.748721505881521,0.04,0.0617722020299809,356.479149812178,0.92847277768053,0.282110749453792
2282,-0.276649965133828,-0.0210029528137063,-0.285031664639891,-0.330168452868053,0.315449354156746,0.170021631738711,-0.263181707481025,-0.00439632344520146,0.751681767161368,0.752403165501595,0.04,0.065091001346823,358.663631796401,0.934805668668483,0.281916620607242
2342,-0.259122267741058,0.0372333226047261,-0.307218726545899,-0.311311218231882,0.319889583075663,0.215792984066187,-0.273066810555609,0.0495671592829267,0.756256797640588,0.756084825121669,0.04,0.0682614126819313,360.85004389704,0.935800937058443,0.283333523845202
2402,-0.241594570348288,0.0954695980231585,-0.329405788451906,-0.29245398359571,0.324329811994579,0.261564336393664,-0.282951913630194,0.103530642011055,0.760907125205879,0.759766484741743,0.04,0.0713086871933968,363.063705910194,0.930974584211333,0.286549521636859
2462,-0.224066872955518,0.153705873441591,-0.351592850357914,-0.273596748959539,0.328770040913496,0.307335688721141,-0.292837016704777,0.157494124739183,0.764914624041547,0.763448144361817,0.04,0.0739346945495535,364.969950255335,0.922662606189453,0.29064902125081
2522,-0.206539175562748,0.211942148860023,-0.373779912263922,-0.254739514323367,0.333210269832413,0.353107041048617,-0.302722119779361,0.211457607467312,0.768385944932287,0.767129803981891,0.04,0.0756552947985945,366.623384969765,0.91470659025521,0.29450524315517
2582,-0.189011478169978,0.270178424278456,-0.39596697416993,-0.235882279687196,0.33765049875133,0.398878393376094,-0.312607222853946,0.26542109019544,0.771661040524022,0.770811463601965,0.04,0.0764238056540768,368.185336748833,0.908922853106385,0.297641950335174
2642,-0.171483780777208,0.328414699696888,-0.418154036075937,-0.217025045051024,0.342090727670246,0.444649745703571,-0.32249232592853,0.319384572923568,0.774922815180191,0.774493123222039,0.04,0.076503518466447,369.741773159009,0.905683715755,0.299969180568013
2702,-0.154540339964197,0.384709765934706,-0.439601529251745,-0.198796384902725,0.346382948958533,0.488895386286798,-0.332047925567294,0.371549272894092,0.778234235566954,0.778174782842113,0.04,0.0761346280785086,371.322461280449,0.904783180024243,0.301551420298495
2762,-0.154540339964197,0.384709765934706,-0.439601529251745,-0.198796384902725,0.346382948958533,0.488895386286799,-0.332047925567294,0.371549272894092,0.783893456208488,0.781856442462187,0.04,0.0722723179114109,374.029990362134,0.895384010417953,0.306938783670738
2822,-0.154540339964197,0.384709765934706,-0.439601529251745,-0.198796384902725,0.346382948958533,0.488895386286799,-0.332047925567294,0.371549272894092,0.787774493849637,0.785538102082261,0.04,0.0687468019567056,375.875835155692,0.882206263888327,0.313060983515146
2882,-0.154540339964197,0.384709765934706,-0.439601529251745,-0.198796384902725,0.346382948958533,0.488895386286798,-0.332047925567294,0.371549272894092,0.79125038186202,0.789219761702335,0.04,0.0648798489696472,377.531436178519,0.869639223941595,0.318983836163954
2942,-0.154540339964197,0.384709765934706,-0.439601529251745,-0.198796384902725,0.346382948958533,0.488895386286799,-0.332047925567294,0.371549272894092,0.794603195579612,0.792901421322409,0.04,0.0608329942518737,379.131288507977,0.858879626017869,0.324348581120314
3002,-0.154540339964197,0.384709765934706,-0.439601529251745,-0.198796384902725,0.346382948958533,0.488895386286799,-0.332047925567294,0.371549272894092,0.797925056479277,0.796583080942483,0.04,0.0568860591736888,380.699993778318,0.850313427535268,0.328971677052014
3062,-0.154540339964196,0.384709765934706,-0.439601529251745,-0.198796384902725,0.346382948958533,0.488895386286798,-0.298626267729181,0.371549272894092,0.800466443798173,0.800264740562557,0.04,0.0538262209277109,381.92627230808,0.846547210645098,0.331499614181515
3122,-0.154540339964197,0.384709765934706,-0.439601529251745,-0.198796384902725,0.346382948958533,0.488895386286798,-0.256537230125986,0.371549272894092,0.803677259553577,0.803946400182631,0.04,0.0511800661479052,383.461288590157,0.847591103907209,0.332422042653349
3182,-0.154540339964196,0.384709765934706,-0.439601529251745,-0.198796384902725,0.346382948958533,0.488895386286799,-0.221981401250849,0.371549272894092,0.807191126116357,0.807628059802705,0.04,0.049106126873583,385.128457754038,0.850162432937429,0.332857522532649
3242,-0.154540339964197,0.384709765934706,-0.439601529251745,-0.198796384902725,0.346382948958533,0.488895386286799,-0.193679774044845,0.371549272894092,0.810764423647229,0.811309719422779,0.04,0.0475232097423324,386.842091912889,0.853480349631108,0.333038830622898
3302,-0.154540339964196,0.384709765934706,-0.439601529251745,-0.198796384902725,0.346382948958533,0.488895386286799,-0.170386515669164,0.371549272894092,0.814453561379884,0.814991379042853,0.04,0.0463038993622111,388.581646894462,0.857019082223694,0.333155102297955
3362,-0.154540339964197,0.384709765934706,-0.439601529251745,-0.198796384902725,0.346382948958533,0.488895386286798,-0.151028574142562,0.371549272894092,0.818093167923342,0.818673038662927,0.04,0.0453652517028817,390.341495811258,0.860675857279103,0.33324203470949
3422,-0.154540339964196,0.384709765934706,-0.439601529251745,-0.198796384902725,0.346382948958533,0.488895386286799,-0.134759383454236,0.371549272894092,0.821796877753631,0.822354698283001,0.04,0.0446168907622673,392.108768495437,0.864235255187012,0.333372100795257
3482,-0.154540339964197,0.384709765934706,-0.439601529251745,-0.198796384902725,0.346382948958533,0.488895386286799,-0.120930495324447,0.371549272894092,0.825497754984952,0.826036357903075,0.04,0.044008241722581,393.874697638443,0.867662575861647,0.333550728302939
3542,-0.154540339964197,0.384709765934706,-0.439601529251745,-0.198796384902725,0.346382948958533,0.488895386286799,-0.109059682790745,0.371549272894092,0.829200539711629,0.829718017523149,0.04,0.0434943289590987,395.641013498883,0.870988119497398,0.333767273329685
3602,-0.153855778927256,0.383357756051577,-0.439533635257647,-0.198745030719789,0.344912971516155,0.487475770633794,-0.0987972210473134,0.370137549388975,0.83289466093971,0.833276955155888,0.04,0.0429901100311555,397.403631896019,0.874068019041532,0.334072923648698
3662,-0.133318947819026,0.342797459557718,-0.437496815434704,-0.19720440523173,0.300813648244817,0.44488730104366,-0.0908937517858637,0.327785844235474,0.836243362672273,0.833276955155888,0.04,0.0406469593742462,398.972393586118,0.859991567836443,0.340881419345174
