time,bias_percent_1,bias_percent_2,bias_percent_3,bias_percent_4,bias_percent_5,bias_percent_6,bias_percent_8,bias_percent_9,normalized_power,power_SP,SP,CV,total_power_MW,fuel_fraction,thermal_efficiency
17,0,0,0,0,0,0,0,0,0.999260134630504,1,0.04,0.0401502160514906,476.737727108826,0.999234418510042,0.350563594314782
77,0.00437483947238809,0.0100230251414301,-0.00645359989709095,0.000794399556272197,-0.00532264647332488,-0.00562523516775411,0.00863192664677462,-0.00765068950495868,0.999311902520753,0.998048955174845,0.04,0.0403130665399194,476.73949920363,0.997485574443494,0.351179526183352
137,0.0198154493749344,0.0453984079935367,-0.0292310112985884,0.00359816269605676,-0.0241084575556483,-0.0254790063480626,0.0390975501059789,-0.0346531230518717,0.993602615340924,0.991162914615474,0.04,0.042383761153549,473.994807372603,0.98361337885678,0.354081986417122
197,0.0352560592774806,0.080773790845643,-0.0520084227000859,0.00640192583584121,-0.0428942686379718,-0.0453327775283713,0.0695631735651831,-0.0616555565987846,0.986705598069883,0.984276874056102,0.04,0.0436211189539246,470.701404158514,0.968504325242625,0.357107199206574
257,0.0506966691800269,0.11614917369775,-0.0747858341015835,0.00920568897562566,-0.0616800797202951,-0.06518654870868,0.100028797024387,-0.0886579901456977,0.97965213840248,0.977390833496731,0.04,0.0440531343939162,467.335810421251,0.954225621757891,0.359859244295009
317,0.0661372790825732,0.151524556549856,-0.0975632455030809,0.0120094521154101,-0.0804658908026184,-0.0850403198889884,0.130494420483592,-0.115660423692611,0.972577574688357,0.97050479293736,0.04,0.0439938117017406,463.960499694464,0.941055946368925,0.362259881325883
377,0.0815778889851193,0.186899939401962,-0.120340656904578,0.0148132152551945,-0.0992517018849419,-0.104894091069297,0.160960043942796,-0.142662857239524,0.965561679920174,0.963618752377988,0.04,0.0436701647685114,460.615473462027,0.928958042119857,0.364331817726817
437,0.0970184988876657,0.222275322254069,-0.143118068306076,0.017616978394979,-0.118037512967265,-0.124747862249606,0.191425667402,-0.169665290786437,0.958657227564889,0.956732711818617,0.04,0.0433794198078,457.320860267298,0.917146350311216,0.366384460728738
497,0.112459108790212,0.257650705106175,-0.165895479707573,0.0204207415347635,-0.136823324049589,-0.144601633429914,0.221891290861205,-0.19666772433335,0.951801021869581,0.949846671259246,0.04,0.0431792055312522,454.049701389632,0.905132459952277,0.36859202191715
557,0.127899718692758,0.293026087958282,-0.188672891109071,0.0232245046745479,-0.155609135131912,-0.164455404610223,0.252356914320409,-0.223670157880263,0.944932116913159,0.942960630699875,0.04,0.0430283344231365,450.772386697465,0.892994726647142,0.370905340244304
617,0.143340328595305,0.328401470810388,-0.211450302510568,0.0260282678143324,-0.174394946214235,-0.184309175790531,0.282822537779613,-0.250672591427176,0.938046664741065,0.936074590140503,0.04,0.0428897965842176,447.487290321288,0.880828100441818,0.373288164142804
677,0.158780938497851,0.363776853662495,-0.234227713912066,0.0288320309541169,-0.193180757296559,-0.20416294697084,0.313288161238818,-0.277675024974089,0.931145119424103,0.929188549581132,0.04,0.042746626146371,444.194394701797,0.868714356310474,0.375708267155119
737,0.174221548400397,0.399152236514601,-0.257005125313563,0.0316357940939014,-0.211966568378882,-0.224016718151149,0.343753784698022,-0.304677458521002,0.924231760944469,0.922302509021761,0.04,0.0425878997203357,440.895968317161,0.856734716295173,0.378132876318064
797,0.189662158302943,0.434527619366708,-0.279782536715061,0.0344395572336857,-0.230752379461205,-0.243870489331457,0.374219408157226,-0.331679892067914,0.917311629483056,0.915416468462389,0.04,0.0424128333078129,437.594287774673,0.84495261536217,0.380534437842948
857,0.20510276820549,0.469903002218814,-0.302559948116558,0.0372433203734702,-0.249538190543529,-0.263724260511766,0.40468503161643,-0.337897199019165,0.909747855155445,0.908530427903018,0.04,0.0426389928066359,433.981356537694,0.835325833596644,0.381741905077622
917,0.216168538635648,0.495255359929491,-0.318883759620965,0.0392526839569825,-0.263001355152527,-0.27795279652432,0.42651872842886,-0.33108738869844,0.903548161780098,0.903595432168802,0.04,0.0423034795961727,431.065507612486,0.831063390323877,0.381121806552467
