time,bias_percent_1,bias_percent_2,bias_percent_3,bias_percent_4,bias_percent_5,bias_percent_6,bias_percent_8,bias_percent_9,normalized_power,power_SP,SP,CV,total_power_MW,fuel_fraction,thermal_efficiency
39,0,0,0,0,0,0,0,0,0.999715976878833,1,0.04,0.0399473494756385,476.969021830479,0.999796031052415,0.350536657607458
99,-0.0138650059062022,-0.0015855904582445,0.0205118784696954,0.0145665767924578,0.0170233476547622,0.00858234425030219,-0.00136795382682925,-0.0229542002316267,0.983199548421303,0.971427581361971,0.04,0.0477819676535243,468.793189722336,0.958033317711113,0.359546741634514
159,-0.0351957842234365,-0.00402496039400523,0.052068614576919,0.0369766949347008,0.0432131132774733,0.0217859507892286,-0.0034724981757974,-0.0582683544341294,0.941974945444174,0.927470014226543,0.04,0.0602469384624468,449.040058331575,0.872024936293543,0.378364914491228
219,-0.0565265625406709,-0.00646433032976597,0.0836253506841425,0.0593868130769438,0.0694028789001844,0.0349895573281553,-0.00557704252476549,-0.093582508636632,0.896906757583473,0.883512447091114,0.04,0.0680516934884625,427.555667216904,0.787518155783528,0.398920880218196
279,-0.077857340857905,-0.00890370026552671,0.115182086791366,0.0817969312191867,0.0955926445228955,0.0481931638670818,-0.00768158687373364,-0.128896662839135,0.851840249882466,0.839554879955686,0.04,0.0717019060927776,406.055487110528,0.70942203589022,0.420567186910265
339,-0.0991881191751393,-0.0113430702012873,0.14673882289859,0.10420704936143,0.121782410145607,0.0613967704060083,-0.00978613122270173,-0.164210817041637,0.806919162549831,0.795597312820257,0.04,0.0725808267555555,384.624058320758,0.637342350747204,0.443423131214833
399,-0.120518897492373,-0.0137824401370481,0.178295559005813,0.126617167503673,0.147972175768318,0.0746003769449348,-0.0118906755716698,-0.17205939215421,0.760514542445266,0.751639745684828,0.04,0.0721498807597565,362.724378045144,0.573380501740025,0.464823953981648
459,-0.141849675809608,-0.0162218100728088,0.209852295113037,0.149027285645916,0.174161941391029,0.0878039834838614,-0.0139952199206379,-0.0926484525096387,0.714692007891627,0.7076821785494,0.04,0.0713720075024335,340.594856073823,0.52739803608691,0.474519706011315
519,-0.163180454126842,-0.0186611800085695,0.241409031220261,0.171437403788159,0.20035170701374,0.101007590022788,-0.016099764269606,-0.043763558671807,0.668998979701611,0.663724611413971,0.04,0.0717765980346877,318.822254846177,0.491087346069494,0.477028757946043
579,-0.184511232444076,-0.0211005499443302,0.272965767327484,0.193847521930402,0.226541472636451,0.114211196561715,-0.0182043086185742,-0.0206720794469204,0.624472307123832,0.619767044278543,0.04,0.0747160876368454,297.583698346903,0.459806207382717,0.475542113007884
639,-0.20584201076131,-0.023539919880091,0.304522503434708,0.216257640072645,0.252731238259162,0.127414803100641,-0.00976448875924679,-0.00976448875924679,0.580108587069039,0.575809477143114,0.04,0.0805552171337815,276.419860538514,0.431200808778288,0.471025428192902
699,-0.227172789078545,-0.0259792898158517,0.336079239541931,0.238667758214887,0.278921003881873,0.140618409639567,-0.00461213219295143,-0.00461213219295143,0.53619899144295,0.531851910007686,0.04,0.0885048068919207,255.471690713732,0.403082486125874,0.465697096167524
759,-0.248503567395779,-0.0284186597516124,0.367635975649155,0.26107787635713,0.305110769504585,0.153822016178494,-0.00217834283044414,-0.00217834283044414,0.492483971790185,0.487894342872257,0.04,0.0987175586255967,234.617519812055,0.374026736186768,0.46090611297588
819,-0.269834345713013,-0.0308580296873732,0.399192711756379,0.283487994499373,0.331300535127296,0.167025622717421,-0.00102870974735993,-0.00102870974735993,0.449007032817693,0.443936775736828,0.04,0.111119498954123,214.07668041099,0.34378028701834,0.457554749937021
879,-0.291165124030247,-0.0332973996231339,0.430749447863602,0.305898112641616,0.357490300750007,0.180229229256347,-0.000485663796820739,-0.000485663796820739,0.40589681885569,0.3999792086014,0.04,0.127210816643675,193.461179622242,0.309541468395425,0.459229384586939
939,-0.298630896441279,-0.0341511791006502,0.441794305501131,0.313741653991401,0.366656718717956,0.184850491544971,-0.000229147016550936,-0.000229147016550936,0.378408337581989,0.384594060104,0.04,0.116999225983723,180.50135014183,0.31960743590047,0.414971486101824
999,-0.298630896441279,-0.0341511791006502,0.441794305501131,0.313741653991401,0.366656718717956,0.184850491544971,-0.000107977054881924,-0.000107977054881924,0.377843899525756,0.384594060104,0.04,0.0858396885460516,180.273840034749,0.360564041539023,0.367371086764915
1059,-0.298630896441279,-0.0341511791006501,0.441794305501131,0.313741653991401,0.366656718717956,0.184850491544971,-5.07406893526809e-05,-5.07406893526809e-05,0.378922106220466,0.384594060104,0.04,0.0725823548954833,180.795140908532,0.397249010534393,0.334409499795184
1119,-0.298630896441279,-0.0341511791006501,0.441794305501131,0.313741653991401,0.366656718717956,0.184850491544971,-2.37110549515651e-05,-2.37110549515651e-05,0.380392717723416,0.384594060104,0.04,0.0688074047500367,181.496507957995,0.425444253193918,0.31345867112149
1179,-0.298630896441279,-0.0341511791006501,0.441794305501131,0.313741653991401,0.366656718717956,0.184850491544971,-1.09364383050794e-05,-1.09364383050794e-05,0.381616352520406,0.384594060104,0.04,0.0687340727792899,182.077348650564,0.445629973028852,0.300217637634603
1239,-0.298630896441279,-0.0341511791006502,0.441794305501131,0.313741653991401,0.366656718717956,0.184850491544971,-4.90216530702766e-06,-4.90216530702766e-06,0.382478281004892,0.384594060104,0.04,0.0697236404265005,182.48601565287,0.459930043918807,0.291536197824371
1299,-0.298630896441279,-0.0341511791006502,0.441794305501131,0.313741653991401,0.366656718717956,0.184850491544971,-2.05179009635298e-06,-2.05179009635298e-06,0.383072822486863,0.384594060104,0.04,0.0708009087649693,182.767965852072,0.470169023375666,0.285627975675931
1359,-0.298630896441279,-0.0341511791006501,0.441794305501131,0.313741653991401,0.366656718717956,0.184850491544971,-7.05374572187598e-07,-7.05374572187598e-07,0.383492160830563,0.384594060104,0.04,0.0716987290149831,182.966911792393,0.477569649562215,0.281507853569563
1419,-0.298630896441279,-0.0341511791006501,0.441794305501131,0.313741653991401,0.366656718717956,0.184850491544971,-6.93759300002609e-08,-6.93759300002609e-08,0.383793965405244,0.384594060104,0.04,0.0723890371923776,183.110130494053,0.482940358688834,0.278595147729814
1479,-0.298630896441279,-0.0341511791006501,0.441794305501131,0.313741653991401,0.366656718717956,0.184850491544971,2.31047130789144e-07,2.31047130789144e-07,0.384013137374695,0.384594060104,0.04,0.0729048048640501,183.21414418887,0.486840393137483,0.276520332304972
1539,-0.298630896441279,-0.0341511791006502,0.441794305501131,0.313741653991401,0.366656718717956,0.184850491544971,3.72956263084886e-07,3.72956263084886e-07,0.384172569184516,0.384594060104,0.04,0.0732856430803819,183.289806272211,0.489670826453105,0.275035502751291
1599,-0.298630896441279,-0.0341511791006501,0.441794305501131,0.313741653991401,0.366656718717956,0.184850491544971,4.39989072670189e-07,4.39989072670189e-07,0.384292382783731,0.384594060104,0.04,0.0735669867655826,183.346820573494,0.491716573866049,0.273976436445073
1659,-0.298630896441279,-0.0341511791006502,0.441794305501131,0.313741653991401,0.366656718717956,0.184850491544971,4.71652979623938e-07,4.71652979623938e-07,0.38439853187982,0.384594060104,0.04,0.0738088807608686,183.397256777284,0.493093771984485,0.273286384036286
1719,-0.298630896441279,-0.0341511791006501,0.441794305501131,0.313741653991401,0.366656718717956,0.184850491544971,4.86609879234415e-07,4.86609879234415e-07,0.384471630249571,0.384594060104,0.04,0.0740188562625658,183.431867272255,0.493961420857087,0.272857837049061
1779,-0.298630896441279,-0.0341511791006502,0.441794305501131,0.313741653991401,0.366656718717956,0.184850491544972,4.93674984822449e-07,4.93674984822449e-07,0.384516627084804,0.384594060104,0.04,0.0741788340751707,183.453157676351,0.494507080566118,0.272588389217964
1839,-0.296607825350525,-0.0207002881974971,0.436465307068716,0.314572261323845,0.355691915646759,0.195146557669763,4.97012288559856e-07,4.97012288559856e-07,0.388952650469492,0.394671992823129,0.04,0.068014581806695,185.664886014983,0.514566805892866,0.265120118159208
1899,-0.293495408287827,-6.60988495394577e-06,0.428266847941923,0.315850118758373,0.338822987844918,0.210986659400212,2.6509170246418e-07,2.6509170246418e-07,0.403927957987264,0.410176504698713,0.04,0.058833769714026,192.830321745,0.5537282445967,0.255878222748861
1959,-0.290382991225129,0.0206870684275892,0.420068388815131,0.317127976192901,0.321954060043078,0.226826761130661,0.00988704490948709,3.89037598493684e-07,0.420716435330042,0.425681016574297,0.04,0.0559516079882602,200.768641246542,0.586977912342914,0.251321010241075
2019,-0.28727057416243,0.0413807467401323,0.411869929688339,0.31840583362743,0.305085132241237,0.24266686286111,0.0247363527566722,4.47585314771828e-07,0.437017219581838,0.441185528449881,0.04,0.0560284867517073,208.631110731105,0.614726082061145,0.249374536827595
2079,-0.284158157099732,0.0620744250526754,0.403671470561546,0.319683691061958,0.288216204439396,0.258506964591558,0.0395856606038574,4.75241173294954e-07,0.453277318518551,0.456690040325465,0.04,0.0571353027861688,216.386636823967,0.63738548125113,0.249449677395499
2139,-0.281045740037034,0.0827681033652186,0.395473011434754,0.320961548496486,0.271347276637556,0.274347066322007,0.0544349684510425,4.88304813867679e-07,0.469223978722549,0.472194552201049,0.04,0.0584003737133422,223.992459247457,0.656742881152828,0.25060671305598
2199,-0.277933322974335,0.103461781677762,0.387274552307962,0.322239405931015,0.254478348835715,0.290187168052456,0.0692842762982277,4.94475611453682e-07,0.484941223822874,0.487699064076632,0.04,0.059416956428178,231.48984587619,0.674418800435828,0.252206893973957
2259,-0.274820905911637,0.124155459990305,0.37907609318117,0.323517263365543,0.237609421033874,0.306027269782905,0.0841335841454128,4.97390476007359e-07,0.500540695775954,0.503203575952216,0.04,0.0601410457114244,238.931731021289,0.69132694402131,0.253948131791351
2319,-0.271708488848939,0.144849138302848,0.370877634054377,0.324795120800071,0.220740493232033,0.321867371513354,0.098982891992598,4.98767353995637e-07,0.516085023795613,0.5187080878278,0.04,0.0606466303082411,246.347637135478,0.707903868908377,0.255698859804512
2379,-0.26859607178624,0.165542816615391,0.362679174927585,0.3260729782346,0.203871565430193,0.337707473243803,0.113832199839783,0.0352035309435904,0.530747738240886,0.534212599703384,0.04,0.0618211140691515,253.336619410889,0.726881677285302,0.256087821448861
2439,-0.265483654723542,0.186236494927934,0.354480715800793,0.327350835669128,0.187002637628352,0.353547574974252,0.128681507686968,0.090084535065728,0.545970632556991,0.549717111578968,0.04,0.0629522291176557,260.606163718205,0.749971450520318,0.255325757029743
2499,-0.262371237660843,0.206930173240477,0.346282256674,0.328628693103656,0.170133709826511,0.3693876767047,0.143530815534153,0.144965539187866,0.561585667153131,0.565221623454551,0.04,0.0644591628678252,268.056870762347,0.772834764555368,0.254856063028175
2559,-0.259258820598145,0.22762385155302,0.338083797547208,0.329906550538185,0.15326478202467,0.385227778435149,0.158380123381339,0.199846543310003,0.577199914837863,0.580726135330135,0.04,0.0662038218198453,275.505987126236,0.794963717386327,0.254646909483671
2619,-0.256146403535447,0.248317529865564,0.329885338420416,0.331184407972713,0.13639585422283,0.401067880165598,0.173229431228524,0.254727547432141,0.592751151621626,0.596230647205719,0.04,0.0679620924896899,282.924998165566,0.816681015365892,0.254550255896118
2679,-0.253033986472748,0.269011208178107,0.321686879293624,0.332462265407242,0.119526926420989,0.416907981896047,0.188078739075709,0.309608551554278,0.608251900209032,0.611735159081303,0.04,0.0696200748852669,290.320098140405,0.838328713027407,0.254458777959072
2739,-0.251944640500804,0.276253995587497,0.318817418599246,0.332909515509326,0.113622801690345,0.422452017501704,0.193275996822224,0.328816902997026,0.624875619145376,0.627239670956887,0.04,0.070003778816492,298.260211537783,0.856694908285757,0.255813707589541
2799,-0.251944640500804,0.276253995587497,0.318817418599247,0.332909515509326,0.113622801690345,0.422452017501704,0.193275996822224,0.328816902997026,0.640818780009096,0.64274418283247,0.04,0.0701400693015309,305.85808890443,0.869390201173052,0.25849961814516
2859,-0.251944640500804,0.276253995587497,0.318817418599247,0.332909515509326,0.113622801690345,0.422452017501704,0.193275996822224,0.328816902997026,0.656226064696772,0.658248694708054,0.04,0.0697737979994179,313.207554690059,0.882020505569993,0.260920512711673
2919,-0.251944640500804,0.276253995587497,0.318817418599246,0.332909515509326,0.113622801690345,0.422452017501704,0.193275996822224,0.328816902997026,0.67159278722303,0.673753206583638,0.04,0.0690146804386861,320.539282873545,0.895493491234991,0.263010752393194
2979,-0.251944640500804,0.276253995587497,0.318817418599246,0.332909515509326,0.113622801690345,0.422452017501704,0.193275996822224,0.328816902997026,0.687004749648794,0.689257718459222,0.04,0.068099176063246,327.89268942737,0.909619587070151,0.264866240141199
3039,-0.251944640500804,0.276253995587497,0.318817418599246,0.332909515509327,0.113622801690345,0.422452017501704,0.193275996822224,0.328816902997026,0.702452965635012,0.704762230334806,0.04,0.0671536590717906,335.263246837151,0.924148391655016,0.266562412846994
3099,-0.251944640500804,0.276253995587497,0.318817418599246,0.332909515509326,0.113622801690345,0.422452017501704,0.193275996822224,0.328816902997026,0.717920687984361,0.72026674221039,0.04,0.0662242978872974,342.643001615077,0.938931142660674,0.268140736623013
3159,-0.251944640500804,0.276253995587497,0.318817418599247,0.332909515509326,0.113622801690345,0.422452017501704,0.193275996822224,0.328816902997026,0.733397924013568,0.735771254085973,0.04,0.0653224508906411,350.027242483071,0.953893654550483,0.269622768111142
3219,-0.251944640500804,0.276253995587497,0.318817418599246,0.332909515509326,0.113622801690345,0.422452017501704,0.193275996822224,0.328816902997026,0.748879889522751,0.751275765961557,0.04,0.0644481725200344,357.413714803628,0.968999582482162,0.271020598336874
3279,-0.251944640500804,0.276253995587497,0.318817418599246,0.332909515509326,0.113622801690345,0.422452017501704,0.193275996822224,0.328816902997026,0.764364386229935,0.766780277837141,0.04,0.0635990039308134,364.801383498819,0.984230047514293,0.272341944228578
3339,-0.251944640500804,0.276253995587497,0.318817418599246,0.332909515509327,0.113622801690345,0.422452017501704,0.193275996822224,0.328816902997026,0.779850333687858,0.782284789712725,0.04,0.0627725126555697,372.189735972077,0.999574495183865,0.273592320057182
3399,-0.251944640500804,0.276253995587497,0.318817418599246,0.332909515509327,0.113622801690345,0.422452017501704,0.193275996822224,0.328816902997026,0.795337131946939,0.797789301588309,0.04,0.0619667960316155,379.578495495546,1.01502674637227,0.274775995601884
3459,-0.251944640500804,0.276253995587497,0.318817418599246,0.332909515509326,0.113622801690345,0.422452017501704,0.193275996822224,0.328816902997026,0.810824438572444,0.813293813463893,0.04,0.0611803982726347,386.967491405458,1.03058313722747,0.27589645881702
3519,-0.251944640500804,0.276253995587497,0.318817418599246,0.332909515509326,0.113622801690345,0.422452017501704,0.193275996822224,0.328816902997026,0.826312014030056,0.828798325339476,0.04,0.0604121965965339,394.356615679871,1.04624161064058,0.276956663480326
3579,-0.251944640500804,0.276253995587497,0.318817418599246,0.332909515509326,0.113622801690345,0.422452017501704,0.193275996822224,0.328816902997026,0.841799720390571,0.84430283721506,0.04,0.0596612881603775,401.745800460443,1.06200111479575,0.27795919761555
3639,-0.249155259815198,0.252001827429704,0.294251478739122,0.300450812220641,0.11598284170779,0.406931034990426,0.196266207384675,0.333032876574948,0.853131786065106,0.849729416371515,0.04,0.0599436767466059,407.066369513239,1.05796337734985,0.282715269742662
3699,-0.244863904914265,0.214690799494639,0.256457725108163,0.250514345622664,0.119613672503859,0.38305260035769,0.200866531326907,0.33951898977175,0.854988574604851,0.849729416371515,0.04,0.0615351646080579,407.916139517101,1.02799750465069,0.291563734777769
3759,-0.240572550013332,0.177379771559573,0.218663971477203,0.200577879024687,0.123244503299927,0.359174165724955,0.20546685526914,0.346005102968552,0.854657400869496,0.849729416371515,0.04,0.0611205591222557,407.752725849576,0.997424986067794,0.30038020264311
3819,-0.236281195112399,0.140068743624508,0.180870217846244,0.15064141242671,0.126875334095996,0.335295731092219,0.210067179211373,0.352491216165355,0.854147311614894,0.849729416371515,0.04,0.0590266195442103,407.510206429271,0.969928810170018,0.30871185489554
3879,-0.231989840211466,0.102757715689442,0.143076464215284,0.100704945828732,0.130506164892065,0.311417296459483,0.214667503153605,0.358977329362157,0.853792366731522,0.849729416371515,0.04,0.0560059729408012,407.342123092133,0.944903909341805,0.316757096276554
