time,bias_percent_1,bias_percent_2,bias_percent_3,bias_percent_4,bias_percent_5,bias_percent_6,bias_percent_8,bias_percent_9,normalized_power,power_SP,SP,CV,total_power_MW,fuel_fraction,thermal_efficiency
42,0,0,0,0,0,0,0,0,0.999742792596141,1,0.04,0.0399371239329576,476.981246898418,0.999851637996697,0.350526146456214
102,0.0207530757703049,-0.00258609011889939,0.00724300377515021,0.0244299579073619,0.0175942033186336,-0.0218265680079712,-0.0142106674135261,0.00558245218845116,0.982638224187874,0.971974079653843,0.04,0.0480243597936954,468.543597489096,0.959282702406992,0.358887283836754
162,0.0504003268707404,-0.00628050457447011,0.0175901520253645,0.0593298977750216,0.0427287794881102,-0.0530073794479301,-0.0345116208614204,0.0135573838862384,0.944531546584552,0.931937050587905,0.04,0.0596819322722781,450.305734035915,0.883033637059727,0.374701046581965
222,0.080047577971176,-0.00997491903004072,0.027937300275579,0.0942298376426814,0.0678633556575866,-0.0841881908878889,-0.0548125743093148,0.0215323155840258,0.904033045675538,0.891900021521967,0.04,0.0671843252030286,430.991960246496,0.807213469869715,0.392315479977297
282,0.109694829071611,-0.0136693334856113,0.0382844485257936,0.129129777510341,0.0929979318270631,-0.115369002327848,-0.0751135277572091,0.0295072472818131,0.863454274453602,0.851862992456029,0.04,0.0715435509304287,411.630832587806,0.734487188381184,0.411792420752354
342,0.139342080172047,-0.0173637479411819,0.048631596776008,0.164029717378001,0.11813250799654,-0.146549813767807,-0.0954144812051035,0.0374821789796004,0.822768480365323,0.811825963390091,0.04,0.0735196903664058,392.219123197045,0.665467667533916,0.433068385732085
402,0.168989331272483,-0.0210581623967525,0.0589787450262226,0.198929657245661,0.143267084166016,-0.177730625207766,-0.115715434652998,0.0454571106773878,0.782051904164908,0.771788934324153,0.04,0.0735010561592334,372.793161810048,0.600490791089978,0.456159014930856
462,0.198636582372918,-0.0247525768523232,0.069325893276437,0.23382959711332,0.168401660335493,-0.208911436647724,-0.0920361971432111,0.0534320423751751,0.739797855945168,0.731751905258215,0.04,0.073352702952847,352.604270425919,0.542984269126944,0.477150074855672
522,0.228283833473354,-0.0284469913078937,0.0796730415266516,0.26872953698098,0.193536236504969,-0.240092248087683,-0.0434743510871293,0.0614069740729625,0.697132051404042,0.691714876192277,0.04,0.0735773552497089,332.270704409843,0.504260479822054,0.484163221137105
582,0.257931084573789,-0.0321414057634643,0.0900201897768659,0.30362947684864,0.218670812674446,-0.271273059527642,-0.020535468105275,0.0693819057707498,0.656087236308856,0.651677847126339,0.04,0.0750134490307842,312.696442045382,0.474250899922235,0.484472859231487
642,0.287578335674225,-0.0358358202190349,0.100367338027081,0.3385294167163,0.243805388843923,-0.302453870967601,-0.00969995843689417,0.0773568374685371,0.615736468248209,0.611640818060401,0.04,0.0783635665384689,293.448700674299,0.447246696663782,0.482102879671976
702,0.31722558677466,-0.0395302346746055,0.110714486277295,0.37342935658396,0.268939965013399,-0.33363468240756,-0.00458165037165719,0.0853317691663244,0.575781938106784,0.571603788994463,0.04,0.0834898775017998,274.388752750447,0.420491859215823,0.479472153623569
762,0.346872837875096,-0.0432246491301761,0.121061634527509,0.408329296451619,0.294074541182876,-0.364815493847519,-0.0021639443059126,0.0933067008641118,0.535904559677816,0.531566759928525,0.04,0.0902038459159319,255.362198368188,0.392719413892159,0.477781042578308
822,0.376520088975531,-0.0469190635857467,0.131408782777724,0.443229236319279,0.319209117352352,-0.376026993443978,-0.00102190642131289,0.101281632561899,0.495155038642756,0.491529730862586,0.04,0.0986082781515812,236.07842000239,0.365814549007866,0.474187380699248
882,0.406167340075967,-0.0506134780413174,0.141755931027938,0.478129176186939,0.344343693521829,-0.351726030028231,-0.000482449567179432,0.109256564259686,0.454950905862269,0.451492701796648,0.04,0.108045875041871,216.943724664685,0.343454889186604,0.46412190421184
942,0.415061515406098,-0.0517218023779885,0.144860075503003,0.488599158147237,0.351884066372672,-0.338937720246335,-0.000227628640831277,0.111649043769023,0.430003902701241,0.439481593076867,0.04,0.0984358765093821,205.112247511777,0.370937618174672,0.406298660660568
1002,0.415061515406098,-0.0517218023779885,0.144860075503003,0.488599158147237,0.351884066372672,-0.360217440946805,-0.000107259828380374,0.111649043769023,0.430369193178285,0.439481593076867,0.04,0.0762803772382336,205.358563792596,0.430810106673382,0.350252796505692
1062,0.415061515406098,-0.0517218023779885,0.144860075503003,0.488599158147237,0.351884066372672,-0.394488929593729,-5.0401915921302e-05,0.111649043769023,0.434240435366359,0.439481593076867,0.04,0.0679736537984436,207.202693518208,0.469926248255417,0.323981617457494
1122,0.415061515406098,-0.0517218023779885,0.144860075503003,0.488599158147237,0.351884066372672,-0.424372205539267,-2.3544251800654e-05,0.111649043769023,0.436887677810894,0.439481593076867,0.04,0.0674393534231302,208.454124937289,0.490140926663378,0.312495812591266
1182,0.415061515406098,-0.0517218023779885,0.144860075503003,0.488599158147237,0.351884066372672,-0.436531360159424,-1.0857646449528e-05,0.111649043769023,0.438068106828991,0.439481593076867,0.04,0.0692330941834242,209.006855616127,0.500252689003342,0.306991093716038
1242,0.415061515406098,-0.0517218023779885,0.144860075503003,0.488599158147237,0.351884066372672,-0.436531360159424,-4.86494684642121e-06,0.111649043769023,0.438553017022101,0.439481593076867,0.04,0.0708779970246932,209.236835096212,0.506734086086915,0.303397990472358
1302,0.415061515406098,-0.0517218023779885,0.144860075503003,0.488599158147237,0.351884066372672,-0.436531360159424,-2.03420942383015e-06,0.111649043769023,0.438883761450048,0.439481593076867,0.04,0.0719272721627596,209.393548120383,0.510930647423572,0.301131382686908
1362,0.415061515406098,-0.0517218023779885,0.144860075503003,0.488599158147237,0.351884066372672,-0.436531360159424,-6.97070089914049e-07,0.111649043769023,0.439098424845254,0.439481593076867,0.04,0.0726095300003738,209.495205893448,0.513621971802001,0.299698915563044
1422,0.415061515406098,-0.0517218023779885,0.144860075503003,0.488599158147237,0.351884066372672,-0.436531360159424,-6.54531889479995e-08,0.111649043769023,0.439235211685284,0.439481593076867,0.04,0.0730519613160536,209.55997651572,0.515349823188864,0.298786441553444
1482,0.415061515406098,-0.0517218023779885,0.144860075503003,0.488599158147237,0.351884066372672,-0.436531360159424,2.32900093665844e-07,0.111649043769023,0.439322384138435,0.439481593076867,0.04,0.0733370672104532,209.601257441771,0.516464352644769,0.298200391277455
1542,0.415061515406098,-0.0517218023779885,0.144860075503003,0.488599158147237,0.351884066372672,-0.436531360159424,3.73831536618541e-07,0.111649043769023,0.439378308118904,0.439481593076867,0.04,0.0735201542180947,209.627743634392,0.517186436777723,0.297821679943958
1602,0.415061515406098,-0.0517218023779885,0.144860075503003,0.488599158147237,0.351884066372672,-0.436531360159424,4.40402520650368e-07,0.111649043769023,0.439414392654997,0.439481593076867,0.04,0.0736376722919442,209.644834843928,0.517655769900717,0.297575919374407
1662,0.415061515406098,-0.0517218023779885,0.144860075503003,0.488599158147237,0.351884066372672,-0.436531360159424,4.71848277694473e-07,0.111649043769023,0.439437738345586,0.439481593076867,0.04,0.073713152442381,209.655892612624,0.517961696825287,0.297415846711406
1722,0.415061515406098,-0.0517218023779885,0.144860075503003,0.488599158147237,0.351884066372672,-0.436531360159424,4.86702131073059e-07,0.111649043769023,0.439452848080589,0.439481593076867,0.04,0.0737616343457316,209.663049360361,0.518161864545797,0.297311102513148
1782,0.415061515406098,-0.0517218023779885,0.144860075503003,0.488599158147237,0.351884066372672,-0.436531360159424,4.93718561298703e-07,0.111649043769023,0.439462622815445,0.439481593076867,0.04,0.0737927282872537,209.667679131283,0.518293601715385,0.297242097067785
1842,0.408056196655823,-0.0381842112602176,0.129770958400207,0.45594712692639,0.324272417422203,-0.424312748394431,4.97032872195778e-07,0.0969416099536994,0.439473312826716,0.43742316399272,0.04,0.0723387941305394,209.663630615417,0.511568770811658,0.301143680205375
1902,0.398048598441144,-0.0188447953776878,0.108215076824785,0.409301368039466,0.28482720463582,-0.406857588730155,4.98598434717357e-07,0.0759309902175233,0.437255177933091,0.434482551015368,0.04,0.0710499054088959,208.591079652228,0.495374825233976,0.309397269150327
1962,0.388041000226465,0.000494620504841976,0.0866591952493626,0.362655609152542,0.245381991849436,-0.389402429065878,4.99337950580115e-07,0.0549203704813471,0.434111515701368,0.431541938038015,0.04,0.0684084421544883,207.089014749605,0.479260135384243,0.317497589274131
2022,0.378033402011786,0.0198340363873717,0.0651033136739402,0.316009850265618,0.205936779063052,-0.371947269401602,4.99687271421069e-07,0.033909750745171,0.430949271851078,0.428601325060662,0.04,0.0644546838987868,205.581283945687,0.46465189790026,0.325095183347446
2082,0.368025803797108,0.0391734522699016,0.043547432098518,0.269364091378694,0.166491566276669,-0.354492109737326,4.8477640359623e-07,0.012899131008995,0.427926178846967,0.42566071208331,0.04,0.0597024872387084,204.140604145856,0.450871452717706,0.33268355491023
2142,0.358018205582429,0.0585128681524313,0.0219915505230957,0.22271833249177,0.127046353490285,-0.33703695007305,4.92808909773055e-07,4.92808909773055e-07,0.42466920423242,0.422720099105957,0.04,0.0548737935907736,202.596298139706,0.437828752546305,0.340002337877001
2202,0.34801060736775,0.0778522840349611,0.000435668947673321,0.176072573604846,0.0876011407039015,-0.319581790408774,0.0303701624913053,3.59215514512377e-07,0.420675098547298,0.419779486128605,0.04,0.05116526544013,200.673011908649,0.429587797991302,0.343235111687535
2262,0.338003009153072,0.097191699917491,-0.021120212627749,0.129426814717922,0.0481559279175181,-0.302126630744498,0.0773229252915779,4.33498316990856e-07,0.417512691100124,0.416838873151252,0.04,0.0477362870210295,199.190546593208,0.425606199758732,0.343886758908527
2322,0.327995410938393,0.116531115800021,-0.0426760942031713,0.0827810558309981,0.00871071513113435,-0.284671471080222,0.124275688091851,4.68586930211508e-07,0.41484400479205,0.4138982601739,0.04,0.0454868282671059,197.920660217757,0.420258362217388,0.34604250209948
2382,0.317987812723714,0.135870531682551,-0.0642319757785936,0.0361352969440741,-0.0307344976552492,-0.267216311415946,0.171228450892123,4.84028422078517e-07,0.412062292204351,0.410957647196547,0.04,0.0438358596914719,196.590600043095,0.413684641789803,0.349178927489674
