time,bias_percent_1,bias_percent_2,bias_percent_3,bias_percent_4,bias_percent_5,bias_percent_6,bias_percent_8,bias_percent_9,normalized_power,power_SP,SP,CV,total_power_MW,fuel_fraction,thermal_efficiency
14,0,0,0,0,0,0,0,0,0.999633628841516,1,0.04,0.040196590831846,476.847368431528,0.998705057546507,0.350830075834518
74,-0.00279361113542814,-0.00132932052792307,-0.00228365551301351,-0.00590760280445477,0.00829521527921634,-0.00599794180950937,0.00688140565966103,0.00733530154108183,0.998009899109956,0.99564376286683,0.04,0.0408441083608689,476.062819380674,0.995530911824358,0.351369605390613
134,-0.0147662302872635,-0.00702640850473631,-0.012070750568786,-0.0312259005378323,0.0438461379044288,-0.0317034067074068,0.0363731442010652,0.0387723081457179,0.982201558937784,0.976974175153242,0.04,0.0456879588559682,468.465230629827,0.9660551935506,0.356311713602894
194,-0.0267388494390989,-0.0127234964815494,-0.0218578456245585,-0.0565441982712096,0.0793970605296415,-0.0574088716053042,0.0658648827424694,0.0702093147503541,0.963677776265113,0.958304587439655,0.04,0.049003427702028,459.621118261199,0.932797126272056,0.362049083032278
254,-0.0387114685909341,-0.0184205844583627,-0.0316449406803309,-0.0818624960045871,0.114947983154854,-0.0831143365032016,0.0953566212838737,0.10164632135499,0.94480498682417,0.939634999726068,0.04,0.0506518520195539,450.615806946819,0.900421414534119,0.367718333451346
314,-0.0506840877427694,-0.0241176724351758,-0.0414320357361033,-0.107180793737965,0.150498905780067,-0.108819801401099,0.124848359825278,0.133083327959626,0.925855587789926,0.920965412012481,0.04,0.0512037652718712,441.575010814787,0.86957195855888,0.37312438967485
374,-0.0626567068946048,-0.029814760411989,-0.0512191307918758,-0.132499091471342,0.186049828405279,-0.134525266298996,0.154340098366682,0.164520334564263,0.906909183985733,0.902295824298894,0.04,0.0510855144389076,432.535786969067,0.840397305126243,0.378174351599863
434,-0.07462932604644,-0.0355118483888021,-0.0610062258476482,-0.157817389204719,0.221600751030492,-0.160230731196894,0.183831836908086,0.195957341168899,0.887986935569175,0.883626236585306,0.04,0.0505962506692975,423.50824002873,0.8127982579559,0.382854518261272
494,-0.0866019451982754,-0.0412089363656154,-0.0707933209034207,-0.183135686938097,0.257151673655704,-0.185936196094791,0.21332357544949,0.227394347773535,0.86909403839386,0.864956648871719,0.04,0.0499340218530233,414.494598392345,0.786592804599053,0.387189509655316
554,-0.0985745643501107,-0.0469060243424285,-0.0805804159591931,-0.208453984671474,0.292702596280917,-0.211641660992689,0.242815313990895,0.258831354378171,0.850343968585907,0.846287061158132,0.04,0.0491720681883517,405.554454651826,0.76164059118038,0.3912494778166
614,-0.110547183501946,-0.0526031123192417,-0.0903675110149657,-0.233772282404852,0.328253518906129,-0.237347125890586,0.272307052532299,0.290268360982807,0.831459332323335,0.827617473444545,0.04,0.0485130407822357,396.518968621392,0.737917306592477,0.394830731129673
674,-0.122519802653781,-0.0583002002960549,-0.100154606070738,-0.259090580138229,0.363804441531342,-0.263052590788483,0.301798791073703,0.321705367587443,0.812868646993754,0.808947885730958,0.04,0.0478027088970832,387.674789112053,0.715024682136871,0.398383370855752
734,-0.134492421805617,-0.0639972882728681,-0.109941701126511,-0.284408877871607,0.399355364156555,-0.288758055686381,0.331290529615107,0.35314237419208,0.79387817210529,0.79027829801737,0.04,0.0474092118142783,378.605211987521,0.692474317681836,0.401733079194447
794,-0.146465040957452,-0.0696943762496812,-0.119728796182283,-0.309727175604984,0.434906286781767,-0.314463520584278,0.360782268156512,0.384579380796716,0.774947212799,0.771608710303783,0.04,0.046910135021556,369.570658270515,0.670842924041278,0.404791436723368
854,-0.158437660109287,-0.0753914642264945,-0.129515891238055,-0.335045473338362,0.47045720940698,-0.340168985482175,0.390274006697916,0.416016387401352,0.756145153977623,0.752939122590196,0.04,0.0462644085443825,360.614041646505,0.650351909916735,0.407426140215347
914,-0.167616668125694,-0.0797592316753846,-0.137019330780814,-0.354456168267284,0.497712916752976,-0.359876508570563,0.412884339579659,0.440118092464906,0.739461964351475,0.738625772009779,0.04,0.0441114126833761,352.793138794362,0.635814690232736,0.407703320628404
974,-0.167616668125694,-0.0797592316753845,-0.137019330780814,-0.354456168267284,0.497712916752976,-0.359876508570563,0.412884339579659,0.440118092464906,0.736887667760831,0.738625772009779,0.04,0.0376792830626025,351.558891424274,0.64309708590365,0.401676312063063
1034,-0.167616668125694,-0.0797592316753846,-0.137019330780814,-0.354456168267284,0.497712916752976,-0.359876508570563,0.412884339579659,0.440118092464906,0.735853202167629,0.738625772009779,0.04,0.0331892177933051,351.069192489926,0.657853873884637,0.392119066585398
1094,-0.167616668125694,-0.0797592316753845,-0.137019330780814,-0.354456168267284,0.497712916752976,-0.359876508570563,0.412884339579659,0.440118092464906,0.735256031350895,0.738625772009779,0.04,0.0308416690067687,350.787553295558,0.67705394586278,0.380693601991313
1154,-0.167616668125694,-0.0797592316753845,-0.137019330780814,-0.354456168267284,0.497712916752976,-0.359876508570563,0.412884339579659,0.440118092464906,0.735064494246664,0.738625772009779,0.04,0.0302127152683561,350.699335744689,0.698228063166503,0.369056041843804
1214,-0.167616668125694,-0.0797592316753845,-0.137019330780814,-0.354456168267284,0.497712916752976,-0.359876508570563,0.412884339579659,0.440118092464906,0.735250213542506,0.738625772009779,0.04,0.0308410790765139,350.790704560053,0.719036488028491,0.35846918085013
1274,-0.167616668125694,-0.0797592316753845,-0.137019330780814,-0.354456168267284,0.497712916752976,-0.359876508570563,0.412884339579659,0.440118092464906,0.735736503737507,0.738625772009779,0.04,0.0323069417400661,351.02466243463,0.737492196087555,0.349731602247713
1334,-0.167616668125694,-0.0797592316753845,-0.137019330780814,-0.354456168267284,0.497712916752976,-0.359876508570563,0.412884339579659,0.440118092464906,0.736405802088275,0.738625772009779,0.04,0.0342387643468298,351.344922507578,0.752243466350677,0.343186292990431
1394,-0.167616668125694,-0.0797592316753846,-0.137019330780814,-0.354456168267284,0.497712916752976,-0.359876508570563,0.412884339579659,0.440118092464906,0.737134168450257,0.738625772009779,0.04,0.0363196248546816,351.692446583948,0.762687663240705,0.338821527186623
1454,-0.167616668125694,-0.0797592316753845,-0.137019330780814,-0.354456168267284,0.497712916752976,-0.359876508570563,0.412884339579659,0.440118092464906,0.737821462848094,0.738625772009779,0.04,0.0383000206896915,352.019720043899,0.768882479683948,0.336404428746071
1514,-0.167616668125694,-0.0797592316753845,-0.137019330780814,-0.354456168267284,0.497712916752976,-0.359876508570563,0.412884339579659,0.440118092464906,0.738409866061312,0.738625772009779,0.04,0.0400055192468909,352.296225341978,0.771340351738129,0.335595875530998
1574,-0.167616668125694,-0.0797592316753846,-0.137019330780814,-0.354456168267284,0.497712916752976,-0.359876508570563,0.412884339579659,0.440118092464906,0.738847953211335,0.738625772009779,0.04,0.0413340275968688,352.507314173029,0.770854248632166,0.336008712461864
1634,-0.167616668125694,-0.0797592316753845,-0.137019330780814,-0.354456168267284,0.497712916752976,-0.359876508570563,0.412884339579659,0.440118092464906,0.739150490054796,0.738625772009779,0.04,0.0422468101217641,352.650551446745,0.76825659863279,0.337281829119927
1694,-0.167616668125694,-0.0797592316753845,-0.137019330780814,-0.354456168267284,0.497712916752976,-0.359876508570563,0.412884339579659,0.440118092464906,0.73932209692521,0.738625772009779,0.04,0.0427550890919959,352.731461824488,0.764369674386437,0.339074731075511
1754,-0.167616668125694,-0.0797592316753846,-0.137019330780814,-0.354456168267284,0.497712916752976,-0.359876508570563,0.412884339579659,0.440118092464906,0.739383830142343,0.738625772009779,0.04,0.0429064489662302,352.760139240781,0.759899037851394,0.341097304164364
1814,-0.171926880754042,-0.0779439570405539,-0.131568004754028,-0.351343939530851,0.489222973534735,-0.347943657873309,0.406865290546634,0.434378677465969,0.738855924592883,0.737616508313701,0.04,0.0430152843775672,352.473957470596,0.754315643723396,0.343343315289093
1874,-0.190399220589818,-0.0701642086055651,-0.108205178924943,-0.338005816374706,0.452837502599416,-0.296802869170792,0.381069366119382,0.409781184613378,0.735106405904818,0.733291092473366,0.04,0.043720664667381,350.686532460426,0.743800861759357,0.346431270793638
1934,-0.208871560425595,-0.0623844601705765,-0.0848423530958584,-0.324667693218562,0.416452031664096,-0.245662080468275,0.355273441692131,0.385183691760788,0.730887442519502,0.728965676633031,0.04,0.0440532632789969,348.672231555214,0.732186464443226,0.349905155601318
1994,-0.227343900261371,-0.0546047117355879,-0.0614795272667735,-0.311329570062417,0.380066560728777,-0.194521291765758,0.329477517264879,0.360586198908198,0.72653531131272,0.724640260792696,0.04,0.0439561909044147,346.594991799084,0.720492353716395,0.35346594942113
2054,-0.245816240097148,-0.0468249633005992,-0.0381167014376888,-0.297991446906272,0.343681089793457,-0.143380503063241,0.303681592837628,0.335988706055608,0.722096624067963,0.720314844952362,0.04,0.0435204685062168,344.476752378209,0.709319047362102,0.356839541156229
2114,-0.264288579932924,-0.0390452148656105,-0.0147538756086039,-0.284653323750128,0.307295618858138,-0.092239714360724,0.277885668410376,0.311391213203017,0.717606363512363,0.715989429112026,0.04,0.0428572663972918,342.334170303433,0.699045613272726,0.359831693052754
2174,-0.2827609197687,-0.0312654664306217,0.00860895022048078,-0.271315200593983,0.270910147922818,-0.0410989256582069,0.252089743983125,0.286793720350427,0.713096184125873,0.711664013271692,0.04,0.0420797740084407,340.18232588069,0.689855104807817,0.362333542518493
2234,-0.301233259604477,-0.0234857179956331,0.0319717760495656,-0.257977077437838,0.234524676987499,0.0100418630443102,0.226293819555873,0.262196227497837,0.708594098459123,0.707338597431357,0.04,0.0412923067432646,338.034533325796,0.681753358883968,0.364324568893689
2294,-0.319705599440253,-0.0157059695606446,0.0553346018786503,-0.244638954281694,0.198139206052179,0.0611826517468272,0.200497895128621,0.237598734645247,0.704113206966033,0.703013181591022,0.04,0.0405757162326538,335.896838565514,0.674627319281738,0.36584461634312
2354,-0.338177939276029,-0.00792622112565573,0.0786974277077352,-0.231300831125549,0.16175373511686,0.112323440449344,0.17470197070137,0.213001241792657,0.699641794307366,0.698687765750687,0.04,0.0399571154469403,333.764569267997,0.668398431146415,0.366909947864141
2414,-0.356650279111806,-0.00014647269066711,0.10206025353682,-0.217962707969405,0.12536826418154,0.163464229151861,0.148906046274118,0.188403748940067,0.695169729246139,0.694362349910352,0.04,0.0394495787327806,331.629950353092,0.663035348390954,0.367512182271445
2474,-0.375122618947582,0.00763327574432162,0.125423079365905,-0.20462458481326,0.0889827932462206,0.214605017854378,0.123110121846867,0.163806256087477,0.690709503094403,0.690036934070017,0.04,0.0390320120456406,329.50211415531,0.658516055875819,0.367660110501933
2534,-0.393594958783358,0.0154130241793102,0.148785905194989,-0.191286461657115,0.0525973223109011,0.265745806556896,0.0973141974196154,0.139208763234886,0.686270588468225,0.685711518229682,0.04,0.0387163600832849,327.384501451437,0.65472486419174,0.367412525566612
2594,-0.412067298619135,0.0231927726142989,0.172148731024074,-0.177948338500971,0.0162118513755817,0.316886595259413,0.0715182729923639,0.114611270382296,0.681857086321933,0.681386102389347,0.04,0.0385056902989516,325.279026187493,0.651515067437516,0.366848099416971
2654,-0.430539638454911,0.0309725210492876,0.195511556853159,-0.164610215344826,-0.0201736195597379,0.36802738396193,0.0457223485651124,0.090013777529706,0.677468764445896,0.677060686549012,0.04,0.0383944939909865,323.185548675199,0.64873342054708,0.366049937757019
2714,-0.44470176566234,0.0369369948494456,0.213423056655457,-0.154384320925115,-0.0480691472768161,0.407235321967193,0.0259454731708863,0.0711556996760535,0.673106473920355,0.672735270708677,0.04,0.0382282519789713,321.107406927601,0.646270908609116,0.365081976296197
2774,-0.44470176566234,0.0369369948494456,0.213423056655457,-0.154384320925115,-0.048069147276816,0.407235321967193,0.0259454731708863,0.0711556996760535,0.668339054526903,0.668409854868342,0.04,0.0380590145422515,318.852768974237,0.646203259591843,0.362556524274904
2834,-0.44470176566234,0.0369369948494456,0.213423056655457,-0.154384320925115,-0.0480691472768161,0.407235321967193,0.0259454731708862,0.0711556996760535,0.664083397959486,0.664084439028007,0.04,0.0381720414780526,316.823850971293,0.646345157432102,0.360170422604506
2894,-0.44470176566234,0.0369369948494456,0.213423056655457,-0.154384320925115,-0.0480691472768161,0.407235321967193,0.0259454731708863,0.0711556996760535,0.659848447085527,0.659759023187672,0.04,0.0386407624148325,314.78015143704,0.645772864885921,0.358164241172053
2954,-0.44470176566234,0.0369369948494456,0.213423056655457,-0.154384320925115,-0.0480691472768161,0.407235321967193,0.0259454731708862,0.0711556996760535,0.65564686603291,0.655433607347338,0.04,0.0392000068291977,312.775761550529,0.644541182270337,0.356563673246161
3014,-0.44470176566234,0.0369369948494456,0.213423056655457,-0.154384320925115,-0.0480691472768161,0.407235321967193,0.0259454731708862,0.0711556996760535,0.651449140440035,0.651108191507002,0.04,0.0397781886990632,310.772964449789,0.642537012623234,0.355385543167121
3074,-0.44470176566234,0.0369369948494456,0.213423056655457,-0.154384320925115,-0.0480691472768161,0.407235321967193,0.0259454731708862,0.0711556996760535,0.647238455225414,0.646782775666668,0.04,0.0402977618359746,308.763834419524,0.639817528317207,0.354588762640782
3134,-0.44470176566234,0.0369369948494456,0.213423056655457,-0.154384320925115,-0.0480691472768161,0.407235321967193,0.0259454731708862,0.0711556996760535,0.64300417828998,0.642457359826333,0.04,0.040713533895618,306.743530657736,0.63649631869588,0.354106739226915
3194,-0.44470176566234,0.0369369948494456,0.213423056655457,-0.154384320925115,-0.0480691472768161,0.407235321967193,0.0259454731708863,0.0711556996760535,0.638746047204922,0.638131943985998,0.04,0.0410078041655119,304.711780566863,0.632721006391996,0.353860158680613
3254,-0.44470176566234,0.0369369948494456,0.213423056655457,-0.154384320925115,-0.0480691472768161,0.407235321967193,0.0259454731708863,0.0711556996760535,0.634463974668676,0.633806528145663,0.04,0.0411832020539178,302.668622592474,0.628637506553784,0.353770640392106
3314,-0.44470176566234,0.0369369948494456,0.213423056655457,-0.154384320925115,-0.0480691472768161,0.407235321967193,0.0259454731708862,0.0711556996760535,0.630160893870037,0.629481112305328,0.04,0.0412549152972271,300.615472298881,0.624378816752703,0.353767428963913
3374,-0.44470176566234,0.0369369948494456,0.213423056655457,-0.154384320925115,-0.0480691472768161,0.407235321967193,0.0259454731708863,0.0711556996760535,0.62584104038229,0.625155696464993,0.04,0.0412452026006121,298.554355217445,0.620054654884465,0.353792086887029
3434,-0.44470176566234,0.0369369948494456,0.213423056655457,-0.154384320925115,-0.0480691472768161,0.407235321967193,0.0259454731708862,0.0711556996760535,0.621509061640983,0.620830280624658,0.04,0.0411787734155034,296.487489815433,0.615747337446302,0.353800552589205
3494,-0.44470176566234,0.0369369948494456,0.213423056655457,-0.154384320925115,-0.0480691472768161,0.407235321967193,0.0259454731708862,0.0711556996760535,0.617169408025262,0.616504864784323,0.04,0.0410793317203154,294.416997267002,0.611511819342119,0.353763237555127
3554,-0.44470176566234,0.0369369948494456,0.213423056655457,-0.154384320925115,-0.0480691472768161,0.407235321967193,0.0259454731708863,0.0711556996760535,0.612825947179316,0.612179448943988,0.04,0.0409672709387973,292.344714892837,0.607378507836604,0.353663713634753
3614,-0.442504532367345,0.0325959136316043,0.214463738228204,-0.157007695211293,-0.0463459088790181,0.408056825202505,0.0178831441755129,0.0675182148347276,0.60923761193621,0.608863296799732,0.04,0.0398870222387496,290.672199176371,0.604095336572768,0.353551504431334
3674,-0.433087818245941,0.013991279840856,0.218923802111404,-0.168250727866341,-0.0389606014598842,0.411577553353845,-0.016669694376087,0.0519289940861881,0.609201834550702,0.608863296799732,0.04,0.0367456643995095,290.650034974354,0.601893808646423,0.354817621122503
3734,-0.423671104124536,-0.00461335394989226,0.223383865994604,-0.17949376052139,-0.0315752940407501,0.415098281505185,-0.0512225329276869,0.0363397733376485,0.609177884374296,0.608863296799732,0.04,0.0342191214308331,290.638444424698,0.599944629656286,0.355956203862567
3794,-0.414254390003131,-0.0232179877406404,0.227843929877804,-0.190736793176438,-0.0241899866216161,0.418619009656524,-0.0857753714792868,0.020750552589109,0.609123063413938,0.608863296799732,0.04,0.0323188102357036,290.612097187388,0.598261326536474,0.356925383814332
3854,-0.404837675881726,-0.0418226215313887,0.232303993761004,-0.201979825831486,-0.016804679202482,0.422139737807864,-0.120328210030887,0.00516133184056937,0.609056726303554,0.608863296799732,0.04,0.0309406153322831,290.580451327535,0.596964998853956,0.357661506792196
3914,-0.395420961760322,-0.0604272553221371,0.236764057644204,-0.213222858486534,-0.00941937178334808,0.425660465959204,-0.154881048582487,-0.0104278889079702,0.608998903560943,0.608863296799732,0.04,0.0299981509167034,290.552984208433,0.596040408603819,0.35818245834337
3974,-0.386004247638917,-0.0790318891128853,0.241224121527404,-0.224465891141582,-0.00203406436421403,0.429181194110543,-0.189433887134087,-0.0260171096565097,0.608959685407082,0.608863296799732,0.04,0.0294106541206542,290.534440612473,0.595392213974362,0.358549521533733
4034,-0.376587533517513,-0.0976365229036336,0.245684185410604,-0.23570892379663,0.00535124305492002,0.432701922261883,-0.223986725685687,-0.0416063304050492,0.608941847837375,0.608863296799732,0.04,0.0290988031514104,290.526097216114,0.594894876760395,0.358838966784436
4094,-0.367170819396108,-0.116241156694382,0.250144249293804,-0.246951956451679,0.0127365504740541,0.436222650413223,-0.258539564237286,-0.0571955511535888,0.608943503155989,0.608863296799732,0.04,0.0289871544164003,290.527026197621,0.594425817501889,0.35912327363581
4154,-0.357754105274703,-0.13484579048513,0.254604313177004,-0.258194989106727,0.0201218578931881,0.439743378564562,-0.293092402788886,-0.0727847719021284,0.608960217580624,0.608863296799732,0.04,0.0290081899082085,290.535099060167,0.593884769835027,0.359460434245455
4214,-0.348337391153299,-0.153450424275878,0.259064377060204,-0.269438021761775,0.0275071653123222,0.443264106715902,-0.327645241340486,-0.0883739926506679,0.608986625489454,0.608863296799732,0.04,0.029105525433079,290.54775354405,0.593202430285629,0.359889583322827
4274,-0.338920677031894,-0.172055058066627,0.263524440943404,-0.280681054416823,0.0348924727314561,0.446784834867242,-0.362198079892086,-0.103963213399208,0.609017553668587,0.608863296799732,0.04,0.0292354758156314,290.562526826877,0.592341374577055,0.360431061666989
4334,-0.329503962910489,-0.190659691857375,0.267984504826604,-0.291924087071871,0.0422777801505902,0.450305563018581,-0.396750918443686,-0.119552434147747,0.609048698007639,0.608863296799732,0.04,0.029367023392759,290.577373026834,0.591292025440882,0.361089157211488
4394,-0.320087248789085,-0.209264325648123,0.272444568709803,-0.30316711972692,0.0496630875697241,0.453826291169921,-0.431303756995286,-0.135141654896287,0.609076933737,0.608863296799732,0.04,0.0294806022290296,290.590812077389,0.590066048448653,0.361856125054117
4454,-0.31067053466768,-0.227868959438871,0.276904632593004,-0.314410152381968,0.0570483949888582,0.45734701932126,-0.465856595546886,-0.150730875644826,0.609100357017447,0.608863296799732,0.04,0.0295661515320057,290.601944122172,0.588689003368443,0.362716463446373
4514,-0.30345105384127,-0.242132512011778,0.280324014903457,-0.323029810750838,0.0627104640101944,0.460046244237287,-0.492347105103113,-0.16268261155204,0.608741439207914,0.608863296799732,0.04,0.0302134270909062,290.404139394962,0.587684966784237,0.363088837321678
4574,-0.30345105384127,-0.242132512011778,0.280324014903457,-0.323029810750838,0.0627104640101943,0.460046244237287,-0.492347105103113,-0.16268261155204,0.608036597311068,0.608863296799732,0.04,0.0315821707464603,290.093147173379,0.592130247549043,0.35997712110367
4634,-0.30345105384127,-0.242132512011778,0.280324014903457,-0.323029810750838,0.0627104640101943,0.460046244237287,-0.492347105103113,-0.16268261155204,0.60801779196451,0.608863296799732,0.04,0.0331042825292899,290.085789672199,0.597262766979691,0.356874641286039
4694,-0.30345105384127,-0.242132512011778,0.280324014903457,-0.323029810750838,0.0627104640101943,0.460046244237287,-0.492347105103113,-0.16268261155204,0.608123599975479,0.608863296799732,0.04,0.0347512683714742,290.136886703053,0.601956579683539,0.354154249262728
4754,-0.30345105384127,-0.242132512011778,0.280324014903457,-0.323029810750838,0.0627104640101943,0.460046244237287,-0.492347105103113,-0.16268261155204,0.608283454069208,0.608863296799732,0.04,0.0363322222870061,290.21341522877,0.605779840402319,0.352011898764931
4814,-0.30345105384127,-0.242132512011778,0.280324014903457,-0.323029810750838,0.0627104640101943,0.460046244237287,-0.492347105103113,-0.16268261155204,0.608459721975719,0.608863296799732,0.04,0.0377222459084336,290.29752244781,0.608563248386264,0.350503439608629
4874,-0.30345105384127,-0.242132512011778,0.280324014903457,-0.323029810750838,0.0627104640101943,0.460046244237288,-0.492347105103113,-0.16268261155204,0.60862592922661,0.608863296799732,0.04,0.038856156013528,290.37666111328,0.610318211793013,0.349590847544434
4934,-0.30345105384127,-0.242132512011778,0.280324014903457,-0.323029810750838,0.0627104640101943,0.460046244237287,-0.492347105103113,-0.16268261155204,0.608765932890487,0.608863296799732,0.04,0.0397129526423207,290.443209286059,0.611173775959033,0.349181472267232
4994,-0.30345105384127,-0.242132512011778,0.280324014903457,-0.323029810750838,0.0627104640101943,0.460046244237287,-0.492347105103113,-0.16268261155204,0.608872426084865,0.608863296799732,0.04,0.0403032296024963,290.493741588399,0.611319806655529,0.349158797858627
5054,-0.30345105384127,-0.242132512011778,0.280324014903457,-0.323029810750838,0.0627104640101943,0.460046244237287,-0.492347105103113,-0.16268261155204,0.608944666209511,0.608863296799732,0.04,0.0406585095647535,290.527943270004,0.610963075017172,0.349403798832284
5114,-0.30345105384127,-0.242132512011778,0.280324014903457,-0.323029810750838,0.0627104640101943,0.460046244237288,-0.492347105103113,-0.16268261155204,0.608985970137346,0.608863296799732,0.04,0.0408220935083898,290.547424247313,0.610297516983734,0.349808294416006
5174,-0.30345105384127,-0.242132512011778,0.280324014903457,-0.323029810750838,0.0627104640101943,0.460046244237287,-0.492347105103113,-0.16268261155204,0.609001947285075,0.608863296799732,0.04,0.0408415410327959,290.554871062128,0.609487287172361,0.350282294205137
5234,-0.30345105384127,-0.242132512011778,0.280324014903457,-0.323029810750838,0.0627104640101944,0.460046244237288,-0.492347105103113,-0.16268261155204,0.60899901506663,0.608863296799732,0.04,0.0407630030288059,290.553347774859,0.608659129731216,0.350757058486396
5294,-0.30345105384127,-0.242132512011778,0.280324014903457,-0.323029810750838,0.0627104640101943,0.460046244237287,-0.492347105103113,-0.16268261155204,0.608983454634085,0.608863296799732,0.04,0.0406273169820854,290.545847145452,0.607901444679192,0.351185174102084
5354,-0.30345105384127,-0.242132512011778,0.280324014903457,-0.323029810750838,0.0627104640101943,0.460046244237288,-0.492347105103113,-0.16268261155204,0.608960816821383,0.608863296799732,0.04,0.0404677533123562,290.535010127693,0.60726760883279,0.351538611324218
5414,-0.293576167858419,-0.239286436742163,0.280947494057325,-0.322909868938608,0.0664623229908029,0.454701421468362,-0.487877421595562,-0.161563318916272,0.609156777240138,0.608863296799732,0.04,0.0405134332728715,290.613672720815,0.606444057143632,0.352111309762764
5474,-0.251255227931915,-0.227088971300952,0.283619547573904,-0.322395832600478,0.082541718621983,0.431795038172967,-0.468721635134628,-0.156766350477265,0.607436085457569,0.608863296799732,0.04,0.0425498224163827,289.804382155606,0.613400403190887,0.347148719268083
5534,-0.208934288005412,-0.214891505859741,0.286291601090483,-0.321881796262349,0.0986211142531629,0.408888654877571,-0.449565848673695,-0.151969382038258,0.607285158711733,0.608863296799732,0.04,0.0443984126134714,289.735933829446,0.622774234771844,0.341842771144954
5594,-0.166613348078908,-0.20269404041853,0.288963654607062,-0.321367759924219,0.114700509884343,0.385982271582176,-0.430410062212762,-0.147172413599251,0.607392223718388,0.608863296799732,0.04,0.0465497637812443,289.788215704286,0.631895209965357,0.336969298541303
5654,-0.124292408152404,-0.190496574977319,0.291635708123641,-0.32085372358609,0.130779905515523,0.36307588828678,-0.411254275751828,-0.142375445160244,0.607604696478233,0.608863296799732,0.04,0.0487476455499073,289.890121663303,0.639916058466578,0.332862663530666
5714,-0.0819714682259006,-0.178299109536109,0.29430776164022,-0.32033968724796,0.146859301146703,0.340169504991385,-0.392098489290895,-0.137578476721238,0.607858699547818,0.608863296799732,0.04,0.0507872293713766,290.011460233549,0.646473919411038,0.329624001633199
5774,-0.039650528299397,-0.166101644094898,0.296979815156799,-0.319825650909831,0.162938696777883,0.31726312169599,-0.372942702829962,-0.132781508282231,0.608118848325407,0.608863296799732,0.04,0.052550961453615,290.135557075827,0.651472336118088,0.32723492889867
5834,0.00267041162710666,-0.153904178653687,0.299651868673378,-0.319311614571701,0.179018092409063,0.294356738400595,-0.353786916369029,-0.127984539843224,0.608442897678335,0.608863296799732,0.04,0.0540481681040946,290.291127917255,0.654729868935638,0.325781399863502
5894,0.0449913515536102,-0.141706713212476,0.302323922189957,-0.318797578233572,0.195097488040243,0.271450355105199,-0.334631129908095,-0.123187571404217,0.60884989843715,0.608863296799732,0.04,0.0554232752664129,290.48571064498,0.655671170349964,0.325531756634192
5954,0.087312291480114,-0.129509247771265,0.304995975706536,-0.318283541895442,0.211176883671423,0.248543971809804,-0.315475343447162,-0.11839060296521,0.609259860919556,0.608863296799732,0.04,0.0567378246130682,290.680582797145,0.654091627395466,0.326536782002561
6014,0.129633231406617,-0.117311782330055,0.307668029223115,-0.317769505557313,0.227256279302603,0.225637588514409,-0.296319556986229,-0.113593634526203,0.609566186076696,0.608863296799732,0.04,0.0577903708030256,290.82674638468,0.650527085842912,0.328491122384335
6074,0.171954171333121,-0.105114316888844,0.310340082739694,-0.317255469219183,0.243335674933783,0.202731205219013,-0.277163770525296,-0.108796666087197,0.609885135428881,0.608863296799732,0.04,0.0584931821564338,290.97840690216,0.645016791017176,0.331470144626369
6134,0.214275111259625,-0.092916851447633,0.313012136256273,-0.316741432881054,0.259415070564963,0.179824821923618,-0.258007984064362,-0.10399969764819,0.610104741207791,0.608863296799732,0.04,0.0587271740124713,291.082163272593,0.637954539041674,0.3352590718561
6194,0.256596051186129,-0.0807193860064222,0.315684189772853,-0.316227396542924,0.275494466196143,0.156918438628223,-0.238852197603429,-0.0992027292091829,0.610167946425155,0.608863296799732,0.04,0.0583987769501125,291.110868538832,0.630164730792293,0.339436861697051
6254,0.298916991112632,-0.0685219205652113,0.318356243289432,-0.315713360204794,0.291573861827323,0.134012055332827,-0.219696411142496,-0.0944057607701761,0.610045882031389,0.608863296799732,0.04,0.0575403303104179,291.051257958376,0.622731743759061,0.343418077399387
6314,0.331363045056285,-0.0591705303936164,0.320404817652142,-0.315319265678895,0.303901398477894,0.116450494806358,-0.177531773051297,-0.0907280849669375,0.609597534577001,0.610689548684284,0.04,0.0561200254359006,290.866987455497,0.621311182546472,0.34398534378146
6374,0.331363045056285,-0.0591705303936164,0.320404817652142,-0.315319265678895,0.303901398477894,0.116450494806358,-0.135876969790553,-0.0907280849669375,0.615787152099547,0.618516342475223,0.04,0.0497527825381801,293.815492866089,0.636843991979605,0.338997357321696
6434,0.331363045056285,-0.0591705303936164,0.320404817652142,-0.315319265678895,0.303901398477894,0.116450494806358,-0.104171745933301,-0.0907280849669375,0.624036458088472,0.626343136266163,0.04,0.0456676307967458,297.74845769194,0.65239821747402,0.335344687808494
6494,0.331363045056285,-0.0591705303936163,0.320404817652142,-0.315319265678895,0.303901398477894,0.116450494806358,-0.0820046482347909,-0.0820046482347909,0.631907893223385,0.634169930057102,0.04,0.0439623225103855,301.543996576811,0.665913239188811,0.332726746621293
6554,0.331363045056285,-0.0591705303936163,0.320404817652142,-0.315319265678895,0.303901398477894,0.116450494806358,-0.0663646781162606,-0.0663646781162606,0.63993040423248,0.641996723848041,0.04,0.0431950133862867,305.378032644753,0.679121421829667,0.330403804421386
6614,0.331363045056285,-0.0591705303936164,0.320404817652142,-0.315319265678895,0.303901398477894,0.116450494806358,-0.0546687393279568,-0.0546687393279568,0.648100129615747,0.649823517638981,0.04,0.0429515365369682,309.273184391543,0.690463804355669,0.329121327051074
6674,0.331363045056285,-0.0591705303936164,0.320404817652142,-0.315319265678895,0.303901398477894,0.116450494806358,-0.0451035011536605,-0.0451035011536605,0.656157876418453,0.65765031142992,0.04,0.0429181105317433,313.116545518291,0.700223147925842,0.328567217330515
6734,0.331363045056285,-0.0591705303936164,0.320404817652142,-0.315319265678895,0.303901398477894,0.116450494806358,-0.036588794425268,-0.036588794425268,0.664119217844167,0.66547710522086,0.04,0.0428885565857213,316.914310766887,0.709000555487714,0.328435393091442
6794,0.331363045056285,-0.0591705303936163,0.320404817652142,-0.315319265678895,0.303901398477894,0.116450494806358,-0.028628453569924,-0.028628453569924,0.672018820529356,0.673303899011799,0.04,0.042796478824714,320.682968811056,0.717204043098741,0.328539689742552
6854,0.331363045056285,-0.0591705303936163,0.320404817652142,-0.315319265678895,0.303901398477894,0.116450494806358,-0.0210784164722128,-0.0210784164722128,0.679892283712564,0.681130692802738,0.04,0.0426373839226638,324.439178306493,0.725091548228464,0.328772229042646
6914,0.331363045056285,-0.0591705303936164,0.320404817652142,-0.315319265678895,0.303901398477894,0.116450494806358,-0.0139531052441338,-0.0139531052441338,0.687733164406398,0.688957486593678,0.04,0.0424296388309133,328.182121642969,0.732776441601753,0.329077429351377
6974,0.331363045056285,-0.0591705303936164,0.320404817652142,-0.315319265678895,0.303901398477894,0.116450494806358,-0.00740514721627785,-0.00740514721627785,0.695584135424761,0.696784280384617,0.04,0.0422001020942836,331.92553007466,0.740322004003724,0.329438745888473
7034,0.331363045056285,-0.0591705303936164,0.320404817652142,-0.315319265678895,0.303901398477894,0.116450494806358,-0.00349766519783209,-0.00349766519783209,0.703404474056277,0.704611074175556,0.04,0.0419506607816453,335.656188050665,0.747831984131293,0.329795935349765
7094,0.331363045056285,-0.0591705303936164,0.320404817652142,-0.315319265678895,0.303901398477894,0.116450494806358,-0.00165190907559936,-0.00165190907559936,0.711244916737142,0.712437867966496,0.04,0.0416548605448527,339.39782664364,0.755332514387494,0.330160834291895
7154,0.331363045056285,-0.0591705303936164,0.320404817652142,-0.315319265678895,0.303901398477894,0.116450494806358,-0.000780045104388424,-0.000780045104388424,0.719143529223561,0.720264661757435,0.04,0.0414005276482631,343.118714074077,0.762638431319317,0.330582907633686
7214,0.325010797156545,-0.06413306907327,0.318285129785504,-0.305256799581758,0.303996761897889,0.115836073739606,-0.000368227951372076,-0.000368227951372076,0.726900273754668,0.728091455548374,0.04,0.0410661146132173,346.81597244149,0.770190476035658,0.330868652562678
