time,bias_percent_1,bias_percent_2,bias_percent_3,bias_percent_4,bias_percent_5,bias_percent_6,bias_percent_8,bias_percent_9,normalized_power,power_SP,SP,CV,total_power_MW,fuel_fraction,thermal_efficiency
32,0,0,0,0,0,0,0,0,0.999620875550017,1,0.04,0.0399816325672792,476.926414708071,0.999656501683247,0.350554267144667
92,0.0106224068920394,0.0141186224355195,-0.0177977605154138,-0.0136539382723521,0.00773698449143421,-0.00481214633684829,-0.0110909041346526,-0.00289936818085152,0.994704182446726,0.989294241470813,0.04,0.0422250740969866,474.453594362188,0.983716771355352,0.354387456481645
152,0.0305394198146134,0.0405910395021189,-0.0511685614818144,-0.0392550725330121,0.0222438304128734,-0.0138349207184386,-0.0318863493871264,-0.00833568351994836,0.97650065182788,0.969220944228588,0.04,0.047058151188918,465.730190569196,0.940564174628823,0.363831783315452
212,0.0504564327371874,0.067063456568718,-0.0845393624482151,-0.0648562067936723,0.0367506763343124,-0.0228576951000291,-0.0526817946396,-0.013771998859045,0.956172238934352,0.949147646986363,0.04,0.0493864409599873,456.026315664617,0.89657865348135,0.373728473223095
272,0.0703734456597614,0.0935358736353172,-0.117910163414616,-0.0904573410543325,0.0512575222557515,-0.0318804694816195,-0.0734772398920737,-0.0192083141981419,0.935679417866877,0.929074349744138,0.04,0.049658663762158,446.25062646982,0.855237530593252,0.383395282001472
332,0.0902904585823353,0.120008290701916,-0.151280964381016,-0.116058475314993,0.0657643681771907,-0.04090324386321,-0.0942726851445474,-0.0246446295372386,0.915310163253761,0.909001052501913,0.04,0.048880650165761,436.535400268096,0.815814781294853,0.393171993485949
392,0.110207471504909,0.146480707768516,-0.184651765347417,-0.141659609575653,0.0802712140986298,-0.0499260182448004,-0.115068130397021,-0.0300809448763354,0.894636900523159,0.888927755259687,0.04,0.0474916028032168,426.797959479656,0.778568279525757,0.402791507240148
452,0.130124484427483,0.172953124835115,-0.218022566313818,-0.167260743836313,0.0947780600200688,-0.0589487926263909,-0.135863575649495,-0.0355172602154321,0.87444909035047,0.868854458017462,0.04,0.0457429675194727,417.039242698422,0.743055692203473,0.41239200218603
512,0.150041497350057,0.199425541901714,-0.251393367280219,-0.192861878096973,0.109284905941508,-0.0679715670079812,-0.156659020901969,-0.0409535755545289,0.854134597457292,0.848781160775237,0.04,0.0437289944243083,407.342040425984,0.710233463008169,0.421417707600985
572,0.169958510272631,0.225897958968313,-0.284764168246619,-0.218463012357633,0.123791751862947,-0.0769943413895717,-0.177454466154442,-0.0463898908936255,0.833518378914995,0.828707863533012,0.04,0.0416437321071601,397.608799578554,0.680378077588827,0.429398330725373
