time,bias_percent_1,bias_percent_2,bias_percent_3,bias_percent_4,bias_percent_5,bias_percent_6,bias_percent_8,bias_percent_9,normalized_power,power_SP,SP,CV,total_power_MW,fuel_fraction,thermal_efficiency
46,0,0,0,0,0,0,0,0,0.999775804150098,1,0.04,0.0399247955718888,476.996872223246,0.999916539631285,0.350514876901891
106,0.0163853187049037,0.00754377444832517,0.0119569977804668,0.004143409245763,0.0187184651734852,-0.0107267381839316,0.0206833576713461,0.0269782255694502,0.98657237787893,0.981555320301719,0.04,0.046475936841509,470.518347071655,0.978519707161964,0.353314663579088
166,0.0377574735373868,0.0173834802504883,0.0275530818419453,0.00954785608806253,0.0431338545302049,-0.0247181358151468,0.0476616502861454,0.062167215442646,0.963156305836237,0.957497042434397,0.04,0.054337317264062,459.330078983231,0.943694431944724,0.357641715646084
226,0.0591296283698699,0.0272231860526515,0.0431491659034236,0.0149523029303621,0.0675492438869246,-0.0387095334463618,0.0746399429009447,0.0973562053158417,0.938906253747121,0.933438764567074,0.04,0.0599646429091301,447.758864168899,0.909223141835432,0.361849842151084
286,0.0805017832023528,0.0370628918548147,0.0587452499649021,0.0203567497726615,0.0919646332436444,-0.052700931077577,0.101618235515744,0.132545195189038,0.914607022015526,0.909380486699751,0.04,0.0639259512242728,436.165919336215,0.876181558308966,0.365773549209655
346,0.101873938034836,0.0469025976569779,0.0743413340263805,0.0257611966149611,0.116380022600364,-0.0666923287087922,0.128596528130543,0.167734185062234,0.890449682546184,0.885322208832429,0.04,0.0668219917046925,424.642447243657,0.844160770108892,0.369617831381076
406,0.123246092867319,0.056742303459141,0.089937418087859,0.0311656434572606,0.140795411957084,-0.0806837263400073,0.155574820745343,0.202923174935429,0.866438547570883,0.861263930965106,0.04,0.0691566126349263,413.186899199774,0.812015594798508,0.373883973297052
466,0.144618247699802,0.0665820092613042,0.105533502149337,0.0365700902995602,0.165210801313804,-0.0946751239712224,0.182553113360142,0.238112164808625,0.842408902572898,0.837205653097784,0.04,0.0710134506146729,401.722042679152,0.779631952271392,0.378608804115168
526,0.165990402532285,0.0764217150634674,0.121129586210816,0.0419745371418597,0.189626190670523,-0.108666521602438,0.209531405974941,0.273301154681821,0.818285481530194,0.813147375230461,0.04,0.0724274109613337,390.204479089186,0.747325681541717,0.383651605255842
586,0.187362557364768,0.0862614208656305,0.136725670272294,0.0473789839841592,0.214041580027243,-0.122657919233653,0.23650969858974,0.308490144555017,0.792539055344114,0.789089097363138,0.04,0.0744763702109068,377.915059559784,0.721570015765195,0.384831307748961
646,0.208734712197251,0.0961011266677938,0.152321754333773,0.0527834308264588,0.238456969383963,-0.136649316864868,0.26348799120454,0.343679134428213,0.767148172866744,0.765030819495816,0.04,0.0769081497408174,365.808119558783,0.705385406218031,0.381049632366275
706,0.230106867029734,0.105940832469957,0.167917838395251,0.0581878776687582,0.262872358740683,-0.150640714496083,0.290466283819339,0.378868124301408,0.742554849975904,0.740972541628493,0.04,0.0801774380567381,354.079620809757,0.693906024864952,0.374934107322689
766,0.251479021862218,0.11578053827212,0.18351392245673,0.0635923245110579,0.287287748097402,-0.164632112127298,0.317444576434138,0.414057114174604,0.718404999207877,0.716914263761171,0.04,0.0843212553258389,342.559932805807,0.683709339668339,0.368145696863298
826,0.272851176694701,0.125620244074283,0.199110006518208,0.0689967713533573,0.311703137454122,-0.178623509758513,0.344422869048938,0.4492461040478,0.694422816820759,0.692855985893848,0.04,0.0890458913327383,331.118660262528,0.673300477464158,0.361351124072571
886,0.294223331527184,0.135459949876446,0.214706090579686,0.0744012181956567,0.336118526810842,-0.192614907389729,0.371401161663737,0.484435093920996,0.670472529942172,0.668797708026525,0.04,0.0940455322071707,319.691966622696,0.66226883923195,0.354692559490071
946,0.299210167654763,0.137755881230285,0.218345176860698,0.0756622557921934,0.341815450994076,-0.195879566837012,0.37769609660719,0.492645858224742,0.657827390168882,0.663184109857483,0.04,0.0900560437519568,313.828886675189,0.680186944459122,0.339015301519388
1006,0.299210167654763,0.137755881230285,0.218345176860698,0.0756622557921935,0.341815450994076,-0.195879566837012,0.37769609660719,0.492645858224742,0.65800752110554,0.663184109857483,0.04,0.0833416975754388,313.948571597551,0.713677743701526,0.32322953272926
1066,0.299210167654763,0.137755881230285,0.218345176860698,0.0756622557921934,0.341815450994076,-0.195879566837012,0.37769609660719,0.492645858224742,0.659765769254066,0.663184109857483,0.04,0.0806840880767931,314.78704338656,0.737747566994456,0.313518908777193
1126,0.299210167654763,0.137755881230285,0.218345176860698,0.0756622557921934,0.341815450994077,-0.195879566837012,0.37769609660719,0.492645858224742,0.661079111102239,0.663184109857483,0.04,0.0803135812039104,315.408930357022,0.75276962595747,0.307869435063639
1186,0.299210167654763,0.137755881230285,0.218345176860698,0.0756622557921934,0.341815450994076,-0.195879566837012,0.37769609660719,0.492645858224742,0.661870073876648,0.663184109857483,0.04,0.0806702393814052,315.782932904626,0.762063102242146,0.304475530581029
1246,0.299210167654763,0.137755881230285,0.218345176860698,0.0756622557921934,0.341815450994076,-0.195879566837012,0.37769609660719,0.492645858224742,0.662333446733032,0.663184109857483,0.04,0.0811124123220762,316.002096001856,0.76799686760225,0.302332747520341
1306,0.299210167654763,0.137755881230285,0.218345176860698,0.0756622557921935,0.341815450994077,-0.195879566837012,0.37769609660719,0.492645858224742,0.662615583074919,0.663184109857483,0.04,0.0814641861370321,316.135657458654,0.771920782373517,0.300923030007382
1366,0.299210167654763,0.137755881230285,0.218345176860698,0.0756622557921935,0.341815450994077,-0.195879566837012,0.37769609660719,0.492645858224742,0.662796923592085,0.663184109857483,0.04,0.0817116615939183,316.221574527317,0.774577952698821,0.299972223204102
1426,0.299210167654763,0.137755881230285,0.218345176860698,0.0756622557921935,0.341815450994077,-0.195879566837012,0.37769609660719,0.492645858224742,0.662918306107949,0.663184109857483,0.04,0.0818794613154735,316.279112804852,0.776398159030726,0.299323414836048
1486,0.299210167654763,0.137755881230285,0.218345176860698,0.0756622557921934,0.341815450994076,-0.195879566837012,0.37769609660719,0.492645858224742,0.663001245081886,0.663184109857483,0.04,0.0819926752362615,316.318435968118,0.777649837645767,0.298878789243624
1546,0.299210167654763,0.137755881230285,0.218345176860698,0.0756622557921934,0.341815450994076,-0.195879566837012,0.37769609660719,0.492645858224742,0.663058299769517,0.663184109857483,0.04,0.0820694212433811,316.345487895167,0.778511038646316,0.298573697078069
1606,0.299210167654763,0.137755881230285,0.218345176860698,0.0756622557921935,0.341815450994077,-0.195879566837012,0.37769609660719,0.492645858224742,0.663097561616948,0.663184109857483,0.04,0.0821217053409769,316.364103172752,0.77910348341567,0.298364212229924
1666,0.299210167654763,0.137755881230285,0.218345176860698,0.0756622557921935,0.341815450994077,-0.195879566837012,0.37769609660719,0.492645858224742,0.663124539425944,0.663184109857483,0.04,0.0821574116328364,316.376893885874,0.779511151554936,0.29822023060738
1726,0.299210167654763,0.137755881230285,0.218345176860698,0.0756622557921935,0.341815450994077,-0.195879566837012,0.37769609660719,0.492645858224742,0.663143051379897,0.663184109857483,0.04,0.0821817963649162,316.385670611417,0.779791970661509,0.298121105432216
1786,0.299210167654763,0.137755881230285,0.218345176860698,0.0756622557921934,0.341815450994076,-0.195879566837012,0.37769609660719,0.492645858224742,0.663155744431322,0.663184109857483,0.04,0.0821984198070976,316.391688473316,0.779985794008121,0.29805269258011
1846,0.273027591432613,0.143601390012474,0.194523376220175,0.0828608329926925,0.334950043922054,-0.203394293221065,0.348912713515749,0.482599768063407,0.663611532246097,0.66164960910593,0.04,0.080965678991407,316.604780001387,0.773079420678387,0.300917906095156
1906,0.238876405055896,0.151225966684894,0.163451462341232,0.0922502815150827,0.325995165132459,-0.213196110243744,0.311369170353,0.469496172200796,0.662245007663122,0.659648086386513,0.04,0.0797795851019799,315.942013555337,0.758030249940524,0.306249593570692
1966,0.204725218679178,0.158850543357315,0.132379548462288,0.101639730037473,0.317040286342865,-0.222997927266422,0.273825627190251,0.456392576338185,0.660197410649187,0.657646563667095,0.04,0.0778301323397772,314.963369540084,0.742426080364164,0.311717729775888
2026,0.170574032302461,0.166475120029735,0.101307634583345,0.111029178559863,0.30808540755327,-0.2327997442891,0.236282084027502,0.443288980475575,0.658095684434804,0.655645040947678,0.04,0.0751160819633346,313.960929504771,0.727436654894199,0.317128374479729
2086,0.136422845925743,0.174099696702155,0.0702357207044018,0.120418627082253,0.299130528763675,-0.242601561311779,0.198738540864753,0.430185384612964,0.656040506843712,0.65364351822826,0.04,0.0718515620765413,312.980727894394,0.712865261411532,0.322600340076046
2146,0.102271659549025,0.181724273374576,0.0391638068254586,0.129808075604644,0.290175649974081,-0.252403378334457,0.161194997702004,0.417081788750353,0.653987618377212,0.651641995508843,0.04,0.0681613129727956,312.013115147296,0.698529878374841,0.328202994176631
2206,0.0681204731723079,0.189348850046996,0.00809189294651537,0.139197524127034,0.281220771184486,-0.262205195357135,0.123651454539255,0.403978192887742,0.651991946573407,0.649640472789425,0.04,0.0640913280945483,311.049802960179,0.684293483338853,0.333996720647074
2266,0.0339692867955904,0.196973426719417,-0.0229800209324279,0.148586972649424,0.272265892394892,-0.272007012379814,0.0861079113765056,0.390874597025132,0.649957529328212,0.647638950070008,0.04,0.059672850902068,310.07809233465,0.670242740514733,0.339933245743665
2326,-0.000181899581127141,0.204598003391837,-0.0540519348113712,0.157976421171814,0.263311013605297,-0.281808829402492,0.0485643682137565,0.377771001162521,0.647925759171058,0.64563742735059,0.04,0.0549013874023036,309.108713174918,0.65640190522191,0.346015927651009
