time,bias_percent_1,bias_percent_2,bias_percent_3,bias_percent_4,bias_percent_5,bias_percent_6,bias_percent_8,bias_percent_9,normalized_power,power_SP,SP,CV,total_power_MW,fuel_fraction,thermal_efficiency
15,0,0,0,0,0,0,0,0,0.999470485079707,1,0.04,0.0402002798448959,476.783786971899,0.998904838424164,0.350713140531217
75,-0.00644797920026178,0.0028283214158696,0.00286400403017069,0.00531218738487428,0.00679073689005895,-0.00553122347756164,-0.00643386635185817,0.000120705952104345,0.99960000300547,0.998965231622178,0.04,0.0401163599144044,476.893551975639,0.998844069747165,0.350815223542849
135,-0.0322398960013095,0.0141416070793476,0.0143200201508528,0.026560936924371,0.0339536844502943,-0.0276561173878084,-0.0321693317592908,0.000603529760522008,0.996306793402815,0.99482615811089,0.04,0.0412696652768622,475.30634635021,0.990552984942384,0.352574239934356
195,-0.058031812802357,0.0254548927428257,0.0257760362715352,0.0478096864638679,0.0611166320105299,-0.0497810112980551,-0.0579047971667234,0.00108635356893961,0.992164560129903,0.990687084599603,0.04,0.0419248057623239,473.328058362618,0.981353198720084,0.354398262173064
255,-0.0838237296034045,0.0367681784063038,0.0372320523922175,0.0690584360033648,0.0882795795707653,-0.0719059052083016,-0.083640262574156,0.00156917737735722,0.987908416890451,0.986548011088315,0.04,0.0420810954113565,471.297152846189,0.972725655340018,0.356007479246596
315,-0.109615646404452,0.048081464069782,0.0486880685128998,0.0903071855428616,0.115442527131001,-0.0940307991185484,-0.109375727981589,0.00205200118577488,0.983635198555297,0.982408937577028,0.04,0.0419454608201224,469.258367287808,0.964884118970708,0.357348154111746
375,-0.1354075632055,0.05939474973326,0.0601440846335822,0.111555935082358,0.142605474691236,-0.116155693028795,-0.135111193389021,0.00253482499419249,0.979363777863996,0.97826986406574,0.04,0.0416667870616005,467.220525962758,0.957845720913362,0.358410749706041
435,-0.161199480006547,0.0707080353967382,0.0716001007542645,0.132804684621855,0.169768422251472,-0.138280586939042,-0.160846658796454,0.0030176488026101,0.975102387893898,0.974130790554453,0.04,0.0413377003455027,465.187518542483,0.951564894401854,0.359206608892791
495,-0.186991396807595,0.0820213210602163,0.0830561168749468,0.154053434161352,0.196931369811707,-0.160405480849288,-0.186582124203887,0.0035004726110277,0.970855701908846,0.969991717043165,0.04,0.0410132730368651,463.161552770462,0.945961477728263,0.359760705723199
555,-0.212783313608642,0.0933346067236944,0.0945121329956291,0.175302183700849,0.224094317371943,-0.182530374759535,-0.212317589611319,0.00398329641944531,0.966625591884078,0.965852643531877,0.04,0.0407237093811141,461.14350094506,0.940938582641659,0.360105282102872
615,-0.23857523040969,0.104647892387173,0.105968149116311,0.196550933240346,0.251257264932178,-0.204655268669782,-0.238053055018752,0.00446612022786297,0.962411741929926,0.96171357002059,0.04,0.0404825513776021,459.133197073023,0.936397094446897,0.360274325582483
675,-0.264367147210737,0.115961178050651,0.117424165236994,0.217799682779843,0.278420212492414,-0.226780162580028,-0.263788520426185,0.00494894403628052,0.958212423817412,0.957574496509302,0.04,0.0402924709771003,457.129807618621,0.932245768321369,0.360299613657081
735,-0.290159064011785,0.127274463714129,0.128880181357676,0.23904843231934,0.305583160052649,-0.248905056490275,-0.289523985833617,0.00543176784469819,0.954025217574517,0.953435422998015,0.04,0.0401496053663745,455.13217770274,0.928406783747608,0.360208462995056
795,-0.315950980812832,0.138587749377607,0.140336197478358,0.260297181858836,0.332746107612885,-0.271029950400522,-0.31525945124105,0.00591459165311579,0.949847565680935,0.949296349486727,0.04,0.0400467762212667,453.13908621364,0.924817602531832,0.360022889777988
855,-0.34174289761388,0.149901035041085,0.151792213599041,0.281545931398333,0.35990905517312,-0.293154844310768,-0.340994916648482,0.0063974154615334,0.94567874834857,0.94515727597544,0.04,0.0399755658351037,451.150104167643,0.921432952496754,0.359759274480207
915,-0.361086835214665,0.158385999288693,0.160384225689552,0.297482493552956,0.380281265843297,-0.309748514743453,-0.360296515704057,0.0067595333178466,0.94176834802217,0.942052970841974,0.04,0.0396391940637921,449.295305211168,0.91964149513872,0.358978135890579
975,-0.361086835214665,0.158385999288694,0.160384225689553,0.297482493552956,0.380281265843297,-0.309748514743453,-0.360296515704057,0.0067595333178466,0.940811396726778,0.942052970841974,0.04,0.0382220249554191,448.860410336398,0.926325108734143,0.356043074290963
1035,-0.361086835214665,0.158385999288694,0.160384225689552,0.297482493552956,0.380281265843297,-0.309748514743453,-0.360296515704057,0.0067595333178466,0.940915232204178,0.942052970841974,0.04,0.0375615133718488,448.912211748402,0.93349815157812,0.353347996841998
1095,-0.361086835214665,0.158385999288693,0.160384225689552,0.297482493552956,0.380281265843297,-0.309748514743453,-0.360296515704057,0.0067595333178466,0.941120467782107,0.942052970841974,0.04,0.0375543518684389,449.010200418366,0.93951740825861,0.351160817980856
1155,-0.361086835214665,0.158385999288694,0.160384225689552,0.297482493552956,0.380281265843297,-0.309748514743453,-0.360296515704057,0.00675953331784666,0.941316832595217,0.942052970841974,0.04,0.0378690715641351,449.103746604471,0.944327943137149,0.349444744737966
1215,-0.361086835214665,0.158385999288694,0.160384225689552,0.297482493552956,0.380281265843297,-0.309748514743453,-0.360296515704057,0.00675953331784666,0.941492926029002,0.942052970841974,0.04,0.038302074278144,449.187581154153,0.948037927652376,0.348142228265358
1275,-0.361086835214665,0.158385999288693,0.160384225689553,0.297482493552956,0.380281265843297,-0.309748514743453,-0.360296515704057,0.0067595333178466,0.941644635507398,0.942052970841974,0.04,0.0387446423669841,449.259755408698,0.950785957973628,0.347191779306057
1335,-0.361086835214665,0.158385999288693,0.160384225689553,0.297482493552956,0.380281265843297,-0.309748514743453,-0.360296515704057,0.0067595333178466,0.941769630943228,0.942052970841974,0.04,0.0391421864758619,449.319175805424,0.952728695962252,0.34652963696793
1395,-0.361086835214665,0.158385999288694,0.160384225689553,0.297482493552956,0.380281265843297,-0.309748514743453,-0.360296515704057,0.0067595333178466,0.941868066834392,0.942052970841974,0.04,0.0394711704976767,449.365934882392,0.954027043711391,0.346094053352129
1455,-0.361086835214665,0.158385999288694,0.160384225689552,0.297482493552956,0.380281265843297,-0.309748514743453,-0.360296515704057,0.0067595333178466,0.941942189117916,0.942052970841974,0.04,0.0397261090579117,449.401118225378,0.954832325427423,0.345829241041663
1515,-0.361086835214665,0.158385999288693,0.160384225689553,0.297482493552956,0.380281265843297,-0.309748514743453,-0.360296515704057,0.0067595333178466,0.941995462494045,0.942052970841974,0.04,0.0399116469714709,449.426384995067,0.955277129726082,0.345687647649465
1575,-0.361086835214665,0.158385999288694,0.160384225689552,0.297482493552956,0.380281265843297,-0.309748514743453,-0.360296515704057,0.0067595333178466,0.942031769082905,0.942052970841974,0.04,0.0400375051035891,449.443588813517,0.955471166675484,0.345630675514753
1635,-0.361086835214665,0.158385999288694,0.160384225689553,0.297482493552956,0.380281265843297,-0.309748514743453,-0.360296515704057,0.0067595333178466,0.94205497035354,0.942052970841974,0.04,0.040115246285421,449.454567235711,0.955501030126298,0.345628315445243
1695,-0.361086835214665,0.158385999288693,0.160384225689553,0.297482493552956,0.380281265843297,-0.309748514743453,-0.360296515704057,0.00675953331784666,0.94206840531917,0.942052970841974,0.04,0.0401563700442186,449.460911750938,0.955431853596033,0.345658219369803
1755,-0.361086835214665,0.158385999288694,0.160384225689552,0.297482493552956,0.380281265843297,-0.309748514743453,-0.360296515704057,0.0067595333178466,0.942074938768945,0.942052970841974,0.04,0.0401711726635901,449.463983921702,0.955310610901017,0.345704451338153
1815,-0.353437738484256,0.154032064289857,0.151785393785606,0.296012274413918,0.376083456479326,-0.30546695614993,-0.360572254504179,0.00728290126541884,0.940652086432356,0.937397274729551,0.04,0.0409429829748855,448.70377809117,0.94902900050462,0.347404083323625
1875,-0.322841351562621,0.136616324294511,0.117390066169818,0.290131397857765,0.359292219023442,-0.288340721775835,-0.361675209704667,0.0093763730557078,0.925408590000892,0.918774490279859,0.04,0.0456615849403946,441.368839529829,0.911438625595793,0.35581882048439
1935,-0.292244964640985,0.119200584299165,0.0829947385540311,0.284250521301612,0.342500981567558,-0.27121448740174,-0.362778164905156,0.0114698448459968,0.90663785210603,0.900151705830167,0.04,0.0482624624506103,432.404749762938,0.870773161705043,0.364871630172376
1995,-0.26164857771935,0.101784844303819,0.0485994109382437,0.278369644745459,0.325709744111675,-0.254088253027645,-0.363881120105645,0.0135633166362857,0.887453973474224,0.881528921380475,0.04,0.0485924947029378,423.251240745798,0.833168283710078,0.373267507648984
2055,-0.231052190797714,0.0843691043084725,0.0142040833224564,0.272488768189306,0.308918506655791,-0.23696201865355,-0.364984075306133,0.0156567884265747,0.868271285564021,0.862906136930782,0.04,0.0475507137742332,414.09970058695,0.799002402369205,0.380812773741674
2115,-0.200455803876079,0.0669533643131265,-0.0201912442933308,0.266607891633153,0.292127269199907,-0.219835784279455,-0.366087030506622,0.0177502602168636,0.848878857785489,0.84428335248109,0.04,0.0457918424905419,404.972956481973,0.76841980244942,0.387241729087497
2175,-0.169859416954443,0.0495376243177803,-0.0545865719091182,0.260727015077,0.275336031744024,-0.20270954990536,-0.350061089143033,0.0198437320071525,0.829410881911489,0.825660568031398,0.04,0.0441208147041095,395.694267754807,0.742183802557078,0.391744549892948
2235,-0.139263030032808,0.0321218843224342,-0.0889818995249054,0.254846138520847,0.25854479428814,-0.185583315531265,-0.337267694325411,0.0219372037974414,0.8108838650662,0.807037783581706,0.04,0.0423570751180947,386.716678127113,0.718577199291086,0.395434125800218
2295,-0.108666643111172,0.0147061443270881,-0.123377227140693,0.248965261964694,0.241753556832256,-0.168457081157171,-0.328435984454212,0.0240306755877305,0.7916454182869,0.788414999132014,0.04,0.040904671903694,377.683662571311,0.697259540725195,0.398004891649353
