time,bias_percent_1,bias_percent_2,bias_percent_3,bias_percent_4,bias_percent_5,bias_percent_6,bias_percent_8,bias_percent_9,normalized_power,power_SP,SP,CV,total_power_MW,fuel_fraction,thermal_efficiency
50,0,0,0,0,0,0,0,0,0.999806403167142,1,0.04,0.039915222174023,477.010919495347,0.999970890340036,0.350506147507397
110,-0.0125442262778299,-0.00871919856519196,-0.000506316836407677,0.00339126712765949,0.0234365532155703,0.0229631380733192,0.0041021892214564,0.0062274058961757,0.98377102430434,0.975998990714081,0.04,0.0467063980825573,469.150040386483,0.965472739720386,0.357047846830937
170,-0.0275972978112258,-0.0191822368434219,-0.00111389704009684,0.00746078768085079,0.0515604170742547,0.0505189037613025,0.00902481628720415,0.0137002929715865,0.955741075071527,0.947197779570978,0.04,0.0538996789848142,455.752882481208,0.912913369125105,0.366821289519037
230,-0.0426503693446218,-0.0296452751216523,-0.00172147724378601,0.0115303082340421,0.0796842809329388,0.0780746694492855,0.0139474433529518,0.0211731800469974,0.926451203567133,0.918396568427875,0.04,0.0579825760625352,441.776031779649,0.862018750689251,0.376565140072919
290,-0.0577034408780177,-0.0401083133998826,-0.00232905744747529,0.0155998287872334,0.107808144791623,0.105630435137269,0.0188700704186996,0.0286460671224082,0.897043390674712,0.889595357284771,0.04,0.0597938423553269,427.745634993492,0.814652484568588,0.385805021794583
350,-0.0727565124114135,-0.0505713516781127,-0.00293663765116435,0.0196693493404248,0.135932008650308,0.133186200825252,0.0237926974844473,0.0361189541978191,0.867659760088352,0.860794146141668,0.04,0.0601618649820008,413.726953954758,0.770840532752829,0.39437007144387
410,-0.0878095839448093,-0.0610343899563428,-0.00354421785485351,0.0237388698936161,0.164055872508992,0.160741966513235,0.028715324550195,0.0435918412732299,0.838312338078082,0.831992934998565,0.04,0.0596479452818749,399.725637415462,0.730385340705884,0.402128294508632
470,-0.102862655478205,-0.0714974282345731,-0.00415179805854279,0.0278083904468074,0.192179736367676,0.188297732201218,0.0336379516159427,0.0510647283486408,0.80901594837756,0.803191723855462,0.04,0.0586513421390254,385.748806608218,0.693014954095035,0.408993740542418
530,-0.117915727011601,-0.0819604665128035,-0.00475937826223196,0.0318779109999987,0.220303600226361,0.215853497889201,0.0385605786816904,0.0585376154240516,0.779779551465097,0.774390512712359,0.04,0.057481050636028,371.800531083278,0.658374667480389,0.414945988171053
590,-0.132968798544997,-0.0924235047910336,-0.00536695846592124,0.03594743155319,0.248427464085045,0.243409263577184,0.0434832057474381,0.0660105024994624,0.750580303896191,0.745589301569256,0.04,0.0563036628137179,357.869796225662,0.626186386583975,0.419929225113128
650,-0.148021870078393,-0.102886543069264,-0.00597453866961041,0.0400169521063814,0.276551327943729,0.270965029265167,0.0484058328131859,0.0734833895748733,0.721416163196365,0.716788090426153,0.04,0.0551774043506774,343.955947620604,0.596256587547431,0.423861830775303
710,-0.163074941611789,-0.113349581347494,-0.00658211887329958,0.0440864726595726,0.304675191802414,0.298520794953151,0.0533284598789336,0.0809562766502841,0.692179847814337,0.687986879283049,0.04,0.0545385045699889,330.002092736991,0.568537869554027,0.426493063832363
770,-0.178128013145185,-0.123812619625724,-0.00718969907698875,0.048155993212764,0.332799055661098,0.326076560641134,0.0582510869446813,0.088429163725695,0.662694983861746,0.659185668139946,0.04,0.0550124418908464,315.939108353758,0.544871468804298,0.426053362267288
830,-0.193181084678581,-0.134275657903954,-0.00779727928067797,0.0522255137659553,0.360922919519782,0.353632326329117,0.063173714010429,0.0959020508011058,0.633593523672317,0.630384456996843,0.04,0.0564696858044911,302.057070324877,0.523704251336044,0.42379671172992
890,-0.208234156211977,-0.144738696182185,-0.00840485948436714,0.0562950343191466,0.389046783378467,0.3811880920171,0.0680963410761767,0.103374937876517,0.604689073337545,0.60158324585374,0.04,0.058821399163946,288.26777116532,0.503480975257381,0.420695340325545
