time,bias_percent_1,bias_percent_2,bias_percent_3,bias_percent_4,bias_percent_5,bias_percent_6,bias_percent_8,bias_percent_9,normalized_power,power_SP,SP,CV,total_power_MW,fuel_fraction,thermal_efficiency
15,0,0,0,0,0,0,0,0,0.999470485079707,1,0.04,0.0402002798448959,476.783786971899,0.998904838424164,0.350713140531217
75,0.0038601524756366,0.00884384571302667,-0.00569435285037434,0.00070094078494617,-0.00469645277058078,-0.00496344279507718,0.0076164058648011,-0.00675060838672829,0.999439701753687,0.998278489860157,0.04,0.0402448914684189,476.80319532991,0.997836325408426,0.351102986372474
135,0.0193007623781828,0.044219228565133,-0.0284717642518718,0.00350470392473051,-0.0234822638529042,-0.0248172139753858,0.0380820293240054,-0.0337530419336413,0.993824079873797,0.991392449300786,0.04,0.0423254201868574,474.100696192594,0.984119667532786,0.353978885959802
195,0.0347413722807291,0.0795946114172395,-0.0512491756533694,0.00630846706451507,-0.0422680749352276,-0.0446709851556943,0.0685476527832097,-0.0607554754805543,0.986939569651808,0.984506408741415,0.04,0.0435947046764793,470.813062116001,0.96899777695934,0.357010014641822
255,0.0501819821832754,0.114969994269346,-0.0740265870548669,0.00911223020429952,-0.061053886017551,-0.0645247563360031,0.0990132762424139,-0.0877579090274672,0.979887820052949,0.977620368182043,0.04,0.0440481923224041,467.448258193068,0.954684134784221,0.359772957869351
315,0.0656225920858217,0.150345377121453,-0.0968039984563643,0.011915993344084,-0.0798396970998743,-0.0843785275163115,0.129478899701618,-0.11476034257438,0.972813424343394,0.970734327622672,0.04,0.0440010565615914,464.073022610386,0.941476611685393,0.362185836911847
375,0.0810632019883679,0.185720759973559,-0.119581409857862,0.0147197564838684,-0.0986255081821977,-0.10423229869662,0.159944523160823,-0.141762776121293,0.965770600284554,0.963848287063301,0.04,0.0436730716205087,460.719496529748,0.929375664491108,0.364250344198621
435,0.0965038118909142,0.221096142825665,-0.142358821259359,0.0175235196236529,-0.117411319264521,-0.124086069876929,0.190410146620027,-0.168765209668206,0.958885961117948,0.95696224650393,0.04,0.0433875841608979,457.429904088844,0.917543406216585,0.366313235342442
495,0.11194442179346,0.256471525677772,-0.165136232660857,0.0203272827634373,-0.136197130346844,-0.143939841057237,0.220875770079231,-0.195767643215119,0.952029749959085,0.950076205944558,0.04,0.043184845579333,454.1588317111,0.905535492643798,0.368516521456947
555,0.127385031696007,0.291846908529878,-0.187913644062354,0.0231310459032218,-0.154982941429168,-0.163793612237546,0.251341393538435,-0.222770076762032,0.945161523703549,0.943190165385187,0.04,0.0430329852104573,450.881838438242,0.893400609433077,0.370826851789297
615,0.142825641598553,0.327222291381985,-0.210691055463852,0.0259348090430062,-0.173768752511491,-0.183647383417854,0.28180701699764,-0.249772510308945,0.938276421593786,0.936304124825816,0.04,0.0428944927799171,447.596851523148,0.881233798910568,0.373207663885007
675,0.158266251501099,0.362597674234091,-0.233468466865349,0.0287385721827908,-0.192554563593815,-0.203501154598163,0.312272640456844,-0.276774943855858,0.93137542627183,0.929418084266444,0.04,0.0427516116151401,444.304276709553,0.869116490787164,0.375627326752739
735,0.173706861403646,0.397973057086198,-0.256245878266847,0.0315423353225752,-0.211340374676138,-0.223354925778472,0.342738263916048,-0.303777377402771,0.92446233690196,0.922532043707073,0.04,0.0425934703488324,441.005977225748,0.857131158371296,0.378052286633138
795,0.189147471306192,0.433348439938304,-0.279023289668344,0.0343460984623596,-0.230126185758461,-0.24320869695878,0.373203887375253,-0.330779810949684,0.917542568795939,0.915646003147702,0.04,0.042418914201432,437.704469359145,0.845341930442525,0.380454956319235
855,0.204588081208738,0.468723822790411,-0.301800701069842,0.037149861602144,-0.248911996840785,-0.263062468139089,0.403669510834457,-0.338119588017516,0.909997638010092,0.908759962588331,0.04,0.0426301162004171,434.100208584506,0.835563568318883,0.381737807565589
915,0.216168538635648,0.495255359929491,-0.318883759620965,0.0392526839569824,-0.263001355152527,-0.27795279652432,0.42651872842886,-0.331312679966993,0.903619157997944,0.903595432168802,0.04,0.0423775605766385,431.100072402651,0.830993654074171,0.381184352598079
