time,bias_percent_1,bias_percent_2,bias_percent_3,bias_percent_4,bias_percent_5,bias_percent_6,bias_percent_8,bias_percent_9,normalized_power,power_SP,SP,CV,total_power_MW,fuel_fraction,thermal_efficiency
28,0,0,0,0,0,0,0,0,0.999587363968722,1,0.04,0.0400104300837633,476.904392089835,0.999530219675005,0.350582367361777
88,-0.00169907869224733,0.0139668424072546,-0.0136710517998156,-0.00349849109303341,-0.0160447935146249,-0.010263265506719,0.00702286788814416,0.00108777525836052,0.992478419315892,0.984382249892271,0.04,0.0431577644429604,473.319745227959,0.977816271067647,0.355673934058015
148,-0.005339961604206,0.0438957904227998,-0.0429661627994204,-0.0109952577209623,-0.0504264939031068,-0.0322559773068311,0.0220718705055959,0.00341872224056158,0.962537956258646,0.950915642518567,0.04,0.0514194531775077,458.963675014086,0.909364765454909,0.370847083405814
208,-0.00898084451616478,0.0738247384383452,-0.0722612737990254,-0.0184920243488913,-0.0848081942915889,-0.0542486891069434,0.0371208731230477,0.00574966922276269,0.928685306395569,0.917449035144863,0.04,0.0559496826684559,442.804137006822,0.839029291222868,0.38778340822061
268,-0.0126217274281234,0.10375368645389,-0.10155638479863,-0.0259887909768203,-0.119189894680071,-0.0762414009070557,0.0521698757404994,0.0080806162049638,0.894574490286413,0.883982427771159,0.04,0.0571157856171611,426.530397882462,0.772538668441081,0.405680784524867
328,-0.0162626103400822,0.133682634469436,-0.130851495798235,-0.033485557604749,-0.153571595068553,-0.0982341127071677,0.0672188783579512,0.0104115631871649,0.860431195726891,0.850515820397455,0.04,0.0560798389332912,410.239776886795,0.709930851175241,0.424596484496935
388,-0.0199034932520408,0.163611582484981,-0.16014660679784,-0.0409823242326779,-0.187953295457035,-0.12022682450728,0.0822678809754029,0.012742510169366,0.82618279214599,0.817049213023751,0.04,0.0533944607221132,393.899123635107,0.651806676865954,0.444038764861679
448,-0.0235443761639996,0.193540530500527,-0.189441717797445,-0.0484790908606068,-0.222334995845517,-0.142219536307392,0.0973168835928547,0.0150734571515671,0.791612756316527,0.783582605650047,0.04,0.0494086436239157,377.534457238161,0.599219186317609,0.462940910215041
508,-0.0271852590759581,0.223469478516072,-0.21873682879705,-0.0559758574885357,-0.256716696233998,-0.164212248107504,0.112365886210306,0.0174044041337682,0.757658660671655,0.750115998276343,0.04,0.0444119709380223,361.397657484336,0.55155126325095,0.481453253511322
