time,bias_percent_1,bias_percent_2,bias_percent_3,bias_percent_4,bias_percent_5,bias_percent_6,bias_percent_8,bias_percent_9,normalized_power,power_SP,SP,CV,total_power_MW,fuel_fraction,thermal_efficiency
40,0,0,0,0,0,0,0,0,0.999725470195932,1,0.04,0.0399438939341234,476.973247082186,0.999814940047433,0.350533133270834
100,0.0177115359860181,-0.0109837628611205,-0.00467452311487477,-0.00702533562990914,-0.00457621670676247,-0.0210272308569675,-0.00458843153581307,0.0142431184891508,0.988817649633129,0.980753331695709,0.04,0.0442995837628844,471.574514237177,0.970830102138392,0.356912508328685
160,0.0442788399650453,-0.0274594071528013,-0.0116863077871867,-0.0175633390747728,-0.011440541766906,-0.0525680771424188,-0.0114710788395327,0.035607796222877,0.961689486704807,0.951883329239272,0.04,0.0509291751103067,458.592486743559,0.911765103879985,0.369571646835478
220,0.0708461439440725,-0.0439350514444819,-0.0186980924594989,-0.0281013425196365,-0.0183048668270496,-0.0841089234278702,-0.0183537261432523,0.0569724739566032,0.932395582019882,0.923013326782835,0.04,0.0542218672830607,444.61094892057,0.852905401805668,0.383031035577328
280,0.0974134479230997,-0.0604106957361628,-0.0257098771318108,-0.0386393459645002,-0.0251691918871934,-0.115649769713321,-0.0252363734469718,0.0783371516903293,0.902879145797077,0.894143324326399,0.04,0.0548180782950481,430.529838626307,0.797834681710445,0.396501670679529
340,0.123980751902127,-0.0768863400278434,-0.0327216618041228,-0.049177349409364,-0.0320335169473369,-0.147190615998773,-0.0321190207506914,0.0997018294240556,0.873477554545499,0.865273321869962,0.04,0.0538391286178599,416.502158588249,0.746061705306354,0.410201443409824
400,0.150548055881154,-0.0933619843195242,-0.039733446476435,-0.0597153528542277,-0.0388978420074806,-0.178731462284224,-0.039001668054411,0.121066507157782,0.843522192324294,0.836403319413525,0.04,0.0517767470964259,402.441026473873,0.698370412043087,0.423419732120304
460,0.177115359860181,-0.109837628611205,-0.0467452311487469,-0.0702533562990914,-0.0457621670676243,-0.210272308569675,-0.0458843153581306,0.142431184891508,0.814475773815667,0.807533316957088,0.04,0.0489653749575302,388.490779872323,0.653487474946475,0.436815584215839
520,0.203682663839209,-0.126313272902886,-0.0537570158210589,-0.0807913597439551,-0.0526264921277677,-0.241813154855127,-0.0527669626618502,0.163795862625234,0.785254954667619,0.778663314500651,0.04,0.0461216745324232,374.38776315367,0.61232468848817,0.449256688379717
580,0.230249967818236,-0.142788917194566,-0.060768800493371,-0.0913293631888188,-0.0594908171879115,-0.273354001140578,-0.0596496099655698,0.18516054035896,0.755412987292413,0.749793312044215,0.04,0.042813082426332,360.296990958249,0.57584544843238,0.459736910444917
