time,bias_percent_1,bias_percent_2,bias_percent_3,bias_percent_4,bias_percent_5,bias_percent_6,bias_percent_8,bias_percent_9,normalized_power,power_SP,SP,CV,total_power_MW,fuel_fraction,thermal_efficiency
36,0,0,0,0,0,0,0,0,0.999680269734387,1,0.04,0.0399588086923702,476.953847257685,0.999739683797962,0.350545261720938
96,-0.00989881598263128,-0.00853245231700885,0.00537138285577578,0.0119933172809092,-0.00338128384924994,0.00672770218662481,-0.00327343201374867,-0.00635460562464203,0.992510927161849,0.986443396738477,0.04,0.0430962681867464,473.383372718138,0.979948122938882,0.354947883154601
156,-0.0263968426203501,-0.0227532061786901,0.0143236876154019,0.0319821794157581,-0.00901675693133313,0.0179405391643329,-0.00872915203666321,-0.0169456149990456,0.971531534686585,0.963849057969272,0.04,0.0484677812125332,463.33832542862,0.933884030644511,0.364552391800287
216,-0.0428948692580689,-0.0369739600403714,0.0232759923750282,0.0519710415506066,-0.0146522300134163,0.0291533761420409,-0.0141848720595777,-0.0275366243734491,0.94863262698715,0.941254719200066,0.04,0.0511211160369189,452.396218249442,0.887754447606181,0.374438748784496
276,-0.0593928958957878,-0.0511947139020527,0.0322282971346544,0.0719599036854553,-0.0202877030954996,0.0403662131197489,-0.0196405920824922,-0.0381276337478526,0.925431361074971,0.918660380430861,0.04,0.0515772837675824,441.338870347453,0.844787136097877,0.383865925776123
336,-0.0758909225335066,-0.065415467763734,0.0411806018942807,0.0919487658203042,-0.0259231761775827,0.0515790500974568,-0.0250963121054067,-0.0487186431222561,0.902243030872505,0.896066041661656,0.04,0.0507016585286845,430.275838617113,0.80538525407871,0.392552694049705
396,-0.0923889491712255,-0.0796362216254154,0.0501329066539068,0.111937627955153,-0.031558649259666,0.0627918870751648,-0.0305520321283212,-0.0593096524966596,0.879277963784563,0.873471702892451,0.04,0.0490403946347753,419.32430017117,0.769462513350042,0.400421363719404
456,-0.108886975808944,-0.0938569754870969,0.0590852114135331,0.131926490090001,-0.0371941223417493,0.0740047240528728,-0.0360077521512357,-0.0699006618710631,0.856090684828854,0.850877364123246,0.04,0.0472225129785031,408.243342386247,0.736764552137208,0.407141211646203
516,-0.125385002446663,-0.108077729348778,0.0680375161731594,0.15191535222485,-0.0428295954238324,0.0852175610305809,-0.0414634721741501,-0.0804916712454666,0.832664292452608,0.82828302535404,0.04,0.0453006420953521,397.193292608713,0.707491859922933,0.412510620917261
576,-0.141883029084382,-0.122298483210459,0.0769898209327856,0.171904214359699,-0.0484650685059156,0.096430398008289,-0.0469191921970646,-0.0910826806198701,0.809596881083634,0.805688686584835,0.04,0.0434618315694769,386.226498004971,0.680684739972674,0.416918079111004
636,-0.158381055722101,-0.136519237072141,0.085942125692412,0.191893076494548,-0.0541005415879989,0.107643234985997,-0.0523749122199792,-0.101673689994274,0.786976412348279,0.78309434781563,0.04,0.0419309151278086,375.26500102552,0.655983306010695,0.420339255811138
