time,bias_percent_1,bias_percent_2,bias_percent_3,bias_percent_4,bias_percent_5,bias_percent_6,bias_percent_8,bias_percent_9,normalized_power,power_SP,SP,CV,total_power_MW,fuel_fraction,thermal_efficiency
46,0,0,0,0,0,0,0,0,0.999780377665055,1,0.04,0.0399251604320037,476.999026022788,0.999923952278786,0.350513861140587
106,0,0,0,0,0,0,0,0,0.999974789990038,1,0.04,0.0399059267474388,477.088402209781,1.00027863929709,0.350455226196201
166,0,0,0,0,0,0,0,0,0.999997709901457,1,0.04,0.0399466846650176,477.09896342586,1.00031714848697,0.350449492390809
226,0,0,0,0,0,0,0,0,1.000001414347,1,0.04,0.0399757067707226,477.100690534346,1.00031387478825,0.350451907935711
286,0,0,0,0,0,0,0,0,1.00000289754959,1,0.04,0.039992993015704,477.101391204875,1.00029910371704,0.350457597619545
346,0,0,0,0,0,0,0,0,1.00000370820997,1,0.04,0.0400027539181602,477.10177335901,1.00027822765764,0.35046519247757
406,0,0,0,0,0,0,0,0,1.0000039878531,1,0.04,0.0400077825438099,477.101902991723,1.00025463516084,0.350473553948322
466,0,0,0,0,0,0,0,0,1.00000386043129,1,0.04,0.0400098200737153,477.101839552304,1.00023104445508,0.350481773354031
526,0,0,0,0,0,0,0,0,1.00000347085911,1,0.04,0.0400100133819308,477.101652160011,1.00020932409348,0.350489246689266
586,0,0,0,0,0,0,0,0,1.00000294653916,1,0.04,0.0400091448221808,477.101401235166,1.00019052987613,0.350495648267221
646,0,0,0,0,0,0,0,0,1.00000238159562,1,0.04,0.0400077480237994,477.101131812508,1.00017508112326,0.350500864109506
706,0,0,0,0,0,0,0,0,1.00000183970336,1,0.04,0.0400061759375735,477.100873581554,1.00016295476967,0.350504924003553
766,-0.191666386837894,-0.191666666666667,0.191666563281974,0.191664819991186,-0.191666179352164,0.191666666666667,-0.191666661541701,0.191651670153114,1.00018639474833,1,0.04,0.0397468595745189,477.20119211087,1.00196168149773,0.349949263057349
826,-0.249999635005949,-0.25,0.249999865150401,0.249997591292851,-0.249999364372388,0.25,-0.249999993315262,0.249980439330148,1.00020766135743,1,0.04,0.0395329966610293,477.190995583176,0.997675640605369,0.351445144716757
886,-0.249997763573669,0.133291419296368,0.249998756760756,0.249999360738946,-0.24999985168689,0.249999999973377,-0.249998686627522,0.196296565694352,0.994675007977525,1,0.04,0.0467866157566198,474.535849491153,1.01552693627268,0.343346208849496
946,-0.249997194007323,0.249945329517002,0.249998419424777,0.249999899266018,-0.25,0.249999999965275,-0.249998288939949,0.179957995457371,0.9976115243351,1,0.04,0.0479241622023638,475.983410778668,1.03924517112292,0.336533636011498
1006,0.133293299335904,-0.133345465553696,-0.133333702134219,0.24999993780154,-0.25,-0.133333333341436,-0.249999344734596,-0.14967589482223,1.02055442187387,1,0.04,0.0258720446103946,486.93670012452,0.97050177927413,0.36866409996826
1066,0.249946927744712,-0.249999185792603,-0.25,0.249999949529742,-0.25,-0.25,-0.249999666063402,-0.249999252733413,1.00608529589185,1,0.04,0.0219872778523449,479.911971424613,0.889851481357723,0.396276877330305
1126,-0.133345706745667,-0.238693191219849,-0.249995921738845,-0.133329760313961,0.133330787814796,-0.249999993415679,-0.24999992208146,-0.249999825637796,1.0105716530021,1,0.04,0.00971361988160852,482.198852861497,0.852973456144421,0.415379761533223
1186,-0.249999986807956,-0.235252236349881,-0.249994680528928,-0.249995324179435,0.249996679758429,-0.249999991411755,-0.25,-0.25,1.00378442529179,1,0.04,0.00767349131491606,478.785003564929,0.802579915863846,0.438335785603595
1246,-0.249999996921856,-0.246558429798968,-0.249997156782645,0.133334424358132,-0.133334107156204,-0.249999997996076,0.047377814326054,-0.25,0.992363565346507,1,0.04,0.0123771451122066,473.406555479776,0.825793765731978,0.421228108516647
1306,-0.25,-0.249999445196516,-0.24999791042508,0.25,-0.249999998825875,-0.25,0.137884105642679,-0.25,0.994060287352165,1,0.04,0.0132851415394171,474.262131591889,0.867389066776125,0.40175304911136
1366,-0.0537723303579586,0.131450669398227,0.133328532229843,0.249999853021673,0.133333333607296,0.131684021663763,-0.159493682767164,0.13323823125953,0.949272702849556,1,0.04,0.044036382913197,452.899177865917,1.07593886312449,0.309291948089643
1426,0.00594913431570603,0.247544182535757,0.249993101733515,0.249999808289139,0.25,0.247848723909257,-0.249999966196247,0.249875953816779,0.979474049869064,0.991134217723505,0.04,0.0544637320957628,467.431730861717,1.23753034633397,0.277534520378667
1486,-0.190132361618433,-0.133902665238214,0.249997022208601,-0.133328333629816,0.249982205518706,0.157927777169512,0.133292671454821,0.249971055890582,0.990085127166975,0.979570153884599,0.04,0.0544946491599605,472.426156760338,1.21812999838307,0.284967264126302
1546,-0.249809338641867,-0.249995184125944,0.24999821539667,-0.249993420300803,0.249976789807009,0.13056053250959,0.249946952479058,0.25,0.978651753447968,0.968006090045692,0.04,0.0625784343516744,466.797966223346,1.13924974057684,0.301068066261881
1606,-0.102145249163609,-0.0323302521927085,-0.133333749740777,-0.249998464736854,-0.131767516716927,-0.160895325211154,0.249987622245114,-0.133333333333333,0.985194251013691,0.956442026206786,0.04,0.0506563708746426,470.076464426838,1.01300760836643,0.340965530505914
1666,-0.0572040045397915,0.0339155966565372,-0.25,-0.25,-0.247950566528559,-0.249599281908771,0.25,-0.25,0.958801296305485,0.944877962367879,0.04,0.05002557538077,457.264768935473,0.884217290173767,0.379982341630987
1726,-0.00816851701984274,0.199540138947791,0.133333333333333,0.13332383336247,0.133811534476669,0.133418346323975,0.25,-0.24828255375339,0.917874248251974,0.933313898528973,0.04,0.0825067481819286,437.674300657046,0.914308714297758,0.351732795464698
1786,0.00675532700796782,0.249947608340781,0.25,0.249987608733657,0.25,0.249988928829594,0.25,-0.247759852721813,0.916361399883376,0.921749834690066,0.04,0.0792486061026986,437.196103167532,0.983906523702879,0.326495438796077
1846,0.193203713057629,0.249967266420427,0.249326726578667,0.249996780387676,0.249982409342219,0.249723283127238,0.25,0.13385603436491,0.900604511373199,0.91018577085116,0.04,0.0847116421861483,429.556704688432,1.02363781949786,0.308339280965595
1906,0.249948874029266,0.249973249314232,0.249121817276522,0.249999571760638,0.249977055663764,0.249642434435216,0.25,0.25,0.898650156751282,0.898621707012254,0.04,0.0833989031247765,428.719297122222,1.04941397734535,0.300179385311479
1966,0.0173039246248976,-0.0447607416043875,-0.133538223265889,-0.133333413763075,-0.133253211909138,0.249907936815248,0.0788449177038467,0.249999111562237,0.916494066067087,0.887057643173347,0.04,0.0466187836582178,437.411441769901,0.949132641092989,0.33862413303287
2026,-0.0535010599764316,-0.134462391014402,-0.249999974735318,-0.249999974574639,-0.249888510735674,0.249988741887432,0.0267542404832783,0.249998841168135,0.891429560961623,0.875493579334441,0.04,0.0397469441928881,425.08112392709,0.793865873818762,0.393440771762224
2086,-0.204091160394669,0.160251658775964,0.13333333699205,-0.249988371264997,-0.249973945280981,0.194217218974202,0.197909319892204,0.249999715908821,0.860096984755418,0.863929515495534,0.04,0.0520974263019116,410.17911818985,0.777081731680709,0.387847971239438
2146,-0.249922930087176,0.249947239146945,0.249999997082988,-0.249984839822933,-0.249999947099118,0.177243277218002,0.249999996234051,0.249999982134247,0.853442826290794,0.852365451656628,0.04,0.0483053276036915,407.117208070255,0.787971413235893,0.379632752543423
2206,-0.249962167521639,-0.065126006940309,0.248236125678986,0.133336870707982,-0.249999475045577,0.233004020791005,0.249999962847234,0.249761052590424,0.842114936911525,0.840801387817722,0.04,0.0475845880796962,401.688342765721,0.779521316526474,0.378630773746326
2266,-0.249974109349519,-0.161017864445126,0.247699295251681,0.25,-0.249999331377108,0.24997468187844,0.249999952686029,0.249688334903173,0.831031263526904,0.829237323978815,0.04,0.0463679198975763,396.390500480824,0.767686965575861,0.379396873323782
2326,-0.249993476444244,0.154095831619067,-0.133870164441274,-0.133332844744809,0.133263262642857,-0.130392768158062,0.249993422221928,-0.0588593900529658,0.832565579094269,0.817673260139909,0.04,0.025279276686652,396.940310730947,0.704808725895966,0.413817268181857
2386,-0.249999370777421,0.249999999986429,-0.25,-0.24999936271062,0.24990839995328,-0.246156774690911,0.249991434689375,-0.0747854857158258,0.810539764159123,0.806109196301002,0.04,0.0205174504856361,386.579879883088,0.658094384994868,0.43162415163829
2446,0.0424970957851243,-0.133320764058491,-0.25,-0.249962862824144,-0.133354706677568,-0.247468531008913,0.24999799838576,-0.114986119117323,0.80996857455978,0.794545132462096,0.04,0.00236251330331583,386.433286683329,0.59088514395264,0.480536226766485
2506,0.131517759521551,-0.249983605289554,-0.25,-0.249951754163042,-0.25,-0.247867761192653,0.249999996032486,-0.186074424419917,0.778835609748537,0.78298106862319,0.04,1.0572499817468e-06,371.375746621082,0.572987586987476,0.476236853920029
2566,0.221954370135401,0.133337158765771,0.133333333333333,-0.245754473152145,0.132282454312619,0.133830471445809,0.249999864640685,0.143689050035298,0.727763613625214,0.771417004784283,0.04,0.0514379513156626,347.322531903141,0.719875138178761,0.354511607607217
2626,0.249478555974399,0.25,0.25,-0.244477039801003,0.248629288233851,0.249999498770558,0.249999824651876,0.24999929706801,0.764704511429892,0.786184505502492,0.04,0.0531745379700667,365.157877216183,0.905371262090294,0.296352533814474
2686,0.249831152934513,0.11924423966318,-0.133328303678608,-0.24864138537291,0.0836132499338805,0.249963914144495,0.249999959085438,-0.110569858172221,0.817364960285867,0.808965960651127,0.04,0.0319994925581707,390.318353125047,0.922863266202573,0.310767997523561
2746,0.249938465052808,0.0794490082563223,-0.249993439580793,-0.249908794894795,0.0333909774078026,0.24995308404091,0.25,-0.220308296723596,0.819512289032172,0.814281633519142,0.04,0.0382741432415484,390.947020865894,0.867693342019563,0.331059701600048
2806,0.249861985320528,-0.0713762056893812,-0.249970449699561,-0.154327363599158,-0.183875438604846,0.0585964513491193,-0.133333333333333,-0.239006170315515,0.834181011143584,0.814281633519142,0.04,0.02144185163193,398.075103983775,0.788157597804288,0.37111339236402
2866,0.249838708880269,-0.117279531672856,-0.249963452779185,-0.125237362770052,-0.25,0.000357476182052324,-0.25,-0.244696827495664,0.820708835945053,0.814281633519142,0.04,0.0180939225442139,391.473778870436,0.709089174856861,0.405654687694076
2926,0.249570877652975,0.164301442434342,0.13334186101819,0.161503935796335,-0.25,-0.190863318790021,0.0295370865516855,0.134554964262162,0.788587733416976,0.814281633519142,0.04,0.0539826598121186,376.125218953258,0.792636388889545,0.348668829262004
2986,0.24948936380119,0.249999999771316,0.25,0.248773026664365,-0.25,-0.249060952042391,0.114613591154372,0.24997942262324,0.806336859332629,0.814281633519142,0.04,0.0555290947199419,384.825280131658,0.893046523375266,0.316624258963958
3046,0.231647614068383,0.24999999994664,0.244534284310526,0.249713706221685,0.114468178007471,0.13355229499348,0.218375665631178,0.244507333330072,0.801872189647631,0.814281633519142,0.04,0.0758270771794852,382.519107022654,0.945890540648635,0.297143973927161
3106,0.226217516323615,0.25,0.242870805622425,0.25,0.225393275661918,0.249999804960919,0.249955427428466,0.242841914849543,0.810467088223458,0.814281633519142,0.04,0.0773400858661912,386.742398892422,0.995532225600899,0.285444145656573
3166,0.244443473039089,-0.0845806860346082,-0.134639032879344,0.196227994676707,-0.0969552753376909,0.249972808800587,0.249940168450912,-0.135003448641992,0.844635539174088,0.825201046801672,0.04,0.0454808400655978,403.280523013415,0.939675705261589,0.315343530360143
3226,0.249990503343799,-0.186409590479924,-0.249533331553796,0.179862601752226,-0.195061356076702,0.249964592577877,0.249935524414265,-0.152817603508195,0.844376161040596,0.839443759778885,0.04,0.0398661662002246,402.867919315939,0.864245348580971,0.342515564222904
3286,-0.133334216181315,0.148107368851612,0.133442207753035,0.23360682338534,-0.237036263585956,0.166978590070639,0.249861123732867,0.133333365155875,0.840270586567614,0.853686472756099,0.04,0.0467818294686652,400.894327167946,0.900680087151121,0.327049903967043
3346,-0.249998261254175,0.249916878213383,0.249999980585549,0.249963760404114,-0.249811235436598,0.141721980611915,0.249838480047224,0.25,0.861963470819795,0.867929185733312,0.04,0.0422953574126419,411.405319631196,0.9620608147774,0.314211483591106
3406,-0.249999594292641,0.249980604916456,0.249993989738181,-0.133248753917253,0.133377365327516,-0.15819776005758,0.249960513266705,0.209668236104816,0.883814093779348,0.882171898710525,0.04,0.0346655932408994,421.822543980739,0.968684761066246,0.319964646671099
3466,-0.25,0.25,0.249992166436807,-0.249878649580278,0.249999982951377,-0.249477681130905,0.249997653811764,0.197393351441064,0.896433236850747,0.896414611687739,0.04,0.0346612242262874,427.782797102522,0.961564139908023,0.326888568662606
3526,-0.25,-0.133333333333333,-0.133335156259716,-0.249817411366112,-0.132548797606312,-0.249878125561038,-0.0112149787163863,-0.129556911983127,0.934170166579466,0.88776638427559,0.04,0.000124673704971509,445.579147282891,0.801192210163292,0.408641826020026
3586,-0.25,-0.25,-0.249999993602137,-0.249798773648757,-0.24897668734126,-0.249999999952818,-0.0907144755727799,-0.190114812440623,0.875905974725666,0.872151348918853,0.04,4.88934662813745e-08,417.646069643383,0.738372675356552,0.415611406633901
3646,0.133333333060628,-0.25,-0.249999998507165,-0.249951410990639,-0.249741530089917,-0.248100001711055,-0.212833377633649,-0.24998828743048,0.854489237091301,0.856536313562117,0.04,4.95908508931192e-07,407.661752985462,0.751965027962951,0.398342826679906
3706,0.249999999644298,-0.25,-0.25,-0.24999786583382,-0.249974308317769,-0.247521741376605,-0.25,-0.249985077157503,0.855576232390803,0.84092127820538,0.04,1.79101984719322e-05,408.168540385274,0.694006027177285,0.432146462756378
3766,0.249999999917003,-0.249999851412401,0.13333207779374,0.133333831305442,0.133339328059187,0.0832195953408673,-0.25,0.133336815329916,0.794935641917202,0.825306242848643,0.04,0.05333188750089,379.009189628209,0.772833688983003,0.360344892768789
3826,0.25,-0.249999806190089,0.249998362339661,0.25,0.25,0.183880002167924,-0.25,0.25,0.802519786754296,0.809691207491906,0.04,0.0602858981546893,382.902136938579,0.880292737961434,0.31960631165038
3886,0.249996662182596,-0.249996078265529,0.11994367888605,0.25,0.249999981598132,-0.148761250228234,-0.249999997252493,0.25,0.803093740964714,0.79407617213517,0.04,0.0582770975513581,383.110720782154,0.855689002058166,0.328975102843001
3946,0.249995646325125,-0.249994943679793,0.0803618187045162,0.25,0.249999975997564,-0.249999892261847,-0.249999996416295,0.25,0.786459563622177,0.778461136778433,0.04,0.0646325329184452,375.071682565196,0.797366030888858,0.345629834135848
4006,-0.133334349190804,-0.249998782845903,-0.172915575635613,-0.133333333126704,-0.133322796170073,-0.249999837435134,-0.249999999163802,0.22005334201193,0.794176858355808,0.762846101421696,0.04,0.0246530343299917,379.38275234074,0.692057679840006,0.402800468284521
4066,-0.25,-0.249999951287762,-0.25,-0.249999999730483,-0.24998624856892,-0.249999820748743,-0.25,0.210939141754692,0.757503111917055,0.747231066064959,0.04,0.0192188889595795,360.996708166024,0.524481863675506,0.505740161479455
4126,0.133333333333333,-0.249767549248573,-0.249999999992934,0.0987548854835198,-0.249996791332748,-0.249999923100661,0.133333333333333,-0.142446520746567,0.716465891586609,0.731616030708223,0.04,0.0271799227195491,341.207731930285,0.538383980560963,0.465673378593481
4186,0.25,-0.249696818193167,-0.249999999990784,0.204897676635608,-0.25,-0.249999954251244,0.25,-0.249998678899124,0.713691240012439,0.716000995351486,0.04,0.0258806873783362,340.427667411974,0.593553875783885,0.421424111786515
4246,0.0806086355383038,0.12279034628782,0.133333333335484,0.23946078871911,-0.15070210108442,0.133333344008043,0.249999999870279,-0.24998486810968,0.680193918013966,0.700385959994749,0.04,0.0616240555265234,324.456366875782,0.684011135188191,0.348536130548998
4306,0.0290547420064834,0.236156005042904,0.25,0.249979996744524,-0.120481001414461,0.25,0.249999999830799,-0.249980664825937,0.681576067169651,0.684770924638012,0.04,0.0720292961698092,325.15168381103,0.742594339710005,0.321728140648
4366,0.198446106468179,-0.136563598769634,-0.133333333333333,0.249995332573722,0.163554228993679,-0.133333333333333,-0.133333328232809,-0.249995370734216,0.689279841426428,0.669155889281276,0.04,0.047519201631146,328.864127291266,0.673903043627424,0.358569843286125
4426,0.25,-0.249999999929972,-0.25,0.25,0.249999733900504,-0.25,-0.249999993295647,-0.249999846445431,0.664089903607279,0.653540853924539,0.04,0.0481877729021394,316.623587991066,0.572070151269563,0.406676103708281
4486,0.25,-0.24999999998366,-0.25,0.25,-0.0537296405428896,-0.0339426116263684,-0.00529212660989185,-0.00902432985027934,0.631658103944489,0.637925818567802,0.04,0.0514894314300045,301.222153046334,0.577755793032949,0.383086877760859
4546,0.25,-0.25,-0.25,0.25,-0.146169015373488,0.0318139848351717,0.0691841806422944,0.0643160447656365,0.624734595276994,0.622310783211065,0.04,0.0481160655387587,297.971018019681,0.583484911465628,0.37523131128669
4606,-0.132214244003013,0.13333331241432,0.132472924313188,0.248498817330505,-0.225488382331785,0.199089793238801,0.207809634173074,0.0950105399859415,0.600864565691291,0.606695747854329,0.04,0.0773530437523216,286.495648454468,0.593440369892768,0.354728121871003
4666,-0.248540318264799,0.24999997271433,0.248877727365028,0.248041935648485,-0.249629059232136,0.249999821883384,0.249999989595485,0.104352342879078,0.59294838721743,0.591080712497592,0.04,0.0784570760406889,282.810986243715,0.603061834104555,0.344579239684038
4726,-0.24965940759512,0.249999993633344,0.248627066841338,-0.133790215015354,0.133419793387412,0.249999958439358,0.249999997571166,-0.123768752659648,0.585019139277271,0.575465677140855,0.04,0.073616246846485,278.899711999345,0.560574868534667,0.365568795946427
4786,-0.25,0.25,0.248550778855867,-0.25,0.249999878967274,0.249999999999871,0.249999999998547,-0.0587242464907752,0.562912372183722,0.559850641784118,0.04,0.0740482112971983,268.425624790369,0.53649154163384,0.367634084773003
4846,0.133333333333333,0.244872153168786,0.249661848399702,-0.25,-0.132488154068516,0.249986125274679,0.24999852837665,-0.0277452536164398,0.563230495068019,0.567445432141227,0.04,0.0592891658257889,268.817655604412,0.547857145164616,0.360533093861986
4906,0.25,0.2433115041332,0.25,-0.25,-0.248897555427235,0.249981902532229,0.249998080491725,-0.013109029471506,0.57534331254192,0.582104082498201,0.04,0.04907605001123,274.614233380471,0.585399746763765,0.344687226260511
4966,-0.133333333175247,0.121154330515355,0.249999700737146,-0.016936332429961,0.112640109362427,0.249994820651856,0.249999540595733,-0.00619493335300501,0.586030407697069,0.596762732855175,0.04,0.0447817107772555,279.706116452416,0.642432841786743,0.319910802511836
5026,-0.249999999793801,0.0839760602838375,0.249999609657147,0.0539960881348335,0.222673311689715,0.249998752253481,0.249999984975214,-0.00379633830773107,0.605656873579212,0.611421383212149,0.04,0.0392688956637536,289.078899128734,0.683109049945167,0.310943175497458
5086,0.133304737678797,0.211260922874628,0.249999908858852,-0.179066597133933,0.115145967452473,0.249991944568765,0.249999996494217,0.133279448257543,0.614585709940503,0.626080033569124,0.04,0.0505773295647837,293.23221558262,0.72656995367061,0.296543851492894
5146,0.249962701257413,0.249999794097912,0.249999999920241,-0.249998718737471,0.0824202539889651,0.249989872664721,0.25,0.249821630238601,0.6349213787318,0.640738683926098,0.04,0.0541816271828426,303.094302526478,0.785561028579454,0.283499644660081
5206,0.249979501974683,0.249999948877899,0.21531769049168,0.133333457916208,0.210875089535273,-0.133335695862705,0.249999994499861,-0.000676725669412201,0.659593310975629,0.655397334283072,0.04,0.0566856540581791,314.748430630243,0.774135072605123,0.298745591865416
5266,0.249984615236461,0.249999995984851,0.204762205013422,0.249999772549936,0.249970039484149,-0.249999999327573,0.249999992825906,-0.000319397237125106,0.667164416519747,0.670055984640046,0.04,0.0589483378729799,318.392642960846,0.780139825020306,0.299878446069384
5326,-0.133336923111492,-0.13333096792502,-0.052005564622066,-0.133332271491969,-0.133333822420208,-0.24999999983054,-0.00944908853843676,-0.00944908853843676,0.70224971573161,0.684714634997021,0.04,2.32292337490686e-08,334.587413215598,0.720658691601085,0.341141572252729
5386,-0.25,-0.249996913462807,-0.130152277119823,-0.249998545765592,-0.249991519521534,-0.249999999983616,-0.0644415381335947,-0.0644415381335947,0.678420795312227,0.699373285353995,0.04,2.88816777390603e-10,323.801084906367,0.838071351415795,0.283891232843059
5446,-0.249904123192596,-0.249999279807988,-0.222031014124172,-0.249999660678638,-0.249998021221691,-0.249991914283547,-0.145294490252318,-0.145294490252318,0.698993847149544,0.714031935710969,0.04,2.61970176198732e-10,333.68319208879,0.944697608622835,0.259535154241583
5506,-0.249874943294691,-0.25,-0.249994107995061,-0.25,-0.25,-0.249989453418308,-0.238363060530455,-0.238363060530455,0.726683903435394,0.728690586067944,0.04,3.16798359853835e-10,346.92342905793,0.986671567780398,0.258354299279886
5566,0.0645544798973182,-0.249999998668302,-0.242042382534631,0.0706298139685955,0.133332268347358,0.133329990639804,-0.160243614644767,-0.112326591961147,0.751263475116827,0.743349236424918,0.04,0.0295491709302493,357.693641102036,0.867966588524016,0.302804892605046
5626,0.160250391303582,-0.249999998263003,-0.239622292177109,0.168212800828603,0.249998610887859,0.249992430135751,-0.132927086130117,-0.0704260178340367,0.74830959659492,0.746769588174878,0.04,0.0437557951978868,357.0833866187,0.894211567993006,0.29341616566081
5686,0.0855389168142343,-0.247637667434449,-0.247578531687417,0.230916273732666,0.249999675803322,-0.0124915041467825,-0.127166170942054,-0.20809938418828,0.759096127944457,0.746769588174878,0.04,0.0400763544962552,362.212560353246,0.842426580179688,0.315926547319381
5746,0.0628006419696504,-0.246918697182281,-0.249999995886206,0.24999993939912,0.249999999908028,-0.092377918928423,-0.125412848928296,-0.249999973948267,0.753397389410977,0.746769588174878,0.04,0.0414524760600708,359.399763183538,0.783978802241614,0.336843477910481
5806,-0.173964751584176,0.134004381813018,-0.249999995888754,0.249101076555791,0.249995262753615,-0.213068231942445,0.0850593716806289,-0.226244101101787,0.744773292139516,0.746769588174878,0.04,0.0469919300663686,355.291470221324,0.778305354656377,0.335420374166944
5866,-0.246023784404906,0.249937492811587,-0.249999995889529,0.248827509603473,0.249993821010967,-0.249800066338017,0.149116134474649,-0.219014052844163,0.747697215408819,0.746769588174878,0.04,0.0451281043624095,356.742643068509,0.782114710558369,0.335150018294733
5926,0.134253619500529,0.249897171313802,0.133321761189118,-0.132633117303319,-0.133334643783419,-0.24636652746373,0.226458383142085,-0.240887537347964,0.748027631977438,0.746769588174878,0.04,0.0499011359810995,356.902889884448,0.771671500716082,0.339838266342211
5986,0.249990220689139,0.249884899553606,0.249984904647837,-0.248729829840168,-0.249999828720841,-0.245321537371556,0.249997328388696,-0.247544684805642,0.749302355183515,0.746769588174878,0.04,0.0510177959240451,357.4934289488,0.756989630811713,0.347002664161941
6046,-0.13329927931964,0.248979514086279,0.249776752471727,0.133629374190083,0.120835240960602,0.134377903855249,-0.110510878320605,0.13386535235501,0.73479328680933,0.746769588174878,0.04,0.0694279384049601,350.49621374398,0.792825583345359,0.324833155783116
6106,-0.249952605409269,0.248703961987527,0.249713401809433,0.249999566721029,0.233698088254954,0.249938603359059,-0.220230767319088,0.2499466680126,0.74373252837297,0.746769588174878,0.04,0.0644650848162705,354.890160129986,0.836680938283319,0.311665520886215
6166,-0.060200239146086,0.0140431251571366,-0.133374003251785,-0.119434691554073,-0.137128742816667,-0.0866265556511418,0.140278322592106,0.249987552241825,0.762185923307743,0.746769588174878,0.04,0.0326640633371643,363.987471283704,0.793677466324898,0.336974518350638
6226,-0.00244951897903036,-0.0573753903999387,-0.24996582218346,-0.231871204942147,-0.24998908270803,-0.189059430132507,0.249998480391165,0.249999995268111,0.755210792606051,0.746769588174878,0.04,0.030640452144876,360.228723779665,0.694605911347906,0.381061033285886
6286,0.191070580878756,-0.205052363652398,0.133341308157193,-0.245765198505103,-0.249997055688667,0.147552799635748,0.249612494052317,-0.133321020810528,0.742141261815259,0.746769588174878,0.04,0.0362590166707493,354.136436241634,0.699261578759651,0.372122236500393
6346,0.249968002574604,-0.249997529424886,0.25,-0.249993805241655,-0.249999482247991,0.25,0.24949501994919,-0.246855421553977,0.745036810651914,0.746769588174878,0.04,0.036972481787141,355.472304323223,0.715991615497238,0.364798050832027
6406,0.0527907052709161,-0.249989316280281,0.11893552970864,0.133316305177731,-0.249999879191198,-0.132751623397075,0.249878011996636,-0.249996252373857,0.751496813781265,0.746769588174878,0.04,0.0250471229673373,358.597439547074,0.70496375660967,0.373761936157611
6466,-0.00721977651716281,-0.249986816627575,0.0790463430982256,0.249975904001023,-0.25,-0.249241247909228,0.249994574793685,-0.249999999999269,0.747692337658023,0.746769588174878,0.04,0.0238057968425743,356.703590038972,0.683293843765488,0.383578846397818
6526,-0.193350740095212,-0.249996923879768,0.206811100369682,0.249994377600239,-0.249843557094492,-0.249822935691264,0.249998443757684,0.133333333135434,0.739255806002645,0.746769588174878,0.04,0.0334982066827194,352.66199318418,0.713828759121828,0.363010588488522
6586,-0.249999294227662,-0.25,0.245696026495777,0.25,-0.249795944036294,-0.249999971103188,0.249999621268467,0.249999999741648,0.744044741661495,0.746769588174878,0.04,0.0349982872364027,355.003610601647,0.738662718950809,0.353135408600248
6646,0.13333348040418,-0.24995629470419,-0.134280143249371,0.249997662261066,-0.24995171169753,-0.24999999325741,0.249999832091662,0.249999997381767,0.743734523340875,0.746769588174878,0.04,0.0349033486228995,354.846523081542,0.749536924178166,0.347858162286992
6706,0.249999977031262,-0.249942993092421,-0.249925064476155,0.249996950775304,-0.249999119246602,-0.25,0.249999896255244,0.249999996663542,0.745070370521066,0.746769588174878,0.04,0.0368218702786723,355.482362763419,0.764858145542925,0.341500888711382
6766,0.249999994640628,0.133184738106802,-0.249982515044436,0.249999288514238,0.13333353884246,0.133333280939318,0.249999943211713,0.0556164694669889,0.733646741755275,0.746769588174878,0.04,0.0630660561888404,350.032283836635,0.824715010886028,0.311859428398671
6826,0.25,0.249788830210914,-0.25,0.25,0.25,0.24999993165998,0.249999957502813,-0.00354373446239697,0.743465926793534,0.746769588174878,0.04,0.0697282097677306,354.773255260565,0.870436971226271,0.299480272813631
6886,0.246869692337622,-0.133380725407884,-0.0989990182073958,0.24993182574083,0.25,0.168536097949359,0.249987151924257,0.1908395348288,0.746376005905641,0.746769588174878,0.04,0.0653547829673228,356.111521535051,0.875984080485876,0.29870637233137
6946,0.245916990005594,-0.249997546683171,-0.0530421976618206,0.249911077053257,0.25,0.143742757254822,0.249983254574262,0.249999660265251,0.749869092127729,0.746769588174878,0.04,0.0644453306202889,357.773223207629,0.863368368565148,0.304485332306482
7006,0.246200131942782,0.127747912570074,0.179285168531028,-0.133353847282585,0.25,-0.158121760735203,0.249912673715569,0.249999848156536,0.753354261664804,0.746769588174878,0.04,0.0684709709359126,359.473753477198,0.832542859670112,0.317259957902952
7066,0.246286305575839,0.242713921908018,0.24999349737233,-0.24999969381958,0.25,-0.249993570558255,0.249891192584662,0.24999990534084,0.751903392307962,0.746769588174878,0.04,0.0677904512856375,358.707784644723,0.792297100019508,0.332665230581963
7126,0.249133471301029,0.248091594561775,0.249997839646872,0.133251336074677,0.249999397703652,-0.249998466701896,0.247575239920072,0.249999715984426,0.744930284426238,0.746769588174878,0.04,0.0740862798386041,355.345768749128,0.785740435029888,0.332297230565483
7186,0.25,0.249728277543353,0.24999916120869,0.249892953868582,0.249999214396068,-0.249999956832569,0.246870384761284,0.249999658354213,0.743606350927038,0.746769588174878,0.04,0.07106823978748,354.783596409992,0.807376050906372,0.322880892665404
7246,0.24993251546586,0.248777257170295,0.249928865004527,0.200448340184904,0.249926497817511,-0.249999989927599,0.2492697564443,0.249572421957905,0.745122284234566,0.746769588174878,0.04,0.066848147931411,355.509496935209,0.820646375631956,0.318309666285875
7306,0.2499119766946,0.24848781618719,0.249907470507608,0.185399979498567,0.249904366684907,-0.25,0.25,0.249442393489463,0.745795872199246,0.746769588174878,0.04,0.0657880639643816,355.821717041089,0.827177995124023,0.316073550307932
7366,0.24997946122874,-0.121861217156984,-0.133354047843631,-0.148389788276748,0.249367594522793,-0.25,0.25,0.249863409317045,0.7573489831158,0.746769588174878,0.04,0.0337555222409098,361.484738523216,0.799876133402709,0.33206408354227
7426,0.25,-0.23457614034869,-0.249998857776617,-0.249977978469235,0.24920422908215,-0.25,0.25,0.249991544568918,0.753997373118744,0.746769588174878,0.04,0.0287853825629614,359.667780648699,0.727038077315212,0.363495513195487
7486,0.249576142187006,-0.246373516116349,0.133333252822212,-0.163548506401029,-0.133519013214165,0.133304547846191,0.119760876700577,0.15519276379694,0.748535096261026,0.746769588174878,0.04,0.0379196132484613,357.102106679615,0.707238196886582,0.371006381962342
7546,0.249447141983052,-0.249964021784768,0.24999954735229,-0.137243884467227,-0.25,0.249962453712423,0.080122882652926,0.126340960953295,0.746215962175102,0.746769588174878,0.04,0.0377790199935365,356.014961359944,0.708108485060639,0.369422316450706
7606,0.249870890095009,-0.249624951792109,0.249996255464365,0.159462165568612,0.132994728551119,0.248984743601646,-0.0542147386031769,-0.0542147386031769,0.74181161437735,0.746769588174878,0.04,0.0485943040971822,353.795129348041,0.714062899831793,0.364057562295008
7666,0.249999856911691,-0.249521756576951,0.249995253585431,0.249764006883868,0.249558341588416,0.248687179654887,-0.0456655508627256,-0.0456655508627256,0.74144581401121,0.746769588174878,0.04,0.0479702969643558,353.772523551747,0.756978090927767,0.343396184866915
7726,-0.133261659243518,-0.249043043253705,-0.13327023692091,0.249910821819714,-0.133436386962703,-0.0832467156758246,-0.0421977931457134,0.130090986164103,0.761520729732691,0.746769588174878,0.04,0.0079723879820973,363.333739188879,0.713276072078175,0.374285281750189
7786,-0.249906468508147,-0.248897347894456,-0.249916255770666,0.249955504626276,-0.25,-0.184270075124302,-0.0856819834906394,0.245770637067847,0.75425296437702,0.746769588174878,0.04,0.0033283625658888,359.697172020079,0.607260168485615,0.435228076535169
7846,-0.249975663087839,-0.249742714508707,-0.249371076696321,-0.133343711825139,0.133333333333333,0.14867031580433,0.133320601218334,0.248169904142717,0.733930046546461,0.746769588174878,0.04,0.0171151793656681,350.069379441441,0.637456394617565,0.403513732077613
7906,-0.249996722307746,-0.25,-0.249205152630217,-0.249999995092961,0.25,0.25,0.249983392893479,0.248900115861156,0.740922407425867,0.746769588174878,0.04,0.020107083801961,353.510886408995,0.691875905352637,0.375430249668168
7966,0.133334081822395,0.133333333333333,0.133484737067293,0.13321721285142,0.24999993926585,0.249693944114245,0.249941340335883,0.249743351407436,0.70891430698482,0.746769588174878,0.04,0.0568815872055141,338.319192073197,0.84533904405492,0.294069770695475
8026,0.249999978731569,0.25,0.249955573062187,0.249848537008406,0.249999920781544,0.249600796670755,0.249928541731397,0.249999988312826,0.736626940081291,0.746769588174878,0.04,0.0681332726377664,351.60389792749,0.967644724953946,0.266988419177493
8086,-0.133293594390444,0.25,-0.132783608056182,-0.133368316582814,0.249999663764742,0.249596497144584,0.24993046511094,0.249994338731822,0.749266120196458,0.72604929802655,0.04,0.0570724983527763,357.452969650918,0.899810630898768,0.291892183881865
8146,-0.24994816012323,0.25,-0.24926944578786,-0.249999532893185,0.249999585542237,0.249595188593141,0.249931050487323,0.249992619294125,0.718226332167063,0.699022832615686,0.04,0.0697049907068973,342.372156163345,0.750842146207598,0.335046026512315
8206,-0.112182256231669,0.24998335805286,0.133503795982833,-0.0256941900967423,0.249999903293188,-0.133395841203493,0.249981128592709,-0.109149639250345,0.696097922119323,0.671996367204823,0.04,0.0820730806899718,331.960484982856,0.624734291205673,0.390432284567881
8266,-0.0702535028733682,0.249978293112426,0.25,0.0425726533630444,0.25,-0.249958328532904,0.249996369755218,-0.0515997550678206,0.652536785050116,0.644969901793959,0.04,0.0876382189332831,311.042093787914,0.549087794080732,0.416228729445604
8326,0.175017484374006,0.249994935059566,0.25,-0.00466316444477548,0.238725010616612,0.133303146905219,0.248451987978094,0.133127510267209,0.620927784131084,0.638663726531424,0.04,0.0910630668601998,296.052167031231,0.590521534905457,0.368372482394531
8386,0.249665176144947,0.25,0.25,-0.019039282908025,0.235293492108624,0.249947943777692,0.247981958741578,0.249730736768793,0.62772578514079,0.638663726531424,0.04,0.0778909205511889,299.582954564051,0.691139075893607,0.31849772010993
8446,0.248950497020816,0.24996156283971,0.249995263859463,0.187224167321461,0.246568481492012,0.249943408405606,0.249529123706368,0.245958174992895,0.632641877975378,0.638663726531424,0.04,0.0815831216997072,301.84039819338,0.731301478224034,0.303274286818932
8506,0.248732985983037,0.249949864573535,0.249993822425387,0.25,0.25,0.249942028074972,0.25,0.244810004017622,0.634845205744007,0.638663726531424,0.04,0.083093186805486,302.902519305858,0.759979799274147,0.292856935222239
8566,0.184245804061606,0.249987455899766,0.249998558565924,-0.133333333333333,-0.133333333333333,-0.133328099099185,0.0130875895641974,-0.00133099991267861,0.664270132608736,0.638663726531424,0.04,0.041088360333773,317.032107950483,0.677078435167076,0.344047924923953
8626,0.164619270433344,0.249998896738185,0.25,-0.25,-0.25,-0.249975529108711,-0.00672524408140908,-0.00672524408140908,0.647781265049052,0.638663726531424,0.04,0.036313688422017,308.92734183992,0.572710673235182,0.396347156669488
8686,0.190570536328286,-0.133333462362544,0.25,-0.249999999869989,-0.24999999984828,-0.248829413752483,0.175534776812162,0.133333284591255,0.630073324567776,0.638663726531424,0.04,0.0238517549014345,300.439511822491,0.577811005969889,0.382055023133024
8746,0.198468747687616,-0.249999832523635,0.25,-0.249999999830421,-0.249999999802105,-0.24848059603537,0.246919852914764,0.249999936423376,0.638421075469818,0.638663726531424,0.04,0.0200458503398197,304.557052794919,0.586757051188048,0.38138623999642
8806,0.237975887804131,-0.249999960922182,0.249813634346592,0.133333333372902,-0.24982760334098,0.133255484883108,0.249281299013445,-0.0886296227722456,0.63273903469541,0.638663726531424,0.04,0.0376109588469214,301.781529236392,0.616951419380939,0.359415136790336
8866,0.249999800013506,-0.25,0.249756914365121,0.25,-0.249775134852812,0.249436031249601,0.25,-0.105702383097594,0.634196754066796,0.638663726531424,0.04,0.0443319542639183,302.614354481542,0.662469645713557,0.335643481671268
8926,0.249999953336485,-0.24955840308117,-0.0572269248391661,0.249993285988139,0.13213370863562,0.249866914193598,0.249999999856449,0.133214465612294,0.628464960160051,0.638663726531424,0.04,0.0516408621424749,299.772763240833,0.699355573909506,0.314955217255302
8986,0.25,-0.249424004018917,-0.150656788944819,0.249991242593225,0.248366834914708,0.249998052480901,0.24999999981276,0.249844854506679,0.636538351917653,0.638663726531424,0.04,0.0525064973116143,303.742930746986,0.735534806682584,0.303429377602049
9046,-0.132702069434075,0.133466793773739,0.109690061899288,-0.131308194167531,0.249618928146765,0.249999545578877,0.249999999956311,-0.0667424711876878,0.648548232730604,0.638663726531424,0.04,0.0527440885985582,309.24684889417,0.69976937195189,0.324717002485825
9106,-0.249176612305315,0.249998775710635,0.188926059982277,-0.247355848833848,0.25,0.25,0.25,-0.0373609281994455,0.64125150949773,0.638663726531424,0.04,0.054762997976445,305.912225579184,0.674558308854839,0.333220731810542
9166,0.133518463794556,0.249971417615386,-0.128754418770581,-0.249368795288312,-0.133332752126142,0.249998110746596,-0.0177125774730904,0.184347561014085,0.645825383714315,0.638663726531424,0.04,0.0420954085542603,307.999808497782,0.636172239939771,0.355738122371717
9226,0.249990878259735,0.249963091238571,-0.225439781869277,-0.249981431165757,-0.249999241903663,0.24999753575643,-0.00836946476676088,0.249998533905719,0.641868437623663,0.638663726531424,0.04,0.0408376275474041,306.224763008178,0.613659829079731,0.36666316990881
9286,-0.115570903073018,-0.133341945377667,-0.0183449876052848,-0.249995610449018,-0.249848522067812,0.249948727595284,-0.00962399366041964,0.249999657911334,0.647229432538573,0.638663726531424,0.04,0.0161682023480743,308.806891741874,0.581821591123107,0.389988523303372
9346,-0.226828836522116,-0.25,0.0446838628228867,-0.249999925883055,-0.249802650813422,0.249933872937543,-0.0448263686720768,0.25,0.646764096544433,0.638663726531424,0.04,0.0104761910448826,308.290591636735,0.511909727181839,0.442508447180993
9406,0.138739938144839,-0.248878308974125,0.20209287667828,0.133271490961846,-0.0862953599928693,0.249984570352093,-0.0957266094919521,0.249382885773479,0.615735217675781,0.638663726531424,0.04,0.0384561894882441,293.72714785252,0.589977169654354,0.365816725892662
9466,0.25,-0.248536924748859,0.24999996785166,0.249919313479859,-0.0365322714822662,0.25,-0.119220479502401,0.24919506840019,0.630186103396019,0.638663726531424,0.04,0.0434462576367847,300.75480783662,0.682658663485707,0.32371561493904
9526,0.249976541518336,0.1336747175586,0.249999992498721,0.249865311533122,0.183142464943724,0.249997883397085,0.133302225772609,-0.11965568751732,0.633370536437943,0.638663726531424,0.04,0.0677153033714952,302.164489835754,0.708837213342919,0.313221519246467
9586,0.249969401980438,0.25,0.25,0.249848876158028,0.2499999934212,0.249997239213589,0.249940580879843,-0.0773623168957394,0.634146251298768,0.638663726531424,0.04,0.0754576126172611,302.600841305162,0.753547099531997,0.295062762998858
9646,0.249987586686161,0.25,0.249999999284458,0.249964219607461,0.249985498139839,0.249999355816504,0.249986132476599,0.13324576086111,0.632415104865743,0.638663726531424,0.04,0.0810496998866977,301.636530844928,0.774889105626111,0.286021749322233
9706,0.249993121161816,0.25,0.249999999066684,0.249999324135549,0.249981086532468,0.25,0.249999996006047,0.24988577503623,0.636462489248416,0.638663726531424,0.04,0.0817218895490139,303.697401016205,0.805452017985861,0.277048675131434
9766,0.249998270427807,-0.0312955213868415,-0.132881684674502,0.24991598773173,-0.133337022335361,-0.133333333333333,0.249999999068078,0.249973249028414,0.656022923099758,0.638663726531424,0.04,0.0463873382337953,313.158070141481,0.753460548914324,0.30539207770385
9826,0.249999837595717,-0.116907201808924,-0.249410892769646,0.249890624478394,-0.249999055469048,-0.25,0.25,0.249999871547775,0.64938261128814,0.638663726531424,0.04,0.0425462063649981,309.733034172839,0.653594765659169,0.348203905367827
9886,-0.133333371227666,0.164174078287651,-0.249788825583774,-0.133358854288375,0.133333470005339,-0.249998396693393,0.249999999633193,0.249999970027814,0.642759799377173,0.638663726531424,0.04,0.0362170756149937,306.631297815511,0.619889277142502,0.363460344139828
9946,-0.25,0.249720554838783,-0.24990384861416,-0.25,0.249999890801892,-0.249997908730513,0.249999999521556,0.25,0.650185663847488,0.650041439121242,0.04,0.0251068640265004,310.272397974908,0.608599764661295,0.374598503785514
10006,-0.25,0.228022116107949,-0.24996937476855,0.133318966856376,0.249999974520441,0.133333821296214,0.24613339697277,-0.0359981850234255,0.654693255345443,0.664881933803614,0.04,0.0336804559738839,312.24625264976,0.643153312633316,0.356728165472238
10066,-0.25,0.221418243450738,-0.249989317511191,0.249981261117013,0.25,0.25,0.244956604892704,-0.0562952381483735,0.671014532050792,0.679722428485985,0.04,0.0315926130511383,320.292048709682,0.712925123951264,0.330108657103164
10126,0.133131788105981,-0.140000800920021,-0.249976304245306,-0.125002015099614,0.249902586076337,0.249994043088843,0.248823207808298,-0.0806841420154638,0.694124577352801,0.694562923168357,0.04,0.0212129035651648,331.330182721058,0.731900196768255,0.332631835554648
10186,0.249737114920845,-0.249997901380687,-0.249972343686124,-0.239127360035108,0.24987293836044,0.249992230115882,0.25,-0.118060828405785,0.706394103868102,0.709403417850729,0.04,0.0213493519895229,337.123595459861,0.741127266335993,0.334234314373024
10246,-0.133394609425664,-0.249999456838782,-0.249988814452411,-0.247392316947024,-0.133362981049231,-0.133313754957105,-0.131530855339356,-0.17077416218763,0.709954127205745,0.7242439125331,0.04,7.37731346370777e-09,338.534216004463,0.729360663321843,0.341047530630801
10306,-0.249999916835471,-0.249999930239072,-0.249993827294325,-0.249907738615868,-0.25,-0.249972098240188,-0.247648941746986,-0.249955890105303,0.703308796958692,0.739084407215472,0.04,7.98013147266147e-10,335.583380493887,0.984142357214155,0.250551609402288
10366,0.13324957334404,-0.249999893776182,0.133241171478014,0.133188550508665,0.133328173938131,0.133339843743956,-0.12382161259972,0.133342512451574,0.750277121232553,0.753924901897843,0.04,0.0359498315986671,356.999064741526,0.943912089034376,0.277901061938518
10426,0.249890722529109,-0.249999882678781,0.249877910234813,0.249783073285697,0.249993270354084,0.25,-0.0861350341635958,0.249998548012362,0.761054533253308,0.768765396580215,0.04,0.0541725809093016,363.331670277378,1.04279960931751,0.256010083847899
10486,0.249971975182614,0.101678597550834,0.0781942882953762,0.249246194341632,-0.133334903584047,-0.0987107992246936,0.171277567857039,0.249997084898675,0.78755874126103,0.783605891262586,0.04,0.056113530657734,375.91587973729,1.04071421300891,0.265407910223124
10546,0.249996704251073,0.208711178490282,0.025942751183374,0.249082796402134,-0.25,-0.204840172901774,0.249620533689406,0.249996639603204,0.802768128765763,0.798446385944958,0.04,0.0606664002856106,383.107472526605,1.01194780746507,0.278174416346842
10606,-0.133334102341416,0.0274552236890023,-0.185553964925366,-0.133547347506169,-0.249552409112763,-0.239462707010414,-0.13251416445159,-0.133291319993777,0.851015571704369,0.813286880627329,0.04,0.0173685415854482,406.415579608375,0.878214584258518,0.340035593202381
10666,-0.25,-0.027709632120083,-0.249922530697591,-0.25,-0.249416185799256,-0.25,-0.248816029103198,-0.249944177262423,0.842963403226849,0.828127375309701,0.04,0.00337140622319135,402.155310463975,0.708116312574273,0.417295676447934
10726,0.133185173068648,0.185199875008456,-0.249981923829438,-0.25,-0.249863268484855,-0.249999539821912,0.133609593209254,-0.24998131080265,0.824514861990194,0.842967869992072,0.04,0.0213936270256193,393.385814353479,0.747228295760862,0.386829923695113
10786,0.249806747480846,0.249998420656272,-0.25,-0.25,-0.249999337128298,-0.249999399767711,0.25,-0.249992612314893,0.849941848578271,0.857808364674444,0.04,0.0214208794190703,405.681035609237,0.831445623857679,0.358513513834479
10846,-0.133377736607688,0.249788004038548,-0.249999700910301,0.133198262062704,-0.0549827324985714,0.133305685234111,0.249999662386279,0.13333341051524,0.844430536996048,0.872648859356815,0.04,0.0394482321800349,402.935220054182,0.955578493342333,0.309830051841507
10906,-0.249999101330286,0.249723964198371,-0.249999609883001,0.249823820081788,0.00437014717134548,0.249963754582491,0.249999559634276,0.249997852246151,0.875563961863553,0.887489354039187,0.04,0.0414804006551742,417.92359602875,1.06482755117184,0.288384748760469
10966,-0.2499997903104,-0.124989914195582,-0.249991525309519,-0.133372742063875,0.192686316387012,0.249991542735915,0.249999897247953,-0.133333834475898,0.917533461641519,0.902329848721558,0.04,0.0311607426288698,438.01943478433,1.03651225495039,0.310508587396748
11026,-0.25,-0.239033268489394,-0.249989064787155,-0.249997782716903,0.249999933104823,0.25,0.249999999999942,-0.25,0.903039329449814,0.891414943727663,0.04,0.0381611192449562,430.657559897723,0.943434495391264,0.335409222614979
11086,0.133333333333333,0.130737210488222,-0.249996009132248,-0.24997564815627,-0.133319538663535,-0.133307433605898,0.249999999999986,0.133318016920716,0.872013098284393,0.872661438832296,0.04,0.0531717386159115,415.885236646379,0.919132068991239,0.332468313924488
11146,0.25,0.243276051916192,-0.249998122628581,-0.24996891155086,-0.249981986593035,-0.249966217746823,0.25,0.2499800220705,0.861583155074107,0.853907933936928,0.04,0.0607712365010583,410.952291894911,0.892649567319729,0.338271246950978
11206,0.25,-0.134902254552889,0.133326565469458,-0.249992746028534,-0.249995332058353,-0.249984809730022,0.249999982810734,0.0410504898471709,0.848799134272215,0.83515442904156,0.04,0.0612726556424923,404.828025716504,0.820806168177576,0.362397034671513
11266,0.25,-0.25,0.249990600977557,-0.25,-0.24999939372171,-0.249990468159691,0.249999977579218,-0.0225367590903639,0.825574163119886,0.816400924146193,0.04,0.0613260276938609,393.704708349979,0.752903611303075,0.384225252462369
11326,-0.133182959876709,-0.249999979398677,-0.13333552643857,-0.25,0.133333474798268,-0.249985718023535,0.249999994768484,-0.196925243787752,0.815786680240405,0.797647419250825,0.04,0.0396369145611087,389.196403039725,0.675863999462139,0.423120610064766
11386,-0.24980386070875,-0.249999973128709,-0.25,-0.25,0.25,-0.249984272329922,0.25,-0.25,0.78793896912738,0.778893914355457,0.04,0.0318392673950836,375.725768949637,0.58126348651494,0.474955165887674
11446,-0.249944712119411,-0.249999993730032,-0.24999720968824,-0.249999880183883,-0.1332964072916,-0.249996330210315,-0.133333333333333,-0.249997296440173,0.787952153004059,0.76014040946009,0.04,0.000234734098604658,375.911936408416,0.466454045908082,0.592150265124125
11506,-0.249987579940047,-0.25,-0.249996360462922,-0.249999843718108,-0.24995183559774,-0.25,-0.25,-0.249996473617617,0.721953702110611,0.741386904564722,0.04,4.19018639753702e-07,344.291488255937,0.543183057571444,0.465730571539041
11566,0.133336225184026,0.133333333333333,0.133333438402942,0.133333302066184,0.133344503002361,0.133333328622529,0.133333331980882,-0.0119822584868658,0.671462566350666,0.722633399669354,0.04,0.0679959999515663,319.342320761884,0.685808169506521,0.342143661847641
11626,0.249999991960917,0.25,0.249999029362118,0.249999911652708,0.249999910402391,0.249999993855473,0.249999998235933,0.0604568504659715,0.691397612897414,0.703879894773987,0.04,0.0800534113186473,329.97145993036,0.867963838440186,0.279337616288537
11686,-0.133331590388734,0.249999993238955,0.249999768825056,0.249999979385632,0.249999979093891,0.249999987603233,0.249999944106696,-0.177560068224607,0.698123914023743,0.685126389878619,0.04,0.0807049850961185,333.038548477147,0.834664348437035,0.293182009848142
11746,-0.249997724147323,0.249999991181246,0.249999993878994,0.25,0.25,0.249999985700378,0.249999927632581,-0.25,0.678109861691386,0.666372884983252,0.04,0.0907995819752785,323.335008213286,0.748287989136922,0.317496272652141
11806,-0.249999183041778,0.205562444835556,-0.133333334761568,-0.133319120896146,-0.0410419442421402,-0.133333315787498,0.24999544261743,0.133333333333333,0.66415928717177,0.647619380087884,0.04,0.0583067695629334,316.800103517186,0.668229038428028,0.348349063070428
11866,-0.249999627053134,0.192037974208607,-0.25,-0.249981462038451,-0.129619927272357,-0.249999972762069,0.249994077612819,0.25,0.664852835254781,0.660760949727258,0.04,0.0367175876190631,317.364102902515,0.597997343198431,0.389953860237666
11926,-0.249999912979065,-0.146857350430068,0.133333260492096,0.133337658857695,-0.221911266084742,0.133333339688851,0.249998618109658,0.249991983899662,0.665169917138597,0.683609715964162,0.04,0.0391215496839757,317.507657291283,0.661759051859532,0.352540478270123
11986,-0.25,-0.249999405754882,0.24999990498969,0.25,-0.249999934418946,0.25,0.25,0.249989544216951,0.696977665573192,0.706458482201067,0.04,0.032470058171788,332.739443292637,0.742592943371571,0.329236627198613
12046,-0.249999859979971,0.133329560387053,0.249996714572364,0.249997894601301,-0.249995442368865,0.249995093433489,0.249999912176845,0.24999722992413,0.713323437689206,0.729307248437971,0.04,0.0399509707738231,340.494022277399,0.821426228361488,0.304575946313748
12106,-0.24999981736518,0.249994897908511,0.249995743575786,0.249997253827784,-0.249994075223189,0.249993600130638,0.249999885448059,0.249999569052402,0.742677315202243,0.752156014674875,0.04,0.041718280065653,354.560095004085,0.898096480860081,0.290082504747181
