time,bias_percent_1,bias_percent_2,bias_percent_3,bias_percent_4,bias_percent_5,bias_percent_6,bias_percent_8,bias_percent_9,normalized_power,power_SP,SP,CV,total_power_MW,fuel_fraction,thermal_efficiency
55,0,0,0,0,0,0,0,0,0.999838042475392,1,0.04,0.0399063598158726,477.025422217799,1.00002945907389,0.350496275342325
115,0.000935483017910656,0.0046407642087338,0.0150225522453578,-0.00685682038136088,0.0126036284404499,0.0183942094462395,-0.0121049715798704,0.0222408833739916,0.970342102447375,0.956976869862083,0.04,0.0525686174086689,462.606456292158,0.93489914876955,0.363581353091089
175,0.00195600994654046,0.00970341607280693,0.0314107910584754,-0.0143369880701181,0.0263530412845771,0.0384606197512282,-0.0253103951215471,0.046503665236528,0.924390791358061,0.910042546075264,0.04,0.065193833695709,440.645149211525,0.847034565563579,0.382245636647784
235,0.00297653687517038,0.0147660679368802,0.0477990298715931,-0.0218171557588754,0.0401024541287044,0.0585270300562169,-0.038515818663224,0.0707664470990643,0.876619227926447,0.863108222288445,0.04,0.0732742973070619,417.856012560354,0.76205015285958,0.402900473135455
295,0.00399706380380019,0.0198287198009535,0.0641872686847107,-0.0292973234476327,0.0538518669728315,0.0785934403612056,-0.0517212422049008,0.0950292289616006,0.828952963256229,0.816173898501626,0.04,0.0780216056563425,395.114345354032,0.681520518147835,0.425989150962666
355,0.00501759073243011,0.0248913716650267,0.0805755074978284,-0.0367774911363899,0.0676012798169588,0.0986598506661943,-0.0649266657465775,0.119292010824137,0.781271495893358,0.769239574714807,0.04,0.080266131667396,372.365496210712,0.605449330640108,0.451904124227976
415,0.00603811766105991,0.0299540235290999,0.096963746310946,-0.0442576588251472,0.081350692661086,0.118726260971183,-0.0781320892882543,0.143554792686673,0.733172552821104,0.722305250927988,0.04,0.0802257147520041,349.746829601616,0.534991254293304,0.480354407743401
475,0.00705864458968972,0.035016675393173,0.113351985124064,-0.0517378265139046,0.0951001055052132,0.138792671276171,-0.0511099585103711,0.16781757454921,0.682665029529811,0.675370927141169,0.04,0.0819155718496429,325.568953978711,0.480562408917384,0.497791944676266
535,0.00807917151831958,0.0400793272572463,0.129740223937181,-0.0592179942026619,0.10884951834934,0.15885908158116,-0.0241423437076263,0.192080356411746,0.633938445477542,0.62843660335435,0.04,0.0839704816349992,302.362458460545,0.44330883753088,0.501159716547743
595,0.00909969844694945,0.0451419791213195,0.146128462750299,-0.0666981618914192,0.122598931193468,0.178925491886149,-0.0114037601423365,0.216343138274282,0.586662447709614,0.581502279567532,0.04,0.0885974189078612,279.791338865739,0.410396462636821,0.500939564629219
655,0.0101202253755793,0.0502046309853928,0.162516701563417,-0.0741783295801764,0.136348344037595,0.198991902191137,-0.00538648613953464,0.240605920136819,0.539803840113407,0.534567955780713,0.04,0.0959491823619,257.407706871166,0.378066920058541,0.500273550899683
715,0.0111407523042091,0.0552672828494659,0.178904940376534,-0.0816584972689337,0.150097756881722,0.219058312496126,-0.0025441301383055,0.264868701999355,0.492959132134103,0.487633631993894,0.04,0.105468360659912,235.074649299352,0.345275631788048,0.500258578299333
775,0.0121612792328389,0.0603299347135392,0.195293179189652,-0.089138664957691,0.163847169725849,0.239124722801115,-0.001201497161077,0.289131483861891,0.446194582043432,0.440699308207075,0.04,0.116573368818251,212.744887620459,0.311665447089317,0.501562608191904
835,0.0131818061614687,0.0653925865776124,0.211681418002769,-0.0966188326464483,0.177596582569976,0.259191133106103,-0.000567282912446871,0.313394265724428,0.399642712482062,0.393764984420256,0.04,0.129202478180302,190.481634191582,0.277001903083814,0.505271766896465
895,0.0142023330900985,0.0704552384416856,0.228069656815887,-0.104099000335206,0.191345995414104,0.279257543411092,-0.000267701471317764,0.337657047586964,0.352975405490079,0.346830660633437,0.04,0.143788565443803,168.26258369788,0.240464814032014,0.514151008813711
955,0.0142873770008177,0.070877126097025,0.229435343383647,-0.104722347642602,0.192491779817781,0.280929744269841,-0.000126189050595974,0.339678946075509,0.33200824427638,0.342919466984536,0.04,0.121294518864527,158.380671207438,0.287724097263415,0.404464695445428
1015,0.0142873770008177,0.070877126097025,0.229435343383647,-0.104722347642602,0.192491779817781,0.280929744269841,-5.93433861708398e-05,0.339678946075509,0.334747022624357,0.342919466984536,0.04,0.0881917601628111,159.746210083649,0.346666850891478,0.338589062098564
1075,0.0142873770008177,0.070877126097025,0.229435343383647,-0.104722347642602,0.192491779817781,0.280929744269841,-2.77678799118416e-05,0.339678946075509,0.337706500852598,0.342919466984536,0.04,0.0799012398735189,161.136271072507,0.382709049449216,0.309370752676016
1135,0.0142873770008177,0.070877126097025,0.229435343383647,-0.104722347642602,0.192491779817781,0.280929744269841,-1.28527376346841e-05,0.339678946075509,0.339570315141997,0.342919466984536,0.04,0.0794671964863593,162.022299434405,0.406432928529599,0.292914304609409
1195,0.0142873770008177,0.070877126097025,0.229435343383647,-0.104722347642602,0.192491779817781,0.280929744269841,-5.80735672065803e-06,0.339678946075509,0.34102417250618,0.342919466984536,0.04,0.0816209273796712,162.71221828681,0.420550969266474,0.284286478568219
1255,0.0142873770008177,0.070877126097025,0.229435343383647,-0.104722347642602,0.192491779817781,0.280929744269841,-2.47937021531025e-06,0.339678946075509,0.341975842814788,0.342919466984536,0.04,0.0842820732052142,163.162239514735,0.427908963923505,0.280170851275969
1315,0.0142873770008177,0.070877126097025,0.229435343383647,-0.104722347642602,0.192491779817781,0.280929744269841,-9.07348160728693e-07,0.339678946075509,0.34247798174246,0.342919466984536,0.04,0.0864536820233055,163.398861218515,0.431400842772957,0.278306091740038
1375,0.0142873770008177,0.070877126097025,0.229435343383647,-0.104722347642602,0.192491779817781,0.280929744269841,-1.64781045110967e-07,0.339678946075509,0.342698780731156,0.342919466984536,0.04,0.0878792398052442,163.502664024881,0.433080718397436,0.277402685417721
1435,0.0142873770008177,0.070877126097025,0.229435343383647,-0.104722347642602,0.192491779817781,0.280929744269841,1.85981159267649e-07,0.339678946075509,0.34278983943177,0.342919466984536,0.04,0.0886950087634397,163.545499692226,0.434007155367837,0.276883059183213
1495,0.0142873770008177,0.070877126097025,0.229435343383647,-0.104722347642602,0.192491779817781,0.280929744269841,3.51668706470971e-07,0.339678946075509,0.342833752179384,0.342919466984536,0.04,0.0891286372051237,163.566247093172,0.434598849532045,0.27654116824582
1555,0.0142873770008177,0.070877126097025,0.229435343383647,-0.104722347642602,0.192491779817781,0.280929744269841,4.29933590644811e-07,0.339678946075509,0.342861378042128,0.342919466984536,0.04,0.0893568147596939,163.579346253125,0.434998973099802,0.276308924716278
1615,0.0142873770008177,0.070877126097025,0.229435343383647,-0.104722347642602,0.192491779817781,0.280929744269841,4.66903128779308e-07,0.339678946075509,0.342880948609902,0.342919466984536,0.04,0.089481996910444,163.588630332032,0.435266873868008,0.276154532863002
1675,0.0142873770008177,0.070877126097025,0.229435343383647,-0.104722347642602,0.192491779817781,0.280929744269841,4.84366219210034e-07,0.339678946075509,0.342894553005802,0.342919466984536,0.04,0.0895548423417575,163.595078867214,0.435441592178332,0.276054608950386
1735,0.0142873770008177,0.070877126097025,0.229435343383647,-0.104722347642602,0.192491779817781,0.280929744269841,4.92615159899588e-07,0.339678946075509,0.342903519647323,0.342919466984536,0.04,0.0895990247035715,163.599325488355,0.435553681182399,0.275990730778422
1795,0.0142873770008177,0.070877126097025,0.229435343383647,-0.104722347642602,0.192491779817781,0.280929744269841,4.96511665089762e-07,0.339678946075509,0.342909186883068,0.342919466984536,0.04,0.0896261818228701,163.602008091471,0.435625642652278,0.275949664353904
1855,0.0289971276054696,0.0657315828795633,0.211135089817929,-0.103305381152703,0.168773251484947,0.279344780958854,4.98352234906586e-07,0.340379788811618,0.342155873072394,0.340953854774864,0.04,0.0897884808899895,163.229491557335,0.430296299374039,0.278731269638684
1915,0.0450441282650897,0.0601182630059688,0.191171176837145,-0.101759599527359,0.142898493303673,0.27761573007414,4.99221654575986e-07,0.341144344523737,0.340144151962874,0.338809550546132,0.04,0.0903501455496328,162.265014825948,0.422162948933977,0.282422605438693
1975,0.0610911289247099,0.0545049431323743,0.171207263856362,-0.100213817902015,0.117023735122399,0.275886679189426,4.99632337399606e-07,0.341908900235857,0.337873190716825,0.3366652463174,0.04,0.0900498608169575,161.181267736168,0.414533894196452,0.285699313828964
2035,0.0771381295843301,0.0488916232587796,0.151243350875578,-0.0986680362766707,0.0911489769411253,0.274157628304713,4.99826329308867e-07,0.342673455947976,0.33563885686445,0.334520942088668,0.04,0.089168136538042,160.115802916657,0.407569217977087,0.288660591819068
2095,0.0931851302439503,0.0432783033851851,0.131279437894794,-0.0971222546513266,0.0652742187598515,0.272428577419999,4.9991796416354e-07,0.343438011660095,0.333461606845929,0.332376637859935,0.04,0.0880451711516499,159.077358836357,0.400904932680326,0.291555775087006
2155,0.10923213090357,0.0376649835115906,0.111315524914011,-0.0955764730259824,0.0393994605785777,0.270699526535285,4.99961249198585e-07,0.344202567372214,0.331309158995087,0.330232333631203,0.04,0.0868220928504308,158.050518076691,0.394325797059184,0.294506856515922
2215,0.125279131563191,0.032051663637996,0.0913516119332273,-0.0940306914006382,0.0135247023973039,0.268970475650572,4.99981695504366e-07,0.344967123084334,0.329160730654337,0.328088029402471,0.04,0.0855184334437309,157.025487516126,0.387772943902719,0.2975413457551
2275,0.141326132222811,0.0264383437644015,0.0713876989524438,-0.0924849097752941,-0.0123500557839698,0.267241424765858,4.99991353609521e-07,0.345731678796453,0.327006821346546,0.325943725173739,0.04,0.0841128070774806,155.997790269997,0.381263235115106,0.300640990908979
2335,0.157373132882431,0.020825023890807,0.0514237859716603,-0.0909391281499499,-0.0382248139652435,0.265512373881144,4.99995915753714e-07,0.346496234508572,0.324843099665948,0.323799420945006,0.04,0.0825756988476148,154.965395838257,0.37484889006425,0.303761813544675
2395,0.173420133542051,0.0152117040172124,0.0314598729908767,-0.0893933465246057,-0.0640995721465173,0.263783322996431,4.99998070747814e-07,0.347260790220692,0.322669928978191,0.321655116716274,0.04,0.0808832751555607,153.928513966715,0.368589687349662,0.306853140825644
2455,0.189467134201671,0.00959838414361775,0.0114959600100931,-0.0878475648992616,-0.0899743303277912,0.262054272111717,4.9999908869012e-07,0.348025345932811,0.320491222186378,0.319510812487542,0.04,0.0790256567436726,152.889028329849,0.362527920217311,0.309877138778441
2515,0.205514134861292,0.00398506427002326,-0.0084679529706903,-0.0863017832739174,-0.115849088509065,0.260325221227003,4.99999569529736e-07,0.34878990164493,0.318311480865844,0.31736650825881,0.04,0.0770071458462996,151.849080386406,0.356678642122239,0.312816561411881
2575,0.221561135520912,-0.00162825560357135,-0.0284318659514739,-0.0847560016485733,-0.141723846690339,0.25859617034229,0.0103156526443604,0.349554457357049,0.315940542471985,0.315222204030077,0.04,0.0754322500649157,150.716876178021,0.351584952873021,0.314982394785759
2635,0.237608136180532,-0.00724157547716584,-0.0483957789322574,-0.0832102200232291,-0.167598604871612,0.256867119457576,0.0254272590103864,0.350319013069169,0.313688206341262,0.313077899801345,0.04,0.0738204974819348,149.65846560385,0.347575492468283,0.316378394432112
2695,0.253655136840152,-0.0128548953507604,-0.0683596919130409,-0.0816644383978849,-0.193473363052886,0.255138068572862,0.0405388653764124,0.351083568781288,0.311562743797415,0.310933595572613,0.04,0.0723656975571507,148.629456929025,0.343642137943717,0.317799459998684
2755,0.25499238689512,-0.0133226720068933,-0.0700233513281062,-0.0815356232624396,-0.195629592901326,0.254993980999136,0.0417981659069145,0.351147281757298,0.309233393103642,0.30878929134388,0.04,0.0722908690063838,147.5170716773,0.340346410090129,0.318475321645227
2815,0.25499238689512,-0.0133226720068933,-0.0700233513281062,-0.0815356232624396,-0.195629592901326,0.254993980999136,0.0417981659069145,0.351147281757298,0.306987881226762,0.306644987115148,0.04,0.0721579637352983,146.446345354296,0.338017262991817,0.318342288158934
2875,0.25499238689512,-0.0133226720068933,-0.0700233513281062,-0.0815356232624396,-0.195629592901326,0.254993980999136,0.0417981659069145,0.351147281757298,0.304795737383962,0.304500682886416,0.04,0.0720959556346448,145.40073051009,0.33605767074252,0.317912388416985
2935,0.25499238689512,-0.0133226720068933,-0.0700233513281062,-0.0815356232624396,-0.195629592901326,0.254993980999136,0.0417981659069145,0.351147281757298,0.302627323904944,0.302356378657684,0.04,0.0721419873441977,144.366315653922,0.334283850095401,0.31732563212936
2995,0.25499238689512,-0.0133226720068933,-0.0700233513281062,-0.0815356232624396,-0.195629592901326,0.254993980999136,0.0417981659069145,0.351147281757298,0.300471653226409,0.300212074428951,0.04,0.0722787393195107,143.337917369779,0.332600396718428,0.316659851286014
3055,0.25499238689512,-0.0133226720068933,-0.0700233513281063,-0.0815356232624396,-0.195629592901326,0.254993980999136,0.0417981659069145,0.351147281757298,0.298322609689012,0.298067770200219,0.04,0.0724811640708177,142.31264469436,0.330956689654732,0.315956287249387
3115,0.25499238689512,-0.0133226720068933,-0.0700233513281062,-0.0815356232624395,-0.195629592901326,0.254993980999136,0.0417981659069145,0.351147281757298,0.296176732050902,0.295923465971487,0.04,0.0727273619616462,141.28886259134,0.329327661621344,0.315234974097791
3175,0.25499238689512,-0.0133226720068933,-0.0700233513281062,-0.0815356232624396,-0.195629592901326,0.254993980999136,0.0417981659069145,0.351147281757298,0.294032173200513,0.293779161742755,0.04,0.0730011660660573,140.265699455247,0.327702225313312,0.314504430237937
3235,0.25499238689512,-0.0133226720068933,-0.0700233513281062,-0.0815356232624396,-0.195629592901326,0.254993980999136,0.0417981659069145,0.351147281757298,0.291888024142486,0.291634857514022,0.04,0.0732917832971458,139.242727114686,0.326076402207156,0.313767405240599
3295,0.254992386895121,-0.0133226720068933,-0.0700233513281062,-0.0815356232624396,-0.195629592901326,0.254993980999136,0.0417981659069145,0.351147281757298,0.289743889119035,0.28949055328529,0.04,0.0735925399991192,138.219759636687,0.324449475590094,0.313024069432595
3355,0.254992386895121,-0.0133226720068933,-0.0700233513281062,-0.0815356232624396,-0.195629592901326,0.254993980999136,0.0417981659069145,0.351147281757298,0.287599629799772,0.287346249056558,0.04,0.0738995836764516,137.196732332437,0.322821993742317,0.312273642172716
3415,0.25499238689512,-0.0133226720068933,-0.0700233513281062,-0.0815356232624396,-0.195629592901326,0.254993980999136,0.0417981659069145,0.351147281757298,0.285455224611255,0.285201944827826,0.04,0.0742108452053188,136.173635496772,0.321194823406005,0.31151514894685
3475,0.25499238689512,-0.0133226720068933,-0.0700233513281062,-0.0815356232624396,-0.195629592901326,0.254993980999136,0.0417981659069145,0.351147281757298,0.283310695747131,0.283057640599093,0.04,0.0745253066013213,135.150479971235,0.319568763490083,0.310747716831802
3535,0.25499238689512,-0.0133226720068933,-0.0700233513281062,-0.0815356232624396,-0.195629592901326,0.254993980999136,0.0417981659069145,0.351147281757298,0.281166075482897,0.280913336370361,0.04,0.0748425310116319,134.127281031146,0.317944428011665,0.309970653402257
3595,0.25499238689512,-0.0133226720068933,-0.0700233513281062,-0.0815356232624396,-0.195629592901326,0.254993980999136,0.0417981659069145,0.351147281757298,0.279021392776001,0.278769032141629,0.04,0.0751623776712373,133.104052521488,0.316322248187468,0.30918343366889
3655,0.233331770508028,-0.0266767186276325,-0.0838669342944488,-0.0712866430556361,-0.209634511731476,0.247314709581755,0.0378706987296659,0.315288785563489,0.279395024739247,0.278590340122568,0.04,0.0660836281756015,133.303978936165,0.314204788524836,0.311734586652166
3715,0.209702007176654,-0.0412447694866206,-0.0989690248031863,-0.0601059373754868,-0.22491260500073,0.238937322580976,0.0335861890817582,0.276170426079334,0.279643977768212,0.278590340122568,0.04,0.0565783070434657,133.418208700655,0.308142460406187,0.31813996999899
