time,bias_percent_1,bias_percent_2,bias_percent_3,bias_percent_4,bias_percent_5,bias_percent_6,bias_percent_8,bias_percent_9,normalized_power,power_SP,SP,CV,total_power_MW,fuel_fraction,thermal_efficiency
43,0,0,0,0,0,0,0,0,0.999751093897334,1,0.04,0.0399338398347917,476.98519229203,0.99986905743589,0.350522939045959
103,-0.0107880345989338,-0.00749851076606501,-0.000435432479310634,0.00291648972978703,0.0201554357653904,0.0197482987430545,0.00352788273045252,0.00535556907071111,0.986749931205591,0.979359132014109,0.04,0.045685040108995,470.578707055253,0.971316222300758,0.355980580001527
163,-0.0258411061323296,-0.0179615490442952,-0.0010430126829998,0.00698601028297844,0.0482792996240747,0.0473040644310378,0.00845050979620027,0.0128284561461219,0.959125639394856,0.950557920871006,0.04,0.0532297223749092,457.368567534067,0.91904780612208,0.365664574640212
223,-0.0408941776657255,-0.0284245873225253,-0.00165059288668897,0.0110555308361697,0.0764031634827592,0.0748598301190209,0.013373136861948,0.0203013432215328,0.929881866059245,0.921756709727903,0.04,0.0576417619310287,443.412832706927,0.867782720619544,0.375449850639686
283,-0.0559472491991214,-0.0388876256007557,-0.00225817309037814,0.015125051389361,0.104527027341443,0.102415595807004,0.0182957639276956,0.0277742302969436,0.90047343213648,0.8929554985848,0.04,0.0596701173252185,429.382081809359,0.819992153599546,0.384759097062295
343,-0.0710003207325174,-0.0493506638789859,-0.0028657532940673,0.0191945719425524,0.132650891200128,0.129971361494987,0.0232183909934433,0.0352471173723545,0.871086177757123,0.864154287441697,0.04,0.0601732152439989,415.361666286214,0.775774675796112,0.393410086835872
403,-0.0860533922659132,-0.059813702157216,-0.00347333349775658,0.0232640924957437,0.160774755058812,0.15752712718297,0.0281410180591911,0.0427200044477653,0.841733930597056,0.835353076298594,0.04,0.0597395545065814,401.358032488415,0.734940019576948,0.401268195319619
463,-0.101106463799309,-0.0702767404354463,-0.00408091370144575,0.027333613048935,0.188898618917496,0.185082892870953,0.0330636451249388,0.0501928915231761,0.812430658536506,0.806551865155491,0.04,0.0587815781109849,387.377905490701,0.697227126813224,0.408239710350513
523,-0.116159535332705,-0.0807397787136765,-0.00468849390513492,0.0314031336021263,0.217022482776181,0.212638658558937,0.0379862721906866,0.057665778598587,0.783188015862907,0.777750654012388,0.04,0.0576195567939787,373.426676845188,0.662285980447369,0.414299543061433
583,-0.131212606866101,-0.0912028169919067,-0.00529607410882409,0.0354726541553176,0.245146346634865,0.24019442424692,0.0429088992564342,0.0651386656739978,0.753985423582807,0.748949442869284,0.04,0.0564393701987156,359.494349586339,0.629821082974896,0.419401085909009
643,-0.146265678399497,-0.101665855270137,-0.00590365431251325,0.0395421747085089,0.273270210493549,0.267750189934903,0.0478315263221819,0.0726115527494087,0.724816162645678,0.720148231726181,0.04,0.0553042868714883,345.578035985301,0.599640286323132,0.423457671901026
703,-0.161318749932893,-0.112128893548367,-0.00651123451620254,0.0436116952617002,0.301394074352234,0.295305955622886,0.0527541533879297,0.0800844398248195,0.695634372851361,0.691347020583078,0.04,0.0545320263734672,331.653721068626,0.571587693474517,0.426340589085649
763,-0.176371821466289,-0.122591931826597,-0.00711881471989159,0.0476812158148916,0.329517938210918,0.322861721310869,0.0576767804536774,0.0875573269002304,0.666111876836222,0.662545809439975,0.04,0.0549076470390171,317.568923305163,0.547461621783561,0.426225072451455
823,-0.191424892999685,-0.133054970104828,-0.00772639492358087,0.0517507363680828,0.357641802069602,0.350417486998852,0.0625994075194251,0.0950302139756412,0.636975430090249,0.633744598296872,0.04,0.0562497672203979,303.67039802492,0.526105394240469,0.424115729986391
883,-0.20647796453308,-0.143518008383058,-0.00833397512727004,0.0558202569212742,0.385765665928287,0.377973252686835,0.0675220345851728,0.102503101051052,0.608055301241828,0.604943387153769,0.04,0.0585078357239285,289.873715235393,0.505819338863488,0.421083363665509
