time,bias_percent_1,bias_percent_2,bias_percent_3,bias_percent_4,bias_percent_5,bias_percent_6,bias_percent_8,bias_percent_9,normalized_power,power_SP,SP,CV,total_power_MW,fuel_fraction,thermal_efficiency
44,0,0,0,0,0,0,0,0,0.999759363429113,1,0.04,0.0399306678536721,476.989130639387,0.999885678514378,0.350520006442629
104,-0.00148984900052289,-0.0172818545200499,-0.011467746178412,-0.0158820009008919,0.00652247625402117,-0.0168216732691794,-0.00360918497464621,0.0174152499052537,0.989310851653843,0.981942173955871,0.04,0.0434203401018019,471.834963608223,0.971384808604482,0.356905703759371
164,-0.00352146127396315,-0.0408480197746635,-0.0271055818762464,-0.0375392748566534,0.0154167620549589,-0.039760318636242,-0.00853080084916377,0.0411633179578723,0.966045112056444,0.957317865713877,0.04,0.047896966777259,460.70430306374,0.918739486344121,0.368455091922645
224,-0.00555307354740341,-0.064414185029277,-0.0427434175740811,-0.059196548812415,0.0243110478558967,-0.0626989640033048,-0.0134524167236814,0.0649113860104909,0.941170824131821,0.932693557471883,0.04,0.0493480968717797,448.849071561136,0.866342749425824,0.380684559628107
284,-0.00758468582084356,-0.0879803502838904,-0.0583812532719156,-0.0808538227681765,0.0332053336568346,-0.0856376093703675,-0.0183740325981989,0.0886594540631095,0.915929865743784,0.908069249229889,0.04,0.048575918372679,436.811543105177,0.817312346207705,0.392699839127321
344,-0.00961629809428393,-0.111546515538504,-0.0740190889697501,-0.102511096723938,0.0420996194577725,-0.10857625473743,-0.0232956484727165,0.112407522115728,0.890714646386004,0.883444940987895,0.04,0.0464560112599081,424.747718694322,0.772152533143331,0.404187269578187
404,-0.0116479103677241,-0.135112680793117,-0.0896569246675845,-0.1241683706797,0.0509939052587105,-0.131514900104493,-0.028217264347234,0.136155590168347,0.865222444711319,0.858820632745901,0.04,0.043358249917844,412.768050876301,0.731497218387118,0.414617923138877
