%!PS-Adobe-3.0 EPSF-3.0
%%Title: machine_learning_data/forecast_1_minutes_ahead_CVmodel_CV_ff_v1.eps
%%Creator: matplotlib version 3.3.2, http://matplotlib.org/
%%CreationDate: Tue Jun  8 11:41:20 2021
%%Orientation: portrait
%%BoundingBox: 91.95106921487604 228.37681250000003 520.048930785124 563.6231875
%%EndComments
%%BeginProlog
/mpldict 8 dict def
mpldict begin
/m { moveto } bind def
/l { lineto } bind def
/r { rlineto } bind def
/c { curveto } bind def
/cl { closepath } bind def
/box {
      m
      1 index 0 r
      0 exch r
      neg 0 r
      cl
    } bind def
/clipbox {
      box
      clip
      newpath
    } bind def
%!PS-Adobe-3.0 Resource-Font
%%Title: DejaVu Sans
%%Copyright: Copyright (c) 2003 by Bitstream, Inc. All Rights Reserved. Copyright (c) 2006 by Tavmjong Bah. All Rights Reserved. DejaVu changes are in public domain 
%%Creator: Converted from TrueType to type 3 by PPR
25 dict begin
/_d{bind def}bind def
/_m{moveto}_d
/_l{lineto}_d
/_cl{closepath eofill}_d
/_c{curveto}_d
/_sc{7 -1 roll{setcachedevice}{pop pop pop pop pop pop}ifelse}_d
/_e{exec}_d
/FontName /DejaVuSans def
/PaintType 0 def
/FontMatrix[.001 0 0 .001 0 0]def
/FontBBox[-1021 -463 1793 1232]def
/FontType 3 def
/Encoding [ /space /parenleft /parenright /period /zero /one /two /four /six /eight /E /O /P /T /a /c /d /e /h /i /l /m /n /o /p /r /s /t /u /x ] def
/FontInfo 10 dict dup begin
/FamilyName (DejaVu Sans) def
/FullName (DejaVu Sans) def
/Notice (Copyright (c) 2003 by Bitstream, Inc. All Rights Reserved. Copyright (c) 2006 by Tavmjong Bah. All Rights Reserved. DejaVu changes are in public domain ) def
/Weight (Book) def
/Version (Version 2.35) def
/ItalicAngle 0.0 def
/isFixedPitch false def
/UnderlinePosition -130 def
/UnderlineThickness 90 def
end readonly def
/CharStrings 31 dict dup begin
/.notdef 0 def
/space{318 0 0 0 0 0 _sc
}_d
/parenleft{390 0 86 -131 310 759 _sc
310 759 _m
266 683 234 609 213 536 _c
191 463 181 389 181 314 _c
181 238 191 164 213 91 _c
234 17 266 -56 310 -131 _c
232 -131 _l
183 -54 146 20 122 94 _c
98 168 86 241 86 314 _c
86 386 98 459 122 533 _c
146 607 182 682 232 759 _c
310 759 _l
_cl}_d
/parenright{390 0 80 -131 304 759 _sc
80 759 _m
158 759 _l
206 682 243 607 267 533 _c
291 459 304 386 304 314 _c
304 241 291 168 267 94 _c
243 20 206 -54 158 -131 _c
80 -131 _l
123 -56 155 17 177 91 _c
198 164 209 238 209 314 _c
209 389 198 463 177 536 _c
155 609 123 683 80 759 _c
_cl}_d
/period{318 0 107 0 210 124 _sc
107 124 _m
210 124 _l
210 0 _l
107 0 _l
107 124 _l
_cl}_d
/zero{636 0 66 -13 570 742 _sc
318 664 _m
267 664 229 639 203 589 _c
177 539 165 464 165 364 _c
165 264 177 189 203 139 _c
229 89 267 64 318 64 _c
369 64 407 89 433 139 _c
458 189 471 264 471 364 _c
471 464 458 539 433 589 _c
407 639 369 664 318 664 _c
318 742 _m
399 742 461 709 505 645 _c
548 580 570 486 570 364 _c
570 241 548 147 505 83 _c
461 19 399 -13 318 -13 _c
236 -13 173 19 130 83 _c
87 147 66 241 66 364 _c
66 486 87 580 130 645 _c
173 709 236 742 318 742 _c
_cl}_d
/one{636 0 110 0 544 729 _sc
124 83 _m
285 83 _l
285 639 _l
110 604 _l
110 694 _l
284 729 _l
383 729 _l
383 83 _l
544 83 _l
544 0 _l
124 0 _l
124 83 _l
_cl}_d
/two{{636 0 73 0 536 742 _sc
192 83 _m
536 83 _l
536 0 _l
73 0 _l
73 83 _l
110 121 161 173 226 239 _c
290 304 331 346 348 365 _c
380 400 402 430 414 455 _c
426 479 433 504 433 528 _c
433 566 419 598 392 622 _c
365 646 330 659 286 659 _c
255 659 222 653 188 643 _c
154 632 117 616 78 594 _c
78 694 _l
118 710 155 722 189 730 _c
223 738 255 742 284 742 _c
}_e{359 742 419 723 464 685 _c
509 647 532 597 532 534 _c
532 504 526 475 515 449 _c
504 422 484 390 454 354 _c
446 344 420 317 376 272 _c
332 227 271 164 192 83 _c
_cl}_e}_d
/four{636 0 49 0 580 729 _sc
378 643 _m
129 254 _l
378 254 _l
378 643 _l
352 729 _m
476 729 _l
476 254 _l
580 254 _l
580 172 _l
476 172 _l
476 0 _l
378 0 _l
378 172 _l
49 172 _l
49 267 _l
352 729 _l
_cl}_d
/six{{636 0 70 -13 573 742 _sc
330 404 _m
286 404 251 388 225 358 _c
199 328 186 286 186 234 _c
186 181 199 139 225 109 _c
251 79 286 64 330 64 _c
374 64 409 79 435 109 _c
461 139 474 181 474 234 _c
474 286 461 328 435 358 _c
409 388 374 404 330 404 _c
526 713 _m
526 623 _l
501 635 476 644 451 650 _c
425 656 400 659 376 659 _c
310 659 260 637 226 593 _c
}_e{192 549 172 482 168 394 _c
187 422 211 444 240 459 _c
269 474 301 482 336 482 _c
409 482 467 459 509 415 _c
551 371 573 310 573 234 _c
573 159 550 99 506 54 _c
462 9 403 -13 330 -13 _c
246 -13 181 19 137 83 _c
92 147 70 241 70 364 _c
70 479 97 571 152 639 _c
206 707 280 742 372 742 _c
396 742 421 739 447 735 _c
472 730 498 723 526 713 _c
_cl}_e}_d
/eight{{636 0 68 -13 568 742 _sc
318 346 _m
271 346 234 333 207 308 _c
180 283 167 249 167 205 _c
167 161 180 126 207 101 _c
234 76 271 64 318 64 _c
364 64 401 76 428 102 _c
455 127 469 161 469 205 _c
469 249 455 283 429 308 _c
402 333 365 346 318 346 _c
219 388 _m
177 398 144 418 120 447 _c
96 476 85 511 85 553 _c
85 611 105 657 147 691 _c
188 725 245 742 318 742 _c
}_e{390 742 447 725 489 691 _c
530 657 551 611 551 553 _c
551 511 539 476 515 447 _c
491 418 459 398 417 388 _c
464 377 501 355 528 323 _c
554 291 568 251 568 205 _c
568 134 546 80 503 43 _c
459 5 398 -13 318 -13 _c
237 -13 175 5 132 43 _c
89 80 68 134 68 205 _c
68 251 81 291 108 323 _c
134 355 171 377 219 388 _c
183 544 _m
183 506 194 476 218 455 _c
}_e{242 434 275 424 318 424 _c
360 424 393 434 417 455 _c
441 476 453 506 453 544 _c
453 582 441 611 417 632 _c
393 653 360 664 318 664 _c
275 664 242 653 218 632 _c
194 611 183 582 183 544 _c
_cl}_e}_d
/E{632 0 98 0 568 729 _sc
98 729 _m
559 729 _l
559 646 _l
197 646 _l
197 430 _l
544 430 _l
544 347 _l
197 347 _l
197 83 _l
568 83 _l
568 0 _l
98 0 _l
98 729 _l
_cl}_d
/O{787 0 56 -13 731 742 _sc
394 662 _m
322 662 265 635 223 582 _c
181 528 160 456 160 364 _c
160 272 181 199 223 146 _c
265 92 322 66 394 66 _c
465 66 522 92 564 146 _c
606 199 627 272 627 364 _c
627 456 606 528 564 582 _c
522 635 465 662 394 662 _c
394 742 _m
496 742 577 707 639 639 _c
700 571 731 479 731 364 _c
731 248 700 157 639 89 _c
577 21 496 -13 394 -13 _c
291 -13 209 21 148 89 _c
86 157 56 248 56 364 _c
56 479 86 571 148 639 _c
209 707 291 742 394 742 _c
_cl}_d
/P{603 0 98 0 569 729 _sc
197 648 _m
197 374 _l
321 374 _l
367 374 402 385 427 409 _c
452 433 465 467 465 511 _c
465 555 452 588 427 612 _c
402 636 367 648 321 648 _c
197 648 _l
98 729 _m
321 729 _l
402 729 464 710 506 673 _c
548 636 569 582 569 511 _c
569 439 548 384 506 348 _c
464 311 402 293 321 293 _c
197 293 _l
197 0 _l
98 0 _l
98 729 _l
_cl}_d
/T{611 0 -2 0 614 729 _sc
-2 729 _m
614 729 _l
614 646 _l
355 646 _l
355 0 _l
256 0 _l
256 646 _l
-2 646 _l
-2 729 _l
_cl}_d
/a{{613 0 60 -13 522 560 _sc
343 275 _m
270 275 220 266 192 250 _c
164 233 150 205 150 165 _c
150 133 160 107 181 89 _c
202 70 231 61 267 61 _c
317 61 357 78 387 114 _c
417 149 432 196 432 255 _c
432 275 _l
343 275 _l
522 312 _m
522 0 _l
432 0 _l
432 83 _l
411 49 385 25 355 10 _c
325 -5 287 -13 243 -13 _c
187 -13 142 2 109 33 _c
76 64 60 106 60 159 _c
}_e{60 220 80 266 122 298 _c
163 329 224 345 306 345 _c
432 345 _l
432 354 _l
432 395 418 427 391 450 _c
364 472 326 484 277 484 _c
245 484 215 480 185 472 _c
155 464 127 453 100 439 _c
100 522 _l
132 534 164 544 195 550 _c
226 556 256 560 286 560 _c
365 560 424 539 463 498 _c
502 457 522 395 522 312 _c
_cl}_e}_d
/c{{550 0 55 -13 488 560 _sc
488 526 _m
488 442 _l
462 456 437 466 411 473 _c
385 480 360 484 334 484 _c
276 484 230 465 198 428 _c
166 391 150 339 150 273 _c
150 206 166 154 198 117 _c
230 80 276 62 334 62 _c
360 62 385 65 411 72 _c
437 79 462 90 488 104 _c
488 21 _l
462 9 436 0 410 -5 _c
383 -10 354 -13 324 -13 _c
242 -13 176 12 128 64 _c
}_e{79 115 55 185 55 273 _c
55 362 79 432 128 483 _c
177 534 244 560 330 560 _c
358 560 385 557 411 551 _c
437 545 463 537 488 526 _c
_cl}_e}_d
/d{{635 0 55 -13 544 760 _sc
454 464 _m
454 760 _l
544 760 _l
544 0 _l
454 0 _l
454 82 _l
435 49 411 25 382 10 _c
353 -5 319 -13 279 -13 _c
213 -13 159 13 117 65 _c
75 117 55 187 55 273 _c
55 359 75 428 117 481 _c
159 533 213 560 279 560 _c
319 560 353 552 382 536 _c
411 520 435 496 454 464 _c
148 273 _m
148 207 161 155 188 117 _c
215 79 253 61 301 61 _c
}_e{348 61 385 79 413 117 _c
440 155 454 207 454 273 _c
454 339 440 390 413 428 _c
385 466 348 485 301 485 _c
253 485 215 466 188 428 _c
161 390 148 339 148 273 _c
_cl}_e}_d
/e{{615 0 55 -13 562 560 _sc
562 296 _m
562 252 _l
149 252 _l
153 190 171 142 205 110 _c
238 78 284 62 344 62 _c
378 62 412 66 444 74 _c
476 82 509 95 541 113 _c
541 28 _l
509 14 476 3 442 -3 _c
408 -9 373 -13 339 -13 _c
251 -13 182 12 131 62 _c
80 112 55 181 55 268 _c
55 357 79 428 127 481 _c
175 533 241 560 323 560 _c
397 560 455 536 498 489 _c
}_e{540 441 562 377 562 296 _c
472 322 _m
471 371 457 410 431 440 _c
404 469 368 484 324 484 _c
274 484 234 469 204 441 _c
174 413 156 373 152 322 _c
472 322 _l
_cl}_e}_d
/h{634 0 91 0 549 760 _sc
549 330 _m
549 0 _l
459 0 _l
459 327 _l
459 379 448 417 428 443 _c
408 469 378 482 338 482 _c
289 482 251 466 223 435 _c
195 404 181 362 181 309 _c
181 0 _l
91 0 _l
91 760 _l
181 760 _l
181 462 _l
202 494 227 519 257 535 _c
286 551 320 560 358 560 _c
420 560 468 540 500 501 _c
532 462 549 405 549 330 _c
_cl}_d
/i{278 0 94 0 184 760 _sc
94 547 _m
184 547 _l
184 0 _l
94 0 _l
94 547 _l
94 760 _m
184 760 _l
184 646 _l
94 646 _l
94 760 _l
_cl}_d
/l{278 0 94 0 184 760 _sc
94 760 _m
184 760 _l
184 0 _l
94 0 _l
94 760 _l
_cl}_d
/m{{974 0 91 0 889 560 _sc
520 442 _m
542 482 569 511 600 531 _c
631 550 668 560 711 560 _c
767 560 811 540 842 500 _c
873 460 889 403 889 330 _c
889 0 _l
799 0 _l
799 327 _l
799 379 789 418 771 444 _c
752 469 724 482 686 482 _c
639 482 602 466 575 435 _c
548 404 535 362 535 309 _c
535 0 _l
445 0 _l
445 327 _l
445 379 435 418 417 444 _c
398 469 369 482 331 482 _c
}_e{285 482 248 466 221 435 _c
194 404 181 362 181 309 _c
181 0 _l
91 0 _l
91 547 _l
181 547 _l
181 462 _l
201 495 226 520 255 536 _c
283 552 317 560 357 560 _c
397 560 430 550 458 530 _c
486 510 506 480 520 442 _c
_cl}_e}_d
/n{634 0 91 0 549 560 _sc
549 330 _m
549 0 _l
459 0 _l
459 327 _l
459 379 448 417 428 443 _c
408 469 378 482 338 482 _c
289 482 251 466 223 435 _c
195 404 181 362 181 309 _c
181 0 _l
91 0 _l
91 547 _l
181 547 _l
181 462 _l
202 494 227 519 257 535 _c
286 551 320 560 358 560 _c
420 560 468 540 500 501 _c
532 462 549 405 549 330 _c
_cl}_d
/o{612 0 55 -13 557 560 _sc
306 484 _m
258 484 220 465 192 427 _c
164 389 150 338 150 273 _c
150 207 163 156 191 118 _c
219 80 257 62 306 62 _c
354 62 392 80 420 118 _c
448 156 462 207 462 273 _c
462 337 448 389 420 427 _c
392 465 354 484 306 484 _c
306 560 _m
384 560 445 534 490 484 _c
534 433 557 363 557 273 _c
557 183 534 113 490 63 _c
445 12 384 -13 306 -13 _c
227 -13 165 12 121 63 _c
77 113 55 183 55 273 _c
55 363 77 433 121 484 _c
165 534 227 560 306 560 _c
_cl}_d
/p{{635 0 91 -207 580 560 _sc
181 82 _m
181 -207 _l
91 -207 _l
91 547 _l
181 547 _l
181 464 _l
199 496 223 520 252 536 _c
281 552 316 560 356 560 _c
422 560 476 533 518 481 _c
559 428 580 359 580 273 _c
580 187 559 117 518 65 _c
476 13 422 -13 356 -13 _c
316 -13 281 -5 252 10 _c
223 25 199 49 181 82 _c
487 273 _m
487 339 473 390 446 428 _c
418 466 381 485 334 485 _c
}_e{286 485 249 466 222 428 _c
194 390 181 339 181 273 _c
181 207 194 155 222 117 _c
249 79 286 61 334 61 _c
381 61 418 79 446 117 _c
473 155 487 207 487 273 _c
_cl}_e}_d
/r{411 0 91 0 411 560 _sc
411 463 _m
401 469 390 473 378 476 _c
366 478 353 480 339 480 _c
288 480 249 463 222 430 _c
194 397 181 350 181 288 _c
181 0 _l
91 0 _l
91 547 _l
181 547 _l
181 462 _l
199 495 224 520 254 536 _c
284 552 321 560 365 560 _c
371 560 378 559 386 559 _c
393 558 401 557 411 555 _c
411 463 _l
_cl}_d
/s{{521 0 54 -13 472 560 _sc
443 531 _m
443 446 _l
417 458 391 468 364 475 _c
336 481 308 485 279 485 _c
234 485 200 478 178 464 _c
156 450 145 430 145 403 _c
145 382 153 366 169 354 _c
185 342 217 330 265 320 _c
296 313 _l
360 299 405 279 432 255 _c
458 230 472 195 472 151 _c
472 100 452 60 412 31 _c
372 1 316 -13 246 -13 _c
216 -13 186 -10 154 -5 _c
}_e{122 0 89 8 54 20 _c
54 113 _l
87 95 120 82 152 74 _c
184 65 216 61 248 61 _c
290 61 323 68 346 82 _c
368 96 380 117 380 144 _c
380 168 371 187 355 200 _c
339 213 303 226 247 238 _c
216 245 _l
160 257 119 275 95 299 _c
70 323 58 356 58 399 _c
58 450 76 490 112 518 _c
148 546 200 560 268 560 _c
301 560 332 557 362 552 _c
391 547 418 540 443 531 _c
}_e{_cl}_e}_d
/t{392 0 27 0 368 702 _sc
183 702 _m
183 547 _l
368 547 _l
368 477 _l
183 477 _l
183 180 _l
183 135 189 106 201 94 _c
213 81 238 75 276 75 _c
368 75 _l
368 0 _l
276 0 _l
206 0 158 13 132 39 _c
106 65 93 112 93 180 _c
93 477 _l
27 477 _l
27 547 _l
93 547 _l
93 702 _l
183 702 _l
_cl}_d
/u{634 0 85 -13 543 560 _sc
85 216 _m
85 547 _l
175 547 _l
175 219 _l
175 167 185 129 205 103 _c
225 77 255 64 296 64 _c
344 64 383 79 411 110 _c
439 141 453 183 453 237 _c
453 547 _l
543 547 _l
543 0 _l
453 0 _l
453 84 _l
431 50 405 26 377 10 _c
348 -5 315 -13 277 -13 _c
214 -13 166 6 134 45 _c
101 83 85 140 85 216 _c
311 560 _m
311 560 _l
_cl}_d
/x{592 0 29 0 559 547 _sc
549 547 _m
351 281 _l
559 0 _l
453 0 _l
294 215 _l
135 0 _l
29 0 _l
241 286 _l
47 547 _l
153 547 _l
298 352 _l
443 547 _l
549 547 _l
_cl}_d
end readonly def

/BuildGlyph
 {exch begin
 CharStrings exch
 2 copy known not{pop /.notdef}if
 true 3 1 roll get exec
 end}_d

/BuildChar {
 1 index /Encoding get exch get
 1 index /BuildGlyph get exec
}_d

FontName currentdict end definefont pop
end
%%EndProlog
mpldict begin
91.951 228.377 translate
428.098 335.246 0 0 clipbox
gsave
0 0 m
428.097862 0 l
428.097862 335.246375 l
0 335.246375 l
cl
1.000 setgray
fill
grestore
gsave
63.371875 45.29375 m
420.491875 45.29375 l
420.491875 311.40575 l
63.371875 311.40575 l
cl
1.000 setgray
fill
grestore
0.800 setlinewidth
1 setlinejoin
0 setlinecap
[] 0 setdash
0.000 setgray
gsave
/o {
gsave
newpath
translate
0.8 setlinewidth
1 setlinejoin
0 setlinecap
0 0 m
0 -3.5 l

gsave
0.000 setgray
fill
grestore
stroke
grestore
} bind def
79.6046 45.2938 o
grestore
/DejaVuSans findfont
14.000 scalefont
setfont
gsave
66.245227 27.653125 translate
0.000000 rotate
0.000000 0 m /one glyphshow
8.907227 0 m /zero glyphshow
17.814453 0 m /zero glyphshow
grestore
gsave
/o {
gsave
newpath
translate
0.8 setlinewidth
1 setlinejoin
0 setlinecap
0 0 m
0 -3.5 l

gsave
0.000 setgray
fill
grestore
stroke
grestore
} bind def
145.191 45.2938 o
grestore
gsave
131.832004 27.653125 translate
0.000000 rotate
0.000000 0 m /one glyphshow
8.907227 0 m /two glyphshow
17.814453 0 m /zero glyphshow
grestore
gsave
/o {
gsave
newpath
translate
0.8 setlinewidth
1 setlinejoin
0 setlinecap
0 0 m
0 -3.5 l

gsave
0.000 setgray
fill
grestore
stroke
grestore
} bind def
210.778 45.2938 o
grestore
gsave
197.418781 27.653125 translate
0.000000 rotate
0.000000 0 m /one glyphshow
8.907227 0 m /four glyphshow
17.814453 0 m /zero glyphshow
grestore
gsave
/o {
gsave
newpath
translate
0.8 setlinewidth
1 setlinejoin
0 setlinecap
0 0 m
0 -3.5 l

gsave
0.000 setgray
fill
grestore
stroke
grestore
} bind def
276.365 45.2938 o
grestore
gsave
263.005558 27.653125 translate
0.000000 rotate
0.000000 0 m /one glyphshow
8.907227 0 m /six glyphshow
17.814453 0 m /zero glyphshow
grestore
gsave
/o {
gsave
newpath
translate
0.8 setlinewidth
1 setlinejoin
0 setlinecap
0 0 m
0 -3.5 l

gsave
0.000 setgray
fill
grestore
stroke
grestore
} bind def
341.952 45.2938 o
grestore
gsave
328.592335 27.653125 translate
0.000000 rotate
0.000000 0 m /one glyphshow
8.907227 0 m /eight glyphshow
17.814453 0 m /zero glyphshow
grestore
gsave
/o {
gsave
newpath
translate
0.8 setlinewidth
1 setlinejoin
0 setlinecap
0 0 m
0 -3.5 l

gsave
0.000 setgray
fill
grestore
stroke
grestore
} bind def
407.538 45.2938 o
grestore
gsave
394.179112 27.653125 translate
0.000000 rotate
0.000000 0 m /two glyphshow
8.907227 0 m /zero glyphshow
17.814453 0 m /zero glyphshow
grestore
gsave
203.877188 10.106250 translate
0.000000 rotate
0.000000 0 m /T glyphshow
8.176758 0 m /i glyphshow
12.066406 0 m /m glyphshow
25.704102 0 m /e glyphshow
34.317383 0 m /space glyphshow
38.767578 0 m /parenleft glyphshow
44.229492 0 m /m glyphshow
57.867188 0 m /i glyphshow
61.756836 0 m /n glyphshow
70.629883 0 m /parenright glyphshow
grestore
gsave
/o {
gsave
newpath
translate
0.8 setlinewidth
1 setlinejoin
0 setlinecap
-0 0 m
-3.5 0 l

gsave
0.000 setgray
fill
grestore
stroke
grestore
} bind def
63.3719 58.7618 o
grestore
gsave
25.200000 53.441521 translate
0.000000 rotate
0.000000 0 m /zero glyphshow
8.907227 0 m /period glyphshow
13.357422 0 m /zero glyphshow
22.264648 0 m /zero glyphshow
grestore
gsave
/o {
gsave
newpath
translate
0.8 setlinewidth
1 setlinejoin
0 setlinecap
-0 0 m
-3.5 0 l

gsave
0.000 setgray
fill
grestore
stroke
grestore
} bind def
63.3719 114.493 o
grestore
gsave
25.200000 109.172789 translate
0.000000 rotate
0.000000 0 m /zero glyphshow
8.907227 0 m /period glyphshow
13.357422 0 m /zero glyphshow
22.264648 0 m /two glyphshow
grestore
gsave
/o {
gsave
newpath
translate
0.8 setlinewidth
1 setlinejoin
0 setlinecap
-0 0 m
-3.5 0 l

gsave
0.000 setgray
fill
grestore
stroke
grestore
} bind def
63.3719 170.224 o
grestore
gsave
25.200000 164.904058 translate
0.000000 rotate
0.000000 0 m /zero glyphshow
8.907227 0 m /period glyphshow
13.357422 0 m /zero glyphshow
22.264648 0 m /four glyphshow
grestore
gsave
/o {
gsave
newpath
translate
0.8 setlinewidth
1 setlinejoin
0 setlinecap
-0 0 m
-3.5 0 l

gsave
0.000 setgray
fill
grestore
stroke
grestore
} bind def
63.3719 225.956 o
grestore
gsave
25.200000 220.635326 translate
0.000000 rotate
0.000000 0 m /zero glyphshow
8.907227 0 m /period glyphshow
13.357422 0 m /zero glyphshow
22.264648 0 m /six glyphshow
grestore
gsave
/o {
gsave
newpath
translate
0.8 setlinewidth
1 setlinejoin
0 setlinecap
-0 0 m
-3.5 0 l

gsave
0.000 setgray
fill
grestore
stroke
grestore
} bind def
63.3719 281.687 o
grestore
gsave
25.200000 276.366595 translate
0.000000 rotate
0.000000 0 m /zero glyphshow
8.907227 0 m /period glyphshow
13.357422 0 m /zero glyphshow
22.264648 0 m /eight glyphshow
grestore
gsave
18.200000 142.849750 translate
90.000000 rotate
/DejaVuSans findfont
14.0 scalefont
setfont
0.000000 0.609375 moveto
/E glyphshow
8.845703 0.609375 moveto
/x glyphshow
17.130859 0.609375 moveto
/c glyphshow
24.828125 0.609375 moveto
/e glyphshow
33.441406 0.609375 moveto
/s glyphshow
40.735352 0.609375 moveto
/s glyphshow
48.029297 0.609375 moveto
/space glyphshow
52.479492 0.609375 moveto
/O glyphshow
/DejaVuSans findfont
9.799999999999999 scalefont
setfont
63.633008 -1.687500 moveto
/two glyphshow

grestore
1.000 setlinewidth
2 setlinecap
0.000 0.000 1.000 setrgbcolor
gsave
357.1 266.1 63.37 45.29 clipbox
79.604602 198.532869 m
82.883941 252.785454 l
86.16328 245.830354 l
89.442619 215.090454 l
92.721958 218.748192 l
96.001296 299.30975 l
99.280635 283.646814 l
102.559974 232.940499 l
105.839313 237.314156 l
109.118652 287.990096 l
112.397991 277.484553 l
115.67733 288.428714 l
118.956668 280.0416 l
122.236007 181.331034 l
125.515346 179.453191 l
128.794685 89.695988 l
132.074024 76.306643 l
135.353363 130.173757 l
138.632701 119.674481 l
141.91204 183.574184 l
145.191379 202.178171 l
148.470718 236.18252 l
151.750057 231.283682 l
155.029396 166.441588 l
158.308735 172.062983 l
161.588073 144.134422 l
164.867412 140.135118 l
168.146751 138.260969 l
171.42609 134.25477 l
174.705429 60.819889 l
177.984768 61.18231 l
181.264106 59.874816 l
184.543445 57.38975 l
187.822784 197.121176 l
191.102123 200.961751 l
194.381462 220.115633 l
197.660801 227.21616 l
200.940139 202.223183 l
204.219478 225.082797 l
207.498817 212.894819 l
210.778156 201.891789 l
214.057495 240.858275 l
217.336834 225.759158 l
220.616173 214.05409 l
223.895511 212.711108 l
227.17485 233.574319 l
230.454189 229.019965 l
233.733528 183.400063 l
237.012867 184.614178 l
240.292206 139.357482 l
243.571544 127.213704 l
246.850883 157.235083 l
250.130222 166.838098 l
253.409561 206.35609 l
256.6889 211.702493 l
259.968239 219.15174 l
263.247577 214.284017 l
266.526916 230.358729 l
269.806255 227.95167 l
273.085594 255.750105 l
276.364933 252.728864 l
279.644272 254.686348 l
282.923611 234.691758 l
286.202949 95.88 l
289.482288 107.273154 l
292.761627 84.796392 l
296.040966 85.149377 l
299.320305 114.713093 l
302.599644 119.306929 l
305.878982 167.023579 l
309.158321 183.159356 l
312.43766 108.40856 l
315.716999 123.314824 l
318.996338 282.848864 l
322.275677 255.186109 l
325.555015 248.145725 l
328.834354 263.388036 l
332.113693 159.675698 l
335.393032 153.138668 l
338.672371 287.870044 l
341.95171 257.892065 l
345.231049 187.168057 l
348.510387 182.683837 l
351.789726 108.858088 l
355.069065 106.657232 l
358.348404 119.970938 l
361.627743 110.890256 l
364.907082 82.02641 l
368.18642 88.535471 l
371.465759 151.77823 l
374.745098 156.667473 l
378.024437 193.873943 l
381.303776 208.331244 l
384.583115 201.38769 l
387.862454 211.089161 l
391.141792 230.848758 l
394.421131 215.523567 l
397.70047 189.251767 l
400.979809 189.481667 l
404.259148 177.95436 l
stroke
grestore
0 setlinecap
gsave
357.1 266.1 63.37 45.29 clipbox
/o {
gsave
newpath
translate
1.0 setlinewidth
1 setlinejoin
0 setlinecap
0 -0.5 m
0.132602 -0.5 0.25979 -0.447317 0.353553 -0.353553 c
0.447317 -0.25979 0.5 -0.132602 0.5 0 c
0.5 0.132602 0.447317 0.25979 0.353553 0.353553 c
0.25979 0.447317 0.132602 0.5 0 0.5 c
-0.132602 0.5 -0.25979 0.447317 -0.353553 0.353553 c
-0.447317 0.25979 -0.5 0.132602 -0.5 0 c
-0.5 -0.132602 -0.447317 -0.25979 -0.353553 -0.353553 c
-0.25979 -0.447317 -0.132602 -0.5 0 -0.5 c
cl

gsave
0.000 0.000 1.000 setrgbcolor
fill
grestore
stroke
grestore
} bind def
79.6046 198.533 o
82.8839 252.785 o
86.1633 245.83 o
89.4426 215.09 o
92.722 218.748 o
96.0013 299.31 o
99.2806 283.647 o
102.56 232.94 o
105.839 237.314 o
109.119 287.99 o
112.398 277.485 o
115.677 288.429 o
118.957 280.042 o
122.236 181.331 o
125.515 179.453 o
128.795 89.696 o
132.074 76.3066 o
135.353 130.174 o
138.633 119.674 o
141.912 183.574 o
145.191 202.178 o
148.471 236.183 o
151.75 231.284 o
155.029 166.442 o
158.309 172.063 o
161.588 144.134 o
164.867 140.135 o
168.147 138.261 o
171.426 134.255 o
174.705 60.8199 o
177.985 61.1823 o
181.264 59.8748 o
184.543 57.3897 o
187.823 197.121 o
191.102 200.962 o
194.381 220.116 o
197.661 227.216 o
200.94 202.223 o
204.219 225.083 o
207.499 212.895 o
210.778 201.892 o
214.057 240.858 o
217.337 225.759 o
220.616 214.054 o
223.896 212.711 o
227.175 233.574 o
230.454 229.02 o
233.734 183.4 o
237.013 184.614 o
240.292 139.357 o
243.572 127.214 o
246.851 157.235 o
250.13 166.838 o
253.41 206.356 o
256.689 211.702 o
259.968 219.152 o
263.248 214.284 o
266.527 230.359 o
269.806 227.952 o
273.086 255.75 o
276.365 252.729 o
279.644 254.686 o
282.924 234.692 o
286.203 95.88 o
289.482 107.273 o
292.762 84.7964 o
296.041 85.1494 o
299.32 114.713 o
302.6 119.307 o
305.879 167.024 o
309.158 183.159 o
312.438 108.409 o
315.717 123.315 o
318.996 282.849 o
322.276 255.186 o
325.555 248.146 o
328.834 263.388 o
332.114 159.676 o
335.393 153.139 o
338.672 287.87 o
341.952 257.892 o
345.231 187.168 o
348.51 182.684 o
351.79 108.858 o
355.069 106.657 o
358.348 119.971 o
361.628 110.89 o
364.907 82.0264 o
368.186 88.5355 o
371.466 151.778 o
374.745 156.667 o
378.024 193.874 o
381.304 208.331 o
384.583 201.388 o
387.862 211.089 o
391.142 230.849 o
394.421 215.524 o
397.7 189.252 o
400.98 189.482 o
404.259 177.954 o
grestore
0.000 0.500 0.000 setrgbcolor
gsave
357.1 266.1 63.37 45.29 clipbox
/o {
gsave
newpath
translate
1.0 setlinewidth
1 setlinejoin
0 setlinecap
0 -1 m
0.265203 -1 0.51958 -0.894634 0.707107 -0.707107 c
0.894634 -0.51958 1 -0.265203 1 0 c
1 0.265203 0.894634 0.51958 0.707107 0.707107 c
0.51958 0.894634 0.265203 1 0 1 c
-0.265203 1 -0.51958 0.894634 -0.707107 0.707107 c
-0.894634 0.51958 -1 0.265203 -1 0 c
-1 -0.265203 -0.894634 -0.51958 -0.707107 -0.707107 c
-0.51958 -0.894634 -0.265203 -1 0 -1 c
cl

gsave
0.000 0.500 0.000 setrgbcolor
fill
grestore
stroke
grestore
} bind def
79.6046 149.493 o
82.8839 182.3 o
86.1633 182.064 o
89.4426 164.554 o
92.722 164.485 o
96.0013 223.119 o
99.2806 225.459 o
102.56 172.613 o
105.839 172.805 o
109.119 233.085 o
112.398 234.712 o
115.677 250.274 o
118.957 252.844 o
122.236 171.139 o
125.515 170.985 o
128.795 137.891 o
132.074 136.718 o
135.353 176.984 o
138.633 175 o
141.912 199.415 o
145.191 199.179 o
148.471 237.69 o
151.75 239.029 o
155.029 168.29 o
158.309 169.092 o
161.588 141.672 o
164.867 140.958 o
168.147 150.152 o
171.426 150.018 o
174.705 99.2148 o
177.985 96.1717 o
181.264 73.6999 o
184.543 73.422 o
187.823 215.654 o
191.102 214.729 o
194.381 227.734 o
197.661 225.46 o
200.94 159.176 o
204.219 159.175 o
207.499 144.664 o
210.778 144.864 o
214.057 185.434 o
217.337 185.449 o
220.616 186.943 o
223.896 187.129 o
227.175 218.579 o
230.454 219.101 o
233.734 180.849 o
237.013 183.283 o
240.292 149.998 o
243.572 149.328 o
246.851 161.497 o
250.13 161.518 o
253.41 187.344 o
256.689 188.644 o
259.968 191.711 o
263.248 194.735 o
266.527 220.801 o
269.806 223.775 o
273.086 220.454 o
276.365 221.917 o
279.644 213.531 o
282.924 213.376 o
286.203 125.108 o
289.482 125.084 o
292.762 106.577 o
296.041 106.461 o
299.32 149.81 o
302.6 149.855 o
305.879 182.879 o
309.158 182.942 o
312.438 117.589 o
315.717 117.12 o
318.996 225.773 o
322.276 226.42 o
325.555 225.348 o
328.834 225.519 o
332.114 141.221 o
335.393 142.773 o
338.672 254.51 o
341.952 255.174 o
345.231 193.981 o
348.51 192.789 o
351.79 146.968 o
355.069 145.943 o
358.348 141.409 o
361.628 141.838 o
364.907 102.765 o
368.186 102.985 o
371.466 183.562 o
374.745 182.18 o
378.024 198.311 o
381.304 197.158 o
384.583 181.428 o
387.862 181.026 o
391.142 194.429 o
394.421 193.218 o
397.7 171.429 o
400.98 170.413 o
404.259 175.035 o
grestore
0.800 setlinewidth
0 setlinejoin
2 setlinecap
0.000 setgray
gsave
63.371875 45.29375 m
63.371875 311.40575 l
stroke
grestore
gsave
420.491875 45.29375 m
420.491875 311.40575 l
stroke
grestore
gsave
63.371875 45.29375 m
420.491875 45.29375 l
stroke
grestore
gsave
63.371875 311.40575 m
420.491875 311.40575 l
stroke
grestore
gsave
140.431875 317.405750 translate
0.000000 rotate
0.000000 0 m /P glyphshow
8.192383 0 m /r glyphshow
13.698242 0 m /e glyphshow
22.311523 0 m /d glyphshow
31.198242 0 m /i glyphshow
35.087891 0 m /c glyphshow
42.785156 0 m /t glyphshow
48.274414 0 m /i glyphshow
52.164062 0 m /o glyphshow
60.729492 0 m /n glyphshow
69.602539 0 m /space glyphshow
74.052734 0 m /one glyphshow
82.959961 0 m /space glyphshow
87.410156 0 m /m glyphshow
101.047852 0 m /i glyphshow
104.937500 0 m /n glyphshow
113.810547 0 m /u glyphshow
122.683594 0 m /t glyphshow
128.172852 0 m /e glyphshow
136.786133 0 m /parenleft glyphshow
142.248047 0 m /s glyphshow
149.541992 0 m /parenright glyphshow
155.003906 0 m /space glyphshow
159.454102 0 m /a glyphshow
168.033203 0 m /h glyphshow
176.906250 0 m /e glyphshow
185.519531 0 m /a glyphshow
194.098633 0 m /d glyphshow
grestore
1.000 setlinewidth
0 setlinecap
0.800 setgray
gsave
186.2975 259.112 m
297.56625 259.112 l
299.432917 259.112 300.36625 260.045333 300.36625 261.912 c
300.36625 301.60575 l
300.36625 303.472417 299.432917 304.40575 297.56625 304.40575 c
186.2975 304.40575 l
184.430833 304.40575 183.4975 303.472417 183.4975 301.60575 c
183.4975 261.912 l
183.4975 260.045333 184.430833 259.112 186.2975 259.112 c
cl
gsave
1.000 setgray
fill
grestore
stroke
grestore
1 setlinejoin
2 setlinecap
0.000 0.000 1.000 setrgbcolor
gsave
189.0975 293.065125 m
217.0975 293.065125 l
stroke
grestore
0 setlinecap
gsave
/o {
gsave
newpath
translate
1.0 setlinewidth
1 setlinejoin
0 setlinecap
0 -0.5 m
0.132602 -0.5 0.25979 -0.447317 0.353553 -0.353553 c
0.447317 -0.25979 0.5 -0.132602 0.5 0 c
0.5 0.132602 0.447317 0.25979 0.353553 0.353553 c
0.25979 0.447317 0.132602 0.5 0 0.5 c
-0.132602 0.5 -0.25979 0.447317 -0.353553 0.353553 c
-0.447317 0.25979 -0.5 0.132602 -0.5 0 c
-0.5 -0.132602 -0.447317 -0.25979 -0.353553 -0.353553 c
-0.25979 -0.447317 -0.132602 -0.5 0 -0.5 c
cl

gsave
0.000 0.000 1.000 setrgbcolor
fill
grestore
stroke
grestore
} bind def
203.098 293.065 o
grestore
0.000 setgray
gsave
228.297500 288.165125 translate
0.000000 rotate
0.000000 0 m /a glyphshow
8.579102 0 m /c glyphshow
16.276367 0 m /t glyphshow
21.765625 0 m /u glyphshow
30.638672 0 m /a glyphshow
39.217773 0 m /l glyphshow
grestore
0.000 0.500 0.000 setrgbcolor
gsave
/o {
gsave
newpath
translate
1.0 setlinewidth
1 setlinejoin
0 setlinecap
0 -1 m
0.265203 -1 0.51958 -0.894634 0.707107 -0.707107 c
0.894634 -0.51958 1 -0.265203 1 0 c
1 0.265203 0.894634 0.51958 0.707107 0.707107 c
0.51958 0.894634 0.265203 1 0 1 c
-0.265203 1 -0.51958 0.894634 -0.707107 0.707107 c
-0.894634 0.51958 -1 0.265203 -1 0 c
-1 -0.265203 -0.894634 -0.51958 -0.707107 -0.707107 c
-0.51958 -0.894634 -0.265203 -1 0 -1 c
cl

gsave
0.000 0.500 0.000 setrgbcolor
fill
grestore
stroke
grestore
} bind def
203.098 272.518 o
grestore
0.000 setgray
gsave
228.297500 267.618250 translate
0.000000 rotate
0.000000 0 m /p glyphshow
8.886719 0 m /r glyphshow
14.392578 0 m /e glyphshow
23.005859 0 m /d glyphshow
31.892578 0 m /i glyphshow
35.782227 0 m /c glyphshow
43.479492 0 m /t glyphshow
48.968750 0 m /e glyphshow
57.582031 0 m /d glyphshow
grestore

end
showpage
