%!PS-Adobe-3.0 EPSF-3.0
%%Title: machine_learning_data/forecast_5_minutes_ahead_fuel_fractionmodel_fuel_10_v7.eps
%%Creator: matplotlib version 3.3.2, http://matplotlib.org/
%%CreationDate: Tue Jun  8 10:42:58 2021
%%Orientation: portrait
%%BoundingBox: 95.56031250000002 230.29868750000006 516.4396875 561.7013125
%%EndComments
%%BeginProlog
/mpldict 8 dict def
mpldict begin
/m { moveto } bind def
/l { lineto } bind def
/r { rlineto } bind def
/c { curveto } bind def
/cl { closepath } bind def
/box {
      m
      1 index 0 r
      0 exch r
      neg 0 r
      cl
    } bind def
/clipbox {
      box
      clip
      newpath
    } bind def
%!PS-Adobe-3.0 Resource-Font
%%Title: DejaVu Sans
%%Copyright: Copyright (c) 2003 by Bitstream, Inc. All Rights Reserved. Copyright (c) 2006 by Tavmjong Bah. All Rights Reserved. DejaVu changes are in public domain 
%%Creator: Converted from TrueType to type 3 by PPR
25 dict begin
/_d{bind def}bind def
/_m{moveto}_d
/_l{lineto}_d
/_cl{closepath eofill}_d
/_c{curveto}_d
/_sc{7 -1 roll{setcachedevice}{pop pop pop pop pop pop}ifelse}_d
/_e{exec}_d
/FontName /DejaVuSans def
/PaintType 0 def
/FontMatrix[.001 0 0 .001 0 0]def
/FontBBox[-1021 -463 1793 1232]def
/FontType 3 def
/Encoding [ /space /parenleft /parenright /period /zero /one /two /four /five /six /seven /eight /nine /F /P /T /a /c /d /e /h /i /l /m /n /o /p /r /s /t /u ] def
/FontInfo 10 dict dup begin
/FamilyName (DejaVu Sans) def
/FullName (DejaVu Sans) def
/Notice (Copyright (c) 2003 by Bitstream, Inc. All Rights Reserved. Copyright (c) 2006 by Tavmjong Bah. All Rights Reserved. DejaVu changes are in public domain ) def
/Weight (Book) def
/Version (Version 2.35) def
/ItalicAngle 0.0 def
/isFixedPitch false def
/UnderlinePosition -130 def
/UnderlineThickness 90 def
end readonly def
/CharStrings 32 dict dup begin
/.notdef 0 def
/space{318 0 0 0 0 0 _sc
}_d
/parenleft{390 0 86 -131 310 759 _sc
310 759 _m
266 683 234 609 213 536 _c
191 463 181 389 181 314 _c
181 238 191 164 213 91 _c
234 17 266 -56 310 -131 _c
232 -131 _l
183 -54 146 20 122 94 _c
98 168 86 241 86 314 _c
86 386 98 459 122 533 _c
146 607 182 682 232 759 _c
310 759 _l
_cl}_d
/parenright{390 0 80 -131 304 759 _sc
80 759 _m
158 759 _l
206 682 243 607 267 533 _c
291 459 304 386 304 314 _c
304 241 291 168 267 94 _c
243 20 206 -54 158 -131 _c
80 -131 _l
123 -56 155 17 177 91 _c
198 164 209 238 209 314 _c
209 389 198 463 177 536 _c
155 609 123 683 80 759 _c
_cl}_d
/period{318 0 107 0 210 124 _sc
107 124 _m
210 124 _l
210 0 _l
107 0 _l
107 124 _l
_cl}_d
/zero{636 0 66 -13 570 742 _sc
318 664 _m
267 664 229 639 203 589 _c
177 539 165 464 165 364 _c
165 264 177 189 203 139 _c
229 89 267 64 318 64 _c
369 64 407 89 433 139 _c
458 189 471 264 471 364 _c
471 464 458 539 433 589 _c
407 639 369 664 318 664 _c
318 742 _m
399 742 461 709 505 645 _c
548 580 570 486 570 364 _c
570 241 548 147 505 83 _c
461 19 399 -13 318 -13 _c
236 -13 173 19 130 83 _c
87 147 66 241 66 364 _c
66 486 87 580 130 645 _c
173 709 236 742 318 742 _c
_cl}_d
/one{636 0 110 0 544 729 _sc
124 83 _m
285 83 _l
285 639 _l
110 604 _l
110 694 _l
284 729 _l
383 729 _l
383 83 _l
544 83 _l
544 0 _l
124 0 _l
124 83 _l
_cl}_d
/two{{636 0 73 0 536 742 _sc
192 83 _m
536 83 _l
536 0 _l
73 0 _l
73 83 _l
110 121 161 173 226 239 _c
290 304 331 346 348 365 _c
380 400 402 430 414 455 _c
426 479 433 504 433 528 _c
433 566 419 598 392 622 _c
365 646 330 659 286 659 _c
255 659 222 653 188 643 _c
154 632 117 616 78 594 _c
78 694 _l
118 710 155 722 189 730 _c
223 738 255 742 284 742 _c
}_e{359 742 419 723 464 685 _c
509 647 532 597 532 534 _c
532 504 526 475 515 449 _c
504 422 484 390 454 354 _c
446 344 420 317 376 272 _c
332 227 271 164 192 83 _c
_cl}_e}_d
/four{636 0 49 0 580 729 _sc
378 643 _m
129 254 _l
378 254 _l
378 643 _l
352 729 _m
476 729 _l
476 254 _l
580 254 _l
580 172 _l
476 172 _l
476 0 _l
378 0 _l
378 172 _l
49 172 _l
49 267 _l
352 729 _l
_cl}_d
/five{{636 0 77 -13 549 729 _sc
108 729 _m
495 729 _l
495 646 _l
198 646 _l
198 467 _l
212 472 227 476 241 478 _c
255 480 270 482 284 482 _c
365 482 429 459 477 415 _c
525 370 549 310 549 234 _c
549 155 524 94 475 51 _c
426 8 357 -13 269 -13 _c
238 -13 207 -10 175 -6 _c
143 -1 111 6 77 17 _c
77 116 _l
106 100 136 88 168 80 _c
199 72 232 69 267 69 _c
}_e{323 69 368 83 401 113 _c
433 143 450 183 450 234 _c
450 284 433 324 401 354 _c
368 384 323 399 267 399 _c
241 399 214 396 188 390 _c
162 384 135 375 108 363 _c
108 729 _l
_cl}_e}_d
/six{{636 0 70 -13 573 742 _sc
330 404 _m
286 404 251 388 225 358 _c
199 328 186 286 186 234 _c
186 181 199 139 225 109 _c
251 79 286 64 330 64 _c
374 64 409 79 435 109 _c
461 139 474 181 474 234 _c
474 286 461 328 435 358 _c
409 388 374 404 330 404 _c
526 713 _m
526 623 _l
501 635 476 644 451 650 _c
425 656 400 659 376 659 _c
310 659 260 637 226 593 _c
}_e{192 549 172 482 168 394 _c
187 422 211 444 240 459 _c
269 474 301 482 336 482 _c
409 482 467 459 509 415 _c
551 371 573 310 573 234 _c
573 159 550 99 506 54 _c
462 9 403 -13 330 -13 _c
246 -13 181 19 137 83 _c
92 147 70 241 70 364 _c
70 479 97 571 152 639 _c
206 707 280 742 372 742 _c
396 742 421 739 447 735 _c
472 730 498 723 526 713 _c
_cl}_e}_d
/seven{636 0 82 0 551 729 _sc
82 729 _m
551 729 _l
551 687 _l
286 0 _l
183 0 _l
432 646 _l
82 646 _l
82 729 _l
_cl}_d
/eight{{636 0 68 -13 568 742 _sc
318 346 _m
271 346 234 333 207 308 _c
180 283 167 249 167 205 _c
167 161 180 126 207 101 _c
234 76 271 64 318 64 _c
364 64 401 76 428 102 _c
455 127 469 161 469 205 _c
469 249 455 283 429 308 _c
402 333 365 346 318 346 _c
219 388 _m
177 398 144 418 120 447 _c
96 476 85 511 85 553 _c
85 611 105 657 147 691 _c
188 725 245 742 318 742 _c
}_e{390 742 447 725 489 691 _c
530 657 551 611 551 553 _c
551 511 539 476 515 447 _c
491 418 459 398 417 388 _c
464 377 501 355 528 323 _c
554 291 568 251 568 205 _c
568 134 546 80 503 43 _c
459 5 398 -13 318 -13 _c
237 -13 175 5 132 43 _c
89 80 68 134 68 205 _c
68 251 81 291 108 323 _c
134 355 171 377 219 388 _c
183 544 _m
183 506 194 476 218 455 _c
}_e{242 434 275 424 318 424 _c
360 424 393 434 417 455 _c
441 476 453 506 453 544 _c
453 582 441 611 417 632 _c
393 653 360 664 318 664 _c
275 664 242 653 218 632 _c
194 611 183 582 183 544 _c
_cl}_e}_d
/nine{{636 0 63 -13 566 742 _sc
110 15 _m
110 105 _l
134 93 159 84 185 78 _c
210 72 235 69 260 69 _c
324 69 374 90 408 134 _c
442 178 462 244 468 334 _c
448 306 424 284 396 269 _c
367 254 335 247 300 247 _c
226 247 168 269 126 313 _c
84 357 63 417 63 494 _c
63 568 85 628 129 674 _c
173 719 232 742 306 742 _c
390 742 455 709 499 645 _c
543 580 566 486 566 364 _c
}_e{566 248 538 157 484 89 _c
429 21 356 -13 264 -13 _c
239 -13 214 -10 189 -6 _c
163 -2 137 5 110 15 _c
306 324 _m
350 324 385 339 411 369 _c
437 399 450 441 450 494 _c
450 546 437 588 411 618 _c
385 648 350 664 306 664 _c
262 664 227 648 201 618 _c
175 588 162 546 162 494 _c
162 441 175 399 201 369 _c
227 339 262 324 306 324 _c
_cl}_e}_d
/F{575 0 98 0 517 729 _sc
98 729 _m
517 729 _l
517 646 _l
197 646 _l
197 431 _l
486 431 _l
486 348 _l
197 348 _l
197 0 _l
98 0 _l
98 729 _l
_cl}_d
/P{603 0 98 0 569 729 _sc
197 648 _m
197 374 _l
321 374 _l
367 374 402 385 427 409 _c
452 433 465 467 465 511 _c
465 555 452 588 427 612 _c
402 636 367 648 321 648 _c
197 648 _l
98 729 _m
321 729 _l
402 729 464 710 506 673 _c
548 636 569 582 569 511 _c
569 439 548 384 506 348 _c
464 311 402 293 321 293 _c
197 293 _l
197 0 _l
98 0 _l
98 729 _l
_cl}_d
/T{611 0 -2 0 614 729 _sc
-2 729 _m
614 729 _l
614 646 _l
355 646 _l
355 0 _l
256 0 _l
256 646 _l
-2 646 _l
-2 729 _l
_cl}_d
/a{{613 0 60 -13 522 560 _sc
343 275 _m
270 275 220 266 192 250 _c
164 233 150 205 150 165 _c
150 133 160 107 181 89 _c
202 70 231 61 267 61 _c
317 61 357 78 387 114 _c
417 149 432 196 432 255 _c
432 275 _l
343 275 _l
522 312 _m
522 0 _l
432 0 _l
432 83 _l
411 49 385 25 355 10 _c
325 -5 287 -13 243 -13 _c
187 -13 142 2 109 33 _c
76 64 60 106 60 159 _c
}_e{60 220 80 266 122 298 _c
163 329 224 345 306 345 _c
432 345 _l
432 354 _l
432 395 418 427 391 450 _c
364 472 326 484 277 484 _c
245 484 215 480 185 472 _c
155 464 127 453 100 439 _c
100 522 _l
132 534 164 544 195 550 _c
226 556 256 560 286 560 _c
365 560 424 539 463 498 _c
502 457 522 395 522 312 _c
_cl}_e}_d
/c{{550 0 55 -13 488 560 _sc
488 526 _m
488 442 _l
462 456 437 466 411 473 _c
385 480 360 484 334 484 _c
276 484 230 465 198 428 _c
166 391 150 339 150 273 _c
150 206 166 154 198 117 _c
230 80 276 62 334 62 _c
360 62 385 65 411 72 _c
437 79 462 90 488 104 _c
488 21 _l
462 9 436 0 410 -5 _c
383 -10 354 -13 324 -13 _c
242 -13 176 12 128 64 _c
}_e{79 115 55 185 55 273 _c
55 362 79 432 128 483 _c
177 534 244 560 330 560 _c
358 560 385 557 411 551 _c
437 545 463 537 488 526 _c
_cl}_e}_d
/d{{635 0 55 -13 544 760 _sc
454 464 _m
454 760 _l
544 760 _l
544 0 _l
454 0 _l
454 82 _l
435 49 411 25 382 10 _c
353 -5 319 -13 279 -13 _c
213 -13 159 13 117 65 _c
75 117 55 187 55 273 _c
55 359 75 428 117 481 _c
159 533 213 560 279 560 _c
319 560 353 552 382 536 _c
411 520 435 496 454 464 _c
148 273 _m
148 207 161 155 188 117 _c
215 79 253 61 301 61 _c
}_e{348 61 385 79 413 117 _c
440 155 454 207 454 273 _c
454 339 440 390 413 428 _c
385 466 348 485 301 485 _c
253 485 215 466 188 428 _c
161 390 148 339 148 273 _c
_cl}_e}_d
/e{{615 0 55 -13 562 560 _sc
562 296 _m
562 252 _l
149 252 _l
153 190 171 142 205 110 _c
238 78 284 62 344 62 _c
378 62 412 66 444 74 _c
476 82 509 95 541 113 _c
541 28 _l
509 14 476 3 442 -3 _c
408 -9 373 -13 339 -13 _c
251 -13 182 12 131 62 _c
80 112 55 181 55 268 _c
55 357 79 428 127 481 _c
175 533 241 560 323 560 _c
397 560 455 536 498 489 _c
}_e{540 441 562 377 562 296 _c
472 322 _m
471 371 457 410 431 440 _c
404 469 368 484 324 484 _c
274 484 234 469 204 441 _c
174 413 156 373 152 322 _c
472 322 _l
_cl}_e}_d
/h{634 0 91 0 549 760 _sc
549 330 _m
549 0 _l
459 0 _l
459 327 _l
459 379 448 417 428 443 _c
408 469 378 482 338 482 _c
289 482 251 466 223 435 _c
195 404 181 362 181 309 _c
181 0 _l
91 0 _l
91 760 _l
181 760 _l
181 462 _l
202 494 227 519 257 535 _c
286 551 320 560 358 560 _c
420 560 468 540 500 501 _c
532 462 549 405 549 330 _c
_cl}_d
/i{278 0 94 0 184 760 _sc
94 547 _m
184 547 _l
184 0 _l
94 0 _l
94 547 _l
94 760 _m
184 760 _l
184 646 _l
94 646 _l
94 760 _l
_cl}_d
/l{278 0 94 0 184 760 _sc
94 760 _m
184 760 _l
184 0 _l
94 0 _l
94 760 _l
_cl}_d
/m{{974 0 91 0 889 560 _sc
520 442 _m
542 482 569 511 600 531 _c
631 550 668 560 711 560 _c
767 560 811 540 842 500 _c
873 460 889 403 889 330 _c
889 0 _l
799 0 _l
799 327 _l
799 379 789 418 771 444 _c
752 469 724 482 686 482 _c
639 482 602 466 575 435 _c
548 404 535 362 535 309 _c
535 0 _l
445 0 _l
445 327 _l
445 379 435 418 417 444 _c
398 469 369 482 331 482 _c
}_e{285 482 248 466 221 435 _c
194 404 181 362 181 309 _c
181 0 _l
91 0 _l
91 547 _l
181 547 _l
181 462 _l
201 495 226 520 255 536 _c
283 552 317 560 357 560 _c
397 560 430 550 458 530 _c
486 510 506 480 520 442 _c
_cl}_e}_d
/n{634 0 91 0 549 560 _sc
549 330 _m
549 0 _l
459 0 _l
459 327 _l
459 379 448 417 428 443 _c
408 469 378 482 338 482 _c
289 482 251 466 223 435 _c
195 404 181 362 181 309 _c
181 0 _l
91 0 _l
91 547 _l
181 547 _l
181 462 _l
202 494 227 519 257 535 _c
286 551 320 560 358 560 _c
420 560 468 540 500 501 _c
532 462 549 405 549 330 _c
_cl}_d
/o{612 0 55 -13 557 560 _sc
306 484 _m
258 484 220 465 192 427 _c
164 389 150 338 150 273 _c
150 207 163 156 191 118 _c
219 80 257 62 306 62 _c
354 62 392 80 420 118 _c
448 156 462 207 462 273 _c
462 337 448 389 420 427 _c
392 465 354 484 306 484 _c
306 560 _m
384 560 445 534 490 484 _c
534 433 557 363 557 273 _c
557 183 534 113 490 63 _c
445 12 384 -13 306 -13 _c
227 -13 165 12 121 63 _c
77 113 55 183 55 273 _c
55 363 77 433 121 484 _c
165 534 227 560 306 560 _c
_cl}_d
/p{{635 0 91 -207 580 560 _sc
181 82 _m
181 -207 _l
91 -207 _l
91 547 _l
181 547 _l
181 464 _l
199 496 223 520 252 536 _c
281 552 316 560 356 560 _c
422 560 476 533 518 481 _c
559 428 580 359 580 273 _c
580 187 559 117 518 65 _c
476 13 422 -13 356 -13 _c
316 -13 281 -5 252 10 _c
223 25 199 49 181 82 _c
487 273 _m
487 339 473 390 446 428 _c
418 466 381 485 334 485 _c
}_e{286 485 249 466 222 428 _c
194 390 181 339 181 273 _c
181 207 194 155 222 117 _c
249 79 286 61 334 61 _c
381 61 418 79 446 117 _c
473 155 487 207 487 273 _c
_cl}_e}_d
/r{411 0 91 0 411 560 _sc
411 463 _m
401 469 390 473 378 476 _c
366 478 353 480 339 480 _c
288 480 249 463 222 430 _c
194 397 181 350 181 288 _c
181 0 _l
91 0 _l
91 547 _l
181 547 _l
181 462 _l
199 495 224 520 254 536 _c
284 552 321 560 365 560 _c
371 560 378 559 386 559 _c
393 558 401 557 411 555 _c
411 463 _l
_cl}_d
/s{{521 0 54 -13 472 560 _sc
443 531 _m
443 446 _l
417 458 391 468 364 475 _c
336 481 308 485 279 485 _c
234 485 200 478 178 464 _c
156 450 145 430 145 403 _c
145 382 153 366 169 354 _c
185 342 217 330 265 320 _c
296 313 _l
360 299 405 279 432 255 _c
458 230 472 195 472 151 _c
472 100 452 60 412 31 _c
372 1 316 -13 246 -13 _c
216 -13 186 -10 154 -5 _c
}_e{122 0 89 8 54 20 _c
54 113 _l
87 95 120 82 152 74 _c
184 65 216 61 248 61 _c
290 61 323 68 346 82 _c
368 96 380 117 380 144 _c
380 168 371 187 355 200 _c
339 213 303 226 247 238 _c
216 245 _l
160 257 119 275 95 299 _c
70 323 58 356 58 399 _c
58 450 76 490 112 518 _c
148 546 200 560 268 560 _c
301 560 332 557 362 552 _c
391 547 418 540 443 531 _c
}_e{_cl}_e}_d
/t{392 0 27 0 368 702 _sc
183 702 _m
183 547 _l
368 547 _l
368 477 _l
183 477 _l
183 180 _l
183 135 189 106 201 94 _c
213 81 238 75 276 75 _c
368 75 _l
368 0 _l
276 0 _l
206 0 158 13 132 39 _c
106 65 93 112 93 180 _c
93 477 _l
27 477 _l
27 547 _l
93 547 _l
93 702 _l
183 702 _l
_cl}_d
/u{634 0 85 -13 543 560 _sc
85 216 _m
85 547 _l
175 547 _l
175 219 _l
175 167 185 129 205 103 _c
225 77 255 64 296 64 _c
344 64 383 79 411 110 _c
439 141 453 183 453 237 _c
453 547 _l
543 547 _l
543 0 _l
453 0 _l
453 84 _l
431 50 405 26 377 10 _c
348 -5 315 -13 277 -13 _c
214 -13 166 6 134 45 _c
101 83 85 140 85 216 _c
311 560 _m
311 560 _l
_cl}_d
end readonly def

/BuildGlyph
 {exch begin
 CharStrings exch
 2 copy known not{pop /.notdef}if
 true 3 1 roll get exec
 end}_d

/BuildChar {
 1 index /Encoding get exch get
 1 index /BuildGlyph get exec
}_d

FontName currentdict end definefont pop
end
%%EndProlog
mpldict begin
95.56 230.299 translate
420.879 331.403 0 0 clipbox
gsave
0 0 m
420.879375 0 l
420.879375 331.402625 l
0 331.402625 l
cl
1.000 setgray
fill
grestore
gsave
56.559375 41.45 m
413.679375 41.45 l
413.679375 307.562 l
56.559375 307.562 l
cl
1.000 setgray
fill
grestore
0.800 setlinewidth
1 setlinejoin
0 setlinecap
[] 0 setdash
0.000 setgray
gsave
/o {
gsave
newpath
translate
0.8 setlinewidth
1 setlinejoin
0 setlinecap
0 0 m
0 -3.5 l

gsave
0.000 setgray
fill
grestore
stroke
grestore
} bind def
72.7921 41.45 o
grestore
/DejaVuSans findfont
12.000 scalefont
setfont
gsave
61.331165 25.325000 translate
0.000000 rotate
0.000000 0 m /one glyphshow
7.634766 0 m /zero glyphshow
15.269531 0 m /zero glyphshow
grestore
gsave
/o {
gsave
newpath
translate
0.8 setlinewidth
1 setlinejoin
0 setlinecap
0 0 m
0 -3.5 l

gsave
0.000 setgray
fill
grestore
stroke
grestore
} bind def
138.379 41.45 o
grestore
gsave
126.917942 25.325000 translate
0.000000 rotate
0.000000 0 m /one glyphshow
7.634766 0 m /two glyphshow
15.269531 0 m /zero glyphshow
grestore
gsave
/o {
gsave
newpath
translate
0.8 setlinewidth
1 setlinejoin
0 setlinecap
0 0 m
0 -3.5 l

gsave
0.000 setgray
fill
grestore
stroke
grestore
} bind def
203.966 41.45 o
grestore
gsave
192.504718 25.325000 translate
0.000000 rotate
0.000000 0 m /one glyphshow
7.634766 0 m /four glyphshow
15.269531 0 m /zero glyphshow
grestore
gsave
/o {
gsave
newpath
translate
0.8 setlinewidth
1 setlinejoin
0 setlinecap
0 0 m
0 -3.5 l

gsave
0.000 setgray
fill
grestore
stroke
grestore
} bind def
269.552 41.45 o
grestore
gsave
258.091495 25.325000 translate
0.000000 rotate
0.000000 0 m /one glyphshow
7.634766 0 m /six glyphshow
15.269531 0 m /zero glyphshow
grestore
gsave
/o {
gsave
newpath
translate
0.8 setlinewidth
1 setlinejoin
0 setlinecap
0 0 m
0 -3.5 l

gsave
0.000 setgray
fill
grestore
stroke
grestore
} bind def
335.139 41.45 o
grestore
gsave
323.678272 25.325000 translate
0.000000 rotate
0.000000 0 m /one glyphshow
7.634766 0 m /eight glyphshow
15.269531 0 m /zero glyphshow
grestore
gsave
/o {
gsave
newpath
translate
0.8 setlinewidth
1 setlinejoin
0 setlinecap
0 0 m
0 -3.5 l

gsave
0.000 setgray
fill
grestore
stroke
grestore
} bind def
400.726 41.45 o
grestore
gsave
389.265049 25.325000 translate
0.000000 rotate
0.000000 0 m /two glyphshow
7.634766 0 m /zero glyphshow
15.269531 0 m /zero glyphshow
grestore
gsave
202.533438 9.700000 translate
0.000000 rotate
0.000000 0 m /T glyphshow
6.955078 0 m /i glyphshow
10.289062 0 m /m glyphshow
21.978516 0 m /e glyphshow
29.361328 0 m /space glyphshow
33.175781 0 m /parenleft glyphshow
37.857422 0 m /m glyphshow
49.546875 0 m /i glyphshow
52.880859 0 m /n glyphshow
60.486328 0 m /parenright glyphshow
grestore
gsave
/o {
gsave
newpath
translate
0.8 setlinewidth
1 setlinejoin
0 setlinecap
-0 0 m
-3.5 0 l

gsave
0.000 setgray
fill
grestore
stroke
grestore
} bind def
56.5594 61.1118 o
grestore
gsave
22.825000 56.549262 translate
0.000000 rotate
0.000000 0 m /zero glyphshow
7.634766 0 m /period glyphshow
11.449219 0 m /six glyphshow
19.083984 0 m /five glyphshow
grestore
gsave
/o {
gsave
newpath
translate
0.8 setlinewidth
1 setlinejoin
0 setlinecap
-0 0 m
-3.5 0 l

gsave
0.000 setgray
fill
grestore
stroke
grestore
} bind def
56.5594 93.7804 o
grestore
gsave
22.825000 89.217935 translate
0.000000 rotate
0.000000 0 m /zero glyphshow
7.634766 0 m /period glyphshow
11.449219 0 m /seven glyphshow
19.083984 0 m /zero glyphshow
grestore
gsave
/o {
gsave
newpath
translate
0.8 setlinewidth
1 setlinejoin
0 setlinecap
-0 0 m
-3.5 0 l

gsave
0.000 setgray
fill
grestore
stroke
grestore
} bind def
56.5594 126.449 o
grestore
gsave
22.825000 121.886607 translate
0.000000 rotate
0.000000 0 m /zero glyphshow
7.634766 0 m /period glyphshow
11.449219 0 m /seven glyphshow
19.083984 0 m /five glyphshow
grestore
gsave
/o {
gsave
newpath
translate
0.8 setlinewidth
1 setlinejoin
0 setlinecap
-0 0 m
-3.5 0 l

gsave
0.000 setgray
fill
grestore
stroke
grestore
} bind def
56.5594 159.118 o
grestore
gsave
22.825000 154.555279 translate
0.000000 rotate
0.000000 0 m /zero glyphshow
7.634766 0 m /period glyphshow
11.449219 0 m /eight glyphshow
19.083984 0 m /zero glyphshow
grestore
gsave
/o {
gsave
newpath
translate
0.8 setlinewidth
1 setlinejoin
0 setlinecap
-0 0 m
-3.5 0 l

gsave
0.000 setgray
fill
grestore
stroke
grestore
} bind def
56.5594 191.786 o
grestore
gsave
22.825000 187.223952 translate
0.000000 rotate
0.000000 0 m /zero glyphshow
7.634766 0 m /period glyphshow
11.449219 0 m /eight glyphshow
19.083984 0 m /five glyphshow
grestore
gsave
/o {
gsave
newpath
translate
0.8 setlinewidth
1 setlinejoin
0 setlinecap
-0 0 m
-3.5 0 l

gsave
0.000 setgray
fill
grestore
stroke
grestore
} bind def
56.5594 224.455 o
grestore
gsave
22.825000 219.892624 translate
0.000000 rotate
0.000000 0 m /zero glyphshow
7.634766 0 m /period glyphshow
11.449219 0 m /nine glyphshow
19.083984 0 m /zero glyphshow
grestore
gsave
/o {
gsave
newpath
translate
0.8 setlinewidth
1 setlinejoin
0 setlinecap
-0 0 m
-3.5 0 l

gsave
0.000 setgray
fill
grestore
stroke
grestore
} bind def
56.5594 257.124 o
grestore
gsave
22.825000 252.561296 translate
0.000000 rotate
0.000000 0 m /zero glyphshow
7.634766 0 m /period glyphshow
11.449219 0 m /nine glyphshow
19.083984 0 m /five glyphshow
grestore
gsave
/o {
gsave
newpath
translate
0.8 setlinewidth
1 setlinejoin
0 setlinecap
-0 0 m
-3.5 0 l

gsave
0.000 setgray
fill
grestore
stroke
grestore
} bind def
56.5594 289.792 o
grestore
gsave
22.825000 285.229969 translate
0.000000 rotate
0.000000 0 m /one glyphshow
7.634766 0 m /period glyphshow
11.449219 0 m /zero glyphshow
19.083984 0 m /zero glyphshow
grestore
gsave
16.325000 136.341938 translate
90.000000 rotate
0.000000 0 m /F glyphshow
6.277344 0 m /u glyphshow
13.882812 0 m /e glyphshow
21.265625 0 m /l glyphshow
24.599609 0 m /space glyphshow
28.414062 0 m /F glyphshow
34.441406 0 m /r glyphshow
39.375000 0 m /a glyphshow
46.728516 0 m /c glyphshow
53.326172 0 m /t glyphshow
58.031250 0 m /i glyphshow
61.365234 0 m /o glyphshow
68.707031 0 m /n glyphshow
grestore
1.000 setlinewidth
2 setlinecap
0.000 0.000 1.000 setrgbcolor
gsave
357.1 266.1 56.56 41.45 clipbox
72.792102 94.72196 m
76.071441 134.201912 l
79.35078 155.272408 l
82.630119 199.66992 l
85.909458 215.535582 l
89.188796 211.546835 l
92.468135 204.604732 l
95.747474 137.176007 l
99.026813 109.787976 l
102.306152 117.350053 l
105.585491 123.844763 l
108.86483 144.851769 l
112.144168 155.593573 l
115.423507 171.877725 l
118.702846 175.421767 l
121.982185 141.326541 l
125.261524 118.986335 l
128.540863 135.756571 l
131.820201 142.968374 l
135.09954 195.389123 l
138.378879 216.68336 l
141.658218 203.305164 l
144.937557 188.864229 l
148.216896 151.262433 l
151.496235 146.588714 l
154.775573 290.872828 l
158.054912 288.931101 l
161.334251 289.801029 l
164.61359 289.921094 l
167.892929 290.331642 l
171.172268 290.154178 l
174.451606 289.972433 l
177.730945 289.178377 l
181.010284 290.104219 l
184.289623 290.741418 l
187.568962 289.692951 l
190.848301 290.677393 l
194.127639 289.105665 l
197.406978 290.11081 l
200.686317 289.639353 l
203.965656 289.802469 l
207.244995 289.645679 l
210.524334 288.585409 l
213.803673 290.085306 l
217.083011 290.242171 l
220.36235 290.552207 l
223.641689 289.433563 l
226.921028 290.300644 l
230.200367 290.186934 l
233.479706 290.757316 l
236.759044 288.724718 l
240.038383 290.644599 l
243.317722 290.149395 l
246.597061 290.050466 l
249.8764 288.872494 l
253.155739 289.580849 l
256.435077 289.878596 l
259.714416 289.81596 l
262.993755 289.858468 l
266.273094 289.808477 l
269.552433 290.128244 l
272.831772 290.128947 l
276.111111 290.372156 l
279.390449 291.041507 l
282.669788 290.641039 l
285.949127 290.201763 l
289.228466 289.602065 l
292.507805 290.025484 l
295.787144 289.769098 l
299.066482 288.637906 l
302.345821 288.648528 l
305.62516 289.597274 l
308.904499 289.778979 l
312.183838 291.097869 l
315.463177 289.592907 l
318.742515 276.650074 l
322.021854 262.177998 l
325.301193 248.412921 l
328.580532 235.599066 l
331.859871 223.378888 l
335.13921 212.20335 l
338.418549 199.951621 l
341.697887 191.628569 l
344.977226 182.659333 l
348.256565 173.455649 l
351.535904 164.833222 l
354.815243 159.408928 l
358.094582 150.47025 l
361.37392 144.5348 l
364.653259 136.083889 l
367.932598 129.738125 l
371.211937 123.112328 l
374.491276 114.988562 l
377.770615 108.199753 l
381.049954 100.782702 l
384.329292 94.26455 l
387.608631 87.565996 l
390.88797 80.634971 l
394.167309 74.073781 l
397.446648 66.081401 l
stroke
grestore
0 setlinecap
gsave
357.1 266.1 56.56 41.45 clipbox
/o {
gsave
newpath
translate
1.0 setlinewidth
1 setlinejoin
0 setlinecap
0 -0.5 m
0.132602 -0.5 0.25979 -0.447317 0.353553 -0.353553 c
0.447317 -0.25979 0.5 -0.132602 0.5 0 c
0.5 0.132602 0.447317 0.25979 0.353553 0.353553 c
0.25979 0.447317 0.132602 0.5 0 0.5 c
-0.132602 0.5 -0.25979 0.447317 -0.353553 0.353553 c
-0.447317 0.25979 -0.5 0.132602 -0.5 0 c
-0.5 -0.132602 -0.447317 -0.25979 -0.353553 -0.353553 c
-0.25979 -0.447317 -0.132602 -0.5 0 -0.5 c
cl

gsave
0.000 0.000 1.000 setrgbcolor
fill
grestore
stroke
grestore
} bind def
72.7921 94.722 o
76.0714 134.202 o
79.3508 155.272 o
82.6301 199.67 o
85.9095 215.536 o
89.1888 211.547 o
92.4681 204.605 o
95.7475 137.176 o
99.0268 109.788 o
102.306 117.35 o
105.585 123.845 o
108.865 144.852 o
112.144 155.594 o
115.424 171.878 o
118.703 175.422 o
121.982 141.327 o
125.262 118.986 o
128.541 135.757 o
131.82 142.968 o
135.1 195.389 o
138.379 216.683 o
141.658 203.305 o
144.938 188.864 o
148.217 151.262 o
151.496 146.589 o
154.776 290.873 o
158.055 288.931 o
161.334 289.801 o
164.614 289.921 o
167.893 290.332 o
171.172 290.154 o
174.452 289.972 o
177.731 289.178 o
181.01 290.104 o
184.29 290.741 o
187.569 289.693 o
190.848 290.677 o
194.128 289.106 o
197.407 290.111 o
200.686 289.639 o
203.966 289.802 o
207.245 289.646 o
210.524 288.585 o
213.804 290.085 o
217.083 290.242 o
220.362 290.552 o
223.642 289.434 o
226.921 290.301 o
230.2 290.187 o
233.48 290.757 o
236.759 288.725 o
240.038 290.645 o
243.318 290.149 o
246.597 290.05 o
249.876 288.872 o
253.156 289.581 o
256.435 289.879 o
259.714 289.816 o
262.994 289.858 o
266.273 289.808 o
269.552 290.128 o
272.832 290.129 o
276.111 290.372 o
279.39 291.042 o
282.67 290.641 o
285.949 290.202 o
289.228 289.602 o
292.508 290.025 o
295.787 289.769 o
299.066 288.638 o
302.346 288.649 o
305.625 289.597 o
308.904 289.779 o
312.184 291.098 o
315.463 289.593 o
318.743 276.65 o
322.022 262.178 o
325.301 248.413 o
328.581 235.599 o
331.86 223.379 o
335.139 212.203 o
338.419 199.952 o
341.698 191.629 o
344.977 182.659 o
348.257 173.456 o
351.536 164.833 o
354.815 159.409 o
358.095 150.47 o
361.374 144.535 o
364.653 136.084 o
367.933 129.738 o
371.212 123.112 o
374.491 114.989 o
377.771 108.2 o
381.05 100.783 o
384.329 94.2645 o
387.609 87.566 o
390.888 80.635 o
394.167 74.0738 o
397.447 66.0814 o
grestore
0.000 0.500 0.000 setrgbcolor
gsave
357.1 266.1 56.56 41.45 clipbox
/o {
gsave
newpath
translate
1.0 setlinewidth
1 setlinejoin
0 setlinecap
0 -1 m
0.265203 -1 0.51958 -0.894634 0.707107 -0.707107 c
0.894634 -0.51958 1 -0.265203 1 0 c
1 0.265203 0.894634 0.51958 0.707107 0.707107 c
0.51958 0.894634 0.265203 1 0 1 c
-0.265203 1 -0.51958 0.894634 -0.707107 0.707107 c
-0.894634 0.51958 -1 0.265203 -1 0 c
-1 -0.265203 -0.894634 -0.51958 -0.707107 -0.707107 c
-0.51958 -0.894634 -0.265203 -1 0 -1 c
cl

gsave
0.000 0.500 0.000 setrgbcolor
fill
grestore
stroke
grestore
} bind def
72.7921 103.468 o
76.0714 120.836 o
79.3508 138.268 o
82.6301 163.26 o
85.9095 175.807 o
89.1888 176.876 o
92.4681 165.085 o
95.7475 152.539 o
99.0268 147.482 o
102.306 143.531 o
105.585 158.282 o
108.865 172.715 o
112.144 172.031 o
115.424 170.706 o
118.703 153.373 o
121.982 133.793 o
125.262 127.66 o
128.541 122.708 o
131.82 144.65 o
135.1 162.015 o
138.379 176.913 o
141.658 182.686 o
144.938 181.963 o
148.217 171.873 o
151.496 164.296 o
154.776 295.317 o
158.055 294.404 o
161.334 294.6 o
164.614 294.574 o
167.893 294.629 o
171.172 294.541 o
174.452 294.066 o
177.731 294.491 o
181.01 294.512 o
184.29 294.294 o
187.569 295.088 o
190.848 294.18 o
194.128 294.654 o
197.407 295.103 o
200.686 294.9 o
203.966 294.63 o
207.245 294.716 o
210.524 294.392 o
213.804 295.163 o
217.083 294.832 o
220.362 294.971 o
223.642 294.904 o
226.921 294.684 o
230.2 294.838 o
233.48 294.596 o
236.759 294.991 o
240.038 295.277 o
243.318 295.036 o
246.597 294.836 o
249.876 294.838 o
253.156 294.282 o
256.435 295.08 o
259.714 294.615 o
262.994 295.466 o
266.273 294.946 o
269.552 295.191 o
272.832 294.421 o
276.111 293.997 o
279.39 294.703 o
282.67 294.457 o
285.949 295.178 o
289.228 295.095 o
292.508 294.838 o
295.787 294.949 o
299.066 294.223 o
302.346 291.205 o
305.625 287.273 o
308.904 282.472 o
312.184 276.511 o
315.463 269.232 o
318.743 262.363 o
322.022 252.833 o
325.301 243.152 o
328.581 232.973 o
331.86 221.372 o
335.139 210.499 o
338.419 198.491 o
341.698 188.559 o
344.977 178.353 o
348.257 168.763 o
351.536 160.179 o
354.815 151.208 o
358.095 144.464 o
361.374 136.344 o
364.653 129.03 o
367.933 121.734 o
371.212 115.163 o
374.491 107.691 o
377.771 99.8966 o
381.05 92.2269 o
384.329 84.4682 o
387.609 77.0297 o
390.888 68.9165 o
394.167 61.3439 o
397.447 53.546 o
grestore
0.800 setlinewidth
0 setlinejoin
2 setlinecap
0.000 setgray
gsave
56.559375 41.45 m
56.559375 307.562 l
stroke
grestore
gsave
413.679375 41.45 m
413.679375 307.562 l
stroke
grestore
gsave
56.559375 41.45 m
413.679375 41.45 l
stroke
grestore
gsave
56.559375 307.562 m
413.679375 307.562 l
stroke
grestore
/DejaVuSans findfont
14.400 scalefont
setfont
gsave
130.939688 313.562000 translate
0.000000 rotate
0.000000 0 m /P glyphshow
8.418518 0 m /r glyphshow
13.953552 0 m /e glyphshow
22.797546 0 m /d glyphshow
31.922302 0 m /i glyphshow
35.916138 0 m /c glyphshow
43.819580 0 m /t glyphshow
49.455872 0 m /i glyphshow
53.449707 0 m /o glyphshow
62.244568 0 m /n glyphshow
71.355286 0 m /space glyphshow
75.924683 0 m /five glyphshow
85.070496 0 m /space glyphshow
89.639893 0 m /m glyphshow
103.642883 0 m /i glyphshow
107.636719 0 m /n glyphshow
116.747437 0 m /u glyphshow
125.858154 0 m /t glyphshow
131.494446 0 m /e glyphshow
140.338440 0 m /parenleft glyphshow
145.946655 0 m /s glyphshow
153.435974 0 m /parenright glyphshow
159.044189 0 m /space glyphshow
163.613586 0 m /a glyphshow
172.422485 0 m /h glyphshow
181.533203 0 m /e glyphshow
190.377197 0 m /a glyphshow
199.186096 0 m /d glyphshow
grestore
1.000 setlinewidth
0 setlinecap
0.800 setgray
gsave
64.959375 47.45 m
160.328125 47.45 l
161.928125 47.45 162.728125 48.25 162.728125 49.85 c
162.728125 83.9 l
162.728125 85.5 161.928125 86.3 160.328125 86.3 c
64.959375 86.3 l
63.359375 86.3 62.559375 85.5 62.559375 83.9 c
62.559375 49.85 l
62.559375 48.25 63.359375 47.45 64.959375 47.45 c
cl
gsave
1.000 setgray
fill
grestore
stroke
grestore
1 setlinejoin
2 setlinecap
0.000 0.000 1.000 setrgbcolor
gsave
67.359375 76.575 m
91.359375 76.575 l
stroke
grestore
0 setlinecap
gsave
/o {
gsave
newpath
translate
1.0 setlinewidth
1 setlinejoin
0 setlinecap
0 -0.5 m
0.132602 -0.5 0.25979 -0.447317 0.353553 -0.353553 c
0.447317 -0.25979 0.5 -0.132602 0.5 0 c
0.5 0.132602 0.447317 0.25979 0.353553 0.353553 c
0.25979 0.447317 0.132602 0.5 0 0.5 c
-0.132602 0.5 -0.25979 0.447317 -0.353553 0.353553 c
-0.447317 0.25979 -0.5 0.132602 -0.5 0 c
-0.5 -0.132602 -0.447317 -0.25979 -0.353553 -0.353553 c
-0.25979 -0.447317 -0.132602 -0.5 0 -0.5 c
cl

gsave
0.000 0.000 1.000 setrgbcolor
fill
grestore
stroke
grestore
} bind def
79.3594 76.575 o
grestore
0.000 setgray
/DejaVuSans findfont
12.000 scalefont
setfont
gsave
100.959375 72.375000 translate
0.000000 rotate
0.000000 0 m /a glyphshow
7.353516 0 m /c glyphshow
13.951172 0 m /t glyphshow
18.656250 0 m /u glyphshow
26.261719 0 m /a glyphshow
33.615234 0 m /l glyphshow
grestore
0.000 0.500 0.000 setrgbcolor
gsave
/o {
gsave
newpath
translate
1.0 setlinewidth
1 setlinejoin
0 setlinecap
0 -1 m
0.265203 -1 0.51958 -0.894634 0.707107 -0.707107 c
0.894634 -0.51958 1 -0.265203 1 0 c
1 0.265203 0.894634 0.51958 0.707107 0.707107 c
0.51958 0.894634 0.265203 1 0 1 c
-0.265203 1 -0.51958 0.894634 -0.707107 0.707107 c
-0.894634 0.51958 -1 0.265203 -1 0 c
-1 -0.265203 -0.894634 -0.51958 -0.707107 -0.707107 c
-0.51958 -0.894634 -0.265203 -1 0 -1 c
cl

gsave
0.000 0.500 0.000 setrgbcolor
fill
grestore
stroke
grestore
} bind def
79.3594 58.95 o
grestore
0.000 setgray
gsave
100.959375 54.750000 translate
0.000000 rotate
0.000000 0 m /p glyphshow
7.617188 0 m /r glyphshow
12.300781 0 m /e glyphshow
19.683594 0 m /d glyphshow
27.300781 0 m /i glyphshow
30.634766 0 m /c glyphshow
37.232422 0 m /t glyphshow
41.937500 0 m /e glyphshow
49.320312 0 m /d glyphshow
grestore

end
showpage
