%!PS-Adobe-3.0 EPSF-3.0
%%Title: PHD_figures/pareto_front_SimpleRNN_PSO.eps
%%Creator: matplotlib version 3.3.2, http://matplotlib.org/
%%CreationDate: Tue Jun 29 17:01:58 2021
%%Orientation: portrait
%%BoundingBox: 201.93290488281258 292.48562499999997 410.06709511718736 499.514375
%%EndComments
%%BeginProlog
/mpldict 8 dict def
mpldict begin
/m { moveto } bind def
/l { lineto } bind def
/r { rlineto } bind def
/c { curveto } bind def
/cl { closepath } bind def
/box {
      m
      1 index 0 r
      0 exch r
      neg 0 r
      cl
    } bind def
/clipbox {
      box
      clip
      newpath
    } bind def
%!PS-Adobe-3.0 Resource-Font
%%Title: DejaVu Sans
%%Copyright: Copyright (c) 2003 by Bitstream, Inc. All Rights Reserved. Copyright (c) 2006 by Tavmjong Bah. All Rights Reserved. DejaVu changes are in public domain 
%%Creator: Converted from TrueType to type 3 by PPR
25 dict begin
/_d{bind def}bind def
/_m{moveto}_d
/_l{lineto}_d
/_cl{closepath eofill}_d
/_c{curveto}_d
/_sc{7 -1 roll{setcachedevice}{pop pop pop pop pop pop}ifelse}_d
/_e{exec}_d
/FontName /DejaVuSans def
/PaintType 0 def
/FontMatrix[.001 0 0 .001 0 0]def
/FontBBox[-1021 -463 1793 1232]def
/FontType 3 def
/Encoding [ /space /parenleft /parenright /period /zero /one /two /three /four /six /eight /nine /N /O /P /R /S /a /b /c /e /f /g /h /i /j /l /m /n /o /p /s /t /u /v /w ] def
/FontInfo 10 dict dup begin
/FamilyName (DejaVu Sans) def
/FullName (DejaVu Sans) def
/Notice (Copyright (c) 2003 by Bitstream, Inc. All Rights Reserved. Copyright (c) 2006 by Tavmjong Bah. All Rights Reserved. DejaVu changes are in public domain ) def
/Weight (Book) def
/Version (Version 2.35) def
/ItalicAngle 0.0 def
/isFixedPitch false def
/UnderlinePosition -130 def
/UnderlineThickness 90 def
end readonly def
/CharStrings 37 dict dup begin
/.notdef 0 def
/space{318 0 0 0 0 0 _sc
}_d
/parenleft{390 0 86 -131 310 759 _sc
310 759 _m
266 683 234 609 213 536 _c
191 463 181 389 181 314 _c
181 238 191 164 213 91 _c
234 17 266 -56 310 -131 _c
232 -131 _l
183 -54 146 20 122 94 _c
98 168 86 241 86 314 _c
86 386 98 459 122 533 _c
146 607 182 682 232 759 _c
310 759 _l
_cl}_d
/parenright{390 0 80 -131 304 759 _sc
80 759 _m
158 759 _l
206 682 243 607 267 533 _c
291 459 304 386 304 314 _c
304 241 291 168 267 94 _c
243 20 206 -54 158 -131 _c
80 -131 _l
123 -56 155 17 177 91 _c
198 164 209 238 209 314 _c
209 389 198 463 177 536 _c
155 609 123 683 80 759 _c
_cl}_d
/period{318 0 107 0 210 124 _sc
107 124 _m
210 124 _l
210 0 _l
107 0 _l
107 124 _l
_cl}_d
/zero{636 0 66 -13 570 742 _sc
318 664 _m
267 664 229 639 203 589 _c
177 539 165 464 165 364 _c
165 264 177 189 203 139 _c
229 89 267 64 318 64 _c
369 64 407 89 433 139 _c
458 189 471 264 471 364 _c
471 464 458 539 433 589 _c
407 639 369 664 318 664 _c
318 742 _m
399 742 461 709 505 645 _c
548 580 570 486 570 364 _c
570 241 548 147 505 83 _c
461 19 399 -13 318 -13 _c
236 -13 173 19 130 83 _c
87 147 66 241 66 364 _c
66 486 87 580 130 645 _c
173 709 236 742 318 742 _c
_cl}_d
/one{636 0 110 0 544 729 _sc
124 83 _m
285 83 _l
285 639 _l
110 604 _l
110 694 _l
284 729 _l
383 729 _l
383 83 _l
544 83 _l
544 0 _l
124 0 _l
124 83 _l
_cl}_d
/two{{636 0 73 0 536 742 _sc
192 83 _m
536 83 _l
536 0 _l
73 0 _l
73 83 _l
110 121 161 173 226 239 _c
290 304 331 346 348 365 _c
380 400 402 430 414 455 _c
426 479 433 504 433 528 _c
433 566 419 598 392 622 _c
365 646 330 659 286 659 _c
255 659 222 653 188 643 _c
154 632 117 616 78 594 _c
78 694 _l
118 710 155 722 189 730 _c
223 738 255 742 284 742 _c
}_e{359 742 419 723 464 685 _c
509 647 532 597 532 534 _c
532 504 526 475 515 449 _c
504 422 484 390 454 354 _c
446 344 420 317 376 272 _c
332 227 271 164 192 83 _c
_cl}_e}_d
/three{{636 0 76 -13 556 742 _sc
406 393 _m
453 383 490 362 516 330 _c
542 298 556 258 556 212 _c
556 140 531 84 482 45 _c
432 6 362 -13 271 -13 _c
240 -13 208 -10 176 -4 _c
144 1 110 10 76 22 _c
76 117 _l
103 101 133 89 166 81 _c
198 73 232 69 268 69 _c
330 69 377 81 409 105 _c
441 129 458 165 458 212 _c
458 254 443 288 413 312 _c
383 336 341 349 287 349 _c
}_e{202 349 _l
202 430 _l
291 430 _l
339 430 376 439 402 459 _c
428 478 441 506 441 543 _c
441 580 427 609 401 629 _c
374 649 336 659 287 659 _c
260 659 231 656 200 650 _c
169 644 135 635 98 623 _c
98 711 _l
135 721 170 729 203 734 _c
235 739 266 742 296 742 _c
370 742 429 725 473 691 _c
517 657 539 611 539 553 _c
539 513 527 479 504 451 _c
481 423 448 403 406 393 _c
_cl}_e}_d
/four{636 0 49 0 580 729 _sc
378 643 _m
129 254 _l
378 254 _l
378 643 _l
352 729 _m
476 729 _l
476 254 _l
580 254 _l
580 172 _l
476 172 _l
476 0 _l
378 0 _l
378 172 _l
49 172 _l
49 267 _l
352 729 _l
_cl}_d
/six{{636 0 70 -13 573 742 _sc
330 404 _m
286 404 251 388 225 358 _c
199 328 186 286 186 234 _c
186 181 199 139 225 109 _c
251 79 286 64 330 64 _c
374 64 409 79 435 109 _c
461 139 474 181 474 234 _c
474 286 461 328 435 358 _c
409 388 374 404 330 404 _c
526 713 _m
526 623 _l
501 635 476 644 451 650 _c
425 656 400 659 376 659 _c
310 659 260 637 226 593 _c
}_e{192 549 172 482 168 394 _c
187 422 211 444 240 459 _c
269 474 301 482 336 482 _c
409 482 467 459 509 415 _c
551 371 573 310 573 234 _c
573 159 550 99 506 54 _c
462 9 403 -13 330 -13 _c
246 -13 181 19 137 83 _c
92 147 70 241 70 364 _c
70 479 97 571 152 639 _c
206 707 280 742 372 742 _c
396 742 421 739 447 735 _c
472 730 498 723 526 713 _c
_cl}_e}_d
/eight{{636 0 68 -13 568 742 _sc
318 346 _m
271 346 234 333 207 308 _c
180 283 167 249 167 205 _c
167 161 180 126 207 101 _c
234 76 271 64 318 64 _c
364 64 401 76 428 102 _c
455 127 469 161 469 205 _c
469 249 455 283 429 308 _c
402 333 365 346 318 346 _c
219 388 _m
177 398 144 418 120 447 _c
96 476 85 511 85 553 _c
85 611 105 657 147 691 _c
188 725 245 742 318 742 _c
}_e{390 742 447 725 489 691 _c
530 657 551 611 551 553 _c
551 511 539 476 515 447 _c
491 418 459 398 417 388 _c
464 377 501 355 528 323 _c
554 291 568 251 568 205 _c
568 134 546 80 503 43 _c
459 5 398 -13 318 -13 _c
237 -13 175 5 132 43 _c
89 80 68 134 68 205 _c
68 251 81 291 108 323 _c
134 355 171 377 219 388 _c
183 544 _m
183 506 194 476 218 455 _c
}_e{242 434 275 424 318 424 _c
360 424 393 434 417 455 _c
441 476 453 506 453 544 _c
453 582 441 611 417 632 _c
393 653 360 664 318 664 _c
275 664 242 653 218 632 _c
194 611 183 582 183 544 _c
_cl}_e}_d
/nine{{636 0 63 -13 566 742 _sc
110 15 _m
110 105 _l
134 93 159 84 185 78 _c
210 72 235 69 260 69 _c
324 69 374 90 408 134 _c
442 178 462 244 468 334 _c
448 306 424 284 396 269 _c
367 254 335 247 300 247 _c
226 247 168 269 126 313 _c
84 357 63 417 63 494 _c
63 568 85 628 129 674 _c
173 719 232 742 306 742 _c
390 742 455 709 499 645 _c
543 580 566 486 566 364 _c
}_e{566 248 538 157 484 89 _c
429 21 356 -13 264 -13 _c
239 -13 214 -10 189 -6 _c
163 -2 137 5 110 15 _c
306 324 _m
350 324 385 339 411 369 _c
437 399 450 441 450 494 _c
450 546 437 588 411 618 _c
385 648 350 664 306 664 _c
262 664 227 648 201 618 _c
175 588 162 546 162 494 _c
162 441 175 399 201 369 _c
227 339 262 324 306 324 _c
_cl}_e}_d
/N{748 0 98 0 650 729 _sc
98 729 _m
231 729 _l
554 119 _l
554 729 _l
650 729 _l
650 0 _l
517 0 _l
194 610 _l
194 0 _l
98 0 _l
98 729 _l
_cl}_d
/O{787 0 56 -13 731 742 _sc
394 662 _m
322 662 265 635 223 582 _c
181 528 160 456 160 364 _c
160 272 181 199 223 146 _c
265 92 322 66 394 66 _c
465 66 522 92 564 146 _c
606 199 627 272 627 364 _c
627 456 606 528 564 582 _c
522 635 465 662 394 662 _c
394 742 _m
496 742 577 707 639 639 _c
700 571 731 479 731 364 _c
731 248 700 157 639 89 _c
577 21 496 -13 394 -13 _c
291 -13 209 21 148 89 _c
86 157 56 248 56 364 _c
56 479 86 571 148 639 _c
209 707 291 742 394 742 _c
_cl}_d
/P{603 0 98 0 569 729 _sc
197 648 _m
197 374 _l
321 374 _l
367 374 402 385 427 409 _c
452 433 465 467 465 511 _c
465 555 452 588 427 612 _c
402 636 367 648 321 648 _c
197 648 _l
98 729 _m
321 729 _l
402 729 464 710 506 673 _c
548 636 569 582 569 511 _c
569 439 548 384 506 348 _c
464 311 402 293 321 293 _c
197 293 _l
197 0 _l
98 0 _l
98 729 _l
_cl}_d
/R{{695 0 98 0 666 729 _sc
444 342 _m
465 334 486 319 506 296 _c
526 272 546 240 566 199 _c
666 0 _l
560 0 _l
467 187 _l
443 235 419 268 397 284 _c
374 300 343 308 304 308 _c
197 308 _l
197 0 _l
98 0 _l
98 729 _l
321 729 _l
404 729 466 711 507 677 _c
548 642 569 589 569 519 _c
569 473 558 434 537 404 _c
515 374 484 353 444 342 _c
197 648 _m
197 389 _l
321 389 _l
}_e{368 389 404 400 428 422 _c
452 444 465 476 465 519 _c
465 561 452 593 428 615 _c
404 637 368 648 321 648 _c
197 648 _l
_cl}_e}_d
/S{{635 0 66 -13 579 742 _sc
535 705 _m
535 609 _l
497 627 462 640 429 649 _c
395 657 363 662 333 662 _c
279 662 237 651 208 631 _c
179 610 165 580 165 542 _c
165 510 174 485 194 469 _c
213 452 250 439 304 429 _c
364 417 _l
437 403 491 378 526 343 _c
561 307 579 260 579 201 _c
579 130 555 77 508 41 _c
460 5 391 -13 300 -13 _c
265 -13 228 -9 189 -2 _c
}_e{150 5 110 16 69 32 _c
69 134 _l
109 111 148 94 186 83 _c
224 71 262 66 300 66 _c
356 66 399 77 430 99 _c
460 121 476 152 476 194 _c
476 230 465 258 443 278 _c
421 298 385 313 335 323 _c
275 335 _l
201 349 148 372 115 404 _c
82 435 66 478 66 534 _c
66 598 88 649 134 686 _c
179 723 242 742 322 742 _c
356 742 390 739 426 733 _c
461 727 497 717 535 705 _c
}_e{_cl}_e}_d
/a{{613 0 60 -13 522 560 _sc
343 275 _m
270 275 220 266 192 250 _c
164 233 150 205 150 165 _c
150 133 160 107 181 89 _c
202 70 231 61 267 61 _c
317 61 357 78 387 114 _c
417 149 432 196 432 255 _c
432 275 _l
343 275 _l
522 312 _m
522 0 _l
432 0 _l
432 83 _l
411 49 385 25 355 10 _c
325 -5 287 -13 243 -13 _c
187 -13 142 2 109 33 _c
76 64 60 106 60 159 _c
}_e{60 220 80 266 122 298 _c
163 329 224 345 306 345 _c
432 345 _l
432 354 _l
432 395 418 427 391 450 _c
364 472 326 484 277 484 _c
245 484 215 480 185 472 _c
155 464 127 453 100 439 _c
100 522 _l
132 534 164 544 195 550 _c
226 556 256 560 286 560 _c
365 560 424 539 463 498 _c
502 457 522 395 522 312 _c
_cl}_e}_d
/b{{635 0 91 -13 580 760 _sc
487 273 _m
487 339 473 390 446 428 _c
418 466 381 485 334 485 _c
286 485 249 466 222 428 _c
194 390 181 339 181 273 _c
181 207 194 155 222 117 _c
249 79 286 61 334 61 _c
381 61 418 79 446 117 _c
473 155 487 207 487 273 _c
181 464 _m
199 496 223 520 252 536 _c
281 552 316 560 356 560 _c
422 560 476 533 518 481 _c
559 428 580 359 580 273 _c
}_e{580 187 559 117 518 65 _c
476 13 422 -13 356 -13 _c
316 -13 281 -5 252 10 _c
223 25 199 49 181 82 _c
181 0 _l
91 0 _l
91 760 _l
181 760 _l
181 464 _l
_cl}_e}_d
/c{{550 0 55 -13 488 560 _sc
488 526 _m
488 442 _l
462 456 437 466 411 473 _c
385 480 360 484 334 484 _c
276 484 230 465 198 428 _c
166 391 150 339 150 273 _c
150 206 166 154 198 117 _c
230 80 276 62 334 62 _c
360 62 385 65 411 72 _c
437 79 462 90 488 104 _c
488 21 _l
462 9 436 0 410 -5 _c
383 -10 354 -13 324 -13 _c
242 -13 176 12 128 64 _c
}_e{79 115 55 185 55 273 _c
55 362 79 432 128 483 _c
177 534 244 560 330 560 _c
358 560 385 557 411 551 _c
437 545 463 537 488 526 _c
_cl}_e}_d
/e{{615 0 55 -13 562 560 _sc
562 296 _m
562 252 _l
149 252 _l
153 190 171 142 205 110 _c
238 78 284 62 344 62 _c
378 62 412 66 444 74 _c
476 82 509 95 541 113 _c
541 28 _l
509 14 476 3 442 -3 _c
408 -9 373 -13 339 -13 _c
251 -13 182 12 131 62 _c
80 112 55 181 55 268 _c
55 357 79 428 127 481 _c
175 533 241 560 323 560 _c
397 560 455 536 498 489 _c
}_e{540 441 562 377 562 296 _c
472 322 _m
471 371 457 410 431 440 _c
404 469 368 484 324 484 _c
274 484 234 469 204 441 _c
174 413 156 373 152 322 _c
472 322 _l
_cl}_e}_d
/f{352 0 23 0 371 760 _sc
371 760 _m
371 685 _l
285 685 _l
253 685 230 678 218 665 _c
205 652 199 629 199 595 _c
199 547 _l
347 547 _l
347 477 _l
199 477 _l
199 0 _l
109 0 _l
109 477 _l
23 477 _l
23 547 _l
109 547 _l
109 585 _l
109 645 123 690 151 718 _c
179 746 224 760 286 760 _c
371 760 _l
_cl}_d
/g{{635 0 55 -207 544 560 _sc
454 280 _m
454 344 440 395 414 431 _c
387 467 349 485 301 485 _c
253 485 215 467 188 431 _c
161 395 148 344 148 280 _c
148 215 161 165 188 129 _c
215 93 253 75 301 75 _c
349 75 387 93 414 129 _c
440 165 454 215 454 280 _c
544 68 _m
544 -24 523 -93 482 -139 _c
440 -184 377 -207 292 -207 _c
260 -207 231 -204 203 -200 _c
175 -195 147 -188 121 -178 _c
}_e{121 -91 _l
147 -105 173 -115 199 -122 _c
225 -129 251 -133 278 -133 _c
336 -133 380 -117 410 -87 _c
439 -56 454 -10 454 52 _c
454 96 _l
435 64 411 40 382 24 _c
353 8 319 0 279 0 _c
211 0 157 25 116 76 _c
75 127 55 195 55 280 _c
55 364 75 432 116 483 _c
157 534 211 560 279 560 _c
319 560 353 552 382 536 _c
411 520 435 496 454 464 _c
454 547 _l
544 547 _l
}_e{544 68 _l
_cl}_e}_d
/h{634 0 91 0 549 760 _sc
549 330 _m
549 0 _l
459 0 _l
459 327 _l
459 379 448 417 428 443 _c
408 469 378 482 338 482 _c
289 482 251 466 223 435 _c
195 404 181 362 181 309 _c
181 0 _l
91 0 _l
91 760 _l
181 760 _l
181 462 _l
202 494 227 519 257 535 _c
286 551 320 560 358 560 _c
420 560 468 540 500 501 _c
532 462 549 405 549 330 _c
_cl}_d
/i{278 0 94 0 184 760 _sc
94 547 _m
184 547 _l
184 0 _l
94 0 _l
94 547 _l
94 760 _m
184 760 _l
184 646 _l
94 646 _l
94 760 _l
_cl}_d
/j{278 0 -17 -207 184 760 _sc
94 547 _m
184 547 _l
184 -9 _l
184 -78 170 -128 144 -160 _c
117 -191 74 -207 16 -207 _c
-17 -207 _l
-17 -131 _l
6 -131 _l
40 -131 63 -123 75 -107 _c
87 -91 94 -58 94 -9 _c
94 547 _l
94 760 _m
184 760 _l
184 646 _l
94 646 _l
94 760 _l
_cl}_d
/l{278 0 94 0 184 760 _sc
94 760 _m
184 760 _l
184 0 _l
94 0 _l
94 760 _l
_cl}_d
/m{{974 0 91 0 889 560 _sc
520 442 _m
542 482 569 511 600 531 _c
631 550 668 560 711 560 _c
767 560 811 540 842 500 _c
873 460 889 403 889 330 _c
889 0 _l
799 0 _l
799 327 _l
799 379 789 418 771 444 _c
752 469 724 482 686 482 _c
639 482 602 466 575 435 _c
548 404 535 362 535 309 _c
535 0 _l
445 0 _l
445 327 _l
445 379 435 418 417 444 _c
398 469 369 482 331 482 _c
}_e{285 482 248 466 221 435 _c
194 404 181 362 181 309 _c
181 0 _l
91 0 _l
91 547 _l
181 547 _l
181 462 _l
201 495 226 520 255 536 _c
283 552 317 560 357 560 _c
397 560 430 550 458 530 _c
486 510 506 480 520 442 _c
_cl}_e}_d
/n{634 0 91 0 549 560 _sc
549 330 _m
549 0 _l
459 0 _l
459 327 _l
459 379 448 417 428 443 _c
408 469 378 482 338 482 _c
289 482 251 466 223 435 _c
195 404 181 362 181 309 _c
181 0 _l
91 0 _l
91 547 _l
181 547 _l
181 462 _l
202 494 227 519 257 535 _c
286 551 320 560 358 560 _c
420 560 468 540 500 501 _c
532 462 549 405 549 330 _c
_cl}_d
/o{612 0 55 -13 557 560 _sc
306 484 _m
258 484 220 465 192 427 _c
164 389 150 338 150 273 _c
150 207 163 156 191 118 _c
219 80 257 62 306 62 _c
354 62 392 80 420 118 _c
448 156 462 207 462 273 _c
462 337 448 389 420 427 _c
392 465 354 484 306 484 _c
306 560 _m
384 560 445 534 490 484 _c
534 433 557 363 557 273 _c
557 183 534 113 490 63 _c
445 12 384 -13 306 -13 _c
227 -13 165 12 121 63 _c
77 113 55 183 55 273 _c
55 363 77 433 121 484 _c
165 534 227 560 306 560 _c
_cl}_d
/p{{635 0 91 -207 580 560 _sc
181 82 _m
181 -207 _l
91 -207 _l
91 547 _l
181 547 _l
181 464 _l
199 496 223 520 252 536 _c
281 552 316 560 356 560 _c
422 560 476 533 518 481 _c
559 428 580 359 580 273 _c
580 187 559 117 518 65 _c
476 13 422 -13 356 -13 _c
316 -13 281 -5 252 10 _c
223 25 199 49 181 82 _c
487 273 _m
487 339 473 390 446 428 _c
418 466 381 485 334 485 _c
}_e{286 485 249 466 222 428 _c
194 390 181 339 181 273 _c
181 207 194 155 222 117 _c
249 79 286 61 334 61 _c
381 61 418 79 446 117 _c
473 155 487 207 487 273 _c
_cl}_e}_d
/s{{521 0 54 -13 472 560 _sc
443 531 _m
443 446 _l
417 458 391 468 364 475 _c
336 481 308 485 279 485 _c
234 485 200 478 178 464 _c
156 450 145 430 145 403 _c
145 382 153 366 169 354 _c
185 342 217 330 265 320 _c
296 313 _l
360 299 405 279 432 255 _c
458 230 472 195 472 151 _c
472 100 452 60 412 31 _c
372 1 316 -13 246 -13 _c
216 -13 186 -10 154 -5 _c
}_e{122 0 89 8 54 20 _c
54 113 _l
87 95 120 82 152 74 _c
184 65 216 61 248 61 _c
290 61 323 68 346 82 _c
368 96 380 117 380 144 _c
380 168 371 187 355 200 _c
339 213 303 226 247 238 _c
216 245 _l
160 257 119 275 95 299 _c
70 323 58 356 58 399 _c
58 450 76 490 112 518 _c
148 546 200 560 268 560 _c
301 560 332 557 362 552 _c
391 547 418 540 443 531 _c
}_e{_cl}_e}_d
/t{392 0 27 0 368 702 _sc
183 702 _m
183 547 _l
368 547 _l
368 477 _l
183 477 _l
183 180 _l
183 135 189 106 201 94 _c
213 81 238 75 276 75 _c
368 75 _l
368 0 _l
276 0 _l
206 0 158 13 132 39 _c
106 65 93 112 93 180 _c
93 477 _l
27 477 _l
27 547 _l
93 547 _l
93 702 _l
183 702 _l
_cl}_d
/u{634 0 85 -13 543 560 _sc
85 216 _m
85 547 _l
175 547 _l
175 219 _l
175 167 185 129 205 103 _c
225 77 255 64 296 64 _c
344 64 383 79 411 110 _c
439 141 453 183 453 237 _c
453 547 _l
543 547 _l
543 0 _l
453 0 _l
453 84 _l
431 50 405 26 377 10 _c
348 -5 315 -13 277 -13 _c
214 -13 166 6 134 45 _c
101 83 85 140 85 216 _c
311 560 _m
311 560 _l
_cl}_d
/v{592 0 30 0 562 547 _sc
30 547 _m
125 547 _l
296 88 _l
467 547 _l
562 547 _l
357 0 _l
235 0 _l
30 547 _l
_cl}_d
/w{818 0 42 0 776 547 _sc
42 547 _m
132 547 _l
244 120 _l
356 547 _l
462 547 _l
574 120 _l
686 547 _l
776 547 _l
633 0 _l
527 0 _l
409 448 _l
291 0 _l
185 0 _l
42 547 _l
_cl}_d
end readonly def

/BuildGlyph
 {exch begin
 CharStrings exch
 2 copy known not{pop /.notdef}if
 true 3 1 roll get exec
 end}_d

/BuildChar {
 1 index /Encoding get exch get
 1 index /BuildGlyph get exec
}_d

FontName currentdict end definefont pop
end
%%EndProlog
mpldict begin
201.933 292.486 translate
208.134 207.029 0 0 clipbox
gsave
0 0 m
208.13419 0 l
208.13419 207.02875 l
0 207.02875 l
cl
1.000 setgray
fill
grestore
gsave
45.871875 37.54375 m
200.93419 37.54375 l
200.93419 184.70375 l
45.871875 184.70375 l
cl
1.000 setgray
fill
grestore
0.800 setlinewidth
1 setlinejoin
0 setlinecap
[] 0 setdash
0.000 setgray
gsave
/o {
gsave
newpath
translate
0.8 setlinewidth
1 setlinejoin
0 setlinecap
0 0 m
0 -3.5 l

gsave
0.000 setgray
fill
grestore
stroke
grestore
} bind def
54.5292 37.5438 o
grestore
/DejaVuSans findfont
10.000 scalefont
setfont
gsave
46.576123 22.950000 translate
0.000000 rotate
0.000000 0 m /eight glyphshow
6.362305 0 m /period glyphshow
9.541016 0 m /two glyphshow
grestore
gsave
/o {
gsave
newpath
translate
0.8 setlinewidth
1 setlinejoin
0 setlinecap
0 0 m
0 -3.5 l

gsave
0.000 setgray
fill
grestore
stroke
grestore
} bind def
86.7916 37.5438 o
grestore
gsave
78.838491 22.950000 translate
0.000000 rotate
0.000000 0 m /eight glyphshow
6.362305 0 m /period glyphshow
9.541016 0 m /four glyphshow
grestore
gsave
/o {
gsave
newpath
translate
0.8 setlinewidth
1 setlinejoin
0 setlinecap
0 0 m
0 -3.5 l

gsave
0.000 setgray
fill
grestore
stroke
grestore
} bind def
119.054 37.5438 o
grestore
gsave
111.100860 22.950000 translate
0.000000 rotate
0.000000 0 m /eight glyphshow
6.362305 0 m /period glyphshow
9.541016 0 m /six glyphshow
grestore
gsave
/o {
gsave
newpath
translate
0.8 setlinewidth
1 setlinejoin
0 setlinecap
0 0 m
0 -3.5 l

gsave
0.000 setgray
fill
grestore
stroke
grestore
} bind def
151.316 37.5438 o
grestore
gsave
143.363228 22.950000 translate
0.000000 rotate
0.000000 0 m /eight glyphshow
6.362305 0 m /period glyphshow
9.541016 0 m /eight glyphshow
grestore
gsave
/o {
gsave
newpath
translate
0.8 setlinewidth
1 setlinejoin
0 setlinecap
0 0 m
0 -3.5 l

gsave
0.000 setgray
fill
grestore
stroke
grestore
} bind def
183.579 37.5438 o
grestore
gsave
175.625597 22.950000 translate
0.000000 rotate
0.000000 0 m /nine glyphshow
6.362305 0 m /period glyphshow
9.541016 0 m /zero glyphshow
grestore
gsave
63.270220 9.278125 translate
0.000000 rotate
0.000000 0 m /o glyphshow
6.118164 0 m /b glyphshow
12.465820 0 m /j glyphshow
15.244141 0 m /e glyphshow
21.396484 0 m /c glyphshow
26.894531 0 m /t glyphshow
30.815430 0 m /i glyphshow
33.593750 0 m /v glyphshow
39.511719 0 m /e glyphshow
45.664062 0 m /space glyphshow
48.842773 0 m /f glyphshow
52.363281 0 m /u glyphshow
58.701172 0 m /n glyphshow
65.039062 0 m /c glyphshow
70.537109 0 m /t glyphshow
74.458008 0 m /i glyphshow
77.236328 0 m /o glyphshow
83.354492 0 m /n glyphshow
89.692383 0 m /space glyphshow
92.871094 0 m /v glyphshow
98.789062 0 m /a glyphshow
104.916992 0 m /l glyphshow
107.695312 0 m /u glyphshow
114.033203 0 m /e glyphshow
grestore
gsave
/o {
gsave
newpath
translate
0.8 setlinewidth
1 setlinejoin
0 setlinecap
-0 0 m
-3.5 0 l

gsave
0.000 setgray
fill
grestore
stroke
grestore
} bind def
45.8719 40.343 o
grestore
gsave
20.871875 35.882062 translate
0.000000 rotate
/DejaVuSans findfont
10.0 scalefont
setfont
0.000000 0.976562 moveto
/one glyphshow
6.362305 0.976562 moveto
/zero glyphshow
/DejaVuSans findfont
7.0 scalefont
setfont
12.820312 4.804688 moveto
/two glyphshow

grestore
gsave
/o {
gsave
newpath
translate
0.8 setlinewidth
1 setlinejoin
0 setlinecap
-0 0 m
-3.5 0 l

gsave
0.000 setgray
fill
grestore
stroke
grestore
} bind def
45.8719 89.4688 o
grestore
gsave
20.871875 85.007849 translate
0.000000 rotate
/DejaVuSans findfont
10.0 scalefont
setfont
0.000000 0.976562 moveto
/one glyphshow
6.362305 0.976562 moveto
/zero glyphshow
/DejaVuSans findfont
7.0 scalefont
setfont
12.820312 4.804688 moveto
/three glyphshow

grestore
gsave
/o {
gsave
newpath
translate
0.8 setlinewidth
1 setlinejoin
0 setlinecap
-0 0 m
-3.5 0 l

gsave
0.000 setgray
fill
grestore
stroke
grestore
} bind def
45.8719 138.595 o
grestore
gsave
20.871875 134.633636 translate
0.000000 rotate
/DejaVuSans findfont
10.0 scalefont
setfont
0.000000 0.064063 moveto
/one glyphshow
6.362305 0.064063 moveto
/zero glyphshow
/DejaVuSans findfont
7.0 scalefont
setfont
12.820312 3.892188 moveto
/four glyphshow

grestore
0.600 setlinewidth
gsave
/o {
gsave
newpath
translate
0.6 setlinewidth
1 setlinejoin
0 setlinecap
-0 0 m
-2 0 l

gsave
0.000 setgray
fill
grestore
stroke
grestore
} bind def
45.8719 38.0951 o
grestore
gsave
/o {
gsave
newpath
translate
0.6 setlinewidth
1 setlinejoin
0 setlinecap
-0 0 m
-2 0 l

gsave
0.000 setgray
fill
grestore
stroke
grestore
} bind def
45.8719 55.1313 o
grestore
gsave
/o {
gsave
newpath
translate
0.6 setlinewidth
1 setlinejoin
0 setlinecap
-0 0 m
-2 0 l

gsave
0.000 setgray
fill
grestore
stroke
grestore
} bind def
45.8719 63.782 o
grestore
gsave
/o {
gsave
newpath
translate
0.6 setlinewidth
1 setlinejoin
0 setlinecap
-0 0 m
-2 0 l

gsave
0.000 setgray
fill
grestore
stroke
grestore
} bind def
45.8719 69.9197 o
grestore
gsave
/o {
gsave
newpath
translate
0.6 setlinewidth
1 setlinejoin
0 setlinecap
-0 0 m
-2 0 l

gsave
0.000 setgray
fill
grestore
stroke
grestore
} bind def
45.8719 74.6805 o
grestore
gsave
/o {
gsave
newpath
translate
0.6 setlinewidth
1 setlinejoin
0 setlinecap
-0 0 m
-2 0 l

gsave
0.000 setgray
fill
grestore
stroke
grestore
} bind def
45.8719 78.5703 o
grestore
gsave
/o {
gsave
newpath
translate
0.6 setlinewidth
1 setlinejoin
0 setlinecap
-0 0 m
-2 0 l

gsave
0.000 setgray
fill
grestore
stroke
grestore
} bind def
45.8719 81.8591 o
grestore
gsave
/o {
gsave
newpath
translate
0.6 setlinewidth
1 setlinejoin
0 setlinecap
-0 0 m
-2 0 l

gsave
0.000 setgray
fill
grestore
stroke
grestore
} bind def
45.8719 84.708 o
grestore
gsave
/o {
gsave
newpath
translate
0.6 setlinewidth
1 setlinejoin
0 setlinecap
-0 0 m
-2 0 l

gsave
0.000 setgray
fill
grestore
stroke
grestore
} bind def
45.8719 87.2209 o
grestore
gsave
/o {
gsave
newpath
translate
0.6 setlinewidth
1 setlinejoin
0 setlinecap
-0 0 m
-2 0 l

gsave
0.000 setgray
fill
grestore
stroke
grestore
} bind def
45.8719 104.257 o
grestore
gsave
/o {
gsave
newpath
translate
0.6 setlinewidth
1 setlinejoin
0 setlinecap
-0 0 m
-2 0 l

gsave
0.000 setgray
fill
grestore
stroke
grestore
} bind def
45.8719 112.908 o
grestore
gsave
/o {
gsave
newpath
translate
0.6 setlinewidth
1 setlinejoin
0 setlinecap
-0 0 m
-2 0 l

gsave
0.000 setgray
fill
grestore
stroke
grestore
} bind def
45.8719 119.045 o
grestore
gsave
/o {
gsave
newpath
translate
0.6 setlinewidth
1 setlinejoin
0 setlinecap
-0 0 m
-2 0 l

gsave
0.000 setgray
fill
grestore
stroke
grestore
} bind def
45.8719 123.806 o
grestore
gsave
/o {
gsave
newpath
translate
0.6 setlinewidth
1 setlinejoin
0 setlinecap
-0 0 m
-2 0 l

gsave
0.000 setgray
fill
grestore
stroke
grestore
} bind def
45.8719 127.696 o
grestore
gsave
/o {
gsave
newpath
translate
0.6 setlinewidth
1 setlinejoin
0 setlinecap
-0 0 m
-2 0 l

gsave
0.000 setgray
fill
grestore
stroke
grestore
} bind def
45.8719 130.985 o
grestore
gsave
/o {
gsave
newpath
translate
0.6 setlinewidth
1 setlinejoin
0 setlinecap
-0 0 m
-2 0 l

gsave
0.000 setgray
fill
grestore
stroke
grestore
} bind def
45.8719 133.834 o
grestore
gsave
/o {
gsave
newpath
translate
0.6 setlinewidth
1 setlinejoin
0 setlinecap
-0 0 m
-2 0 l

gsave
0.000 setgray
fill
grestore
stroke
grestore
} bind def
45.8719 136.347 o
grestore
gsave
/o {
gsave
newpath
translate
0.6 setlinewidth
1 setlinejoin
0 setlinecap
-0 0 m
-2 0 l

gsave
0.000 setgray
fill
grestore
stroke
grestore
} bind def
45.8719 153.383 o
grestore
gsave
/o {
gsave
newpath
translate
0.6 setlinewidth
1 setlinejoin
0 setlinecap
-0 0 m
-2 0 l

gsave
0.000 setgray
fill
grestore
stroke
grestore
} bind def
45.8719 162.034 o
grestore
gsave
/o {
gsave
newpath
translate
0.6 setlinewidth
1 setlinejoin
0 setlinecap
-0 0 m
-2 0 l

gsave
0.000 setgray
fill
grestore
stroke
grestore
} bind def
45.8719 168.171 o
grestore
gsave
/o {
gsave
newpath
translate
0.6 setlinewidth
1 setlinejoin
0 setlinecap
-0 0 m
-2 0 l

gsave
0.000 setgray
fill
grestore
stroke
grestore
} bind def
45.8719 172.932 o
grestore
gsave
/o {
gsave
newpath
translate
0.6 setlinewidth
1 setlinejoin
0 setlinecap
-0 0 m
-2 0 l

gsave
0.000 setgray
fill
grestore
stroke
grestore
} bind def
45.8719 176.822 o
grestore
gsave
/o {
gsave
newpath
translate
0.6 setlinewidth
1 setlinejoin
0 setlinecap
-0 0 m
-2 0 l

gsave
0.000 setgray
fill
grestore
stroke
grestore
} bind def
45.8719 180.111 o
grestore
gsave
/o {
gsave
newpath
translate
0.6 setlinewidth
1 setlinejoin
0 setlinecap
-0 0 m
-2 0 l

gsave
0.000 setgray
fill
grestore
stroke
grestore
} bind def
45.8719 182.96 o
grestore
gsave
14.793750 32.561250 translate
90.000000 rotate
0.000000 0 m /f glyphshow
3.520508 0 m /u glyphshow
9.858398 0 m /n glyphshow
16.196289 0 m /c glyphshow
21.694336 0 m /t glyphshow
25.615234 0 m /i glyphshow
28.393555 0 m /o glyphshow
34.511719 0 m /n glyphshow
40.849609 0 m /space glyphshow
44.028320 0 m /e glyphshow
50.180664 0 m /v glyphshow
56.098633 0 m /a glyphshow
62.226562 0 m /l glyphshow
65.004883 0 m /u glyphshow
71.342773 0 m /a glyphshow
77.470703 0 m /t glyphshow
81.391602 0 m /i glyphshow
84.169922 0 m /o glyphshow
90.288086 0 m /n glyphshow
96.625977 0 m /s glyphshow
101.835938 0 m /space glyphshow
105.014648 0 m /parenleft glyphshow
108.916016 0 m /l glyphshow
111.694336 0 m /o glyphshow
117.812500 0 m /g glyphshow
124.160156 0 m /space glyphshow
127.338867 0 m /s glyphshow
132.548828 0 m /c glyphshow
138.046875 0 m /a glyphshow
144.174805 0 m /l glyphshow
146.953125 0 m /e glyphshow
153.105469 0 m /parenright glyphshow
grestore
1.000 setlinewidth
0.000 0.000 1.000 setrgbcolor
gsave
155.1 147.2 45.87 37.54 clipbox
/o {
gsave
newpath
translate
1.0 setlinewidth
1 setlinejoin
0 setlinecap
0 -1.5 m
0.397805 -1.5 0.77937 -1.341951 1.06066 -1.06066 c
1.341951 -0.77937 1.5 -0.397805 1.5 0 c
1.5 0.397805 1.341951 0.77937 1.06066 1.06066 c
0.77937 1.341951 0.397805 1.5 0 1.5 c
-0.397805 1.5 -0.77937 1.341951 -1.06066 1.06066 c
-1.341951 0.77937 -1.5 0.397805 -1.5 0 c
-1.5 -0.397805 -1.341951 -0.77937 -1.06066 -1.06066 c
-0.77937 -1.341951 -0.397805 -1.5 0 -1.5 c
cl

gsave
0.000 0.000 1.000 setrgbcolor
fill
grestore
stroke
grestore
} bind def
108.097 104.257 o
86.2675 119.31 o
121.383 123.375 o
140.708 79.2699 o
113.826 99.1603 o
112.867 113.607 o
93.3067 124.847 o
94.7891 134.099 o
121.524 72.9015 o
111.185 110.461 o
69.741 141.761 o
92.7421 128.99 o
87.0646 166.159 o
116.782 116.348 o
111.927 119.045 o
120.908 98.1194 o
116.808 129.73 o
107.239 115.89 o
106.595 124.643 o
96.5718 81.5521 o
111.11 101.101 o
90.3516 115.262 o
117.421 120.086 o
100.914 134.361 o
159.063 67.0708 o
93.2743 108.587 o
103.962 136.699 o
102.466 130.678 o
78.6615 163.61 o
120.635 105.8 o
101.25 97.7608 o
105.168 111.813 o
116.044 125.448 o
109.288 131.586 o
136.518 82.1617 o
117.787 105.551 o
95.606 128.396 o
99.7763 132.669 o
97.227 141.202 o
142.587 82.1617 o
92.5388 96.6474 o
104.411 131.734 o
106.146 129.239 o
82.1278 124.229 o
97.3892 139.938 o
88.4168 140.821 o
115.107 82.7544 o
86.636 118.777 o
90.6121 141.669 o
80.1191 149.375 o
74.2804 150.165 o
124.464 71.4626 o
93.036 72.9015 o
107.348 121.2 o
81.5248 120.835 o
73.059 122.935 o
76.6361 131.88 o
120.843 105.8 o
114.2 111.051 o
113.515 144.274 o
88.3846 148.887 o
94.4886 147.102 o
101.208 111.206 o
109.504 104.257 o
77.28 137.724 o
64.1052 144.027 o
67.8801 142.306 o
121.614 82.4601 o
102.191 102.304 o
104.252 123.266 o
75.7713 110.66 o
96.4173 142.306 o
76.1954 171.002 o
101.917 152.289 o
109.362 76.7139 o
103.096 103.717 o
90.3676 105.298 o
97.1762 108.147 o
92.1777 122.027 o
87.5814 100.537 o
98.4775 86.6199 o
70.1962 120.835 o
71.4004 117.669 o
84.9452 120.086 o
107.736 94.2296 o
93.1763 111.051 o
91.9655 108.147 o
75.0115 118.505 o
111.39 120.464 o
107.852 128.049 o
133.695 79.2699 o
126.552 109.649 o
117.643 116.798 o
101.509 124.847 o
102.787 129.404 o
113.279 89.8913 o
84.9472 98.1194 o
90.1266 103.717 o
78.4036 135.623 o
71.9154 124.643 o
113.072 67.6718 o
102.489 105.8 o
133.351 80.278 o
84.7104 124.847 o
89.7431 146.814 o
90.7918 107.698 o
94.3417 122.935 o
107.706 128.049 o
107.752 114.941 o
107.848 129.073 o
140.884 79.2699 o
104.534 120.588 o
103.558 131.807 o
118.196 138.164 o
102.701 96.9501 o
99.92 114.941 o
124.552 133.834 o
94.7499 136.699 o
92.0396 135.377 o
193.886 92.4506 o
75.8093 103.989 o
97.7838 134.875 o
111.408 127.696 o
96.3306 143.525 o
104.55 74.6805 o
126.581 97.3961 o
113.732 100.153 o
99.0332 116.197 o
116.776 95.8715 o
109.912 122.599 o
113.409 130.985 o
96.4319 102.594 o
100.049 126.602 o
93.8413 134.875 o
100.134 133.834 o
120.528 96.6474 o
85.4919 107.239 o
105.408 131.137 o
73.6439 149.181 o
71.9261 143.525 o
91.9592 101.651 o
87.4822 109.44 o
102.005 122.712 o
85.5001 156.595 o
89.7852 141.761 o
111.532 98.819 o
112.86 116.798 o
119.076 102.009 o
82.9356 122.486 o
103.13 115.89 o
110.29 123.266 o
108.954 131.586 o
108.881 112.729 o
96.3676 130.209 o
97.8537 143.27 o
112.117 153.595 o
106.892 81.8591 o
113.584 99.8271 o
82.0805 130.678 o
71.2 164.404 o
75.5869 117.382 o
113.572 96.6474 o
90.4223 110.461 o
108.887 112.908 o
80.244 115.89 o
81.633 129.404 o
98.72 84.708 o
99.383 110.66 o
111.152 125.049 o
73.3326 130.445 o
89.6199 117.951 o
101.955 125.15 o
121.372 119.831 o
102.746 130.678 o
116.58 145.311 o
117.974 87.9205 o
90.9157 123.699 o
70.8655 146.448 o
66.9495 145.62 o
103.338 86.4976 o
65.6536 111.625 o
73.8797 138.912 o
79.4853 110.66 o
101.33 61.1353 o
82.8533 87.2209 o
70.0902 121.794 o
79.5145 111.813 o
70.1513 115.578 o
99.0308 107.239 o
103.283 111.813 o
95.5855 106.047 o
78.9827 121.079 o
104.922 102.009 o
106.691 142.837 o
105.955 174.064 o
106.213 150.412 o
88.9035 90.9123 o
93.4685 100.79 o
87.5453 122.258 o
61.3776 132.457 o
111.346 70.7051 o
112.202 91.0118 o
87.0402 109.855 o
84.6147 115.421 o
97.3908 109.018 o
114.955 83.6137 o
98.1122 74.6805 o
75.713 110.261 o
70.8751 106.77 o
71.9296 125.448 o
101.268 59.0212 o
86.504 100.153 o
94.7767 104.257 o
98.3318 125.742 o
77.1097 115.578 o
117.928 111.813 o
107.614 121.794 o
126.316 141.807 o
112.79 145.155 o
126.321 58.1132 o
93.2197 91.5022 o
101.004 152.567 o
96.6397 137.89 o
89.4123 103.163 o
113.024 72.9015 o
103.183 96.263 o
106.177 131.288 o
107.284 104.522 o
76.5206 129.404 o
120.193 90.712 o
104.1 117.526 o
139.363 102.009 o
107.934 97.0251 o
81.1039 119.572 o
110.974 58.572 o
113.54 62.31 o
107.857 89.9956 o
94.0214 106.77 o
107.879 113.435 o
125.204 109.018 o
115.292 58.1132 o
88.0423 76.7139 o
101.077 95.8715 o
96.4403 113.435 o
103.133 114.941 o
119.076 118.777 o
128.825 132.314 o
83.8793 178.015 o
99.8325 174.771 o
120.274 101.651 o
97.3016 111.051 o
76.5031 128.223 o
63.6931 153.648 o
95.5679 147.245 o
106.253 75.9236 o
114.922 101.408 o
93.178 109.44 o
109.985 122.027 o
103.536 95.4727 o
105.085 108.587 o
96.0532 118.912 o
119.947 130.05 o
90.3337 89.4688 o
119.367 108.803 o
91.2661 136.108 o
100.106 91.0118 o
107.145 94.2296 o
92.1325 115.89 o
115.727 115.578 o
94.6306 120.588 o
111.028 137.388 o
83.0335 150.776 o
78.836 160.021 o
89.0881 90.712 o
105.587 117.526 o
93.8374 116.499 o
69.8913 147.772 o
100.115 158.058 o
81.2302 106.532 o
100.944 110.66 o
86.8613 128.223 o
81.9973 137.274 o
124.989 70.4465 o
98.2859 109.44 o
109.128 112.908 o
99.9919 104.257 o
101.816 70.9606 o
99.4496 93.7985 o
90.4776 111.813 o
67.8041 118.912 o
74.4613 118.505 o
96.2513 92.4506 o
102.189 106.291 o
78.6554 108.803 o
84.1129 111.436 o
108.981 98.9562 o
99.2697 128.737 o
72.5976 150.473 o
80.5155 163.344 o
112.647 95.0663 o
93.8243 118.091 o
66.3397 139.534 o
72.8622 149.568 o
76.8025 137.5 o
138.765 55.6582 o
88.2829 81.5521 o
96.2924 84.708 o
87.924 122.486 o
86.5192 118.505 o
77.0037 121.079 o
110.87 78.2117 o
70.7074 111.051 o
89.6091 109.44 o
79.9497 117.237 o
74.2533 123.806 o
100.015 60.3146 o
98.1509 61.5341 o
115.986 78.5703 o
103.533 86.0014 o
83.6505 111.813 o
86.0502 125.448 o
148.155 85.3645 o
110.197 123.592 o
102.624 120.588 o
119.058 83.3311 o
102.337 107.968 o
95.6975 143.652 o
91.4964 135.252 o
89.5188 150.227 o
79.872 137.274 o
103.365 76.7139 o
82.9167 112.549 o
76.3465 109.018 o
90.0316 143.011 o
64.534 152.952 o
104.126 96.1853 o
76.0657 103.442 o
79.6026 116.197 o
74.1706 119.702 o
81.6992 114.285 o
104.271 54.037 o
131.629 73.8095 o
93.4727 100.79 o
101.481 100.79 o
106.825 122.258 o
105.926 131.88 o
128.079 65.8154 o
99.9685 80.278 o
96.6508 97.3961 o
101.594 109.44 o
92.2548 108.147 o
119.796 71.9531 o
105.193 86.6199 o
127.988 94.2296 o
135.395 106.047 o
98.3757 96.6474 o
119.059 88.7087 o
101.894 104.991 o
100.642 90.5097 o
82.5299 111.436 o
77.9111 128.223 o
83.7448 129.404 o
103.377 103.717 o
85.3301 127.696 o
83.9766 135.377 o
113.175 78.9229 o
90.7149 95.0663 o
87.2137 103.717 o
73.6357 111.244 o
69.2373 125.049 o
101.762 69.9197 o
85.8304 94.2296 o
74.0981 112.549 o
70.5086 123.913 o
79.5098 125.84 o
107.56 55.1313 o
89.9328 99.8271 o
118.425 115.262 o
87.5192 123.913 o
102.233 115.578 o
114.977 56.6743 o
110.82 68.5427 o
95.2732 98.1194 o
123.118 98.1194 o
74.6479 116.197 o
128.28 80.278 o
123.216 106.291 o
74.0204 122.599 o
110.861 107.239 o
140.075 106.291 o
90.5603 106.047 o
107.153 117.951 o
119.883 73.5861 o
109.843 91.5022 o
106.101 106.047 o
102.715 114.285 o
116.964 71.2131 o
99.6858 95.0663 o
125.001 87.2209 o
97.277 104.257 o
135.037 76.7139 o
122.236 81.8591 o
112.6 98.1194 o
97.3214 104.257 o
129.055 91.5022 o
91.6536 106.047 o
103.928 110.66 o
127.219 67.6718 o
107.423 99.8271 o
78.5416 108.587 o
122.428 101.101 o
67.0585 131.88 o
95.822 91.5022 o
110.976 102.009 o
112.756 116.798 o
100.055 133.294 o
152.765 81.8591 o
91.9833 113.26 o
105.503 102.009 o
128.903 112.184 o
75.9307 92.9095 o
98.4041 95.8715 o
87.9945 93.3586 o
104.905 118.505 o
131.723 55.1313 o
118.268 73.5861 o
103.372 105.8 o
101.127 95.8715 o
73.686 104.257 o
92.5563 77.6623 o
102.656 94.2296 o
108.907 108.147 o
120.636 114.941 o
133.522 81.8591 o
133.778 88.3744 o
90.6255 118.23 o
72.314 126.881 o
76.4549 139.225 o
139.986 74.6805 o
106.288 99.4963 o
92.8129 99.4963 o
78.9457 119.31 o
116.847 98.1194 o
89.9096 80.278 o
96.6971 92.4506 o
97.6306 106.77 o
94.6262 117.951 o
110.89 60.7289 o
123.87 83.3311 o
110.198 89.4688 o
81.9171 106.77 o
77.3068 107.239 o
110.678 79.4412 o
96.1277 91.5022 o
95.7488 102.88 o
97.6713 113.607 o
121.182 72.4326 o
97.0819 97.3961 o
104.382 114.941 o
78.5192 123.375 o
115.269 68.8253 o
98.8531 73.8095 o
104.892 104.522 o
82.4527 127.337 o
80.6301 116.798 o
74.2958 134.099 o
121.824 83.3311 o
108.483 91.5022 o
74.5451 115.578 o
71.9243 124.229 o
86.2638 122.935 o
105.122 75.5172 o
84.9578 95.0663 o
98.9786 97.3961 o
69.9594 102.009 o
100.072 116.798 o
104.892 61.9256 o
127.988 63.0587 o
114.922 76.7139 o
105.329 110.261 o
100.124 102.009 o
82.6717 116.798 o
114.527 86.6199 o
106.678 96.6474 o
94.1692 95.8715 o
109.807 109.855 o
127.023 81.0832 o
106.98 88.3744 o
82.0586 100.153 o
84.3585 113.607 o
91.3187 79.6112 o
90.9864 89.4688 o
82.9876 112.184 o
78.3071 127.961 o
84.2722 126.602 o
108.024 54.037 o
101.898 63.782 o
100.914 96.6474 o
109.17 89.4688 o
89.6401 119.702 o
85.2437 116.197 o
104.914 73.3603 o
120.299 93.3586 o
71.8333 112.549 o
88.3231 120.464 o
84.9514 126.973 o
86.3662 85.3645 o
85.9886 99.4963 o
113.996 116.348 o
85.4124 129.404 o
124.079 55.6582 o
125.763 77.6623 o
98.3691 98.1194 o
106.965 110.66 o
112.808 58.1132 o
112.679 74.6805 o
97.8462 95.8715 o
116.935 104.522 o
96.2798 98.1194 o
117.031 70.7051 o
103.304 68.8253 o
120.955 96.263 o
78.4937 129.239 o
68.218 134.619 o
110.15 57.6442 o
101.369 72.4326 o
97.6847 94.6521 o
79.8441 106.291 o
67.073 127.961 o
87.0783 121.558 o
112.152 75.1029 o
83.476 99.8271 o
83.2634 98.819 o
74.2485 119.31 o
82.3372 122.027 o
90.4632 87.8055 o
98.2228 104.784 o
83.266 102.88 o
96.8605 125.049 o
117.812 92.9095 o
85.279 103.717 o
106.132 98.1194 o
97.4392 114.285 o
130.467 63.782 o
126.329 84.708 o
104.867 107.239 o
80.57 108.803 o
91.4751 119.572 o
grestore
0.000 0.500 0.000 setrgbcolor
gsave
155.1 147.2 45.87 37.54 clipbox
/o {
gsave
newpath
translate
1.0 setlinewidth
1 setlinejoin
0 setlinecap
0 -1.5 m
0.397805 -1.5 0.77937 -1.341951 1.06066 -1.06066 c
1.341951 -0.77937 1.5 -0.397805 1.5 0 c
1.5 0.397805 1.341951 0.77937 1.06066 1.06066 c
0.77937 1.341951 0.397805 1.5 0 1.5 c
-0.397805 1.5 -0.77937 1.341951 -1.06066 1.06066 c
-1.341951 0.77937 -1.5 0.397805 -1.5 0 c
-1.5 -0.397805 -1.341951 -0.77937 -1.06066 -1.06066 c
-0.77937 -1.341951 -0.397805 -1.5 0 -1.5 c
cl

gsave
0.000 0.500 0.000 setrgbcolor
fill
grestore
stroke
grestore
} bind def
143.647 52.8835 o
78.6496 81.8591 o
68.2985 102.594 o
59.5115 139.787 o
72.2119 93.7985 o
65.9711 105.043 o
56.2625 149.947 o
76.5675 88.4864 o
93.3218 61.5341 o
61.0527 122.712 o
101.29 54.037 o
84.5399 80.278 o
113.962 52.8835 o
99.9926 54.037 o
grestore
1.500 setlinewidth
2 setlinecap
gsave
155.1 147.2 45.87 37.54 clipbox
52.920162 152.951883 m
55.324031 140.821101 l
59.514106 115.262026 l
65.249791 100.789772 l
66.915578 95.066344 l
86.86469 47.521655 l
104.728687 45.103781 l
139.728194 44.232841 l
stroke
grestore
1.000 setlinewidth
0 setlinecap
gsave
155.1 147.2 45.87 37.54 clipbox
/o {
gsave
newpath
translate
1.0 setlinewidth
1 setlinejoin
0 setlinecap
0 -3 m
0.795609 -3 1.55874 -2.683901 2.12132 -2.12132 c
2.683901 -1.55874 3 -0.795609 3 0 c
3 0.795609 2.683901 1.55874 2.12132 2.12132 c
1.55874 2.683901 0.795609 3 0 3 c
-0.795609 3 -1.55874 2.683901 -2.12132 2.12132 c
-2.683901 1.55874 -3 0.795609 -3 0 c
-3 -0.795609 -2.683901 -1.55874 -2.12132 -2.12132 c
-1.55874 -2.683901 -0.795609 -3 0 -3 c
cl

gsave
0.000 0.500 0.000 setrgbcolor
fill
grestore
stroke
grestore
} bind def
52.9202 152.952 o
55.324 140.821 o
59.5141 115.262 o
65.2498 100.79 o
66.9156 95.0663 o
86.8647 47.5217 o
104.729 45.1038 o
139.728 44.2328 o
grestore
0.800 setlinewidth
0 setlinejoin
2 setlinecap
0.000 setgray
gsave
45.871875 37.54375 m
45.871875 184.70375 l
stroke
grestore
gsave
200.93419 37.54375 m
200.93419 184.70375 l
stroke
grestore
gsave
45.871875 37.54375 m
200.93419 37.54375 l
stroke
grestore
gsave
45.871875 184.70375 m
200.93419 184.70375 l
stroke
grestore
/DejaVuSans findfont
12.000 scalefont
setfont
gsave
61.059283 190.703750 translate
0.000000 rotate
0.000000 0 m /S glyphshow
7.617188 0 m /i glyphshow
10.951172 0 m /m glyphshow
22.640625 0 m /p glyphshow
30.257812 0 m /l glyphshow
33.591797 0 m /e glyphshow
40.974609 0 m /R glyphshow
49.312500 0 m /N glyphshow
58.289062 0 m /N glyphshow
67.265625 0 m /space glyphshow
71.080078 0 m /w glyphshow
80.894531 0 m /i glyphshow
84.228516 0 m /t glyphshow
88.933594 0 m /h glyphshow
96.539062 0 m /space glyphshow
100.353516 0 m /P glyphshow
107.589844 0 m /S glyphshow
115.207031 0 m /O glyphshow
grestore

end
showpage
