%!PS-Adobe-3.0 EPSF-3.0
%%Title: PHD_figures/PSO_diagram.eps
%%Creator: matplotlib version 3.3.4, http://matplotlib.org/
%%CreationDate: Sun Jul 25 21:38:03 2021
%%Orientation: portrait
%%BoundingBox: 118.49000000000001 253.99400000000006 493.51 538.006
%%EndComments
%%BeginProlog
/mpldict 8 dict def
mpldict begin
/m { moveto } bind def
/l { lineto } bind def
/r { rlineto } bind def
/c { curveto } bind def
/cl { closepath } bind def
/box {
      m
      1 index 0 r
      0 exch r
      neg 0 r
      cl
    } bind def
/clipbox {
      box
      clip
      newpath
    } bind def
%!PS-Adobe-3.0 Resource-Font
%%Title: DejaVu Sans
%%Copyright: Copyright (c) 2003 by Bitstream, Inc. All Rights Reserved. Copyright (c) 2006 by Tavmjong Bah. All Rights Reserved. DejaVu changes are in public domain 
%%Creator: Converted from TrueType to type 3 by PPR
25 dict begin
/_d{bind def}bind def
/_m{moveto}_d
/_l{lineto}_d
/_cl{closepath eofill}_d
/_c{curveto}_d
/_sc{7 -1 roll{setcachedevice}{pop pop pop pop pop pop}ifelse}_d
/_e{exec}_d
/FontName /DejaVuSans def
/PaintType 0 def
/FontMatrix[.001 0 0 .001 0 0]def
/FontBBox[-1021 -463 1793 1232]def
/FontType 3 def
/Encoding [ /space /a /b /c /e /g /i /l /m /n /o /p /r /s /t /v /w /y ] def
/FontInfo 10 dict dup begin
/FamilyName (DejaVu Sans) def
/FullName (DejaVu Sans) def
/Notice (Copyright (c) 2003 by Bitstream, Inc. All Rights Reserved. Copyright (c) 2006 by Tavmjong Bah. All Rights Reserved. DejaVu changes are in public domain ) def
/Weight (Book) def
/Version (Version 2.35) def
/ItalicAngle 0.0 def
/isFixedPitch false def
/UnderlinePosition -130 def
/UnderlineThickness 90 def
end readonly def
/CharStrings 19 dict dup begin
/.notdef 0 def
/space{318 0 0 0 0 0 _sc
}_d
/a{{613 0 60 -13 522 560 _sc
343 275 _m
270 275 220 266 192 250 _c
164 233 150 205 150 165 _c
150 133 160 107 181 89 _c
202 70 231 61 267 61 _c
317 61 357 78 387 114 _c
417 149 432 196 432 255 _c
432 275 _l
343 275 _l
522 312 _m
522 0 _l
432 0 _l
432 83 _l
411 49 385 25 355 10 _c
325 -5 287 -13 243 -13 _c
187 -13 142 2 109 33 _c
76 64 60 106 60 159 _c
}_e{60 220 80 266 122 298 _c
163 329 224 345 306 345 _c
432 345 _l
432 354 _l
432 395 418 427 391 450 _c
364 472 326 484 277 484 _c
245 484 215 480 185 472 _c
155 464 127 453 100 439 _c
100 522 _l
132 534 164 544 195 550 _c
226 556 256 560 286 560 _c
365 560 424 539 463 498 _c
502 457 522 395 522 312 _c
_cl}_e}_d
/b{{635 0 91 -13 580 760 _sc
487 273 _m
487 339 473 390 446 428 _c
418 466 381 485 334 485 _c
286 485 249 466 222 428 _c
194 390 181 339 181 273 _c
181 207 194 155 222 117 _c
249 79 286 61 334 61 _c
381 61 418 79 446 117 _c
473 155 487 207 487 273 _c
181 464 _m
199 496 223 520 252 536 _c
281 552 316 560 356 560 _c
422 560 476 533 518 481 _c
559 428 580 359 580 273 _c
}_e{580 187 559 117 518 65 _c
476 13 422 -13 356 -13 _c
316 -13 281 -5 252 10 _c
223 25 199 49 181 82 _c
181 0 _l
91 0 _l
91 760 _l
181 760 _l
181 464 _l
_cl}_e}_d
/c{{550 0 55 -13 488 560 _sc
488 526 _m
488 442 _l
462 456 437 466 411 473 _c
385 480 360 484 334 484 _c
276 484 230 465 198 428 _c
166 391 150 339 150 273 _c
150 206 166 154 198 117 _c
230 80 276 62 334 62 _c
360 62 385 65 411 72 _c
437 79 462 90 488 104 _c
488 21 _l
462 9 436 0 410 -5 _c
383 -10 354 -13 324 -13 _c
242 -13 176 12 128 64 _c
}_e{79 115 55 185 55 273 _c
55 362 79 432 128 483 _c
177 534 244 560 330 560 _c
358 560 385 557 411 551 _c
437 545 463 537 488 526 _c
_cl}_e}_d
/e{{615 0 55 -13 562 560 _sc
562 296 _m
562 252 _l
149 252 _l
153 190 171 142 205 110 _c
238 78 284 62 344 62 _c
378 62 412 66 444 74 _c
476 82 509 95 541 113 _c
541 28 _l
509 14 476 3 442 -3 _c
408 -9 373 -13 339 -13 _c
251 -13 182 12 131 62 _c
80 112 55 181 55 268 _c
55 357 79 428 127 481 _c
175 533 241 560 323 560 _c
397 560 455 536 498 489 _c
}_e{540 441 562 377 562 296 _c
472 322 _m
471 371 457 410 431 440 _c
404 469 368 484 324 484 _c
274 484 234 469 204 441 _c
174 413 156 373 152 322 _c
472 322 _l
_cl}_e}_d
/g{{635 0 55 -207 544 560 _sc
454 280 _m
454 344 440 395 414 431 _c
387 467 349 485 301 485 _c
253 485 215 467 188 431 _c
161 395 148 344 148 280 _c
148 215 161 165 188 129 _c
215 93 253 75 301 75 _c
349 75 387 93 414 129 _c
440 165 454 215 454 280 _c
544 68 _m
544 -24 523 -93 482 -139 _c
440 -184 377 -207 292 -207 _c
260 -207 231 -204 203 -200 _c
175 -195 147 -188 121 -178 _c
}_e{121 -91 _l
147 -105 173 -115 199 -122 _c
225 -129 251 -133 278 -133 _c
336 -133 380 -117 410 -87 _c
439 -56 454 -10 454 52 _c
454 96 _l
435 64 411 40 382 24 _c
353 8 319 0 279 0 _c
211 0 157 25 116 76 _c
75 127 55 195 55 280 _c
55 364 75 432 116 483 _c
157 534 211 560 279 560 _c
319 560 353 552 382 536 _c
411 520 435 496 454 464 _c
454 547 _l
544 547 _l
}_e{544 68 _l
_cl}_e}_d
/i{278 0 94 0 184 760 _sc
94 547 _m
184 547 _l
184 0 _l
94 0 _l
94 547 _l
94 760 _m
184 760 _l
184 646 _l
94 646 _l
94 760 _l
_cl}_d
/l{278 0 94 0 184 760 _sc
94 760 _m
184 760 _l
184 0 _l
94 0 _l
94 760 _l
_cl}_d
/m{{974 0 91 0 889 560 _sc
520 442 _m
542 482 569 511 600 531 _c
631 550 668 560 711 560 _c
767 560 811 540 842 500 _c
873 460 889 403 889 330 _c
889 0 _l
799 0 _l
799 327 _l
799 379 789 418 771 444 _c
752 469 724 482 686 482 _c
639 482 602 466 575 435 _c
548 404 535 362 535 309 _c
535 0 _l
445 0 _l
445 327 _l
445 379 435 418 417 444 _c
398 469 369 482 331 482 _c
}_e{285 482 248 466 221 435 _c
194 404 181 362 181 309 _c
181 0 _l
91 0 _l
91 547 _l
181 547 _l
181 462 _l
201 495 226 520 255 536 _c
283 552 317 560 357 560 _c
397 560 430 550 458 530 _c
486 510 506 480 520 442 _c
_cl}_e}_d
/n{634 0 91 0 549 560 _sc
549 330 _m
549 0 _l
459 0 _l
459 327 _l
459 379 448 417 428 443 _c
408 469 378 482 338 482 _c
289 482 251 466 223 435 _c
195 404 181 362 181 309 _c
181 0 _l
91 0 _l
91 547 _l
181 547 _l
181 462 _l
202 494 227 519 257 535 _c
286 551 320 560 358 560 _c
420 560 468 540 500 501 _c
532 462 549 405 549 330 _c
_cl}_d
/o{612 0 55 -13 557 560 _sc
306 484 _m
258 484 220 465 192 427 _c
164 389 150 338 150 273 _c
150 207 163 156 191 118 _c
219 80 257 62 306 62 _c
354 62 392 80 420 118 _c
448 156 462 207 462 273 _c
462 337 448 389 420 427 _c
392 465 354 484 306 484 _c
306 560 _m
384 560 445 534 490 484 _c
534 433 557 363 557 273 _c
557 183 534 113 490 63 _c
445 12 384 -13 306 -13 _c
227 -13 165 12 121 63 _c
77 113 55 183 55 273 _c
55 363 77 433 121 484 _c
165 534 227 560 306 560 _c
_cl}_d
/p{{635 0 91 -207 580 560 _sc
181 82 _m
181 -207 _l
91 -207 _l
91 547 _l
181 547 _l
181 464 _l
199 496 223 520 252 536 _c
281 552 316 560 356 560 _c
422 560 476 533 518 481 _c
559 428 580 359 580 273 _c
580 187 559 117 518 65 _c
476 13 422 -13 356 -13 _c
316 -13 281 -5 252 10 _c
223 25 199 49 181 82 _c
487 273 _m
487 339 473 390 446 428 _c
418 466 381 485 334 485 _c
}_e{286 485 249 466 222 428 _c
194 390 181 339 181 273 _c
181 207 194 155 222 117 _c
249 79 286 61 334 61 _c
381 61 418 79 446 117 _c
473 155 487 207 487 273 _c
_cl}_e}_d
/r{411 0 91 0 411 560 _sc
411 463 _m
401 469 390 473 378 476 _c
366 478 353 480 339 480 _c
288 480 249 463 222 430 _c
194 397 181 350 181 288 _c
181 0 _l
91 0 _l
91 547 _l
181 547 _l
181 462 _l
199 495 224 520 254 536 _c
284 552 321 560 365 560 _c
371 560 378 559 386 559 _c
393 558 401 557 411 555 _c
411 463 _l
_cl}_d
/s{{521 0 54 -13 472 560 _sc
443 531 _m
443 446 _l
417 458 391 468 364 475 _c
336 481 308 485 279 485 _c
234 485 200 478 178 464 _c
156 450 145 430 145 403 _c
145 382 153 366 169 354 _c
185 342 217 330 265 320 _c
296 313 _l
360 299 405 279 432 255 _c
458 230 472 195 472 151 _c
472 100 452 60 412 31 _c
372 1 316 -13 246 -13 _c
216 -13 186 -10 154 -5 _c
}_e{122 0 89 8 54 20 _c
54 113 _l
87 95 120 82 152 74 _c
184 65 216 61 248 61 _c
290 61 323 68 346 82 _c
368 96 380 117 380 144 _c
380 168 371 187 355 200 _c
339 213 303 226 247 238 _c
216 245 _l
160 257 119 275 95 299 _c
70 323 58 356 58 399 _c
58 450 76 490 112 518 _c
148 546 200 560 268 560 _c
301 560 332 557 362 552 _c
391 547 418 540 443 531 _c
}_e{_cl}_e}_d
/t{392 0 27 0 368 702 _sc
183 702 _m
183 547 _l
368 547 _l
368 477 _l
183 477 _l
183 180 _l
183 135 189 106 201 94 _c
213 81 238 75 276 75 _c
368 75 _l
368 0 _l
276 0 _l
206 0 158 13 132 39 _c
106 65 93 112 93 180 _c
93 477 _l
27 477 _l
27 547 _l
93 547 _l
93 702 _l
183 702 _l
_cl}_d
/v{592 0 30 0 562 547 _sc
30 547 _m
125 547 _l
296 88 _l
467 547 _l
562 547 _l
357 0 _l
235 0 _l
30 547 _l
_cl}_d
/w{818 0 42 0 776 547 _sc
42 547 _m
132 547 _l
244 120 _l
356 547 _l
462 547 _l
574 120 _l
686 547 _l
776 547 _l
633 0 _l
527 0 _l
409 448 _l
291 0 _l
185 0 _l
42 547 _l
_cl}_d
/y{592 0 30 -207 562 547 _sc
322 -50 _m
296 -114 271 -157 247 -177 _c
223 -197 191 -207 151 -207 _c
79 -207 _l
79 -132 _l
132 -132 _l
156 -132 175 -126 189 -114 _c
203 -102 218 -75 235 -31 _c
251 9 _l
30 547 _l
125 547 _l
296 119 _l
467 547 _l
562 547 _l
322 -50 _l
_cl}_d
end readonly def

/BuildGlyph
 {exch begin
 CharStrings exch
 2 copy known not{pop /.notdef}if
 true 3 1 roll get exec
 end}_d

/BuildChar {
 1 index /Encoding get exch get
 1 index /BuildGlyph get exec
}_d

FontName currentdict end definefont pop
end
%%EndProlog
mpldict begin
118.49 253.994 translate
375.02 284.012 0 0 clipbox
gsave
0 0 m
375.02 0 l
375.02 284.012 l
0 284.012 l
cl
1.000 setgray
fill
grestore
gsave
10.7 10.7 m
367.82 10.7 l
367.82 276.812 l
10.7 276.812 l
cl
1.000 setgray
fill
grestore
1.000 setlinewidth
1 setlinejoin
0 setlinecap
[] 0 setdash
0.000 setgray
gsave
357.1 266.1 10.7 10.7 clipbox
216.044 171.1936 m
216.707008 171.1936 217.34295 171.457016 217.811767 171.925833 c
218.280584 172.39465 218.544 173.030592 218.544 173.6936 c
218.544 174.356608 218.280584 174.99255 217.811767 175.461367 c
217.34295 175.930184 216.707008 176.1936 216.044 176.1936 c
215.380992 176.1936 214.74505 175.930184 214.276233 175.461367 c
213.807416 174.99255 213.544 174.356608 213.544 173.6936 c
213.544 173.030592 213.807416 172.39465 214.276233 171.925833 c
214.74505 171.457016 215.380992 171.1936 216.044 171.1936 c
cl
stroke
grestore
gsave
357.1 266.1 10.7 10.7 clipbox
/o {
gsave
newpath
translate
1.0 setlinewidth
1 setlinejoin
0 setlinecap
0 -2.5 m
0.663008 -2.5 1.29895 -2.236584 1.767767 -1.767767 c
2.236584 -1.29895 2.5 -0.663008 2.5 0 c
2.5 0.663008 2.236584 1.29895 1.767767 1.767767 c
1.29895 2.236584 0.663008 2.5 0 2.5 c
-0.663008 2.5 -1.29895 2.236584 -1.767767 1.767767 c
-2.236584 1.29895 -2.5 0.663008 -2.5 0 c
-2.5 -0.663008 -2.236584 -1.29895 -1.767767 -1.767767 c
-1.29895 -2.236584 -0.663008 -2.5 0 -2.5 c
cl

gsave
0.000 setgray
fill
grestore
stroke
grestore
} bind def
323.18 143.756 o
grestore
0 setlinejoin
gsave
357.1 266.1 10.7 10.7 clipbox
/o {
gsave
newpath
translate
1.0 setlinewidth
0 setlinejoin
0 setlinecap
0 5 m
-5 -5 l
5 -5 l
cl

gsave
0.000 setgray
fill
grestore
stroke
grestore
} bind def
224.972 63.9224 o
grestore
2 setlinejoin
gsave
357.1 266.1 10.7 10.7 clipbox
/o {
gsave
newpath
translate
1.0 setlinewidth
2 setlinejoin
0 setlinecap
0 5 m
-1.12257 1.545085 l
-4.755283 1.545085 l
-1.816356 -0.59017 l
-2.938926 -4.045085 l
-0 -1.90983 l
2.938926 -4.045085 l
1.816356 -0.59017 l
4.755283 1.545085 l
1.12257 1.545085 l
cl

gsave
0.000 setgray
fill
grestore
stroke
grestore
} bind def
55.34 157.062 o
grestore
1.500 setlinewidth
1 setlinejoin
[5.55 2.4] 0 setdash
gsave
357.1 266.1 10.7 10.7 clipbox

stroke
grestore
[1.5 2.475] 0 setdash
gsave
357.1 266.1 10.7 10.7 clipbox

stroke
grestore
[9.6 2.4 1.5 2.4] 0 setdash
gsave
357.1 266.1 10.7 10.7 clipbox

stroke
grestore
2 setlinecap
[] 0 setdash
gsave
357.1 266.1 10.7 10.7 clipbox

stroke
grestore
0.800 setlinewidth
0 setlinejoin
gsave
10.7 10.7 m
10.7 276.812 l
stroke
grestore
gsave
367.82 10.7 m
367.82 276.812 l
stroke
grestore
gsave
10.7 10.7 m
367.82 10.7 l
stroke
grestore
gsave
10.7 276.812 m
367.82 276.812 l
stroke
grestore
1.000 setlinewidth
1 setlinejoin
1 setlinecap
[3.7 1.6] 0 setdash
gsave
323.18 143.756 m
325.934217 164.279357 328.688434 184.802715 331.44265 205.326072 c
stroke
grestore
gsave
323.18 143.756 m
326.156 165.932 329.132 188.108 332.108 210.284 c
grestore
gsave
329.593743 206.585553 m
332.108 210.284 l
333.558203 206.053526 l
329.593743 206.585553 l
cl
fill
grestore
[1 1.65] 0 setdash
gsave
323.18 143.756 m
308.105735 131.502082 293.031471 119.248163 277.957206 106.994245 c
stroke
grestore
gsave
323.18 143.756 m
306.812 130.4504 290.444 117.1448 274.076 103.8392 c
grestore
gsave
278.441406 104.810403 m
274.076 103.8392 l
275.918281 107.914246 l
278.441406 104.810403 l
cl
fill
grestore
[6.4 1.6 1 1.6] 0 setdash
gsave
323.18 143.756 m
302.523374 144.782168 281.866748 145.808336 261.210122 146.834504 c
stroke
grestore
gsave
323.18 143.756 m
300.86 144.8648 278.54 145.9736 256.22 147.0824 c
grestore
gsave
260.115841 144.886398 m
256.22 147.0824 l
260.314306 148.881472 l
260.115841 144.886398 l
cl
fill
grestore
[] 0 setdash
gsave
323.18 143.756 m
289.07334 153.286611 254.96668 162.817222 220.86002 172.347833 c
stroke
grestore
gsave
323.18 143.756 m
287.468 153.7352 251.756 163.7144 216.044 173.6936 c
grestore
gsave
219.358169 170.690887 m
216.044 173.6936 l
220.434672 174.543307 l
219.358169 170.690887 l
cl
fill
grestore
0 setlinejoin
0 setlinecap
0.800 setgray
gsave
17.7 15.7 m
172.04375 15.7 l
173.377083 15.7 174.04375 16.366667 174.04375 17.7 c
174.04375 134.075 l
174.04375 135.408333 173.377083 136.075 172.04375 136.075 c
17.7 136.075 l
16.366667 136.075 15.7 135.408333 15.7 134.075 c
15.7 17.7 l
15.7 16.366667 16.366667 15.7 17.7 15.7 c
cl
gsave
1.000 setgray
fill
grestore
stroke
grestore
1 setlinejoin
0.000 setgray
gsave
/o {
gsave
newpath
translate
1.0 setlinewidth
1 setlinejoin
0 setlinecap
0 -2.5 m
0.663008 -2.5 1.29895 -2.236584 1.767767 -1.767767 c
2.236584 -1.29895 2.5 -0.663008 2.5 0 c
2.5 0.663008 2.236584 1.29895 1.767767 1.767767 c
1.29895 2.236584 0.663008 2.5 0 2.5 c
-0.663008 2.5 -1.29895 2.236584 -1.767767 1.767767 c
-2.236584 1.29895 -2.5 0.663008 -2.5 0 c
-2.5 -0.663008 -2.236584 -1.29895 -1.767767 -1.767767 c
-1.29895 -2.236584 -0.663008 -2.5 0 -2.5 c
cl

gsave
0.000 setgray
fill
grestore
stroke
grestore
} bind def
29.7 127.981 o
grestore
/DejaVuSans findfont
10.000 scalefont
setfont
gsave
47.700000 124.481250 translate
0.000000 rotate
0.000000 0 m /p glyphshow
6.347656 0 m /a glyphshow
12.475586 0 m /r glyphshow
16.586914 0 m /t glyphshow
20.507812 0 m /i glyphshow
23.286133 0 m /c glyphshow
28.784180 0 m /l glyphshow
31.562500 0 m /e glyphshow
grestore
0 setlinejoin
gsave
/o {
gsave
newpath
translate
1.0 setlinewidth
0 setlinejoin
0 setlinecap
0 5 m
-5 -5 l
5 -5 l
cl

gsave
0.000 setgray
fill
grestore
stroke
grestore
} bind def
29.7 113.309 o
grestore
gsave
47.700000 109.809375 translate
0.000000 rotate
0.000000 0 m /p glyphshow
6.347656 0 m /a glyphshow
12.475586 0 m /r glyphshow
16.586914 0 m /t glyphshow
20.507812 0 m /i glyphshow
23.286133 0 m /c glyphshow
28.784180 0 m /l glyphshow
31.562500 0 m /e glyphshow
37.714844 0 m /space glyphshow
40.893555 0 m /b glyphshow
47.241211 0 m /e glyphshow
53.393555 0 m /s glyphshow
58.603516 0 m /t glyphshow
grestore
2 setlinejoin
gsave
/o {
gsave
newpath
translate
1.0 setlinewidth
2 setlinejoin
0 setlinecap
0 5 m
-1.12257 1.545085 l
-4.755283 1.545085 l
-1.816356 -0.59017 l
-2.938926 -4.045085 l
-0 -1.90983 l
2.938926 -4.045085 l
1.816356 -0.59017 l
4.755283 1.545085 l
1.12257 1.545085 l
cl

gsave
0.000 setgray
fill
grestore
stroke
grestore
} bind def
29.7 98.6375 o
grestore
gsave
47.700000 95.137500 translate
0.000000 rotate
0.000000 0 m /g glyphshow
6.347656 0 m /l glyphshow
9.125977 0 m /o glyphshow
15.244141 0 m /b glyphshow
21.591797 0 m /a glyphshow
27.719727 0 m /l glyphshow
30.498047 0 m /space glyphshow
33.676758 0 m /b glyphshow
40.024414 0 m /e glyphshow
46.176758 0 m /s glyphshow
51.386719 0 m /t glyphshow
grestore
1.500 setlinewidth
1 setlinejoin
[5.55 2.4] 0 setdash
gsave
19.7 83.965625 m
39.7 83.965625 l
stroke
grestore
gsave
47.700000 80.465625 translate
0.000000 rotate
0.000000 0 m /v glyphshow
5.917969 0 m /e glyphshow
12.070312 0 m /l glyphshow
14.848633 0 m /o glyphshow
20.966797 0 m /c glyphshow
26.464844 0 m /i glyphshow
29.243164 0 m /t glyphshow
33.164062 0 m /y glyphshow
39.082031 0 m /space glyphshow
42.260742 0 m /c glyphshow
47.758789 0 m /o glyphshow
53.876953 0 m /m glyphshow
63.618164 0 m /p glyphshow
69.965820 0 m /o glyphshow
76.083984 0 m /n glyphshow
82.421875 0 m /e glyphshow
88.574219 0 m /n glyphshow
94.912109 0 m /t glyphshow
grestore
[1.5 2.475] 0 setdash
gsave
19.7 69.29375 m
39.7 69.29375 l
stroke
grestore
gsave
47.700000 65.793750 translate
0.000000 rotate
0.000000 0 m /p glyphshow
6.347656 0 m /a glyphshow
12.475586 0 m /r glyphshow
16.586914 0 m /t glyphshow
20.507812 0 m /i glyphshow
23.286133 0 m /c glyphshow
28.784180 0 m /l glyphshow
31.562500 0 m /e glyphshow
37.714844 0 m /space glyphshow
40.893555 0 m /b glyphshow
47.241211 0 m /e glyphshow
53.393555 0 m /s glyphshow
58.603516 0 m /t glyphshow
62.524414 0 m /space glyphshow
65.703125 0 m /c glyphshow
71.201172 0 m /o glyphshow
77.319336 0 m /m glyphshow
87.060547 0 m /p glyphshow
93.408203 0 m /o glyphshow
99.526367 0 m /n glyphshow
105.864258 0 m /e glyphshow
112.016602 0 m /n glyphshow
118.354492 0 m /t glyphshow
grestore
[9.6 2.4 1.5 2.4] 0 setdash
gsave
19.7 54.621875 m
39.7 54.621875 l
stroke
grestore
gsave
47.700000 51.121875 translate
0.000000 rotate
0.000000 0 m /s glyphshow
5.209961 0 m /w glyphshow
13.388672 0 m /a glyphshow
19.516602 0 m /r glyphshow
23.502930 0 m /m glyphshow
33.244141 0 m /space glyphshow
36.422852 0 m /b glyphshow
42.770508 0 m /e glyphshow
48.922852 0 m /s glyphshow
54.132812 0 m /t glyphshow
58.053711 0 m /space glyphshow
61.232422 0 m /c glyphshow
66.730469 0 m /o glyphshow
72.848633 0 m /m glyphshow
82.589844 0 m /p glyphshow
88.937500 0 m /o glyphshow
95.055664 0 m /n glyphshow
101.393555 0 m /e glyphshow
107.545898 0 m /n glyphshow
113.883789 0 m /t glyphshow
grestore
2 setlinecap
[] 0 setdash
gsave
19.7 39.95 m
39.7 39.95 l
stroke
grestore
gsave
47.700000 36.450000 translate
0.000000 rotate
0.000000 0 m /n glyphshow
6.337891 0 m /e glyphshow
12.490234 0 m /w glyphshow
20.668945 0 m /space glyphshow
23.847656 0 m /v glyphshow
29.765625 0 m /e glyphshow
35.917969 0 m /l glyphshow
38.696289 0 m /o glyphshow
44.814453 0 m /c glyphshow
50.312500 0 m /i glyphshow
53.090820 0 m /t glyphshow
57.011719 0 m /y glyphshow
grestore
1.000 setlinewidth
0 setlinecap
gsave
29.7 21.903125 m
30.363008 21.903125 30.99895 22.166541 31.467767 22.635358 c
31.936584 23.104175 32.2 23.740117 32.2 24.403125 c
32.2 25.066133 31.936584 25.702075 31.467767 26.170892 c
30.99895 26.639709 30.363008 26.903125 29.7 26.903125 c
29.036992 26.903125 28.40105 26.639709 27.932233 26.170892 c
27.463416 25.702075 27.2 25.066133 27.2 24.403125 c
27.2 23.740117 27.463416 23.104175 27.932233 22.635358 c
28.40105 22.166541 29.036992 21.903125 29.7 21.903125 c
cl
stroke
grestore
gsave
47.700000 21.778125 translate
0.000000 rotate
0.000000 0 m /n glyphshow
6.337891 0 m /e glyphshow
12.490234 0 m /w glyphshow
20.668945 0 m /space glyphshow
23.847656 0 m /p glyphshow
30.195312 0 m /a glyphshow
36.323242 0 m /r glyphshow
40.434570 0 m /t glyphshow
44.355469 0 m /i glyphshow
47.133789 0 m /c glyphshow
52.631836 0 m /l glyphshow
55.410156 0 m /e glyphshow
grestore

end
showpage
